label,x,y
Tokyo,-871,-459
Osaka,-761,-553
Dhaka,-349,-551
Mexico City,52,-745
Beijing,237,-832
Shanghai,440,-279
New York,773,-505
Buenos Aires,944,-365
Mumbai,839,920
Cairo,-498,960
Karachi,-619,765
Delhi,-247,-39
São Paulo,-161,-266
