label,x,y
Tokyo,376,420
Karachi,422,622
Tianjin,348,839
Kolkata,505,970
New York,440,876
Chongqing,646,518
Delhi,726,330
Beijing,625,-60
Lagos,300,-56
Rio de Janeiro,400,-812
São Paulo,-112,-595
Shanghai,-985,-830
Cairo,-646,-154
Dhaka,-504,-65
Mexico City,-561,356
Buenos Aires,-778,502
Mumbai,-944,808
Osaka,-509,873
Istanbul,-406,508
Manila,-71,231
