label,x,y
Tokyo,335,984
Delhi,545,622
São Paulo,762,527
Buenos Aires,178,63
Dhaka,5,-152
Mexico City,172,-262
Cairo,721,-837
Istanbul,-328,-822
Chongqing,-688,-92
Karachi,-803,35
New York,-971,460
Beijing,-464,478
Osaka,-489,796
Mumbai,-537,912
Shanghai,-283,893
