label,x,y
Tokyo,-807,-532
Chongqing,-743,-359
Buenos Aires,-497,-415
Manila,-291,142
Mexico City,-570,378
Osaka,-529,396
Delhi,-385,896
Dhaka,183,489
Mumbai,245,43
São Paulo,809,170
Cairo,940,155
Rio de Janeiro,948,-873
Shanghai,297,-194
Beijing,18,-329
Karachi,-53,-588
New York,-272,-530
Kolkata,-472,-579
Lagos,-683,-994
Istanbul,-771,-759
