label,x,y
Tokyo,18,-715
São Paulo,-69,-756
Delhi,-699,-851
New York,-159,-281
Tianjin,66,-126
Cairo,-122,169
Istanbul,-291,105
Karachi,-811,299
Buenos Aires,-749,699
Mexico City,-72,384
Osaka,208,930
Shanghai,433,796
Chongqing,916,891
Kolkata,849,727
Dhaka,686,141
Lagos,876,-178
Rio de Janeiro,946,-193
Mumbai,999,-895
Beijing,651,-986
Manila,389,-849
