label,x,y
Tokyo,-121,437
Karachi,428,182
Osaka,837,-347
Cairo,627,-647
New York,579,-967
Beijing,106,-408
São Paulo,-393,-404
Dhaka,-825,-391
Delhi,-790,-25
Shanghai,-803,612
Mexico City,-892,685
Mumbai,-573,335
