label,x,y
Tokyo,-963,-634
Delhi,-723,-563
Chongqing,-623,-459
Osaka,140,-640
Beijing,532,-967
Dhaka,322,-556
Mexico City,457,-347
Buenos Aires,306,-231
Karachi,351,-56
Manila,517,-208
Shanghai,653,-192
Lagos,805,171
São Paulo,606,309
Rio de Janeiro,600,412
Istanbul,332,152
Cairo,-151,537
Mumbai,-251,506
Kolkata,-485,368
Tianjin,-519,57
New York,-716,-295
