label,x,y
Tokyo,310,789
Osaka,453,776
Manila,917,981
Delhi,934,457
Karachi,866,-683
Mumbai,723,-930
Chongqing,204,-612
Beijing,-157,-585
Istanbul,-577,-872
Dhaka,-862,-279
Cairo,-962,311
Kolkata,-952,732
Buenos Aires,-810,499
Mexico City,-338,102
New York,-31,-243
Shanghai,140,0
São Paulo,125,44
