label,x,y
Tokyo,-121,-385
Dhaka,-62,-500
São Paulo,303,-601
Beijing,582,-956
Mumbai,803,-286
New York,253,518
Cairo,-497,778
Delhi,-808,579
Shanghai,-942,576
Mexico City,-948,519
Osaka,-450,360
Karachi,-338,-325
