label,x,y
Tokyo,147,-815
Cairo,543,-763
Shanghai,286,249
Dhaka,210,574
Buenos Aires,719,882
New York,731,983
Beijing,379,885
Manila,109,861
Mumbai,-196,864
Osaka,-143,650
Rio de Janeiro,110,561
Chongqing,189,182
Istanbul,-134,-75
Delhi,-188,-82
São Paulo,-369,-124
Mexico City,-332,-184
Lagos,-69,-605
Karachi,104,-772
Kolkata,49,-987
