label,x,y
Tokyo,-479,55
Mumbai,-715,-456
New York,-508,-550
Beijing,-656,-733
Cairo,-419,-823
Buenos Aires,-191,-641
São Paulo,203,-579
Chongqing,331,-519
Dhaka,561,477
Delhi,241,610
Mexico City,384,832
Karachi,-24,858
Shanghai,-431,272
Osaka,-295,33
