label,x,y
Tokyo,920,-608
Dhaka,602,-575
Mexico City,507,-324
Istanbul,574,-46
Manila,346,79
New York,931,804
Buenos Aires,60,859
Kolkata,7,495
Chongqing,-255,276
Beijing,-183,460
Karachi,-594,803
São Paulo,-750,180
Delhi,-928,-106
Lagos,-611,-629
Cairo,-207,-276
Shanghai,25,-139
Osaka,304,-705
Mumbai,526,-906
