label,x,y
Tokyo,-18,-547
Karachi,385,-974
Beijing,660,-806
Dhaka,496,-139
Istanbul,208,-132
Mexico City,-149,-92
Buenos Aires,-352,351
Chongqing,256,388
São Paulo,-139,925
Mumbai,-518,867
Cairo,-953,578
New York,-729,230
Delhi,-974,-106
Osaka,-487,-320
Shanghai,-649,-785
Kolkata,-100,-809
