label,x,y
Tokyo,799,-1
Cairo,378,164
Mexico City,318,52
Chongqing,-242,-269
Dhaka,-458,-629
Shanghai,-590,-315
São Paulo,-785,-315
New York,-648,-247
Delhi,-504,282
Kolkata,-735,664
Buenos Aires,-290,692
Beijing,250,958
Mumbai,346,931
Osaka,505,796
Karachi,784,437
Istanbul,864,218
