label,x,y
Tokyo,452,-179
São Paulo,542,-9
Istanbul,698,988
Mumbai,402,-16
Delhi,-4,48
Mexico City,-586,-150
Beijing,-694,88
Dhaka,-815,582
Kolkata,-863,151
New York,-667,-156
Shanghai,-664,-358
Cairo,-537,-449
Karachi,-445,-354
Osaka,-384,-432
Chongqing,303,-387
Buenos Aires,546,-447
