label,x,y
Tokyo,-917,565
Istanbul,-176,541
São Paulo,106,619
Shanghai,539,914
Beijing,744,937
Karachi,376,203
New York,675,185
Kolkata,847,-93
Chongqing,930,-655
Osaka,695,-481
Mumbai,151,-682
Buenos Aires,168,-888
Cairo,-260,-843
Dhaka,-304,-878
Delhi,-776,-130
Mexico City,-971,439
