label,x,y
Tokyo,701,892
São Paulo,723,-406
Mumbai,698,-752
New York,248,-617
Beijing,202,-513
Mexico City,-115,-862
Shanghai,-451,-979
Osaka,-532,-953
Dhaka,-795,-112
Delhi,-762,34
Cairo,-847,539
Karachi,-537,225
