label,x,y
Tokyo,-907,-648
Mumbai,-738,-58
Manila,-517,32
Dhaka,-943,554
Chongqing,-860,952
Mexico City,260,450
Delhi,382,536
Buenos Aires,789,850
Kolkata,650,513
Karachi,509,187
Cairo,505,-17
Shanghai,988,-159
Istanbul,420,-868
Osaka,373,-950
New York,114,-772
Lagos,49,-528
São Paulo,59,-750
Beijing,-420,-996
