label,x,y
Tokyo,-545,234
Beijing,-981,743
Mexico City,-873,927
Mumbai,-729,938
São Paulo,-187,997
Delhi,125,-35
Shanghai,575,370
Buenos Aires,870,559
Istanbul,636,135
Chongqing,933,-622
Kolkata,946,-908
Dhaka,792,-949
Cairo,676,-985
New York,688,-762
Karachi,16,-504
Osaka,-651,-929
Manila,-631,72
