label,x,y
Tokyo,102,-4
Delhi,308,4
Karachi,587,140
New York,997,221
Beijing,963,-420
Mumbai,725,-615
São Paulo,201,-999
Chongqing,-409,-646
Cairo,-873,-328
Dhaka,-826,-299
Buenos Aires,-654,-200
Mexico City,-277,258
Shanghai,-313,553
Osaka,137,730
