label,x,y
Tokyo,-716,346
Mumbai,-725,-325
Osaka,-880,-506
Buenos Aires,-938,-824
Istanbul,-315,-913
Cairo,-227,-608
Mexico City,-150,-344
Shanghai,191,-526
Dhaka,836,-547
Delhi,516,-187
Chongqing,433,-72
São Paulo,590,-68
Beijing,778,172
Karachi,-61,807
New York,-316,395
