label,x,y
Tokyo,-514,-581
São Paulo,-415,-751
Kolkata,-262,-636
Shanghai,656,-780
Osaka,971,-445
Beijing,814,294
Mumbai,702,704
Istanbul,878,895
Lagos,752,970
Buenos Aires,421,814
Dhaka,542,612
Delhi,195,388
New York,104,467
Manila,-686,933
Karachi,-705,583
Mexico City,-963,425
Cairo,-815,-142
Chongqing,-729,-222
Rio de Janeiro,-847,-663
Tianjin,-781,-810
