label,x,y
Tokyo,504,-36
Karachi,585,-155
Beijing,450,-836
Dhaka,-719,-791
New York,-795,-409
Delhi,-954,-165
Istanbul,-484,-157
Mexico City,-614,461
São Paulo,-495,573
Mumbai,-353,605
Buenos Aires,-89,463
Shanghai,32,670
Cairo,129,410
Osaka,500,232
Chongqing,694,180
