label,x,y
Tokyo,794,-941
São Paulo,803,-709
Cairo,879,-84
Shanghai,926,328
Mexico City,386,763
Osaka,321,798
New York,-157,947
Chongqing,-98,856
Beijing,-290,125
Buenos Aires,-718,-422
Istanbul,-990,-591
Dhaka,-919,-536
Delhi,-420,-758
Mumbai,-42,-593
Karachi,123,-392
