label,x,y
Tokyo,-96,923
Mumbai,-881,886
Cairo,-921,-348
New York,-882,-369
Beijing,119,367
Karachi,413,-12
São Paulo,496,-72
Osaka,232,351
Delhi,536,607
Mexico City,989,576
Dhaka,957,844
Shanghai,602,700
Buenos Aires,317,723
