label,x,y
Tokyo,-510,-142
Mumbai,-582,-135
Beijing,-912,12
Dhaka,-733,-269
São Paulo,-811,-613
Chongqing,-510,-283
Mexico City,269,-948
New York,788,-601
Shanghai,828,-165
Delhi,611,-186
Osaka,494,22
Cairo,15,32
Buenos Aires,-121,966
Karachi,-318,676
