label,x,y
Tokyo,67,683
São Paulo,332,931
Buenos Aires,578,918
Cairo,968,949
Karachi,469,289
Delhi,313,-223
Beijing,-5,-870
Osaka,-654,-795
Mexico City,-416,-387
Shanghai,-516,335
New York,-834,375
Mumbai,-948,787
Dhaka,-543,512
