label,x,y
Tokyo,927,723
Dhaka,997,-18
Osaka,454,-165
Shanghai,475,-545
São Paulo,460,-567
New York,103,-658
Mumbai,13,-737
Istanbul,-41,-675
Karachi,-414,-921
Buenos Aires,-304,-613
Delhi,-20,-296
Kolkata,-12,-113
Cairo,-885,72
Chongqing,-110,513
Mexico City,-65,377
Beijing,16,319
