label,x,y
Tokyo,-490,-908
São Paulo,-340,-273
Buenos Aires,-10,145
Mexico City,88,-288
New York,660,-723
Delhi,625,-433
Chongqing,637,380
Istanbul,286,431
Kolkata,-133,796
Shanghai,-806,914
Cairo,-883,890
Beijing,-871,644
Dhaka,-713,518
Karachi,-478,75
Mumbai,-668,-287
Osaka,-852,-390
