label,x,y
Tokyo,974,-516
Delhi,859,-714
Cairo,424,-752
New York,-333,-946
São Paulo,-643,-957
Osaka,-779,-891
Mexico City,-395,-414
Dhaka,-400,292
Chongqing,-998,682
Karachi,-139,971
Buenos Aires,418,450
Shanghai,998,629
Beijing,215,34
Mumbai,432,-5
