label,x,y
Tokyo,700,869
Cairo,728,852
Rio de Janeiro,645,626
Beijing,172,424
Karachi,176,71
Osaka,695,-57
Shanghai,420,-521
Dhaka,-19,-605
Istanbul,-75,-474
Delhi,-294,-556
New York,-359,-303
Kolkata,-539,-375
Chongqing,-983,-417
Mumbai,-876,-188
Manila,-604,167
São Paulo,-442,205
Mexico City,-643,905
Lagos,68,815
Buenos Aires,514,701
