label,x,y
Tokyo,-768,924
Shanghai,-396,623
Osaka,-310,199
Kolkata,-317,184
Mumbai,118,167
Delhi,751,709
São Paulo,737,485
New York,936,82
Beijing,430,18
Chongqing,345,7
Buenos Aires,277,-652
Istanbul,-47,-887
Lagos,-107,-359
Karachi,-707,-550
Manila,-963,-566
Cairo,-952,-434
Dhaka,-954,541
Mexico City,-784,942
