label,x,y
Tokyo,-804,-260
Delhi,-698,-258
Rio de Janeiro,-306,-659
Lagos,-461,-930
Dhaka,423,-931
Istanbul,601,-937
Buenos Aires,510,-577
Cairo,806,-489
São Paulo,801,116
Shanghai,267,308
New York,207,744
Mumbai,491,893
Kolkata,83,797
Manila,-197,385
Karachi,-244,395
Beijing,-693,640
Osaka,-854,909
Mexico City,-776,597
Chongqing,-923,223
