label,x,y
Tokyo,672,103
Delhi,866,572
Beijing,912,-47
São Paulo,956,-388
Shanghai,541,-370
Buenos Aires,-44,-980
New York,-959,-771
Osaka,-890,285
Mumbai,-528,9
Karachi,-261,-345
Dhaka,-55,-105
Mexico City,9,-81
Cairo,215,-71
