label,x,y
Tokyo,368,903
Shanghai,674,442
New York,761,308
Mexico City,874,173
Beijing,966,-90
Istanbul,321,128
Chongqing,337,-37
São Paulo,-53,-344
Cairo,259,-578
Mumbai,223,-787
Karachi,-362,-960
Dhaka,-458,-621
Delhi,-350,-518
Kolkata,-578,-310
Osaka,-642,505
Buenos Aires,-305,385
