label,x,y
Tokyo,468,785
Osaka,482,295
Delhi,-370,22
Shanghai,-900,455
Mumbai,-662,-184
Beijing,-387,-297
Dhaka,175,-107
São Paulo,777,-457
Cairo,764,-28
New York,736,89
Mexico City,885,210
Karachi,907,361
