label,x,y
Tokyo,301,334
Beijing,356,468
Dhaka,-180,689
Manila,-382,441
Rio de Janeiro,-562,500
Chongqing,-661,374
Shanghai,-323,-3
Cairo,-557,36
Delhi,-893,36
Karachi,-914,-337
Mumbai,-980,-453
Tianjin,-773,-922
New York,-188,-563
Buenos Aires,-230,-202
Kolkata,334,-189
Osaka,931,-822
São Paulo,653,-68
Lagos,847,294
Mexico City,639,382
Istanbul,510,283
