label,x,y
Tokyo,-813,-226
New York,-735,-469
Beijing,-367,-618
Dhaka,-357,-689
Rio de Janeiro,-289,-691
Istanbul,103,-816
Mexico City,363,-879
Tianjin,747,-926
Osaka,699,-877
Karachi,470,-169
São Paulo,767,-14
Kolkata,841,290
Shanghai,803,948
Cairo,376,463
Chongqing,-350,917
Delhi,-80,252
Mumbai,38,239
Manila,-42,-238
Buenos Aires,-79,-450
Lagos,-458,-239
