label,x,y
Tokyo,-293,-619
Karachi,-328,-904
Beijing,-636,-607
Manila,-783,56
Lagos,-912,619
New York,-7,615
Mumbai,62,705
Chongqing,143,874
Osaka,701,897
Rio de Janeiro,824,797
Istanbul,661,836
Delhi,186,720
Dhaka,10,534
Shanghai,402,-231
Tianjin,673,-193
Cairo,903,-475
Kolkata,870,-632
São Paulo,710,-945
Buenos Aires,594,-896
Mexico City,-17,-673
