label,x,y
Tokyo,-313,86
Chongqing,-554,281
Cairo,-571,637
Delhi,-280,303
Manila,206,624
Shanghai,298,974
Osaka,437,872
New York,598,708
Karachi,496,201
Beijing,621,-403
Mumbai,488,-455
São Paulo,159,-380
Buenos Aires,133,-839
Mexico City,-210,-872
Istanbul,-676,-879
Dhaka,-299,-430
Kolkata,-96,10
