label,x,y
Tokyo,-318,843
Dhaka,-824,618
Cairo,-392,449
Mumbai,-356,52
Mexico City,-449,-343
Beijing,-813,-419
Osaka,-706,-835
Delhi,-123,-829
New York,-554,-526
Shanghai,-445,-340
Karachi,-216,315
Chongqing,130,263
São Paulo,742,418
Buenos Aires,-37,873
