label,x,y
Tokyo,845,247
New York,779,254
Mumbai,398,375
Cairo,764,789
Chongqing,190,856
Mexico City,-561,834
Osaka,-638,964
Delhi,-434,754
Buenos Aires,-351,-111
Beijing,-252,-561
São Paulo,-341,-889
Shanghai,122,-751
Dhaka,197,-332
Karachi,656,-184
