label,x,y
Tokyo,-746,-932
New York,-428,-914
Istanbul,-300,-824
Cairo,81,-561
Tianjin,409,-781
Rio de Janeiro,612,-664
Osaka,795,-386
Kolkata,397,-46
Shanghai,555,239
São Paulo,778,610
Buenos Aires,165,958
Karachi,-70,846
Delhi,-23,603
Lagos,-443,798
Mumbai,-813,821
Chongqing,-479,475
Dhaka,-209,181
Beijing,-123,-18
Mexico City,-394,-447
Manila,-756,-626
