label,x,y
Tokyo,-450,-709
São Paulo,-187,-509
Shanghai,388,-960
Karachi,665,58
New York,295,461
Buenos Aires,319,758
Osaka,-247,735
Cairo,-859,879
Delhi,-649,736
Beijing,-505,27
Dhaka,-452,-153
Mumbai,-698,-445
Mexico City,-993,-932
