label,x,y
Tokyo,480,-153
Osaka,576,-391
Mexico City,606,-441
Cairo,925,-177
Shanghai,746,120
Dhaka,575,472
New York,414,620
Istanbul,289,871
Beijing,172,725
Buenos Aires,7,222
Karachi,-144,148
Mumbai,-783,626
Kolkata,-767,-230
São Paulo,-550,-602
Delhi,-365,-163
Chongqing,-182,-295
