label,x,y
Tokyo,-58,-450
Delhi,-126,-970
Karachi,38,-903
Manila,405,-941
Kolkata,185,-554
Istanbul,504,-144
Buenos Aires,807,80
Mexico City,425,614
Dhaka,324,710
Tianjin,103,998
Mumbai,-304,784
Osaka,-556,869
Lagos,-524,538
Rio de Janeiro,-427,353
São Paulo,-123,564
Chongqing,124,270
Cairo,-273,68
New York,-390,100
Shanghai,-867,-486
Beijing,-839,-515
