label,x,y
Tokyo,-45,303
Shanghai,-299,612
Osaka,-666,816
Chongqing,-416,186
Kolkata,-270,101
Delhi,-96,-398
Mexico City,-344,-546
Buenos Aires,-636,-723
Istanbul,-854,-954
Cairo,-621,-854
New York,-201,-885
Mumbai,569,-551
São Paulo,850,-740
Karachi,763,139
Dhaka,372,965
Beijing,286,645
