label,x,y
Tokyo,-935,930
Mumbai,-898,990
Lagos,-677,955
Delhi,-618,822
Mexico City,-254,929
Dhaka,-495,555
São Paulo,-113,-223
Manila,246,-10
Rio de Janeiro,449,210
Karachi,608,88
Beijing,388,-135
Cairo,767,-697
Buenos Aires,343,-578
Tianjin,-268,-805
Osaka,-312,-839
Shanghai,-291,-541
Kolkata,-392,-500
Chongqing,-425,-362
Istanbul,-564,316
New York,-823,617
