label,x,y
Tokyo,647,-419
Delhi,370,-799
Beijing,144,-534
Dhaka,-542,-458
Cairo,-836,-983
Mexico City,-821,-589
Buenos Aires,-828,314
New York,-613,250
Shanghai,-144,450
São Paulo,-206,603
Osaka,-119,779
Mumbai,-39,464
Karachi,679,106
