label,x,y
Tokyo,-131,712
Cairo,-604,978
Manila,-704,981
Osaka,-810,636
Mexico City,-865,134
Karachi,-822,-141
Mumbai,-602,-391
Kolkata,-865,-811
São Paulo,-851,-889
Chongqing,-517,-480
Shanghai,-58,120
Istanbul,319,-416
Buenos Aires,395,-151
Beijing,682,538
New York,722,558
Delhi,847,879
Dhaka,520,824
