label,x,y
Tokyo,-639,917
New York,-701,899
Buenos Aires,-890,949
Mumbai,-894,629
São Paulo,-875,360
Cairo,-861,-49
Dhaka,-769,-943
Beijing,-489,-782
Delhi,91,-575
Manila,143,-373
Karachi,199,-506
Osaka,846,-751
Rio de Janeiro,870,-962
Mexico City,743,-461
Kolkata,535,488
Lagos,912,935
Chongqing,646,593
Tianjin,295,614
Istanbul,128,225
Shanghai,-207,244
