label,x,y
Tokyo,887,756
São Paulo,526,-192
Beijing,625,-401
Mumbai,265,-524
Karachi,-106,-517
Delhi,-450,-721
Dhaka,-667,-256
Mexico City,-922,177
New York,-394,-267
Cairo,-305,-245
Shanghai,-32,-127
Osaka,277,-117
Buenos Aires,-28,677
