label,x,y
Tokyo,-620,640
São Paulo,-762,350
Osaka,-362,155
Buenos Aires,14,-555
New York,25,-830
Cairo,204,-511
Mexico City,403,-543
Beijing,338,-247
Mumbai,803,-153
Delhi,827,965
Karachi,-52,487
Shanghai,-132,672
Dhaka,-587,885
