label,x,y
Tokyo,602,508
Chongqing,387,145
Shanghai,317,-131
Mumbai,599,-371
Mexico City,549,-841
Buenos Aires,520,-836
São Paulo,-245,-844
Delhi,-907,-930
Beijing,-673,143
Istanbul,-790,205
Dhaka,-606,381
Cairo,-495,297
New York,-622,425
Osaka,-592,945
Karachi,-217,889
