label,x,y
Tokyo,-194,195
Buenos Aires,152,23
Mumbai,140,367
Istanbul,63,607
Beijing,-279,830
Kolkata,315,869
Chongqing,553,777
Karachi,815,120
New York,615,-437
Osaka,915,-807
Cairo,913,-929
Mexico City,902,-916
Delhi,825,-780
Dhaka,358,-361
São Paulo,312,-333
Shanghai,-576,-772
