label,x,y
Tokyo,383,-376
Beijing,387,78
Delhi,276,230
Mexico City,349,232
Buenos Aires,977,305
São Paulo,790,980
Cairo,466,989
Manila,165,422
Mumbai,-588,856
Osaka,-554,442
Kolkata,-854,-541
Shanghai,-826,-938
Karachi,-575,-536
Chongqing,-181,-426
Istanbul,75,-458
Dhaka,501,-699
New York,781,-705
