label,x,y
Tokyo,-352,-506
Beijing,-582,-743
New York,-978,-888
Chongqing,-814,-358
Karachi,-849,164
São Paulo,-752,522
Cairo,-476,447
Buenos Aires,106,979
Osaka,928,937
Delhi,553,-503
Dhaka,583,-788
Mumbai,66,-699
Mexico City,-176,-175
Istanbul,-84,-9
Shanghai,-333,-396
