label,x,y
Tokyo,176,-575
Delhi,131,-995
Mumbai,-371,-832
Karachi,-810,-799
Cairo,-892,-326
Shanghai,-580,-287
Istanbul,-816,203
Kolkata,-837,359
Dhaka,-536,113
Mexico City,-213,134
Buenos Aires,141,-8
New York,847,995
Osaka,831,675
Chongqing,712,-374
Beijing,929,-969
São Paulo,716,-687
