label,x,y
Tokyo,-37,422
São Paulo,309,525
Buenos Aires,838,492
Osaka,133,123
Karachi,612,-775
Beijing,739,-871
Cairo,-86,-712
Shanghai,-796,-50
Delhi,-674,188
Mumbai,-918,331
Dhaka,-930,791
Mexico City,-899,798
New York,-243,861
