label,x,y
Tokyo,674,-658
São Paulo,814,-856
Kolkata,171,-919
Mexico City,254,-676
Shanghai,120,-374
Beijing,197,-264
Cairo,25,-398
New York,-584,-666
Rio de Janeiro,-519,399
Osaka,-675,614
Buenos Aires,-833,990
Istanbul,-593,472
Delhi,-316,503
Chongqing,183,338
Dhaka,345,745
Manila,813,855
Karachi,998,721
Mumbai,997,669
Lagos,584,-67
