label,x,y
Tokyo,855,356
Cairo,-35,578
Shanghai,-371,454
Osaka,-743,540
Delhi,-715,-45
Mexico City,-621,-304
Karachi,-862,-894
São Paulo,-385,-733
Beijing,-26,-198
Mumbai,142,-367
New York,227,-907
Dhaka,971,-981
