label,x,y
Tokyo,853,-193
Buenos Aires,555,-232
Dhaka,589,-702
Delhi,408,-440
Osaka,19,-388
New York,119,-802
São Paulo,-466,-826
Mumbai,-955,-974
Shanghai,-653,20
Karachi,-438,56
Cairo,-277,690
Beijing,274,100
Mexico City,913,122
