label,x,y
Tokyo,-38,-650
Delhi,542,-616
Osaka,762,-522
São Paulo,771,400
Mumbai,887,604
Karachi,632,748
Shanghai,548,746
Dhaka,476,740
Cairo,272,669
New York,64,-205
Mexico City,-424,-268
Beijing,-889,-784
