label,x,y
Tokyo,285,854
Mexico City,317,255
Mumbai,704,302
Beijing,715,-15
Cairo,700,-149
Lagos,628,-902
Manila,278,-225
Chongqing,128,-357
Rio de Janeiro,25,-525
Shanghai,-181,-750
New York,-994,-504
Buenos Aires,-833,239
Osaka,-727,316
Delhi,-671,841
Kolkata,-553,786
Istanbul,-498,424
Dhaka,-172,20
São Paulo,-153,321
Karachi,234,980
