label,x,y
Tokyo,200,819
Cairo,295,882
Shanghai,178,909
Beijing,15,834
Mexico City,-296,807
Osaka,-588,877
Chongqing,-538,704
Delhi,-820,189
Dhaka,-826,148
Karachi,-400,125
New York,-256,-141
Buenos Aires,213,-128
São Paulo,880,-967
Mumbai,122,40
