label,x,y
Tokyo,187,-483
São Paulo,183,-352
Mexico City,131,790
Shanghai,-500,702
Dhaka,-629,622
New York,-731,441
Mumbai,-812,304
Buenos Aires,-851,-101
Chongqing,-954,-174
Istanbul,-587,-104
Beijing,-52,-447
Osaka,64,-994
Delhi,463,-984
Karachi,467,-807
Cairo,326,-758
