label,x,y
Tokyo,-598,850
São Paulo,-388,655
Shanghai,208,685
Cairo,-147,212
Delhi,-14,154
Chongqing,-5,-292
Buenos Aires,255,-226
Beijing,520,97
New York,581,50
Karachi,758,-695
Dhaka,65,-842
Mumbai,-152,-625
Osaka,-601,-211
Mexico City,-671,159
