label,x,y
Tokyo,-726,437
Lagos,-704,177
Mexico City,-723,-202
New York,-559,-592
Delhi,-876,-791
Karachi,-375,-924
Kolkata,-200,-913
Cairo,565,-871
Istanbul,812,-831
São Paulo,70,-539
Beijing,-14,-241
Chongqing,162,73
Manila,606,-77
Osaka,985,183
Buenos Aires,786,379
Dhaka,652,410
Shanghai,571,835
Mumbai,-485,920
