label,x,y
Tokyo,-820,-565
Delhi,-792,-755
Mexico City,-657,-868
Mumbai,-469,-483
Tianjin,-247,-258
Chongqing,332,-260
Beijing,801,-706
Dhaka,862,-886
Karachi,817,-309
Cairo,427,267
Lagos,231,239
São Paulo,423,513
Shanghai,158,534
Osaka,88,535
Istanbul,-193,646
Buenos Aires,-666,644
New York,-563,302
Kolkata,-343,-13
Rio de Janeiro,-600,-345
Manila,-919,-135
