label,x,y
Tokyo,14,299
Delhi,-61,433
Mexico City,136,896
Beijing,-226,541
New York,-701,977
Osaka,-374,613
Mumbai,-262,292
Buenos Aires,-510,325
Dhaka,-815,-296
Istanbul,5,-271
Shanghai,216,-929
Kolkata,960,-981
Chongqing,797,-491
Cairo,719,71
São Paulo,776,201
Karachi,529,102
