label,x,y
Tokyo,-120,-536
Dhaka,-25,-394
Buenos Aires,-202,-311
Mumbai,224,265
Beijing,-615,912
Cairo,401,776
Osaka,688,595
Delhi,958,695
São Paulo,933,146
New York,438,-768
Shanghai,511,-921
Mexico City,5,-672
Istanbul,-328,-915
Chongqing,-575,-624
Karachi,-234,-569
