label,x,y
Tokyo,-234,-481
Shanghai,167,-137
Mumbai,350,-476
Karachi,879,-953
Istanbul,977,-983
Kolkata,663,-257
São Paulo,532,34
Cairo,866,382
Lagos,817,703
Dhaka,181,461
Beijing,213,655
Chongqing,52,977
Buenos Aires,-314,934
Manila,-464,930
Mexico City,-514,937
New York,-639,246
Delhi,-733,74
Osaka,-641,-987
