label,x,y
Tokyo,679,-67
Mumbai,737,171
Dhaka,797,192
Delhi,656,306
Cairo,23,101
Mexico City,-245,106
New York,-538,315
São Paulo,-665,-234
Karachi,-551,-460
Shanghai,184,-391
Osaka,649,-668
Beijing,474,-373
