label,x,y
Tokyo,554,-198
Delhi,949,-67
Mumbai,351,-178
Mexico City,-64,-863
Cairo,-520,-825
Dhaka,-618,-608
Beijing,-288,-213
New York,-571,-87
Shanghai,-886,389
Manila,-429,84
São Paulo,-64,446
Buenos Aires,-20,594
Istanbul,358,768
Chongqing,277,537
Karachi,243,466
Osaka,183,363
Kolkata,134,-87
