label,x,y
Tokyo,872,73
Mexico City,535,72
São Paulo,427,146
Osaka,284,650
Mumbai,-243,854
Dhaka,-661,861
Beijing,-581,681
Karachi,-126,-70
Delhi,-402,-650
Buenos Aires,287,-418
Shanghai,267,-694
New York,488,-894
Cairo,704,-583
Chongqing,749,-119
