label,x,y
Tokyo,448,-812
Istanbul,369,-493
Beijing,188,-349
Mexico City,85,-163
Chongqing,-198,-455
Delhi,-120,-663
Dhaka,-326,-804
São Paulo,-859,-985
Mumbai,-681,-726
Buenos Aires,-775,-396
Kolkata,-802,-183
Osaka,-766,338
Cairo,-337,269
Manila,-306,77
Shanghai,-81,403
Karachi,536,518
New York,877,-449
