label,x,y
Tokyo,-270,46
Shanghai,143,-407
Karachi,-91,-945
Buenos Aires,477,-681
Cairo,794,45
Delhi,286,-40
Beijing,249,253
Osaka,221,875
Dhaka,-526,319
São Paulo,-950,326
Mexico City,-984,-113
New York,-871,56
Mumbai,-371,149
