label,x,y
Tokyo,458,-654
Mexico City,357,-628
Istanbul,341,-635
Mumbai,370,-855
Cairo,-624,-930
Chongqing,-564,-293
Buenos Aires,-483,-192
Kolkata,-463,-200
Osaka,-122,-156
Shanghai,72,45
New York,-452,484
Lagos,-773,782
Manila,-290,908
Rio de Janeiro,-47,677
Dhaka,340,782
Karachi,371,758
Delhi,372,427
São Paulo,450,234
Beijing,606,-220
