label,x,y
Tokyo,893,-54
Istanbul,404,-764
Delhi,75,-363
Chongqing,-358,-740
Dhaka,-382,-283
Shanghai,-622,-154
Buenos Aires,2,143
Beijing,-315,503
Osaka,-292,994
Cairo,-126,940
Mexico City,30,641
Karachi,340,454
Mumbai,598,544
São Paulo,704,740
New York,779,653
Kolkata,777,297
