label,x,y
Tokyo,-972,808
Delhi,-486,780
Buenos Aires,-115,635
São Paulo,49,39
Manila,390,345
Lagos,789,546
Istanbul,982,581
Karachi,881,-585
Mexico City,993,-836
Dhaka,793,-960
Osaka,114,-844
Kolkata,-169,-990
New York,-748,-989
Shanghai,-843,-755
Mumbai,-823,-520
Cairo,-454,-218
Beijing,-542,-67
Chongqing,-943,68
