label,x,y
Tokyo,867,-928
New York,208,-872
Cairo,-687,-984
São Paulo,-978,-32
Mexico City,-953,632
Beijing,-725,869
Buenos Aires,-701,384
Mumbai,-670,160
Osaka,-127,212
Rio de Janeiro,-36,668
Chongqing,20,975
Dhaka,121,829
Delhi,530,918
Lagos,646,766
Istanbul,861,898
Kolkata,843,728
Shanghai,797,591
Manila,969,373
Karachi,668,-749
