label,x,y
Tokyo,213,729
Shanghai,809,947
Delhi,43,918
Mumbai,-763,858
New York,-898,829
Istanbul,-762,355
Kolkata,-606,451
Osaka,-454,309
Dhaka,-308,86
Buenos Aires,-487,-140
Cairo,-815,-696
Beijing,-658,-917
Chongqing,-325,-422
São Paulo,-123,-241
Rio de Janeiro,385,-754
Mexico City,993,-430
Lagos,369,-107
Karachi,-133,35
Manila,84,437
