label,x,y
Tokyo,-950,-813
Cairo,-351,-156
Manila,-508,86
Karachi,-286,30
Dhaka,-132,252
Osaka,-355,330
Chongqing,-358,729
Shanghai,-245,641
São Paulo,93,656
Mumbai,237,660
Kolkata,338,355
Delhi,747,223
Mexico City,887,-239
Buenos Aires,790,-652
Istanbul,306,-694
New York,124,-185
Beijing,-298,-215
