label,x,y
Tokyo,904,-97
Mumbai,972,-25
Delhi,533,459
Cairo,313,953
Beijing,107,973
Chongqing,-931,526
Osaka,-695,-32
New York,-874,-794
Shanghai,21,-481
Dhaka,73,-307
São Paulo,158,-78
Karachi,162,-62
Mexico City,242,-284
Buenos Aires,419,-789
