label,x,y
Tokyo,833,408
São Paulo,891,454
Osaka,774,243
Shanghai,492,-495
Buenos Aires,-127,-893
Dhaka,-634,-774
Chongqing,-944,-167
Karachi,-928,592
New York,-840,819
Mumbai,-31,688
Beijing,-180,155
Delhi,25,-281
Mexico City,55,-132
Cairo,573,192
