label,x,y
Tokyo,138,354
Beijing,421,292
Buenos Aires,585,178
São Paulo,790,726
Dhaka,288,699
Delhi,252,700
Osaka,-364,643
New York,-576,392
Cairo,-945,347
Istanbul,-783,-316
Mexico City,-532,-409
Karachi,-37,-518
Mumbai,-27,-487
Shanghai,-275,23
Chongqing,19,174
