label,x,y
Tokyo,-968,-976
Mexico City,-890,-629
New York,-789,-258
Osaka,-450,131
Dhaka,527,6
Beijing,615,407
Delhi,659,470
São Paulo,602,115
Buenos Aires,857,-135
Cairo,774,-369
Karachi,-506,-705
Mumbai,-539,-608
Shanghai,-541,-736
