label,x,y
Tokyo,791,-76
Buenos Aires,792,-105
Mexico City,783,-211
Karachi,142,-797
Mumbai,-96,-130
Cairo,-332,-315
Beijing,-701,-348
Osaka,-981,486
Shanghai,-536,858
São Paulo,-237,668
Dhaka,276,733
New York,394,974
Delhi,344,388
Chongqing,569,269
