label,x,y
Tokyo,-902,-294
Delhi,-935,750
Chongqing,-372,262
Buenos Aires,-132,318
Cairo,-96,403
Kolkata,92,840
Dhaka,834,880
Osaka,980,908
Mumbai,374,255
Manila,469,157
Lagos,591,-15
Shanghai,516,-161
Mexico City,536,-156
Rio de Janeiro,995,-246
Istanbul,743,-236
Karachi,443,-631
São Paulo,162,-296
Beijing,-452,91
New York,-924,-419
