label,x,y
Tokyo,-398,-598
Karachi,-275,-988
São Paulo,762,-770
Kolkata,533,30
Mumbai,824,306
New York,914,916
Chongqing,43,806
Manila,-83,758
Cairo,-633,852
Lagos,-819,564
Dhaka,-784,250
Delhi,-775,151
Beijing,-356,293
Mexico City,-132,288
Buenos Aires,150,22
Osaka,-107,-91
Shanghai,-353,-451
Istanbul,-572,-485
