label,x,y
Tokyo,467,-929
Shanghai,-8,-980
Osaka,-621,-652
Cairo,-398,-59
New York,-891,361
Karachi,-988,978
Delhi,-586,758
Mumbai,-243,535
Beijing,974,437
São Paulo,978,-159
Mexico City,748,-31
Dhaka,83,-388
