label,x,y
Tokyo,366,219
Manila,436,-31
Lagos,447,-492
Tianjin,454,-538
Osaka,997,-574
Karachi,915,-942
Dhaka,315,-987
Mumbai,-63,-973
Istanbul,-533,-782
Buenos Aires,-120,-131
Chongqing,-69,-119
Cairo,-533,-118
São Paulo,-533,-54
Delhi,-906,614
Rio de Janeiro,-311,913
Kolkata,-124,832
Beijing,93,996
Shanghai,71,719
New York,398,421
Mexico City,772,332
