label,x,y
Tokyo,573,-320
Shanghai,528,-361
Istanbul,254,-39
Manila,640,586
Cairo,-202,763
Lagos,136,168
Dhaka,6,-112
Mumbai,-348,-282
Karachi,-753,-153
Kolkata,-767,-173
São Paulo,-548,-447
New York,-420,-582
Chongqing,-326,-443
Beijing,146,-570
Delhi,353,-690
Mexico City,452,-921
Osaka,500,-656
Buenos Aires,919,-578
