label,x,y
Tokyo,806,-65
Mumbai,238,-139
Chongqing,-12,476
Rio de Janeiro,-14,584
Cairo,403,651
São Paulo,231,803
Beijing,-52,724
Istanbul,-528,976
Lagos,-647,174
Shanghai,-736,-280
New York,-509,-316
Buenos Aires,-446,-370
Dhaka,-89,-357
Manila,-89,-734
Delhi,-25,-925
Kolkata,291,-722
Karachi,725,-973
Mexico City,505,-539
Osaka,747,-440
