label,x,y
Tokyo,566,920
New York,509,690
Buenos Aires,78,178
Cairo,709,-286
Dhaka,896,-654
Karachi,136,-855
Delhi,-285,-866
São Paulo,-367,-782
Shanghai,-516,-516
Beijing,-754,579
Osaka,-780,697
Mexico City,-604,984
Chongqing,-494,955
Mumbai,579,996
