label,x,y
Tokyo,637,940
Mexico City,954,936
Delhi,969,643
Dhaka,741,-360
Karachi,942,-510
Osaka,954,-581
New York,818,-667
Shanghai,689,-656
Cairo,167,-417
Beijing,144,-99
Buenos Aires,-671,-480
São Paulo,-621,-373
Chongqing,-75,57
Mumbai,-414,615
Istanbul,-22,942
