label,x,y
Tokyo,-167,-408
New York,-157,-384
Istanbul,548,-257
Dhaka,836,90
Osaka,743,292
Beijing,850,658
Mexico City,753,749
Manila,335,939
Delhi,507,228
Lagos,609,-104
Shanghai,561,-425
Mumbai,755,-936
Karachi,-83,-803
Cairo,-318,-592
Kolkata,-568,-619
Buenos Aires,-929,-834
São Paulo,-645,-186
Chongqing,-572,-292
