label,x,y
Tokyo,904,-21
Osaka,209,4
Shanghai,-20,-185
São Paulo,168,-839
Buenos Aires,-449,-503
Cairo,-969,-744
New York,-338,-390
Dhaka,-444,20
Delhi,-492,320
Manila,-465,760
Beijing,-299,988
Lagos,-341,515
Kolkata,252,338
Mexico City,324,330
Chongqing,345,483
Istanbul,434,556
Mumbai,867,646
Karachi,739,447
