label,x,y
Tokyo,59,700
Mexico City,-267,819
Lagos,-671,952
Rio de Janeiro,-689,591
Shanghai,-806,524
Dhaka,-372,172
New York,-496,-401
Delhi,-779,-763
Karachi,-484,-849
Beijing,-520,-997
Kolkata,-434,-908
Istanbul,32,-941
São Paulo,263,-254
Manila,759,-213
Chongqing,946,-254
Cairo,382,56
Buenos Aires,-79,83
Mumbai,6,289
Osaka,-172,420
