label,x,y
Tokyo,201,-644
Beijing,-207,-947
Chongqing,-925,-802
Dhaka,-718,-43
Karachi,-436,171
Osaka,-537,423
Cairo,-624,869
Mexico City,-20,313
New York,457,632
São Paulo,643,625
Istanbul,397,316
Mumbai,-25,225
Shanghai,84,-102
Delhi,99,-212
Buenos Aires,858,-304
Kolkata,730,-401
