label,x,y
Tokyo,-134,-470
New York,-119,-239
Delhi,-93,-433
Osaka,26,-744
Kolkata,-11,-837
Cairo,394,-913
Mumbai,986,-898
Dhaka,490,-396
São Paulo,310,207
Istanbul,297,343
Chongqing,614,213
Manila,872,895
Beijing,875,972
Lagos,-270,983
Mexico City,-266,565
Karachi,-890,42
Shanghai,-889,-388
Buenos Aires,-787,-535
