label,x,y
Tokyo,8,409
São Paulo,334,424
Karachi,265,862
Cairo,512,693
Beijing,733,640
Dhaka,902,243
Mexico City,616,-691
Buenos Aires,49,-487
Osaka,-616,-610
Chongqing,-782,-692
New York,-536,-406
Shanghai,52,-188
Delhi,-54,352
Mumbai,-957,974
