label,x,y
Tokyo,149,697
Shanghai,520,847
Manila,952,391
Mexico City,545,52
Mumbai,876,-515
Osaka,675,-676
Chongqing,328,-610
Delhi,310,-412
Beijing,1,-557
Dhaka,-369,-678
Istanbul,-701,-745
Cairo,-924,-920
Karachi,-972,-19
São Paulo,-983,407
Lagos,-965,473
Kolkata,-919,447
New York,-786,540
Buenos Aires,-32,830
