label,x,y
Tokyo,-107,829
Istanbul,-34,684
Kolkata,491,859
Mexico City,696,448
New York,777,-835
Manila,513,-924
Beijing,382,-730
Shanghai,-78,-515
Mumbai,-501,-897
Dhaka,-340,-394
São Paulo,-341,-16
Cairo,-882,-52
Osaka,-776,346
Buenos Aires,-617,623
Chongqing,-775,912
Delhi,-415,808
Karachi,-193,766
