label,x,y
Tokyo,677,990
Chongqing,522,991
Osaka,589,721
Mexico City,2,186
New York,-266,114
Beijing,-500,359
São Paulo,-608,834
Buenos Aires,-654,338
Cairo,-999,-67
Lagos,-459,212
Delhi,-179,-116
Rio de Janeiro,-55,-68
Dhaka,235,-353
Mumbai,35,-862
Shanghai,832,-700
Manila,380,-355
Karachi,766,269
Istanbul,979,389
Kolkata,823,656
