label,x,y
Tokyo,952,-737
São Paulo,780,-937
Shanghai,-419,-792
Dhaka,-587,-988
Delhi,-827,-215
New York,-615,342
Beijing,399,795
Cairo,389,979
Mumbai,662,859
Mexico City,731,433
Karachi,349,-245
Osaka,994,-675
