label,x,y
Tokyo,-709,-67
Delhi,-998,588
Beijing,-790,891
Shanghai,305,760
New York,254,426
Mumbai,425,400
Osaka,915,327
Karachi,984,34
Mexico City,646,-64
Dhaka,818,-865
Cairo,72,-930
Buenos Aires,-592,-982
São Paulo,-967,-683
