label,x,y
Tokyo,698,593
Istanbul,617,901
Mexico City,232,832
Delhi,-234,827
Mumbai,192,313
Cairo,288,-90
New York,-18,-425
Shanghai,-402,-101
Osaka,-951,265
Dhaka,-905,-147
Beijing,-681,-579
Chongqing,-506,-890
Lagos,143,-907
Karachi,150,-700
São Paulo,893,-729
Manila,495,-333
Rio de Janeiro,565,36
Buenos Aires,881,-18
Kolkata,901,316
