label,x,y
Tokyo,-497,441
Shanghai,-496,844
Cairo,-3,648
Beijing,0,366
Osaka,327,384
Mumbai,259,881
Dhaka,633,656
Mexico City,704,382
New York,694,-469
São Paulo,973,-648
Delhi,81,-721
Buenos Aires,-676,-880
Karachi,-437,-559
