label,x,y
Tokyo,-448,-501
Delhi,-474,-172
New York,-886,-313
Buenos Aires,-959,-179
Cairo,-734,463
Osaka,-574,193
Mexico City,-452,75
São Paulo,-223,60
Shanghai,17,201
Beijing,341,-467
Kolkata,720,-554
Istanbul,893,-781
Mumbai,406,-993
Chongqing,-237,-791
Karachi,-443,-841
Dhaka,-467,-766
