label,x,y
Tokyo,841,-2
Mexico City,746,123
Beijing,811,137
Osaka,921,233
Karachi,623,859
Dhaka,-322,830
São Paulo,83,598
Delhi,-113,-531
Mumbai,-730,-635
Chongqing,-629,-906
Shanghai,-395,-888
Cairo,-79,-666
New York,247,-749
Istanbul,468,-894
Buenos Aires,520,-507
