label,x,y
Tokyo,-495,-578
São Paulo,-715,-516
Rio de Janeiro,-770,-25
Kolkata,-541,152
Mexico City,-478,309
Delhi,-622,538
Beijing,-532,976
Osaka,-249,991
Istanbul,-352,421
Shanghai,-157,393
Cairo,116,333
Mumbai,469,-339
Manila,842,-163
Chongqing,999,-329
Dhaka,523,-546
New York,228,-456
Buenos Aires,-201,-510
Karachi,-265,-97
Lagos,-309,-315
