label,x,y
Tokyo,-475,126
Mumbai,-140,494
New York,190,613
Delhi,191,995
Beijing,900,614
São Paulo,425,303
Mexico City,494,-343
Karachi,826,-467
Dhaka,767,-727
Osaka,61,-831
Cairo,-41,-729
Shanghai,-829,-756
