label,x,y
Tokyo,-794,671
São Paulo,-295,930
Istanbul,997,507
Mumbai,630,-226
New York,929,-485
Dhaka,876,-959
Kolkata,697,-796
Mexico City,540,-780
Manila,178,-972
Chongqing,-8,-939
Shanghai,-107,-762
Delhi,-670,-940
Beijing,-930,-954
Osaka,-944,-296
Cairo,-521,-230
Karachi,-112,-163
Buenos Aires,-582,-12
