label,x,y
Tokyo,-711,770
Beijing,-807,681
Osaka,-766,352
Mumbai,-525,-104
Buenos Aires,-378,-461
Karachi,158,-695
São Paulo,749,-773
Delhi,571,-366
Mexico City,555,-365
Shanghai,196,-393
Dhaka,111,-74
Cairo,-70,15
Chongqing,319,304
New York,752,526
Istanbul,126,845
Kolkata,-210,414
