label,x,y
Tokyo,483,122
Osaka,829,384
Shanghai,954,839
São Paulo,551,679
Mexico City,-132,834
Delhi,-112,623
Mumbai,-280,175
Dhaka,-511,765
Beijing,-954,408
Kolkata,-999,18
Manila,-784,-111
Chongqing,-790,-570
Cairo,-399,-566
Buenos Aires,272,-631
Karachi,359,-854
New York,776,-144
Istanbul,534,93
