label,x,y
Tokyo,135,577
New York,155,648
Cairo,76,841
Beijing,-659,693
Tianjin,-945,857
Kolkata,-718,-280
Rio de Janeiro,-954,-660
Delhi,-680,-661
Karachi,-259,-520
Osaka,-72,-255
São Paulo,281,-218
Chongqing,345,-707
Istanbul,585,-984
Mexico City,812,-744
Manila,592,-398
Mumbai,994,294
Shanghai,680,443
Buenos Aires,647,618
Dhaka,262,480
Lagos,59,273
