label,x,y
Tokyo,-576,-862
Beijing,380,-639
Buenos Aires,338,-570
Chongqing,378,-275
Osaka,653,-274
Manila,678,-309
Mumbai,615,-189
Istanbul,993,541
Mexico City,-73,709
Cairo,-42,523
Dhaka,-121,7
New York,-665,-197
São Paulo,-745,-41
Shanghai,-993,-44
Delhi,-687,-204
Kolkata,-622,-582
Karachi,-876,-747
