label,x,y
Tokyo,856,-803
New York,-140,-958
Beijing,-162,-884
Mumbai,-579,-963
Shanghai,-801,-583
Delhi,-672,-290
Osaka,-888,-101
Karachi,-657,482
Mexico City,-887,648
Dhaka,-775,804
São Paulo,-717,901
Buenos Aires,68,904
Rio de Janeiro,371,744
Cairo,869,451
Lagos,461,173
Manila,-25,-45
Kolkata,-373,-249
Istanbul,-106,-221
Chongqing,297,-166
