label,x,y
Tokyo,17,847
São Paulo,-123,963
Delhi,-754,782
Shanghai,-78,149
Kolkata,-959,-508
Dhaka,-683,-895
Mexico City,-120,-666
Buenos Aires,40,-340
Chongqing,97,-419
Karachi,311,-701
Mumbai,257,-967
Osaka,493,-760
Cairo,688,-793
New York,822,-582
Istanbul,475,-62
Beijing,950,471
