label,x,y
Tokyo,922,609
Shanghai,145,657
Istanbul,185,980
Dhaka,-387,866
Karachi,-734,937
São Paulo,-912,111
Delhi,-699,-737
New York,-675,-986
Buenos Aires,-232,-721
Mumbai,-20,-676
Osaka,188,-783
Beijing,80,-532
Chongqing,146,-296
Cairo,-93,267
Mexico City,317,330
