label,x,y
Tokyo,-446,888
Mexico City,-932,854
New York,-715,525
Osaka,-425,351
Karachi,-777,-420
Beijing,-994,-401
Mumbai,-545,-440
Shanghai,479,-641
Buenos Aires,894,-187
Dhaka,676,105
São Paulo,248,41
Cairo,263,583
Delhi,-428,890
