label,x,y
Tokyo,-528,43
Mumbai,-553,98
Beijing,-717,249
Dhaka,-777,531
São Paulo,-114,876
Buenos Aires,401,516
Mexico City,783,682
New York,189,181
Cairo,386,-38
Delhi,258,-300
Osaka,630,-712
Shanghai,133,-857
Karachi,-578,-883
