label,x,y
Tokyo,-611,-514
Chongqing,-583,-494
Rio de Janeiro,-539,-291
Beijing,-935,296
Kolkata,-507,974
Dhaka,-429,630
Tianjin,-258,183
Manila,16,535
Karachi,289,445
Shanghai,536,-75
Istanbul,585,-470
Osaka,336,-600
Cairo,379,-742
Buenos Aires,135,-666
Delhi,42,-730
Mexico City,-277,-595
São Paulo,-535,-809
Mumbai,-606,-966
New York,-871,-557
Lagos,-756,-448
