label,x,y
Tokyo,-878,-933
Mexico City,-734,-470
Mumbai,-647,-462
Cairo,-520,59
Kolkata,-289,-78
Buenos Aires,-167,61
Osaka,-382,248
Istanbul,-200,228
New York,242,946
Manila,294,925
São Paulo,276,16
Delhi,214,-80
Shanghai,297,-5
Chongqing,981,58
Karachi,990,-363
Dhaka,88,-862
Beijing,-576,-504
