label,x,y
Tokyo,-258,28
Mumbai,-533,591
Shanghai,-661,940
New York,-657,966
Karachi,475,930
São Paulo,925,444
Delhi,652,365
Mexico City,298,356
Beijing,567,-350
Cairo,273,-660
Osaka,-364,-440
Dhaka,-592,-87
