label,x,y
Tokyo,-257,-422
São Paulo,-962,-497
Mumbai,-784,-339
Cairo,-633,225
Dhaka,-280,-182
Buenos Aires,16,129
Beijing,101,378
Delhi,-15,591
Kolkata,-100,910
Manila,381,885
New York,183,589
Chongqing,310,207
Lagos,501,223
Karachi,976,454
Mexico City,902,299
Shanghai,842,-384
Istanbul,168,-197
Osaka,-201,-394
