label,x,y
Tokyo,-511,-546
New York,-697,-476
Karachi,-840,-730
Beijing,-545,-913
Chongqing,-107,-954
São Paulo,87,-789
Osaka,713,-689
Mexico City,970,14
Cairo,941,136
Delhi,757,540
Buenos Aires,528,518
Mumbai,-99,942
Shanghai,-478,246
Dhaka,-342,88
