label,x,y
Tokyo,574,879
New York,672,386
Cairo,-160,-29
Delhi,186,-347
Beijing,693,-548
Karachi,762,-889
São Paulo,687,-963
Kolkata,562,-998
Shanghai,69,-904
Istanbul,-572,-784
Manila,-904,-252
Mumbai,-669,270
Osaka,-995,450
Mexico City,-794,649
Dhaka,-596,895
Buenos Aires,192,643
Chongqing,592,954
