label,x,y
Tokyo,327,-284
São Paulo,304,69
Mumbai,869,749
Dhaka,-52,686
Mexico City,-109,953
Cairo,-576,532
Shanghai,-346,302
New York,-732,108
Beijing,-259,-453
Buenos Aires,206,-382
Delhi,668,-913
Karachi,815,-969
Osaka,733,-744
