label,x,y
Tokyo,-677,-764
Chongqing,10,-697
Cairo,407,-596
Mexico City,415,-299
São Paulo,823,-360
Osaka,821,-322
Istanbul,697,-158
Rio de Janeiro,637,-105
Delhi,566,51
Beijing,926,258
Buenos Aires,839,896
Manila,78,713
Lagos,72,383
Mumbai,-161,313
Karachi,-334,808
Shanghai,-694,924
New York,-512,489
Dhaka,-871,-293
Kolkata,-853,-979
