label,x,y
Tokyo,-900,936
Beijing,-509,384
Cairo,-777,-129
São Paulo,-806,-159
Osaka,-499,260
Buenos Aires,-296,347
Shanghai,548,-681
Delhi,642,283
Mexico City,985,765
New York,419,497
Mumbai,105,597
Karachi,63,596
Dhaka,-50,993
