label,x,y
Tokyo,869,859
São Paulo,384,775
Dhaka,166,550
New York,29,917
Kolkata,-589,846
Karachi,-886,237
Manila,-562,9
Beijing,-154,47
Mumbai,-139,64
Shanghai,337,-154
Buenos Aires,-67,-252
Chongqing,-128,-322
Mexico City,-579,-735
Delhi,-401,-921
Cairo,579,-901
Istanbul,977,-422
Osaka,911,468
Lagos,925,775
