label,x,y
Tokyo,736,-497
Cairo,-42,-141
Mexico City,-637,-834
Dhaka,-790,-362
São Paulo,-901,-165
Shanghai,-769,-148
Osaka,-468,166
Karachi,-841,525
New York,-353,902
Beijing,-259,887
Delhi,15,629
Mumbai,283,274
