label,x,y
Tokyo,-538,262
Mumbai,-641,648
Kolkata,-175,957
São Paulo,141,760
Buenos Aires,31,573
Karachi,223,163
Chongqing,415,217
Cairo,687,452
Delhi,794,488
Manila,710,-380
Osaka,929,-857
New York,646,-759
Istanbul,495,-552
Beijing,-158,-223
Shanghai,-371,-417
Mexico City,-581,-478
Dhaka,-842,-47
