label,x,y
Tokyo,584,882
Delhi,-199,921
New York,-605,570
Cairo,-196,-113
Osaka,-619,145
Karachi,-967,144
São Paulo,-945,-104
Beijing,-890,-893
Mexico City,-359,-976
Dhaka,571,-824
Mumbai,935,-678
Shanghai,551,653
