label,x,y
Tokyo,965,256
Dhaka,910,649
Beijing,691,612
Shanghai,392,849
Chongqing,89,718
Delhi,-180,402
Karachi,-289,542
São Paulo,-808,574
Cairo,-702,217
Mexico City,-517,-276
Lagos,-321,-176
Mumbai,12,-277
Buenos Aires,-349,-900
New York,-456,-928
Istanbul,311,-823
Manila,432,-743
Osaka,591,-295
Kolkata,437,277
