label,x,y
Tokyo,791,44
Beijing,414,272
Rio de Janeiro,-133,539
Karachi,16,896
Osaka,-267,746
Mumbai,-900,946
Kolkata,-975,671
New York,-983,249
Dhaka,-872,-22
Delhi,-603,221
Buenos Aires,-130,153
Lagos,-107,-200
Cairo,-294,-273
São Paulo,-353,-390
Mexico City,-71,-495
Manila,304,-578
Shanghai,495,-555
Chongqing,845,-754
Istanbul,879,-739
