label,x,y
Tokyo,403,397
Delhi,251,128
Beijing,312,-487
Mumbai,723,-994
Dhaka,-336,-866
São Paulo,-818,-871
Shanghai,-712,-779
Cairo,-343,-572
Osaka,-172,-34
New York,-217,910
Buenos Aires,109,791
Chongqing,447,468
Mexico City,874,610
Karachi,950,277
