label,x,y
Tokyo,604,94
São Paulo,748,-947
Karachi,911,-988
Delhi,913,-653
Istanbul,781,198
Buenos Aires,233,995
Cairo,120,917
Mexico City,-357,660
Osaka,-627,472
New York,-933,-61
Shanghai,-996,-892
Mumbai,-499,-334
Chongqing,-397,-158
Dhaka,-118,225
Beijing,47,434
