label,x,y
Tokyo,-844,713
New York,-525,171
Cairo,-928,-706
Buenos Aires,-887,-776
Istanbul,-330,-896
Dhaka,-53,-470
Osaka,501,-870
Shanghai,997,-581
Manila,816,-556
Mexico City,585,156
Beijing,904,721
Lagos,688,814
São Paulo,298,-69
Kolkata,257,-175
Delhi,186,-137
Mumbai,-204,72
Chongqing,-433,500
Karachi,-790,956
