label,x,y
Tokyo,-57,-411
Cairo,233,-121
Karachi,801,-336
Buenos Aires,841,-100
Mexico City,936,586
New York,758,723
Shanghai,388,847
Beijing,-574,94
Delhi,-678,332
Dhaka,-936,302
São Paulo,-975,162
Mumbai,-931,-60
Osaka,-578,-674
