label,x,y
Tokyo,890,-772
Cairo,774,-804
Mexico City,380,-333
Dhaka,308,118
Karachi,-891,883
New York,-264,-70
São Paulo,-330,-521
Shanghai,-625,-620
Mumbai,-954,-899
Osaka,-236,-637
Delhi,96,-720
Beijing,475,-634
