label,x,y
Tokyo,528,-302
Osaka,9,-197
Mexico City,-231,-681
Dhaka,-701,-759
Mumbai,-941,-604
Cairo,-911,-41
São Paulo,-879,49
Delhi,-469,382
New York,-494,550
Beijing,-641,901
Shanghai,-322,639
Karachi,818,225
