label,x,y
Tokyo,887,-368
Istanbul,816,-659
Osaka,296,-529
Lagos,183,-690
Mumbai,-762,-720
Rio de Janeiro,-331,128
Delhi,-588,479
Dhaka,-495,906
Kolkata,-106,704
Buenos Aires,235,585
Shanghai,337,364
São Paulo,944,404
Beijing,359,227
Cairo,164,134
Mexico City,82,233
Manila,-28,305
Chongqing,51,27
Karachi,17,-91
New York,329,-246
