label,x,y
Tokyo,217,-707
Buenos Aires,313,-790
Karachi,-357,-721
Osaka,-516,-436
Chongqing,-692,-429
Mumbai,-880,-303
Beijing,-441,5
Kolkata,-621,184
Lagos,-430,717
Rio de Janeiro,-352,742
Delhi,283,386
New York,665,387
Cairo,676,481
Manila,775,661
Mexico City,949,686
Istanbul,967,482
Shanghai,941,-13
Dhaka,429,213
São Paulo,172,-77
