label,x,y
Tokyo,830,622
Karachi,363,689
São Paulo,109,537
Shanghai,4,859
Beijing,-124,628
Chongqing,-150,634
Tianjin,-762,646
Rio de Janeiro,-954,-418
Buenos Aires,-947,-998
Delhi,-390,-389
Istanbul,32,-927
Mexico City,601,-860
Manila,695,-813
Osaka,954,-570
New York,613,-204
Kolkata,576,-138
Lagos,472,-300
Cairo,299,-147
Mumbai,176,17
Dhaka,250,137
