label,x,y
Tokyo,-280,-706
New York,-255,-864
Mexico City,145,-714
São Paulo,616,-909
Dhaka,994,-647
Delhi,456,24
Mumbai,313,199
Buenos Aires,839,805
Karachi,512,713
Istanbul,-65,544
Cairo,-313,142
Beijing,-94,72
Shanghai,4,-232
Chongqing,-359,-173
Osaka,-747,-204
