label,x,y
Tokyo,-204,-891
Cairo,-602,-679
Beijing,-460,-460
São Paulo,191,305
Mexico City,821,495
Dhaka,580,653
Mumbai,-477,266
Delhi,-699,-236
Karachi,-829,-205
New York,-925,-765
Shanghai,-659,-740
Osaka,-612,-894
