label,x,y
Tokyo,773,-307
Beijing,588,-271
Cairo,514,-81
São Paulo,579,822
Istanbul,-27,836
Shanghai,-752,801
Mumbai,-732,435
Delhi,-784,225
Karachi,-885,131
Buenos Aires,-570,-663
Dhaka,-992,-920
Mexico City,-685,-964
Osaka,-170,-807
New York,-79,-428
Chongqing,703,-694
