label,x,y
Tokyo,-176,693
Shanghai,-51,-100
São Paulo,400,-59
Mumbai,448,28
New York,848,-297
Karachi,283,-381
Cairo,320,-618
Dhaka,23,-870
Mexico City,-130,-311
Buenos Aires,-817,-193
Delhi,-509,215
Osaka,-845,889
Beijing,-830,885
