label,x,y
Tokyo,-398,492
Istanbul,-235,278
Manila,-229,73
Shanghai,-94,29
Karachi,-551,-894
São Paulo,284,-498
Dhaka,662,-752
Delhi,574,202
Mexico City,500,301
Kolkata,498,366
Buenos Aires,598,842
New York,429,963
Chongqing,-115,716
Osaka,-329,878
Lagos,-431,676
Cairo,-590,662
Rio de Janeiro,-897,852
Beijing,-995,861
Mumbai,-859,250
