label,x,y
Tokyo,-824,362
São Paulo,-726,459
Osaka,-247,643
New York,-133,286
Cairo,-176,-13
Dhaka,431,328
Beijing,819,752
Shanghai,557,8
Mexico City,812,-618
Mumbai,-221,-442
Delhi,-728,-638
Karachi,-989,-308
