label,x,y
Tokyo,403,786
Mexico City,335,660
Beijing,171,238
New York,714,-86
Dhaka,-46,-247
São Paulo,-245,-468
Osaka,-365,-294
Karachi,-575,-505
Shanghai,-732,-820
Cairo,-988,-889
Mumbai,-787,-246
Delhi,-645,617
Buenos Aires,-252,910
