label,x,y
Tokyo,602,826
São Paulo,833,718
Cairo,781,67
Mexico City,785,-107
Tianjin,682,-813
Mumbai,759,-956
Karachi,429,-625
Dhaka,399,-336
Manila,-198,-138
Beijing,-323,-389
Chongqing,-418,-541
Rio de Janeiro,-599,-735
Delhi,-510,-386
Istanbul,-784,-24
New York,-638,31
Kolkata,-628,817
Lagos,-568,964
Osaka,-472,937
Shanghai,162,539
Buenos Aires,241,248
