label,x,y
Tokyo,-811,-367
Shanghai,274,-280
Cairo,639,-856
New York,618,-376
Karachi,324,103
Mexico City,934,558
Beijing,538,651
Osaka,33,511
Delhi,-602,457
Chongqing,-700,552
Buenos Aires,-790,310
São Paulo,-955,81
Dhaka,-991,-234
Mumbai,-980,-425
