label,x,y
Tokyo,-255,-322
New York,-733,345
Cairo,-870,755
Chongqing,-994,818
Delhi,-975,31
Karachi,-989,17
Dhaka,-647,-883
Beijing,-41,-918
Mexico City,285,-617
Mumbai,565,-459
Istanbul,813,-234
Shanghai,830,465
São Paulo,495,528
Osaka,312,262
Buenos Aires,114,-319
