label,x,y
Tokyo,-326,969
Shanghai,339,961
Mumbai,515,885
Cairo,277,475
Manila,52,459
Osaka,-192,160
New York,298,283
Delhi,535,438
Mexico City,648,486
Kolkata,923,-72
São Paulo,811,-788
Buenos Aires,732,-960
Rio de Janeiro,420,-822
Chongqing,64,-935
Lagos,-633,-609
Dhaka,-646,-12
Istanbul,-745,83
Karachi,-894,436
Beijing,-860,738
