label,x,y
Tokyo,-10,459
Mumbai,-49,857
Kolkata,-701,694
Manila,-959,612
Rio de Janeiro,-765,230
Shanghai,-976,-377
São Paulo,-583,-67
Mexico City,-184,-51
Beijing,-57,-393
Istanbul,-295,-419
Chongqing,-461,-625
Lagos,-186,-936
New York,621,-929
Buenos Aires,842,-437
Osaka,577,205
Cairo,800,442
Karachi,549,798
Dhaka,396,301
Delhi,313,120
Tianjin,-3,51
