label,x,y
Tokyo,646,-852
Shanghai,813,-929
Cairo,999,-301
Chongqing,778,-231
Mexico City,960,711
Beijing,539,699
Delhi,-65,856
Dhaka,-216,835
Karachi,-19,235
New York,-239,-17
Manila,-742,380
São Paulo,-842,151
Mumbai,-709,-141
Osaka,-454,-384
Kolkata,-555,-521
Lagos,-664,-928
Buenos Aires,-355,-889
Istanbul,-168,-889
