label,x,y
Tokyo,-686,807
São Paulo,-429,515
Mexico City,943,122
Beijing,485,-331
Osaka,215,-340
Cairo,-335,-587
New York,-538,-942
Chongqing,-808,-519
Karachi,-747,-385
Mumbai,-620,-481
Shanghai,-494,-377
Dhaka,-489,-335
Delhi,-560,-241
Buenos Aires,-695,332
