label,x,y
Tokyo,22,-734
Beijing,43,-875
Delhi,518,-996
Karachi,934,-119
Shanghai,851,448
New York,694,756
Chongqing,122,-47
Cairo,-381,1
Kolkata,-486,248
Mumbai,-741,881
São Paulo,-693,97
Osaka,-542,97
Dhaka,-492,-342
Buenos Aires,-750,-414
Istanbul,-774,-719
Mexico City,-491,-875
Manila,-453,-967
