label,x,y
Tokyo,682,-303
São Paulo,766,-379
Beijing,586,-984
Chongqing,-55,-644
Istanbul,-89,-519
Delhi,-138,-440
Mexico City,-27,-69
Buenos Aires,-185,-286
Cairo,-584,-297
Kolkata,-771,-407
Rio de Janeiro,-657,-80
Shanghai,-390,252
New York,-936,531
Karachi,-792,865
Mumbai,178,959
Lagos,153,787
Dhaka,211,550
Osaka,117,513
Manila,177,91
