label,x,y
Tokyo,-412,-802
São Paulo,219,-996
Karachi,424,-802
New York,20,-449
Dhaka,391,598
Cairo,162,777
Delhi,-67,466
Shanghai,-655,387
Osaka,-870,541
Mexico City,-908,418
Mumbai,-317,-123
Beijing,-892,-962
