label,x,y
Tokyo,789,532
Dhaka,916,322
Mumbai,978,81
Buenos Aires,887,-585
Beijing,618,-841
Kolkata,463,-967
New York,540,-653
Karachi,49,-468
Manila,-308,-895
Shanghai,-653,-687
Mexico City,-832,-651
Delhi,-358,-358
Lagos,-326,39
Istanbul,-757,159
Rio de Janeiro,-583,617
Cairo,-691,814
Chongqing,-271,670
São Paulo,-56,367
Osaka,134,749
