label,x,y
Tokyo,306,644
Dhaka,-120,856
Osaka,-278,641
São Paulo,-267,527
Delhi,-883,752
Beijing,-892,711
Buenos Aires,-977,-344
Mexico City,-640,-291
Shanghai,-430,-164
Mumbai,48,-490
Karachi,41,-935
Cairo,862,-253
New York,632,600
