label,x,y
Tokyo,-487,80
New York,-295,-12
Delhi,-163,-730
Mexico City,337,-850
Dhaka,455,-217
São Paulo,895,-363
Cairo,937,-6
Mumbai,895,77
Shanghai,490,245
Beijing,438,323
Osaka,180,378
Karachi,-709,656
