label,x,y
Tokyo,-192,-883
Mumbai,26,-202
Beijing,375,-249
Kolkata,114,-143
New York,221,309
Delhi,901,456
Shanghai,751,599
Dhaka,367,734
Buenos Aires,336,882
São Paulo,-400,695
Mexico City,-530,290
Cairo,-301,263
Manila,-147,15
Rio de Janeiro,-385,-87
Tianjin,-700,84
Chongqing,-845,206
Karachi,-928,-183
Istanbul,-951,-264
Lagos,-687,-395
Osaka,-485,-695
