label,x,y
Tokyo,-594,-60
Delhi,-637,-277
Shanghai,-983,-826
New York,-789,-823
Osaka,-28,-592
Beijing,244,-583
São Paulo,930,-753
Mumbai,938,-555
Cairo,920,-125
Karachi,623,79
Mexico City,-113,285
Buenos Aires,-164,381
Dhaka,-367,-67
