label,x,y
Tokyo,304,-641
Karachi,305,-838
Dhaka,161,-976
São Paulo,511,-861
Buenos Aires,748,-910
Shanghai,563,-6
Mumbai,186,601
Delhi,518,857
Beijing,115,910
New York,-378,509
Cairo,-727,389
Chongqing,-779,59
Mexico City,-223,187
Osaka,222,-172
