label,x,y
Tokyo,-10,-177
Delhi,-376,82
Beijing,-965,925
Chongqing,-56,755
Karachi,92,691
Manila,648,957
Dhaka,290,471
Buenos Aires,415,242
Kolkata,333,97
Shanghai,889,-396
New York,777,-666
São Paulo,529,-972
Mumbai,291,-862
Osaka,-374,-749
Mexico City,-553,-403
Istanbul,-892,-175
Cairo,-592,-307
