label,x,y
Tokyo,262,514
Shanghai,791,584
Mumbai,623,252
New York,70,-48
Buenos Aires,-124,-296
Karachi,444,-736
São Paulo,51,-979
Chongqing,-420,-478
Cairo,-304,-187
Beijing,-169,-134
Delhi,-141,155
Dhaka,-860,832
Osaka,50,938
Mexico City,88,891
