label,x,y
Tokyo,685,-244
Chongqing,940,40
Shanghai,725,581
Buenos Aires,815,728
Mumbai,129,878
Osaka,-158,702
Dhaka,-559,486
São Paulo,-538,57
Istanbul,41,179
New York,323,-213
Delhi,2,-320
Beijing,-368,-603
Mexico City,25,-796
Cairo,694,-686
Karachi,608,-280
