label,x,y
Tokyo,813,-565
Kolkata,561,-398
Shanghai,517,-142
Mumbai,174,25
Cairo,66,119
New York,346,652
Beijing,927,982
Osaka,343,696
São Paulo,-258,851
Chongqing,-635,935
Karachi,-925,833
Buenos Aires,-672,794
Manila,-279,642
Mexico City,-278,198
Delhi,-919,-829
Istanbul,-212,-714
Dhaka,716,-902
