label,x,y
Tokyo,102,754
Cairo,529,992
Lagos,210,681
Istanbul,297,390
Karachi,328,-152
Chongqing,858,-253
Delhi,998,-188
New York,684,-482
Buenos Aires,222,-872
Mumbai,112,-642
Kolkata,-422,-601
Manila,144,-424
Mexico City,86,15
Osaka,47,296
São Paulo,-607,415
Beijing,-908,436
Rio de Janeiro,-808,603
Shanghai,-463,616
Dhaka,-128,818
