label,x,y
Tokyo,849,-47
Beijing,383,69
Kolkata,523,-115
Shanghai,549,-362
Lagos,452,-392
São Paulo,165,-636
Osaka,463,-875
Manila,59,-955
Mumbai,42,-880
Istanbul,35,-893
Cairo,-280,-875
Delhi,-478,-432
New York,-863,104
Karachi,-426,103
Dhaka,-162,238
Mexico City,-103,698
Chongqing,583,847
Buenos Aires,893,778
