label,x,y
Tokyo,-976,508
São Paulo,-888,-6
Cairo,-622,-433
Buenos Aires,-139,-254
Karachi,231,-326
Shanghai,978,-600
Istanbul,869,-146
Beijing,854,568
Mumbai,592,781
Delhi,289,133
New York,170,-93
Mexico City,-116,49
Chongqing,-279,268
Osaka,-139,424
Dhaka,-457,945
