label,x,y
Tokyo,128,543
New York,91,673
Mumbai,157,830
Beijing,-206,888
Shanghai,-938,579
Osaka,-734,-162
Buenos Aires,-398,-370
Dhaka,-18,-421
Delhi,-37,-449
Mexico City,23,-686
Karachi,448,-840
Cairo,906,65
São Paulo,693,236
