label,x,y
Tokyo,-590,-702
Cairo,-910,-573
Osaka,-755,-608
New York,-196,76
Beijing,-827,468
Delhi,-955,764
Buenos Aires,-675,697
Chongqing,-227,897
Istanbul,110,987
Kolkata,370,520
Dhaka,941,590
Mumbai,739,327
São Paulo,891,-39
Mexico City,827,-289
Shanghai,769,-270
Karachi,-266,-952
