label,x,y
Tokyo,841,608
Delhi,223,858
Shanghai,217,447
Chongqing,-366,616
Karachi,-648,938
Osaka,-560,531
Dhaka,-894,437
Cairo,-644,206
New York,-280,53
Istanbul,-643,-427
Beijing,-704,-501
Mumbai,-690,-870
Mexico City,173,-997
São Paulo,691,-119
Buenos Aires,787,534
