label,x,y
Tokyo,-28,809
Delhi,50,816
Mexico City,192,551
São Paulo,701,366
Dhaka,638,-44
New York,-12,-168
Chongqing,99,-609
Beijing,370,-658
Istanbul,432,-658
Shanghai,700,-680
Mumbai,494,-891
Buenos Aires,-11,-948
Osaka,-638,-603
Kolkata,-833,-596
Karachi,-856,-258
Manila,-848,216
Cairo,-857,406
Lagos,-780,851
