label,x,y
Tokyo,-1,239
Mexico City,122,276
Shanghai,243,217
Osaka,893,146
Karachi,621,-408
New York,862,-926
Cairo,-520,-874
Mumbai,-520,-311
São Paulo,-704,-209
Beijing,-719,352
Buenos Aires,-431,620
Delhi,0,663
Dhaka,-172,394
