label,x,y
Tokyo,267,922
Mexico City,-160,463
Osaka,-543,204
Buenos Aires,-900,129
Shanghai,-993,-753
New York,-857,-865
Cairo,-807,-958
São Paulo,-595,-942
Dhaka,-566,-589
Karachi,48,-336
Istanbul,284,-925
Mumbai,538,-540
Beijing,388,-120
Delhi,316,-43
Chongqing,-94,170
