label,x,y
Tokyo,-659,-286
Shanghai,-707,-43
São Paulo,-117,200
New York,-470,551
Karachi,-392,665
Delhi,-39,567
Buenos Aires,193,509
Mumbai,949,823
Beijing,610,-43
Dhaka,620,-254
Mexico City,666,-454
Osaka,-83,-540
Cairo,-690,-330
