label,x,y
Tokyo,-430,-740
Shanghai,-588,-995
Chongqing,-962,-616
Mumbai,-674,130
New York,-556,411
Kolkata,-982,663
Manila,-468,499
Beijing,97,404
Osaka,440,742
Dhaka,877,637
Karachi,898,303
Mexico City,698,371
Delhi,482,300
São Paulo,506,-354
Cairo,866,-943
Istanbul,93,-727
Buenos Aires,-431,-515
