label,x,y
Tokyo,404,673
Buenos Aires,201,478
Delhi,481,-10
Beijing,494,-174
Kolkata,772,-289
Rio de Janeiro,921,-428
Shanghai,765,-332
Mexico City,366,-333
Istanbul,307,-464
New York,196,-388
São Paulo,-129,-363
Karachi,-119,-266
Mumbai,-618,-282
Cairo,-470,93
Tianjin,-388,288
Manila,-790,254
Dhaka,-984,907
Osaka,-128,933
Lagos,701,974
Chongqing,817,813
