label,x,y
Tokyo,331,-240
Cairo,608,-466
São Paulo,615,-814
Mumbai,244,-753
Buenos Aires,16,-713
Karachi,-935,-692
Mexico City,-454,-156
Beijing,-688,763
Dhaka,-534,520
Shanghai,4,68
Osaka,100,-50
Delhi,167,345
New York,928,403
Chongqing,810,241
