label,x,y
Tokyo,677,344
Mumbai,736,-299
São Paulo,962,-974
Dhaka,317,-980
Karachi,231,-948
Shanghai,-228,-856
Mexico City,-356,-965
Cairo,-382,-491
Beijing,-557,-305
New York,-546,369
Delhi,141,214
Osaka,419,390
