label,x,y
Tokyo,45,237
Mumbai,-283,848
Karachi,150,730
Osaka,571,877
Shanghai,388,317
Beijing,865,-529
São Paulo,784,-883
Mexico City,315,-857
Dhaka,-81,-504
Delhi,-838,-898
Cairo,-457,-648
New York,-191,133
