label,x,y
Tokyo,-110,-480
Cairo,-409,-356
Mexico City,-716,14
Buenos Aires,-891,365
Beijing,-716,-338
Chongqing,-582,-653
Istanbul,-116,-653
Mumbai,128,-742
Shanghai,545,-760
New York,219,-522
Delhi,83,-260
Karachi,553,541
Osaka,459,863
São Paulo,128,135
Dhaka,7,-389
