label,x,y
Tokyo,-26,-429
Buenos Aires,-320,-375
Osaka,-245,66
São Paulo,-344,792
Karachi,-962,-364
Shanghai,-622,-860
Cairo,-349,-579
Beijing,355,-660
Dhaka,621,-479
Mexico City,985,-46
Mumbai,693,-701
New York,519,-988
Delhi,392,-725
