label,x,y
Tokyo,-212,-656
Mumbai,-775,-380
Dhaka,-168,-194
Cairo,52,575
Shanghai,230,886
São Paulo,562,894
Beijing,776,853
Delhi,526,339
Karachi,625,8
Mexico City,557,-30
Osaka,228,-858
Buenos Aires,30,-939
New York,-165,-862
