label,x,y
Tokyo,-211,-478
Mumbai,-104,-340
Dhaka,78,-36
Karachi,-148,285
São Paulo,-653,438
New York,-770,671
Rio de Janeiro,-327,661
Osaka,-31,711
Istanbul,323,859
Cairo,335,442
Lagos,315,163
Delhi,749,204
Chongqing,930,-207
Buenos Aires,219,-504
Beijing,-22,-607
Shanghai,-218,-673
Kolkata,-403,-888
Mexico City,-469,-950
Manila,-618,-654
