label,x,y
Tokyo,-188,311
Mexico City,-17,428
Delhi,27,426
Karachi,244,933
Beijing,705,913
Buenos Aires,977,645
Shanghai,863,322
São Paulo,796,-580
Chongqing,-15,-335
Dhaka,-527,-631
New York,-884,-912
Cairo,-804,-294
Osaka,-944,669
Mumbai,-905,863
