label,x,y
Tokyo,5,621
Mumbai,185,933
Shanghai,395,808
Osaka,400,77
Delhi,869,201
New York,873,-551
Buenos Aires,888,-976
Beijing,128,-380
Istanbul,-167,-806
Karachi,-514,-734
Cairo,-110,-64
Mexico City,-70,204
Chongqing,-409,164
Dhaka,-445,656
São Paulo,-740,942
