label,x,y
Tokyo,657,423
Beijing,889,777
Manila,797,526
Cairo,897,235
Buenos Aires,677,239
Shanghai,499,162
Delhi,279,-522
Mumbai,258,-587
Chongqing,-52,-530
Dhaka,-419,-960
New York,-540,-748
Mexico City,-940,-675
Osaka,-977,-775
Istanbul,-900,-626
Lagos,-765,296
Kolkata,-752,757
São Paulo,-378,911
Karachi,41,138
