label,x,y
Tokyo,523,313
Karachi,616,368
Chongqing,705,917
Delhi,369,446
Osaka,-914,694
Buenos Aires,-60,-64
Shanghai,-141,-497
Istanbul,-318,-530
New York,-574,-721
São Paulo,-147,-625
Cairo,95,-930
Mexico City,135,-799
Kolkata,773,-794
Mumbai,808,-673
Rio de Janeiro,645,-496
Lagos,651,-359
Dhaka,850,-368
Beijing,860,-318
Manila,782,142
