label,x,y
Tokyo,-4,-603
Mexico City,677,-972
Karachi,791,-813
Istanbul,805,-620
Osaka,977,-573
Buenos Aires,806,447
Cairo,614,496
Beijing,124,862
Mumbai,181,321
São Paulo,-160,-170
Delhi,-625,-340
Shanghai,-992,-962
Dhaka,-812,-638
New York,-795,-129
Chongqing,-963,302
Kolkata,-228,-198
