label,x,y
Tokyo,591,-42
Beijing,975,595
São Paulo,775,968
New York,580,353
Mexico City,159,165
Dhaka,-820,40
Mumbai,-885,-323
Osaka,-739,-886
Cairo,-585,-758
Shanghai,-499,-518
Delhi,-8,-188
Karachi,598,-124
