label,x,y
Tokyo,866,166
New York,972,405
Osaka,675,585
Mumbai,480,657
Cairo,-148,786
Beijing,-288,661
Mexico City,-358,631
Lagos,-500,218
Buenos Aires,-468,19
Istanbul,-460,-273
Karachi,-755,-609
Kolkata,-999,-593
Delhi,-768,-906
Rio de Janeiro,-310,-977
Chongqing,-158,-887
Dhaka,-143,-418
Shanghai,325,-542
São Paulo,522,-823
Manila,893,-767
