label,x,y
Tokyo,250,532
São Paulo,339,938
Mumbai,627,636
Karachi,419,486
Manila,703,-107
Mexico City,758,-479
New York,700,-913
Shanghai,704,-796
Buenos Aires,184,-310
Chongqing,-178,-130
Beijing,-245,-377
Istanbul,-345,-829
Cairo,-899,-408
Osaka,-475,149
Delhi,-740,190
Dhaka,-928,541
Kolkata,-367,905
Lagos,95,407
