label,x,y
Tokyo,-829,-582
Buenos Aires,-327,-302
Manila,51,181
São Paulo,-183,393
Kolkata,-740,886
Beijing,-360,954
Karachi,195,796
Tianjin,644,868
Rio de Janeiro,984,135
Istanbul,715,-366
Osaka,838,-631
Mumbai,792,-817
Mexico City,884,-752
Cairo,698,-382
New York,477,-219
Dhaka,481,-140
Shanghai,200,-197
Delhi,-78,-568
Lagos,-682,-749
Chongqing,-974,-679
