label,x,y
Tokyo,-54,198
Mumbai,105,-90
Istanbul,-378,-408
New York,105,-572
Mexico City,286,-736
Buenos Aires,390,-861
Delhi,489,-996
Cairo,391,-776
Beijing,630,4
Chongqing,937,242
Dhaka,880,958
Osaka,349,454
São Paulo,147,534
Shanghai,-480,852
Karachi,-87,235
