label,x,y
Tokyo,-176,43
Mexico City,77,252
Buenos Aires,-449,532
Shanghai,-689,413
Osaka,-419,599
New York,-344,886
Karachi,-134,937
São Paulo,-134,909
Dhaka,23,920
Cairo,93,821
Istanbul,630,553
Delhi,845,553
Chongqing,994,-337
Beijing,897,-965
Manila,-403,-881
Kolkata,-726,-545
Mumbai,-535,-28
