label,x,y
Tokyo,-294,871
Karachi,143,841
Dhaka,376,984
New York,197,789
Mumbai,600,357
Shanghai,397,10
Beijing,643,139
Osaka,902,-158
Istanbul,888,-261
Lagos,433,-992
Chongqing,171,-152
Delhi,-257,-161
Kolkata,-337,-406
Mexico City,-970,-907
Cairo,-627,52
São Paulo,-792,173
Buenos Aires,-726,175
Manila,-390,405
Rio de Janeiro,-585,640
