label,x,y
Tokyo,406,204
Kolkata,489,265
Beijing,668,229
Osaka,952,220
Manila,842,-77
Istanbul,858,-361
New York,379,-547
Delhi,434,-67
Tianjin,236,21
Dhaka,-334,-167
Mumbai,-408,-310
Cairo,-278,-719
Karachi,-432,-672
Mexico City,-711,-781
Buenos Aires,-872,-222
Lagos,-802,331
Chongqing,-349,582
Rio de Janeiro,-267,714
São Paulo,517,905
Shanghai,488,809
