label,x,y
Tokyo,-396,-843
Mumbai,41,-899
Beijing,501,-794
Chongqing,995,-554
São Paulo,570,-14
Buenos Aires,680,221
Cairo,964,393
Mexico City,616,237
Shanghai,-36,907
New York,-673,801
Kolkata,-952,-177
Delhi,-826,-567
Istanbul,-780,-642
Dhaka,-637,-485
Osaka,-573,-378
Karachi,-523,-387
Manila,-485,-778
