label,x,y
Tokyo,-145,-283
Beijing,30,-474
Delhi,29,-488
New York,89,-515
Manila,7,-581
Istanbul,172,-709
Kolkata,390,-973
Shanghai,769,-683
Dhaka,940,-381
Mumbai,612,827
São Paulo,-178,768
Rio de Janeiro,-264,360
Chongqing,-500,609
Mexico City,-865,786
Karachi,-967,625
Osaka,-621,32
Lagos,-461,-224
Cairo,-737,-787
Buenos Aires,-512,-362
