label,x,y
Tokyo,685,-353
São Paulo,776,-163
Osaka,711,377
Buenos Aires,542,511
Manila,542,451
Cairo,366,325
New York,337,86
Istanbul,239,-105
Rio de Janeiro,180,-70
Kolkata,95,-75
Karachi,104,149
Shanghai,3,729
Chongqing,-833,280
Beijing,-967,7
Delhi,-643,-771
Dhaka,-631,-777
Mexico City,-111,-496
Mumbai,143,-633
Lagos,153,-455
