label,x,y
Tokyo,-680,-345
Delhi,-348,-251
New York,-541,176
Chongqing,-998,928
Istanbul,-273,953
Dhaka,-129,886
Mumbai,533,783
Lagos,795,740
Buenos Aires,739,579
Kolkata,805,46
Rio de Janeiro,591,-44
Shanghai,132,134
Beijing,10,35
Cairo,103,-224
São Paulo,161,-312
Osaka,428,-791
Mexico City,-28,-644
Manila,-392,-543
Karachi,-659,-556
