label,x,y
Tokyo,605,249
Shanghai,583,301
Delhi,223,517
Cairo,-512,735
Mumbai,-635,249
New York,-788,76
Mexico City,-486,-777
Osaka,-611,-963
Beijing,20,-878
Dhaka,67,-470
São Paulo,738,-12
Karachi,868,58
