label,x,y
Tokyo,-573,395
Cairo,-414,242
Delhi,-384,144
New York,-73,-180
Shanghai,222,40
Lagos,376,535
Istanbul,805,-82
São Paulo,894,-122
Mexico City,816,-798
Karachi,696,-911
Mumbai,662,-964
Osaka,612,-820
Dhaka,279,-629
Chongqing,93,-483
Kolkata,-510,-767
Beijing,-940,-620
Manila,-687,105
Buenos Aires,-892,267
Rio de Janeiro,-854,271
Tianjin,-587,961
