label,x,y
Tokyo,641,-152
Dhaka,929,-294
Karachi,672,-716
Chongqing,31,-922
Mexico City,-473,-500
São Paulo,-828,-377
Shanghai,-622,-275
Buenos Aires,-773,362
Mumbai,-135,235
Cairo,-27,-115
Osaka,123,462
Beijing,142,467
Delhi,660,658
New York,969,646
