label,x,y
Tokyo,-260,398
Delhi,-932,989
Dhaka,-333,813
Beijing,100,871
Karachi,296,721
Buenos Aires,529,689
Istanbul,582,42
Mumbai,868,-161
Osaka,600,-178
Cairo,290,-854
Shanghai,-379,-995
Kolkata,-365,-678
Mexico City,-166,-247
São Paulo,-903,-416
New York,-927,40
Chongqing,-401,172
