label,x,y
Tokyo,93,-832
Delhi,-221,-856
Cairo,-514,-904
São Paulo,-405,-857
New York,-119,-154
Lagos,-517,149
Chongqing,-943,249
Manila,-862,977
Beijing,-345,465
Mumbai,-293,392
Shanghai,11,475
Dhaka,-31,669
Istanbul,246,970
Buenos Aires,172,474
Tianjin,291,42
Rio de Janeiro,453,78
Osaka,584,-2
Karachi,833,207
Mexico City,589,-84
Kolkata,199,-660
