label,x,y
Tokyo,-917,-23
Mexico City,-884,-320
Karachi,-599,-502
Delhi,-487,-420
New York,-101,-334
Buenos Aires,-82,-923
Kolkata,405,-828
Dhaka,924,-438
Mumbai,682,-129
Osaka,990,169
Shanghai,825,193
São Paulo,985,670
Chongqing,665,797
Beijing,508,730
Manila,-448,917
Cairo,-698,978
Istanbul,-910,574
