label,x,y
Tokyo,-6,-759
Shanghai,116,-462
Dhaka,703,45
Karachi,597,855
Mumbai,258,936
Delhi,-549,584
Cairo,-663,614
Mexico City,-666,194
Osaka,-657,-113
New York,-213,-165
São Paulo,-657,-258
Beijing,-928,-705
Buenos Aires,-544,-728
