label,x,y
Tokyo,119,341
Rio de Janeiro,44,210
Dhaka,-31,224
Manila,-149,68
New York,-831,-378
Lagos,-902,-609
Kolkata,-838,-735
Mumbai,232,-999
Mexico City,390,-684
Osaka,625,-629
Karachi,552,-700
Chongqing,290,-631
São Paulo,112,-217
Buenos Aires,612,214
Shanghai,539,975
Delhi,-93,832
Cairo,-216,966
Beijing,-251,729
Istanbul,145,510
