label,x,y
Tokyo,-74,337
São Paulo,143,904
Karachi,318,624
Istanbul,343,405
Kolkata,859,-731
Chongqing,566,-823
Delhi,432,-765
New York,-53,-613
Osaka,-492,-492
Dhaka,-577,-984
Cairo,-920,-803
Beijing,-776,-193
Mexico City,-971,-66
Shanghai,-898,-9
Lagos,-496,-156
Mumbai,-412,-177
Buenos Aires,-206,75
Manila,-258,292
