label,x,y
Tokyo,434,-862
Osaka,913,-225
New York,769,295
Mexico City,850,981
Dhaka,411,331
Mumbai,294,340
Cairo,-112,234
Karachi,-900,430
Delhi,-261,-128
São Paulo,-317,-208
Beijing,-417,-497
Shanghai,70,-991
Buenos Aires,317,-871
