label,x,y
Tokyo,-705,-831
Delhi,-371,-529
Mumbai,-208,-725
Shanghai,293,-809
Istanbul,791,-570
São Paulo,917,-490
Chongqing,696,-454
Dhaka,464,-233
Osaka,680,279
Buenos Aires,693,393
Mexico City,-304,372
New York,-739,707
Karachi,-601,673
Beijing,-274,110
Cairo,-845,-439
Kolkata,-938,-914
