label,x,y
Tokyo,802,359
Manila,959,628
Beijing,790,657
Dhaka,1,896
Mexico City,-307,708
Cairo,-689,612
Delhi,-130,14
Chongqing,-466,-231
Mumbai,-804,-354
Buenos Aires,-447,-379
Istanbul,-423,-399
Karachi,-409,-521
Kolkata,-241,-620
Shanghai,21,-639
Osaka,156,-733
São Paulo,513,-382
Lagos,393,-19
Tianjin,598,-317
New York,747,-471
Rio de Janeiro,989,-93
