label,x,y
Tokyo,-157,268
Shanghai,-394,712
São Paulo,-839,739
Mexico City,-677,923
Cairo,-513,890
Delhi,795,938
Mumbai,772,757
Osaka,530,477
Beijing,338,-61
Karachi,297,-662
New York,279,-905
Dhaka,196,-270
