label,x,y
Tokyo,381,870
Dhaka,284,689
New York,-104,882
Istanbul,-283,790
Chongqing,-860,937
Mexico City,-909,929
Cairo,-964,787
Buenos Aires,-887,57
Beijing,-532,28
Mumbai,-338,446
Osaka,-21,61
Lagos,-57,-170
Shanghai,169,-427
Karachi,-47,-466
São Paulo,-176,-891
Tianjin,-61,-988
Kolkata,856,-902
Delhi,491,-155
Manila,660,348
Rio de Janeiro,920,766
