label,x,y
Tokyo,862,-704
Dhaka,988,-729
Manila,534,-376
Rio de Janeiro,489,-261
São Paulo,724,-39
New York,881,757
Tianjin,125,737
Beijing,-374,814
Karachi,-403,771
Buenos Aires,-532,509
Istanbul,-515,238
Mumbai,2,326
Cairo,36,32
Shanghai,-370,-134
Mexico City,-752,-289
Delhi,-935,-332
Kolkata,-441,-652
Lagos,15,-835
Osaka,-54,-613
Chongqing,431,-364
