label,x,y
Tokyo,442,369
Cairo,4,722
New York,-91,56
São Paulo,-587,364
Delhi,-626,9
Beijing,-988,-924
Osaka,-477,-851
Karachi,524,-504
Mexico City,916,92
Dhaka,865,196
Shanghai,860,328
Mumbai,894,991
