label,x,y
Tokyo,782,-782
New York,457,-855
Kolkata,226,-585
São Paulo,107,-672
Manila,-962,-695
Karachi,-617,-220
Mexico City,-606,350
Chongqing,-812,470
Lagos,-737,748
Istanbul,-367,819
Delhi,79,847
Beijing,-14,108
Dhaka,544,-322
Buenos Aires,556,-311
Shanghai,711,-56
Osaka,785,127
Cairo,938,-86
Mumbai,847,-343
