label,x,y
Tokyo,-312,506
Chongqing,-233,-30
Delhi,-368,-9
Shanghai,-898,-778
São Paulo,27,-777
Cairo,477,-504
New York,197,-257
Buenos Aires,435,-50
Mumbai,839,125
Dhaka,514,88
Karachi,212,-107
Mexico City,-70,-31
Beijing,-62,716
Osaka,4,907
Istanbul,-150,996
