label,x,y
Tokyo,-451,637
Mexico City,-661,769
Beijing,-899,665
Dhaka,-828,168
Shanghai,-670,-146
Kolkata,-587,-418
Chongqing,-915,-388
Istanbul,-966,-623
Manila,-986,-912
Lagos,-450,-656
Cairo,-318,-712
São Paulo,-222,-613
Osaka,-100,-23
Rio de Janeiro,-58,327
Buenos Aires,716,284
Mumbai,871,-258
Karachi,882,362
Delhi,675,967
New York,-276,870
