label,x,y
Tokyo,-360,-210
Mexico City,-406,-36
Kolkata,-572,-341
Delhi,-651,-339
Tianjin,-659,-317
Beijing,-966,-464
Buenos Aires,-867,-47
Istanbul,-981,-17
São Paulo,-834,310
Rio de Janeiro,-911,484
Mumbai,-579,720
Cairo,-552,363
Dhaka,-197,160
New York,-105,441
Shanghai,257,312
Lagos,319,31
Manila,773,-223
Chongqing,969,-554
Karachi,898,-737
Osaka,235,-907
