label,x,y
Tokyo,-225,594
Cairo,-932,987
Istanbul,-810,412
Mexico City,-141,152
Mumbai,11,61
Chongqing,-383,-694
Shanghai,-790,-744
Karachi,-147,-438
New York,829,-491
Buenos Aires,988,6
Beijing,958,514
Delhi,641,469
São Paulo,558,637
Dhaka,594,913
Osaka,22,683
