label,x,y
Tokyo,161,-335
Dhaka,-88,-348
New York,-505,-591
Mexico City,-729,-990
Shanghai,-826,-329
Mumbai,-643,-107
Chongqing,-351,273
Karachi,-204,42
Buenos Aires,-151,-196
Kolkata,-103,-237
Osaka,205,-142
Delhi,447,466
Cairo,621,676
Beijing,814,736
Istanbul,602,194
São Paulo,703,-228
Manila,859,-655
