label,x,y
Tokyo,-732,-94
São Paulo,-950,-55
Mexico City,-803,385
New York,-985,628
Beijing,-525,942
Delhi,100,253
Rio de Janeiro,704,690
Dhaka,743,890
Manila,739,571
Lagos,641,-110
Cairo,780,-526
Karachi,625,-397
Chongqing,348,-395
Shanghai,151,-866
Kolkata,-529,-612
Buenos Aires,-890,-553
Istanbul,-879,-167
Osaka,-718,-141
Mumbai,-620,-69
