label,x,y
Tokyo,550,-251
São Paulo,355,39
Mexico City,-403,-162
Beijing,-701,-292
Mumbai,-533,-82
Osaka,-961,435
Delhi,-898,541
Dhaka,-360,176
Shanghai,-178,293
Buenos Aires,426,553
Cairo,557,659
Chongqing,853,32
Istanbul,907,-371
New York,620,-689
Karachi,545,-444
