label,x,y
Tokyo,-593,-1
Osaka,-812,-52
Shanghai,-716,6
Cairo,-414,253
Kolkata,-728,590
Karachi,-822,977
Mexico City,-931,975
Delhi,-735,919
New York,283,976
Beijing,757,724
Buenos Aires,756,504
Istanbul,183,288
Mumbai,27,-233
Dhaka,-87,-888
São Paulo,-568,-828
Chongqing,-282,-191
