label,x,y
Tokyo,-690,-786
Chongqing,-259,-763
Mexico City,-280,-116
São Paulo,-83,72
Shanghai,519,-273
Karachi,867,-312
New York,725,-147
Kolkata,902,544
Buenos Aires,707,801
Osaka,354,630
Dhaka,350,669
Istanbul,234,946
Beijing,-731,677
Delhi,-619,-22
Cairo,-863,-61
Mumbai,-999,-105
Manila,-840,-716
