label,x,y
Tokyo,-476,-116
Dhaka,-372,-68
Karachi,-705,261
New York,-716,435
Lagos,-605,484
Delhi,-715,895
São Paulo,-78,781
Beijing,291,746
Rio de Janeiro,222,316
Istanbul,975,429
Osaka,988,33
Mumbai,172,-306
Shanghai,172,-531
Chongqing,-122,-387
Mexico City,-132,-760
Cairo,-257,-979
Buenos Aires,-256,-746
Kolkata,-531,-500
Manila,-687,-247
