label,x,y
Tokyo,755,-432
Mexico City,938,-535
Kolkata,826,-989
Cairo,781,-997
Manila,700,-506
Shanghai,383,-114
Dhaka,314,-15
Rio de Janeiro,380,-196
São Paulo,-156,-540
Mumbai,-812,-791
Istanbul,-744,132
Buenos Aires,-852,219
New York,-466,538
Delhi,-332,949
Karachi,-173,875
Chongqing,-168,876
Osaka,319,951
Beijing,594,582
Tianjin,542,318
Lagos,960,83
