label,x,y
Tokyo,-188,-919
Karachi,107,-874
Shanghai,132,-858
Beijing,960,-875
São Paulo,755,-361
Delhi,952,157
Dhaka,408,358
New York,449,198
Osaka,-85,-187
Mexico City,-573,455
Buenos Aires,-838,534
Mumbai,-668,45
Cairo,-302,-280
Chongqing,-430,-423
