label,x,y
Tokyo,-815,-691
Mexico City,-773,-644
Karachi,-145,392
Mumbai,-383,926
Cairo,280,759
New York,654,810
Dhaka,700,288
Shanghai,782,139
Buenos Aires,723,74
Delhi,684,268
São Paulo,515,460
Osaka,28,474
Beijing,-831,-331
