label,x,y
Tokyo,553,-377
Shanghai,285,-50
Manila,272,209
Tianjin,159,35
Mexico City,-124,-250
Beijing,228,-718
Dhaka,-129,-547
Delhi,-327,-614
Lagos,-916,-442
Istanbul,-855,-351
Karachi,-540,171
Cairo,-517,201
Rio de Janeiro,-841,649
Kolkata,-464,698
New York,-184,891
Buenos Aires,370,553
Osaka,864,942
Mumbai,997,219
Chongqing,880,-435
São Paulo,565,-398
