label,x,y
Tokyo,-188,-402
Istanbul,-257,-312
Beijing,-490,-304
Buenos Aires,-504,-18
Osaka,-434,153
Chongqing,-316,374
Kolkata,12,555
São Paulo,649,627
Mexico City,745,427
Shanghai,613,281
Dhaka,915,-292
New York,148,-77
Karachi,62,-288
Delhi,151,-524
Manila,286,-837
Cairo,64,-566
Mumbai,-21,-420
