label,x,y
Tokyo,896,-88
São Paulo,622,92
Mumbai,948,279
Delhi,764,888
Karachi,363,733
Tianjin,420,568
Beijing,-248,384
Mexico City,-634,626
New York,-506,280
Osaka,-221,255
Istanbul,-35,-102
Kolkata,-363,-138
Shanghai,-481,-199
Buenos Aires,-691,-528
Lagos,-250,-671
Dhaka,49,-707
Rio de Janeiro,202,-628
Cairo,356,-946
Manila,810,-598
Chongqing,620,-324
