label,x,y
Tokyo,-15,531
Shanghai,-132,302
São Paulo,-180,218
Kolkata,-78,-39
Cairo,-115,-480
Mexico City,-438,-526
New York,-907,-279
Osaka,-714,-484
Buenos Aires,-422,-775
Manila,-36,-758
Karachi,879,-953
Dhaka,806,-282
Mumbai,540,-330
Chongqing,463,274
Istanbul,975,433
Beijing,522,443
Delhi,320,594
