label,x,y
Tokyo,632,468
Delhi,679,178
Beijing,722,-235
Shanghai,867,-417
Osaka,376,-929
São Paulo,-210,-957
Karachi,15,-573
Mexico City,308,-331
New York,-303,445
Cairo,-135,762
Mumbai,214,982
Dhaka,930,745
