label,x,y
Tokyo,-265,-65
Lagos,-266,211
Osaka,-958,663
Manila,-470,811
Buenos Aires,-291,664
Chongqing,-3,836
Cairo,102,701
Mumbai,84,649
Mexico City,269,468
Istanbul,696,594
Tianjin,474,273
Kolkata,767,-569
Dhaka,392,-682
Karachi,-148,-747
Shanghai,-318,-807
Beijing,-364,-797
New York,-648,-797
São Paulo,-773,-737
Delhi,-955,-697
Rio de Janeiro,-996,-39
