label,x,y
Tokyo,51,-461
Delhi,-399,-4
São Paulo,-724,-17
New York,-859,688
Shanghai,-464,846
Mumbai,-236,414
Mexico City,784,86
Cairo,893,-151
Osaka,675,-570
Buenos Aires,546,-474
Karachi,191,-712
Beijing,154,-739
Dhaka,-317,-996
