label,x,y
Tokyo,598,954
Shanghai,-63,793
Beijing,-290,498
Mexico City,-617,238
Delhi,-923,482
Kolkata,-864,-176
Chongqing,-587,-342
New York,-604,-968
Cairo,-146,-643
Istanbul,226,-861
Buenos Aires,650,-777
Karachi,1,-409
Dhaka,94,-91
Mumbai,-35,255
Osaka,239,112
São Paulo,559,382
