label,x,y
Tokyo,-217,-622
Karachi,-311,-624
Beijing,-684,-845
Istanbul,-731,-844
Osaka,-793,-88
Cairo,-323,104
Lagos,-472,484
Mumbai,-650,668
New York,-970,865
Manila,-466,703
Delhi,-85,476
Shanghai,-49,448
Buenos Aires,16,573
São Paulo,603,462
Mexico City,260,-13
Chongqing,-105,48
Kolkata,-211,52
Dhaka,-69,-521
