label,x,y
Tokyo,634,532
Cairo,234,114
Mumbai,-376,97
Delhi,-731,747
Karachi,-551,888
Beijing,-730,953
Shanghai,-736,750
Mexico City,-922,-24
Osaka,-404,-136
São Paulo,-570,-806
Dhaka,-373,-777
New York,725,-681
