label,x,y
Tokyo,827,-501
Shanghai,812,-48
Mumbai,858,538
Osaka,91,317
Beijing,71,668
São Paulo,-483,784
Buenos Aires,-807,976
Delhi,-471,404
Dhaka,-904,-199
Karachi,-877,-756
New York,-397,-98
Mexico City,48,-59
Cairo,588,-266
