label,x,y
Tokyo,275,-411
Cairo,826,-334
Mumbai,916,476
Karachi,998,719
São Paulo,93,60
Beijing,-501,975
New York,-774,-254
Dhaka,-401,-364
Shanghai,-428,-681
Delhi,-188,-483
Osaka,115,-739
Mexico City,313,-963
