label,x,y
Tokyo,-302,-738
Delhi,-91,-852
Dhaka,171,-878
Osaka,-38,-330
New York,193,-286
Istanbul,797,-602
Kolkata,799,-505
Shanghai,705,331
Buenos Aires,776,717
Chongqing,426,826
Beijing,290,918
São Paulo,-32,645
Karachi,-411,722
Mexico City,-509,529
Rio de Janeiro,-961,611
Cairo,-951,384
Tianjin,-990,-471
Mumbai,-470,-112
Manila,-341,-292
Lagos,-357,-635
