label,x,y
Tokyo,-483,-638
Osaka,-263,-972
New York,114,-993
São Paulo,472,-857
Delhi,768,-651
Cairo,879,-344
Chongqing,986,114
Rio de Janeiro,745,521
Mumbai,535,349
Kolkata,-98,700
Mexico City,-427,880
Beijing,-669,848
Lagos,-951,749
Dhaka,-519,450
Karachi,-555,196
Shanghai,-325,75
Istanbul,183,-287
Buenos Aires,424,-428
Manila,75,-329
