label,x,y
Tokyo,-348,-62
New York,-467,-333
Kolkata,-634,-846
São Paulo,-415,-344
Chongqing,256,-513
Buenos Aires,574,-691
Istanbul,501,-369
Delhi,556,-372
Shanghai,873,-53
Osaka,246,-6
Cairo,51,280
Manila,568,921
Beijing,-35,801
Rio de Janeiro,-131,366
Lagos,-219,442
Mexico City,-595,491
Mumbai,-972,107
Dhaka,-539,92
Karachi,-450,24
