label,x,y
Tokyo,-936,583
Buenos Aires,-936,92
Chongqing,-852,38
Delhi,-940,-327
São Paulo,239,-532
Dhaka,539,-835
Karachi,895,-536
Shanghai,727,-451
Manila,569,-339
Osaka,593,-155
New York,732,498
Beijing,996,636
Istanbul,585,985
Mexico City,681,660
Cairo,674,531
Mumbai,360,463
Kolkata,-398,648
