label,x,y
Tokyo,-449,-706
Dhaka,-701,-856
New York,-949,-997
Karachi,-721,-413
Mexico City,-449,24
Cairo,-613,824
Istanbul,-549,704
Lagos,117,288
Osaka,108,122
Shanghai,290,309
Tianjin,319,787
Manila,997,927
Beijing,762,375
Mumbai,655,290
Kolkata,996,1
Delhi,930,-884
Chongqing,580,-948
São Paulo,150,-969
Rio de Janeiro,236,-733
Buenos Aires,109,-773
