label,x,y
Tokyo,124,-668
Karachi,195,-789
Delhi,304,-898
Istanbul,474,-960
Chongqing,651,-943
Mexico City,802,-434
Kolkata,750,-401
Cairo,820,-62
Osaka,871,142
Dhaka,304,-272
Mumbai,-32,-209
Beijing,-472,120
São Paulo,-425,978
New York,-847,643
Manila,-629,54
Lagos,-300,49
Buenos Aires,-72,-514
Shanghai,-322,-869
