label,x,y
Tokyo,614,721
Mumbai,806,664
Cairo,381,692
Mexico City,18,270
Beijing,617,-424
Osaka,-75,-580
New York,-420,-869
Karachi,-351,-429
Shanghai,-627,-64
São Paulo,-826,397
Dhaka,-652,365
Delhi,-349,738
Buenos Aires,27,658
