label,x,y
Tokyo,-92,659
Cairo,-352,872
Osaka,-721,765
Shanghai,-649,271
Dhaka,-540,62
Mexico City,-498,-394
Karachi,-164,-269
São Paulo,-258,-600
Buenos Aires,-153,-954
Mumbai,-83,-898
Beijing,601,-455
Delhi,834,707
New York,-5,498
