label,x,y
Tokyo,815,172
Cairo,979,68
Buenos Aires,706,60
Mexico City,467,-444
Dhaka,729,-716
Mumbai,816,-682
Osaka,702,-752
Delhi,49,-939
Chongqing,-78,-354
São Paulo,-34,38
New York,241,84
Istanbul,-153,426
Karachi,-96,788
Shanghai,486,519
Beijing,916,771
