label,x,y
Tokyo,922,788
Dhaka,664,510
Cairo,612,369
Manila,303,19
Mumbai,520,120
Chongqing,969,95
Delhi,956,-582
Osaka,864,-598
Mexico City,896,-804
São Paulo,428,-934
Kolkata,63,-655
Karachi,-518,-824
Rio de Janeiro,-250,-810
Tianjin,61,-353
Beijing,-71,-305
Lagos,-238,-4
Istanbul,-578,514
New York,-340,978
Shanghai,693,730
Buenos Aires,875,982
