label,x,y
Tokyo,-978,306
Cairo,-898,-569
Osaka,-653,-677
Mexico City,-382,-190
São Paulo,-19,-310
Dhaka,-75,-426
Kolkata,441,-965
Shanghai,616,-816
Karachi,875,197
New York,696,334
Chongqing,776,899
Buenos Aires,333,319
Beijing,14,207
Delhi,-629,240
Mumbai,-659,413
Istanbul,-987,850
