label,x,y
Tokyo,-288,-953
Delhi,-244,-503
Shanghai,-316,-379
New York,-965,-474
Dhaka,-915,461
São Paulo,-931,843
Chongqing,-82,841
Cairo,100,897
Beijing,175,829
Mexico City,377,911
Buenos Aires,757,853
Karachi,225,555
Mumbai,622,-170
Osaka,-132,-758
