label,x,y
Tokyo,-797,329
Shanghai,-802,948
New York,243,724
Karachi,404,-51
Cairo,302,-122
São Paulo,547,-69
Delhi,692,-99
Dhaka,602,-643
Osaka,247,-621
Beijing,80,-676
Mexico City,-224,-390
Mumbai,-938,23
