label,x,y
Tokyo,-187,-390
Dhaka,-992,-145
Delhi,-969,267
Shanghai,-993,928
Buenos Aires,-987,800
Karachi,131,299
Chongqing,473,258
Osaka,788,-7
Beijing,556,-145
Mexico City,226,-443
Mumbai,331,-734
São Paulo,106,-921
Cairo,3,-739
New York,-364,-926
