label,x,y
Tokyo,-520,-551
Cairo,-874,-625
Karachi,-675,-119
Delhi,-490,144
Mexico City,-429,736
São Paulo,-101,196
New York,283,110
Shanghai,496,-70
Beijing,948,-24
Dhaka,957,-892
Mumbai,155,-271
Osaka,-446,-234
Buenos Aires,-536,-483
