label,x,y
Tokyo,-76,832
Delhi,434,424
Dhaka,638,450
Cairo,997,425
Mumbai,686,215
Mexico City,842,-379
Beijing,657,117
Chongqing,619,249
New York,61,6
Buenos Aires,-47,-433
São Paulo,-492,-694
Karachi,-502,212
Osaka,-696,489
Shanghai,-782,878
Istanbul,-245,835
Kolkata,-219,679
