label,x,y
Tokyo,-580,-641
Delhi,-101,-718
São Paulo,94,-498
New York,777,-457
Buenos Aires,622,-261
Karachi,360,17
Cairo,571,699
Beijing,-526,835
Mexico City,-454,622
Osaka,-393,-29
Mumbai,-613,-414
Shanghai,-727,-637
Dhaka,-591,-752
