label,x,y
Tokyo,67,-580
São Paulo,-164,-755
Osaka,-379,-981
Mexico City,-703,-194
Mumbai,-777,-23
Karachi,-901,341
Istanbul,-917,541
Shanghai,-505,134
Kolkata,-382,150
Tianjin,-300,487
Rio de Janeiro,190,910
Cairo,762,900
Delhi,439,924
Buenos Aires,-124,334
Beijing,202,-151
New York,735,-539
Manila,960,-943
Dhaka,289,-496
Chongqing,28,-322
Lagos,75,-544
