label,x,y
Tokyo,-223,-286
Dhaka,-682,-293
Mexico City,-657,-428
Kolkata,-259,-571
Delhi,-61,-618
Cairo,-71,-893
Shanghai,439,-643
Mumbai,655,-798
Istanbul,651,-478
Osaka,362,-93
Chongqing,373,43
Buenos Aires,789,698
Beijing,569,659
Manila,236,680
New York,-666,882
Karachi,136,224
São Paulo,-108,-203
Lagos,-189,-324
