label,x,y
Tokyo,749,-573
Delhi,715,-972
New York,108,-605
Karachi,-13,-179
Cairo,-69,-183
Kolkata,-363,-262
Osaka,-818,-262
Chongqing,-495,99
Buenos Aires,-159,389
Istanbul,-12,837
Mexico City,467,953
Shanghai,777,964
Beijing,508,857
São Paulo,549,726
Mumbai,960,211
Dhaka,944,-64
