label,x,y
Tokyo,-657,341
São Paulo,316,589
Beijing,652,743
Mexico City,754,912
Mumbai,742,369
Dhaka,805,111
Shanghai,514,-275
Osaka,551,-515
Cairo,5,-191
New York,50,-732
Delhi,-581,-901
Karachi,-870,-735
