label,x,y
Tokyo,-300,516
Cairo,-107,287
Beijing,115,534
Istanbul,523,628
Osaka,829,642
Rio de Janeiro,742,290
Mexico City,68,48
São Paulo,283,-301
Kolkata,837,-776
Buenos Aires,944,-848
Karachi,732,-945
Manila,145,-819
Dhaka,-585,-889
Tianjin,-830,-189
Mumbai,-854,108
New York,-744,215
Lagos,-992,470
Shanghai,-674,561
Delhi,-656,783
Chongqing,-80,870
