label,x,y
Tokyo,314,854
New York,59,711
Kolkata,-41,605
Cairo,-112,281
Chongqing,-278,212
Buenos Aires,-935,825
Manila,-982,60
Osaka,-735,-173
Karachi,-583,-376
Delhi,-898,-819
Istanbul,-708,-837
Mexico City,-447,-477
Shanghai,-230,-624
Mumbai,405,-478
Dhaka,803,-210
Lagos,786,-213
Beijing,250,345
São Paulo,790,778
