label,x,y
Tokyo,-795,-890
São Paulo,-726,-649
Manila,-690,-352
Buenos Aires,-689,337
Dhaka,-787,603
Karachi,-503,811
Chongqing,-373,654
Beijing,-260,922
Osaka,-135,815
New York,579,782
Shanghai,918,444
Istanbul,972,-799
Mumbai,277,-914
Kolkata,293,-822
Delhi,354,-571
Mexico City,-70,-319
Cairo,-188,-546
