label,x,y
Tokyo,-130,-48
Beijing,79,-325
Istanbul,-182,-513
Cairo,72,-497
New York,967,-787
Mumbai,519,-291
Osaka,258,-157
Chongqing,171,-25
Manila,439,273
Lagos,612,151
Mexico City,838,334
São Paulo,558,413
Shanghai,712,867
Buenos Aires,444,836
Kolkata,-299,687
Delhi,-428,924
Karachi,-968,953
Dhaka,-719,536
