label,x,y
Tokyo,853,121
Beijing,608,-15
Delhi,321,126
Cairo,-72,34
Karachi,-710,-443
São Paulo,-972,-937
Shanghai,-623,36
Mexico City,-45,411
Osaka,302,451
New York,136,839
Mumbai,645,811
Dhaka,711,657
