label,x,y
Tokyo,-875,-656
Dhaka,-625,-844
São Paulo,-508,-726
Osaka,323,-644
Karachi,481,-893
New York,632,-914
Cairo,872,370
Mexico City,617,573
Shanghai,-224,335
Mumbai,-219,903
Chongqing,-263,989
Beijing,-667,762
Delhi,-682,372
Buenos Aires,-921,50
