label,x,y
Tokyo,142,-692
Dhaka,-730,-923
Shanghai,-407,-281
Karachi,-289,-268
Buenos Aires,-522,-207
Delhi,-379,258
São Paulo,-308,671
Osaka,-41,580
New York,33,317
Cairo,450,-81
Mexico City,623,-182
Mumbai,946,-330
Beijing,992,-472
Chongqing,531,-568
