label,x,y
Tokyo,532,646
Cairo,-67,668
New York,-211,151
Shanghai,63,110
Mexico City,142,-383
Buenos Aires,-205,-686
Delhi,-397,-899
Chongqing,188,-759
Osaka,176,-656
São Paulo,481,-328
Karachi,581,-408
Dhaka,828,-671
Beijing,986,-606
Mumbai,995,-103
Istanbul,456,17
