label,x,y
Tokyo,693,790
Delhi,629,550
Cairo,915,386
São Paulo,809,-164
Mumbai,939,-427
Dhaka,415,35
New York,87,229
Karachi,-59,109
Mexico City,-967,-581
Beijing,-990,901
Osaka,-455,732
Shanghai,499,649
