label,x,y
Tokyo,-458,-182
New York,-782,399
Mumbai,-380,881
Cairo,813,913
Osaka,943,100
Delhi,821,-16
Mexico City,778,-208
Shanghai,104,-99
Beijing,-310,-49
Dhaka,-422,-396
São Paulo,-338,-970
Karachi,-351,-618
