label,x,y
Tokyo,-946,-839
Kolkata,-698,-489
New York,-756,-282
Istanbul,-542,-47
São Paulo,-805,270
Lagos,-453,943
Buenos Aires,18,768
Shanghai,-170,536
Beijing,58,420
Osaka,83,411
Dhaka,598,171
Manila,113,88
Mumbai,-231,27
Karachi,-91,-288
Chongqing,-69,-378
Cairo,386,-676
Mexico City,276,-800
Delhi,-213,-964
