label,x,y
Tokyo,-522,-758
New York,-762,-151
Shanghai,-627,32
Dhaka,-593,293
Delhi,-726,260
Buenos Aires,-909,279
São Paulo,-675,873
Beijing,-528,686
Mexico City,-308,347
Chongqing,-82,271
Istanbul,784,421
Cairo,942,194
Mumbai,664,-478
Osaka,-137,-296
Kolkata,-275,-737
Karachi,-256,-815
