label,x,y
Tokyo,-863,863
New York,-940,621
Mexico City,-966,136
Dhaka,-579,455
Beijing,58,-328
Delhi,71,-576
São Paulo,-67,-743
Cairo,-274,-860
Shanghai,-45,-839
Mumbai,401,-735
Osaka,645,-787
Chongqing,731,-669
Kolkata,929,-242
Manila,610,1
Karachi,395,403
Buenos Aires,-11,615
Istanbul,-379,746
