label,x,y
Tokyo,330,742
Mexico City,796,900
Delhi,737,44
Beijing,924,56
Kolkata,984,-416
Buenos Aires,719,-523
Lagos,628,-478
Chongqing,604,-815
Shanghai,307,-601
Mumbai,109,-861
Karachi,-270,-991
São Paulo,-489,-890
Rio de Janeiro,-879,-861
New York,-618,-671
Dhaka,-608,-440
Cairo,-946,41
Osaka,-485,551
Istanbul,254,471
Manila,214,721
