label,x,y
Tokyo,467,-994
Manila,862,-756
Osaka,951,-586
Dhaka,874,-455
Mumbai,894,-34
Mexico City,974,253
New York,803,271
Rio de Janeiro,762,90
Karachi,527,153
Cairo,504,351
Shanghai,282,518
Kolkata,820,877
Beijing,525,920
Chongqing,30,961
Istanbul,-589,857
Lagos,-262,145
Delhi,-576,-139
São Paulo,-648,-731
Buenos Aires,-484,-987
