label,x,y
Tokyo,-958,78
Delhi,-911,-344
Osaka,-305,-480
São Paulo,317,-665
Karachi,384,-400
Beijing,986,-432
Buenos Aires,837,-58
Mumbai,911,769
Mexico City,433,252
Cairo,62,145
New York,-18,487
Shanghai,-213,939
Dhaka,-126,529
