label,x,y
Tokyo,836,-23
Shanghai,908,182
São Paulo,526,-44
Istanbul,359,293
Osaka,510,727
Dhaka,152,762
Beijing,-283,463
Mumbai,-500,655
Buenos Aires,-548,867
Delhi,-997,919
Karachi,-854,376
New York,-898,-602
Cairo,-763,-900
Mexico City,198,-771
Chongqing,806,-802
