label,x,y
Tokyo,724,-686
Chongqing,639,-173
Mexico City,697,391
Osaka,804,549
Karachi,141,703
Cairo,-137,617
Beijing,-857,747
São Paulo,-862,182
Shanghai,-878,-524
Istanbul,-991,-866
Dhaka,-465,-282
New York,-501,134
Buenos Aires,-438,239
Mumbai,-421,87
Delhi,-174,-90
