label,x,y
Tokyo,-11,-205
Delhi,358,-458
Osaka,630,-224
Cairo,832,464
New York,562,501
Dhaka,601,751
Beijing,396,748
Mexico City,-124,998
São Paulo,-740,661
Shanghai,-648,527
Mumbai,-608,-608
Karachi,-142,-376
