label,x,y
Tokyo,-74,104
Rio de Janeiro,-195,191
Chongqing,-67,286
Tianjin,119,308
Osaka,404,389
Manila,630,822
Lagos,-382,830
São Paulo,-426,289
Karachi,-925,250
Shanghai,-800,-17
Buenos Aires,-642,-45
Mexico City,-497,-56
Dhaka,-599,-298
Delhi,-404,-709
Cairo,-540,-835
Mumbai,-393,-822
Beijing,-365,-845
Kolkata,226,-672
New York,811,-620
Istanbul,401,-474
