label,x,y
Tokyo,-756,-504
São Paulo,-50,-967
Mexico City,-101,-539
Buenos Aires,-23,-336
Mumbai,553,-480
Delhi,427,694
Karachi,830,899
Shanghai,-11,830
Osaka,-150,896
Beijing,-602,628
New York,-574,448
Dhaka,-251,39
Cairo,-395,-310
