label,x,y
Tokyo,-225,502
Karachi,-422,306
Mumbai,-975,94
Manila,-778,-807
Istanbul,30,-280
Delhi,320,-706
Shanghai,354,-681
Cairo,980,-403
New York,272,-136
Dhaka,193,16
Chongqing,172,210
São Paulo,486,422
Osaka,779,317
Beijing,913,582
Mexico City,772,602
Buenos Aires,329,887
Kolkata,-128,805
