label,x,y
Tokyo,-15,-508
Delhi,594,-647
Mexico City,-213,-207
Beijing,-161,-132
Karachi,-206,324
Mumbai,-161,506
Chongqing,470,612
Osaka,580,637
São Paulo,357,842
Cairo,-33,894
New York,-291,934
Dhaka,-945,653
Shanghai,-591,-280
Buenos Aires,-645,-814
