label,x,y
Tokyo,-354,283
Mexico City,-322,745
Osaka,-697,617
New York,-922,700
Shanghai,-842,215
Manila,-511,239
Chongqing,-503,-41
Delhi,-414,-60
São Paulo,-218,-396
Kolkata,-346,-675
Buenos Aires,-219,-928
Dhaka,-182,-887
Lagos,264,-353
Karachi,664,-629
Mumbai,631,-249
Istanbul,678,206
Beijing,314,154
Cairo,17,-65
