label,x,y
Tokyo,-420,-83
Delhi,-90,46
Chongqing,149,-8
Buenos Aires,263,-622
Beijing,583,-316
Shanghai,529,-24
Mexico City,889,460
São Paulo,818,554
Karachi,-11,953
Dhaka,-185,359
Cairo,-292,391
Mumbai,-913,646
New York,-630,462
Kolkata,-499,39
Osaka,-983,-456
Istanbul,-541,-201
