label,x,y
Tokyo,-82,746
Shanghai,-689,110
Cairo,-920,153
Karachi,-806,-126
Rio de Janeiro,-908,-407
Istanbul,-601,-887
New York,-224,-481
Lagos,292,-829
Beijing,527,-788
Mexico City,676,-470
Manila,859,-18
Dhaka,891,256
Kolkata,806,317
São Paulo,301,607
Osaka,524,797
Buenos Aires,493,908
Chongqing,329,944
Delhi,175,974
Mumbai,-255,945
