label,x,y
Tokyo,-753,719
Beijing,-804,966
Cairo,-998,975
Mumbai,-837,533
Karachi,-861,497
São Paulo,-881,-968
Osaka,-52,-664
New York,431,-560
Buenos Aires,816,-875
Delhi,776,-513
Mexico City,-117,500
Shanghai,-316,513
Dhaka,-357,421
