label,x,y
Tokyo,422,-337
São Paulo,-182,-79
Mumbai,-912,-503
Delhi,-357,102
Buenos Aires,-621,567
Karachi,-247,390
Osaka,394,425
Dhaka,817,971
Shanghai,646,610
Cairo,475,-85
New York,595,-266
Chongqing,871,-402
Mexico City,667,-540
Beijing,411,-815
