label,x,y
Tokyo,612,-148
Cairo,444,298
São Paulo,-350,634
Karachi,-718,459
Mexico City,139,379
Shanghai,440,-511
Delhi,667,-777
Osaka,918,-501
Dhaka,979,-365
New York,990,-292
Beijing,990,-208
Mumbai,867,-313
