label,x,y
Tokyo,-370,448
Dhaka,-529,11
Mexico City,-978,-188
Lagos,-853,-414
Shanghai,-748,-492
Cairo,-85,-29
Osaka,272,-403
São Paulo,421,-791
Kolkata,723,-574
Istanbul,795,-113
Buenos Aires,276,330
Mumbai,488,435
Beijing,771,633
Chongqing,843,928
New York,124,855
Manila,-665,949
Delhi,-773,721
Karachi,-729,727
Rio de Janeiro,-542,568
