label,x,y
Tokyo,676,854
Osaka,733,597
New York,849,627
Cairo,802,543
Delhi,723,184
Beijing,835,-29
Mumbai,695,-110
Dhaka,-774,-680
Mexico City,-805,-956
Buenos Aires,-888,-526
Karachi,-620,-151
São Paulo,-677,506
Shanghai,-51,563
Chongqing,417,921
