label,x,y
Tokyo,-235,495
Cairo,161,670
Kolkata,935,185
Delhi,714,-365
Karachi,934,-610
Shanghai,919,-903
Mexico City,614,-683
Osaka,391,-371
Beijing,423,-144
Mumbai,-169,-152
São Paulo,-203,-127
Dhaka,-352,-607
Chongqing,-463,-513
Istanbul,-580,-113
New York,-521,213
Buenos Aires,-414,502
