label,x,y
Tokyo,124,812
Karachi,-34,831
Tianjin,-786,890
Buenos Aires,-768,736
Cairo,-616,-558
Shanghai,-413,-711
Mexico City,-360,-579
New York,-264,-662
Delhi,50,-420
São Paulo,573,-640
Mumbai,845,-846
Kolkata,911,-313
Beijing,545,-447
Rio de Janeiro,250,-161
Manila,266,-38
Dhaka,322,147
Osaka,291,318
Istanbul,562,454
Lagos,266,853
Chongqing,264,923
