label,x,y
Tokyo,704,270
Istanbul,796,-86
New York,626,-634
Shanghai,286,-669
Cairo,84,106
Dhaka,-263,-91
Karachi,-456,-589
Mumbai,-667,-869
Buenos Aires,-965,-97
Delhi,-698,364
Manila,-816,709
Mexico City,-547,700
Chongqing,57,852
Osaka,363,869
São Paulo,393,801
Beijing,185,500
Kolkata,408,500
