label,x,y
Tokyo,817,-256
Delhi,367,-609
New York,-123,-801
Chongqing,79,-422
Cairo,22,-378
Buenos Aires,-122,151
Osaka,-854,50
Mexico City,-861,336
Karachi,-664,440
Dhaka,-663,681
Beijing,-293,516
Shanghai,27,590
Mumbai,836,612
São Paulo,700,-203
