label,x,y
Tokyo,-901,-129
Mexico City,-618,-514
Kolkata,-679,-565
Lagos,-931,-822
Rio de Janeiro,-637,-844
Karachi,-418,-636
Dhaka,-185,-978
Chongqing,837,-500
Mumbai,906,-456
Shanghai,935,-103
Buenos Aires,911,400
New York,947,589
Beijing,687,761
Delhi,145,634
Cairo,-102,689
Osaka,-882,726
São Paulo,-912,582
Manila,-757,465
Istanbul,-664,371
