label,x,y
Tokyo,398,349
Cairo,962,265
Karachi,506,-360
Mumbai,149,127
Shanghai,-84,-50
Delhi,-948,-875
Dhaka,-552,379
Beijing,-590,544
Mexico City,-659,600
Osaka,-339,840
São Paulo,-258,824
New York,88,701
