label,x,y
Tokyo,785,622
Shanghai,978,975
Chongqing,788,997
Lagos,-28,943
Buenos Aires,-230,687
Karachi,-349,303
São Paulo,-658,204
Cairo,-941,-529
Mumbai,-898,-645
Beijing,-532,-508
Osaka,-377,-655
New York,-249,-566
Dhaka,-14,-530
Istanbul,804,-657
Mexico City,168,-36
Delhi,715,382
Manila,964,409
Kolkata,694,590
