label,x,y
Tokyo,-42,573
Shanghai,-213,182
Mumbai,-470,43
Cairo,-362,-185
Dhaka,-862,-537
Delhi,-650,-810
Istanbul,-546,-994
Mexico City,-210,-925
New York,-77,-350
São Paulo,302,-266
Osaka,577,-524
Karachi,961,-912
Beijing,559,-62
Kolkata,403,411
Chongqing,887,869
Buenos Aires,809,882
