label,x,y
Tokyo,501,-205
Beijing,358,-442
Dhaka,665,-788
Osaka,861,-942
Delhi,783,-851
Shanghai,435,-978
New York,-69,-575
Kolkata,-191,-904
Lagos,-756,-994
Manila,-429,-407
Rio de Janeiro,-386,-271
Mexico City,-278,467
Mumbai,-208,500
Istanbul,-406,776
São Paulo,-515,836
Cairo,-197,807
Buenos Aires,68,614
Karachi,18,478
Tianjin,841,336
Chongqing,915,-142
