label,x,y
Tokyo,-131,148
Beijing,171,811
Osaka,-350,521
Buenos Aires,-500,434
Delhi,-800,-488
Istanbul,-824,-644
New York,-684,-916
Mexico City,-486,-889
Dhaka,-162,-282
Karachi,400,-344
Mumbai,747,-500
São Paulo,848,-238
Cairo,722,-60
Shanghai,447,-221
Chongqing,-2,-95
