label,x,y
Tokyo,429,499
Delhi,138,79
Karachi,618,-459
Beijing,990,-743
Istanbul,806,-461
New York,356,-543
Chongqing,-276,-329
Mexico City,-564,-521
Kolkata,-772,236
Manila,-962,366
Osaka,-854,713
Buenos Aires,-566,833
São Paulo,-356,724
Mumbai,-636,425
Shanghai,-398,284
Dhaka,-196,157
Cairo,-18,94
