label,x,y
Tokyo,-69,-207
Delhi,-474,-407
New York,-349,-561
São Paulo,-802,-890
Dhaka,-884,-954
Istanbul,-770,-422
Chongqing,-694,-123
Osaka,-621,-108
Kolkata,-609,160
Mexico City,-715,743
Karachi,-396,713
Cairo,-281,573
Shanghai,64,987
Buenos Aires,320,818
Beijing,873,125
Mumbai,631,-453
