label,x,y
Tokyo,-250,234
Mexico City,-789,71
Istanbul,-739,475
Osaka,-218,526
Shanghai,237,668
Buenos Aires,544,338
Kolkata,858,11
Dhaka,579,-15
Cairo,491,-69
São Paulo,529,-432
Delhi,954,-617
Mumbai,654,-742
Beijing,298,-612
New York,77,-761
Chongqing,-250,-613
Karachi,-121,-353
