label,x,y
Tokyo,-762,-995
Cairo,-780,-242
Istanbul,-743,-84
Mumbai,-578,455
Beijing,-693,994
Delhi,-537,702
Dhaka,150,435
Chongqing,985,124
Osaka,248,-65
Buenos Aires,-91,39
Mexico City,-319,-189
Karachi,-198,-400
Shanghai,95,-770
São Paulo,-24,-788
New York,-175,-589
Kolkata,-353,-506
