label,x,y
Tokyo,890,881
Tianjin,254,961
Buenos Aires,255,396
Delhi,-8,289
Chongqing,-663,536
Beijing,-813,378
Shanghai,-938,307
Mexico City,-820,200
Osaka,-682,147
Manila,-907,-525
Lagos,-599,-846
New York,-526,-826
Dhaka,-308,-361
Istanbul,220,-788
Rio de Janeiro,781,-925
Mumbai,941,-802
Cairo,351,-596
Karachi,95,-274
Kolkata,483,111
São Paulo,674,100
