label,x,y
Tokyo,-943,-987
Shanghai,-496,-848
Dhaka,565,-958
Mumbai,754,-592
Karachi,797,-534
Osaka,529,130
Mexico City,272,-98
Delhi,-154,-213
New York,-460,-24
Cairo,-246,673
Beijing,-785,590
São Paulo,-480,-50
