label,x,y
Tokyo,-633,680
Delhi,-715,583
Buenos Aires,-427,616
Osaka,108,27
Mexico City,214,-232
Beijing,22,-451
Rio de Janeiro,-465,-395
Mumbai,-833,-687
New York,-851,-849
Chongqing,-45,-470
São Paulo,178,-677
Manila,520,-395
Karachi,791,68
Lagos,427,380
Cairo,945,886
Shanghai,859,929
Istanbul,476,839
Dhaka,-462,979
Kolkata,-680,843
