label,x,y
Tokyo,492,132
São Paulo,174,-47
Beijing,-194,-342
Buenos Aires,-614,-443
Osaka,-532,-994
Karachi,-865,-448
Cairo,-643,-438
Chongqing,-333,-331
Dhaka,-245,482
Mexico City,-316,825
Delhi,90,564
Shanghai,350,887
New York,574,217
Mumbai,759,-169
