label,x,y
Tokyo,-791,259
Delhi,-773,172
Osaka,-553,-176
Buenos Aires,-169,-56
Cairo,64,-341
Beijing,-2,-822
Shanghai,37,-986
Mumbai,36,-381
Chongqing,146,-317
New York,133,-221
Mexico City,353,911
Istanbul,-560,599
São Paulo,-740,729
Dhaka,-973,872
Karachi,-976,283
