label,x,y
Tokyo,203,-654
Shanghai,-277,-606
Beijing,-352,-171
São Paulo,-225,486
Dhaka,473,460
New York,502,616
Mumbai,526,918
Mexico City,161,899
Delhi,9,820
Cairo,-349,989
Buenos Aires,-695,841
Chongqing,-703,119
Osaka,-667,-139
Karachi,-423,-778
Istanbul,-407,-828
