label,x,y
Tokyo,-828,601
Mexico City,-667,463
Chongqing,-176,241
Shanghai,55,55
Buenos Aires,-70,70
Cairo,-508,4
Mumbai,-407,-197
New York,-143,-479
Dhaka,162,-844
Manila,320,-279
Karachi,384,-325
Delhi,903,-302
São Paulo,826,427
Istanbul,439,718
Osaka,42,949
Kolkata,-182,611
Beijing,-854,760
