label,x,y
Tokyo,807,-142
Mexico City,661,-18
Beijing,254,159
São Paulo,-10,339
Buenos Aires,-160,-128
Shanghai,-72,-353
Manila,-671,-929
Mumbai,-543,-584
Karachi,-401,21
Osaka,-832,284
Cairo,-845,369
Chongqing,-536,749
Delhi,-317,568
New York,-213,533
Dhaka,54,862
Kolkata,387,621
Istanbul,814,471
