label,x,y
Tokyo,483,-130
Delhi,295,-354
Kolkata,561,-493
Beijing,955,-831
Shanghai,964,-865
Karachi,296,-923
Mexico City,-392,-959
New York,86,-244
Istanbul,23,-151
Mumbai,-519,-8
Osaka,-575,178
Cairo,-868,-24
São Paulo,-893,482
Dhaka,-622,876
Chongqing,-408,958
Buenos Aires,810,866
Manila,719,-144
