label,x,y
Tokyo,865,713
Lagos,725,354
Karachi,832,-4
Beijing,988,-512
Manila,954,-750
Kolkata,680,-499
Mexico City,533,-526
Chongqing,-109,-997
Buenos Aires,-328,-850
Istanbul,-364,-759
New York,-333,-100
Mumbai,-271,-56
Dhaka,-109,21
Delhi,-431,225
Osaka,-798,767
Cairo,-871,903
São Paulo,-123,953
Shanghai,399,367
