label,x,y
Tokyo,-317,193
Mumbai,-962,904
Osaka,-135,691
Chongqing,156,960
Shanghai,349,606
Manila,908,538
Delhi,825,-154
Istanbul,695,-284
Buenos Aires,961,-498
Kolkata,713,-621
Cairo,567,-852
Beijing,-131,-813
Mexico City,-979,-741
Dhaka,-709,4
New York,-229,72
São Paulo,-146,147
Lagos,224,258
Karachi,-136,238
