label,x,y
Tokyo,533,-741
Dhaka,-223,-863
São Paulo,-768,-529
Karachi,-971,-501
Osaka,-862,239
Beijing,-305,25
New York,-187,-32
Buenos Aires,-94,380
Mumbai,436,-48
Shanghai,764,289
Mexico City,899,642
Delhi,742,-36
Cairo,618,-396
