label,x,y
Tokyo,-218,542
Karachi,-266,427
New York,-287,330
Beijing,-672,155
Mexico City,-917,61
Manila,-927,-9
Shanghai,-171,-116
Lagos,-79,-99
Istanbul,-5,-470
Buenos Aires,30,-684
Dhaka,993,-445
São Paulo,947,-293
Delhi,715,144
Osaka,496,61
Cairo,562,331
Mumbai,694,706
Kolkata,275,776
Chongqing,262,565
