label,x,y
Tokyo,63,-267
Shanghai,-33,-833
Delhi,-396,-578
New York,-972,-362
Manila,-864,100
Osaka,-917,872
Dhaka,-612,825
Karachi,-593,-3
Kolkata,-504,-103
Chongqing,-69,-146
Buenos Aires,305,162
Mexico City,351,565
São Paulo,559,337
Istanbul,834,402
Beijing,947,126
Cairo,807,-209
Mumbai,373,-176
