label,x,y
Tokyo,647,422
New York,481,749
Karachi,96,918
Istanbul,-332,753
Beijing,-996,883
Delhi,-881,-156
Mexico City,-719,-392
Osaka,-866,-166
Buenos Aires,-157,322
Mumbai,116,171
Dhaka,347,20
Chongqing,240,-608
Shanghai,346,-316
Cairo,965,-72
São Paulo,946,220
