label,x,y
Tokyo,-455,-15
Mumbai,-65,-3
Shanghai,-55,-138
Osaka,563,-478
São Paulo,937,-921
Delhi,591,-256
Mexico City,505,458
Dhaka,-309,783
Karachi,-608,845
Buenos Aires,-610,697
Beijing,-759,669
Cairo,-974,45
New York,-917,-994
