label,x,y
Tokyo,928,-929
Dhaka,37,-533
São Paulo,-474,-253
Istanbul,-702,-549
Cairo,-876,-676
Buenos Aires,-951,-774
Beijing,-988,-442
Osaka,-813,-144
Shanghai,-461,527
Manila,-479,961
Mexico City,83,389
Chongqing,546,363
Mumbai,983,909
Karachi,544,256
Delhi,-11,20
New York,46,-465
Kolkata,-28,-773
