label,x,y
Tokyo,-297,-853
Karachi,-281,-704
Buenos Aires,-674,-580
Mumbai,-514,-376
Beijing,-497,250
New York,-859,904
Osaka,-302,893
Delhi,-164,465
Chongqing,44,827
Dhaka,550,880
São Paulo,204,335
Cairo,984,35
Istanbul,661,-410
Kolkata,345,-636
Shanghai,457,-777
Mexico City,265,-973
