label,x,y
Tokyo,-3,781
Mexico City,-762,955
São Paulo,-488,386
Shanghai,-568,258
New York,-858,-258
Delhi,-308,-83
Dhaka,-230,-9
Mumbai,-184,-624
Cairo,43,-867
Beijing,707,-240
Buenos Aires,766,-124
Osaka,539,168
Karachi,87,48
