label,x,y
Tokyo,517,-274
Dhaka,818,-513
Shanghai,399,-759
Cairo,392,-870
Lagos,304,-793
Kolkata,248,-785
Istanbul,-302,-918
Manila,-192,-804
São Paulo,-123,-149
Delhi,-52,89
Karachi,-586,106
Chongqing,-256,517
Mexico City,-220,721
New York,356,846
Beijing,876,873
Mumbai,784,706
Buenos Aires,968,141
Osaka,728,93
