label,x,y
Tokyo,-98,-187
Mexico City,-90,339
Delhi,-293,702
Istanbul,-691,964
Osaka,-727,905
Chongqing,-591,761
Beijing,-856,119
New York,-799,-627
Karachi,-876,-926
Manila,-222,-867
Dhaka,54,-661
Buenos Aires,218,-847
Shanghai,968,-716
Cairo,904,-448
São Paulo,602,-370
Kolkata,426,210
Mumbai,318,-63
