label,x,y
Tokyo,208,-537
Mexico City,394,-532
Karachi,539,-714
São Paulo,712,-196
Shanghai,789,21
Osaka,454,161
New York,580,487
Delhi,912,876
Buenos Aires,293,439
Dhaka,-252,460
Mumbai,-866,465
Beijing,-859,-311
Cairo,-808,-435
Chongqing,-674,-967
