label,x,y
Tokyo,433,874
Chongqing,444,505
Rio de Janeiro,890,72
Karachi,991,-475
Lagos,796,-640
Tianjin,630,-855
Manila,411,-529
Osaka,210,-865
Delhi,26,-916
Dhaka,-406,-665
Cairo,-658,-430
Buenos Aires,-775,-480
Mexico City,-746,-16
Istanbul,-720,536
Mumbai,-413,678
Shanghai,-51,420
Beijing,-149,74
New York,133,-80
São Paulo,276,270
Kolkata,444,712
