label,x,y
Tokyo,699,102
São Paulo,309,908
Mumbai,-121,669
Istanbul,-290,974
Beijing,-294,738
Chongqing,-323,378
Osaka,-571,564
Mexico City,-747,776
Cairo,-929,553
New York,-940,282
Shanghai,-823,-696
Kolkata,31,-590
Delhi,476,-885
Manila,76,-493
Dhaka,516,-48
Buenos Aires,769,-116
Karachi,829,140
