label,x,y
Tokyo,518,-317
Delhi,854,-429
Osaka,765,-489
São Paulo,488,-800
Mexico City,434,-842
Cairo,248,-874
Dhaka,-62,-723
Istanbul,-693,-954
New York,-289,-307
Mumbai,-333,-135
Manila,-272,139
Shanghai,-70,93
Buenos Aires,-195,299
Kolkata,284,825
Chongqing,605,716
Karachi,809,706
Beijing,353,-113
