label,x,y
Tokyo,726,-520
Shanghai,485,-256
New York,634,-42
Karachi,415,469
Cairo,999,611
Buenos Aires,640,925
Osaka,107,959
São Paulo,-245,867
Delhi,-844,429
Chongqing,-824,-973
Beijing,-122,-966
Mumbai,-83,-857
Dhaka,517,-445
Mexico City,957,-591
