label,x,y
Tokyo,-875,120
Beijing,-68,226
Delhi,-23,6
Istanbul,-26,-97
Mexico City,-51,-429
New York,171,-451
Cairo,180,-445
Karachi,411,-294
Chongqing,699,-508
Buenos Aires,993,-272
Shanghai,690,-158
Dhaka,647,920
São Paulo,578,919
Osaka,-301,710
Mumbai,-918,542
Kolkata,-917,98
Manila,-976,60
