label,x,y
Tokyo,288,83
São Paulo,209,202
Tianjin,-43,171
Rio de Janeiro,-131,49
New York,-376,-37
Dhaka,-846,-62
Mexico City,-697,272
Manila,-537,329
Mumbai,-634,497
Istanbul,-921,379
Karachi,-992,794
Buenos Aires,-439,769
Osaka,-294,614
Beijing,11,479
Shanghai,292,539
Kolkata,351,366
Lagos,840,754
Chongqing,908,443
Cairo,730,212
Delhi,978,-526
