label,x,y
Tokyo,-970,722
Mumbai,-777,115
Osaka,-920,-530
Buenos Aires,-699,-182
Dhaka,-214,-169
Cairo,52,-607
Karachi,685,-665
Delhi,685,-141
Shanghai,963,890
Beijing,374,234
Mexico City,-228,461
São Paulo,-412,866
New York,-676,677
