label,x,y
Tokyo,-343,-349
Karachi,-226,-353
Osaka,392,-740
Beijing,591,-569
Mexico City,408,128
Dhaka,889,437
Istanbul,257,264
São Paulo,-125,440
Buenos Aires,-240,726
Delhi,-819,980
Chongqing,-590,536
New York,-991,266
Mumbai,-744,120
Shanghai,-629,70
Cairo,-733,-25
