label,x,y
Tokyo,-507,3
Beijing,-531,-140
Karachi,-408,-275
Chongqing,-497,-689
Shanghai,550,-970
São Paulo,833,-994
Istanbul,503,-784
New York,557,249
Delhi,596,854
Kolkata,971,995
Mumbai,559,839
Manila,218,568
Mexico City,233,264
Cairo,98,251
Osaka,-19,200
Buenos Aires,-566,722
Dhaka,-727,-5
