label,x,y
Tokyo,835,437
New York,819,208
Delhi,915,-76
Dhaka,949,-722
Osaka,142,-620
Buenos Aires,94,-517
Mumbai,-619,-856
São Paulo,-977,-306
Cairo,-847,40
Beijing,-846,486
Chongqing,-228,494
Karachi,-151,901
Mexico City,30,885
Shanghai,277,501
