label,x,y
Tokyo,558,-391
New York,149,-784
Beijing,250,-986
Osaka,-365,-959
Mumbai,-573,-401
Buenos Aires,-719,-278
Delhi,-953,549
Shanghai,-653,986
Karachi,-319,653
Cairo,694,760
Chongqing,132,350
São Paulo,17,-72
Dhaka,542,-351
Mexico City,909,-232
