label,x,y
Tokyo,758,215
São Paulo,948,460
Cairo,0,416
Shanghai,-426,769
New York,-798,596
Buenos Aires,-47,-105
Delhi,-442,-507
Dhaka,-111,-583
Mumbai,76,-993
Mexico City,265,-867
Karachi,375,-955
Osaka,518,-866
Beijing,459,-232
