label,x,y
Tokyo,-952,-46
Delhi,-471,-496
Karachi,-573,-790
Tianjin,-92,-559
Mumbai,-75,-655
Dhaka,-38,-733
Kolkata,452,-728
Cairo,608,-520
Rio de Janeiro,532,-390
Buenos Aires,842,-167
São Paulo,834,500
New York,479,633
Shanghai,385,551
Osaka,234,766
Chongqing,265,533
Mexico City,-92,428
Lagos,-224,408
Manila,-976,981
Beijing,-950,267
Istanbul,-776,69
