label,x,y
Tokyo,-715,651
Cairo,-575,524
Mexico City,-661,128
Beijing,-487,123
New York,-555,-95
Osaka,-498,-462
Shanghai,-718,-817
Dhaka,-187,-742
Karachi,-54,-577
São Paulo,223,-698
Delhi,940,-165
Buenos Aires,930,385
Mumbai,-473,514
