label,x,y
Tokyo,-481,723
Istanbul,97,463
São Paulo,5,226
Shanghai,117,24
Beijing,-20,-173
Mexico City,-29,-237
Osaka,-222,-408
Buenos Aires,-727,-544
Lagos,-182,-697
Chongqing,458,-767
Cairo,703,100
Delhi,531,202
New York,580,361
Dhaka,946,929
Tianjin,528,742
Manila,186,748
Rio de Janeiro,-228,823
Karachi,-746,981
Mumbai,-785,906
Kolkata,-783,616
