label,x,y
Tokyo,68,930
Mexico City,367,621
Dhaka,495,304
São Paulo,785,-392
Delhi,984,-624
Buenos Aires,361,-508
Beijing,110,-619
Karachi,-168,-922
Istanbul,-502,-832
Manila,-901,-768
Chongqing,-609,-312
Mumbai,-362,-345
New York,9,-402
Shanghai,120,159
Cairo,-268,511
Kolkata,-752,565
Osaka,-582,918
