label,x,y
Tokyo,-408,10
Cairo,-339,-88
São Paulo,-126,-106
Delhi,-14,-190
Mumbai,163,-763
New York,119,-276
Karachi,211,-147
Shanghai,514,125
Osaka,336,665
Beijing,-354,856
Mexico City,-813,606
Dhaka,-478,563
