label,x,y
Tokyo,633,498
Karachi,325,273
Dhaka,112,-366
Cairo,509,-475
Beijing,551,-999
New York,-57,-674
Osaka,-160,-960
Mexico City,-168,-936
São Paulo,-774,-855
Buenos Aires,-955,-615
Delhi,-824,-600
Shanghai,-229,-125
Mumbai,-458,890
