label,x,y
Tokyo,593,400
Cairo,299,108
Dhaka,207,110
Shanghai,495,-165
Buenos Aires,973,-409
Beijing,326,-343
Karachi,-297,-571
Osaka,-505,-846
Delhi,-991,-686
Mexico City,-651,-719
São Paulo,-333,521
Mumbai,202,642
New York,871,895
