label,x,y
Tokyo,956,307
São Paulo,416,197
Mumbai,638,-795
Shanghai,-56,-330
Buenos Aires,-165,-521
New York,-771,-938
Beijing,-806,-530
Dhaka,-804,-509
Osaka,-276,273
Karachi,-247,374
Delhi,-357,599
Cairo,85,969
Mexico City,320,853
