label,x,y
Tokyo,-116,-443
Mexico City,-249,-752
Dhaka,-29,-769
Delhi,314,-526
Karachi,581,-46
Osaka,800,29
Beijing,952,575
São Paulo,632,691
Mumbai,193,523
Shanghai,100,488
Cairo,-283,580
Buenos Aires,-581,74
New York,-197,-417
