label,x,y
Tokyo,801,509
Cairo,680,307
Shanghai,192,178
Lagos,-70,206
Mexico City,-785,521
Karachi,-963,827
Dhaka,-864,620
Manila,-986,-162
Delhi,-865,-764
New York,-802,-913
Osaka,-559,-639
Mumbai,-397,-721
Kolkata,-296,-306
Buenos Aires,-2,-184
Istanbul,-108,-495
Beijing,-46,-637
São Paulo,917,-684
Chongqing,780,-24
