label,x,y
Tokyo,-424,862
Karachi,-779,544
Mexico City,-934,175
Chongqing,-542,240
São Paulo,-549,-14
Beijing,-351,-351
Buenos Aires,-722,-341
Lagos,-747,-796
Manila,-397,-967
Dhaka,126,-882
Delhi,35,-700
New York,80,-629
Shanghai,600,-466
Mumbai,544,-402
Istanbul,377,-259
Cairo,909,830
Osaka,62,612
Kolkata,-3,952
