label,x,y
Tokyo,-70,-385
Shanghai,-52,-187
Dhaka,204,-522
Kolkata,517,-943
São Paulo,673,-886
Karachi,929,-656
Delhi,837,147
Osaka,682,242
Mumbai,772,319
Buenos Aires,964,421
Beijing,824,572
Mexico City,595,716
Tianjin,317,762
Chongqing,466,535
Lagos,204,204
Istanbul,127,641
Cairo,-282,644
Manila,-744,354
Rio de Janeiro,-832,-122
New York,-869,-923
