label,x,y
Tokyo,-774,722
São Paulo,-699,610
Delhi,-141,302
Karachi,144,19
Osaka,-227,-378
Buenos Aires,286,-274
Kolkata,415,-790
Shanghai,748,-246
Cairo,961,-225
Beijing,950,17
Mexico City,971,35
Istanbul,983,158
New York,444,430
Dhaka,628,858
Chongqing,389,875
Mumbai,242,959
