label,x,y
Tokyo,120,-922
Dhaka,-123,-800
Rio de Janeiro,-176,-629
Istanbul,-585,-593
Karachi,-801,-233
Manila,-515,99
Osaka,-646,308
Delhi,-593,961
Shanghai,-305,725
Kolkata,-308,534
São Paulo,-125,465
Mexico City,271,697
Beijing,573,368
Lagos,496,179
Chongqing,880,-181
Mumbai,835,-709
Buenos Aires,526,-385
Cairo,470,-292
New York,110,-735
