label,x,y
Tokyo,-666,954
Cairo,-365,879
Karachi,-228,545
Mexico City,48,-48
Kolkata,119,-272
Shanghai,178,5
Osaka,843,182
Chongqing,943,510
Beijing,850,-181
Manila,735,-345
Delhi,536,-454
Mumbai,352,-610
Buenos Aires,-9,-586
Dhaka,-883,-754
São Paulo,-838,-627
New York,-977,619
Istanbul,-605,781
