label,x,y
Tokyo,909,-315
Shanghai,650,-366
São Paulo,331,-554
Karachi,-460,-432
Beijing,-487,110
Mexico City,-636,194
Osaka,-747,431
Chongqing,-644,399
Buenos Aires,-473,447
Cairo,-511,812
Kolkata,-101,903
Mumbai,323,601
New York,267,57
Dhaka,497,318
Delhi,939,600
Istanbul,994,165
