label,x,y
Tokyo,-767,-800
Mumbai,-357,-901
Shanghai,381,-824
Osaka,145,-513
Karachi,-248,-419
Cairo,11,-113
Beijing,-58,371
Delhi,34,823
Mexico City,-286,664
São Paulo,-235,498
New York,-848,-152
Dhaka,-992,-159
