label,x,y
Tokyo,330,948
Shanghai,373,938
Dhaka,553,488
Cairo,891,-187
São Paulo,452,-822
Mumbai,-44,-223
Delhi,-600,-574
Beijing,-836,-370
Mexico City,-881,273
Buenos Aires,-925,746
New York,-819,873
Osaka,-263,492
Karachi,-206,415
Chongqing,-56,943
