label,x,y
Tokyo,-35,813
São Paulo,-16,916
Buenos Aires,369,937
Beijing,614,477
Kolkata,913,623
Dhaka,973,-106
Lagos,768,-294
Shanghai,952,-851
Delhi,281,-854
New York,-40,-869
Chongqing,-508,-857
Karachi,-711,-291
Osaka,-878,-260
Mexico City,-831,366
Istanbul,-341,-60
Mumbai,-194,-317
Cairo,252,-156
Manila,-246,194
