label,x,y
Tokyo,-73,33
Mumbai,-95,54
São Paulo,-768,545
Manila,-797,668
Kolkata,-791,567
Istanbul,-359,169
Chongqing,-594,-540
Buenos Aires,-134,-333
New York,217,-861
Beijing,909,-724
Cairo,519,-270
Mexico City,251,-12
Shanghai,568,457
Dhaka,603,684
Karachi,751,793
Delhi,459,821
Lagos,388,771
Osaka,283,461
