label,x,y
Tokyo,743,601
Mumbai,875,760
Buenos Aires,695,946
Karachi,432,921
Cairo,328,771
Chongqing,-44,264
Shanghai,-344,419
Delhi,-538,616
Beijing,-601,242
New York,-759,180
São Paulo,-935,71
Lagos,-717,-495
Istanbul,-77,-751
Osaka,513,-825
Kolkata,-6,-333
Dhaka,-56,-157
Mexico City,195,-137
Manila,849,455
