label,x,y
Tokyo,-938,692
Mumbai,-801,-243
Dhaka,-512,38
Shanghai,-197,-20
Manila,254,-176
São Paulo,500,-525
Beijing,886,-125
Karachi,934,78
Osaka,796,252
Delhi,654,5
Kolkata,169,240
Chongqing,345,551
Istanbul,179,562
Buenos Aires,-98,476
Cairo,-182,377
Mexico City,-627,935
New York,-940,995
