label,x,y
Tokyo,-258,-388
New York,145,-759
Mexico City,717,-771
Buenos Aires,962,-369
Mumbai,486,-219
Dhaka,303,498
Cairo,747,789
Osaka,640,850
Delhi,-250,748
São Paulo,-159,11
Beijing,-687,80
Shanghai,-803,-432
Karachi,-624,-454
