label,x,y
Tokyo,245,672
Cairo,547,439
Chongqing,672,530
Rio de Janeiro,746,208
Beijing,586,138
Mumbai,716,-64
Karachi,894,-57
Manila,840,-333
Mexico City,896,-628
Kolkata,452,-754
New York,298,-969
Dhaka,-75,-964
Istanbul,1,-831
Buenos Aires,-119,-713
Delhi,214,-457
Shanghai,95,79
Lagos,-211,-64
Osaka,-511,-265
São Paulo,-580,574
Tianjin,-489,643
