label,x,y
Tokyo,3,-812
Mexico City,132,-789
Chongqing,483,-731
Buenos Aires,700,-974
Mumbai,684,-753
Osaka,493,-615
Kolkata,721,55
Delhi,972,806
Beijing,168,91
São Paulo,-622,532
Shanghai,-750,700
Dhaka,-976,964
Istanbul,-947,788
New York,-769,232
Cairo,-462,28
Karachi,-234,-178
