label,x,y
Tokyo,-341,-683
Karachi,-24,-79
Mexico City,13,-96
Beijing,210,-369
Dhaka,383,-477
Buenos Aires,472,-719
Manila,474,-772
São Paulo,562,-622
Kolkata,896,-261
Rio de Janeiro,861,370
Mumbai,952,627
Lagos,808,885
Cairo,214,675
New York,-616,920
Shanghai,-589,633
Osaka,-747,275
Istanbul,-919,158
Delhi,-668,69
Chongqing,-629,-922
