label,x,y
Tokyo,-191,-193
Karachi,-56,-205
Manila,171,-247
Istanbul,786,-635
Dhaka,987,-502
Chongqing,311,-179
New York,358,74
Beijing,654,718
São Paulo,884,917
Cairo,312,693
Mumbai,-13,442
Osaka,-22,156
Mexico City,-241,197
Delhi,-723,13
Shanghai,-968,-99
Kolkata,-524,-405
Buenos Aires,-284,-733
