label,x,y
Tokyo,-4,630
Delhi,31,879
Karachi,165,506
Rio de Janeiro,300,695
Mexico City,396,836
Istanbul,540,859
Osaka,640,641
Cairo,702,353
Manila,489,-12
New York,442,-416
Kolkata,956,-463
Chongqing,608,-911
São Paulo,279,-856
Dhaka,114,-930
Shanghai,-286,-688
Lagos,-584,-796
Mumbai,-259,-244
Beijing,-998,-89
Buenos Aires,-794,184
