label,x,y
Tokyo,-707,439
Cairo,-753,32
Karachi,54,-152
Mexico City,14,-714
Shanghai,-1,-761
Delhi,476,-379
Dhaka,765,158
Mumbai,832,501
Osaka,874,773
Beijing,588,539
New York,-15,407
São Paulo,-88,481
