label,x,y
Tokyo,849,-560
Dhaka,852,250
Karachi,146,520
Cairo,11,539
Istanbul,-474,904
Mexico City,-462,384
Chongqing,-52,-183
Osaka,-310,-453
Kolkata,-702,-625
Beijing,-795,-841
Delhi,-367,-890
São Paulo,37,-991
Buenos Aires,-40,-592
Shanghai,103,-192
Mumbai,548,-430
New York,670,-574
