label,x,y
Tokyo,659,39
Karachi,815,-298
Beijing,689,-513
Delhi,589,-469
Osaka,-406,-674
Mumbai,-399,-955
Chongqing,-410,-665
New York,-779,-191
Mexico City,-993,-139
Cairo,-449,-49
Shanghai,-701,733
Buenos Aires,-199,614
Dhaka,-248,324
São Paulo,246,3
