label,x,y
Tokyo,-991,-692
Mexico City,159,-869
Osaka,987,-367
Dhaka,698,-49
Delhi,898,831
São Paulo,484,907
Cairo,405,544
Mumbai,244,376
Beijing,-576,836
Shanghai,-800,972
New York,-661,645
Karachi,-476,-358
