label,x,y
Tokyo,-567,394
Shanghai,77,193
Karachi,-168,-81
Dhaka,37,-386
Mumbai,688,-920
Delhi,168,-999
Osaka,109,-914
Beijing,-684,-929
Cairo,-640,-680
New York,-864,-167
São Paulo,-652,382
Buenos Aires,-678,576
Mexico City,-529,929
