label,x,y
Tokyo,-100,567
Osaka,419,915
Beijing,428,474
Karachi,527,412
Chongqing,904,-129
New York,851,-589
Cairo,679,-368
Manila,103,196
Delhi,-348,-412
Mumbai,-465,-126
São Paulo,-705,-52
Lagos,-856,144
Dhaka,-567,214
Mexico City,-548,262
Buenos Aires,-815,441
Shanghai,-958,967
Kolkata,-456,555
Istanbul,-344,535
