label,x,y
Tokyo,-27,-167
Chongqing,-31,142
Kolkata,-308,134
Beijing,-554,-271
Mumbai,-854,247
Istanbul,-839,501
Buenos Aires,-899,941
Shanghai,-464,760
Osaka,-334,731
Karachi,117,453
Dhaka,333,514
Delhi,216,245
New York,781,115
Mexico City,815,13
Cairo,946,-342
São Paulo,440,-145
