label,x,y
Tokyo,-669,-389
Mumbai,-926,-358
São Paulo,-706,-705
Dhaka,-230,-635
Delhi,-198,-763
Osaka,-31,-635
Buenos Aires,450,-720
Mexico City,552,-243
Beijing,153,81
New York,600,708
Karachi,-147,376
Shanghai,-533,873
Cairo,-157,187
Chongqing,-320,-383
