label,x,y
Tokyo,661,-128
Shanghai,712,155
Dhaka,738,398
Kolkata,692,925
Mexico City,268,436
Delhi,-420,756
Karachi,-665,963
Beijing,-161,230
São Paulo,-421,-406
Istanbul,-736,-582
Buenos Aires,-925,-950
New York,-852,-710
Mumbai,-469,-520
Chongqing,142,-776
Cairo,868,-595
Osaka,845,-232
