label,x,y
Tokyo,-835,32
Delhi,-907,626
Kolkata,-339,477
Istanbul,312,935
Mumbai,540,656
Dhaka,714,428
São Paulo,823,371
Mexico City,962,90
Cairo,267,-315
New York,79,-592
Buenos Aires,107,-99
Shanghai,-254,-150
Osaka,-127,194
Beijing,-344,181
Karachi,-409,46
Chongqing,-448,135
