label,x,y
Tokyo,728,-19
Beijing,723,-105
Buenos Aires,957,-206
Delhi,648,-302
Dhaka,777,-564
Mumbai,488,-875
Mexico City,-18,-971
Cairo,-277,-876
Shanghai,-416,-70
São Paulo,-975,105
Karachi,-554,109
New York,299,291
Osaka,656,-74
