label,x,y
Tokyo,-638,-148
Shanghai,-814,-178
Chongqing,-913,-483
Beijing,-882,-937
Kolkata,-555,-709
Cairo,-410,-653
Dhaka,-414,-957
Delhi,718,-799
Manila,768,-836
Mumbai,813,-652
New York,830,-557
Buenos Aires,865,-424
Istanbul,929,-84
São Paulo,368,1
Tianjin,-45,221
Osaka,-283,183
Karachi,-79,505
Rio de Janeiro,-15,860
Lagos,-508,953
Mexico City,-764,289
