label,x,y
Tokyo,-858,-240
Shanghai,-866,-321
Dhaka,-304,-809
Istanbul,56,-339
Manila,420,-438
New York,654,-692
Kolkata,668,197
Osaka,543,531
Mexico City,668,795
Beijing,135,538
Delhi,-107,188
Cairo,-267,323
Karachi,-475,307
São Paulo,-479,418
Lagos,-614,554
Chongqing,-619,995
Mumbai,-639,705
Buenos Aires,-831,433
