label,x,y
Tokyo,281,146
Osaka,910,545
Mumbai,724,10
Dhaka,437,-797
Karachi,395,-909
Shanghai,-123,-873
Mexico City,-515,-756
Beijing,-882,-112
Delhi,-698,708
São Paulo,-104,-33
Cairo,-237,-249
New York,-18,-268
