label,x,y
Tokyo,90,-244
Delhi,8,-645
Chongqing,-152,-705
Dhaka,-359,-383
Beijing,-822,-593
Shanghai,-644,-388
São Paulo,-763,606
Mexico City,-109,359
Buenos Aires,314,802
Karachi,691,528
Cairo,939,770
New York,898,419
Manila,781,-71
Kolkata,920,-719
Mumbai,314,-211
Osaka,199,84
Istanbul,190,25
