label,x,y
Tokyo,-515,957
São Paulo,-706,571
Dhaka,-754,304
Lagos,-254,-72
Chongqing,285,-34
Buenos Aires,501,267
New York,375,-354
Cairo,845,-791
Istanbul,825,-792
Mumbai,229,-918
Kolkata,-282,-690
Karachi,-249,-624
Shanghai,-237,-493
Beijing,-487,-312
Delhi,-718,-564
Manila,-834,0
Mexico City,-801,469
Osaka,-645,671
