label,x,y
Tokyo,-335,-139
Mexico City,-251,-986
Istanbul,-548,-869
Mumbai,-905,-570
Delhi,-706,-202
Buenos Aires,-967,636
Osaka,-319,722
Beijing,-225,582
São Paulo,355,903
Karachi,175,414
Dhaka,170,211
New York,989,-216
Shanghai,118,44
Manila,-9,95
Cairo,-6,192
Chongqing,-133,156
Kolkata,-199,116
