label,x,y
Tokyo,-910,-810
Cairo,-511,9
Shanghai,-161,273
Kolkata,37,302
Istanbul,213,673
Dhaka,430,919
São Paulo,586,557
Beijing,786,600
Mumbai,794,554
Chongqing,523,351
Buenos Aires,372,282
Mexico City,517,-195
Manila,862,-183
Lagos,489,-299
Karachi,665,-777
Delhi,779,-813
New York,511,-991
Osaka,-402,-502
