label,x,y
Tokyo,67,-492
Mexico City,-7,-281
São Paulo,349,-234
Dhaka,163,65
Shanghai,332,824
Cairo,-182,86
New York,-389,124
Delhi,-324,21
Karachi,-358,-43
Mumbai,-596,-143
Osaka,-598,-710
Beijing,-505,-852
