label,x,y
Tokyo,-483,38
Mumbai,23,326
Delhi,513,944
Mexico City,764,578
Chongqing,504,-316
Osaka,812,-676
Dhaka,775,-821
Karachi,346,-925
Cairo,128,-730
São Paulo,-84,-434
New York,-525,-240
Shanghai,-993,-50
Buenos Aires,-699,84
Beijing,-730,329
