label,x,y
Tokyo,281,-538
Shanghai,120,-912
Osaka,-112,-935
Beijing,-346,-770
Manila,-589,-611
Mumbai,39,-408
Dhaka,234,146
Delhi,-144,671
Chongqing,-336,805
Cairo,-420,965
Istanbul,-346,949
Kolkata,532,934
Mexico City,820,898
New York,948,736
Lagos,606,530
Karachi,649,-531
São Paulo,669,-883
Buenos Aires,446,-751
