label,x,y
Tokyo,-710,150
Cairo,-608,484
Osaka,-819,547
Rio de Janeiro,-674,567
Tianjin,-619,749
Istanbul,-475,870
Shanghai,130,742
Dhaka,197,622
Delhi,562,580
Chongqing,612,125
Kolkata,21,-186
Manila,21,-416
Mexico City,424,-879
São Paulo,173,-769
Lagos,-605,-849
Karachi,-627,-748
New York,-456,-587
Beijing,-188,-88
Mumbai,-89,353
Buenos Aires,-462,337
