label,x,y
Tokyo,480,308
Mumbai,346,107
Karachi,113,54
Shanghai,639,-954
Cairo,437,-792
Istanbul,-943,-947
Mexico City,-904,144
São Paulo,-595,523
Buenos Aires,-251,638
Beijing,-350,900
Delhi,-6,760
Chongqing,344,588
New York,680,847
Osaka,852,901
Dhaka,985,252
