label,x,y
Tokyo,526,623
São Paulo,557,670
Cairo,954,364
Delhi,995,164
Tianjin,859,24
Buenos Aires,968,-829
Manila,351,-703
Shanghai,-162,-867
Lagos,-263,-811
Rio de Janeiro,-571,-705
Chongqing,-740,-630
Beijing,-261,-485
Mumbai,-316,-252
Karachi,-591,-300
Osaka,-594,-151
Dhaka,-458,438
Kolkata,-699,573
Istanbul,-953,728
New York,-740,871
Mexico City,-404,870
