label,x,y
Tokyo,-192,-683
Cairo,-761,-373
Mumbai,-815,-244
New York,-477,-172
Mexico City,-468,-51
Dhaka,-802,592
Chongqing,-890,749
Buenos Aires,-1,529
Shanghai,396,932
São Paulo,531,220
Delhi,207,-399
Osaka,435,-638
Karachi,102,-520
Beijing,-51,-829
