label,x,y
Tokyo,-308,367
Cairo,-137,-147
São Paulo,20,-495
Osaka,359,-867
Dhaka,985,-953
Karachi,614,-281
Delhi,490,-162
Mumbai,558,75
Shanghai,925,419
Mexico City,514,486
Beijing,-67,400
New York,-732,906
