label,x,y
Tokyo,98,382
Shanghai,-200,356
Cairo,-191,787
Rio de Janeiro,-521,639
Mexico City,-692,486
Mumbai,-537,334
Karachi,-601,286
Manila,-599,122
Dhaka,-352,-139
Beijing,-354,-922
Osaka,-135,-963
New York,558,-870
Delhi,609,-374
Buenos Aires,343,-16
Kolkata,512,37
São Paulo,976,-24
Istanbul,938,18
Lagos,663,201
Chongqing,470,712
