label,x,y
Tokyo,756,-649
Cairo,811,-611
Dhaka,680,-386
Rio de Janeiro,976,-249
Mexico City,669,-29
Buenos Aires,512,324
Osaka,784,706
Lagos,891,632
Tianjin,686,645
Manila,273,929
New York,-60,708
Delhi,-203,851
Chongqing,-627,230
Mumbai,-516,32
Beijing,-159,-171
Istanbul,-715,-78
Karachi,-967,-883
Shanghai,-640,-953
São Paulo,-141,-946
Kolkata,133,-959
