label,x,y
Tokyo,-265,-564
São Paulo,129,-135
New York,828,-180
Delhi,973,-149
Beijing,479,307
Dhaka,399,315
Buenos Aires,385,416
Mexico City,908,934
Mumbai,576,997
Cairo,24,741
Shanghai,37,486
Karachi,-507,-91
Osaka,-685,-196
