label,x,y
Tokyo,713,-89
Delhi,483,-692
Beijing,146,-801
Karachi,-344,-832
Buenos Aires,-887,-586
São Paulo,-566,22
Chongqing,-954,163
Mexico City,-819,835
New York,-687,769
Osaka,-276,139
Dhaka,51,289
Mumbai,393,596
Istanbul,475,943
Shanghai,402,520
Cairo,443,-67
