label,x,y
Tokyo,870,752
Shanghai,499,683
Karachi,123,471
Istanbul,-114,680
Mexico City,-917,975
Mumbai,-793,240
Beijing,-554,-461
São Paulo,-605,-533
Buenos Aires,-459,-610
New York,-187,-364
Dhaka,269,-967
Kolkata,232,-244
Cairo,-82,82
Manila,433,162
Delhi,929,-76
Osaka,942,424
Chongqing,965,590
