label,x,y
Tokyo,533,-576
Delhi,969,-284
Beijing,581,55
Dhaka,471,259
New York,565,621
Cairo,698,866
Mexico City,364,507
Rio de Janeiro,-366,516
Buenos Aires,-640,707
Karachi,-754,788
Mumbai,-601,532
Osaka,-750,195
Istanbul,-392,-59
Shanghai,-259,-468
São Paulo,-340,-583
Kolkata,-866,-858
Chongqing,-349,-669
Lagos,-143,-894
Manila,365,-897
