label,x,y
Tokyo,311,-427
Dhaka,730,-239
Manila,935,-407
Shanghai,878,-185
Karachi,944,-174
Istanbul,925,362
Kolkata,533,236
Chongqing,269,883
Osaka,200,913
Mexico City,-63,928
Mumbai,-246,727
Cairo,-327,801
Beijing,-677,343
New York,-225,515
São Paulo,-23,635
Delhi,59,475
Buenos Aires,413,-63
