label,x,y
Tokyo,675,-894
Rio de Janeiro,901,-411
Lagos,622,-262
Cairo,603,-220
Mexico City,41,-85
Delhi,336,672
Kolkata,703,949
Buenos Aires,313,861
Chongqing,-137,853
Mumbai,-441,729
Istanbul,-725,976
New York,-984,883
Karachi,-471,440
Osaka,-457,195
Manila,-917,39
Beijing,-913,-900
Shanghai,-344,-138
Dhaka,-232,-229
São Paulo,-34,-473
