label,x,y
Tokyo,282,911
Kolkata,371,964
Buenos Aires,439,540
Shanghai,622,252
Mexico City,326,-25
New York,221,-188
Delhi,410,-418
São Paulo,-76,-456
Osaka,9,-998
Istanbul,-318,-711
Beijing,-661,-340
Manila,-799,-219
Dhaka,-619,-22
Mumbai,-622,70
Cairo,-672,329
Rio de Janeiro,-967,470
Tianjin,-634,359
Lagos,-454,822
Karachi,-82,444
Chongqing,-45,467
