label,x,y
Tokyo,699,-754
Shanghai,651,-230
New York,550,616
Mexico City,919,897
Chongqing,730,888
Lagos,-293,762
Istanbul,-523,864
Manila,-889,781
São Paulo,-596,711
Rio de Janeiro,-449,110
Karachi,-298,-20
Beijing,-409,-187
Delhi,-937,-469
Mumbai,-882,-550
Buenos Aires,-105,-739
Dhaka,240,-642
Cairo,398,-672
Kolkata,718,-824
Osaka,737,-952
