label,x,y
Tokyo,940,-549
Delhi,736,-755
New York,511,-914
Dhaka,-4,-970
Istanbul,-419,-731
Mexico City,-813,-732
Manila,-281,49
Beijing,-229,330
Buenos Aires,-481,249
Shanghai,-659,965
Chongqing,109,690
Cairo,-34,411
São Paulo,188,249
Mumbai,479,-145
Karachi,533,-344
Kolkata,313,-479
Osaka,665,-720
