label,x,y
Tokyo,244,462
Mexico City,404,760
Mumbai,57,660
Karachi,-47,918
New York,-351,854
Shanghai,-836,328
Manila,-832,311
Chongqing,-616,110
Beijing,-274,20
Cairo,-56,162
Istanbul,-243,-294
São Paulo,-705,-251
Lagos,-941,-668
Delhi,-575,-941
Osaka,-195,-962
Kolkata,-114,-999
Dhaka,811,-476
Buenos Aires,853,100
