label,x,y
Tokyo,-47,-620
Shanghai,71,-503
Chongqing,407,-127
New York,845,-293
Mexico City,493,87
Karachi,355,423
São Paulo,972,730
Beijing,854,836
Delhi,218,657
Cairo,-515,812
Buenos Aires,-834,994
Osaka,-429,-49
Dhaka,-363,-337
Mumbai,-441,-423
