label,x,y
Tokyo,216,-779
Shanghai,-379,-881
New York,-404,-501
São Paulo,-875,-536
Cairo,-800,-405
Mumbai,-427,104
Buenos Aires,-367,224
Karachi,-34,993
Chongqing,525,390
Delhi,776,68
Dhaka,829,-29
Osaka,346,-100
Beijing,575,-568
Mexico City,212,-607
