label,x,y
Tokyo,741,994
São Paulo,-173,992
Cairo,-313,896
Mexico City,-364,499
Mumbai,-843,453
Shanghai,-618,331
Osaka,-56,-404
Dhaka,-82,-591
New York,296,-741
Beijing,440,-736
Delhi,189,-503
Buenos Aires,761,714
Karachi,738,749
