label,x,y
Tokyo,956,-993
Delhi,406,-852
Karachi,18,229
Osaka,-281,626
Mexico City,-447,198
São Paulo,-545,222
Beijing,-732,273
Shanghai,-836,-99
Cairo,-968,-245
New York,-529,-839
Mumbai,-285,-976
Dhaka,-72,-732
