label,x,y
Tokyo,-399,-354
Beijing,-315,-838
New York,-123,-810
Buenos Aires,556,-852
Osaka,139,-339
Delhi,-126,-358
Mumbai,-292,295
Mexico City,-139,674
Cairo,119,770
Shanghai,-186,958
Chongqing,-891,714
Dhaka,-475,550
São Paulo,-375,382
Karachi,-613,15
Istanbul,-546,-171
