label,x,y
Tokyo,-779,-719
Istanbul,-940,-773
Buenos Aires,-818,-409
Osaka,-515,13
Shanghai,-738,561
Karachi,-952,764
Delhi,290,905
Mexico City,676,586
Mumbai,916,116
New York,964,-122
Dhaka,865,-461
Cairo,600,-942
São Paulo,345,-170
Chongqing,147,51
Kolkata,-421,-720
Beijing,-520,-831
