label,x,y
Tokyo,523,-138
Beijing,151,-73
Rio de Janeiro,317,-436
Cairo,246,-491
Lagos,-133,-890
Dhaka,-362,-398
Manila,-625,-614
Mexico City,-952,-51
Karachi,-232,-35
Kolkata,-243,243
Tianjin,-158,364
Mumbai,-93,242
Buenos Aires,120,319
Delhi,629,624
New York,831,909
Istanbul,719,512
Shanghai,735,-69
Chongqing,899,-150
Osaka,845,-784
São Paulo,696,-267
