label,x,y
Tokyo,850,-336
Dhaka,883,359
Karachi,525,965
Cairo,198,-26
Delhi,-486,81
Osaka,-578,362
New York,-805,702
Chongqing,-851,619
Shanghai,-589,298
São Paulo,-875,-256
Beijing,-234,-321
Mumbai,-60,-473
Mexico City,177,-624
Buenos Aires,355,-351
