label,x,y
Tokyo,-702,-77
Shanghai,-191,96
São Paulo,-145,275
Beijing,-753,516
New York,-598,611
Mumbai,-287,926
Osaka,445,934
Mexico City,666,359
Buenos Aires,408,-201
Cairo,427,-445
Dhaka,-229,-844
Delhi,-515,-763
Karachi,-437,-457
