label,x,y
Tokyo,-896,-724
Cairo,-788,-383
Mumbai,-756,224
Buenos Aires,-739,678
Delhi,364,542
São Paulo,694,651
New York,502,573
Chongqing,168,348
Karachi,321,-216
Mexico City,796,-512
Osaka,808,-641
Beijing,84,-753
Shanghai,-241,-887
Dhaka,-742,-770
