label,x,y
Tokyo,-496,-729
Beijing,-500,-818
Buenos Aires,-187,-526
Mumbai,16,-167
Cairo,163,-305
Kolkata,678,-826
Lagos,346,-43
Tianjin,738,47
Karachi,773,748
Rio de Janeiro,735,822
Istanbul,670,893
Mexico City,311,964
Chongqing,301,781
Osaka,132,201
Delhi,-156,172
Shanghai,-207,214
Dhaka,-646,857
New York,-728,267
São Paulo,-523,-219
Manila,-835,-478
