label,x,y
Tokyo,992,527
Manila,705,520
Delhi,605,942
São Paulo,343,954
Buenos Aires,163,645
New York,-462,644
Cairo,-657,687
Osaka,-895,650
Beijing,-953,641
Shanghai,-724,417
Karachi,128,288
Istanbul,-133,-822
Mexico City,325,-913
Mumbai,440,-832
Chongqing,540,-710
Kolkata,914,-140
Dhaka,842,23
