label,x,y
Tokyo,847,398
Beijing,288,612
Dhaka,30,444
Mumbai,34,128
Mexico City,-275,390
Shanghai,-819,790
Delhi,-587,-272
Karachi,-674,-545
Chongqing,-265,-634
São Paulo,183,-792
Cairo,398,-602
New York,593,-925
Osaka,784,-806
Buenos Aires,795,-734
