label,x,y
Tokyo,-578,-667
Beijing,-793,-771
Dhaka,-449,-50
Mexico City,-961,925
New York,-161,510
Cairo,162,992
Buenos Aires,357,697
São Paulo,771,685
Shanghai,312,558
Delhi,317,96
Mumbai,972,-634
Karachi,127,-913
Osaka,-100,-600
