label,x,y
Tokyo,14,668
New York,-1,873
Osaka,684,943
Manila,171,526
Kolkata,30,106
Lagos,174,154
Shanghai,982,-345
São Paulo,862,-942
Mexico City,384,-957
Dhaka,99,-464
Delhi,-504,-932
Cairo,-405,-70
Beijing,-731,-23
Mumbai,-421,113
Chongqing,-407,349
Istanbul,-908,503
Karachi,-508,588
Buenos Aires,-177,687
