label,x,y
Tokyo,-483,-294
Cairo,-781,-243
Karachi,-730,-166
Beijing,-465,-16
Delhi,406,-256
Chongqing,571,119
Mumbai,764,689
Mexico City,798,800
São Paulo,792,680
Osaka,832,108
New York,744,123
Dhaka,585,-137
Istanbul,679,-853
Shanghai,94,-575
Buenos Aires,-471,-821
