label,x,y
Tokyo,-305,-870
Shanghai,-61,-951
Manila,-12,-471
Cairo,353,-693
Chongqing,374,-807
Beijing,862,-523
New York,385,-331
Dhaka,33,538
São Paulo,461,855
Rio de Janeiro,-422,915
Lagos,-545,926
Osaka,-831,883
Delhi,-525,553
Istanbul,-793,-142
Kolkata,-945,-99
Karachi,-871,-195
Mexico City,-993,-449
Buenos Aires,-932,-946
Mumbai,-412,-496
