label,x,y
Tokyo,969,-217
Shanghai,618,-644
Mumbai,305,-518
Chongqing,425,-224
Beijing,68,-198
Istanbul,65,-483
Tianjin,-247,-601
Buenos Aires,-193,-907
Cairo,-455,-982
Mexico City,-405,-543
Lagos,-162,-82
Kolkata,-308,35
Dhaka,-798,630
Karachi,-753,827
Delhi,-243,803
São Paulo,-218,835
Manila,299,448
New York,609,583
Osaka,709,982
Rio de Janeiro,803,619
