label,x,y
Tokyo,-89,603
Lagos,-114,616
Kolkata,-32,872
Beijing,45,849
Mexico City,374,713
Shanghai,294,467
Mumbai,61,217
Dhaka,511,-284
Istanbul,-39,-281
Cairo,-54,-775
Karachi,-294,-943
São Paulo,-431,-543
Osaka,-740,-511
New York,-906,-494
Delhi,-669,14
Chongqing,-786,92
Manila,-677,299
Buenos Aires,-854,849
Rio de Janeiro,-234,454
