label,x,y
Tokyo,-309,-554
Karachi,-498,-940
Cairo,-743,-495
São Paulo,-933,-194
Beijing,-700,81
Delhi,-822,655
Dhaka,126,635
Shanghai,195,962
Mumbai,803,688
Buenos Aires,705,160
Istanbul,976,-223
Chongqing,847,-982
New York,588,-840
Mexico City,498,-952
Osaka,362,-927
