label,x,y
Tokyo,-257,449
Cairo,-206,860
Chongqing,-197,942
Istanbul,-658,884
New York,-765,621
Mexico City,-732,-395
Karachi,-425,-698
Osaka,-392,-990
Mumbai,402,-337
Shanghai,549,-448
Delhi,421,-114
Dhaka,301,234
Beijing,346,691
Buenos Aires,1,317
São Paulo,-74,420
