label,x,y
Tokyo,638,-625
São Paulo,816,-226
Rio de Janeiro,925,-163
Tianjin,844,-19
Cairo,890,446
Delhi,818,161
New York,566,-83
Mexico City,56,312
Beijing,59,940
Kolkata,-519,859
Shanghai,-694,626
Dhaka,-607,264
Mumbai,-507,362
Lagos,20,71
Osaka,-59,-276
Chongqing,-341,-421
Istanbul,-779,-608
Buenos Aires,-874,-978
Manila,-234,-700
Karachi,148,-506
