label,x,y
Tokyo,-103,-952
Shanghai,-665,-873
Beijing,-533,-608
Mumbai,42,-676
Cairo,197,-249
Karachi,101,171
Delhi,-733,718
New York,-355,575
São Paulo,248,172
Buenos Aires,665,345
Osaka,413,-282
Mexico City,956,-591
Dhaka,533,-970
