label,x,y
Tokyo,-564,-811
São Paulo,-847,-926
Delhi,-981,-632
Osaka,-470,-343
New York,-770,597
Dhaka,620,835
Shanghai,985,264
Beijing,628,-507
Mumbai,665,-583
Cairo,769,-691
Mexico City,683,-999
Karachi,605,-776
