label,x,y
Tokyo,879,423
Chongqing,883,384
Beijing,998,220
Mexico City,634,-559
New York,825,-753
Dhaka,514,-853
Cairo,37,-896
Mumbai,-659,-857
Buenos Aires,-94,-723
Osaka,152,-530
Kolkata,154,-325
Karachi,56,231
Shanghai,-301,629
São Paulo,-677,282
Delhi,-640,812
Lagos,-512,970
Istanbul,-205,848
Manila,271,514
