label,x,y
Tokyo,688,467
Dhaka,344,849
New York,-135,776
Mumbai,-419,748
Mexico City,-774,820
Cairo,-635,821
Beijing,-380,619
Shanghai,137,41
São Paulo,202,-165
Osaka,-239,-331
Istanbul,-604,-768
Kolkata,-779,-915
Karachi,197,-887
Manila,698,-911
Delhi,867,-909
Chongqing,362,-444
Buenos Aires,652,-299
