label,x,y
Tokyo,121,-498
Beijing,-126,-437
Rio de Janeiro,-109,-273
Osaka,-217,-86
Dhaka,-941,-513
Karachi,-941,144
Manila,-444,642
Delhi,-277,470
São Paulo,-35,705
Lagos,761,900
Mexico City,887,949
Shanghai,345,248
Mumbai,773,74
Chongqing,763,-78
Tianjin,605,-221
New York,833,-745
Istanbul,170,-946
Cairo,-7,-703
Kolkata,-81,-708
Buenos Aires,-136,-545
