label,x,y
Tokyo,97,476
Shanghai,598,921
Beijing,630,-74
Kolkata,823,-130
Istanbul,772,-241
Mumbai,435,-287
Cairo,709,-895
Chongqing,276,-809
Delhi,191,-857
Mexico City,-361,-826
Osaka,-323,-407
Dhaka,-771,-157
Buenos Aires,-785,-104
Manila,-764,15
São Paulo,-552,348
Karachi,-790,754
New York,-29,464
