label,x,y
Tokyo,374,472
Cairo,497,437
São Paulo,670,925
Chongqing,712,655
Shanghai,981,651
Delhi,834,243
New York,883,73
Buenos Aires,311,-24
Karachi,54,-796
Mexico City,-319,-385
Dhaka,-912,-315
Mumbai,-959,657
Beijing,-266,489
Osaka,114,262
