label,x,y
Tokyo,-918,-115
Beijing,-591,-92
Istanbul,-462,-77
Mumbai,-234,-90
Dhaka,-198,-433
Karachi,-164,-716
Mexico City,-243,-924
Cairo,272,-694
Kolkata,140,-380
New York,903,430
Delhi,775,727
Osaka,287,629
São Paulo,187,965
Shanghai,-165,651
Chongqing,-277,638
Buenos Aires,-616,598
