label,x,y
Tokyo,293,244
Cairo,483,155
Istanbul,770,131
Buenos Aires,770,-115
Karachi,866,-364
Chongqing,827,-729
Dhaka,68,-784
Delhi,-244,-915
Mumbai,-497,-989
Mexico City,-900,-355
Beijing,-732,-23
São Paulo,-775,392
Osaka,-412,-142
Shanghai,-22,197
New York,-71,413
