label,x,y
Tokyo,-994,913
Mumbai,-817,568
Shanghai,-957,-265
New York,-958,-416
São Paulo,-605,-685
Delhi,-418,-742
Karachi,-88,-705
Cairo,557,-946
Dhaka,-76,-682
Mexico City,66,-23
Beijing,-335,215
Osaka,-811,714
