label,x,y
Tokyo,-36,-881
Shanghai,332,-721
Delhi,544,-924
São Paulo,667,-863
Mexico City,558,-324
Chongqing,310,-218
Beijing,780,335
Cairo,737,398
Karachi,607,997
Mumbai,544,482
Istanbul,63,452
Dhaka,-377,367
Osaka,-998,122
Buenos Aires,-801,-66
New York,-543,-253
Kolkata,-700,-973
