label,x,y
Tokyo,-154,21
Dhaka,-235,-269
Delhi,-221,-664
São Paulo,-481,-765
Beijing,-922,-812
Mumbai,-632,25
Osaka,-540,130
Cairo,-515,520
Mexico City,-670,780
Shanghai,-288,971
Karachi,480,914
New York,-153,680
