label,x,y
Tokyo,417,-654
Delhi,858,-391
Osaka,736,509
São Paulo,894,675
Mexico City,561,961
New York,490,452
Cairo,114,251
Dhaka,-254,27
Karachi,-857,528
Shanghai,-663,-145
Beijing,-542,-263
Mumbai,-212,-162
Buenos Aires,313,-375
