label,x,y
Tokyo,506,71
New York,469,-98
Chongqing,706,-276
Cairo,308,-360
Karachi,79,-585
Mumbai,-440,-943
São Paulo,-784,-578
Delhi,-634,-276
Dhaka,-777,483
Mexico City,-286,146
Shanghai,18,545
Beijing,52,990
Osaka,514,804
Buenos Aires,384,177
