label,x,y
Tokyo,-91,-900
Karachi,-122,-696
Osaka,110,55
Mexico City,287,198
New York,510,156
Chongqing,443,515
Delhi,561,600
Mumbai,455,802
Dhaka,-204,775
Shanghai,-415,806
Cairo,-940,518
Beijing,-784,387
São Paulo,-376,278
Buenos Aires,-954,-610
