label,x,y
Tokyo,615,-50
Beijing,937,25
Cairo,419,-298
Mumbai,435,-823
Chongqing,-333,-805
Shanghai,-492,-772
Mexico City,-420,-666
Delhi,-400,-595
Istanbul,-868,-84
Buenos Aires,-702,861
Dhaka,230,736
São Paulo,305,661
New York,435,512
Karachi,214,266
Osaka,235,95
