label,x,y
Tokyo,-962,175
Cairo,-616,-582
Shanghai,-202,-585
Delhi,357,-191
New York,602,-464
Beijing,592,-535
Dhaka,990,-408
Mumbai,897,-44
Karachi,504,113
São Paulo,734,651
Mexico City,532,508
Osaka,-241,286
Buenos Aires,-475,214
