label,x,y
Tokyo,462,548
New York,462,676
São Paulo,945,783
Shanghai,592,322
Buenos Aires,529,-286
Mexico City,883,-401
Karachi,523,-497
Dhaka,419,-576
Beijing,343,-742
Cairo,177,-785
Delhi,161,-680
Osaka,-536,-601
Mumbai,-274,-40
Chongqing,-224,191
