label,x,y
Tokyo,529,-907
Cairo,349,-668
Chongqing,-57,-584
São Paulo,-407,-471
New York,-731,-676
Shanghai,-862,-272
Osaka,-416,-57
Karachi,-618,-69
Dhaka,-992,116
Delhi,-801,771
Beijing,302,944
Istanbul,165,17
Buenos Aires,536,-42
Mexico City,446,-327
Kolkata,876,-306
Mumbai,816,-493
