label,x,y
Tokyo,590,-971
Delhi,709,-502
Osaka,355,-265
Lagos,188,-261
São Paulo,-33,-70
Mexico City,69,117
Mumbai,-78,169
Chongqing,-318,63
Dhaka,-705,392
Buenos Aires,-915,264
Cairo,-781,-370
Shanghai,-664,-587
Beijing,-660,-850
Manila,-597,-526
Kolkata,-236,-310
New York,-135,-657
Istanbul,100,-625
Karachi,356,-560
