label,x,y
Tokyo,-603,-764
Istanbul,-988,-751
Manila,-515,-330
Rio de Janeiro,-547,-311
Osaka,-873,358
Chongqing,-772,787
Delhi,12,-1
Buenos Aires,124,163
São Paulo,281,507
Shanghai,593,783
Mexico City,944,916
Dhaka,488,198
Mumbai,621,-603
Kolkata,658,-591
New York,856,-757
Karachi,856,-776
Lagos,407,-922
Cairo,-46,-759
Beijing,-398,-748
