label,x,y
Tokyo,-334,-686
Dhaka,-578,-324
Osaka,-609,-32
Beijing,-779,699
Chongqing,-360,560
São Paulo,-171,468
Cairo,70,576
Shanghai,360,619
Mumbai,278,203
Karachi,41,108
Mexico City,172,-23
Buenos Aires,980,-67
Delhi,664,-293
New York,506,-840
