label,x,y
Tokyo,-689,-542
Delhi,-935,-914
Dhaka,-475,-680
Istanbul,-102,-852
Chongqing,194,-971
New York,258,-742
Osaka,711,-667
Kolkata,575,208
Buenos Aires,449,562
Mumbai,-298,552
Cairo,-340,954
São Paulo,-422,966
Mexico City,-847,416
Beijing,-978,-114
Shanghai,-912,-306
Karachi,-594,-318
