label,x,y
Tokyo,-79,341
Mumbai,-86,352
Manila,-190,530
Cairo,-65,635
Shanghai,-311,636
Istanbul,-662,469
Chongqing,-886,432
Dhaka,-586,303
Osaka,-587,-20
New York,-825,-431
Delhi,-872,-978
Buenos Aires,-511,-287
Rio de Janeiro,167,-218
Mexico City,941,-609
Karachi,687,316
Beijing,757,754
São Paulo,501,761
Lagos,281,498
Kolkata,402,259
Tianjin,260,108
