label,x,y
Tokyo,-314,757
Mexico City,-666,564
Mumbai,-499,-523
Beijing,-621,-664
Delhi,-893,-973
Chongqing,-719,-994
Karachi,-441,-924
Dhaka,-143,-619
New York,-45,-599
São Paulo,250,-980
Kolkata,507,-945
Osaka,597,-750
Shanghai,559,-611
Istanbul,368,-91
Cairo,929,891
Buenos Aires,-94,587
