label,x,y
Tokyo,440,489
Mexico City,247,303
Beijing,-536,617
Dhaka,-753,501
Chongqing,-381,114
Kolkata,-242,-233
New York,-962,-666
Buenos Aires,-463,-912
Karachi,-120,-980
Istanbul,327,-802
São Paulo,310,-319
Manila,687,-270
Delhi,971,-272
Shanghai,794,-243
Mumbai,676,34
Osaka,685,441
Cairo,466,767
