label,x,y
Tokyo,-373,887
Delhi,-907,625
Dhaka,-534,277
São Paulo,-730,40
Mumbai,-758,-561
Cairo,82,-986
Karachi,591,-503
Mexico City,194,-332
Beijing,45,-145
Shanghai,582,-74
New York,784,-27
Osaka,382,771
Buenos Aires,-64,726
