label,x,y
Tokyo,989,115
Delhi,634,-80
São Paulo,433,-581
Buenos Aires,380,-658
Mexico City,53,-449
Karachi,60,-210
Manila,-514,-329
Dhaka,-531,-191
Mumbai,-987,202
Lagos,-891,632
Chongqing,-491,241
Cairo,-127,47
New York,-80,17
Shanghai,147,94
Kolkata,36,188
Istanbul,198,371
Beijing,333,678
Osaka,788,689
Rio de Janeiro,764,542
