label,x,y
Tokyo,-64,-277
Osaka,-87,-244
New York,-398,-432
Chongqing,-524,-778
Dhaka,-790,-823
Shanghai,-554,-382
São Paulo,-844,33
Delhi,-794,813
Buenos Aires,17,549
Beijing,14,176
Cairo,356,176
Mexico City,935,743
Kolkata,819,-134
Mumbai,986,-506
Istanbul,930,-601
Manila,121,-974
Karachi,-218,-569
