label,x,y
Tokyo,-513,-38
Dhaka,-365,-9
Delhi,-220,198
Osaka,-175,431
Mumbai,0,773
Karachi,416,847
Kolkata,736,950
Buenos Aires,657,59
Cairo,661,-464
Chongqing,752,-724
Istanbul,463,-985
Beijing,2,-436
New York,-457,-298
Mexico City,-809,-696
Shanghai,-764,-29
São Paulo,-602,314
