label,x,y
Tokyo,73,-199
Mexico City,556,-354
Kolkata,636,-46
Karachi,232,364
Istanbul,881,870
Dhaka,63,840
Shanghai,-260,843
Cairo,-410,594
Osaka,-654,851
São Paulo,-929,512
Beijing,-844,229
Mumbai,-719,-65
New York,-590,-465
Delhi,-410,-549
Chongqing,-68,-898
Buenos Aires,37,-924
