label,x,y
Tokyo,-176,-611
Shanghai,-174,-613
Mexico City,-97,-494
Karachi,-75,-89
Cairo,248,10
Kolkata,395,504
Osaka,587,925
Chongqing,446,691
Istanbul,-319,851
Beijing,-482,881
New York,-631,692
Manila,-760,570
Delhi,-824,236
Lagos,-259,66
Mumbai,-303,-155
Buenos Aires,-401,-342
São Paulo,-613,-395
Dhaka,-695,-636
