label,x,y
Tokyo,155,-745
Karachi,164,-370
Istanbul,518,-488
Beijing,798,-597
Lagos,969,243
Cairo,959,741
Delhi,607,297
Osaka,385,425
Mexico City,-99,481
Manila,-233,754
New York,-338,535
Buenos Aires,-642,-50
São Paulo,-674,-105
Kolkata,-853,-327
Dhaka,-923,-353
Mumbai,-685,-234
Shanghai,-523,-254
Chongqing,30,-619
