label,x,y
Tokyo,472,989
São Paulo,451,887
Mexico City,662,837
Delhi,744,-382
Buenos Aires,731,-840
New York,596,-631
Cairo,170,-688
Karachi,172,-261
Beijing,-180,-292
Osaka,-346,-542
Istanbul,-704,-728
Mumbai,-738,-99
Dhaka,-374,-251
Shanghai,-38,577
Chongqing,21,987
