label,x,y
Tokyo,-276,-894
Dhaka,-267,-989
Delhi,-219,-770
Buenos Aires,-162,-463
Shanghai,347,-449
Manila,695,-77
São Paulo,904,539
Mexico City,922,827
Istanbul,541,590
Karachi,449,183
Beijing,268,103
Osaka,270,273
New York,-811,922
Mumbai,-299,341
Cairo,-188,-135
Chongqing,-445,-474
Kolkata,-857,-735
