label,x,y
Tokyo,-753,-358
Shanghai,-799,-826
Beijing,-95,-598
São Paulo,245,-505
Delhi,331,-574
Dhaka,634,-529
Cairo,546,-350
Osaka,500,313
Karachi,311,741
New York,275,194
Mumbai,266,-254
Mexico City,-561,-447
