label,x,y
Tokyo,-57,-760
Buenos Aires,-119,-533
Manila,408,-318
São Paulo,858,-974
Mexico City,850,-563
Osaka,922,-230
New York,718,102
Karachi,778,164
Mumbai,468,234
Delhi,359,130
Kolkata,323,388
Shanghai,-181,313
Dhaka,-541,338
Chongqing,-729,612
Istanbul,-555,169
Beijing,-216,-212
Cairo,-462,-474
Lagos,-482,-773
