label,x,y
Tokyo,414,-737
Beijing,609,-574
Cairo,502,-211
Lagos,-57,44
São Paulo,-664,-275
Mumbai,-853,-464
Dhaka,-692,-281
Mexico City,-915,458
Manila,-656,592
Shanghai,-299,326
Osaka,-20,921
Chongqing,718,968
Delhi,859,768
Buenos Aires,835,329
Kolkata,732,175
Karachi,877,2
New York,744,-518
Istanbul,760,-919
