label,x,y
Tokyo,-449,-247
Cairo,-757,-327
Mexico City,-674,-555
São Paulo,-804,-741
Beijing,-829,-850
Dhaka,-221,-787
Shanghai,59,-923
Mumbai,911,-878
Osaka,-85,-805
Karachi,-79,-235
Delhi,-42,512
New York,-162,941
