label,x,y
Tokyo,735,-99
Shanghai,298,141
Karachi,662,732
São Paulo,185,414
Mumbai,-249,408
Delhi,-943,348
Mexico City,-743,-460
New York,-774,-510
Dhaka,-655,-673
Beijing,-354,-440
Buenos Aires,-287,-698
Osaka,44,-797
Cairo,353,-623
