label,x,y
Tokyo,326,-850
Shanghai,894,-472
New York,723,-390
Manila,289,-172
Istanbul,-83,140
Chongqing,-45,229
Mexico City,248,826
Osaka,121,804
Mumbai,-472,793
Buenos Aires,-414,629
Cairo,-247,397
Dhaka,-367,149
São Paulo,-47,-38
Karachi,-226,-545
Delhi,-988,-943
Kolkata,-184,-756
Beijing,183,-567
