label,x,y
Tokyo,357,987
Mexico City,675,777
Delhi,806,343
Mumbai,544,418
Cairo,329,354
Shanghai,422,150
Buenos Aires,534,-213
Dhaka,339,-236
Karachi,464,-511
Chongqing,703,-754
Lagos,477,-543
Rio de Janeiro,32,-545
Osaka,-737,-978
Kolkata,-924,-865
New York,-186,-329
Istanbul,-222,48
Beijing,-604,581
São Paulo,-23,686
Manila,35,881
