label,x,y
Tokyo,686,-124
Istanbul,475,151
São Paulo,762,221
Tianjin,668,456
Dhaka,106,588
Karachi,76,905
Cairo,-616,976
Buenos Aires,-776,837
Rio de Janeiro,-251,228
Mexico City,-293,181
Kolkata,-330,161
Beijing,-682,-414
Manila,-972,-527
Shanghai,-581,-724
New York,-68,-979
Osaka,98,-562
Chongqing,91,-253
Lagos,466,-553
Delhi,803,-695
Mumbai,550,-421
