label,x,y
Tokyo,-634,851
Mexico City,-75,324
New York,200,758
Manila,914,325
Buenos Aires,907,286
Mumbai,865,88
Delhi,687,-253
Shanghai,798,-910
Istanbul,762,-937
Kolkata,638,-872
Osaka,471,-930
Chongqing,193,-932
Karachi,-277,-190
Beijing,-253,-126
Cairo,-584,217
São Paulo,-983,-41
Dhaka,-977,884
