label,x,y
Tokyo,760,-970
Dhaka,507,-779
Buenos Aires,179,-955
New York,-941,-546
Chongqing,-957,-109
Mumbai,-871,349
Delhi,-444,248
Beijing,-6,-162
Mexico City,131,-275
Cairo,796,30
Shanghai,970,93
São Paulo,637,-216
Karachi,633,-619
Osaka,595,-629
