label,x,y
Tokyo,-681,-990
Buenos Aires,-337,-538
Beijing,-24,-426
Osaka,311,-506
Dhaka,966,-6
São Paulo,614,470
Mexico City,84,288
New York,-172,407
Shanghai,199,855
Cairo,27,922
Mumbai,-398,980
Chongqing,-571,333
Delhi,-502,-167
Karachi,-557,-413
