label,x,y
Tokyo,-89,287
Beijing,278,667
Delhi,448,817
Manila,233,986
Istanbul,-272,945
Kolkata,-462,638
Buenos Aires,-757,408
Karachi,-479,-187
Cairo,-882,-242
Dhaka,-785,-859
Osaka,-107,-888
Shanghai,32,-516
Mumbai,337,-209
São Paulo,731,-622
Chongqing,500,-86
Mexico City,354,-104
New York,-90,-49
