label,x,y
Tokyo,361,978
Istanbul,20,925
New York,-357,733
Osaka,-439,668
Buenos Aires,-616,579
Shanghai,-804,243
Dhaka,-775,-146
Cairo,-573,-364
Mumbai,-225,-403
Kolkata,-352,-619
Beijing,-267,-817
Delhi,-102,-919
São Paulo,501,-797
Karachi,744,-609
Mexico City,567,-278
Chongqing,0,123
