label,x,y
Tokyo,-715,-872
Manila,-864,-473
Buenos Aires,-713,-309
Osaka,-911,138
Mumbai,-773,191
Rio de Janeiro,-43,364
New York,376,952
Mexico City,973,884
São Paulo,949,864
Beijing,911,202
Chongqing,730,259
Lagos,415,260
Karachi,677,-51
Cairo,972,-612
Delhi,401,-202
Dhaka,330,-290
Kolkata,126,-382
Shanghai,125,-570
Istanbul,-667,-991
