label,x,y
Tokyo,-644,336
Cairo,-977,-226
Mumbai,-720,-476
Buenos Aires,-675,-615
Shanghai,-438,-759
Delhi,171,-533
Karachi,565,-760
Mexico City,608,-794
Beijing,691,-271
New York,730,152
Istanbul,731,475
Chongqing,176,974
Osaka,43,413
São Paulo,150,379
Dhaka,10,-109
