label,x,y
Tokyo,749,-519
Delhi,740,-206
Shanghai,563,28
New York,475,394
Mexico City,329,659
Dhaka,151,721
Osaka,129,889
São Paulo,-783,666
Chongqing,-917,296
Beijing,-874,250
Cairo,-847,-306
Mumbai,-616,-466
Karachi,233,-696
Buenos Aires,313,-911
