label,x,y
Tokyo,17,-349
Dhaka,839,-969
São Paulo,129,-584
New York,-839,-811
Mumbai,-923,-135
Istanbul,-883,525
Shanghai,-478,455
Buenos Aires,-417,576
Cairo,-300,593
Karachi,-283,612
Osaka,103,921
Mexico City,443,735
Delhi,340,579
Beijing,217,508
Chongqing,-89,-113
