label,x,y
Tokyo,971,975
Mumbai,829,771
Cairo,839,559
Karachi,630,263
Shanghai,481,179
Delhi,482,-389
Tianjin,731,-873
Beijing,346,-463
Buenos Aires,222,-355
New York,-90,-129
Manila,4,-552
Kolkata,-34,-956
Lagos,-345,-514
Dhaka,-840,-974
Osaka,-995,-758
Istanbul,-928,28
Chongqing,-850,12
Mexico City,-499,519
São Paulo,112,246
Rio de Janeiro,626,766
