label,x,y
Tokyo,889,-963
Mexico City,679,-839
Osaka,43,-738
Dhaka,-208,-895
Buenos Aires,-602,-638
Chongqing,-371,-567
Mumbai,-233,-360
Beijing,185,-22
Rio de Janeiro,108,-3
Shanghai,-400,381
New York,-895,492
São Paulo,-924,812
Kolkata,-592,563
Lagos,-79,816
Manila,217,726
Delhi,319,358
Cairo,544,421
Istanbul,673,181
Tianjin,629,-212
Karachi,714,-464
