label,x,y
Tokyo,-596,991
Shanghai,-424,601
Cairo,-632,126
Dhaka,-393,-58
New York,-734,-590
Osaka,-686,-595
Delhi,551,-866
Mexico City,832,34
Mumbai,359,93
São Paulo,350,634
Karachi,456,653
Buenos Aires,499,718
Beijing,174,913
