label,x,y
Tokyo,366,630
Tianjin,184,793
São Paulo,34,344
Manila,-240,512
Chongqing,-483,713
Osaka,-468,820
Lagos,-914,839
Karachi,-755,388
Dhaka,-494,-151
Beijing,-427,-764
Shanghai,79,-633
Buenos Aires,536,-698
Kolkata,603,-38
Istanbul,595,129
Rio de Janeiro,878,120
New York,951,-29
Cairo,934,-97
Mumbai,964,26
Delhi,908,124
Mexico City,914,438
