label,x,y
Tokyo,172,-972
Beijing,307,-889
Shanghai,319,-817
Karachi,166,-472
New York,456,-594
Delhi,990,-761
Chongqing,985,561
Buenos Aires,226,804
Cairo,137,956
Istanbul,-42,442
São Paulo,-849,511
Osaka,-653,-231
Mumbai,-564,-709
Dhaka,-640,-951
Mexico City,-444,-744
Kolkata,109,-870
