label,x,y
Tokyo,93,909
Mexico City,312,266
Shanghai,224,184
Delhi,449,465
Mumbai,750,757
Manila,971,406
São Paulo,910,-285
Kolkata,957,-918
Beijing,682,-722
Chongqing,68,-632
Istanbul,-11,-938
Karachi,-189,-920
Osaka,-165,-751
Dhaka,-965,-697
Buenos Aires,-386,-284
Cairo,-302,346
New York,-75,563
