label,x,y
Tokyo,-196,451
Delhi,-551,650
Karachi,-839,543
Osaka,-829,531
Beijing,-832,194
Cairo,-701,189
Buenos Aires,-484,-76
Mumbai,-435,-269
Dhaka,-740,-351
Istanbul,-989,-721
Shanghai,-660,-685
Lagos,-534,-930
Rio de Janeiro,-308,-603
Mexico City,435,-888
Chongqing,755,-852
São Paulo,931,-930
Manila,729,-623
Kolkata,928,-185
New York,766,359
