label,x,y
Tokyo,460,-376
Shanghai,638,-412
Karachi,546,-869
Cairo,-67,-629
Mumbai,-67,-438
New York,-514,-655
Buenos Aires,-504,-774
Delhi,-933,-970
Istanbul,-897,-707
Chongqing,-675,-489
São Paulo,-690,-299
Osaka,-494,254
Mexico City,-407,110
Beijing,155,173
Dhaka,469,528
