label,x,y
Tokyo,303,-782
Cairo,976,-585
Dhaka,918,-126
Buenos Aires,474,150
Karachi,-110,46
Delhi,9,288
Mexico City,-251,640
Osaka,-332,494
Shanghai,-543,421
Mumbai,-369,134
São Paulo,-956,-434
New York,-795,-548
Beijing,-526,-715
