label,x,y
Tokyo,-201,53
Mexico City,380,-64
Beijing,610,65
Istanbul,853,356
Shanghai,995,-164
Kolkata,683,-347
Mumbai,348,-552
Cairo,144,-545
Manila,-590,-896
Osaka,-647,-719
Lagos,-795,-595
Dhaka,-598,-433
São Paulo,-690,-26
Karachi,-683,180
Delhi,-579,552
Buenos Aires,-646,937
Chongqing,98,937
New York,-43,179
