label,x,y
Tokyo,-709,-642
Shanghai,-421,-852
Beijing,123,-513
Karachi,195,-338
Chongqing,554,-194
Cairo,724,32
Dhaka,813,66
New York,627,100
São Paulo,569,249
Istanbul,329,896
Mumbai,-233,898
Kolkata,-643,619
Delhi,-811,383
Buenos Aires,-819,175
Osaka,-951,-412
Mexico City,-927,-840
