label,x,y
Tokyo,-999,533
Shanghai,-999,706
Karachi,-751,833
Istanbul,-480,682
Dhaka,-72,944
Manila,216,681
New York,195,428
Chongqing,-20,127
Rio de Janeiro,387,210
São Paulo,505,240
Lagos,704,216
Mumbai,571,94
Mexico City,458,1
Cairo,318,-478
Beijing,882,-956
Kolkata,86,-480
Osaka,-262,-887
Buenos Aires,-321,-710
Tianjin,-543,-154
Delhi,-405,184
