label,x,y
Tokyo,359,41
Osaka,23,-38
São Paulo,20,-776
Mumbai,-75,-824
New York,-417,-649
Mexico City,-864,-677
Cairo,-731,-517
Karachi,-871,-179
Chongqing,-578,-297
Dhaka,-471,-151
Delhi,-162,428
Beijing,33,272
Shanghai,180,274
Buenos Aires,328,179
