label,x,y
Tokyo,945,937
Mexico City,237,757
São Paulo,-121,964
Osaka,-363,432
Shanghai,-357,365
Karachi,-818,-186
Dhaka,-205,-809
Mumbai,-140,-989
Buenos Aires,252,-851
Delhi,297,-569
Beijing,358,-162
Cairo,688,200
New York,730,227
Chongqing,680,340
