label,x,y
Tokyo,-929,-717
Shanghai,-952,-908
New York,-384,-974
Karachi,395,-437
Mumbai,452,159
Mexico City,413,252
Buenos Aires,890,718
Beijing,605,782
Delhi,406,678
Osaka,-576,756
São Paulo,-997,863
Cairo,-883,795
Dhaka,-627,-330
