label,x,y
Tokyo,631,859
Delhi,733,692
Beijing,970,256
Cairo,894,2
New York,962,-253
Chongqing,998,-534
Karachi,737,-228
Osaka,530,-348
Mexico City,475,-109
Buenos Aires,209,-196
São Paulo,-44,-388
Dhaka,-203,-86
Kolkata,-928,-460
Shanghai,-943,162
Mumbai,-299,157
Istanbul,-92,377
Manila,237,804
