label,x,y
Tokyo,-486,876
Beijing,-445,905
Kolkata,-19,693
Cairo,176,682
Osaka,409,965
Mexico City,730,922
New York,433,483
Shanghai,671,32
Karachi,885,-395
Buenos Aires,471,-391
Istanbul,179,-276
Dhaka,155,-48
Mumbai,-162,243
Delhi,-526,169
São Paulo,-970,-763
Chongqing,-929,439
