label,x,y
Tokyo,614,-22
Mumbai,742,-291
Osaka,850,-736
New York,740,-425
Shanghai,294,-237
Karachi,-50,-830
Dhaka,-507,-910
Kolkata,-240,-232
Manila,-138,184
Mexico City,-319,274
Delhi,-575,192
Chongqing,-889,149
São Paulo,-638,898
Buenos Aires,-7,910
Istanbul,154,884
Cairo,300,329
Beijing,885,562
