label,x,y
Tokyo,-961,377
Mumbai,-821,124
São Paulo,-294,185
Cairo,-337,-391
Beijing,-772,-944
Karachi,345,-882
Chongqing,379,-982
New York,992,-688
Dhaka,693,-758
Shanghai,139,-293
Kolkata,486,60
Buenos Aires,498,598
Delhi,574,769
Osaka,511,810
Istanbul,21,746
Mexico City,-893,871
