label,x,y
Tokyo,-147,711
Shanghai,130,554
Istanbul,449,801
Manila,513,642
Osaka,750,426
Delhi,367,139
Dhaka,909,-219
Lagos,441,-356
Mumbai,536,-666
Mexico City,256,-896
Chongqing,301,-473
São Paulo,46,-531
Buenos Aires,-330,-814
Kolkata,-724,-698
New York,-640,-230
Karachi,-821,217
Beijing,-559,266
Cairo,-273,642
