label,x,y
Tokyo,875,-384
New York,465,-633
Cairo,86,-650
Lagos,-284,-781
São Paulo,-520,-762
Buenos Aires,-508,-235
Mexico City,-943,792
Osaka,-373,945
Shanghai,-327,895
Delhi,-227,712
Manila,545,779
Chongqing,407,289
Karachi,687,248
Beijing,512,86
Dhaka,469,89
Istanbul,128,-70
Kolkata,6,3
Mumbai,226,-146
