label,x,y
Tokyo,720,692
Delhi,510,963
Karachi,324,332
Mexico City,-181,510
São Paulo,-340,838
Cairo,-622,832
Beijing,-593,-435
Shanghai,-826,-659
Osaka,-208,-787
Dhaka,213,-734
Mumbai,827,-327
New York,905,267
