label,x,y
Tokyo,-271,-371
Chongqing,-676,-847
Cairo,-956,-632
Istanbul,-943,-265
Kolkata,-925,-214
São Paulo,-861,895
Rio de Janeiro,105,416
Manila,363,468
Shanghai,443,637
Mumbai,323,909
Karachi,502,794
Buenos Aires,738,423
Dhaka,745,40
Mexico City,662,-106
Beijing,540,-43
Lagos,278,-193
Delhi,393,-507
Osaka,685,-779
New York,129,-429
Tianjin,-297,-233
