label,x,y
Tokyo,-319,973
Delhi,-684,248
Buenos Aires,-257,204
Dhaka,-204,-163
Cairo,-590,-283
Karachi,-859,-743
Osaka,-911,-992
Shanghai,-445,-871
Beijing,-66,-662
São Paulo,204,-894
Chongqing,575,-377
New York,772,-351
Mexico City,523,239
Istanbul,717,473
Mumbai,-314,986
