label,x,y
Tokyo,240,168
Istanbul,84,358
Buenos Aires,171,365
Delhi,785,800
Cairo,974,825
Mumbai,259,968
Shanghai,22,671
Beijing,-36,700
Karachi,-268,672
Chongqing,-277,633
São Paulo,-457,681
New York,-653,915
Lagos,-875,548
Manila,-474,228
Dhaka,-362,93
Osaka,-405,-390
Mexico City,-165,-582
Kolkata,443,-675
Rio de Janeiro,-100,-332
