label,x,y
Tokyo,648,-715
Dhaka,303,-420
Rio de Janeiro,306,-133
Shanghai,-54,83
Lagos,-363,-42
Cairo,-467,-431
New York,-402,-583
Manila,-987,-777
Buenos Aires,-937,-178
São Paulo,-769,-23
Osaka,-336,263
Delhi,-490,712
Chongqing,-86,781
Istanbul,276,728
Karachi,435,240
Mumbai,634,333
Beijing,654,322
Mexico City,699,282
Tianjin,935,5
Kolkata,713,-76
