label,x,y
Tokyo,647,-661
Cairo,327,-403
Dhaka,864,202
Chongqing,296,271
Delhi,-338,310
Mexico City,-881,731
Osaka,-724,630
Buenos Aires,-424,-298
Mumbai,-704,-570
Beijing,-972,-913
Istanbul,-408,-929
Karachi,-169,-755
São Paulo,289,-585
Shanghai,801,-980
New York,890,-851
