label,x,y
Tokyo,205,30
Delhi,437,183
Cairo,561,360
Karachi,696,178
Buenos Aires,943,-216
Manila,981,-632
Beijing,564,-745
São Paulo,-641,-730
Mumbai,-677,-548
Istanbul,-799,-49
Dhaka,-237,343
Osaka,-488,792
Mexico City,269,938
Shanghai,163,753
Chongqing,197,372
Kolkata,-69,405
New York,17,9
