label,x,y
Tokyo,-15,826
Cairo,314,618
Chongqing,519,732
Osaka,962,831
Shanghai,831,-47
São Paulo,396,-182
Istanbul,398,-733
New York,59,-873
Mexico City,-177,-868
Delhi,-168,-540
Karachi,-797,-603
Dhaka,-683,-602
Beijing,-513,-11
Mumbai,-770,209
Buenos Aires,-424,831
