label,x,y
Tokyo,-268,236
Karachi,-603,981
Beijing,-969,790
Chongqing,-810,149
Mexico City,-451,-155
Manila,-623,-417
São Paulo,-748,-442
Mumbai,-581,-582
Buenos Aires,-645,-853
Kolkata,-180,-924
Dhaka,316,-361
Osaka,909,-21
Delhi,762,355
Shanghai,576,394
Lagos,430,953
Cairo,294,676
New York,335,432
Istanbul,344,141
