label,x,y
Tokyo,780,925
Beijing,866,374
São Paulo,827,345
Mexico City,772,-125
Shanghai,721,-131
Mumbai,931,-611
Karachi,103,-692
Cairo,-493,-623
New York,-812,-232
Dhaka,-425,23
Delhi,-132,3
Osaka,269,873
