label,x,y
Tokyo,-655,-869
Osaka,-100,-948
Shanghai,267,-935
Cairo,607,-863
Buenos Aires,913,-531
São Paulo,524,-477
Delhi,384,367
Karachi,581,550
Dhaka,-43,487
Mexico City,-266,421
Beijing,-684,793
Mumbai,-782,382
New York,-492,45
