label,x,y
Tokyo,-636,-608
Delhi,-724,-707
Kolkata,-914,-749
Mumbai,-750,-629
New York,-993,462
Mexico City,-445,491
Shanghai,-22,554
Beijing,4,116
Cairo,513,335
Karachi,972,849
Osaka,543,-12
Istanbul,887,-284
Dhaka,854,-685
Rio de Janeiro,915,-862
Buenos Aires,708,-900
São Paulo,595,-954
Chongqing,196,-702
Manila,107,-639
Lagos,-457,-915
