label,x,y
Tokyo,170,56
Beijing,699,391
Karachi,564,699
Delhi,556,726
Istanbul,438,758
Shanghai,-222,915
Lagos,-664,592
São Paulo,-626,91
New York,-370,187
Mexico City,-100,283
Chongqing,-32,292
Manila,-186,-273
Rio de Janeiro,-357,-291
Cairo,-978,-881
Buenos Aires,-997,-947
Mumbai,-159,-810
Osaka,177,-830
Dhaka,751,-693
Kolkata,171,-391
