label,x,y
Tokyo,290,713
Delhi,-151,-174
Dhaka,-752,-316
Beijing,-294,-790
Chongqing,91,-947
Osaka,350,-835
Karachi,554,-521
São Paulo,573,-298
Mexico City,920,-531
New York,971,-211
Buenos Aires,815,-104
Cairo,923,483
Mumbai,488,903
Shanghai,189,853
