label,x,y
Tokyo,647,614
Osaka,701,810
Chongqing,594,670
New York,273,727
Delhi,-286,646
Mexico City,-976,-551
Cairo,-858,-747
Shanghai,-878,-847
Mumbai,-767,-655
Istanbul,-290,-742
São Paulo,81,-769
Kolkata,190,-642
Dhaka,276,-338
Karachi,715,-660
Beijing,762,-274
Buenos Aires,321,445
