label,x,y
Tokyo,-824,706
Delhi,-998,-78
Shanghai,-947,-330
Chongqing,-623,-176
Kolkata,-714,-355
Dhaka,-53,-860
Mumbai,281,-570
Cairo,406,-683
Mexico City,766,-198
Karachi,467,-60
Buenos Aires,-19,218
Osaka,378,812
São Paulo,408,836
New York,-71,834
Beijing,-68,784
Istanbul,-531,737
