label,x,y
Tokyo,-637,99
Rio de Janeiro,-517,-299
Shanghai,-894,-841
Mexico City,-124,-706
Istanbul,31,-693
Manila,406,-676
Dhaka,180,-380
Beijing,152,-385
Chongqing,114,-336
Karachi,180,-72
Cairo,617,-222
São Paulo,672,-164
Osaka,960,-169
Delhi,707,634
Lagos,28,512
Buenos Aires,-145,237
Kolkata,-383,394
New York,-726,944
Mumbai,-951,357
Tianjin,-652,358
