label,x,y
Tokyo,-946,-288
New York,-969,-178
Chongqing,-598,281
Beijing,-617,345
Mumbai,-240,703
Shanghai,-15,478
Buenos Aires,123,501
Cairo,935,658
Istanbul,862,434
Osaka,804,-135
Delhi,506,-237
Mexico City,-488,-450
Karachi,-438,-826
Dhaka,-893,-794
São Paulo,-976,-807
