label,x,y
Tokyo,986,679
Delhi,874,829
Shanghai,-244,750
Mexico City,-314,835
Rio de Janeiro,-380,726
Cairo,-896,844
Lagos,-745,-50
Manila,-806,-131
Dhaka,-947,-283
Istanbul,-561,-486
Kolkata,-6,-574
Mumbai,291,-916
New York,400,-995
Osaka,733,-792
Buenos Aires,316,-215
São Paulo,472,18
Beijing,561,0
Chongqing,552,16
Tianjin,967,305
Karachi,774,454
