label,x,y
Tokyo,-21,353
Buenos Aires,-134,165
Delhi,-639,42
Dhaka,-268,-762
Cairo,-140,-641
Karachi,223,-331
Beijing,240,-235
Mexico City,290,-323
Mumbai,598,-477
São Paulo,932,-543
New York,696,56
Osaka,991,139
Shanghai,828,923
Chongqing,-221,886
