label,x,y
Tokyo,-481,42
São Paulo,-799,-657
New York,-553,349
Delhi,-411,756
Shanghai,-258,918
Beijing,-36,658
Dhaka,43,723
Mexico City,465,820
Mumbai,886,954
Karachi,425,711
Cairo,576,-128
Osaka,-223,220
