label,x,y
Tokyo,-365,228
Dhaka,-272,24
Delhi,-304,-158
Beijing,-683,-525
Osaka,-591,-679
Kolkata,-224,-991
New York,440,-730
Istanbul,374,199
Shanghai,944,528
Buenos Aires,270,324
Mexico City,88,158
Karachi,10,376
São Paulo,107,923
Cairo,-68,415
Mumbai,-391,465
Chongqing,-884,286
