label,x,y
Tokyo,-847,-199
Delhi,-665,-256
Osaka,-839,-428
Karachi,-945,-930
Chongqing,527,-903
Dhaka,539,-325
Mexico City,584,-338
Cairo,844,-352
Beijing,982,739
Shanghai,290,808
São Paulo,-83,795
Mumbai,-565,430
Buenos Aires,-934,502
New York,-736,197
