label,x,y
Tokyo,-838,-368
Shanghai,-823,-216
Buenos Aires,-971,114
São Paulo,-981,701
Delhi,-881,947
Cairo,-847,910
Osaka,-31,354
Lagos,74,442
Kolkata,203,127
Karachi,359,72
Manila,265,322
Beijing,566,697
Mumbai,950,819
Chongqing,921,477
Mexico City,725,96
New York,903,-942
Istanbul,-35,-367
Dhaka,-810,-480
