label,x,y
Tokyo,150,-551
Kolkata,641,-950
Lagos,399,-422
Manila,450,69
Karachi,612,156
Delhi,427,349
Mumbai,558,419
Buenos Aires,528,515
Dhaka,258,770
Shanghai,128,504
São Paulo,85,468
New York,-848,949
Chongqing,-981,775
Osaka,-292,234
Istanbul,-100,2
Mexico City,29,-129
Beijing,-432,-174
Cairo,-609,-206
Rio de Janeiro,-427,-516
