label,x,y
Tokyo,627,-457
Dhaka,269,-466
Cairo,222,-376
Delhi,0,-177
Mexico City,-101,83
New York,-347,351
Beijing,-809,512
Shanghai,-261,350
São Paulo,-9,734
Osaka,181,985
Mumbai,756,97
Karachi,983,-38
