label,x,y
Tokyo,-137,135
Mumbai,-748,689
Shanghai,-344,4
São Paulo,-899,-631
Mexico City,559,-495
Beijing,583,-470
Delhi,689,-62
New York,857,58
Cairo,972,242
Osaka,828,882
Dhaka,631,837
Karachi,634,304
