label,x,y
Tokyo,-296,-791
São Paulo,-365,-960
Mexico City,231,-321
Kolkata,324,-301
Osaka,762,-481
Manila,863,-969
Dhaka,900,-414
Mumbai,820,423
Istanbul,995,655
Beijing,205,181
Shanghai,-117,350
New York,-198,568
Buenos Aires,-180,596
Chongqing,20,741
Cairo,-254,816
Karachi,-482,596
Delhi,-293,35
