label,x,y
Tokyo,-925,509
New York,-511,-210
Osaka,-400,-360
Shanghai,-135,-417
São Paulo,-360,-575
Buenos Aires,-783,-988
Mumbai,-496,-805
Mexico City,31,-866
Istanbul,229,-744
Beijing,827,-658
Delhi,822,-608
Dhaka,881,-174
Kolkata,223,304
Cairo,392,535
Karachi,540,921
Chongqing,194,678
