label,x,y
Tokyo,458,6
Delhi,826,65
Mexico City,804,-103
Osaka,341,-585
São Paulo,267,-521
New York,169,-509
Dhaka,111,-704
Karachi,-64,-439
Cairo,-643,-957
Chongqing,-846,-984
Mumbai,-805,-410
Buenos Aires,-800,-195
Shanghai,-852,520
Beijing,325,424
