label,x,y
Tokyo,-638,989
Mumbai,-329,944
Dhaka,-136,867
Mexico City,-28,960
Chongqing,923,910
Osaka,105,612
Cairo,52,433
Delhi,145,386
Istanbul,510,-92
Buenos Aires,720,-564
Karachi,17,-366
São Paulo,-857,-990
Shanghai,-274,-377
Beijing,-208,-97
New York,-415,313
