label,x,y
Tokyo,-646,222
Istanbul,-760,152
Mumbai,-806,42
São Paulo,-709,88
Manila,-626,0
Dhaka,-529,-120
Kolkata,-550,-406
Mexico City,-572,-972
Chongqing,-96,-501
Rio de Janeiro,208,-541
Osaka,201,-903
Cairo,451,-853
Shanghai,611,-791
New York,901,-446
Karachi,502,19
Buenos Aires,66,393
Tianjin,73,635
Delhi,-450,574
Lagos,-832,985
Beijing,-935,503
