label,x,y
Tokyo,-274,457
Manila,-100,801
Kolkata,284,830
São Paulo,558,968
Buenos Aires,381,549
Chongqing,180,454
Istanbul,104,443
Cairo,-26,325
Beijing,291,253
Dhaka,520,331
Mumbai,415,86
Rio de Janeiro,921,-827
Shanghai,796,-879
Karachi,25,-528
New York,-449,-799
Mexico City,-577,-579
Lagos,-385,-304
Delhi,-482,-215
Osaka,-843,536
