label,x,y
Tokyo,510,-930
Mumbai,750,-819
Beijing,841,-807
São Paulo,545,-692
Osaka,630,218
Mexico City,-64,-248
Cairo,-371,-38
New York,-929,699
Delhi,-766,-654
Shanghai,-889,-807
Dhaka,12,-458
Karachi,181,-811
