label,x,y
Tokyo,-127,911
Lagos,-227,850
New York,-444,608
São Paulo,-305,324
Manila,-457,-40
Dhaka,-670,-89
Mexico City,-444,-522
Chongqing,73,-806
Osaka,728,-843
Beijing,483,-623
Istanbul,-48,-369
Karachi,-50,-188
Delhi,70,-52
Buenos Aires,317,136
Mumbai,634,652
Kolkata,890,825
Shanghai,308,696
Cairo,177,951
