label,x,y
Tokyo,-388,102
Mexico City,-898,-119
Osaka,-837,-317
Karachi,-757,-878
New York,-206,-842
Delhi,728,-879
Cairo,819,-342
Dhaka,188,283
São Paulo,483,625
Beijing,850,933
Mumbai,-149,716
Shanghai,-874,894
