label,x,y
Tokyo,-961,-819
Buenos Aires,-940,-974
Mexico City,-127,-839
Istanbul,78,-782
Shanghai,429,-794
Cairo,12,24
Kolkata,486,117
Osaka,848,-7
Karachi,972,-77
Beijing,875,223
Dhaka,409,859
São Paulo,187,984
Mumbai,-91,857
Chongqing,-715,971
Delhi,-533,392
New York,-515,-52
