label,x,y
Tokyo,64,-426
São Paulo,-127,-282
Istanbul,-574,-417
Beijing,-605,-436
Buenos Aires,-526,-193
Shanghai,-969,958
New York,-309,727
Manila,156,461
Kolkata,575,489
Chongqing,540,936
Delhi,886,759
Karachi,743,358
Mexico City,609,279
Dhaka,302,100
Cairo,37,-301
Mumbai,62,-785
Osaka,442,-922
