label,x,y
Tokyo,509,159
Beijing,857,-372
New York,841,-934
Mumbai,517,-613
Delhi,530,-495
Mexico City,175,-564
Shanghai,-75,102
Dhaka,-422,107
Chongqing,-874,-65
São Paulo,-841,524
Buenos Aires,-806,572
Cairo,-28,382
Osaka,211,586
Karachi,967,605
