label,x,y
Tokyo,-695,280
Cairo,-685,193
Mexico City,-785,-523
Karachi,-544,-777
Osaka,627,-797
Dhaka,889,-539
Shanghai,726,-418
São Paulo,825,-318
Delhi,883,-224
New York,853,305
Beijing,455,740
Mumbai,278,974
