label,x,y
Tokyo,16,533
Dhaka,103,546
New York,242,957
Cairo,727,789
Mexico City,364,628
Chongqing,635,-38
Shanghai,671,-124
São Paulo,487,-267
Karachi,42,-354
Beijing,-93,-303
Mumbai,-335,-516
Buenos Aires,-571,-853
Delhi,-866,-219
Osaka,-255,405
