label,x,y
Tokyo,-802,132
Cairo,-779,921
Shanghai,-34,571
New York,447,328
Beijing,752,523
Delhi,515,194
Osaka,485,-2
São Paulo,421,-126
Mexico City,501,-220
Chongqing,858,-451
Karachi,863,-643
Dhaka,515,-346
Buenos Aires,-505,-816
Mumbai,-590,-594
