label,x,y
Tokyo,472,382
New York,630,115
Delhi,484,-198
Buenos Aires,902,-213
Chongqing,904,-388
Dhaka,400,-859
São Paulo,-115,-641
Beijing,-813,-863
Cairo,-395,-209
Mumbai,-948,-6
Kolkata,-732,492
Istanbul,-979,843
Osaka,-577,608
Mexico City,-501,519
Karachi,-274,499
Shanghai,-104,936
Manila,226,751
