label,x,y
Tokyo,-559,-874
Kolkata,-559,-934
Mexico City,-946,-550
New York,-747,-468
Karachi,-522,116
Shanghai,-676,580
Mumbai,-347,186
São Paulo,552,793
Istanbul,624,755
Beijing,540,-241
Manila,881,-650
Delhi,909,-691
Dhaka,360,-504
Osaka,324,-526
Buenos Aires,340,-241
Chongqing,-132,-226
Cairo,-459,-442
