label,x,y
Tokyo,-398,868
Shanghai,-301,909
Rio de Janeiro,-72,397
Chongqing,245,367
Kolkata,286,388
Dhaka,368,896
Delhi,732,993
Tianjin,550,396
Cairo,555,-54
Osaka,752,9
New York,877,-573
Lagos,381,-218
Mumbai,27,-214
Istanbul,-214,-785
Karachi,-266,-973
Buenos Aires,-699,-187
São Paulo,-983,-231
Manila,-916,19
Beijing,-709,522
Mexico City,-532,539
