label,x,y
Tokyo,982,-265
Mumbai,783,20
Lagos,992,504
Dhaka,802,547
Istanbul,932,796
Kolkata,629,915
Chongqing,242,660
New York,-80,644
Karachi,31,325
Shanghai,-27,363
Osaka,-343,281
Buenos Aires,-742,635
São Paulo,-901,1
Beijing,-326,-243
Tianjin,-495,-514
Manila,-468,-705
Cairo,-748,-823
Delhi,-335,-923
Mexico City,-171,-833
Rio de Janeiro,657,-909
