label,x,y
Tokyo,-802,436
Mumbai,-931,99
Istanbul,-818,-51
Kolkata,-979,-620
São Paulo,-225,-423
New York,-206,-652
Beijing,26,-772
Chongqing,-37,-556
Karachi,154,-488
Buenos Aires,850,-956
Mexico City,684,-232
Cairo,985,38
Osaka,531,435
Shanghai,-55,790
Delhi,152,-14
Dhaka,-144,13
Manila,-614,172
