label,x,y
Tokyo,-447,-820
Cairo,43,-476
Beijing,-59,-116
Shanghai,-873,508
Karachi,-958,800
Delhi,542,341
Mexico City,964,920
Mumbai,600,10
Dhaka,815,-468
Osaka,401,-417
São Paulo,530,-545
New York,494,-973
Buenos Aires,185,-772
