label,x,y
Tokyo,-37,645
Delhi,511,454
Dhaka,941,452
Cairo,999,244
São Paulo,836,-402
Osaka,542,-190
Mumbai,356,-330
Buenos Aires,395,-710
Beijing,145,-962
Shanghai,-111,-550
Mexico City,-621,-211
New York,-373,60
Karachi,-83,-26
