label,x,y
Tokyo,-798,-311
Buenos Aires,-667,-353
Osaka,-473,-628
Beijing,-222,-498
New York,-115,-689
Shanghai,-33,-623
Delhi,263,-738
São Paulo,268,-990
Mexico City,641,-803
Mumbai,452,-656
Chongqing,86,-232
Istanbul,-49,127
Dhaka,421,643
Karachi,501,945
Cairo,-97,829
Kolkata,-756,152
