label,x,y
Tokyo,198,-345
Istanbul,-146,-540
Shanghai,-657,-154
Rio de Janeiro,-392,-75
Karachi,-297,410
Cairo,-827,743
Dhaka,-268,580
Manila,115,761
Lagos,159,458
New York,622,333
Beijing,654,240
Mumbai,771,204
Osaka,988,482
Mexico City,952,139
Delhi,928,108
São Paulo,765,-717
Kolkata,832,-948
Chongqing,531,-966
Buenos Aires,552,-900
