label,x,y
Tokyo,-21,-605
Cairo,298,-545
Delhi,525,-881
Kolkata,796,-928
Chongqing,787,-796
São Paulo,972,-802
Beijing,897,-606
Dhaka,934,-161
New York,741,-326
Shanghai,465,-327
Mexico City,578,125
Manila,205,322
Osaka,341,996
Karachi,-252,530
Buenos Aires,212,64
Istanbul,93,-189
Mumbai,-900,-493
