label,x,y
Tokyo,-923,857
Beijing,-698,711
Mumbai,-445,320
Shanghai,-870,318
Chongqing,-866,-864
Dhaka,-173,-972
Osaka,402,-937
Delhi,481,-130
Buenos Aires,986,-100
New York,810,-5
Mexico City,482,118
São Paulo,327,655
Cairo,214,866
Karachi,-569,732
