label,x,y
Tokyo,-733,-758
São Paulo,-556,-869
Manila,-259,-852
Mexico City,-26,-828
Beijing,220,-491
New York,150,-148
Dhaka,438,-204
Chongqing,832,-400
Shanghai,870,-356
Karachi,823,-151
Delhi,727,843
Osaka,692,983
Cairo,343,810
Buenos Aires,187,833
Mumbai,-82,636
Rio de Janeiro,-209,194
Kolkata,-579,-93
Lagos,-249,-389
Istanbul,-360,-501
