label,x,y
Tokyo,-377,-68
Shanghai,30,-118
Delhi,40,-84
Osaka,-19,149
New York,-235,607
Chongqing,-651,687
São Paulo,-971,607
Cairo,-540,883
Karachi,-81,551
Mumbai,367,554
Rio de Janeiro,430,377
Beijing,719,294
Mexico City,971,-475
Istanbul,809,-790
Lagos,348,-828
Kolkata,507,-568
Dhaka,414,-307
Manila,142,-452
Buenos Aires,-231,-519
