label,x,y
Tokyo,-847,15
Istanbul,-835,5
Osaka,-757,-326
Mexico City,-290,-319
Mumbai,-145,-434
Shanghai,115,-561
Kolkata,166,-683
Cairo,776,-933
Karachi,562,-129
Beijing,864,117
Delhi,950,303
São Paulo,159,475
Dhaka,201,759
Buenos Aires,-237,710
Chongqing,-260,688
New York,-270,365
