label,x,y
Tokyo,-923,671
Chongqing,-699,503
São Paulo,-416,535
Cairo,-405,214
Kolkata,-22,424
Beijing,111,439
Osaka,280,780
Mexico City,776,719
New York,718,673
Karachi,224,198
Mumbai,235,126
Dhaka,498,128
Shanghai,774,-628
Istanbul,348,-927
Delhi,-735,-626
Buenos Aires,-856,286
