label,x,y
Tokyo,-482,921
Buenos Aires,29,554
Karachi,348,573
Chongqing,181,208
Delhi,6,-61
Dhaka,251,-100
Lagos,524,-146
Mexico City,811,-554
Osaka,713,-893
São Paulo,618,-895
Beijing,322,-810
New York,290,-723
Kolkata,-41,-414
Shanghai,-573,-827
Istanbul,-931,-494
Cairo,-817,-327
Mumbai,-541,441
Manila,-573,964
