label,x,y
Tokyo,-853,979
Mexico City,-592,387
São Paulo,-424,196
Cairo,-438,97
Istanbul,-548,54
Karachi,-773,20
New York,-452,-248
Delhi,-765,-760
Mumbai,-764,-767
Osaka,-359,-742
Manila,34,-999
Chongqing,8,-840
Kolkata,765,-401
Dhaka,793,388
Beijing,650,269
Shanghai,-193,491
Buenos Aires,-544,446
