label,x,y
Tokyo,479,491
Mexico City,482,198
Cairo,294,297
Mumbai,69,222
Karachi,-233,-179
Delhi,-351,-330
Shanghai,-295,-907
São Paulo,-765,-900
Beijing,-994,-815
New York,-711,-411
Buenos Aires,-440,285
Osaka,-45,514
Dhaka,406,414
