label,x,y
Tokyo,-42,-263
Beijing,-468,-127
Mexico City,-947,-305
Osaka,-190,-359
Chongqing,23,-718
Mumbai,195,-805
Buenos Aires,361,-669
São Paulo,601,-653
Delhi,566,-417
Shanghai,494,-371
Cairo,491,207
Karachi,555,996
Dhaka,63,941
New York,143,191
