label,x,y
Tokyo,-753,-410
Delhi,-508,-664
Cairo,-164,-750
Dhaka,13,-783
Lagos,685,-939
Buenos Aires,711,-184
São Paulo,816,605
Shanghai,968,643
New York,694,636
Beijing,466,518
Karachi,345,492
Mexico City,113,743
Mumbai,118,973
Istanbul,103,502
Rio de Janeiro,-180,502
Kolkata,-315,350
Manila,-907,177
Chongqing,-563,-184
Osaka,-990,-325
