label,x,y
Tokyo,-398,965
Shanghai,-27,36
São Paulo,490,468
Osaka,730,561
Buenos Aires,902,-43
Delhi,851,-654
Mumbai,548,-532
Chongqing,324,-416
Dhaka,263,-640
Istanbul,-35,-803
Cairo,-595,-990
Beijing,-387,-791
New York,-506,-272
Mexico City,-482,-169
Karachi,-962,138
