label,x,y
Tokyo,-159,984
Osaka,-992,896
Dhaka,-614,545
Shanghai,-742,233
Delhi,-865,-58
New York,-685,-677
São Paulo,44,-856
Beijing,507,-701
Mexico City,901,-638
Cairo,630,-187
Buenos Aires,615,-116
Mumbai,-263,418
Karachi,1,974
