label,x,y
Tokyo,941,589
Mumbai,337,252
Cairo,429,29
Chongqing,-181,-958
Karachi,-649,-726
Buenos Aires,-751,-827
Shanghai,-776,-568
Osaka,-825,68
Mexico City,-663,214
Delhi,-804,501
Dhaka,-888,522
New York,-599,627
São Paulo,-174,346
Istanbul,-138,425
Beijing,558,910
