label,x,y
Tokyo,97,-550
Delhi,-112,-850
Chongqing,-377,-761
São Paulo,-757,-962
Buenos Aires,-595,-324
Osaka,-971,-163
Karachi,-554,39
Istanbul,-866,681
Cairo,-202,780
Mexico City,312,421
Kolkata,747,230
Shanghai,992,339
Dhaka,938,128
New York,894,-100
Mumbai,843,32
Beijing,45,-129
