label,x,y
Tokyo,913,-424
Delhi,505,228
Dhaka,715,948
Karachi,471,522
Shanghai,486,214
Beijing,150,-139
Cairo,-157,-40
New York,-532,-388
Mumbai,-974,-567
Buenos Aires,-791,-932
Mexico City,-401,-995
Osaka,103,-626
São Paulo,353,-982
