label,x,y
Tokyo,-401,19
Beijing,-255,277
New York,-758,482
Shanghai,-84,858
Delhi,590,807
Mumbai,686,796
Osaka,729,48
São Paulo,912,-401
Mexico City,949,-698
Dhaka,534,-430
Cairo,-429,-294
Karachi,-751,-664
