label,x,y
Tokyo,-210,949
Shanghai,-695,813
Delhi,-574,-173
Cairo,-688,-652
Osaka,-931,-884
Beijing,-334,-856
Mexico City,-352,-469
São Paulo,-269,-401
Mumbai,-124,-386
Dhaka,-77,-385
New York,343,371
