label,x,y
Tokyo,192,446
Mexico City,88,587
Kolkata,320,815
Chongqing,603,606
Dhaka,512,382
Cairo,457,120
Mumbai,957,-105
Buenos Aires,519,-277
Shanghai,-31,-865
Karachi,-733,-942
Delhi,-884,-453
Osaka,-927,-60
São Paulo,-547,-191
Beijing,-332,42
Istanbul,-377,381
Lagos,-637,796
New York,-375,876
Manila,-172,436
