label,x,y
Tokyo,905,-939
Mexico City,329,-743
Beijing,46,-548
Mumbai,-385,-843
Delhi,-482,-148
Dhaka,270,61
Chongqing,147,616
Buenos Aires,-124,796
Osaka,222,855
Cairo,563,832
New York,628,704
Shanghai,699,22
São Paulo,467,-310
Karachi,771,-618
