label,x,y
Tokyo,-432,373
Mexico City,-574,-296
Kolkata,-155,-716
Lagos,143,-641
Osaka,22,-404
Delhi,-79,-140
Chongqing,-58,112
Beijing,366,-17
Shanghai,680,243
São Paulo,933,-12
Istanbul,716,305
Dhaka,457,858
Karachi,239,782
Cairo,-99,957
Manila,-322,766
Mumbai,-635,604
New York,-727,631
Buenos Aires,-623,452
