label,x,y
Tokyo,502,615
São Paulo,187,240
Istanbul,490,-581
Beijing,295,-716
Dhaka,334,-540
Delhi,15,-99
Kolkata,-224,-7
Karachi,-883,-227
Mumbai,-895,-54
New York,-864,16
Osaka,-832,132
Cairo,-864,457
Buenos Aires,-977,471
Manila,-966,790
Shanghai,-482,956
Mexico City,-239,228
Chongqing,-29,200
