label,x,y
Tokyo,113,-245
Beijing,355,-53
Lagos,164,222
New York,557,519
Osaka,364,650
Chongqing,222,721
Istanbul,165,600
Mexico City,-616,838
Manila,-645,887
Rio de Janeiro,-655,238
Dhaka,-648,-30
São Paulo,-925,43
Delhi,-828,-115
Karachi,-746,-230
Tianjin,-734,-272
Shanghai,-132,-542
Cairo,280,-792
Kolkata,715,-721
Mumbai,746,-677
Buenos Aires,235,-705
