label,x,y
Tokyo,790,-998
Karachi,-278,-672
Chongqing,-697,-828
Mexico City,-819,-406
Osaka,-885,485
São Paulo,-227,559
Istanbul,-91,992
Mumbai,-50,801
New York,383,660
Delhi,-2,446
Cairo,-107,252
Beijing,-99,99
Shanghai,481,-190
Dhaka,655,-182
Buenos Aires,995,-112
Kolkata,699,-301
