label,x,y
Tokyo,-418,-377
Chongqing,-391,-134
Cairo,-924,113
Karachi,-986,237
New York,163,990
Beijing,477,918
Shanghai,600,766
Istanbul,531,678
São Paulo,801,110
Osaka,102,-106
Buenos Aires,-170,-273
Dhaka,147,-930
Mexico City,-180,-996
Mumbai,-356,-846
Kolkata,-570,-887
Delhi,-995,-648
Manila,-698,-565
