label,x,y
Tokyo,-821,-39
Mexico City,-926,349
Manila,-1,647
Rio de Janeiro,328,957
Shanghai,455,680
Beijing,614,-67
São Paulo,283,-283
Mumbai,-47,-111
Osaka,-199,-386
Lagos,-325,-545
New York,-284,-545
Delhi,104,-887
Cairo,163,-989
Dhaka,-372,-969
Istanbul,-617,-962
Karachi,-620,-839
Kolkata,-456,-438
Chongqing,-586,-236
Buenos Aires,-932,-268
