label,x,y
Tokyo,799,-963
New York,411,-368
Dhaka,449,252
São Paulo,627,888
Karachi,495,883
Beijing,-61,639
Delhi,-95,518
Cairo,-396,610
Osaka,-755,521
Mexico City,-958,-260
Shanghai,-385,-758
Mumbai,-131,-789
