label,x,y
Tokyo,-639,-660
Dhaka,-933,-935
Mexico City,-976,-813
Karachi,-818,-697
Manila,-729,-108
Osaka,-624,70
Buenos Aires,-336,276
São Paulo,-68,649
Istanbul,-51,931
Beijing,91,639
Mumbai,429,825
Kolkata,786,310
Shanghai,572,-155
Chongqing,788,-814
Cairo,417,-437
Delhi,106,-220
New York,-186,-99
