label,x,y
Tokyo,572,-818
Osaka,516,-506
São Paulo,430,-359
Delhi,205,-346
Dhaka,-42,-316
Cairo,-314,-730
Mumbai,-461,-951
Istanbul,-668,-810
Lagos,-442,-672
Manila,-628,189
Beijing,-527,519
Karachi,112,422
Buenos Aires,141,796
Mexico City,341,705
Kolkata,983,903
Shanghai,956,-365
New York,792,-660
Chongqing,721,-720
