label,x,y
Tokyo,529,-981
Mumbai,438,-977
Karachi,30,-975
Cairo,101,-428
Delhi,-163,-310
Lagos,-917,-556
Osaka,-948,-99
Chongqing,-783,-36
Buenos Aires,-957,168
New York,-646,380
Rio de Janeiro,-148,103
Beijing,135,44
São Paulo,21,165
Kolkata,-85,392
Manila,-83,751
Mexico City,443,604
Dhaka,974,790
Shanghai,526,100
Istanbul,862,-101
Tianjin,609,-705
