label,x,y
Tokyo,-887,977
Cairo,-911,778
Istanbul,-854,734
Mumbai,-878,603
Karachi,-513,458
Lagos,-832,-23
Rio de Janeiro,-607,-933
Mexico City,-35,-512
Shanghai,265,-895
Kolkata,686,-742
Manila,712,-712
Osaka,939,-328
São Paulo,898,5
Beijing,547,105
New York,892,223
Tianjin,981,357
Dhaka,942,337
Buenos Aires,558,742
Delhi,-398,910
Chongqing,-618,754
