label,x,y
Tokyo,202,-419
Delhi,826,-626
Dhaka,974,471
New York,880,499
Osaka,800,467
Istanbul,624,455
Beijing,-94,-15
Kolkata,-136,-173
Mexico City,-237,199
Shanghai,-421,308
Buenos Aires,-569,663
Chongqing,-934,173
Manila,-964,-310
Karachi,-929,-501
Cairo,-358,-312
Mumbai,-223,-519
São Paulo,69,-558
Lagos,200,-385
