label,x,y
Tokyo,28,943
Cairo,176,764
Dhaka,178,373
Chongqing,426,386
Delhi,660,657
Buenos Aires,926,317
Istanbul,501,-69
Karachi,933,-629
New York,525,-874
Mexico City,470,-885
Shanghai,-9,-830
Kolkata,171,-470
Rio de Janeiro,1,-486
Manila,-126,-168
Beijing,-124,182
Mumbai,-283,159
São Paulo,-673,714
Lagos,-813,865
Osaka,-300,746
