label,x,y
Tokyo,-222,-510
Mumbai,-646,-966
Mexico City,-586,-811
São Paulo,-331,-212
Osaka,-361,76
Delhi,-330,345
Beijing,-998,942
Cairo,85,746
Shanghai,924,461
Dhaka,943,222
New York,611,-857
Karachi,144,-609
