label,x,y
Tokyo,951,-109
Dhaka,823,-585
Shanghai,744,-897
Mumbai,307,-788
Manila,-272,-254
Kolkata,-517,-436
Delhi,-737,-610
Cairo,-977,-798
Mexico City,-858,-434
Chongqing,-884,-168
São Paulo,-653,779
Beijing,-587,827
Osaka,-259,995
Buenos Aires,-247,966
Istanbul,-388,836
Karachi,2,-112
New York,650,-150
