label,x,y
Tokyo,264,613
Dhaka,-62,721
Mexico City,-362,719
Lagos,-852,462
Buenos Aires,-456,71
São Paulo,-806,-67
Manila,-978,-219
Istanbul,-816,-592
Mumbai,-579,-779
Cairo,-108,-400
New York,415,-686
Shanghai,440,-827
Osaka,681,-853
Delhi,928,-300
Beijing,722,-354
Karachi,85,-26
Chongqing,-99,156
Kolkata,-147,448
