label,x,y
Tokyo,-907,64
Buenos Aires,-507,477
Istanbul,-821,919
Osaka,-153,680
Manila,-17,829
Mexico City,371,806
Dhaka,730,258
New York,700,8
Mumbai,580,-113
Beijing,667,-497
Karachi,866,-786
Shanghai,810,-731
Cairo,280,-438
Kolkata,-250,-729
São Paulo,194,-141
Delhi,80,-6
Chongqing,-196,97
