label,x,y
Tokyo,155,762
Mumbai,176,422
Cairo,149,355
Lagos,477,241
Buenos Aires,841,170
Beijing,938,-538
Kolkata,997,-674
Karachi,372,-993
Rio de Janeiro,350,-529
Istanbul,171,-382
Dhaka,-390,-536
Chongqing,-489,-783
Manila,-619,-620
Osaka,-755,-44
Delhi,-617,151
Shanghai,-139,-30
São Paulo,-6,105
New York,28,231
Mexico City,-117,581
