label,x,y
Tokyo,970,817
Dhaka,996,373
Mumbai,862,-36
Lagos,749,-460
Beijing,716,-905
Manila,617,-873
Buenos Aires,399,-457
Chongqing,361,-614
Cairo,-245,-734
Osaka,-591,-820
Mexico City,-710,-973
Kolkata,-909,-741
Delhi,-963,491
Istanbul,-711,799
Shanghai,-78,944
Karachi,-100,147
São Paulo,263,268
New York,415,573
