label,x,y
Tokyo,-892,-192
Mexico City,-842,86
São Paulo,-586,676
Beijing,-250,795
Osaka,-78,582
Kolkata,-148,349
Chongqing,148,296
Mumbai,88,522
Cairo,764,775
Karachi,978,650
Buenos Aires,963,591
Istanbul,241,210
Shanghai,628,-505
New York,880,-683
Delhi,315,-904
Dhaka,33,-131
