label,x,y
Tokyo,187,-756
Mexico City,-973,-676
Beijing,-738,313
Tianjin,-637,800
Delhi,10,836
New York,173,509
Dhaka,342,568
Mumbai,423,817
Shanghai,615,874
Manila,652,899
Rio de Janeiro,774,621
Karachi,674,506
Istanbul,822,409
Chongqing,890,-95
Osaka,550,-145
Cairo,184,-126
Kolkata,-110,9
Lagos,-154,268
São Paulo,-225,95
Buenos Aires,-19,-167
