label,x,y
Tokyo,522,-720
Cairo,499,-359
Mumbai,950,-326
Karachi,964,918
São Paulo,23,979
Dhaka,-232,951
Beijing,-758,884
Shanghai,-400,574
Delhi,-558,345
Mexico City,-977,181
Osaka,-542,-115
New York,322,-489
