label,x,y
Tokyo,632,598
Karachi,818,861
Mumbai,549,739
Istanbul,287,921
São Paulo,132,903
Cairo,88,931
Buenos Aires,31,930
Beijing,135,716
Shanghai,-318,417
Chongqing,-421,168
Delhi,-633,166
Osaka,-935,55
Lagos,-914,-798
New York,-296,-899
Dhaka,219,-574
Kolkata,-134,-81
Mexico City,471,117
Manila,519,233
