label,x,y
Tokyo,-272,741
Chongqing,-773,779
Shanghai,-818,602
Karachi,-821,128
Mexico City,-399,69
Delhi,-849,-768
Buenos Aires,-971,-853
Beijing,-188,-909
Mumbai,120,-858
Dhaka,294,42
New York,521,280
Osaka,705,478
Cairo,847,597
São Paulo,162,987
