label,x,y
Tokyo,-242,737
Osaka,-246,902
Mumbai,124,827
Istanbul,537,897
New York,944,-147
Mexico City,818,-561
Buenos Aires,-71,-266
Cairo,-408,-765
Dhaka,-453,-952
Chongqing,-893,-545
Delhi,-830,-517
Shanghai,-273,157
Beijing,6,140
São Paulo,-388,393
Karachi,-574,399
