label,x,y
Tokyo,47,522
Mexico City,-292,851
Chongqing,-122,464
Cairo,-169,414
New York,-160,313
Buenos Aires,-482,65
Karachi,-808,-708
Dhaka,3,-514
Kolkata,-29,-375
Mumbai,108,-444
Beijing,503,-878
Delhi,508,-641
São Paulo,694,171
Osaka,791,211
Shanghai,958,352
Istanbul,577,721
