label,x,y
Tokyo,-330,258
Delhi,107,379
Karachi,132,323
Lagos,11,129
Istanbul,-38,-532
Beijing,-142,-837
Dhaka,420,-585
Shanghai,403,-490
Chongqing,663,-55
Mexico City,982,397
Manila,725,894
Mumbai,6,954
Kolkata,-213,632
New York,-506,983
Buenos Aires,-852,975
Cairo,-515,631
Rio de Janeiro,-595,365
São Paulo,-646,146
Osaka,-615,17
