label,x,y
Tokyo,-660,-998
Istanbul,-169,-787
Mumbai,179,-882
Beijing,613,-889
Rio de Janeiro,741,-454
Dhaka,756,-155
Mexico City,886,8
New York,588,40
Kolkata,-149,171
Karachi,27,912
Buenos Aires,-562,793
Cairo,-591,810
Osaka,-572,231
Chongqing,-497,65
Manila,-785,134
Delhi,-716,26
Lagos,-803,-249
São Paulo,-651,-379
Shanghai,-463,-392
