label,x,y
Tokyo,423,-430
Mexico City,901,-582
São Paulo,510,341
Karachi,263,344
New York,125,489
Beijing,483,775
Istanbul,468,787
Cairo,133,893
Shanghai,78,772
Osaka,-629,856
Mumbai,-965,674
Lagos,-828,435
Delhi,-460,280
Manila,-642,131
Dhaka,-924,-628
Kolkata,-408,-109
Chongqing,92,-145
Buenos Aires,249,-398
