label,x,y
Tokyo,-409,-153
Osaka,-591,-438
Buenos Aires,-308,-578
Manila,-258,-932
Karachi,-812,-889
Kolkata,-940,-480
Delhi,-991,0
Mexico City,-670,767
Cairo,-472,699
Beijing,-388,608
Dhaka,556,608
Tianjin,602,875
Istanbul,929,894
Shanghai,766,478
Rio de Janeiro,546,-198
Lagos,520,-492
Chongqing,831,-904
New York,583,-434
São Paulo,282,94
Mumbai,-218,135
