label,x,y
Tokyo,49,933
São Paulo,49,681
New York,-247,736
Mumbai,-331,606
Delhi,-866,207
Chongqing,-932,-352
Kolkata,-815,-637
Osaka,133,-602
Dhaka,677,-940
Shanghai,930,-947
Buenos Aires,406,-326
Beijing,259,-291
Mexico City,72,-141
Karachi,767,605
Istanbul,313,798
Cairo,253,945
