label,x,y
Tokyo,225,497
Delhi,-377,493
Mexico City,-389,917
Chongqing,-654,751
Lagos,-691,594
São Paulo,-418,462
Cairo,-92,-103
New York,-416,-537
Beijing,-790,-560
Mumbai,-201,-786
Tianjin,57,-713
Karachi,318,-207
Dhaka,489,-406
Istanbul,590,-613
Manila,884,-681
Kolkata,696,-184
Rio de Janeiro,676,-109
Shanghai,710,358
Buenos Aires,424,479
Osaka,327,526
