label,x,y
Tokyo,554,-635
Beijing,399,-961
Shanghai,62,-288
Mumbai,-200,-100
Dhaka,-496,-382
Mexico City,-947,-471
Delhi,-266,-20
São Paulo,170,177
New York,162,508
Karachi,347,362
Buenos Aires,838,946
Cairo,985,809
Osaka,665,50
