label,x,y
Tokyo,71,-517
Delhi,368,-182
Mumbai,543,-326
Beijing,834,-247
Istanbul,935,301
Manila,783,522
Osaka,271,271
Karachi,199,-36
New York,-549,-115
São Paulo,-700,645
Buenos Aires,-717,754
Kolkata,-846,6
Cairo,-868,-274
Chongqing,-981,-411
Mexico City,-467,-834
Shanghai,-100,-521
Dhaka,208,-944
