label,x,y
Tokyo,-378,-981
Mumbai,-923,-669
Cairo,-539,6
Delhi,-547,385
New York,-900,844
Beijing,-636,801
Osaka,346,274
Shanghai,701,353
São Paulo,858,556
Dhaka,501,286
Mexico City,391,-538
Karachi,-99,-854
