label,x,y
Tokyo,160,286
Buenos Aires,83,358
Karachi,-696,408
Beijing,-680,382
Dhaka,-462,-301
Shanghai,-429,-358
Osaka,-965,-785
New York,-537,-687
Mumbai,-289,-895
Cairo,-346,-571
Mexico City,263,-397
Delhi,282,-191
Chongqing,545,-165
São Paulo,709,752
