label,x,y
Tokyo,778,926
Chongqing,454,680
São Paulo,282,780
Cairo,184,814
Beijing,-326,382
Shanghai,-812,-387
Dhaka,-421,-669
Delhi,-157,-814
Osaka,695,-892
Mexico City,798,-786
Buenos Aires,951,-682
Mumbai,296,-229
Karachi,581,323
New York,981,352
