label,x,y
Tokyo,-368,-222
Mumbai,-657,-841
New York,176,-991
Chongqing,759,-801
Delhi,228,-35
Cairo,917,623
São Paulo,467,686
Shanghai,131,642
Buenos Aires,169,876
Beijing,-528,986
Mexico City,-714,628
Dhaka,-855,493
Karachi,-989,126
Osaka,-514,-183
Istanbul,-226,41
