label,x,y
Tokyo,372,-705
Karachi,380,75
Beijing,602,66
São Paulo,845,124
New York,891,280
Mexico City,630,674
Rio de Janeiro,346,946
Istanbul,399,861
Dhaka,113,166
Osaka,-168,-71
Delhi,-471,329
Lagos,-899,155
Manila,-844,-65
Kolkata,-594,-228
Mumbai,-535,-310
Chongqing,-597,-460
Shanghai,0,-588
Cairo,-67,-936
Buenos Aires,196,-668
