label,x,y
Tokyo,-201,95
New York,113,633
Mumbai,350,722
Osaka,693,561
Dhaka,693,123
Shanghai,480,-18
Beijing,999,-323
Cairo,545,-573
Karachi,93,-554
Buenos Aires,-5,-571
Mexico City,-363,-821
Delhi,-599,-992
Chongqing,-880,-228
Kolkata,-732,237
São Paulo,-692,657
Istanbul,-562,212
