label,x,y
Tokyo,-945,-372
Mexico City,-950,147
Karachi,-389,135
Buenos Aires,-224,66
São Paulo,-374,953
Delhi,630,969
Shanghai,976,66
New York,558,-177
Dhaka,288,-229
Beijing,-274,-758
Osaka,-494,-719
Mumbai,-759,-324
Cairo,-820,-373
