label,x,y
Tokyo,923,516
Osaka,301,55
Manila,189,-98
Mumbai,478,-613
Chongqing,721,-620
New York,337,-848
Shanghai,334,-954
Delhi,-390,-652
Dhaka,-697,-764
Lagos,-910,-476
Buenos Aires,-623,-561
Beijing,-289,-350
Karachi,-439,263
Tianjin,-905,839
Kolkata,-708,742
Cairo,-176,573
Mexico City,-108,644
Rio de Janeiro,-53,586
São Paulo,496,571
Istanbul,818,672
