label,x,y
Tokyo,-953,-697
São Paulo,-882,-782
Shanghai,-591,-733
Chongqing,-522,-944
Karachi,-7,-966
Osaka,94,-809
Delhi,421,-477
Mumbai,414,201
Beijing,745,301
Buenos Aires,866,773
Kolkata,600,293
Istanbul,246,418
Mexico City,-252,510
New York,-448,113
Cairo,-391,-86
Dhaka,-532,-482
