label,x,y
Tokyo,-681,304
Mumbai,-344,404
São Paulo,-351,465
Shanghai,-136,718
Mexico City,168,857
Dhaka,463,546
Chongqing,956,803
Osaka,611,246
Cairo,241,49
New York,902,-214
Karachi,761,-981
Beijing,38,-544
Delhi,-221,-810
Buenos Aires,-616,-452
