label,x,y
Tokyo,46,520
São Paulo,-498,843
Osaka,-461,357
Shanghai,-535,308
Dhaka,-824,359
Mumbai,-790,-302
Beijing,-778,-485
Chongqing,-410,-388
Mexico City,326,-823
Istanbul,364,-794
Buenos Aires,605,-415
Cairo,922,-508
Delhi,856,623
New York,948,687
Karachi,751,783
