label,x,y
Tokyo,-789,-980
Osaka,-646,-368
Karachi,-791,520
Mumbai,-64,595
Beijing,829,633
Dhaka,154,-79
Shanghai,35,-340
Delhi,316,-258
São Paulo,954,-498
New York,785,-799
Mexico City,284,-768
Cairo,75,-508
