label,x,y
Tokyo,-772,153
Karachi,-764,-311
Osaka,-786,-420
São Paulo,-745,-484
Tianjin,-568,-677
Istanbul,-328,-188
Kolkata,65,-100
Mumbai,535,-123
New York,771,-310
Cairo,711,-361
Mexico City,761,-639
Manila,965,-380
Beijing,962,-150
Chongqing,666,126
Dhaka,397,527
Shanghai,951,942
Delhi,554,985
Buenos Aires,84,797
Lagos,-114,916
Rio de Janeiro,-438,140
