label,x,y
Tokyo,51,987
Shanghai,-196,785
Beijing,-668,810
Chongqing,-294,777
Karachi,-176,456
Mumbai,-438,-524
Osaka,-772,-580
Cairo,-634,-880
Delhi,-621,-967
Buenos Aires,112,-810
New York,403,-495
São Paulo,840,-607
Mexico City,287,-213
Dhaka,451,-82
