label,x,y
Tokyo,-761,-825
Shanghai,-162,-473
Delhi,-19,-507
Buenos Aires,522,-273
Mexico City,561,-350
Istanbul,674,-504
Chongqing,954,-983
Mumbai,623,-330
Dhaka,944,153
Cairo,968,265
Kolkata,885,913
New York,712,469
Rio de Janeiro,393,136
Osaka,122,141
Beijing,-193,698
São Paulo,-269,736
Lagos,-594,508
Manila,-329,-133
Karachi,-612,-265
