label,x,y
Tokyo,186,-51
Delhi,708,-663
Mexico City,838,-673
New York,348,-440
Karachi,-345,-721
Manila,-632,-863
Kolkata,-571,-752
Buenos Aires,-482,-165
Chongqing,-720,-171
Cairo,-998,155
Shanghai,-928,610
Dhaka,-798,838
Beijing,186,989
Istanbul,61,419
Mumbai,102,359
São Paulo,430,323
Osaka,237,153
