label,x,y
Tokyo,631,369
Beijing,419,655
Karachi,248,744
Buenos Aires,-267,276
Delhi,-728,759
Kolkata,-767,17
Shanghai,-534,-108
Chongqing,-724,-336
Mumbai,-574,-762
New York,-354,-568
Cairo,-210,-313
Mexico City,128,-237
São Paulo,346,-418
Istanbul,386,-900
Osaka,679,-936
Manila,469,-495
Dhaka,643,-360
