label,x,y
Tokyo,164,-3
Mexico City,63,-352
Shanghai,502,-736
New York,818,-635
Beijing,270,-64
Cairo,525,209
Karachi,854,870
São Paulo,230,893
Kolkata,-258,910
Mumbai,-560,614
Osaka,-718,642
Delhi,-843,84
Dhaka,-896,-1
Buenos Aires,-675,-357
Manila,-607,-101
Istanbul,-253,396
Chongqing,-143,156
