label,x,y
Tokyo,986,563
Shanghai,936,571
Cairo,-599,404
Mexico City,-606,266
São Paulo,-576,-336
Beijing,-938,-451
Dhaka,-587,-760
Karachi,-407,-498
Osaka,-160,-883
Mumbai,-114,-907
Delhi,-81,-463
New York,13,-304
