label,x,y
Tokyo,249,542
Shanghai,115,516
São Paulo,-345,718
Chongqing,-352,687
Beijing,-662,616
Buenos Aires,-583,140
Osaka,-435,-118
Delhi,-735,-754
Mumbai,293,-484
Cairo,456,-721
Istanbul,726,-631
Mexico City,427,-78
Dhaka,244,48
New York,139,108
Karachi,458,315
