label,x,y
Tokyo,-522,-813
Karachi,-37,-910
Mexico City,384,-748
Istanbul,736,-867
New York,169,-501
Delhi,-83,-296
Cairo,97,170
Mumbai,329,401
Chongqing,812,871
Shanghai,501,776
Osaka,157,608
São Paulo,-834,947
Buenos Aires,-553,657
Dhaka,-128,-328
Beijing,-339,-578
