label,x,y
Tokyo,-713,891
Osaka,-845,308
Istanbul,-515,56
Delhi,-723,-61
Beijing,-669,-372
Mumbai,-333,-394
Shanghai,-311,-852
Mexico City,141,-765
New York,-200,-494
Buenos Aires,-215,-354
Cairo,130,-19
Chongqing,127,242
São Paulo,114,484
Dhaka,-222,341
Karachi,-387,997
