label,x,y
Tokyo,-603,-777
Beijing,-312,-593
Shanghai,-142,-119
Manila,-429,105
Karachi,-876,159
Kolkata,-989,82
Mexico City,-756,288
Lagos,-422,429
Delhi,95,496
Osaka,316,646
Rio de Janeiro,986,969
Mumbai,449,504
Cairo,731,-107
São Paulo,392,-255
Buenos Aires,343,-782
Chongqing,-10,-908
Istanbul,-315,-651
New York,-574,-871
Dhaka,-831,-940
Tianjin,-826,-770
