label,x,y
Tokyo,528,-53
Mumbai,824,-299
Dhaka,332,-828
Karachi,69,-990
Osaka,-8,-580
New York,32,-357
Cairo,8,-212
São Paulo,-876,-585
Delhi,-438,5
Buenos Aires,-138,423
Mexico City,-198,578
Chongqing,-90,844
Shanghai,53,649
Beijing,38,255
