label,x,y
Tokyo,-262,-408
Cairo,210,-29
Osaka,497,205
New York,701,-204
Shanghai,754,-141
Mexico City,791,222
Buenos Aires,662,560
Mumbai,393,753
Dhaka,-506,952
Beijing,-862,500
São Paulo,-831,-404
Chongqing,-852,-949
Delhi,58,-888
Karachi,-326,-398
