label,x,y
Tokyo,979,274
São Paulo,671,-134
Shanghai,424,-174
Mumbai,663,-249
Beijing,733,-391
Dhaka,965,-500
Delhi,610,-390
Cairo,211,-799
Buenos Aires,-285,-935
Karachi,-313,-924
Chongqing,-322,-512
New York,-918,-322
Kolkata,-799,-183
Mexico City,-886,202
Manila,-654,811
Istanbul,-163,72
Lagos,427,770
Osaka,832,765
