label,x,y
Tokyo,139,-333
Delhi,-179,-809
Cairo,-130,-973
Buenos Aires,326,-666
Chongqing,619,-816
Istanbul,839,-365
São Paulo,788,-343
Beijing,890,381
Karachi,616,353
Mexico City,167,111
Osaka,-383,731
Dhaka,-932,777
Mumbai,-626,107
New York,-691,-70
Shanghai,-525,60
