label,x,y
Tokyo,589,-270
Beijing,953,-638
Karachi,819,-673
Chongqing,618,-605
Rio de Janeiro,195,-862
Manila,-511,-817
Lagos,-889,-584
Osaka,-988,-423
Mumbai,-803,-17
São Paulo,-973,305
Kolkata,-680,224
Buenos Aires,-495,-90
New York,-35,-163
Cairo,-255,279
Dhaka,99,963
Istanbul,634,759
Mexico City,734,712
Shanghai,926,13
Delhi,862,-113
Tianjin,720,-70
