label,x,y
Tokyo,-438,839
Mexico City,186,961
Cairo,387,872
Delhi,797,738
Beijing,427,366
Manila,64,475
New York,43,203
Osaka,240,256
Istanbul,504,225
Mumbai,711,-169
São Paulo,846,-440
Kolkata,678,-934
Dhaka,569,-753
Buenos Aires,-88,-438
Chongqing,-662,-944
Shanghai,-326,-87
Karachi,-980,352
