label,x,y
Tokyo,897,-820
São Paulo,751,-821
Mumbai,607,-832
Buenos Aires,157,-138
Mexico City,-335,-149
Beijing,-453,-488
Delhi,-815,-811
New York,-838,-324
Karachi,-716,887
Dhaka,-738,952
Kolkata,-194,570
Osaka,187,337
Cairo,185,315
Shanghai,233,353
Chongqing,522,339
Istanbul,673,284
