label,x,y
Tokyo,18,454
Mumbai,84,347
Kolkata,487,478
Chongqing,976,905
Karachi,716,-93
Beijing,280,-122
Buenos Aires,-13,-323
Shanghai,-684,-870
Delhi,-641,-468
Osaka,-465,249
New York,-656,347
Dhaka,-743,507
Istanbul,-539,443
Cairo,-525,872
São Paulo,-172,941
Manila,-102,846
Mexico City,-33,626
