label,x,y
Tokyo,378,426
Dhaka,87,284
São Paulo,37,177
Buenos Aires,398,-128
Karachi,626,-719
New York,709,-874
Shanghai,361,-346
Mumbai,-270,-584
Chongqing,-729,-364
Cairo,-583,364
Delhi,-951,822
Beijing,174,951
Mexico City,891,997
Osaka,489,709
