label,x,y
Tokyo,-670,313
Mexico City,-493,-158
Karachi,-774,-514
Delhi,-286,-718
Dhaka,-138,-931
São Paulo,693,-728
Shanghai,898,-210
New York,653,-346
Mumbai,-24,-117
Osaka,2,488
Buenos Aires,183,674
Beijing,330,893
Cairo,30,577
