label,x,y
Tokyo,-242,-8
Delhi,-45,110
Beijing,273,-520
New York,548,-965
Cairo,561,-670
Mumbai,753,124
Dhaka,272,365
Mexico City,190,350
Buenos Aires,187,620
Shanghai,35,528
São Paulo,-237,442
Istanbul,-845,878
Chongqing,-861,-66
Karachi,-763,-290
Osaka,-381,-15
