label,x,y
Tokyo,-935,-894
Osaka,-934,-984
Dhaka,-250,-987
Karachi,374,-999
Mumbai,183,-629
Kolkata,17,-162
New York,32,-142
Manila,540,118
Chongqing,579,209
Mexico City,727,442
Buenos Aires,789,885
Istanbul,-227,435
Delhi,-899,702
Rio de Janeiro,-763,324
Cairo,-817,217
Shanghai,-291,119
São Paulo,-215,32
Beijing,-260,-280
Lagos,-460,-750
