label,x,y
Tokyo,-307,153
Cairo,511,549
Buenos Aires,372,943
Beijing,623,992
Delhi,809,973
São Paulo,724,839
Osaka,825,462
Kolkata,796,265
Mexico City,910,-723
Dhaka,406,-806
New York,283,-660
Shanghai,105,-494
Chongqing,-832,-678
Istanbul,-428,-93
Karachi,-462,-2
Mumbai,-512,358
