label,x,y
Tokyo,-696,974
São Paulo,-910,291
Cairo,-743,-156
Shanghai,-396,-813
New York,-284,-964
Delhi,878,-851
Dhaka,913,-462
Mumbai,943,-343
Buenos Aires,765,269
Karachi,939,394
Osaka,380,782
Beijing,437,242
Mexico City,108,-141
Chongqing,-528,152
