label,x,y
Tokyo,-574,-463
Shanghai,-767,-768
Osaka,-611,-899
Chongqing,-50,-916
Dhaka,844,-691
Cairo,191,-303
Istanbul,455,137
Beijing,955,179
Buenos Aires,646,687
Kolkata,787,880
Manila,673,890
New York,646,889
Mumbai,518,880
Lagos,347,905
São Paulo,13,843
Karachi,-149,339
Mexico City,-831,648
Delhi,-897,467
