label,x,y
Tokyo,-440,648
Osaka,-310,805
Mexico City,20,632
Mumbai,323,899
New York,536,890
Karachi,795,332
Chongqing,415,30
São Paulo,827,-915
Buenos Aires,-324,-832
Delhi,-409,-704
Cairo,-872,-385
Beijing,-648,-322
Dhaka,-502,-277
Shanghai,-282,-89
