label,x,y
Tokyo,829,-770
Delhi,992,-911
Mexico City,897,-33
Mumbai,709,34
Karachi,769,593
Buenos Aires,654,544
Shanghai,292,251
Chongqing,35,159
Kolkata,-307,-234
Cairo,-681,-32
Dhaka,-770,-247
Beijing,-374,-820
São Paulo,-63,-565
Istanbul,-63,-530
New York,171,-384
Osaka,181,-421
