label,x,y
Tokyo,-5,-875
Shanghai,241,-902
New York,748,-929
Beijing,353,-383
Osaka,843,-50
Cairo,796,226
Dhaka,367,496
Buenos Aires,42,75
São Paulo,40,-18
Delhi,-545,148
Mexico City,-649,-241
Chongqing,-272,-492
Mumbai,-683,-899
Karachi,-301,-916
