label,x,y
Tokyo,-691,384
New York,-636,438
Delhi,-794,618
Dhaka,-470,685
Buenos Aires,-214,658
Beijing,-62,501
Mexico City,193,-201
Shanghai,582,-198
Osaka,19,-417
São Paulo,-63,-549
Mumbai,-189,-67
Cairo,-805,67
Karachi,-772,212
