label,x,y
Tokyo,-688,-489
New York,-574,-690
Cairo,-120,-600
Mumbai,20,-394
Dhaka,285,-448
Kolkata,444,-655
Beijing,880,-120
Delhi,571,497
Buenos Aires,315,382
Mexico City,-24,829
Shanghai,-641,984
Chongqing,-909,902
Istanbul,-966,569
São Paulo,-772,522
Osaka,-656,-378
Karachi,-711,-428
