label,x,y
Tokyo,-25,-497
Beijing,-304,-120
Dhaka,-544,-328
Istanbul,-558,-408
Mexico City,-621,-901
Buenos Aires,-687,-772
Shanghai,-682,-399
Chongqing,-918,-95
Delhi,-572,80
São Paulo,-843,465
Karachi,-888,663
Cairo,-379,394
Mumbai,738,954
Osaka,777,-141
New York,274,-479
