label,x,y
Tokyo,822,-216
Cairo,619,102
Dhaka,862,515
Buenos Aires,906,525
São Paulo,754,804
Delhi,731,823
Karachi,569,708
Mumbai,259,135
Shanghai,238,173
Beijing,-426,506
New York,-842,786
Mexico City,-702,-68
Osaka,-895,-723
Chongqing,637,-583
