label,x,y
Tokyo,-98,947
Mexico City,-94,978
Karachi,707,614
Dhaka,612,531
Beijing,212,248
Cairo,100,182
Buenos Aires,307,-377
New York,275,-677
Delhi,639,-921
Shanghai,243,-699
Osaka,-578,-975
Mumbai,-240,-583
São Paulo,-374,-102
Chongqing,-159,645
