label,x,y
Tokyo,77,114
Cairo,-594,171
São Paulo,-568,336
Kolkata,-993,372
New York,-823,85
Karachi,-702,4
Mexico City,-664,-217
Istanbul,-705,-527
Buenos Aires,-312,-905
Chongqing,-388,-631
Delhi,-340,-324
Manila,586,-333
Shanghai,963,-871
Osaka,698,-504
Mumbai,801,-173
Dhaka,874,520
Beijing,755,322
