label,x,y
Tokyo,360,-562
Dhaka,836,-914
São Paulo,974,-443
Chongqing,511,-189
Lagos,321,-219
Rio de Janeiro,346,295
Karachi,939,450
New York,285,797
Mumbai,-195,996
Kolkata,-383,666
Mexico City,-942,789
Delhi,-480,655
Manila,-358,136
Osaka,-657,-239
Beijing,-616,-709
Shanghai,-860,-789
Istanbul,-694,-795
Cairo,-309,-738
Buenos Aires,158,-754
