label,x,y
Tokyo,-67,-888
New York,577,-403
Dhaka,905,-558
Buenos Aires,870,-305
Manila,843,179
Cairo,352,693
Beijing,339,988
Istanbul,132,731
Mumbai,-110,547
Delhi,-547,795
São Paulo,-238,406
Osaka,190,289
Shanghai,95,83
Chongqing,163,75
Mexico City,317,-431
Karachi,-167,-889
Kolkata,-273,-934
