label,x,y
Tokyo,455,802
Delhi,571,771
Chongqing,906,441
Manila,899,-256
Shanghai,332,-76
Kolkata,173,-384
Mumbai,250,-683
Istanbul,160,-903
Dhaka,60,-734
Cairo,-659,-942
Osaka,-926,-697
Karachi,-769,-536
São Paulo,-333,-447
New York,-191,-187
Mexico City,-588,77
Lagos,-613,231
Buenos Aires,-637,748
Beijing,-406,448
