label,x,y
Tokyo,383,302
Delhi,627,636
Buenos Aires,777,801
Beijing,571,736
Mexico City,61,865
New York,-353,271
São Paulo,-944,162
Mumbai,-925,-61
Cairo,-876,-358
Osaka,-378,-836
Karachi,-48,-523
Shanghai,511,-141
Dhaka,516,133
