label,x,y
Tokyo,-826,867
Mumbai,-690,412
Osaka,-756,57
São Paulo,-965,-319
New York,-59,-14
Delhi,279,-40
Dhaka,337,-290
Mexico City,306,-637
Karachi,812,-645
Beijing,706,-244
Cairo,867,479
Shanghai,-185,828
