label,x,y
Tokyo,575,-560
Mexico City,838,-402
Delhi,592,-802
Buenos Aires,556,-983
São Paulo,173,-904
Kolkata,-360,-913
Istanbul,-489,-762
Shanghai,-659,-457
Beijing,-599,-369
Dhaka,-415,-223
Chongqing,-870,151
New York,-903,384
Osaka,-254,953
Mumbai,-96,-204
Cairo,19,-240
Karachi,55,-430
