label,x,y
Tokyo,640,466
Cairo,63,-13
Karachi,-8,-243
Delhi,-57,-614
Shanghai,-119,-881
Mexico City,-833,-748
New York,-916,-786
Beijing,-687,-68
São Paulo,-917,653
Dhaka,-198,735
Mumbai,583,496
Osaka,773,689
