label,x,y
Tokyo,940,264
Mexico City,887,577
Mumbai,845,914
Osaka,604,796
Beijing,416,882
Dhaka,-29,641
São Paulo,-191,375
Delhi,-187,707
New York,-605,669
Kolkata,-858,399
Karachi,-733,61
Chongqing,-916,-327
Cairo,-399,-624
Buenos Aires,148,-982
Shanghai,277,-994
Istanbul,459,81
