label,x,y
Tokyo,-803,8
Cairo,-754,537
New York,-434,312
Osaka,91,598
Beijing,123,788
São Paulo,285,424
Buenos Aires,753,-22
Delhi,985,-277
Dhaka,895,-810
Chongqing,543,-763
Mexico City,-194,-257
Shanghai,-281,-346
Karachi,-340,-648
Mumbai,-898,-913
