label,x,y
Tokyo,706,-199
Mexico City,725,-895
Delhi,-198,-991
Cairo,-380,-699
Beijing,-959,-663
São Paulo,-976,-163
Shanghai,-874,214
Karachi,-532,550
Dhaka,-534,622
New York,625,913
Mumbai,369,262
Osaka,248,161
