label,x,y
Tokyo,464,-975
São Paulo,594,-971
Dhaka,742,-752
Mexico City,769,-552
Delhi,361,-169
New York,25,106
Karachi,63,808
Osaka,41,872
Shanghai,-948,750
Cairo,-969,-497
Mumbai,-419,-422
Beijing,-323,-913
