label,x,y
Tokyo,217,-628
São Paulo,7,-967
Delhi,80,-650
Shanghai,-18,71
Buenos Aires,-114,120
Chongqing,-100,77
Cairo,-927,-275
New York,-734,273
Mexico City,-314,996
Karachi,455,565
Beijing,536,788
Mumbai,790,690
Dhaka,840,483
Osaka,999,-447
