label,x,y
Tokyo,-588,6
Buenos Aires,-823,-351
New York,-861,-802
Beijing,-654,-987
Shanghai,351,-936
São Paulo,744,-833
Mexico City,508,-288
Karachi,264,197
Chongqing,469,397
Delhi,312,436
Cairo,349,784
Dhaka,-174,584
Osaka,-934,967
Mumbai,-472,610
