label,x,y
Tokyo,-549,733
Mexico City,37,393
São Paulo,278,749
Osaka,299,933
Delhi,597,670
Buenos Aires,894,-141
Cairo,250,323
Karachi,-16,-56
Dhaka,-4,-450
New York,-359,-591
Beijing,-821,-793
Shanghai,-735,172
Mumbai,-922,647
