label,x,y
Tokyo,766,-418
Shanghai,760,-634
Osaka,665,-919
Cairo,425,-568
Dhaka,-474,207
Mumbai,-765,331
Karachi,-512,769
Beijing,-182,668
New York,40,644
Delhi,312,-25
São Paulo,482,-444
Mexico City,641,-513
