label,x,y
Tokyo,494,156
Shanghai,589,-314
Cairo,951,-718
New York,860,-986
São Paulo,211,-387
Mumbai,-66,-697
Delhi,-285,-735
Mexico City,-532,-972
Lagos,-846,-998
Karachi,-509,-793
Beijing,-603,-348
Tianjin,-386,89
Istanbul,-605,256
Rio de Janeiro,-379,365
Dhaka,-608,637
Manila,-588,935
Kolkata,220,888
Osaka,876,829
Buenos Aires,940,853
Chongqing,371,321
