label,x,y
Tokyo,-835,614
Lagos,-509,134
Manila,-828,48
São Paulo,-748,-330
Beijing,-894,-825
Shanghai,-38,-663
Istanbul,389,-442
Karachi,860,-752
Mumbai,511,-480
Cairo,611,-21
Delhi,873,-63
Chongqing,979,506
Mexico City,517,658
New York,313,725
Kolkata,175,554
Buenos Aires,112,294
Osaka,-16,833
Dhaka,-390,669
