label,x,y
Tokyo,581,-866
Karachi,894,-331
Mexico City,785,478
São Paulo,625,375
Delhi,-731,674
Beijing,-739,967
Shanghai,-770,433
Mumbai,-798,383
Osaka,-957,-426
Dhaka,-916,-664
Cairo,90,-802
New York,272,-405
