label,x,y
Tokyo,775,-460
São Paulo,928,727
Mumbai,301,835
Osaka,-293,931
Mexico City,-966,882
Beijing,-535,583
Karachi,-633,205
Delhi,-830,-479
Shanghai,-87,74
New York,20,-401
Cairo,618,-390
Dhaka,977,-669
