label,x,y
Tokyo,945,-347
Cairo,757,416
São Paulo,943,989
Mexico City,454,752
Shanghai,-67,894
Osaka,-695,932
New York,-863,935
Karachi,-245,427
Dhaka,-328,-550
Delhi,253,-967
Beijing,289,-782
Mumbai,481,-418
