label,x,y
Tokyo,385,934
Osaka,815,907
Delhi,975,907
Mumbai,840,665
Mexico City,709,662
São Paulo,222,369
Dhaka,198,312
Cairo,180,-951
Shanghai,-376,-178
New York,-904,292
Beijing,-750,922
Karachi,168,831
