label,x,y
Tokyo,-562,-887
Shanghai,-322,-900
Cairo,-181,-744
Manila,282,-914
Chongqing,716,-682
São Paulo,512,63
Dhaka,344,121
Karachi,-71,-261
New York,-178,-13
Istanbul,77,170
Mumbai,263,383
Lagos,-165,959
Kolkata,-938,515
Delhi,-975,320
Osaka,-908,-26
Beijing,-693,-406
Mexico City,-438,-383
Buenos Aires,-474,-852
