label,x,y
Tokyo,291,911
Buenos Aires,410,949
Shanghai,434,849
Mexico City,678,795
Chongqing,772,505
Manila,130,414
Mumbai,-48,81
Rio de Janeiro,263,-411
Lagos,258,-436
Cairo,415,-584
Kolkata,302,-954
Osaka,34,-979
New York,-419,-839
Karachi,-281,-409
Delhi,-888,213
Istanbul,-246,219
Dhaka,-119,461
Beijing,132,655
São Paulo,330,826
