label,x,y
Tokyo,775,930
New York,932,505
Osaka,528,-159
Buenos Aires,377,-864
Dhaka,273,-732
São Paulo,-133,-486
Cairo,-888,-412
Karachi,-961,-419
Mumbai,-757,-103
Delhi,-865,262
Beijing,-889,409
Mexico City,-730,409
Shanghai,-532,949
