label,x,y
Tokyo,684,-951
Beijing,631,-371
São Paulo,222,-65
Chongqing,98,322
Dhaka,164,-109
New York,-186,-387
Mexico City,-344,-332
Cairo,-736,-355
Karachi,-958,-928
Mumbai,-973,-275
Istanbul,-782,385
Delhi,-510,792
Shanghai,-513,988
Kolkata,157,902
Manila,433,647
Lagos,694,919
Osaka,604,586
Buenos Aires,885,189
Rio de Janeiro,635,-83
