label,x,y
Tokyo,-902,913
São Paulo,-355,832
Dhaka,-225,847
Delhi,438,85
Osaka,867,-257
Karachi,939,-413
Beijing,900,-679
Cairo,684,-490
Mexico City,399,-314
Shanghai,-328,-687
New York,-163,107
Mumbai,-310,453
