label,x,y
Tokyo,419,-173
Karachi,677,-87
Osaka,864,-35
São Paulo,919,-897
Chongqing,461,-626
Delhi,71,-496
Istanbul,-309,-453
Dhaka,-683,-634
New York,-938,178
Mumbai,-288,895
Shanghai,-156,987
Beijing,413,528
Cairo,275,-167
Mexico City,207,-203
Buenos Aires,260,-214
