label,x,y
Tokyo,355,307
Dhaka,69,505
Osaka,-449,322
Beijing,-723,570
São Paulo,-829,541
Chongqing,-516,-203
Buenos Aires,-746,-824
Delhi,-474,-460
Cairo,448,-756
Mumbai,754,-856
Mexico City,737,-269
Shanghai,648,-259
New York,843,374
Karachi,419,621
