label,x,y
Tokyo,204,-496
Delhi,-470,-762
Osaka,-982,-161
Beijing,-749,-183
Shanghai,-432,-363
Cairo,150,-186
Dhaka,460,328
New York,408,570
Karachi,931,742
Mexico City,985,720
Mumbai,979,-365
São Paulo,691,-883
