label,x,y
Tokyo,252,900
Delhi,308,875
Cairo,362,821
Shanghai,769,483
Osaka,133,-411
Beijing,829,-985
New York,261,-531
Mumbai,-73,-549
São Paulo,-353,-615
Mexico City,-393,122
Karachi,-591,175
Dhaka,4,887
