label,x,y
Tokyo,-343,-797
Beijing,-39,-306
Cairo,261,-121
Mumbai,678,-686
Shanghai,819,-691
Osaka,382,-47
São Paulo,848,566
New York,367,579
Istanbul,366,887
Delhi,-132,858
Karachi,-62,445
Dhaka,-387,512
Mexico City,-590,817
Buenos Aires,-614,641
Manila,-910,44
Chongqing,-391,-407
Kolkata,-823,-976
