label,x,y
Tokyo,133,640
Shanghai,450,662
Mexico City,965,691
Karachi,926,171
Dhaka,808,76
New York,994,-845
Mumbai,435,-864
Beijing,-112,-515
Delhi,-381,-363
Cairo,-511,-648
Buenos Aires,-892,-422
Osaka,-856,629
São Paulo,-69,187
