label,x,y
Tokyo,-854,739
Mexico City,-443,914
Karachi,642,933
Dhaka,919,730
Chongqing,832,362
Istanbul,886,31
Delhi,997,-360
Cairo,796,38
São Paulo,378,218
Osaka,327,-60
New York,125,-891
Kolkata,-13,-967
Beijing,-717,-925
Manila,-229,-15
Buenos Aires,-694,-20
Shanghai,-905,29
Mumbai,-936,750
