label,x,y
Tokyo,808,-116
Mumbai,877,-160
Rio de Janeiro,989,-467
Istanbul,962,-884
Dhaka,372,-852
Shanghai,-314,-548
Buenos Aires,-568,-582
Osaka,-369,-166
Chongqing,16,-145
Delhi,-223,280
Manila,0,537
New York,-302,744
Kolkata,-240,771
Lagos,51,686
Tianjin,150,756
Karachi,570,783
Beijing,885,701
São Paulo,481,464
Cairo,543,423
Mexico City,767,105
