label,x,y
Tokyo,-384,-205
Chongqing,-510,-502
Manila,-940,-447
Dhaka,-865,-953
Delhi,-727,-784
Cairo,-349,-682
Lagos,452,-980
Mexico City,954,-844
Mumbai,719,-313
New York,702,-122
Beijing,582,220
Shanghai,960,696
São Paulo,618,823
Buenos Aires,-234,861
Karachi,-594,880
Osaka,-631,330
Istanbul,-379,265
Kolkata,-720,236
Rio de Janeiro,-751,70
