label,x,y
Tokyo,233,321
Osaka,522,403
New York,539,690
Shanghai,-91,964
Delhi,-558,832
Mumbai,-308,1
Cairo,-396,-366
Karachi,-412,-811
São Paulo,164,-989
Beijing,194,-865
Dhaka,671,-981
Mexico City,242,-842
