label,x,y
Tokyo,933,-429
Mexico City,719,60
Beijing,916,584
São Paulo,983,727
Manila,735,651
Karachi,282,731
Cairo,181,862
Dhaka,-35,575
Chongqing,-484,888
Shanghai,-622,412
Delhi,-827,280
New York,-405,-125
Buenos Aires,30,-761
Mumbai,-174,-333
Istanbul,84,164
Osaka,67,308
Kolkata,478,17
