label,x,y
Tokyo,-404,-446
Karachi,146,-948
Mexico City,417,-378
Osaka,753,-600
Delhi,954,-30
Shanghai,979,114
Cairo,971,328
Dhaka,289,681
New York,255,732
Mumbai,0,725
Beijing,-604,707
São Paulo,-582,258
Chongqing,-769,-48
Buenos Aires,-889,-236
