label,x,y
Tokyo,824,-744
Beijing,774,-314
Kolkata,558,574
Mexico City,901,711
Chongqing,930,872
Dhaka,543,848
Mumbai,-366,479
New York,-923,293
Shanghai,-846,311
Delhi,-119,-59
São Paulo,-89,-57
Cairo,-87,-107
Buenos Aires,-296,-263
Lagos,-484,-317
Manila,-470,-560
Osaka,-162,-802
Karachi,296,-645
Istanbul,749,-726
