label,x,y
Tokyo,-689,-803
Delhi,-107,-212
Mexico City,-221,766
Osaka,-812,904
New York,103,869
Beijing,399,429
Cairo,444,69
Karachi,674,-338
Mumbai,808,-911
Shanghai,330,-479
Buenos Aires,142,-802
Dhaka,-92,-945
São Paulo,-190,-971
Chongqing,-367,-889
