label,x,y
Tokyo,-701,787
Mexico City,-991,596
Chongqing,-571,-77
Osaka,-474,-450
Lagos,-506,-685
Karachi,-488,-868
Manila,191,-653
New York,606,-791
Shanghai,124,-279
Kolkata,-101,-4
São Paulo,399,264
Tianjin,579,76
Beijing,756,118
Mumbai,670,120
Dhaka,427,305
Delhi,447,497
Buenos Aires,700,544
Cairo,548,881
Rio de Janeiro,67,892
Istanbul,-302,403
