label,x,y
Tokyo,77,186
Delhi,-52,55
Mumbai,403,-273
São Paulo,570,-310
New York,189,-758
Osaka,143,-865
Mexico City,-108,-396
Karachi,-171,-378
Buenos Aires,-814,-174
Shanghai,-474,256
Istanbul,-424,969
Chongqing,-337,978
Kolkata,485,653
Beijing,796,755
Dhaka,904,572
Cairo,745,301
