label,x,y
Tokyo,714,-783
Delhi,76,-444
Buenos Aires,-385,-879
New York,-340,-707
São Paulo,-810,372
Cairo,-678,719
Mumbai,-629,580
Osaka,-530,425
Dhaka,558,432
Mexico City,625,628
Beijing,755,566
Karachi,610,426
Shanghai,371,44
