label,x,y
Tokyo,395,-104
Buenos Aires,115,-739
Rio de Janeiro,940,-924
Osaka,988,-940
São Paulo,959,-313
Tianjin,823,316
Istanbul,634,770
Karachi,536,992
Beijing,408,948
Manila,-334,942
Dhaka,-335,978
Shanghai,-529,997
Mumbai,-623,753
Cairo,-901,842
Lagos,-883,136
New York,-601,-281
Delhi,-472,87
Chongqing,-67,438
Mexico City,376,74
Kolkata,414,29
