label,x,y
Tokyo,414,741
Shanghai,513,128
Istanbul,871,-733
Mumbai,901,-850
Dhaka,217,-409
Karachi,92,-505
Delhi,-111,-899
Buenos Aires,-325,-778
São Paulo,-739,-564
Beijing,-812,-311
Manila,-991,548
Cairo,-691,935
Kolkata,-341,286
Osaka,-360,165
New York,-159,11
Chongqing,92,19
Mexico City,175,714
