label,x,y
Tokyo,403,-322
Buenos Aires,638,2
Cairo,753,318
Mumbai,633,292
Shanghai,314,796
Karachi,-619,940
Osaka,-653,325
Dhaka,-953,269
Chongqing,-876,-268
New York,-872,-433
Delhi,-567,-705
Beijing,-27,-759
Istanbul,-30,-872
São Paulo,832,-983
Mexico City,889,-935
