label,x,y
Tokyo,572,-681
Chongqing,183,-466
Mexico City,126,-126
Osaka,43,-176
New York,-550,-380
Dhaka,-989,100
Istanbul,-517,131
Delhi,-344,301
Karachi,-662,472
Cairo,-645,551
Beijing,-485,621
Mumbai,-224,989
São Paulo,-47,908
Buenos Aires,46,718
Shanghai,597,74
