label,x,y
Tokyo,-361,252
Chongqing,-508,496
Karachi,-230,588
Dhaka,-209,630
Osaka,257,461
São Paulo,385,337
Beijing,737,421
Shanghai,957,688
Mumbai,937,654
Istanbul,880,-49
Delhi,748,-670
Buenos Aires,287,-894
Lagos,-152,-840
Kolkata,220,-481
Cairo,-335,108
Manila,-797,-32
New York,-811,-52
Mexico City,-485,44
