label,x,y
Tokyo,-136,-857
Cairo,-8,-786
Dhaka,63,-519
Beijing,286,-156
Mumbai,818,197
Delhi,381,425
Mexico City,22,763
São Paulo,-60,625
Shanghai,-817,954
Osaka,-507,130
Karachi,-258,19
New York,-463,-411
