label,x,y
Tokyo,798,-456
Mumbai,799,-813
Shanghai,344,-752
Delhi,204,-233
Karachi,-156,80
Kolkata,-935,-617
Osaka,-723,180
São Paulo,-976,573
New York,-667,935
Istanbul,-416,929
Mexico City,-116,866
Beijing,656,893
Buenos Aires,732,676
Cairo,925,37
Dhaka,851,-281
Chongqing,913,-389
