label,x,y
Tokyo,398,364
Beijing,534,498
Karachi,648,403
Osaka,659,126
New York,745,-424
Chongqing,914,-691
Mexico City,233,-597
Mumbai,3,-684
Buenos Aires,-62,-856
São Paulo,-780,-953
Shanghai,-306,-281
Cairo,-4,-242
Delhi,-451,-3
Dhaka,-398,373
Istanbul,-367,554
