label,x,y
Tokyo,-880,90
Karachi,-529,-170
Mumbai,-769,-335
Mexico City,-993,-577
Shanghai,-146,-799
Cairo,183,-848
Buenos Aires,903,-739
Osaka,913,-708
New York,136,-383
Chongqing,98,9
Dhaka,76,391
Delhi,837,724
Beijing,401,558
São Paulo,-256,784
