label,x,y
Tokyo,-202,-178
São Paulo,-591,-868
Cairo,-279,-524
Karachi,639,-738
Delhi,792,-256
Dhaka,706,-194
Osaka,420,-26
Beijing,318,321
Shanghai,426,375
Mexico City,489,567
Buenos Aires,290,546
Mumbai,-134,450
New York,-85,-169
