label,x,y
Tokyo,819,522
Manila,665,819
Lagos,241,880
Chongqing,223,805
Cairo,-227,833
Buenos Aires,-521,821
Rio de Janeiro,-791,822
Mexico City,-766,0
Mumbai,-953,-303
Delhi,-840,-807
Osaka,-955,-923
Shanghai,-785,-611
São Paulo,-418,-84
New York,-285,-351
Dhaka,182,-602
Istanbul,229,-857
Beijing,462,-919
Kolkata,660,48
Karachi,903,309
