label,x,y
Tokyo,-537,988
São Paulo,-777,756
Karachi,-447,503
Mumbai,-338,-212
Beijing,-544,-852
Chongqing,-218,-995
Istanbul,66,-638
Shanghai,88,-661
Dhaka,845,-936
Cairo,191,-451
New York,-37,-314
Buenos Aires,317,311
Mexico City,534,282
Delhi,512,901
Osaka,362,857
