label,x,y
Tokyo,-347,-200
Manila,-296,-25
Kolkata,-616,272
Beijing,-767,225
Osaka,-956,965
New York,-495,751
Istanbul,-381,904
Dhaka,337,812
Mumbai,343,605
Karachi,377,404
Buenos Aires,402,727
Rio de Janeiro,659,898
São Paulo,975,689
Cairo,988,445
Lagos,922,442
Chongqing,815,-536
Tianjin,131,-522
Mexico City,-182,-972
Delhi,-408,-350
Shanghai,-262,-315
