label,x,y
Tokyo,-95,-569
Shanghai,190,-255
Osaka,147,-55
Manila,737,350
Mexico City,616,875
Delhi,562,689
Istanbul,777,306
Karachi,961,-330
Kolkata,788,-317
Beijing,423,-903
Chongqing,239,-959
New York,170,-991
Buenos Aires,-157,-960
Mumbai,-640,-816
Dhaka,-876,-675
Cairo,-633,-620
Lagos,-627,-73
São Paulo,-225,-476
