label,x,y
Tokyo,792,794
Cairo,815,945
Chongqing,626,964
Buenos Aires,450,986
Mexico City,88,632
Dhaka,-126,995
Lagos,-457,659
Manila,-726,149
Rio de Janeiro,-412,-273
Istanbul,-452,-520
São Paulo,-815,-702
Osaka,-419,-748
Beijing,4,-698
Delhi,344,-797
Kolkata,805,-660
New York,392,-572
Karachi,399,-419
Shanghai,385,438
Mumbai,585,603
