label,x,y
Tokyo,-932,-564
Shanghai,-715,-548
Dhaka,-505,-708
Istanbul,-361,-635
Cairo,-272,-887
Manila,-199,-862
Kolkata,669,-293
Beijing,-143,-97
Rio de Janeiro,-410,187
Mexico City,-292,710
São Paulo,-222,901
Karachi,-280,947
Chongqing,-570,802
Delhi,-531,702
Buenos Aires,-545,516
Osaka,-730,359
Lagos,-590,85
Mumbai,-613,-182
New York,-895,-324
