label,x,y
Tokyo,-310,-502
Manila,-416,-801
Istanbul,-638,-914
Cairo,-776,-560
Beijing,-739,-156
Karachi,-607,-196
New York,-558,127
Chongqing,-387,644
Mumbai,-553,910
Dhaka,247,750
Osaka,250,222
São Paulo,213,185
Kolkata,377,52
Lagos,871,-469
Shanghai,946,-946
Mexico City,236,-531
Buenos Aires,-113,-529
Delhi,-178,-180
