label,x,y
Tokyo,-302,-639
Cairo,-620,-549
Delhi,-916,-248
São Paulo,-555,454
Chongqing,-271,811
Buenos Aires,-131,847
Mumbai,23,563
Manila,-29,488
Karachi,-107,-125
Osaka,215,101
Mexico City,662,185
Shanghai,743,154
Dhaka,798,69
New York,996,-183
Istanbul,769,-390
Kolkata,405,-532
Beijing,50,-818
