label,x,y
Tokyo,939,-439
Cairo,365,-669
São Paulo,-97,-849
Mexico City,-433,-919
New York,-796,-114
Shanghai,-936,-171
Dhaka,-928,100
Delhi,-351,231
Beijing,-235,559
Karachi,-368,798
Mumbai,-385,935
Osaka,-158,570
