label,x,y
Tokyo,382,296
São Paulo,582,505
Osaka,552,883
Delhi,390,745
Karachi,262,796
Manila,-680,990
Beijing,-824,632
Dhaka,-978,311
Kolkata,-399,89
New York,-538,-326
Shanghai,-587,-828
Cairo,-430,-354
Mexico City,-290,-314
Chongqing,-112,-18
Mumbai,521,-404
Buenos Aires,861,-530
Istanbul,707,23
