label,x,y
Tokyo,483,875
Cairo,608,608
Rio de Janeiro,655,212
Beijing,372,148
Istanbul,294,259
Shanghai,-83,273
Tianjin,-397,543
Buenos Aires,-468,-91
New York,-311,-147
Kolkata,-414,-223
São Paulo,-742,-449
Lagos,-45,-948
Manila,135,-618
Delhi,795,-822
Karachi,750,-658
Chongqing,933,-353
Mumbai,894,-238
Osaka,974,311
Mexico City,888,618
Dhaka,628,649
