label,x,y
Tokyo,801,8
Shanghai,833,-630
Karachi,481,-887
Chongqing,432,-863
Delhi,65,-295
Beijing,-293,-421
Mexico City,-831,448
Osaka,-481,837
Cairo,121,976
Dhaka,248,501
Buenos Aires,83,63
New York,396,138
Mumbai,418,176
São Paulo,946,458
