label,x,y
Tokyo,-238,-623
Kolkata,-361,-304
Karachi,-718,-383
Mumbai,-647,-234
Chongqing,-404,33
Osaka,-613,470
Dhaka,-202,605
Mexico City,-162,683
Manila,-115,957
Buenos Aires,51,981
Cairo,520,725
Shanghai,5,175
New York,284,-577
Beijing,704,-554
Istanbul,934,-491
São Paulo,399,-709
Delhi,319,-802
