label,x,y
Tokyo,-976,491
São Paulo,-362,453
Delhi,708,735
Mumbai,784,668
New York,786,-266
Karachi,983,-656
Dhaka,6,-41
Mexico City,-356,-156
Beijing,-434,-114
Shanghai,-460,-835
Osaka,-598,-843
Cairo,-868,-162
