label,x,y
Tokyo,527,643
New York,991,424
Osaka,815,117
São Paulo,952,-333
Mumbai,371,-562
Dhaka,75,-813
Cairo,-301,-600
Istanbul,-554,-340
Mexico City,-708,-294
Delhi,-562,-202
Rio de Janeiro,-325,-277
Shanghai,-110,-35
Buenos Aires,140,-178
Karachi,-10,98
Lagos,-230,193
Chongqing,-223,399
Beijing,-941,750
Manila,-696,710
Kolkata,272,972
