label,x,y
Tokyo,231,-651
Delhi,584,-861
Chongqing,496,-695
Mumbai,334,-530
Buenos Aires,163,-166
São Paulo,48,45
Osaka,670,127
Shanghai,985,483
Kolkata,961,530
Dhaka,10,943
Manila,-239,545
Mexico City,-580,199
Istanbul,-700,-587
New York,-920,-715
Beijing,-171,-726
Karachi,104,-671
Cairo,148,-616
