label,x,y
Tokyo,-308,-925
New York,-958,-960
Shanghai,-820,-601
Delhi,-495,102
São Paulo,-844,235
Dhaka,-983,814
Mexico City,-698,748
Beijing,-462,987
Buenos Aires,94,646
Osaka,282,796
Karachi,837,700
Cairo,739,643
Mumbai,380,-469
Chongqing,-1,-338
