label,x,y
Tokyo,-186,-954
New York,-204,-786
Istanbul,-310,-488
Dhaka,-243,-477
Beijing,-249,-70
Manila,-442,-156
Buenos Aires,-946,582
São Paulo,-369,473
Karachi,-200,481
Chongqing,-75,636
Cairo,307,800
Kolkata,277,504
Mexico City,584,283
Osaka,228,25
Shanghai,393,10
Delhi,566,-403
Mumbai,317,-605
