label,x,y
Tokyo,733,-830
Mexico City,618,-961
São Paulo,-111,-553
Osaka,-873,-880
Karachi,-983,-394
Buenos Aires,-929,206
Chongqing,-922,343
New York,-840,742
Shanghai,-748,930
Delhi,-784,747
Dhaka,-236,442
Mumbai,-81,378
Beijing,306,262
Istanbul,139,-141
Kolkata,-135,-128
Cairo,156,-202
