label,x,y
Tokyo,-585,38
São Paulo,-695,-19
Osaka,-941,106
Mumbai,-611,247
Beijing,-498,575
Karachi,0,688
Mexico City,62,997
Delhi,443,556
New York,430,188
Shanghai,907,-637
Cairo,18,23
Dhaka,-401,-529
