label,x,y
Tokyo,810,865
New York,450,603
Buenos Aires,44,598
Delhi,-49,552
Manila,-626,966
Shanghai,-321,417
Chongqing,-167,47
São Paulo,-237,-3
Lagos,-760,52
Mumbai,-869,114
Tianjin,-951,-321
Beijing,-374,-603
Cairo,-26,-734
Istanbul,-123,-491
Kolkata,15,-313
Mexico City,295,-139
Rio de Janeiro,384,2
Karachi,687,-404
Dhaka,635,-24
Osaka,918,86
