label,x,y
Tokyo,198,-570
Delhi,289,-716
New York,416,-480
Dhaka,622,-198
São Paulo,359,784
Mumbai,-303,532
Shanghai,-502,961
Beijing,-498,521
Mexico City,-571,338
Buenos Aires,-769,-89
Cairo,-947,-634
Karachi,-796,-772
Osaka,-504,-423
