label,x,y
Tokyo,-800,123
Mexico City,-952,-165
Mumbai,-503,-713
Dhaka,330,-327
Buenos Aires,649,-829
Kolkata,593,-578
Delhi,879,178
New York,976,413
Cairo,854,750
Beijing,795,784
São Paulo,555,438
Shanghai,446,231
Manila,-3,472
Osaka,-162,320
Chongqing,-290,983
Istanbul,-777,874
Karachi,-815,881
