label,x,y
Tokyo,452,400
Delhi,354,386
Cairo,222,21
Buenos Aires,51,-181
Dhaka,420,-101
Manila,826,-81
Osaka,835,-413
New York,505,-479
Lagos,56,-966
Beijing,-853,-739
Istanbul,-781,-574
Shanghai,-792,-155
São Paulo,-660,537
Mexico City,-793,966
Mumbai,213,959
Tianjin,571,970
Karachi,548,937
Kolkata,565,670
Chongqing,515,574
Rio de Janeiro,764,396
