label,x,y
Tokyo,-427,-854
Cairo,-913,-838
Beijing,-302,13
Shanghai,-308,87
Dhaka,-353,779
Karachi,25,887
Mexico City,374,557
Mumbai,551,712
Chongqing,859,788
New York,590,507
São Paulo,863,118
Buenos Aires,887,-581
Delhi,506,-129
Osaka,-174,-493
