label,x,y
Tokyo,484,-795
Mumbai,789,-818
Shanghai,777,-591
Delhi,835,-503
Cairo,971,-54
Beijing,756,2
Osaka,877,926
Chongqing,459,638
Buenos Aires,281,401
New York,-599,637
Dhaka,-686,205
Mexico City,-567,94
Istanbul,-612,-367
São Paulo,-576,-344
Karachi,124,-694
