label,x,y
Tokyo,-956,61
Delhi,-572,-540
Mumbai,-706,-836
Mexico City,-360,-767
Karachi,-241,-728
Osaka,-262,-880
Chongqing,-92,-968
Cairo,165,-710
Dhaka,710,-738
Shanghai,381,218
New York,418,460
São Paulo,158,712
Buenos Aires,90,609
Beijing,-678,502
