label,x,y
Tokyo,458,-154
New York,843,-174
Shanghai,835,-941
Mexico City,547,-960
Beijing,-564,-972
Mumbai,-794,400
Osaka,-587,454
Delhi,-794,622
São Paulo,-255,896
Dhaka,103,414
Buenos Aires,299,708
Cairo,734,771
Chongqing,838,549
Karachi,656,293
