label,x,y
Tokyo,-875,-2
Osaka,-776,-256
Kolkata,-676,-183
New York,-543,-242
Istanbul,-308,-185
Beijing,-277,-528
Lagos,-553,-794
Rio de Janeiro,-188,-593
Karachi,111,-243
Chongqing,372,-601
Dhaka,762,-154
São Paulo,960,-104
Manila,812,352
Mumbai,607,623
Tianjin,102,792
Mexico City,-20,740
Delhi,28,630
Cairo,-468,301
Shanghai,-606,460
Buenos Aires,-502,233
