label,x,y
Tokyo,263,-668
Istanbul,-249,-354
Manila,-23,0
Shanghai,382,-3
Karachi,351,-242
Cairo,775,-263
Buenos Aires,537,178
Chongqing,579,291
New York,551,778
Osaka,38,460
Mumbai,-73,425
Dhaka,-574,911
Beijing,-771,661
Delhi,-938,230
Mexico City,-978,-717
São Paulo,-311,-617
Kolkata,-62,-985
