label,x,y
Tokyo,-365,-547
Mexico City,446,-736
Shanghai,647,-785
Osaka,817,-329
New York,509,-146
Cairo,396,-197
Delhi,679,-54
São Paulo,301,704
Beijing,-101,860
Karachi,-526,861
Mumbai,-397,713
Dhaka,-471,341
