label,x,y
Tokyo,-54,578
Osaka,-423,978
Shanghai,-573,446
Beijing,-585,59
Buenos Aires,-468,-362
São Paulo,-301,-580
Cairo,-227,-174
Dhaka,34,-142
Mexico City,802,-828
Delhi,901,-821
Karachi,662,5
Mumbai,937,490
Chongqing,970,623
New York,324,124
