label,x,y
Tokyo,102,63
Shanghai,-402,-443
Istanbul,-533,-553
Chongqing,-950,-836
Delhi,-800,-717
Dhaka,-402,-525
Beijing,49,-714
Mumbai,361,-976
Manila,509,-981
New York,367,-606
Karachi,713,-159
Buenos Aires,680,98
Mexico City,989,128
Kolkata,819,568
Osaka,383,639
São Paulo,-450,904
Cairo,158,567
