label,x,y
Tokyo,-337,489
Shanghai,309,559
Cairo,345,473
Delhi,537,560
Beijing,799,855
Buenos Aires,685,447
Mumbai,742,-249
Karachi,444,-456
Mexico City,208,27
São Paulo,-78,19
Dhaka,-237,-142
Osaka,-429,-135
Kolkata,-537,-251
Istanbul,-913,-991
Chongqing,-717,-2
New York,-484,-3
