label,x,y
Tokyo,-338,-843
Mumbai,-298,-428
Shanghai,-926,167
Cairo,-967,432
Karachi,-833,240
Beijing,-325,291
Dhaka,141,13
New York,115,238
Buenos Aires,290,696
Istanbul,468,645
Chongqing,797,768
São Paulo,622,292
Mexico City,945,-121
Delhi,544,-881
Osaka,-114,-660
