label,x,y
Tokyo,348,-45
Dhaka,567,208
Mexico City,581,268
Beijing,646,146
Delhi,875,234
New York,753,595
São Paulo,839,740
Shanghai,211,794
Buenos Aires,92,321
Cairo,167,100
Osaka,-940,-716
Mumbai,-588,-561
Karachi,764,-749
