label,x,y
Tokyo,-763,949
Dhaka,-410,988
Beijing,636,900
Delhi,695,615
Kolkata,956,-226
Karachi,907,-601
Chongqing,816,-874
Cairo,341,-915
Osaka,-144,-720
New York,-233,-914
Istanbul,-463,-908
Lagos,-611,-578
Buenos Aires,-918,-156
Shanghai,-618,-93
São Paulo,-256,-233
Mumbai,60,-355
Mexico City,-52,240
Rio de Janeiro,-441,133
Manila,-959,652
