label,x,y
Tokyo,-402,-532
Delhi,-283,-306
Osaka,9,-604
New York,48,-523
Chongqing,175,-443
Mexico City,94,-198
Dhaka,93,-129
Tianjin,508,171
Manila,861,182
Lagos,979,881
São Paulo,300,626
Beijing,262,635
Cairo,312,466
Buenos Aires,-114,352
Karachi,-155,396
Istanbul,-312,394
Kolkata,-534,286
Rio de Janeiro,-922,279
Shanghai,-980,-105
Mumbai,-644,-703
