label,x,y
Tokyo,-795,186
Shanghai,-81,551
Karachi,643,648
Delhi,908,336
Mexico City,590,-100
New York,826,-656
Beijing,627,-649
Osaka,-107,-676
Mumbai,-389,-977
São Paulo,-427,-838
Cairo,-578,-784
Dhaka,-479,-516
