label,x,y
Tokyo,-789,-831
São Paulo,-826,-537
Cairo,-775,-253
Dhaka,-961,734
Chongqing,112,871
Mexico City,184,553
Karachi,82,44
Shanghai,266,1
Buenos Aires,704,40
Mumbai,970,-924
Delhi,-239,-897
Beijing,-229,-809
New York,-214,-617
Osaka,-553,-627
