label,x,y
Tokyo,722,-540
Mexico City,610,-590
Beijing,304,-875
Cairo,-394,-905
Lagos,-549,-656
São Paulo,-604,-150
Rio de Janeiro,-502,-154
New York,-331,96
Buenos Aires,-439,104
Kolkata,-563,713
Dhaka,-977,994
Karachi,-347,967
Manila,135,979
Osaka,-125,13
Mumbai,46,-103
Shanghai,208,-481
Delhi,542,-262
Chongqing,682,-383
Istanbul,990,-324
