label,x,y
Tokyo,-946,-725
Delhi,-644,-592
Chongqing,-259,-45
Beijing,-460,277
Mexico City,-818,578
Kolkata,-452,459
New York,-308,584
Buenos Aires,-96,706
Mumbai,-75,177
Cairo,193,150
Dhaka,599,52
São Paulo,941,185
Istanbul,405,-357
Shanghai,-19,-123
Manila,-82,-96
Osaka,-160,-32
Karachi,-501,-364
