label,x,y
Tokyo,407,-154
Shanghai,403,12
São Paulo,296,171
Dhaka,109,544
Istanbul,-19,442
Mumbai,-140,123
Osaka,-506,229
Manila,-711,441
Mexico City,-886,941
Buenos Aires,-960,708
Beijing,-823,158
Karachi,-871,-663
Kolkata,-435,-611
Delhi,-124,-2
Chongqing,-35,-20
New York,61,-80
Cairo,472,-476
