label,x,y
Tokyo,181,-92
Mexico City,-189,775
Shanghai,-488,868
Karachi,-150,856
Cairo,414,136
Lagos,866,449
Delhi,794,117
Buenos Aires,782,-477
Dhaka,628,-932
Istanbul,568,-970
Beijing,360,-820
Manila,-63,-695
São Paulo,-535,-375
New York,-750,-582
Mumbai,-863,-454
Chongqing,-805,-247
Kolkata,-490,-250
Osaka,19,-233
