label,x,y
Tokyo,-41,-169
São Paulo,251,132
Mexico City,332,292
Mumbai,66,578
Osaka,-446,547
Delhi,-616,355
Beijing,-340,160
Chongqing,-814,-510
Dhaka,-779,-618
New York,-872,-887
Kolkata,-799,-960
Shanghai,-463,-825
Cairo,-36,-908
Buenos Aires,-66,-613
Lagos,394,-688
Karachi,819,-565
Manila,775,-415
Istanbul,80,-56
