label,x,y
Tokyo,218,-694
Beijing,-257,-962
Cairo,-752,-657
Buenos Aires,-544,-481
Karachi,-300,-393
Tianjin,-454,137
Chongqing,-943,-13
Istanbul,-708,401
Osaka,-762,850
Delhi,-542,863
Kolkata,-85,509
São Paulo,44,157
Dhaka,231,179
Lagos,373,388
Mumbai,309,723
Shanghai,682,783
Mexico City,980,787
Manila,706,373
New York,537,12
Rio de Janeiro,156,-583
