label,x,y
Tokyo,-304,314
Osaka,347,542
Beijing,804,779
Dhaka,182,172
Delhi,148,79
Mumbai,748,-410
New York,394,-912
Mexico City,300,-788
Cairo,-553,-646
Shanghai,-716,-620
São Paulo,-628,-343
Karachi,-923,632
