label,x,y
Tokyo,-665,-609
Karachi,-512,274
Cairo,-619,572
Kolkata,-951,870
São Paulo,-611,701
Manila,-398,816
Mumbai,-201,888
Shanghai,9,526
Lagos,118,611
Rio de Janeiro,342,507
Beijing,739,712
Delhi,767,248
Dhaka,585,-26
Buenos Aires,422,-580
Osaka,660,-981
Istanbul,535,-788
New York,201,-517
Mexico City,-81,-487
Chongqing,-148,-801
