label,x,y
Tokyo,-859,988
New York,-746,366
Kolkata,-740,157
Rio de Janeiro,-981,-232
Karachi,-904,-356
Osaka,-871,-944
Mexico City,-537,-612
Chongqing,-295,-690
Manila,-396,-990
Shanghai,-84,-990
São Paulo,190,-854
Beijing,-112,-665
Istanbul,16,-385
Mumbai,34,-265
Cairo,156,-28
Tianjin,665,-518
Delhi,749,-579
Buenos Aires,838,-152
Lagos,578,519
Dhaka,-570,878
