label,x,y
Tokyo,-891,595
Mumbai,-800,688
Osaka,-600,414
São Paulo,-685,-411
Shanghai,-356,-630
Dhaka,278,-530
New York,835,-956
Delhi,906,374
Mexico City,612,253
Cairo,-116,473
Beijing,-175,584
Karachi,-749,728
