label,x,y
Tokyo,-291,-92
Beijing,-526,-373
Mexico City,-921,-126
New York,-671,536
Shanghai,-559,687
Delhi,-411,491
Dhaka,187,575
Buenos Aires,361,971
Manila,451,780
Chongqing,500,602
Osaka,280,341
Kolkata,192,345
Mumbai,412,50
São Paulo,191,-396
Karachi,583,-983
Cairo,176,-600
Istanbul,-364,-456
