label,x,y
Tokyo,-460,749
Shanghai,-314,601
Dhaka,253,573
Osaka,770,913
Mexico City,255,428
New York,-60,42
Beijing,184,-788
Delhi,647,-995
Mumbai,-185,-724
São Paulo,-394,-784
Buenos Aires,-968,-729
Cairo,-702,-39
Karachi,-933,797
