label,x,y
Tokyo,724,-835
Shanghai,-431,-908
Cairo,-323,-240
Dhaka,-435,593
Mexico City,-550,942
Karachi,491,907
Mumbai,660,925
Buenos Aires,462,661
São Paulo,390,592
Osaka,290,-36
Delhi,397,-172
New York,434,-357
Beijing,691,-781
