label,x,y
Tokyo,318,573
Mumbai,-47,966
Chongqing,-130,497
Shanghai,-595,586
Delhi,-622,347
New York,-988,-14
São Paulo,-735,-518
Istanbul,-992,-790
Osaka,-541,-964
Lagos,-327,-813
Karachi,151,-511
Mexico City,387,-589
Cairo,282,-443
Rio de Janeiro,282,-63
Kolkata,318,326
Dhaka,547,448
Buenos Aires,962,569
Beijing,960,592
Manila,782,696
