label,x,y
Tokyo,-798,-611
Beijing,-909,-747
Osaka,-232,-994
Buenos Aires,249,-400
Delhi,552,-606
Mexico City,677,-900
Cairo,999,-223
São Paulo,757,-267
Kolkata,430,-21
Dhaka,179,461
Shanghai,931,960
Chongqing,344,878
Mumbai,-637,973
New York,-965,387
Karachi,-642,342
Istanbul,-223,-286
