label,x,y
Tokyo,-613,344
São Paulo,-571,801
Buenos Aires,-30,921
Mexico City,239,470
Lagos,221,311
Beijing,858,304
New York,875,141
Chongqing,759,-379
Osaka,966,-908
Shanghai,158,-662
Dhaka,207,-167
Istanbul,-538,-191
Manila,-846,-633
Mumbai,-980,-650
Delhi,-964,-627
Kolkata,-668,-151
Karachi,-593,-60
Cairo,-896,28
