label,x,y
Tokyo,-760,-159
Dhaka,-766,-262
Shanghai,-624,-593
Beijing,-798,-839
Delhi,-266,-845
Osaka,329,-761
New York,934,-655
São Paulo,953,-110
Mexico City,487,-236
Buenos Aires,556,326
Chongqing,703,789
Mumbai,230,511
Karachi,110,-21
Cairo,-766,249
