label,x,y
Tokyo,-573,922
Cairo,-88,-277
Mumbai,-218,-768
Mexico City,36,-470
São Paulo,358,-596
Karachi,267,-953
Beijing,469,-967
Shanghai,981,-823
New York,738,-544
Dhaka,920,306
Delhi,762,506
Osaka,730,793
