label,x,y
Tokyo,-465,-399
Mumbai,-584,-916
Shanghai,194,-652
Delhi,254,-891
Mexico City,494,-888
Karachi,595,-229
Cairo,932,-165
New York,592,187
Chongqing,507,432
Beijing,364,728
São Paulo,241,767
Buenos Aires,-171,518
Dhaka,-585,897
Istanbul,-715,872
Osaka,-599,407
