label,x,y
Tokyo,-280,-675
Mexico City,305,-628
Chongqing,202,-206
New York,850,-160
Beijing,973,739
Shanghai,-29,955
Osaka,-123,894
Delhi,-643,956
Kolkata,-748,518
Cairo,-701,114
Istanbul,-201,409
Dhaka,-112,-127
São Paulo,-223,-347
Mumbai,-359,-410
Karachi,-604,-476
Buenos Aires,-923,-887
