label,x,y
Tokyo,-879,-628
Chongqing,-626,-479
Istanbul,-780,50
Shanghai,-925,902
Mumbai,-36,818
Karachi,626,907
Delhi,877,840
Mexico City,846,-300
Kolkata,994,-660
Osaka,607,-948
Dhaka,480,-752
Beijing,-32,-625
São Paulo,-79,-291
New York,-219,-168
Cairo,-412,-745
Buenos Aires,-538,-823
