label,x,y
Tokyo,32,-39
Karachi,-172,-287
São Paulo,-733,-365
Mexico City,-978,-382
Delhi,-920,-494
Dhaka,-77,-795
Cairo,-1,-941
Buenos Aires,320,-922
Mumbai,673,56
New York,950,386
Osaka,-155,769
Shanghai,-668,850
Beijing,-486,742
