label,x,y
Tokyo,-154,97
Dhaka,-91,423
Delhi,-358,926
São Paulo,-715,96
New York,-942,179
Beijing,-820,-102
Osaka,-802,-926
Chongqing,-712,-947
Kolkata,653,-619
Manila,948,-705
Istanbul,535,-149
Cairo,790,79
Mumbai,671,321
Shanghai,647,477
Buenos Aires,629,179
Mexico City,568,142
Karachi,107,260
