label,x,y
Tokyo,779,-651
Cairo,784,-436
Buenos Aires,870,-112
New York,599,227
Delhi,409,13
Lagos,209,-149
Chongqing,206,-122
Mumbai,-150,731
Istanbul,-582,569
São Paulo,-330,13
Osaka,-731,-173
Mexico City,-730,-190
Kolkata,-351,-803
Shanghai,-68,-691
Beijing,-20,-816
Karachi,217,-684
Dhaka,680,-830
Manila,918,-942
