label,x,y
Tokyo,-421,-339
Mumbai,-469,141
Chongqing,-958,309
Mexico City,-380,516
Cairo,-432,936
São Paulo,250,629
Shanghai,530,861
Buenos Aires,364,665
Dhaka,211,362
Kolkata,-212,-9
Osaka,-205,-99
New York,70,-430
Delhi,-83,-633
Karachi,-268,-917
Istanbul,-587,-990
Beijing,-971,-594
