label,x,y
Tokyo,-507,826
Shanghai,-298,394
Karachi,74,138
Dhaka,29,-96
Mexico City,143,-28
Chongqing,838,351
Osaka,761,-114
Buenos Aires,981,-213
Delhi,658,-984
Istanbul,404,-838
Cairo,-262,-398
New York,-316,-515
São Paulo,-991,-987
Mumbai,-830,-247
Beijing,-664,132
