label,x,y
Tokyo,-690,-468
Mexico City,-170,-331
Delhi,-23,84
Osaka,269,38
Karachi,208,-480
New York,301,-979
Mumbai,454,-446
Beijing,616,-401
São Paulo,933,18
Shanghai,890,625
Istanbul,278,929
Dhaka,-26,836
Buenos Aires,-882,854
Chongqing,-307,-86
Cairo,-320,-216
