label,x,y
Tokyo,610,-923
Osaka,783,-407
Cairo,630,-68
Delhi,642,327
Shanghai,632,758
Karachi,113,469
São Paulo,-292,992
New York,-702,711
Beijing,-843,-365
Mumbai,-872,-436
Dhaka,-383,-23
Mexico City,229,-477
