label,x,y
Tokyo,-73,-364
Chongqing,-67,-628
New York,-361,-804
Dhaka,-774,-546
Kolkata,-799,-101
Delhi,-432,983
Lagos,-118,862
São Paulo,478,961
Mumbai,963,389
Osaka,919,138
Beijing,608,9
Karachi,555,-440
Buenos Aires,579,-569
Istanbul,971,-794
Rio de Janeiro,592,-639
Cairo,193,-370
Mexico City,207,-78
Shanghai,21,-176
Manila,-159,-232
