label,x,y
Tokyo,839,424
Chongqing,474,428
Istanbul,445,639
New York,466,720
São Paulo,262,606
Manila,64,703
Kolkata,94,284
Cairo,-231,479
Karachi,-899,961
Mexico City,-868,314
Osaka,-638,-70
Mumbai,-734,-334
Delhi,-391,-649
Beijing,-166,-820
Buenos Aires,108,-851
Dhaka,749,-899
Shanghai,989,-901
