label,x,y
Tokyo,519,824
New York,304,683
Delhi,210,498
Buenos Aires,4,875
São Paulo,-205,466
Istanbul,-634,487
Cairo,-909,-154
Karachi,-703,-292
Shanghai,-830,-846
Dhaka,-13,-637
Mexico City,119,-639
Chongqing,379,-470
Osaka,296,-394
Mumbai,507,378
Beijing,843,636
Kolkata,984,885
