label,x,y
Tokyo,433,58
Cairo,718,-197
Mexico City,808,-575
São Paulo,594,-302
Istanbul,161,-590
Osaka,-704,-902
Kolkata,-289,-405
Dhaka,-139,-217
Delhi,-289,116
Beijing,-925,739
Karachi,360,410
Shanghai,492,787
Mumbai,721,884
Buenos Aires,898,983
New York,765,515
Chongqing,895,217
