label,x,y
Tokyo,-844,-980
Chongqing,-28,-899
Istanbul,267,-855
Lagos,241,-555
Karachi,438,-448
Mumbai,928,-17
Kolkata,793,423
Mexico City,920,767
New York,285,836
Buenos Aires,173,778
Delhi,-467,818
Shanghai,-718,862
Beijing,-241,613
Dhaka,139,306
São Paulo,102,-79
Cairo,-136,-126
Osaka,-490,-417
Manila,-836,-673
