label,x,y
Tokyo,-127,-15
Karachi,-236,388
Cairo,-516,443
Buenos Aires,-520,721
Mumbai,-680,749
Chongqing,-440,959
Delhi,-127,982
Beijing,124,304
Dhaka,907,390
Istanbul,910,118
São Paulo,767,119
New York,468,-440
Shanghai,465,-994
Osaka,-442,-682
Mexico City,-502,-154
