label,x,y
Tokyo,767,-296
Cairo,810,17
Mexico City,380,-152
Mumbai,115,351
Osaka,513,804
Kolkata,201,720
Chongqing,-442,679
Delhi,-120,88
Karachi,-465,-16
Shanghai,-990,9
Dhaka,-776,-292
New York,-575,-936
Beijing,481,-543
São Paulo,594,-646
Istanbul,952,-778
Buenos Aires,795,-667
