label,x,y
Tokyo,-876,297
Osaka,-929,15
Shanghai,-619,-372
Delhi,-407,-801
Istanbul,-104,-17
Kolkata,-27,19
Mexico City,476,-241
Beijing,955,-96
Chongqing,830,378
Buenos Aires,887,757
Dhaka,911,766
Cairo,871,905
São Paulo,544,911
New York,168,676
Karachi,-235,640
Mumbai,-430,211
Manila,-720,566
