label,x,y
Tokyo,-755,-858
Cairo,-605,-658
Dhaka,-896,-366
Osaka,-995,644
Manila,-645,977
Delhi,-442,701
Lagos,-288,629
Karachi,15,944
Rio de Janeiro,151,946
Buenos Aires,12,688
Mexico City,-18,607
Chongqing,42,565
São Paulo,235,461
Shanghai,275,174
Kolkata,420,10
New York,66,-406
Beijing,426,-957
Istanbul,-234,-787
Mumbai,-662,-920
