label,x,y
Tokyo,155,-623
Mumbai,355,-690
Osaka,576,-505
New York,872,-303
São Paulo,849,-145
Buenos Aires,804,-201
Karachi,299,-43
Manila,243,510
Mexico City,-232,649
Beijing,-436,770
Lagos,-396,511
Cairo,-509,424
Shanghai,-731,369
Chongqing,-362,159
Istanbul,178,-134
Rio de Janeiro,-121,-547
Delhi,-531,-729
Dhaka,45,-760
Kolkata,42,-667
