label,x,y
Tokyo,577,459
São Paulo,934,21
Mumbai,584,-180
Osaka,742,-784
Karachi,528,-716
New York,194,-970
Dhaka,260,-497
Cairo,166,-360
Beijing,-24,-300
Delhi,-160,-304
Buenos Aires,-344,-293
Shanghai,-279,-255
Mexico City,-223,987
