label,x,y
Tokyo,482,51
Osaka,862,-673
Cairo,759,68
Beijing,975,382
Istanbul,366,952
Delhi,21,973
Buenos Aires,-646,836
Shanghai,-799,384
Chongqing,-778,-170
Mumbai,-914,-281
São Paulo,-929,-662
New York,-474,-675
Mexico City,-401,-524
Kolkata,-542,-152
Dhaka,-425,316
Manila,4,478
Karachi,-37,104
