label,x,y
Tokyo,-20,-975
Beijing,415,-452
Mexico City,463,-134
Delhi,319,205
Shanghai,52,97
Mumbai,-81,649
São Paulo,-519,904
Chongqing,286,713
New York,504,554
Cairo,875,445
Osaka,756,19
Dhaka,544,-471
Buenos Aires,858,-965
Karachi,711,-889
