label,x,y
Tokyo,623,28
Shanghai,75,-118
Mumbai,-116,121
Manila,-113,287
Istanbul,2,859
Lagos,-612,961
São Paulo,-827,729
New York,-875,197
Rio de Janeiro,-830,-440
Osaka,-173,-606
Beijing,-186,-714
Cairo,279,-941
Kolkata,450,-375
Mexico City,715,-50
Chongqing,983,613
Delhi,837,763
Dhaka,747,877
Buenos Aires,587,592
Karachi,602,587
