label,x,y
Tokyo,480,-9
Shanghai,147,-10
Cairo,101,326
Delhi,157,726
Karachi,-848,376
Mexico City,-812,129
Chongqing,-639,-235
Beijing,-279,-543
Dhaka,-134,-198
São Paulo,207,-310
New York,489,-383
Buenos Aires,556,-597
Osaka,670,-552
Mumbai,868,216
