label,x,y
Tokyo,-864,-886
São Paulo,-933,-168
Shanghai,-957,80
Chongqing,-552,401
Cairo,-282,390
Mumbai,-204,404
Mexico City,-213,906
Kolkata,46,566
Dhaka,287,730
Istanbul,431,523
Delhi,594,-265
New York,522,-950
Manila,637,-359
Beijing,77,67
Buenos Aires,-288,12
Osaka,-411,36
Karachi,-571,-463
