label,x,y
Tokyo,-893,832
Beijing,-506,774
Shanghai,-3,469
Dhaka,104,429
Osaka,445,425
New York,69,-263
Mumbai,958,-522
Delhi,686,-768
Cairo,108,-859
Mexico City,-39,-908
Karachi,-430,-952
São Paulo,-752,-286
Buenos Aires,-924,101
