label,x,y
Tokyo,-388,-207
Delhi,-582,-775
New York,-124,-943
São Paulo,370,-247
Mexico City,818,-574
Karachi,792,-136
Shanghai,859,370
Cairo,765,669
Dhaka,931,803
Mumbai,675,882
Osaka,359,929
Beijing,198,547
Buenos Aires,-560,77
