label,x,y
Tokyo,-749,-445
Dhaka,-838,-716
Shanghai,-382,-749
Beijing,-279,-609
Karachi,777,-695
São Paulo,797,-163
Delhi,921,697
Osaka,819,813
Chongqing,273,853
Mexico City,-47,945
New York,-251,-13
Mumbai,-220,-55
Cairo,-870,190
Buenos Aires,-935,14
