label,x,y
Tokyo,-389,-562
Mumbai,-467,-914
New York,-156,-689
Shanghai,162,-456
Chongqing,233,-412
Buenos Aires,281,-884
Beijing,874,-937
São Paulo,998,-212
Mexico City,612,93
Cairo,619,544
Delhi,156,880
Osaka,-234,-2
Karachi,-624,-86
Istanbul,-790,73
Dhaka,-470,-310
