label,x,y
Tokyo,935,-900
Mexico City,829,-774
Tianjin,413,-340
New York,212,-314
Lagos,265,-419
Istanbul,-37,-773
Delhi,-287,-632
Beijing,-902,-551
Shanghai,-745,49
Manila,-674,781
Buenos Aires,-128,54
Osaka,-74,34
Rio de Janeiro,-170,-100
Kolkata,68,-102
Dhaka,198,61
Karachi,313,-134
Mumbai,756,251
Chongqing,768,108
São Paulo,634,-167
Cairo,870,-382
