label,x,y
Tokyo,706,-261
Beijing,920,-791
Mumbai,660,-769
Dhaka,290,-539
São Paulo,-70,-587
Rio de Janeiro,-609,-949
Cairo,-582,-706
Mexico City,-436,-429
New York,-69,4
Manila,-271,6
Karachi,-592,-33
Osaka,-986,35
Shanghai,-514,384
Istanbul,-808,989
Chongqing,-123,875
Buenos Aires,109,929
Kolkata,782,897
Delhi,223,223
Lagos,121,214
Tianjin,627,-46
