label,x,y
Tokyo,781,-763
Delhi,493,-237
Kolkata,151,-184
Istanbul,34,-404
Rio de Janeiro,139,-497
New York,29,-718
São Paulo,-76,-902
Beijing,-693,-710
Shanghai,-147,-505
Manila,-168,-356
Dhaka,-584,388
Mexico City,127,360
Cairo,454,662
Karachi,819,701
Lagos,578,684
Mumbai,417,333
Chongqing,404,276
Buenos Aires,772,-184
Osaka,803,-467
