label,x,y
Tokyo,-800,687
Mumbai,-886,570
Cairo,-493,98
Karachi,-908,-265
Shanghai,-585,-15
Mexico City,-90,-270
São Paulo,-41,-914
New York,698,-940
Beijing,748,188
Buenos Aires,376,253
Delhi,-468,702
Dhaka,-578,922
Osaka,-902,815
