label,x,y
Tokyo,-669,-413
São Paulo,-120,-573
Dhaka,926,-918
Mumbai,816,-570
New York,643,-291
Chongqing,968,202
Shanghai,819,409
Delhi,586,955
Mexico City,317,596
Osaka,-320,911
Buenos Aires,-778,497
Beijing,-379,193
Karachi,-158,-91
Istanbul,-701,-378
Cairo,-946,-579
