label,x,y
Tokyo,658,472
São Paulo,-78,688
Mumbai,-83,762
Karachi,-437,878
Buenos Aires,-674,725
Dhaka,-337,426
Mexico City,-523,333
Osaka,-517,-328
Shanghai,-124,2
Cairo,474,-361
Beijing,488,-791
Delhi,539,-810
New York,862,-301
