label,x,y
Tokyo,909,-647
Cairo,742,-120
São Paulo,564,1
Delhi,597,58
Mexico City,612,549
Buenos Aires,484,836
New York,-106,539
Osaka,-313,460
Mumbai,-556,388
Dhaka,-786,162
Beijing,-776,-501
Karachi,-860,-654
Shanghai,18,-459
