label,x,y
Tokyo,-780,329
Osaka,-393,511
Buenos Aires,-8,213
Chongqing,423,576
New York,170,984
Cairo,395,918
Mumbai,565,824
São Paulo,928,379
Delhi,710,-204
Beijing,858,-684
Karachi,168,-215
Shanghai,-320,-932
Dhaka,-502,-739
Mexico City,-808,-777
