label,x,y
Tokyo,239,-629
Dhaka,351,-561
Delhi,944,-341
Mexico City,913,581
Cairo,128,358
Shanghai,-297,855
Mumbai,-387,259
Osaka,-859,54
Istanbul,-850,-25
Chongqing,-737,-328
São Paulo,-813,-509
Karachi,-672,-708
Beijing,55,-421
Buenos Aires,90,-92
New York,137,-416
