label,x,y
Tokyo,-120,94
Cairo,-663,-812
Delhi,-154,-685
Shanghai,255,-193
Buenos Aires,623,-769
Chongqing,744,-411
New York,924,-150
Dhaka,848,319
São Paulo,565,187
Mexico City,271,365
Tianjin,87,506
Istanbul,-110,552
Karachi,-206,601
Osaka,-356,621
Mumbai,-202,975
Kolkata,-418,770
Lagos,-914,900
Rio de Janeiro,-765,650
Beijing,-558,358
Manila,-354,428
