label,x,y
Tokyo,-891,-296
Delhi,-700,132
Buenos Aires,-389,446
Cairo,-254,834
New York,182,43
Dhaka,612,429
Karachi,643,531
São Paulo,812,16
Beijing,513,-132
Shanghai,720,-678
Osaka,32,-942
Mumbai,-453,-392
Mexico City,-568,-251
