label,x,y
Tokyo,13,253
São Paulo,68,321
Mumbai,471,316
Delhi,672,727
Mexico City,839,318
Karachi,909,-766
New York,380,-813
Osaka,281,-954
Beijing,166,-955
Dhaka,253,-734
Shanghai,-669,-192
Buenos Aires,-600,642
Cairo,-266,438
