label,x,y
Tokyo,-787,857
Mexico City,-782,181
Beijing,-722,-418
New York,-892,-784
Mumbai,-244,-572
Lagos,210,-927
Cairo,-89,-321
Rio de Janeiro,-301,-379
Karachi,-354,-104
Osaka,-217,-124
Buenos Aires,161,-71
Manila,161,86
Istanbul,217,303
Tianjin,873,-83
Kolkata,517,430
Delhi,568,779
Dhaka,604,952
São Paulo,411,801
Chongqing,-48,607
Shanghai,-89,613
