label,x,y
Tokyo,215,-595
Beijing,110,-861
Mexico City,-31,-709
São Paulo,-95,-782
New York,-710,-874
Karachi,-978,90
Manila,-938,653
Cairo,-627,875
Delhi,-501,864
Dhaka,-468,886
Lagos,56,853
Kolkata,155,191
Chongqing,446,481
Shanghai,791,898
Istanbul,975,657
Osaka,979,391
Mumbai,823,55
Buenos Aires,648,-746
