label,x,y
Tokyo,529,10
Shanghai,837,547
Kolkata,520,267
Delhi,-41,492
Mumbai,-99,438
Dhaka,-171,536
São Paulo,-137,963
Cairo,-938,987
Karachi,-758,-89
Chongqing,-862,-944
Buenos Aires,-265,-335
Beijing,36,-502
Mexico City,242,-746
Osaka,692,-861
New York,753,-169
Istanbul,738,-16
