label,x,y
Tokyo,-349,417
Mexico City,-545,46
Shanghai,-624,66
Delhi,-880,-140
Buenos Aires,-912,-413
Dhaka,-344,-189
Karachi,288,-542
New York,343,-495
Osaka,476,-309
São Paulo,775,-7
Cairo,492,401
Beijing,604,822
Mumbai,67,418
