label,x,y
Tokyo,794,-838
Beijing,886,-421
Dhaka,919,145
Osaka,862,229
Karachi,411,709
Mexico City,354,756
Chongqing,-557,932
São Paulo,-723,831
New York,-690,684
Delhi,-341,-19
Cairo,-142,-72
Buenos Aires,-415,-243
Istanbul,-779,-811
Manila,-650,-821
Shanghai,-239,-686
Mumbai,-202,-877
Kolkata,520,-984
