label,x,y
Tokyo,-40,-157
Delhi,579,-236
New York,886,-937
Buenos Aires,629,-974
Karachi,-8,-905
Istanbul,-822,-521
Cairo,-992,-373
Beijing,-827,580
Mumbai,-486,962
São Paulo,-475,937
Dhaka,-179,617
Shanghai,721,763
Mexico City,874,557
Osaka,714,537
Chongqing,316,-22
