label,x,y
Tokyo,617,-566
Shanghai,960,-793
Mexico City,961,-263
Dhaka,375,-6
Cairo,532,146
Beijing,986,866
São Paulo,776,884
Chongqing,597,884
Mumbai,369,835
Delhi,-262,979
New York,-515,-4
Osaka,-508,-256
Buenos Aires,-312,-518
Karachi,30,-453
