label,x,y
Tokyo,483,482
Mumbai,315,-332
Karachi,495,-434
São Paulo,823,-647
Buenos Aires,736,-854
New York,594,-620
Beijing,82,-686
Delhi,35,-688
Mexico City,-137,-615
Cairo,-706,-714
Chongqing,-346,-91
Istanbul,-740,193
Lagos,-944,921
Manila,-325,811
Osaka,-257,699
Kolkata,-223,743
Shanghai,246,841
Rio de Janeiro,653,878
Dhaka,743,778
