label,x,y
Tokyo,458,849
Delhi,-37,567
Cairo,-714,500
Osaka,-499,-151
Mumbai,-614,-325
Dhaka,-650,-813
Shanghai,-320,-794
Karachi,-103,-876
New York,-119,-187
Beijing,-89,-136
Mexico City,117,125
São Paulo,614,-138
