label,x,y
Tokyo,646,-686
Lagos,535,-747
New York,443,-808
Karachi,30,-670
Mumbai,5,-702
Dhaka,-724,-848
Manila,-859,-222
Shanghai,-887,146
Kolkata,-713,538
Cairo,-697,876
Delhi,-509,997
Tianjin,363,605
Istanbul,891,826
Osaka,661,302
Rio de Janeiro,924,103
São Paulo,568,110
Beijing,246,73
Buenos Aires,650,-354
Mexico City,681,-347
Chongqing,541,-645
