label,x,y
Tokyo,-656,-281
Cairo,-993,389
Shanghai,-914,385
Mexico City,-534,307
Dhaka,110,400
Osaka,419,569
São Paulo,501,449
Manila,279,-243
Istanbul,828,-439
Karachi,522,-727
Chongqing,200,-496
New York,8,-297
Mumbai,-174,-556
Buenos Aires,-259,-571
Delhi,-304,-702
Beijing,-655,-648
Kolkata,-939,-828
