label,x,y
Tokyo,-134,743
Mumbai,282,791
Shanghai,447,-44
Dhaka,481,-309
Mexico City,439,-544
Cairo,-104,-507
New York,-441,-370
Karachi,-923,-172
Delhi,-658,294
Osaka,-331,359
Beijing,-419,592
São Paulo,-470,721
Buenos Aires,-484,967
