label,x,y
Tokyo,528,-182
Mexico City,988,-389
Osaka,806,-766
New York,733,-905
Shanghai,-20,-364
Kolkata,-426,-962
Buenos Aires,-566,-802
Dhaka,-941,-561
Beijing,-219,-18
Chongqing,-164,106
Cairo,-533,206
Istanbul,-491,278
São Paulo,-123,752
Delhi,275,261
Mumbai,716,250
Karachi,449,71
