label,x,y
Tokyo,-741,-952
Delhi,-440,-912
Istanbul,-324,-657
Mexico City,191,-912
New York,863,-857
Buenos Aires,705,-615
Kolkata,230,-65
Dhaka,156,131
Cairo,905,437
Karachi,591,539
Chongqing,307,675
Mumbai,-756,502
Shanghai,-198,-393
São Paulo,-308,-593
Beijing,-517,-508
Osaka,-806,-658
