label,x,y
Tokyo,920,-957
Beijing,329,-641
Karachi,205,-703
Chongqing,105,-835
Buenos Aires,-539,-614
Mexico City,-710,-225
Istanbul,-120,-370
Dhaka,242,305
Cairo,137,442
Shanghai,406,659
Delhi,297,987
Osaka,817,780
São Paulo,858,240
Mumbai,533,156
New York,840,-195
