label,x,y
Tokyo,988,987
Tianjin,640,504
Buenos Aires,908,191
Mumbai,896,132
Beijing,588,-220
Dhaka,559,-421
New York,400,-439
São Paulo,-66,-212
Lagos,-267,-147
Karachi,-501,-226
Kolkata,-230,-928
Osaka,-850,-994
Shanghai,-957,-864
Delhi,-647,-338
Mexico City,-753,-151
Istanbul,-916,-177
Chongqing,-818,-136
Cairo,-743,561
Manila,-190,122
Rio de Janeiro,258,667
