label,x,y
Tokyo,908,310
Mumbai,894,634
São Paulo,741,327
Rio de Janeiro,411,337
Beijing,355,328
Manila,-184,20
Delhi,-467,457
New York,-459,750
Istanbul,-770,506
Tianjin,-554,132
Dhaka,-574,-98
Chongqing,-873,-461
Shanghai,-697,-609
Kolkata,-512,-861
Karachi,-400,-859
Cairo,-375,-528
Osaka,471,-371
Buenos Aires,735,-822
Mexico City,721,-29
Lagos,595,119
