label,x,y
Tokyo,24,-430
Shanghai,419,-789
Mexico City,463,-779
Beijing,529,-573
Mumbai,699,-487
Osaka,399,-431
Buenos Aires,365,-185
Dhaka,115,-15
Delhi,382,306
São Paulo,-21,692
Cairo,-94,157
New York,-215,108
Kolkata,-334,99
Chongqing,-437,126
Karachi,-387,51
Istanbul,-924,-746
