label,x,y
Tokyo,-863,-309
Mexico City,-912,-62
Dhaka,-981,266
New York,-535,-59
Delhi,-453,-80
Istanbul,8,778
Shanghai,38,953
Mumbai,608,187
Kolkata,581,144
Beijing,671,-427
Osaka,493,-815
Chongqing,574,-944
Karachi,220,-948
São Paulo,-84,-459
Cairo,-436,-225
Buenos Aires,-822,-338
