label,x,y
Tokyo,-148,-164
Cairo,-155,-410
Beijing,-298,-879
Delhi,-554,-971
Buenos Aires,-739,-926
Shanghai,-990,-553
Osaka,-563,-22
Karachi,-854,664
New York,-413,709
Chongqing,-8,264
São Paulo,903,660
Mumbai,904,-98
Mexico City,750,-365
Istanbul,104,-467
Dhaka,-5,-145
