label,x,y
Tokyo,561,50
Osaka,801,363
Mumbai,661,482
Beijing,138,377
Mexico City,-32,961
Karachi,-268,335
Delhi,-29,82
Buenos Aires,-343,-448
São Paulo,-849,-690
Shanghai,-793,-995
Dhaka,-591,-850
New York,-90,-457
Istanbul,471,-371
Cairo,610,-141
Chongqing,935,-158
