label,x,y
Tokyo,-295,131
Karachi,-321,-103
Shanghai,-390,-213
Delhi,202,-205
Beijing,565,-642
New York,740,286
Cairo,954,361
Mumbai,320,226
São Paulo,331,436
Buenos Aires,-120,491
Osaka,-95,635
Dhaka,-694,912
Mexico City,-870,469
