label,x,y
Tokyo,979,852
Dhaka,981,107
Delhi,900,-86
Karachi,851,-520
Mumbai,669,-722
Chongqing,306,-228
Manila,65,-530
Osaka,-567,-879
New York,-877,-943
Cairo,-627,-645
Rio de Janeiro,-933,-339
Lagos,-904,432
Mexico City,-685,683
Shanghai,-633,596
Kolkata,-430,181
São Paulo,-434,-33
Beijing,224,-39
Istanbul,201,213
Buenos Aires,272,994
