label,x,y
Tokyo,217,-698
Manila,78,-458
Mexico City,-170,-343
Beijing,-160,-813
Shanghai,-260,-908
Cairo,-788,-736
New York,-952,-944
Chongqing,-920,-603
Osaka,-799,-608
Kolkata,-807,-257
Delhi,-651,-216
São Paulo,-885,164
Karachi,-223,283
Rio de Janeiro,-366,641
Lagos,526,818
Dhaka,845,546
Buenos Aires,845,359
Mumbai,760,189
Istanbul,525,-224
