label,x,y
Tokyo,986,-892
Mexico City,939,-470
Mumbai,893,688
Shanghai,920,706
New York,635,871
Karachi,6,555
Beijing,-153,400
Dhaka,-287,192
Delhi,-556,479
Cairo,-986,109
Osaka,-916,-598
São Paulo,-320,-316
