label,x,y
Tokyo,-468,-163
Mexico City,-834,-81
Istanbul,-920,-538
New York,-529,-839
Cairo,-579,-957
Chongqing,-89,-992
Shanghai,528,-848
Kolkata,881,-388
Dhaka,282,-403
Delhi,122,-502
Lagos,109,-172
Manila,299,3
Buenos Aires,424,167
Beijing,270,546
Karachi,950,768
Mumbai,425,912
Rio de Janeiro,154,725
São Paulo,-384,986
Osaka,-244,22
