label,x,y
Tokyo,-150,-63
Delhi,-292,171
Cairo,-205,503
Osaka,-984,682
Mexico City,-621,158
Karachi,-795,-65
Chongqing,-973,-251
Beijing,-846,-430
New York,-207,-890
Buenos Aires,-182,-650
Dhaka,-23,-310
São Paulo,712,-196
Shanghai,746,-115
Istanbul,842,524
Mumbai,-46,65
