label,x,y
Tokyo,-194,-460
Cairo,-302,-745
Kolkata,-926,-794
Osaka,-861,-490
Beijing,-885,-378
Manila,-381,-81
New York,-905,352
Lagos,-993,774
Delhi,-155,800
Karachi,735,704
São Paulo,845,503
Mexico City,481,-102
Dhaka,468,-199
Buenos Aires,855,-616
Chongqing,979,-661
Istanbul,399,-920
Shanghai,155,-265
Mumbai,170,-238
