label,x,y
Tokyo,688,-497
Osaka,784,-159
Mexico City,254,-288
Delhi,169,443
Beijing,-489,630
Dhaka,-732,140
Shanghai,-711,60
Buenos Aires,-740,-397
Mumbai,-407,-287
Cairo,-521,-456
São Paulo,-502,-815
New York,-258,-974
Karachi,118,-974
