label,x,y
Tokyo,-448,-700
Cairo,-496,-484
Lagos,-400,-175
Buenos Aires,-563,-28
Delhi,-549,93
Beijing,-767,16
Osaka,-898,706
São Paulo,-456,570
Karachi,-87,565
Istanbul,-45,608
Shanghai,-83,268
Mexico City,228,-89
Dhaka,399,297
Mumbai,711,780
Kolkata,927,507
New York,802,234
Rio de Janeiro,646,143
Manila,908,-622
Chongqing,647,-853
