label,x,y
Tokyo,519,186
Cairo,634,840
New York,304,322
Dhaka,85,258
São Paulo,-221,208
Mexico City,-495,770
Chongqing,-803,259
Shanghai,-656,164
Osaka,-749,81
Mumbai,-751,78
Buenos Aires,-850,-552
Beijing,-528,-377
Delhi,-89,40
Karachi,546,-109
