label,x,y
Tokyo,587,-885
Osaka,638,-717
Mexico City,960,-455
Kolkata,897,111
Shanghai,896,922
Karachi,6,998
New York,-395,874
Cairo,-689,877
Dhaka,-273,717
São Paulo,360,458
Istanbul,524,32
Beijing,411,-360
Mumbai,-54,-482
Delhi,-720,-467
Buenos Aires,-729,-686
Chongqing,-613,-753
Manila,146,-822
