label,x,y
Tokyo,756,270
Shanghai,788,313
Mexico City,962,451
Cairo,893,122
Chongqing,967,-87
Delhi,961,-275
Beijing,916,-670
Osaka,650,-782
Dhaka,429,-351
Karachi,-626,-206
Buenos Aires,-810,-792
São Paulo,-945,-683
Manila,-828,-388
Istanbul,-830,-99
Kolkata,-349,926
Lagos,-349,959
New York,372,672
Mumbai,675,250
