label,x,y
Tokyo,460,718
Shanghai,-15,320
Karachi,-634,616
Cairo,-887,597
Delhi,-878,-290
New York,-957,-439
Beijing,-231,-357
Dhaka,272,-536
Mumbai,92,-107
Osaka,705,764
Mexico City,894,968
São Paulo,940,951
Buenos Aires,900,642
