label,x,y
Tokyo,667,-389
Mexico City,719,-398
New York,879,-418
São Paulo,841,-663
Chongqing,692,-705
Delhi,513,-546
Cairo,-307,-648
Mumbai,-885,-571
Karachi,-913,-17
Dhaka,-338,14
Lagos,-750,674
Kolkata,-938,795
Istanbul,-872,911
Manila,-478,575
Shanghai,153,952
Osaka,719,594
Beijing,927,-126
Buenos Aires,851,-247
