label,x,y
Tokyo,-449,-38
Dhaka,-351,53
Beijing,-872,365
Buenos Aires,-795,597
São Paulo,-775,583
Mexico City,-310,320
Lagos,92,392
Cairo,788,466
Karachi,832,96
New York,731,-176
Chongqing,601,-115
Delhi,379,-258
Istanbul,798,-522
Shanghai,953,-751
Manila,439,-959
Mumbai,295,-533
Kolkata,-338,-650
Osaka,-413,-377
