label,x,y
Tokyo,32,-617
Osaka,-190,-621
Tianjin,-59,-527
Istanbul,-208,-56
New York,-855,-115
Dhaka,-844,221
Cairo,-868,393
Beijing,-961,677
Delhi,-656,402
Mexico City,-162,515
Chongqing,-54,645
Manila,327,926
Kolkata,582,823
Mumbai,696,948
Shanghai,997,708
São Paulo,664,616
Lagos,226,324
Rio de Janeiro,635,-110
Buenos Aires,720,-748
Karachi,552,-873
