label,x,y
Tokyo,274,-374
Mexico City,623,-862
Buenos Aires,993,-191
Mumbai,681,845
Cairo,323,394
São Paulo,129,182
Delhi,-293,-166
Shanghai,-756,377
Dhaka,-900,-301
Chongqing,-339,-414
Beijing,-473,-805
New York,-288,-803
Osaka,-102,-920
Karachi,-66,-877
