label,x,y
Tokyo,489,-859
Delhi,724,-720
São Paulo,926,-495
Mumbai,673,89
Mexico City,201,826
Istanbul,-196,929
Shanghai,-313,894
New York,-309,831
Osaka,-723,554
Karachi,-968,574
Buenos Aires,-956,274
Chongqing,-427,-258
Cairo,-127,-163
Beijing,-341,-515
Kolkata,-641,-706
Manila,-930,-917
Dhaka,-149,-843
