label,x,y
Tokyo,-238,-644
Delhi,-88,-568
New York,-44,-389
Dhaka,482,-516
Buenos Aires,865,-960
Shanghai,596,-588
Karachi,744,284
Chongqing,930,534
São Paulo,635,373
Osaka,-470,819
Beijing,-570,930
Mexico City,-455,-125
Mumbai,-288,-442
Cairo,-598,-653
