label,x,y
Tokyo,158,-838
Mumbai,239,-600
Buenos Aires,-157,-596
Beijing,-776,-927
Istanbul,-785,-564
Delhi,-271,72
Dhaka,-533,162
Osaka,-839,538
São Paulo,-458,440
Mexico City,-170,569
Kolkata,-88,373
Chongqing,53,381
Cairo,205,-7
New York,905,361
Shanghai,896,-163
Karachi,847,-989
