label,x,y
Tokyo,-992,-905
Chongqing,-647,-415
Osaka,-657,159
New York,-999,140
Buenos Aires,-926,574
Kolkata,-755,521
Beijing,-696,657
Shanghai,-571,784
Mumbai,-419,843
Mexico City,-459,409
Dhaka,-285,238
Karachi,96,109
São Paulo,104,86
Delhi,770,27
Istanbul,514,-679
Cairo,-448,-661
Manila,-585,-984
