label,x,y
Tokyo,-847,498
Mexico City,-626,182
Chongqing,-338,236
Buenos Aires,-581,-309
Manila,-818,-835
Lagos,-747,-997
Istanbul,-423,-316
Kolkata,-6,-271
Karachi,148,-731
Cairo,701,-952
Shanghai,821,-915
Beijing,925,-822
Dhaka,981,-380
Mumbai,772,-24
São Paulo,933,567
Delhi,170,524
Osaka,95,995
New York,-606,974
