label,x,y
Tokyo,906,504
Shanghai,946,-710
Beijing,655,-662
New York,-257,-786
Delhi,-678,-962
Osaka,-788,-591
Dhaka,-535,-316
São Paulo,-703,-349
Mumbai,-902,-13
Buenos Aires,-532,163
Karachi,-839,443
Cairo,-678,986
Mexico City,552,477
