label,x,y
Tokyo,-697,233
Mexico City,-610,-112
Buenos Aires,-285,-416
Cairo,-331,-624
Osaka,-269,-538
Shanghai,356,-356
São Paulo,847,-566
New York,972,-670
Mumbai,982,-519
Beijing,839,854
Delhi,-72,778
Dhaka,-243,296
Karachi,-870,732
