label,x,y
Tokyo,429,-122
Beijing,383,51
Karachi,507,555
Chongqing,842,569
São Paulo,522,985
Kolkata,28,710
Delhi,-125,867
Cairo,-678,618
Istanbul,-719,422
Mexico City,-311,-60
Osaka,-416,-751
Shanghai,-138,-796
Buenos Aires,262,-479
Mumbai,412,-699
Dhaka,814,-585
New York,691,-473
