label,x,y
Tokyo,808,97
Shanghai,450,-332
New York,647,-414
Cairo,999,-582
Istanbul,572,-704
Osaka,425,-832
Manila,392,-532
Dhaka,-150,-472
Mumbai,-535,-538
Mexico City,-312,-350
Karachi,-325,-59
Delhi,46,158
Buenos Aires,-29,697
Chongqing,-617,803
Beijing,-291,838
São Paulo,280,979
Kolkata,421,381
