label,x,y
Tokyo,546,703
Istanbul,301,917
Mumbai,299,722
Chongqing,328,443
Osaka,-186,364
Beijing,-521,214
Lagos,-969,-60
Buenos Aires,-928,-539
New York,-505,-674
São Paulo,-131,-291
Mexico City,235,-468
Dhaka,777,-922
Karachi,820,-177
Rio de Janeiro,962,-100
Manila,621,-136
Cairo,416,-255
Kolkata,333,-152
Shanghai,319,98
Delhi,531,183
Tianjin,648,197
