label,x,y
Tokyo,662,711
São Paulo,624,289
Osaka,332,187
Mumbai,-328,728
Shanghai,-622,207
Cairo,-784,154
Karachi,-397,-561
Beijing,537,-44
Delhi,897,-637
New York,906,-252
Mexico City,872,140
Dhaka,875,433
