label,x,y
Tokyo,333,-587
São Paulo,427,-932
Beijing,290,-551
Chongqing,19,-21
Buenos Aires,747,827
Shanghai,808,893
Cairo,773,858
Mumbai,555,704
New York,-559,666
Delhi,-278,187
Mexico City,-278,-82
Karachi,-420,-77
Dhaka,-742,-271
Kolkata,-481,-909
Osaka,-268,-667
Istanbul,-242,-651
