label,x,y
Tokyo,612,-650
São Paulo,243,-167
Buenos Aires,-87,-617
Delhi,-286,-626
Mumbai,-254,117
Osaka,-317,299
Chongqing,-978,388
New York,-933,494
Dhaka,-559,869
Cairo,120,481
Karachi,936,584
Beijing,989,843
Mexico City,811,292
Shanghai,825,-463
