label,x,y
Tokyo,720,676
Mexico City,756,669
Manila,837,-33
Chongqing,789,-214
São Paulo,965,-548
Buenos Aires,725,-764
Shanghai,527,-646
Rio de Janeiro,320,-547
Istanbul,92,-838
Cairo,-718,-867
Beijing,-800,-326
Osaka,-929,49
Kolkata,-326,-188
New York,-188,404
Lagos,-513,365
Delhi,-706,674
Karachi,-399,912
Dhaka,-146,905
Mumbai,635,647
