label,x,y
Tokyo,449,121
Mexico City,469,-19
Dhaka,944,258
Cairo,999,-306
New York,450,-339
Karachi,561,-953
Osaka,329,-875
Beijing,-551,-991
Delhi,-404,-289
Shanghai,-730,408
São Paulo,-817,921
Chongqing,-265,426
Mumbai,-106,358
Buenos Aires,-65,277
