label,x,y
Tokyo,511,771
Cairo,570,848
Chongqing,741,935
Dhaka,503,849
Buenos Aires,110,945
Istanbul,62,708
New York,-988,859
Beijing,-813,665
Mexico City,-576,-321
São Paulo,-650,-674
Mumbai,-309,-994
Delhi,401,-815
Kolkata,561,-427
Shanghai,303,-311
Manila,480,-38
Karachi,659,82
Osaka,686,116
