label,x,y
Tokyo,246,58
Osaka,19,307
Dhaka,356,921
Shanghai,-207,440
Karachi,-126,293
Delhi,-495,238
Cairo,-669,464
Chongqing,-825,-74
Mumbai,-919,-445
Buenos Aires,-581,-334
Beijing,-123,-211
Istanbul,-78,-325
São Paulo,-135,-911
Mexico City,907,-747
New York,928,-267
