label,x,y
Tokyo,-185,738
Mexico City,-882,734
Shanghai,-784,-904
Delhi,-215,-995
São Paulo,-98,-695
Dhaka,417,-972
New York,666,-298
Karachi,544,-15
Osaka,597,296
Cairo,885,794
Mumbai,579,639
Beijing,228,998
