label,x,y
Tokyo,655,480
Mumbai,640,281
Osaka,760,-360
New York,993,-596
Cairo,225,-468
São Paulo,124,-521
Beijing,-276,-530
Shanghai,-495,-796
Karachi,-860,-613
Dhaka,-294,283
Delhi,111,590
Mexico City,161,564
