label,x,y
Tokyo,-336,830
Chongqing,-518,733
Mumbai,-548,636
Lagos,-413,2
Karachi,-635,-218
Osaka,-428,-383
São Paulo,-883,-660
New York,-259,-856
Cairo,497,-453
Dhaka,621,-420
Delhi,800,146
Manila,789,309
Kolkata,508,441
Buenos Aires,916,757
Beijing,800,941
Mexico City,705,884
Shanghai,213,762
Istanbul,-223,958
