label,x,y
Tokyo,-941,-953
Mumbai,-520,-612
Istanbul,94,-935
Delhi,288,-939
Osaka,296,-920
Shanghai,880,-582
Beijing,865,-499
Cairo,865,379
Buenos Aires,143,132
Chongqing,-130,408
Karachi,-940,883
New York,-335,321
Kolkata,-141,152
São Paulo,259,-157
Mexico City,152,-312
Dhaka,-608,-597
