label,x,y
Tokyo,239,-752
Dhaka,221,-902
Beijing,-63,-934
New York,-394,-630
Mexico City,-801,-187
Delhi,-755,986
Osaka,-129,85
Shanghai,-256,-199
Cairo,-41,-182
São Paulo,222,30
Chongqing,974,177
Mumbai,965,-17
Buenos Aires,972,-75
Karachi,888,-880
