label,x,y
Tokyo,-145,411
Beijing,-489,914
Mumbai,-750,511
Delhi,-940,180
Cairo,-630,-156
São Paulo,-946,-427
Shanghai,-832,-795
Dhaka,-318,-591
Karachi,-198,-962
Osaka,258,-590
Mexico City,408,-161
New York,687,736
