label,x,y
Tokyo,-303,-302
Buenos Aires,-512,-178
Istanbul,-976,-433
Shanghai,-850,-895
Delhi,-449,-670
Mexico City,-244,-857
Cairo,83,-783
Dhaka,236,-804
Beijing,423,-787
New York,312,-492
São Paulo,228,-126
Osaka,953,-315
Mumbai,864,160
Karachi,90,878
Chongqing,-298,-41
