label,x,y
Tokyo,-200,678
Osaka,381,936
Cairo,495,916
São Paulo,363,885
Dhaka,247,109
Shanghai,485,-286
New York,802,-101
Mexico City,937,-195
Mumbai,715,-588
Buenos Aires,53,-671
Karachi,-273,-722
Istanbul,-717,-903
Beijing,-904,-789
Delhi,-708,65
Chongqing,-99,160
