label,x,y
Tokyo,244,902
Istanbul,105,922
Beijing,21,503
Lagos,-548,488
Cairo,-875,937
Chongqing,-585,90
Karachi,-573,-141
Buenos Aires,-466,-386
Mumbai,-237,-613
Kolkata,-152,-650
Dhaka,-66,-790
Delhi,59,-898
Mexico City,729,-633
São Paulo,868,-643
Shanghai,662,-346
New York,817,-116
Osaka,530,417
Manila,825,906
