label,x,y
Tokyo,-775,231
Beijing,-551,183
Buenos Aires,-449,-196
Mexico City,-683,-326
Shanghai,-729,-499
Kolkata,-578,-795
Mumbai,-864,-994
Delhi,-530,-904
Cairo,-195,-868
Istanbul,980,-994
Karachi,849,-508
São Paulo,758,-277
Manila,236,-108
Chongqing,-96,-352
New York,-119,-81
Dhaka,165,655
Osaka,87,677
Lagos,-699,507
