label,x,y
Tokyo,106,-704
Osaka,640,-949
Tianjin,831,-794
Delhi,630,-366
São Paulo,578,-148
Lagos,633,-21
Karachi,880,-121
Istanbul,893,-272
Kolkata,880,-1
Shanghai,955,301
Mexico City,393,504
Cairo,457,846
Buenos Aires,361,557
Manila,23,511
Chongqing,-45,955
Dhaka,-277,940
Beijing,-967,732
Rio de Janeiro,-188,211
Mumbai,-528,-614
New York,-93,-523
