label,x,y
Tokyo,-155,-544
Beijing,391,-745
São Paulo,836,-562
Kolkata,993,365
Osaka,776,754
Dhaka,-455,716
Istanbul,-480,695
Buenos Aires,-593,841
New York,-831,758
Shanghai,-957,662
Mexico City,-725,285
Cairo,-821,121
Delhi,-780,133
Karachi,-530,-79
Chongqing,-350,-499
Mumbai,-266,-745
