<?xml version="1.0" encoding="UTF-8" standalone="no"?>
<svg width="500" height="500" viewBox="0 0 2074.000000 2074.000000" xmlns="http://www.w3.org/2000/svg">
<rect x="19.000000" y="19.000000" width="2036.000000" height="2036.000000" fill="black" />
<circle cx="735.960022" cy="324.959991" r="19.980000" fill="red">
  <title>Tokyo</title>
</circle><line x1="1485.959961" y1="968.960022" x2="735.960022" y2="324.959991" stroke="red" stroke-width="6.660000" />
<circle cx="237.959991" cy="490.959991" r="19.980000" fill="red">
  <title>Delhi</title>
</circle><line x1="735.960022" y1="324.959991" x2="237.959991" y2="490.959991" stroke="red" stroke-width="6.660000" />
<circle cx="1485.959961" cy="968.960022" r="19.980000" fill="red">
  <title>Shanghai</title>
</circle><line x1="237.959991" y1="490.959991" x2="1485.959961" y2="968.960022" stroke="red" stroke-width="6.660000" />
</svg>
