<?xml version="1.0" encoding="UTF-8" standalone="no"?>
<svg width="500" height="500" viewBox="0 0 2074.000000 2074.000000" xmlns="http://www.w3.org/2000/svg">
<rect x="19.000000" y="19.000000" width="2036.000000" height="2036.000000" fill="black" />
<circle cx="324.959991" cy="48.959999" r="19.980000" fill="red">
  <title>Tokyo</title>
</circle><line x1="1580.959961" y1="267.959991" x2="324.959991" y2="48.959999" stroke="red" stroke-width="6.660000" />
<circle cx="183.959991" cy="544.960022" r="19.980000" fill="red">
  <title>Shanghai</title>
</circle><line x1="324.959991" y1="48.959999" x2="183.959991" y2="544.960022" stroke="red" stroke-width="6.660000" />
<circle cx="159.959991" cy="590.960022" r="19.980000" fill="red">
  <title>Osaka</title>
</circle><line x1="183.959991" y1="544.960022" x2="159.959991" y2="590.960022" stroke="red" stroke-width="6.660000" />
<circle cx="940.960022" cy="1357.959961" r="19.980000" fill="red">
  <title>Mumbai</title>
</circle><line x1="159.959991" y1="590.960022" x2="940.960022" y2="1357.959961" stroke="red" stroke-width="6.660000" />
<circle cx="1196.959961" cy="1478.959961" r="19.980000" fill="red">
  <title>Beijing</title>
</circle><line x1="940.960022" y1="1357.959961" x2="1196.959961" y2="1478.959961" stroke="red" stroke-width="6.660000" />
<circle cx="1438.959961" cy="1381.959961" r="19.980000" fill="red">
  <title>Mexico City</title>
</circle><line x1="1196.959961" y1="1478.959961" x2="1438.959961" y2="1381.959961" stroke="red" stroke-width="6.660000" />
<circle cx="1455.959961" cy="1306.959961" r="19.980000" fill="red">
  <title>Dhaka</title>
</circle><line x1="1438.959961" y1="1381.959961" x2="1455.959961" y2="1306.959961" stroke="red" stroke-width="6.660000" />
<circle cx="1407.959961" cy="1070.959961" r="19.980000" fill="red">
  <title>Delhi</title>
</circle><line x1="1455.959961" y1="1306.959961" x2="1407.959961" y2="1070.959961" stroke="red" stroke-width="6.660000" />
<circle cx="1210.959961" cy="935.960022" r="19.980000" fill="red">
  <title>São Paulo</title>
</circle><line x1="1407.959961" y1="1070.959961" x2="1210.959961" y2="935.960022" stroke="red" stroke-width="6.660000" />
<circle cx="1443.959961" cy="442.959991" r="19.980000" fill="red">
  <title>New York</title>
</circle><line x1="1210.959961" y1="935.960022" x2="1443.959961" y2="442.959991" stroke="red" stroke-width="6.660000" />
<circle cx="1580.959961" cy="267.959991" r="19.980000" fill="red">
  <title>Cairo</title>
</circle><line x1="1443.959961" y1="442.959991" x2="1580.959961" y2="267.959991" stroke="red" stroke-width="6.660000" />
</svg>
