<?xml version="1.0" encoding="UTF-8" standalone="no"?>
<svg width="500" height="500" viewBox="0 0 2074.000000 2074.000000" xmlns="http://www.w3.org/2000/svg">
<rect x="19.000000" y="19.000000" width="2036.000000" height="2036.000000" fill="black" />
<circle cx="1911.959961" cy="827.960022" r="19.980000" fill="red">
  <title>Tokyo</title>
</circle><line x1="1645.959961" y1="1140.959961" x2="1911.959961" y2="827.960022" stroke="red" stroke-width="6.660000" />
<circle cx="1960.959961" cy="665.960022" r="19.980000" fill="red">
  <title>Mumbai</title>
</circle><line x1="1911.959961" y1="827.960022" x2="1960.959961" y2="665.960022" stroke="red" stroke-width="6.660000" />
<circle cx="1070.959961" cy="638.960022" r="19.980000" fill="red">
  <title>Delhi</title>
</circle><line x1="1960.959961" y1="665.960022" x2="1070.959961" y2="638.960022" stroke="red" stroke-width="6.660000" />
<circle cx="401.959991" cy="92.959999" r="19.980000" fill="red">
  <title>Shanghai</title>
</circle><line x1="1070.959961" y1="638.960022" x2="401.959991" y2="92.959999" stroke="red" stroke-width="6.660000" />
<circle cx="196.959991" cy="191.959991" r="19.980000" fill="red">
  <title>São Paulo</title>
</circle><line x1="401.959991" y1="92.959999" x2="196.959991" y2="191.959991" stroke="red" stroke-width="6.660000" />
<circle cx="178.959991" cy="950.960022" r="19.980000" fill="red">
  <title>Buenos Aires</title>
</circle><line x1="196.959991" y1="191.959991" x2="178.959991" y2="950.960022" stroke="red" stroke-width="6.660000" />
<circle cx="375.959991" cy="990.960022" r="19.980000" fill="red">
  <title>Beijing</title>
</circle><line x1="178.959991" y1="950.960022" x2="375.959991" y2="990.960022" stroke="red" stroke-width="6.660000" />
<circle cx="531.960022" cy="1067.959961" r="19.980000" fill="red">
  <title>Dhaka</title>
</circle><line x1="375.959991" y1="990.960022" x2="531.960022" y2="1067.959961" stroke="red" stroke-width="6.660000" />
<circle cx="385.959991" cy="1173.959961" r="19.980000" fill="red">
  <title>New York</title>
</circle><line x1="531.960022" y1="1067.959961" x2="385.959991" y2="1173.959961" stroke="red" stroke-width="6.660000" />
<circle cx="676.960022" cy="1528.959961" r="19.980000" fill="red">
  <title>Chongqing</title>
</circle><line x1="385.959991" y1="1173.959961" x2="676.960022" y2="1528.959961" stroke="red" stroke-width="6.660000" />
<circle cx="265.959991" cy="1824.959961" r="19.980000" fill="red">
  <title>Karachi</title>
</circle><line x1="676.960022" y1="1528.959961" x2="265.959991" y2="1824.959961" stroke="red" stroke-width="6.660000" />
<circle cx="826.960022" cy="1895.959961" r="19.980000" fill="red">
  <title>Mexico City</title>
</circle><line x1="265.959991" y1="1824.959961" x2="826.960022" y2="1895.959961" stroke="red" stroke-width="6.660000" />
<circle cx="1038.959961" cy="1562.959961" r="19.980000" fill="red">
  <title>Osaka</title>
</circle><line x1="826.960022" y1="1895.959961" x2="1038.959961" y2="1562.959961" stroke="red" stroke-width="6.660000" />
<circle cx="1765.959961" cy="1850.959961" r="19.980000" fill="red">
  <title>Cairo</title>
</circle><line x1="1038.959961" y1="1562.959961" x2="1765.959961" y2="1850.959961" stroke="red" stroke-width="6.660000" />
<circle cx="1645.959961" cy="1140.959961" r="19.980000" fill="red">
  <title>Istanbul</title>
</circle><line x1="1765.959961" y1="1850.959961" x2="1645.959961" y2="1140.959961" stroke="red" stroke-width="6.660000" />
</svg>
