<?xml version="1.0" encoding="UTF-8" standalone="no"?>
<svg width="500" height="500" viewBox="0 0 2074.000000 2074.000000" xmlns="http://www.w3.org/2000/svg">
<rect x="19.000000" y="19.000000" width="2036.000000" height="2036.000000" fill="black" />
<circle cx="1887.959961" cy="991.960022" r="19.980000" fill="red">
  <title>Tokyo</title>
</circle><line x1="1931.959961" y1="1816.959961" x2="1887.959961" y2="991.960022" stroke="red" stroke-width="6.660000" />
<circle cx="1421.959961" cy="1107.959961" r="19.980000" fill="red">
  <title>Beijing</title>
</circle><line x1="1887.959961" y1="991.960022" x2="1421.959961" y2="1107.959961" stroke="red" stroke-width="6.660000" />
<circle cx="1561.959961" cy="923.960022" r="19.980000" fill="red">
  <title>Kolkata</title>
</circle><line x1="1421.959961" y1="1107.959961" x2="1561.959961" y2="923.960022" stroke="red" stroke-width="6.660000" />
<circle cx="1587.959961" cy="676.960022" r="19.980000" fill="red">
  <title>Shanghai</title>
</circle><line x1="1561.959961" y1="923.960022" x2="1587.959961" y2="676.960022" stroke="red" stroke-width="6.660000" />
<circle cx="1490.959961" cy="646.960022" r="19.980000" fill="red">
  <title>Lagos</title>
</circle><line x1="1587.959961" y1="676.960022" x2="1490.959961" y2="646.960022" stroke="red" stroke-width="6.660000" />
<circle cx="1203.959961" cy="402.959991" r="19.980000" fill="red">
  <title>São Paulo</title>
</circle><line x1="1490.959961" y1="646.960022" x2="1203.959961" y2="402.959991" stroke="red" stroke-width="6.660000" />
<circle cx="1501.959961" cy="163.959991" r="19.980000" fill="red">
  <title>Osaka</title>
</circle><line x1="1203.959961" y1="402.959991" x2="1501.959961" y2="163.959991" stroke="red" stroke-width="6.660000" />
<circle cx="1097.959961" cy="83.959999" r="19.980000" fill="red">
  <title>Manila</title>
</circle><line x1="1501.959961" y1="163.959991" x2="1097.959961" y2="83.959999" stroke="red" stroke-width="6.660000" />
<circle cx="1080.959961" cy="158.959991" r="19.980000" fill="red">
  <title>Mumbai</title>
</circle><line x1="1097.959961" y1="83.959999" x2="1080.959961" y2="158.959991" stroke="red" stroke-width="6.660000" />
<circle cx="1073.959961" cy="145.959991" r="19.980000" fill="red">
  <title>Istanbul</title>
</circle><line x1="1080.959961" y1="158.959991" x2="1073.959961" y2="145.959991" stroke="red" stroke-width="6.660000" />
<circle cx="758.960022" cy="163.959991" r="19.980000" fill="red">
  <title>Cairo</title>
</circle><line x1="1073.959961" y1="145.959991" x2="758.960022" y2="163.959991" stroke="red" stroke-width="6.660000" />
<circle cx="560.960022" cy="606.960022" r="19.980000" fill="red">
  <title>Delhi</title>
</circle><line x1="758.960022" y1="163.959991" x2="560.960022" y2="606.960022" stroke="red" stroke-width="6.660000" />
<circle cx="175.959991" cy="1142.959961" r="19.980000" fill="red">
  <title>New York</title>
</circle><line x1="560.960022" y1="606.960022" x2="175.959991" y2="1142.959961" stroke="red" stroke-width="6.660000" />
<circle cx="612.960022" cy="1141.959961" r="19.980000" fill="red">
  <title>Karachi</title>
</circle><line x1="175.959991" y1="1142.959961" x2="612.960022" y2="1141.959961" stroke="red" stroke-width="6.660000" />
<circle cx="876.960022" cy="1276.959961" r="19.980000" fill="red">
  <title>Dhaka</title>
</circle><line x1="612.960022" y1="1141.959961" x2="876.960022" y2="1276.959961" stroke="red" stroke-width="6.660000" />
<circle cx="935.960022" cy="1736.959961" r="19.980000" fill="red">
  <title>Mexico City</title>
</circle><line x1="876.960022" y1="1276.959961" x2="935.960022" y2="1736.959961" stroke="red" stroke-width="6.660000" />
<circle cx="1621.959961" cy="1885.959961" r="19.980000" fill="red">
  <title>Chongqing</title>
</circle><line x1="935.960022" y1="1736.959961" x2="1621.959961" y2="1885.959961" stroke="red" stroke-width="6.660000" />
<circle cx="1931.959961" cy="1816.959961" r="19.980000" fill="red">
  <title>Buenos Aires</title>
</circle><line x1="1621.959961" y1="1885.959961" x2="1931.959961" y2="1816.959961" stroke="red" stroke-width="6.660000" />
</svg>
