<?xml version="1.0" encoding="UTF-8" standalone="no"?>
<svg width="500" height="500" viewBox="0 0 2074.000000 2074.000000" xmlns="http://www.w3.org/2000/svg">
<rect x="19.000000" y="19.000000" width="2036.000000" height="2036.000000" fill="black" />
<circle cx="70.959999" cy="1067.959961" r="19.980000" fill="red">
  <title>Tokyo</title>
</circle><line x1="327.959991" y1="803.960022" x2="70.959999" y2="1067.959961" stroke="red" stroke-width="6.660000" />
<circle cx="616.960022" cy="1344.959961" r="19.980000" fill="red">
  <title>Buenos Aires</title>
</circle><line x1="70.959999" y1="1067.959961" x2="616.960022" y2="1344.959961" stroke="red" stroke-width="6.660000" />
<circle cx="265.959991" cy="1971.959961" r="19.980000" fill="red">
  <title>New York</title>
</circle><line x1="616.960022" y1="1344.959961" x2="265.959991" y2="1971.959961" stroke="red" stroke-width="6.660000" />
<circle cx="684.960022" cy="1428.959961" r="19.980000" fill="red">
  <title>Shanghai</title>
</circle><line x1="265.959991" y1="1971.959961" x2="684.960022" y2="1428.959961" stroke="red" stroke-width="6.660000" />
<circle cx="1047.959961" cy="1651.959961" r="19.980000" fill="red">
  <title>Osaka</title>
</circle><line x1="684.960022" y1="1428.959961" x2="1047.959961" y2="1651.959961" stroke="red" stroke-width="6.660000" />
<circle cx="1177.959961" cy="1805.959961" r="19.980000" fill="red">
  <title>Karachi</title>
</circle><line x1="1047.959961" y1="1651.959961" x2="1177.959961" y2="1805.959961" stroke="red" stroke-width="6.660000" />
<circle cx="1691.959961" cy="1731.959961" r="19.980000" fill="red">
  <title>São Paulo</title>
</circle><line x1="1177.959961" y1="1805.959961" x2="1691.959961" y2="1731.959961" stroke="red" stroke-width="6.660000" />
<circle cx="1744.959961" cy="1602.959961" r="19.980000" fill="red">
  <title>Chongqing</title>
</circle><line x1="1691.959961" y1="1731.959961" x2="1744.959961" y2="1602.959961" stroke="red" stroke-width="6.660000" />
<circle cx="1559.959961" cy="936.960022" r="19.980000" fill="red">
  <title>Mexico City</title>
</circle><line x1="1744.959961" y1="1602.959961" x2="1559.959961" y2="936.960022" stroke="red" stroke-width="6.660000" />
<circle cx="1759.959961" cy="487.959991" r="19.980000" fill="red">
  <title>Cairo</title>
</circle><line x1="1559.959961" y1="936.960022" x2="1759.959961" y2="487.959991" stroke="red" stroke-width="6.660000" />
<circle cx="2023.959961" cy="479.959991" r="19.980000" fill="red">
  <title>Dhaka</title>
</circle><line x1="1759.959961" y1="487.959991" x2="2023.959961" y2="479.959991" stroke="red" stroke-width="6.660000" />
<circle cx="1598.959961" cy="571.960022" r="19.980000" fill="red">
  <title>Beijing</title>
</circle><line x1="2023.959961" y1="479.959991" x2="1598.959961" y2="571.960022" stroke="red" stroke-width="6.660000" />
<circle cx="1513.959961" cy="859.960022" r="19.980000" fill="red">
  <title>Mumbai</title>
</circle><line x1="1598.959961" y1="571.960022" x2="1513.959961" y2="859.960022" stroke="red" stroke-width="6.660000" />
<circle cx="314.959991" cy="613.960022" r="19.980000" fill="red">
  <title>Delhi</title>
</circle><line x1="1513.959961" y1="859.960022" x2="314.959991" y2="613.960022" stroke="red" stroke-width="6.660000" />
<circle cx="327.959991" cy="803.960022" r="19.980000" fill="red">
  <title>Istanbul</title>
</circle><line x1="314.959991" y1="613.960022" x2="327.959991" y2="803.960022" stroke="red" stroke-width="6.660000" />
</svg>
