<?xml version="1.0" encoding="UTF-8" standalone="no"?>
<svg width="500" height="500" viewBox="0 0 2074.000000 2074.000000" xmlns="http://www.w3.org/2000/svg">
<rect x="19.000000" y="19.000000" width="2036.000000" height="2036.000000" fill="black" />
<circle cx="1509.959961" cy="532.960022" r="19.980000" fill="red">
  <title>Tokyo</title>
</circle><line x1="1958.959961" y1="194.959991" x2="1509.959961" y2="532.960022" stroke="red" stroke-width="6.660000" />
<circle cx="2016.959961" cy="1123.959961" r="19.980000" fill="red">
  <title>Osaka</title>
</circle><line x1="1509.959961" y1="532.960022" x2="2016.959961" y2="1123.959961" stroke="red" stroke-width="6.660000" />
<circle cx="1777.959961" cy="1642.959961" r="19.980000" fill="red">
  <title>Shanghai</title>
</circle><line x1="2016.959961" y1="1123.959961" x2="1777.959961" y2="1642.959961" stroke="red" stroke-width="6.660000" />
<circle cx="1211.959961" cy="1101.959961" r="19.980000" fill="red">
  <title>Chongqing</title>
</circle><line x1="1777.959961" y1="1642.959961" x2="1211.959961" y2="1101.959961" stroke="red" stroke-width="6.660000" />
<circle cx="676.960022" cy="1560.959961" r="19.980000" fill="red">
  <title>São Paulo</title>
</circle><line x1="1211.959961" y1="1101.959961" x2="676.960022" y2="1560.959961" stroke="red" stroke-width="6.660000" />
<circle cx="479.959991" cy="1630.959961" r="19.980000" fill="red">
  <title>New York</title>
</circle><line x1="676.960022" y1="1560.959961" x2="479.959991" y2="1630.959961" stroke="red" stroke-width="6.660000" />
<circle cx="507.959991" cy="1931.959961" r="19.980000" fill="red">
  <title>Cairo</title>
</circle><line x1="479.959991" y1="1630.959961" x2="507.959991" y2="1931.959961" stroke="red" stroke-width="6.660000" />
<circle cx="51.959999" cy="1847.959961" r="19.980000" fill="red">
  <title>Beijing</title>
</circle><line x1="507.959991" y1="1931.959961" x2="51.959999" y2="1847.959961" stroke="red" stroke-width="6.660000" />
<circle cx="396.959991" cy="1454.959961" r="19.980000" fill="red">
  <title>Dhaka</title>
</circle><line x1="51.959999" y1="1847.959961" x2="396.959991" y2="1454.959961" stroke="red" stroke-width="6.660000" />
<circle cx="760.960022" cy="829.960022" r="19.980000" fill="red">
  <title>Mumbai</title>
</circle><line x1="396.959991" y1="1454.959961" x2="760.960022" y2="829.960022" stroke="red" stroke-width="6.660000" />
<circle cx="193.959991" cy="589.960022" r="19.980000" fill="red">
  <title>Mexico City</title>
</circle><line x1="760.960022" y1="829.960022" x2="193.959991" y2="589.960022" stroke="red" stroke-width="6.660000" />
<circle cx="827.960022" cy="264.959991" r="19.980000" fill="red">
  <title>Delhi</title>
</circle><line x1="193.959991" y1="589.960022" x2="827.960022" y2="264.959991" stroke="red" stroke-width="6.660000" />
<circle cx="1416.959961" cy="114.959999" r="19.980000" fill="red">
  <title>Buenos Aires</title>
</circle><line x1="827.960022" y1="264.959991" x2="1416.959961" y2="114.959999" stroke="red" stroke-width="6.660000" />
<circle cx="1958.959961" cy="194.959991" r="19.980000" fill="red">
  <title>Karachi</title>
</circle><line x1="1416.959961" y1="114.959999" x2="1958.959961" y2="194.959991" stroke="red" stroke-width="6.660000" />
</svg>
