<?xml version="1.0" encoding="UTF-8" standalone="no"?>
<svg width="500" height="500" viewBox="0 0 2074.000000 2074.000000" xmlns="http://www.w3.org/2000/svg">
<rect x="19.000000" y="19.000000" width="2036.000000" height="2036.000000" fill="black" />
<circle cx="1655.959961" cy="1312.959961" r="19.980000" fill="red">
  <title>Tokyo</title>
</circle><line x1="1369.959961" y1="987.960022" x2="1655.959961" y2="1312.959961" stroke="red" stroke-width="6.660000" />
<circle cx="1851.959961" cy="721.960022" r="19.980000" fill="red">
  <title>Shanghai</title>
</circle><line x1="1655.959961" y1="1312.959961" x2="1851.959961" y2="721.960022" stroke="red" stroke-width="6.660000" />
<circle cx="874.960022" cy="256.959991" r="19.980000" fill="red">
  <title>Mexico City</title>
</circle><line x1="1851.959961" y1="721.960022" x2="874.960022" y2="256.959991" stroke="red" stroke-width="6.660000" />
<circle cx="418.959991" cy="352.959991" r="19.980000" fill="red">
  <title>Delhi</title>
</circle><line x1="874.960022" y1="256.959991" x2="418.959991" y2="352.959991" stroke="red" stroke-width="6.660000" />
<circle cx="803.960022" cy="454.959991" r="19.980000" fill="red">
  <title>Cairo</title>
</circle><line x1="418.959991" y1="352.959991" x2="803.960022" y2="454.959991" stroke="red" stroke-width="6.660000" />
<circle cx="770.960022" cy="665.960022" r="19.980000" fill="red">
  <title>São Paulo</title>
</circle><line x1="803.960022" y1="454.959991" x2="770.960022" y2="665.960022" stroke="red" stroke-width="6.660000" />
<circle cx="1369.959961" cy="987.960022" r="19.980000" fill="red">
  <title>Mumbai</title>
</circle><line x1="770.960022" y1="665.960022" x2="1369.959961" y2="987.960022" stroke="red" stroke-width="6.660000" />
</svg>
