<?xml version="1.0" encoding="UTF-8" standalone="no"?>
<svg width="500" height="500" viewBox="0 0 2074.000000 2074.000000" xmlns="http://www.w3.org/2000/svg">
<rect x="19.000000" y="19.000000" width="2036.000000" height="2036.000000" fill="black" />
<circle cx="494.959991" cy="512.960022" r="19.980000" fill="red">
  <title>Tokyo</title>
</circle><line x1="515.960022" y1="362.959991" x2="494.959991" y2="512.960022" stroke="red" stroke-width="6.660000" />
<circle cx="589.960022" cy="616.960022" r="19.980000" fill="red">
  <title>Shanghai</title>
</circle><line x1="494.959991" y1="512.960022" x2="589.960022" y2="616.960022" stroke="red" stroke-width="6.660000" />
<circle cx="582.960022" cy="716.960022" r="19.980000" fill="red">
  <title>Beijing</title>
</circle><line x1="589.960022" y1="616.960022" x2="582.960022" y2="716.960022" stroke="red" stroke-width="6.660000" />
<circle cx="397.959991" cy="745.960022" r="19.980000" fill="red">
  <title>São Paulo</title>
</circle><line x1="582.960022" y1="716.960022" x2="397.959991" y2="745.960022" stroke="red" stroke-width="6.660000" />
<circle cx="631.960022" cy="1265.959961" r="19.980000" fill="red">
  <title>New York</title>
</circle><line x1="397.959991" y1="745.960022" x2="631.960022" y2="1265.959961" stroke="red" stroke-width="6.660000" />
<circle cx="754.960022" cy="1708.959961" r="19.980000" fill="red">
  <title>Kolkata</title>
</circle><line x1="631.960022" y1="1265.959961" x2="754.960022" y2="1708.959961" stroke="red" stroke-width="6.660000" />
<circle cx="1742.959961" cy="1745.959961" r="19.980000" fill="red">
  <title>Osaka</title>
</circle><line x1="754.960022" y1="1708.959961" x2="1742.959961" y2="1745.959961" stroke="red" stroke-width="6.660000" />
<circle cx="1855.959961" cy="1315.959961" r="19.980000" fill="red">
  <title>Delhi</title>
</circle><line x1="1742.959961" y1="1745.959961" x2="1855.959961" y2="1315.959961" stroke="red" stroke-width="6.660000" />
<circle cx="2030.959961" cy="1217.959961" r="19.980000" fill="red">
  <title>Dhaka</title>
</circle><line x1="1855.959961" y1="1315.959961" x2="2030.959961" y2="1217.959961" stroke="red" stroke-width="6.660000" />
<circle cx="1646.959961" cy="1139.959961" r="19.980000" fill="red">
  <title>Chongqing</title>
</circle><line x1="2030.959961" y1="1217.959961" x2="1646.959961" y2="1139.959961" stroke="red" stroke-width="6.660000" />
<circle cx="1253.959961" cy="810.960022" r="19.980000" fill="red">
  <title>Istanbul</title>
</circle><line x1="1646.959961" y1="1139.959961" x2="1253.959961" y2="810.960022" stroke="red" stroke-width="6.660000" />
<circle cx="1284.959961" cy="571.960022" r="19.980000" fill="red">
  <title>Manila</title>
</circle><line x1="1253.959961" y1="810.960022" x2="1284.959961" y2="571.960022" stroke="red" stroke-width="6.660000" />
<circle cx="877.960022" cy="490.959991" r="19.980000" fill="red">
  <title>Cairo</title>
</circle><line x1="1284.959961" y1="571.960022" x2="877.960022" y2="490.959991" stroke="red" stroke-width="6.660000" />
<circle cx="871.960022" cy="478.959991" r="19.980000" fill="red">
  <title>Mumbai</title>
</circle><line x1="877.960022" y1="490.959991" x2="871.960022" y2="478.959991" stroke="red" stroke-width="6.660000" />
<circle cx="564.960022" cy="249.959991" r="19.980000" fill="red">
  <title>Buenos Aires</title>
</circle><line x1="871.960022" y1="478.959991" x2="564.960022" y2="249.959991" stroke="red" stroke-width="6.660000" />
<circle cx="433.959991" cy="65.959999" r="19.980000" fill="red">
  <title>Mexico City</title>
</circle><line x1="564.960022" y1="249.959991" x2="433.959991" y2="65.959999" stroke="red" stroke-width="6.660000" />
<circle cx="515.960022" cy="362.959991" r="19.980000" fill="red">
  <title>Karachi</title>
</circle><line x1="433.959991" y1="65.959999" x2="515.960022" y2="362.959991" stroke="red" stroke-width="6.660000" />
</svg>
