<?xml version="1.0" encoding="UTF-8" standalone="no"?>
<svg width="500" height="500" viewBox="0 0 2074.000000 2074.000000" xmlns="http://www.w3.org/2000/svg">
<rect x="19.000000" y="19.000000" width="2036.000000" height="2036.000000" fill="black" />
<circle cx="1301.959961" cy="1027.959961" r="19.980000" fill="red">
  <title>Tokyo</title>
</circle><line x1="613.960022" y1="625.960022" x2="1301.959961" y2="1027.959961" stroke="red" stroke-width="6.660000" />
<circle cx="1182.959961" cy="1174.959961" r="19.980000" fill="red">
  <title>São Paulo</title>
</circle><line x1="1301.959961" y1="1027.959961" x2="1182.959961" y2="1174.959961" stroke="red" stroke-width="6.660000" />
<circle cx="873.960022" cy="1710.959961" r="19.980000" fill="red">
  <title>Delhi</title>
</circle><line x1="1182.959961" y1="1174.959961" x2="873.960022" y2="1710.959961" stroke="red" stroke-width="6.660000" />
<circle cx="1347.959961" cy="1595.959961" r="19.980000" fill="red">
  <title>Karachi</title>
</circle><line x1="873.960022" y1="1710.959961" x2="1347.959961" y2="1595.959961" stroke="red" stroke-width="6.660000" />
<circle cx="1939.959961" cy="1997.959961" r="19.980000" fill="red">
  <title>Cairo</title>
</circle><line x1="1347.959961" y1="1595.959961" x2="1939.959961" y2="1997.959961" stroke="red" stroke-width="6.660000" />
<circle cx="1627.959961" cy="972.960022" r="19.980000" fill="red">
  <title>Osaka</title>
</circle><line x1="1939.959961" y1="1997.959961" x2="1627.959961" y2="972.960022" stroke="red" stroke-width="6.660000" />
<circle cx="1796.959961" cy="643.960022" r="19.980000" fill="red">
  <title>New York</title>
</circle><line x1="1627.959961" y1="972.960022" x2="1796.959961" y2="643.960022" stroke="red" stroke-width="6.660000" />
<circle cx="1154.959961" cy="39.959999" r="19.980000" fill="red">
  <title>Mumbai</title>
</circle><line x1="1796.959961" y1="643.960022" x2="1154.959961" y2="39.959999" stroke="red" stroke-width="6.660000" />
<circle cx="1025.959961" cy="245.959991" r="19.980000" fill="red">
  <title>Beijing</title>
</circle><line x1="1154.959961" y1="39.959999" x2="1025.959961" y2="245.959991" stroke="red" stroke-width="6.660000" />
<circle cx="327.959991" cy="251.959991" r="19.980000" fill="red">
  <title>Mexico City</title>
</circle><line x1="1025.959961" y1="245.959991" x2="327.959991" y2="251.959991" stroke="red" stroke-width="6.660000" />
<circle cx="514.960022" cy="671.960022" r="19.980000" fill="red">
  <title>Shanghai</title>
</circle><line x1="327.959991" y1="251.959991" x2="514.960022" y2="671.960022" stroke="red" stroke-width="6.660000" />
<circle cx="613.960022" cy="625.960022" r="19.980000" fill="red">
  <title>Dhaka</title>
</circle><line x1="514.960022" y1="671.960022" x2="613.960022" y2="625.960022" stroke="red" stroke-width="6.660000" />
</svg>
