<?xml version="1.0" encoding="UTF-8" standalone="no"?>
<svg width="500" height="500" viewBox="0 0 2074.000000 2074.000000" xmlns="http://www.w3.org/2000/svg">
<rect x="19.000000" y="19.000000" width="2036.000000" height="2036.000000" fill="black" />
<circle cx="943.960022" cy="469.959991" r="19.980000" fill="red">
  <title>Tokyo</title>
</circle><line x1="813.960022" y1="562.960022" x2="943.960022" y2="469.959991" stroke="red" stroke-width="6.660000" />
<circle cx="1228.959961" cy="783.960022" r="19.980000" fill="red">
  <title>Shanghai</title>
</circle><line x1="943.960022" y1="469.959991" x2="1228.959961" y2="783.960022" stroke="red" stroke-width="6.660000" />
<circle cx="1185.959961" cy="983.960022" r="19.980000" fill="red">
  <title>Osaka</title>
</circle><line x1="1228.959961" y1="783.960022" x2="1185.959961" y2="983.960022" stroke="red" stroke-width="6.660000" />
<circle cx="1775.959961" cy="1388.959961" r="19.980000" fill="red">
  <title>Manila</title>
</circle><line x1="1185.959961" y1="983.960022" x2="1775.959961" y2="1388.959961" stroke="red" stroke-width="6.660000" />
<circle cx="1654.959961" cy="1913.959961" r="19.980000" fill="red">
  <title>Mexico City</title>
</circle><line x1="1775.959961" y1="1388.959961" x2="1654.959961" y2="1913.959961" stroke="red" stroke-width="6.660000" />
<circle cx="1600.959961" cy="1727.959961" r="19.980000" fill="red">
  <title>Delhi</title>
</circle><line x1="1654.959961" y1="1913.959961" x2="1600.959961" y2="1727.959961" stroke="red" stroke-width="6.660000" />
<circle cx="1815.959961" cy="1344.959961" r="19.980000" fill="red">
  <title>Istanbul</title>
</circle><line x1="1600.959961" y1="1727.959961" x2="1815.959961" y2="1344.959961" stroke="red" stroke-width="6.660000" />
<circle cx="1999.959961" cy="708.960022" r="19.980000" fill="red">
  <title>Karachi</title>
</circle><line x1="1815.959961" y1="1344.959961" x2="1999.959961" y2="708.960022" stroke="red" stroke-width="6.660000" />
<circle cx="1826.959961" cy="721.960022" r="19.980000" fill="red">
  <title>Kolkata</title>
</circle><line x1="1999.959961" y1="708.960022" x2="1826.959961" y2="721.960022" stroke="red" stroke-width="6.660000" />
<circle cx="1461.959961" cy="135.959991" r="19.980000" fill="red">
  <title>Beijing</title>
</circle><line x1="1826.959961" y1="721.960022" x2="1461.959961" y2="135.959991" stroke="red" stroke-width="6.660000" />
<circle cx="1277.959961" cy="79.959999" r="19.980000" fill="red">
  <title>Chongqing</title>
</circle><line x1="1461.959961" y1="135.959991" x2="1277.959961" y2="79.959999" stroke="red" stroke-width="6.660000" />
<circle cx="1208.959961" cy="47.959999" r="19.980000" fill="red">
  <title>New York</title>
</circle><line x1="1277.959961" y1="79.959999" x2="1208.959961" y2="47.959999" stroke="red" stroke-width="6.660000" />
<circle cx="881.960022" cy="78.959999" r="19.980000" fill="red">
  <title>Buenos Aires</title>
</circle><line x1="1208.959961" y1="47.959999" x2="881.960022" y2="78.959999" stroke="red" stroke-width="6.660000" />
<circle cx="398.959991" cy="222.959991" r="19.980000" fill="red">
  <title>Mumbai</title>
</circle><line x1="881.960022" y1="78.959999" x2="398.959991" y2="222.959991" stroke="red" stroke-width="6.660000" />
<circle cx="162.959991" cy="363.959991" r="19.980000" fill="red">
  <title>Dhaka</title>
</circle><line x1="398.959991" y1="222.959991" x2="162.959991" y2="363.959991" stroke="red" stroke-width="6.660000" />
<circle cx="405.959991" cy="418.959991" r="19.980000" fill="red">
  <title>Cairo</title>
</circle><line x1="162.959991" y1="363.959991" x2="405.959991" y2="418.959991" stroke="red" stroke-width="6.660000" />
<circle cx="411.959991" cy="965.960022" r="19.980000" fill="red">
  <title>Lagos</title>
</circle><line x1="405.959991" y1="418.959991" x2="411.959991" y2="965.960022" stroke="red" stroke-width="6.660000" />
<circle cx="813.960022" cy="562.960022" r="19.980000" fill="red">
  <title>São Paulo</title>
</circle><line x1="411.959991" y1="965.960022" x2="813.960022" y2="562.960022" stroke="red" stroke-width="6.660000" />
</svg>
