<?xml version="1.0" encoding="UTF-8" standalone="no"?>
<svg width="500" height="500" viewBox="0 0 2074.000000 2074.000000" xmlns="http://www.w3.org/2000/svg">
<rect x="19.000000" y="19.000000" width="2036.000000" height="2036.000000" fill="black" />
<circle cx="841.960022" cy="749.960022" r="19.980000" fill="red">
  <title>Tokyo</title>
</circle><line x1="1131.959961" y1="842.960022" x2="841.960022" y2="749.960022" stroke="red" stroke-width="6.660000" />
<circle cx="535.960022" cy="784.960022" r="19.980000" fill="red">
  <title>Delhi</title>
</circle><line x1="841.960022" y1="749.960022" x2="535.960022" y2="784.960022" stroke="red" stroke-width="6.660000" />
<circle cx="620.960022" cy="850.960022" r="19.980000" fill="red">
  <title>Shanghai</title>
</circle><line x1="535.960022" y1="784.960022" x2="620.960022" y2="850.960022" stroke="red" stroke-width="6.660000" />
<circle cx="1131.959961" cy="842.960022" r="19.980000" fill="red">
  <title>São Paulo</title>
</circle><line x1="620.960022" y1="850.960022" x2="1131.959961" y2="842.960022" stroke="red" stroke-width="6.660000" />
</svg>
