<?xml version="1.0" encoding="UTF-8" standalone="no"?>
<svg width="500" height="500" viewBox="0 0 2074.000000 2074.000000" xmlns="http://www.w3.org/2000/svg">
<rect x="19.000000" y="19.000000" width="2036.000000" height="2036.000000" fill="black" />
<circle cx="1934.959961" cy="1610.959961" r="19.980000" fill="red">
  <title>Tokyo</title>
</circle><line x1="1755.959961" y1="1603.959961" x2="1934.959961" y2="1610.959961" stroke="red" stroke-width="6.660000" />
<circle cx="1791.959961" cy="2035.959961" r="19.980000" fill="red">
  <title>Dhaka</title>
</circle><line x1="1934.959961" y1="1610.959961" x2="1791.959961" y2="2035.959961" stroke="red" stroke-width="6.660000" />
<circle cx="1324.959961" cy="1819.959961" r="19.980000" fill="red">
  <title>Delhi</title>
</circle><line x1="1791.959961" y1="2035.959961" x2="1324.959961" y2="1819.959961" stroke="red" stroke-width="6.660000" />
<circle cx="958.960022" cy="2009.959961" r="19.980000" fill="red">
  <title>Mexico City</title>
</circle><line x1="1324.959961" y1="1819.959961" x2="958.960022" y2="2009.959961" stroke="red" stroke-width="6.660000" />
<circle cx="927.960022" cy="1952.959961" r="19.980000" fill="red">
  <title>Istanbul</title>
</circle><line x1="958.960022" y1="2009.959961" x2="927.960022" y2="1952.959961" stroke="red" stroke-width="6.660000" />
<circle cx="301.959991" cy="2010.959961" r="19.980000" fill="red">
  <title>Karachi</title>
</circle><line x1="927.960022" y1="1952.959961" x2="301.959991" y2="2010.959961" stroke="red" stroke-width="6.660000" />
<circle cx="186.959991" cy="1726.959961" r="19.980000" fill="red">
  <title>Mumbai</title>
</circle><line x1="301.959991" y1="2010.959961" x2="186.959991" y2="1726.959961" stroke="red" stroke-width="6.660000" />
<circle cx="228.959991" cy="1047.959961" r="19.980000" fill="red">
  <title>Shanghai</title>
</circle><line x1="186.959991" y1="1726.959961" x2="228.959991" y2="1047.959961" stroke="red" stroke-width="6.660000" />
<circle cx="368.959991" cy="890.960022" r="19.980000" fill="red">
  <title>Chongqing</title>
</circle><line x1="228.959991" y1="1047.959961" x2="368.959991" y2="890.960022" stroke="red" stroke-width="6.660000" />
<circle cx="241.959991" cy="129.959991" r="19.980000" fill="red">
  <title>Osaka</title>
</circle><line x1="368.959991" y1="890.960022" x2="241.959991" y2="129.959991" stroke="red" stroke-width="6.660000" />
<circle cx="537.960022" cy="44.959999" r="19.980000" fill="red">
  <title>Beijing</title>
</circle><line x1="241.959991" y1="129.959991" x2="537.960022" y2="44.959999" stroke="red" stroke-width="6.660000" />
<circle cx="1033.959961" cy="55.959999" r="19.980000" fill="red">
  <title>Buenos Aires</title>
</circle><line x1="537.960022" y1="44.959999" x2="1033.959961" y2="55.959999" stroke="red" stroke-width="6.660000" />
<circle cx="1701.959961" cy="195.959991" r="19.980000" fill="red">
  <title>São Paulo</title>
</circle><line x1="1033.959961" y1="55.959999" x2="1701.959961" y2="195.959991" stroke="red" stroke-width="6.660000" />
<circle cx="1848.959961" cy="539.960022" r="19.980000" fill="red">
  <title>New York</title>
</circle><line x1="1701.959961" y1="195.959991" x2="1848.959961" y2="539.960022" stroke="red" stroke-width="6.660000" />
<circle cx="1755.959961" cy="1603.959961" r="19.980000" fill="red">
  <title>Cairo</title>
</circle><line x1="1848.959961" y1="539.960022" x2="1755.959961" y2="1603.959961" stroke="red" stroke-width="6.660000" />
</svg>
