<?xml version="1.0" encoding="UTF-8" standalone="no"?>
<svg width="500" height="500" viewBox="0 0 2074.000000 2074.000000" xmlns="http://www.w3.org/2000/svg">
<rect x="19.000000" y="19.000000" width="2036.000000" height="2036.000000" fill="black" />
<circle cx="1436.959961" cy="1402.959961" r="19.980000" fill="red">
  <title>Tokyo</title>
</circle><line x1="671.960022" y1="1592.959961" x2="1436.959961" y2="1402.959961" stroke="red" stroke-width="6.660000" />
<circle cx="1572.959961" cy="1536.959961" r="19.980000" fill="red">
  <title>Beijing</title>
</circle><line x1="1436.959961" y1="1402.959961" x2="1572.959961" y2="1536.959961" stroke="red" stroke-width="6.660000" />
<circle cx="1686.959961" cy="1441.959961" r="19.980000" fill="red">
  <title>Karachi</title>
</circle><line x1="1572.959961" y1="1536.959961" x2="1686.959961" y2="1441.959961" stroke="red" stroke-width="6.660000" />
<circle cx="1697.959961" cy="1164.959961" r="19.980000" fill="red">
  <title>Osaka</title>
</circle><line x1="1686.959961" y1="1441.959961" x2="1697.959961" y2="1164.959961" stroke="red" stroke-width="6.660000" />
<circle cx="1783.959961" cy="614.960022" r="19.980000" fill="red">
  <title>New York</title>
</circle><line x1="1697.959961" y1="1164.959961" x2="1783.959961" y2="614.960022" stroke="red" stroke-width="6.660000" />
<circle cx="1952.959961" cy="347.959991" r="19.980000" fill="red">
  <title>Chongqing</title>
</circle><line x1="1783.959961" y1="614.960022" x2="1952.959961" y2="347.959991" stroke="red" stroke-width="6.660000" />
<circle cx="1271.959961" cy="441.959991" r="19.980000" fill="red">
  <title>Mexico City</title>
</circle><line x1="1952.959961" y1="347.959991" x2="1271.959961" y2="441.959991" stroke="red" stroke-width="6.660000" />
<circle cx="1041.959961" cy="354.959991" r="19.980000" fill="red">
  <title>Mumbai</title>
</circle><line x1="1271.959961" y1="441.959991" x2="1041.959961" y2="354.959991" stroke="red" stroke-width="6.660000" />
<circle cx="976.960022" cy="182.959991" r="19.980000" fill="red">
  <title>Buenos Aires</title>
</circle><line x1="1041.959961" y1="354.959991" x2="976.960022" y2="182.959991" stroke="red" stroke-width="6.660000" />
<circle cx="258.959991" cy="85.959999" r="19.980000" fill="red">
  <title>São Paulo</title>
</circle><line x1="976.960022" y1="182.959991" x2="258.959991" y2="85.959999" stroke="red" stroke-width="6.660000" />
<circle cx="732.960022" cy="757.960022" r="19.980000" fill="red">
  <title>Shanghai</title>
</circle><line x1="258.959991" y1="85.959999" x2="732.960022" y2="757.960022" stroke="red" stroke-width="6.660000" />
<circle cx="1034.959961" cy="796.960022" r="19.980000" fill="red">
  <title>Cairo</title>
</circle><line x1="732.960022" y1="757.960022" x2="1034.959961" y2="796.960022" stroke="red" stroke-width="6.660000" />
<circle cx="587.960022" cy="1035.959961" r="19.980000" fill="red">
  <title>Delhi</title>
</circle><line x1="1034.959961" y1="796.960022" x2="587.960022" y2="1035.959961" stroke="red" stroke-width="6.660000" />
<circle cx="640.960022" cy="1411.959961" r="19.980000" fill="red">
  <title>Dhaka</title>
</circle><line x1="587.960022" y1="1035.959961" x2="640.960022" y2="1411.959961" stroke="red" stroke-width="6.660000" />
<circle cx="671.960022" cy="1592.959961" r="19.980000" fill="red">
  <title>Istanbul</title>
</circle><line x1="640.960022" y1="1411.959961" x2="671.960022" y2="1592.959961" stroke="red" stroke-width="6.660000" />
</svg>
