<?xml version="1.0" encoding="UTF-8" standalone="no"?>
<svg width="500" height="500" viewBox="0 0 2074.000000 2074.000000" xmlns="http://www.w3.org/2000/svg">
<rect x="19.000000" y="19.000000" width="2036.000000" height="2036.000000" fill="black" />
<circle cx="1331.959961" cy="362.959991" r="19.980000" fill="red">
  <title>Tokyo</title>
</circle><line x1="894.960022" y1="275.959991" x2="1331.959961" y2="362.959991" stroke="red" stroke-width="6.660000" />
<circle cx="1733.959961" cy="550.960022" r="19.980000" fill="red">
  <title>São Paulo</title>
</circle><line x1="1331.959961" y1="362.959991" x2="1733.959961" y2="550.960022" stroke="red" stroke-width="6.660000" />
<circle cx="1929.959961" cy="1525.959961" r="19.980000" fill="red">
  <title>Delhi</title>
</circle><line x1="1733.959961" y1="550.960022" x2="1929.959961" y2="1525.959961" stroke="red" stroke-width="6.660000" />
<circle cx="1639.959961" cy="1686.959961" r="19.980000" fill="red">
  <title>Dhaka</title>
</circle><line x1="1929.959961" y1="1525.959961" x2="1639.959961" y2="1686.959961" stroke="red" stroke-width="6.660000" />
<circle cx="242.959991" cy="1993.959961" r="19.980000" fill="red">
  <title>Beijing</title>
</circle><line x1="1639.959961" y1="1686.959961" x2="242.959991" y2="1993.959961" stroke="red" stroke-width="6.660000" />
<circle cx="170.959991" cy="1488.959961" r="19.980000" fill="red">
  <title>Shanghai</title>
</circle><line x1="242.959991" y1="1993.959961" x2="170.959991" y2="1488.959961" stroke="red" stroke-width="6.660000" />
<circle cx="590.960022" cy="499.959991" r="19.980000" fill="red">
  <title>Cairo</title>
</circle><line x1="170.959991" y1="1488.959961" x2="590.960022" y2="499.959991" stroke="red" stroke-width="6.660000" />
<circle cx="619.960022" cy="321.959991" r="19.980000" fill="red">
  <title>Mumbai</title>
</circle><line x1="590.960022" y1="499.959991" x2="619.960022" y2="321.959991" stroke="red" stroke-width="6.660000" />
<circle cx="894.960022" cy="275.959991" r="19.980000" fill="red">
  <title>Mexico City</title>
</circle><line x1="619.960022" y1="321.959991" x2="894.960022" y2="275.959991" stroke="red" stroke-width="6.660000" />
</svg>
