<?xml version="1.0" encoding="UTF-8" standalone="no"?>
<svg width="500" height="500" viewBox="0 0 2074.000000 2074.000000" xmlns="http://www.w3.org/2000/svg">
<rect x="19.000000" y="19.000000" width="2036.000000" height="2036.000000" fill="black" />
<circle cx="1867.959961" cy="1536.959961" r="19.980000" fill="red">
  <title>Tokyo</title>
</circle><line x1="693.960022" y1="1205.959961" x2="1867.959961" y2="1536.959961" stroke="red" stroke-width="6.660000" />
<circle cx="846.960022" cy="781.960022" r="19.980000" fill="red">
  <title>Delhi</title>
</circle><line x1="1867.959961" y1="1536.959961" x2="846.960022" y2="781.960022" stroke="red" stroke-width="6.660000" />
<circle cx="372.959991" cy="506.959991" r="19.980000" fill="red">
  <title>Cairo</title>
</circle><line x1="846.960022" y1="781.960022" x2="372.959991" y2="506.959991" stroke="red" stroke-width="6.660000" />
<circle cx="351.959991" cy="472.959991" r="19.980000" fill="red">
  <title>Mexico City</title>
</circle><line x1="372.959991" y1="506.959991" x2="351.959991" y2="472.959991" stroke="red" stroke-width="6.660000" />
<circle cx="60.959999" cy="719.960022" r="19.980000" fill="red">
  <title>São Paulo</title>
</circle><line x1="351.959991" y1="472.959991" x2="60.959999" y2="719.960022" stroke="red" stroke-width="6.660000" />
<circle cx="693.960022" cy="1205.959961" r="19.980000" fill="red">
  <title>Shanghai</title>
</circle><line x1="60.959999" y1="719.960022" x2="693.960022" y2="1205.959961" stroke="red" stroke-width="6.660000" />
</svg>
