<?xml version="1.0" encoding="UTF-8" standalone="no"?>
<svg width="500" height="500" viewBox="0 0 2074.000000 2074.000000" xmlns="http://www.w3.org/2000/svg">
<rect x="19.000000" y="19.000000" width="2036.000000" height="2036.000000" fill="black" />
<circle cx="1739.959961" cy="583.960022" r="19.980000" fill="red">
  <title>Tokyo</title>
</circle><line x1="1622.959961" y1="587.960022" x2="1739.959961" y2="583.960022" stroke="red" stroke-width="6.660000" />
<circle cx="1903.959961" cy="562.960022" r="19.980000" fill="red">
  <title>Beijing</title>
</circle><line x1="1739.959961" y1="583.960022" x2="1903.959961" y2="562.960022" stroke="red" stroke-width="6.660000" />
<circle cx="1861.959961" cy="612.960022" r="19.980000" fill="red">
  <title>Buenos Aires</title>
</circle><line x1="1903.959961" y1="562.960022" x2="1861.959961" y2="612.960022" stroke="red" stroke-width="6.660000" />
<circle cx="1951.959961" cy="1076.959961" r="19.980000" fill="red">
  <title>Mumbai</title>
</circle><line x1="1861.959961" y1="612.960022" x2="1951.959961" y2="1076.959961" stroke="red" stroke-width="6.660000" />
<circle cx="1552.959961" cy="1074.959961" r="19.980000" fill="red">
  <title>Chongqing</title>
</circle><line x1="1951.959961" y1="1076.959961" x2="1552.959961" y2="1074.959961" stroke="red" stroke-width="6.660000" />
<circle cx="1529.959961" cy="1765.959961" r="19.980000" fill="red">
  <title>Karachi</title>
</circle><line x1="1552.959961" y1="1074.959961" x2="1529.959961" y2="1765.959961" stroke="red" stroke-width="6.660000" />
<circle cx="811.960022" cy="1805.959961" r="19.980000" fill="red">
  <title>Shanghai</title>
</circle><line x1="1529.959961" y1="1765.959961" x2="811.960022" y2="1805.959961" stroke="red" stroke-width="6.660000" />
<circle cx="559.960022" cy="1782.959961" r="19.980000" fill="red">
  <title>Osaka</title>
</circle><line x1="811.960022" y1="1805.959961" x2="559.960022" y2="1782.959961" stroke="red" stroke-width="6.660000" />
<circle cx="564.960022" cy="1323.959961" r="19.980000" fill="red">
  <title>Kolkata</title>
</circle><line x1="559.960022" y1="1782.959961" x2="564.960022" y2="1323.959961" stroke="red" stroke-width="6.660000" />
<circle cx="633.960022" cy="1423.959961" r="19.980000" fill="red">
  <title>Mexico City</title>
</circle><line x1="564.960022" y1="1323.959961" x2="633.960022" y2="1423.959961" stroke="red" stroke-width="6.660000" />
<circle cx="1292.959961" cy="1308.959961" r="19.980000" fill="red">
  <title>Cairo</title>
</circle><line x1="633.960022" y1="1423.959961" x2="1292.959961" y2="1308.959961" stroke="red" stroke-width="6.660000" />
<circle cx="1461.959961" cy="971.960022" r="19.980000" fill="red">
  <title>Delhi</title>
</circle><line x1="1292.959961" y1="1308.959961" x2="1461.959961" y2="971.960022" stroke="red" stroke-width="6.660000" />
<circle cx="1563.959961" cy="713.960022" r="19.980000" fill="red">
  <title>Dhaka</title>
</circle><line x1="1461.959961" y1="971.960022" x2="1563.959961" y2="713.960022" stroke="red" stroke-width="6.660000" />
<circle cx="1060.959961" cy="373.959991" r="19.980000" fill="red">
  <title>New York</title>
</circle><line x1="1563.959961" y1="713.960022" x2="1060.959961" y2="373.959991" stroke="red" stroke-width="6.660000" />
<circle cx="1557.959961" cy="436.959991" r="19.980000" fill="red">
  <title>São Paulo</title>
</circle><line x1="1060.959961" y1="373.959991" x2="1557.959961" y2="436.959991" stroke="red" stroke-width="6.660000" />
<circle cx="1622.959961" cy="587.960022" r="19.980000" fill="red">
  <title>Istanbul</title>
</circle><line x1="1557.959961" y1="436.959991" x2="1622.959961" y2="587.960022" stroke="red" stroke-width="6.660000" />
</svg>
