<?xml version="1.0" encoding="UTF-8" standalone="no"?>
<svg width="500" height="500" viewBox="0 0 2074.000000 2074.000000" xmlns="http://www.w3.org/2000/svg">
<rect x="19.000000" y="19.000000" width="2036.000000" height="2036.000000" fill="black" />
<circle cx="252.959991" cy="1806.959961" r="19.980000" fill="red">
  <title>Tokyo</title>
</circle><line x1="1160.959961" y1="1512.959961" x2="252.959991" y2="1806.959961" stroke="red" stroke-width="6.660000" />
<circle cx="787.960022" cy="1420.959961" r="19.980000" fill="red">
  <title>Shanghai</title>
</circle><line x1="252.959991" y1="1806.959961" x2="787.960022" y2="1420.959961" stroke="red" stroke-width="6.660000" />
<circle cx="1366.959961" cy="999.960022" r="19.980000" fill="red">
  <title>Delhi</title>
</circle><line x1="787.960022" y1="1420.959961" x2="1366.959961" y2="999.960022" stroke="red" stroke-width="6.660000" />
<circle cx="1160.959961" cy="1512.959961" r="19.980000" fill="red">
  <title>São Paulo</title>
</circle><line x1="1366.959961" y1="999.960022" x2="1160.959961" y2="1512.959961" stroke="red" stroke-width="6.660000" />
</svg>
