<?xml version="1.0" encoding="UTF-8" standalone="no"?>
<svg width="500" height="500" viewBox="0 0 2074.000000 2074.000000" xmlns="http://www.w3.org/2000/svg">
<rect x="19.000000" y="19.000000" width="2036.000000" height="2036.000000" fill="black" />
<circle cx="1757.959961" cy="468.959991" r="19.980000" fill="red">
  <title>Tokyo</title>
</circle><line x1="1223.959961" y1="843.960022" x2="1757.959961" y2="468.959991" stroke="red" stroke-width="6.660000" />
<circle cx="1683.959961" cy="172.959991" r="19.980000" fill="red">
  <title>Delhi</title>
</circle><line x1="1757.959961" y1="468.959991" x2="1683.959961" y2="172.959991" stroke="red" stroke-width="6.660000" />
<circle cx="1092.959961" cy="107.959999" r="19.980000" fill="red">
  <title>Shanghai</title>
</circle><line x1="1683.959961" y1="172.959991" x2="1092.959961" y2="107.959999" stroke="red" stroke-width="6.660000" />
<circle cx="959.960022" cy="371.959991" r="19.980000" fill="red">
  <title>Osaka</title>
</circle><line x1="1092.959961" y1="107.959999" x2="959.960022" y2="371.959991" stroke="red" stroke-width="6.660000" />
<circle cx="825.960022" cy="497.959991" r="19.980000" fill="red">
  <title>Manila</title>
</circle><line x1="959.960022" y1="371.959991" x2="825.960022" y2="497.959991" stroke="red" stroke-width="6.660000" />
<circle cx="288.959991" cy="545.960022" r="19.980000" fill="red">
  <title>Beijing</title>
</circle><line x1="825.960022" y1="497.959991" x2="288.959991" y2="545.960022" stroke="red" stroke-width="6.660000" />
<circle cx="223.959991" cy="396.959991" r="19.980000" fill="red">
  <title>Istanbul</title>
</circle><line x1="288.959991" y1="545.960022" x2="223.959991" y2="396.959991" stroke="red" stroke-width="6.660000" />
<circle cx="134.959991" cy="621.960022" r="19.980000" fill="red">
  <title>New York</title>
</circle><line x1="223.959991" y1="396.959991" x2="134.959991" y2="621.960022" stroke="red" stroke-width="6.660000" />
<circle cx="404.959991" cy="893.960022" r="19.980000" fill="red">
  <title>Mumbai</title>
</circle><line x1="134.959991" y1="621.960022" x2="404.959991" y2="893.960022" stroke="red" stroke-width="6.660000" />
<circle cx="605.960022" cy="1026.959961" r="19.980000" fill="red">
  <title>Cairo</title>
</circle><line x1="404.959991" y1="893.960022" x2="605.960022" y2="1026.959961" stroke="red" stroke-width="6.660000" />
<circle cx="738.960022" cy="1225.959961" r="19.980000" fill="red">
  <title>Dhaka</title>
</circle><line x1="605.960022" y1="1026.959961" x2="738.960022" y2="1225.959961" stroke="red" stroke-width="6.660000" />
<circle cx="532.960022" cy="1943.959961" r="19.980000" fill="red">
  <title>Mexico City</title>
</circle><line x1="738.960022" y1="1225.959961" x2="532.960022" y2="1943.959961" stroke="red" stroke-width="6.660000" />
<circle cx="852.960022" cy="1941.959961" r="19.980000" fill="red">
  <title>Kolkata</title>
</circle><line x1="532.960022" y1="1943.959961" x2="852.960022" y2="1941.959961" stroke="red" stroke-width="6.660000" />
<circle cx="1671.959961" cy="2007.959961" r="19.980000" fill="red">
  <title>Buenos Aires</title>
</circle><line x1="852.960022" y1="1941.959961" x2="1671.959961" y2="2007.959961" stroke="red" stroke-width="6.660000" />
<circle cx="1514.959961" cy="1616.959961" r="19.980000" fill="red">
  <title>Karachi</title>
</circle><line x1="1671.959961" y1="2007.959961" x2="1514.959961" y2="1616.959961" stroke="red" stroke-width="6.660000" />
<circle cx="1121.959961" cy="1225.959961" r="19.980000" fill="red">
  <title>Chongqing</title>
</circle><line x1="1514.959961" y1="1616.959961" x2="1121.959961" y2="1225.959961" stroke="red" stroke-width="6.660000" />
<circle cx="1223.959961" cy="843.960022" r="19.980000" fill="red">
  <title>São Paulo</title>
</circle><line x1="1121.959961" y1="1225.959961" x2="1223.959961" y2="843.960022" stroke="red" stroke-width="6.660000" />
</svg>
