<?xml version="1.0" encoding="UTF-8" standalone="no"?>
<svg width="500" height="500" viewBox="0 0 2074.000000 2074.000000" xmlns="http://www.w3.org/2000/svg">
<rect x="19.000000" y="19.000000" width="2036.000000" height="2036.000000" fill="black" />
<circle cx="844.960022" cy="1026.959961" r="19.980000" fill="red">
  <title>Tokyo</title>
</circle><line x1="943.960022" y1="1320.959961" x2="844.960022" y2="1026.959961" stroke="red" stroke-width="6.660000" />
<circle cx="735.960022" cy="888.960022" r="19.980000" fill="red">
  <title>Cairo</title>
</circle><line x1="844.960022" y1="1026.959961" x2="735.960022" y2="888.960022" stroke="red" stroke-width="6.660000" />
<circle cx="1362.959961" cy="428.959991" r="19.980000" fill="red">
  <title>Tianjin</title>
</circle><line x1="735.960022" y1="888.960022" x2="1362.959961" y2="428.959991" stroke="red" stroke-width="6.660000" />
<circle cx="1579.959961" cy="225.959991" r="19.980000" fill="red">
  <title>Karachi</title>
</circle><line x1="1362.959961" y1="428.959991" x2="1579.959961" y2="225.959991" stroke="red" stroke-width="6.660000" />
<circle cx="1841.959961" cy="403.959991" r="19.980000" fill="red">
  <title>New York</title>
</circle><line x1="1579.959961" y1="225.959991" x2="1841.959961" y2="403.959991" stroke="red" stroke-width="6.660000" />
<circle cx="1853.959961" cy="447.959991" r="19.980000" fill="red">
  <title>Istanbul</title>
</circle><line x1="1841.959961" y1="403.959991" x2="1853.959961" y2="447.959991" stroke="red" stroke-width="6.660000" />
<circle cx="1741.959961" cy="659.960022" r="19.980000" fill="red">
  <title>Kolkata</title>
</circle><line x1="1853.959961" y1="447.959991" x2="1741.959961" y2="659.960022" stroke="red" stroke-width="6.660000" />
<circle cx="1501.959961" cy="831.960022" r="19.980000" fill="red">
  <title>Osaka</title>
</circle><line x1="1741.959961" y1="659.960022" x2="1501.959961" y2="831.960022" stroke="red" stroke-width="6.660000" />
<circle cx="1434.959961" cy="1339.959961" r="19.980000" fill="red">
  <title>Manila</title>
</circle><line x1="1501.959961" y1="831.960022" x2="1434.959961" y2="1339.959961" stroke="red" stroke-width="6.660000" />
<circle cx="1793.959961" cy="1524.959961" r="19.980000" fill="red">
  <title>Buenos Aires</title>
</circle><line x1="1434.959961" y1="1339.959961" x2="1793.959961" y2="1524.959961" stroke="red" stroke-width="6.660000" />
<circle cx="1913.959961" cy="1678.959961" r="19.980000" fill="red">
  <title>Mexico City</title>
</circle><line x1="1793.959961" y1="1524.959961" x2="1913.959961" y2="1678.959961" stroke="red" stroke-width="6.660000" />
<circle cx="1988.959961" cy="1801.959961" r="19.980000" fill="red">
  <title>Chongqing</title>
</circle><line x1="1913.959961" y1="1678.959961" x2="1988.959961" y2="1801.959961" stroke="red" stroke-width="6.660000" />
<circle cx="1635.959961" cy="1814.959961" r="19.980000" fill="red">
  <title>Delhi</title>
</circle><line x1="1988.959961" y1="1801.959961" x2="1635.959961" y2="1814.959961" stroke="red" stroke-width="6.660000" />
<circle cx="1351.959961" cy="1803.959961" r="19.980000" fill="red">
  <title>São Paulo</title>
</circle><line x1="1635.959961" y1="1814.959961" x2="1351.959961" y2="1803.959961" stroke="red" stroke-width="6.660000" />
<circle cx="1201.959961" cy="2028.959961" r="19.980000" fill="red">
  <title>Dhaka</title>
</circle><line x1="1351.959961" y1="1803.959961" x2="1201.959961" y2="2028.959961" stroke="red" stroke-width="6.660000" />
<circle cx="553.960022" cy="1748.959961" r="19.980000" fill="red">
  <title>Rio de Janeiro</title>
</circle><line x1="1201.959961" y1="2028.959961" x2="553.960022" y2="1748.959961" stroke="red" stroke-width="6.660000" />
<circle cx="435.959991" cy="1597.959961" r="19.980000" fill="red">
  <title>Lagos</title>
</circle><line x1="553.960022" y1="1748.959961" x2="435.959991" y2="1597.959961" stroke="red" stroke-width="6.660000" />
<circle cx="201.959991" cy="1252.959961" r="19.980000" fill="red">
  <title>Shanghai</title>
</circle><line x1="435.959991" y1="1597.959961" x2="201.959991" y2="1252.959961" stroke="red" stroke-width="6.660000" />
<circle cx="424.959991" cy="1483.959961" r="19.980000" fill="red">
  <title>Mumbai</title>
</circle><line x1="201.959991" y1="1252.959961" x2="424.959991" y2="1483.959961" stroke="red" stroke-width="6.660000" />
<circle cx="943.960022" cy="1320.959961" r="19.980000" fill="red">
  <title>Beijing</title>
</circle><line x1="424.959991" y1="1483.959961" x2="943.960022" y2="1320.959961" stroke="red" stroke-width="6.660000" />
</svg>
