<?xml version="1.0" encoding="UTF-8" standalone="no"?>
<svg width="500" height="500" viewBox="0 0 2074.000000 2074.000000" xmlns="http://www.w3.org/2000/svg">
<rect x="19.000000" y="19.000000" width="2036.000000" height="2036.000000" fill="black" />
<circle cx="265.959991" cy="555.960022" r="19.980000" fill="red">
  <title>Tokyo</title>
</circle><line x1="43.959999" y1="169.959991" x2="265.959991" y2="555.960022" stroke="red" stroke-width="6.660000" />
<circle cx="666.960022" cy="456.959991" r="19.980000" fill="red">
  <title>Osaka</title>
</circle><line x1="265.959991" y1="555.960022" x2="666.960022" y2="456.959991" stroke="red" stroke-width="6.660000" />
<circle cx="848.960022" cy="969.960022" r="19.980000" fill="red">
  <title>Mumbai</title>
</circle><line x1="666.960022" y1="456.959991" x2="848.960022" y2="969.960022" stroke="red" stroke-width="6.660000" />
<circle cx="814.960022" cy="1230.959961" r="19.980000" fill="red">
  <title>Cairo</title>
</circle><line x1="848.960022" y1="969.960022" x2="814.960022" y2="1230.959961" stroke="red" stroke-width="6.660000" />
<circle cx="446.959991" cy="1475.959961" r="19.980000" fill="red">
  <title>Chongqing</title>
</circle><line x1="814.960022" y1="1230.959961" x2="446.959991" y2="1475.959961" stroke="red" stroke-width="6.660000" />
<circle cx="160.959991" cy="1770.959961" r="19.980000" fill="red">
  <title>Manila</title>
</circle><line x1="446.959991" y1="1475.959961" x2="160.959991" y2="1770.959961" stroke="red" stroke-width="6.660000" />
<circle cx="791.960022" cy="1705.959961" r="19.980000" fill="red">
  <title>Karachi</title>
</circle><line x1="160.959991" y1="1770.959961" x2="791.960022" y2="1705.959961" stroke="red" stroke-width="6.660000" />
<circle cx="890.960022" cy="1792.959961" r="19.980000" fill="red">
  <title>New York</title>
</circle><line x1="791.960022" y1="1705.959961" x2="890.960022" y2="1792.959961" stroke="red" stroke-width="6.660000" />
<circle cx="1236.959961" cy="1643.959961" r="19.980000" fill="red">
  <title>Istanbul</title>
</circle><line x1="890.960022" y1="1792.959961" x2="1236.959961" y2="1643.959961" stroke="red" stroke-width="6.660000" />
<circle cx="1204.959961" cy="1463.959961" r="19.980000" fill="red">
  <title>Kolkata</title>
</circle><line x1="1236.959961" y1="1643.959961" x2="1204.959961" y2="1463.959961" stroke="red" stroke-width="6.660000" />
<circle cx="1476.959961" cy="1551.959961" r="19.980000" fill="red">
  <title>Lagos</title>
</circle><line x1="1204.959961" y1="1463.959961" x2="1476.959961" y2="1551.959961" stroke="red" stroke-width="6.660000" />
<circle cx="1603.959961" cy="1157.959961" r="19.980000" fill="red">
  <title>Dhaka</title>
</circle><line x1="1476.959961" y1="1551.959961" x2="1603.959961" y2="1157.959961" stroke="red" stroke-width="6.660000" />
<circle cx="1422.959961" cy="509.959991" r="19.980000" fill="red">
  <title>Beijing</title>
</circle><line x1="1603.959961" y1="1157.959961" x2="1422.959961" y2="509.959991" stroke="red" stroke-width="6.660000" />
<circle cx="1429.959961" cy="408.959991" r="19.980000" fill="red">
  <title>Shanghai</title>
</circle><line x1="1422.959961" y1="509.959991" x2="1429.959961" y2="408.959991" stroke="red" stroke-width="6.660000" />
<circle cx="1161.959961" cy="131.959991" r="19.980000" fill="red">
  <title>Buenos Aires</title>
</circle><line x1="1429.959961" y1="408.959991" x2="1161.959961" y2="131.959991" stroke="red" stroke-width="6.660000" />
<circle cx="999.960022" cy="112.959999" r="19.980000" fill="red">
  <title>Mexico City</title>
</circle><line x1="1161.959961" y1="131.959991" x2="999.960022" y2="112.959999" stroke="red" stroke-width="6.660000" />
<circle cx="604.960022" cy="51.959999" r="19.980000" fill="red">
  <title>Delhi</title>
</circle><line x1="999.960022" y1="112.959999" x2="604.960022" y2="51.959999" stroke="red" stroke-width="6.660000" />
<circle cx="43.959999" cy="169.959991" r="19.980000" fill="red">
  <title>São Paulo</title>
</circle><line x1="604.960022" y1="51.959999" x2="43.959999" y2="169.959991" stroke="red" stroke-width="6.660000" />
</svg>
