<?xml version="1.0" encoding="UTF-8" standalone="no"?>
<svg width="500" height="500" viewBox="0 0 2074.000000 2074.000000" xmlns="http://www.w3.org/2000/svg">
<rect x="19.000000" y="19.000000" width="2036.000000" height="2036.000000" fill="black" />
<circle cx="1112.959961" cy="1304.959961" r="19.980000" fill="red">
  <title>Tokyo</title>
</circle><line x1="2010.959961" y1="739.960022" x2="1112.959961" y2="1304.959961" stroke="red" stroke-width="6.660000" />
<circle cx="145.959991" cy="302.959991" r="19.980000" fill="red">
  <title>Shanghai</title>
</circle><line x1="1112.959961" y1="1304.959961" x2="145.959991" y2="302.959991" stroke="red" stroke-width="6.660000" />
<circle cx="84.959999" cy="1197.959961" r="19.980000" fill="red">
  <title>Delhi</title>
</circle><line x1="145.959991" y1="302.959991" x2="84.959999" y2="1197.959961" stroke="red" stroke-width="6.660000" />
<circle cx="142.959991" cy="1471.959961" r="19.980000" fill="red">
  <title>Beijing</title>
</circle><line x1="84.959999" y1="1197.959961" x2="142.959991" y2="1471.959961" stroke="red" stroke-width="6.660000" />
<circle cx="1246.959961" cy="1682.959961" r="19.980000" fill="red">
  <title>Cairo</title>
</circle><line x1="142.959991" y1="1471.959961" x2="1246.959961" y2="1682.959961" stroke="red" stroke-width="6.660000" />
<circle cx="1513.959961" cy="1714.959961" r="19.980000" fill="red">
  <title>Mexico City</title>
</circle><line x1="1246.959961" y1="1682.959961" x2="1513.959961" y2="1714.959961" stroke="red" stroke-width="6.660000" />
<circle cx="2034.959961" cy="1071.959961" r="19.980000" fill="red">
  <title>Mumbai</title>
</circle><line x1="1513.959961" y1="1714.959961" x2="2034.959961" y2="1071.959961" stroke="red" stroke-width="6.660000" />
<circle cx="2010.959961" cy="739.960022" r="19.980000" fill="red">
  <title>São Paulo</title>
</circle><line x1="2034.959961" y1="1071.959961" x2="2010.959961" y2="739.960022" stroke="red" stroke-width="6.660000" />
</svg>
