<?xml version="1.0" encoding="UTF-8" standalone="no"?>
<svg width="500" height="500" viewBox="0 0 2074.000000 2074.000000" xmlns="http://www.w3.org/2000/svg">
<rect x="19.000000" y="19.000000" width="2036.000000" height="2036.000000" fill="black" />
<circle cx="1211.959961" cy="1875.959961" r="19.980000" fill="red">
  <title>Tokyo</title>
</circle><line x1="1764.959961" y1="1408.959961" x2="1211.959961" y2="1875.959961" stroke="red" stroke-width="6.660000" />
<circle cx="936.960022" cy="1985.959961" r="19.980000" fill="red">
  <title>Osaka</title>
</circle><line x1="1211.959961" y1="1875.959961" x2="936.960022" y2="1985.959961" stroke="red" stroke-width="6.660000" />
<circle cx="358.959991" cy="1891.959961" r="19.980000" fill="red">
  <title>New York</title>
</circle><line x1="936.960022" y1="1985.959961" x2="358.959991" y2="1891.959961" stroke="red" stroke-width="6.660000" />
<circle cx="76.959999" cy="626.960022" r="19.980000" fill="red">
  <title>Istanbul</title>
</circle><line x1="358.959991" y1="1891.959961" x2="76.959999" y2="626.960022" stroke="red" stroke-width="6.660000" />
<circle cx="315.959991" cy="248.959991" r="19.980000" fill="red">
  <title>Dhaka</title>
</circle><line x1="76.959999" y1="626.960022" x2="315.959991" y2="248.959991" stroke="red" stroke-width="6.660000" />
<circle cx="554.960022" cy="397.959991" r="19.980000" fill="red">
  <title>Beijing</title>
</circle><line x1="315.959991" y1="248.959991" x2="554.960022" y2="397.959991" stroke="red" stroke-width="6.660000" />
<circle cx="991.960022" cy="198.959991" r="19.980000" fill="red">
  <title>Mexico City</title>
</circle><line x1="554.960022" y1="397.959991" x2="991.960022" y2="198.959991" stroke="red" stroke-width="6.660000" />
<circle cx="856.960022" cy="652.960022" r="19.980000" fill="red">
  <title>Cairo</title>
</circle><line x1="991.960022" y1="198.959991" x2="856.960022" y2="652.960022" stroke="red" stroke-width="6.660000" />
<circle cx="800.960022" cy="734.960022" r="19.980000" fill="red">
  <title>Shanghai</title>
</circle><line x1="856.960022" y1="652.960022" x2="800.960022" y2="734.960022" stroke="red" stroke-width="6.660000" />
<circle cx="869.960022" cy="886.960022" r="19.980000" fill="red">
  <title>Mumbai</title>
</circle><line x1="800.960022" y1="734.960022" x2="869.960022" y2="886.960022" stroke="red" stroke-width="6.660000" />
<circle cx="1450.959961" cy="855.960022" r="19.980000" fill="red">
  <title>Buenos Aires</title>
</circle><line x1="869.960022" y1="886.960022" x2="1450.959961" y2="855.960022" stroke="red" stroke-width="6.660000" />
<circle cx="1699.959961" cy="787.960022" r="19.980000" fill="red">
  <title>Chongqing</title>
</circle><line x1="1450.959961" y1="855.960022" x2="1699.959961" y2="787.960022" stroke="red" stroke-width="6.660000" />
<circle cx="1973.959961" cy="274.959991" r="19.980000" fill="red">
  <title>São Paulo</title>
</circle><line x1="1699.959961" y1="787.960022" x2="1973.959961" y2="274.959991" stroke="red" stroke-width="6.660000" />
<circle cx="1997.959961" cy="1071.959961" r="19.980000" fill="red">
  <title>Delhi</title>
</circle><line x1="1973.959961" y1="274.959991" x2="1997.959961" y2="1071.959961" stroke="red" stroke-width="6.660000" />
<circle cx="1764.959961" cy="1408.959961" r="19.980000" fill="red">
  <title>Karachi</title>
</circle><line x1="1997.959961" y1="1071.959961" x2="1764.959961" y2="1408.959961" stroke="red" stroke-width="6.660000" />
</svg>
