<?xml version="1.0" encoding="UTF-8" standalone="no"?>
<svg width="500" height="500" viewBox="0 0 2074.000000 2074.000000" xmlns="http://www.w3.org/2000/svg">
<rect x="19.000000" y="19.000000" width="2036.000000" height="2036.000000" fill="black" />
<circle cx="527.960022" cy="492.959991" r="19.980000" fill="red">
  <title>Tokyo</title>
</circle><line x1="696.960022" y1="1126.959961" x2="527.960022" y2="492.959991" stroke="red" stroke-width="6.660000" />
<circle cx="341.959991" cy="562.960022" r="19.980000" fill="red">
  <title>New York</title>
</circle><line x1="527.960022" y1="492.959991" x2="341.959991" y2="562.960022" stroke="red" stroke-width="6.660000" />
<circle cx="198.959991" cy="308.959991" r="19.980000" fill="red">
  <title>Karachi</title>
</circle><line x1="341.959991" y1="562.960022" x2="198.959991" y2="308.959991" stroke="red" stroke-width="6.660000" />
<circle cx="493.959991" cy="125.959999" r="19.980000" fill="red">
  <title>Beijing</title>
</circle><line x1="198.959991" y1="308.959991" x2="493.959991" y2="125.959999" stroke="red" stroke-width="6.660000" />
<circle cx="931.960022" cy="84.959999" r="19.980000" fill="red">
  <title>Chongqing</title>
</circle><line x1="493.959991" y1="125.959999" x2="931.960022" y2="84.959999" stroke="red" stroke-width="6.660000" />
<circle cx="1125.959961" cy="249.959991" r="19.980000" fill="red">
  <title>São Paulo</title>
</circle><line x1="931.960022" y1="84.959999" x2="1125.959961" y2="249.959991" stroke="red" stroke-width="6.660000" />
<circle cx="1751.959961" cy="349.959991" r="19.980000" fill="red">
  <title>Osaka</title>
</circle><line x1="1125.959961" y1="249.959991" x2="1751.959961" y2="349.959991" stroke="red" stroke-width="6.660000" />
<circle cx="2008.959961" cy="1052.959961" r="19.980000" fill="red">
  <title>Mexico City</title>
</circle><line x1="1751.959961" y1="349.959991" x2="2008.959961" y2="1052.959961" stroke="red" stroke-width="6.660000" />
<circle cx="1979.959961" cy="1174.959961" r="19.980000" fill="red">
  <title>Cairo</title>
</circle><line x1="2008.959961" y1="1052.959961" x2="1979.959961" y2="1174.959961" stroke="red" stroke-width="6.660000" />
<circle cx="1795.959961" cy="1578.959961" r="19.980000" fill="red">
  <title>Delhi</title>
</circle><line x1="1979.959961" y1="1174.959961" x2="1795.959961" y2="1578.959961" stroke="red" stroke-width="6.660000" />
<circle cx="1566.959961" cy="1556.959961" r="19.980000" fill="red">
  <title>Buenos Aires</title>
</circle><line x1="1795.959961" y1="1578.959961" x2="1566.959961" y2="1556.959961" stroke="red" stroke-width="6.660000" />
<circle cx="939.960022" cy="1980.959961" r="19.980000" fill="red">
  <title>Mumbai</title>
</circle><line x1="1566.959961" y1="1556.959961" x2="939.960022" y2="1980.959961" stroke="red" stroke-width="6.660000" />
<circle cx="560.960022" cy="1284.959961" r="19.980000" fill="red">
  <title>Shanghai</title>
</circle><line x1="939.960022" y1="1980.959961" x2="560.960022" y2="1284.959961" stroke="red" stroke-width="6.660000" />
<circle cx="696.960022" cy="1126.959961" r="19.980000" fill="red">
  <title>Dhaka</title>
</circle><line x1="560.960022" y1="1284.959961" x2="696.960022" y2="1126.959961" stroke="red" stroke-width="6.660000" />
</svg>
