<?xml version="1.0" encoding="UTF-8" standalone="no"?>
<svg width="500" height="500" viewBox="0 0 2074.000000 2074.000000" xmlns="http://www.w3.org/2000/svg">
<rect x="19.000000" y="19.000000" width="2036.000000" height="2036.000000" fill="black" />
<circle cx="1596.959961" cy="1586.959961" r="19.980000" fill="red">
  <title>Tokyo</title>
</circle><line x1="1637.959961" y1="1789.959961" x2="1596.959961" y2="1586.959961" stroke="red" stroke-width="6.660000" />
<circle cx="1508.959961" cy="1524.959961" r="19.980000" fill="red">
  <title>Shanghai</title>
</circle><line x1="1596.959961" y1="1586.959961" x2="1508.959961" y2="1524.959961" stroke="red" stroke-width="6.660000" />
<circle cx="1817.959961" cy="1335.959961" r="19.980000" fill="red">
  <title>Mexico City</title>
</circle><line x1="1508.959961" y1="1524.959961" x2="1817.959961" y2="1335.959961" stroke="red" stroke-width="6.660000" />
<circle cx="1936.959961" cy="1202.959961" r="19.980000" fill="red">
  <title>Osaka</title>
</circle><line x1="1817.959961" y1="1335.959961" x2="1936.959961" y2="1202.959961" stroke="red" stroke-width="6.660000" />
<circle cx="1677.959961" cy="878.960022" r="19.980000" fill="red">
  <title>Kolkata</title>
</circle><line x1="1936.959961" y1="1202.959961" x2="1677.959961" y2="878.960022" stroke="red" stroke-width="6.660000" />
<circle cx="1933.959961" cy="425.959991" r="19.980000" fill="red">
  <title>Lagos</title>
</circle><line x1="1677.959961" y1="878.960022" x2="1933.959961" y2="425.959991" stroke="red" stroke-width="6.660000" />
<circle cx="1557.959961" cy="622.960022" r="19.980000" fill="red">
  <title>Beijing</title>
</circle><line x1="1933.959961" y1="425.959991" x2="1557.959961" y2="622.960022" stroke="red" stroke-width="6.660000" />
<circle cx="942.960022" cy="746.960022" r="19.980000" fill="red">
  <title>Dhaka</title>
</circle><line x1="1557.959961" y1="622.960022" x2="942.960022" y2="746.960022" stroke="red" stroke-width="6.660000" />
<circle cx="785.960022" cy="358.959991" r="19.980000" fill="red">
  <title>Mumbai</title>
</circle><line x1="942.960022" y1="746.960022" x2="785.960022" y2="358.959991" stroke="red" stroke-width="6.660000" />
<circle cx="488.959991" cy="672.960022" r="19.980000" fill="red">
  <title>São Paulo</title>
</circle><line x1="785.960022" y1="358.959991" x2="488.959991" y2="672.960022" stroke="red" stroke-width="6.660000" />
<circle cx="955.960022" cy="911.960022" r="19.980000" fill="red">
  <title>Manila</title>
</circle><line x1="488.959991" y1="672.960022" x2="955.960022" y2="911.960022" stroke="red" stroke-width="6.660000" />
<circle cx="1272.959961" cy="1093.959961" r="19.980000" fill="red">
  <title>Delhi</title>
</circle><line x1="955.960022" y1="911.960022" x2="1272.959961" y2="1093.959961" stroke="red" stroke-width="6.660000" />
<circle cx="1320.959961" cy="1407.959961" r="19.980000" fill="red">
  <title>Istanbul</title>
</circle><line x1="1272.959961" y1="1093.959961" x2="1320.959961" y2="1407.959961" stroke="red" stroke-width="6.660000" />
<circle cx="928.960022" cy="1560.959961" r="19.980000" fill="red">
  <title>Karachi</title>
</circle><line x1="1320.959961" y1="1407.959961" x2="928.960022" y2="1560.959961" stroke="red" stroke-width="6.660000" />
<circle cx="685.960022" cy="1753.959961" r="19.980000" fill="red">
  <title>Buenos Aires</title>
</circle><line x1="928.960022" y1="1560.959961" x2="685.960022" y2="1753.959961" stroke="red" stroke-width="6.660000" />
<circle cx="1396.959961" cy="1582.959961" r="19.980000" fill="red">
  <title>Cairo</title>
</circle><line x1="685.960022" y1="1753.959961" x2="1396.959961" y2="1582.959961" stroke="red" stroke-width="6.660000" />
<circle cx="1502.959961" cy="1907.959961" r="19.980000" fill="red">
  <title>Chongqing</title>
</circle><line x1="1396.959961" y1="1582.959961" x2="1502.959961" y2="1907.959961" stroke="red" stroke-width="6.660000" />
<circle cx="1637.959961" cy="1789.959961" r="19.980000" fill="red">
  <title>New York</title>
</circle><line x1="1502.959961" y1="1907.959961" x2="1637.959961" y2="1789.959961" stroke="red" stroke-width="6.660000" />
</svg>
