<?xml version="1.0" encoding="UTF-8" standalone="no"?>
<svg width="500" height="500" viewBox="0 0 2074.000000 2074.000000" xmlns="http://www.w3.org/2000/svg">
<rect x="19.000000" y="19.000000" width="2036.000000" height="2036.000000" fill="black" />
<circle cx="565.960022" cy="1241.959961" r="19.980000" fill="red">
  <title>Tokyo</title>
</circle><line x1="332.959991" y1="651.960022" x2="565.960022" y2="1241.959961" stroke="red" stroke-width="6.660000" />
<circle cx="651.960022" cy="1937.959961" r="19.980000" fill="red">
  <title>Cairo</title>
</circle><line x1="565.960022" y1="1241.959961" x2="651.960022" y2="1937.959961" stroke="red" stroke-width="6.660000" />
<circle cx="1423.959961" cy="1833.959961" r="19.980000" fill="red">
  <title>Mexico City</title>
</circle><line x1="651.960022" y1="1937.959961" x2="1423.959961" y2="1833.959961" stroke="red" stroke-width="6.660000" />
<circle cx="1412.959961" cy="1583.959961" r="19.980000" fill="red">
  <title>São Paulo</title>
</circle><line x1="1423.959961" y1="1833.959961" x2="1412.959961" y2="1583.959961" stroke="red" stroke-width="6.660000" />
<circle cx="1098.959961" cy="1256.959961" r="19.980000" fill="red">
  <title>Beijing</title>
</circle><line x1="1412.959961" y1="1583.959961" x2="1098.959961" y2="1256.959961" stroke="red" stroke-width="6.660000" />
<circle cx="1536.959961" cy="1272.959961" r="19.980000" fill="red">
  <title>Shanghai</title>
</circle><line x1="1098.959961" y1="1256.959961" x2="1536.959961" y2="1272.959961" stroke="red" stroke-width="6.660000" />
<circle cx="2010.959961" cy="895.960022" r="19.980000" fill="red">
  <title>Osaka</title>
</circle><line x1="1536.959961" y1="1272.959961" x2="2010.959961" y2="895.960022" stroke="red" stroke-width="6.660000" />
<circle cx="1694.959961" cy="762.960022" r="19.980000" fill="red">
  <title>Karachi</title>
</circle><line x1="2010.959961" y1="895.960022" x2="1694.959961" y2="762.960022" stroke="red" stroke-width="6.660000" />
<circle cx="1722.959961" cy="278.959991" r="19.980000" fill="red">
  <title>New York</title>
</circle><line x1="1694.959961" y1="762.960022" x2="1722.959961" y2="278.959991" stroke="red" stroke-width="6.660000" />
<circle cx="1444.959961" cy="301.959991" r="19.980000" fill="red">
  <title>Dhaka</title>
</circle><line x1="1722.959961" y1="278.959991" x2="1444.959961" y2="301.959991" stroke="red" stroke-width="6.660000" />
<circle cx="957.960022" cy="931.960022" r="19.980000" fill="red">
  <title>Delhi</title>
</circle><line x1="1444.959961" y1="301.959991" x2="957.960022" y2="931.960022" stroke="red" stroke-width="6.660000" />
<circle cx="411.959991" cy="656.960022" r="19.980000" fill="red">
  <title>Buenos Aires</title>
</circle><line x1="957.960022" y1="931.960022" x2="411.959991" y2="656.960022" stroke="red" stroke-width="6.660000" />
<circle cx="332.959991" cy="651.960022" r="19.980000" fill="red">
  <title>Mumbai</title>
</circle><line x1="411.959991" y1="656.960022" x2="332.959991" y2="651.960022" stroke="red" stroke-width="6.660000" />
</svg>
