<?xml version="1.0" encoding="UTF-8" standalone="no"?>
<svg width="500" height="500" viewBox="0 0 2074.000000 2074.000000" xmlns="http://www.w3.org/2000/svg">
<rect x="19.000000" y="19.000000" width="2036.000000" height="2036.000000" fill="black" />
<circle cx="83.959999" cy="685.960022" r="19.980000" fill="red">
  <title>Tokyo</title>
</circle><line x1="957.960022" y1="932.960022" x2="83.959999" y2="685.960022" stroke="red" stroke-width="6.660000" />
<circle cx="1154.959961" cy="351.959991" r="19.980000" fill="red">
  <title>Mexico City</title>
</circle><line x1="83.959999" y1="685.960022" x2="1154.959961" y2="351.959991" stroke="red" stroke-width="6.660000" />
<circle cx="1469.959961" cy="272.959991" r="19.980000" fill="red">
  <title>Shanghai</title>
</circle><line x1="1154.959961" y1="351.959991" x2="1469.959961" y2="272.959991" stroke="red" stroke-width="6.660000" />
<circle cx="1677.959961" cy="433.959991" r="19.980000" fill="red">
  <title>São Paulo</title>
</circle><line x1="1469.959961" y1="272.959991" x2="1677.959961" y2="433.959991" stroke="red" stroke-width="6.660000" />
<circle cx="1574.959961" cy="1769.959961" r="19.980000" fill="red">
  <title>Delhi</title>
</circle><line x1="1677.959961" y1="433.959991" x2="1574.959961" y2="1769.959961" stroke="red" stroke-width="6.660000" />
<circle cx="957.960022" cy="932.960022" r="19.980000" fill="red">
  <title>Cairo</title>
</circle><line x1="1574.959961" y1="1769.959961" x2="957.960022" y2="932.960022" stroke="red" stroke-width="6.660000" />
</svg>
