<?xml version="1.0" encoding="UTF-8" standalone="no"?>
<svg width="500" height="500" viewBox="0 0 2074.000000 2074.000000" xmlns="http://www.w3.org/2000/svg">
<rect x="19.000000" y="19.000000" width="2036.000000" height="2036.000000" fill="black" />
<circle cx="1700.959961" cy="292.959991" r="19.980000" fill="red">
  <title>Tokyo</title>
</circle><line x1="1054.959961" y1="789.960022" x2="1700.959961" y2="292.959991" stroke="red" stroke-width="6.660000" />
<circle cx="1952.959961" cy="299.959991" r="19.980000" fill="red">
  <title>Cairo</title>
</circle><line x1="1700.959961" y1="292.959991" x2="1952.959961" y2="299.959991" stroke="red" stroke-width="6.660000" />
<circle cx="2011.959961" cy="926.960022" r="19.980000" fill="red">
  <title>New York</title>
</circle><line x1="1952.959961" y1="299.959991" x2="2011.959961" y2="926.960022" stroke="red" stroke-width="6.660000" />
<circle cx="1434.959961" cy="1228.959961" r="19.980000" fill="red">
  <title>Beijing</title>
</circle><line x1="2011.959961" y1="926.960022" x2="1434.959961" y2="1228.959961" stroke="red" stroke-width="6.660000" />
<circle cx="1289.959961" cy="1393.959961" r="19.980000" fill="red">
  <title>Shanghai</title>
</circle><line x1="1434.959961" y1="1228.959961" x2="1289.959961" y2="1393.959961" stroke="red" stroke-width="6.660000" />
<circle cx="1937.959961" cy="1910.959961" r="19.980000" fill="red">
  <title>Istanbul</title>
</circle><line x1="1289.959961" y1="1393.959961" x2="1937.959961" y2="1910.959961" stroke="red" stroke-width="6.660000" />
<circle cx="1531.959961" cy="1773.959961" r="19.980000" fill="red">
  <title>Buenos Aires</title>
</circle><line x1="1937.959961" y1="1910.959961" x2="1531.959961" y2="1773.959961" stroke="red" stroke-width="6.660000" />
<circle cx="1115.959961" cy="1662.959961" r="19.980000" fill="red">
  <title>Delhi</title>
</circle><line x1="1531.959961" y1="1773.959961" x2="1115.959961" y2="1662.959961" stroke="red" stroke-width="6.660000" />
<circle cx="886.960022" cy="1657.959961" r="19.980000" fill="red">
  <title>Osaka</title>
</circle><line x1="1115.959961" y1="1662.959961" x2="886.960022" y2="1657.959961" stroke="red" stroke-width="6.660000" />
<circle cx="772.960022" cy="1730.959961" r="19.980000" fill="red">
  <title>São Paulo</title>
</circle><line x1="886.960022" y1="1657.959961" x2="772.960022" y2="1730.959961" stroke="red" stroke-width="6.660000" />
<circle cx="148.959991" cy="1169.959961" r="19.980000" fill="red">
  <title>Mumbai</title>
</circle><line x1="772.960022" y1="1730.959961" x2="148.959991" y2="1169.959961" stroke="red" stroke-width="6.660000" />
<circle cx="235.959991" cy="447.959991" r="19.980000" fill="red">
  <title>Mexico City</title>
</circle><line x1="148.959991" y1="1169.959961" x2="235.959991" y2="447.959991" stroke="red" stroke-width="6.660000" />
<circle cx="711.960022" cy="599.960022" r="19.980000" fill="red">
  <title>Dhaka</title>
</circle><line x1="235.959991" y1="447.959991" x2="711.960022" y2="599.960022" stroke="red" stroke-width="6.660000" />
<circle cx="682.960022" cy="680.960022" r="19.980000" fill="red">
  <title>Karachi</title>
</circle><line x1="711.960022" y1="599.960022" x2="682.960022" y2="680.960022" stroke="red" stroke-width="6.660000" />
<circle cx="1054.959961" cy="789.960022" r="19.980000" fill="red">
  <title>Chongqing</title>
</circle><line x1="682.960022" y1="680.960022" x2="1054.959961" y2="789.960022" stroke="red" stroke-width="6.660000" />
</svg>
