<?xml version="1.0" encoding="UTF-8" standalone="no"?>
<svg width="500" height="500" viewBox="0 0 2074.000000 2074.000000" xmlns="http://www.w3.org/2000/svg">
<rect x="19.000000" y="19.000000" width="2036.000000" height="2036.000000" fill="black" />
<circle cx="167.959991" cy="66.959999" r="19.980000" fill="red">
  <title>Tokyo</title>
</circle><line x1="635.960022" y1="625.960022" x2="167.959991" y2="66.959999" stroke="red" stroke-width="6.660000" />
<circle cx="356.959991" cy="375.959991" r="19.980000" fill="red">
  <title>São Paulo</title>
</circle><line x1="167.959991" y1="66.959999" x2="356.959991" y2="375.959991" stroke="red" stroke-width="6.660000" />
<circle cx="184.959991" cy="1142.959961" r="19.980000" fill="red">
  <title>Beijing</title>
</circle><line x1="356.959991" y1="375.959991" x2="184.959991" y2="1142.959961" stroke="red" stroke-width="6.660000" />
<circle cx="371.959991" cy="1821.959961" r="19.980000" fill="red">
  <title>Cairo</title>
</circle><line x1="184.959991" y1="1142.959961" x2="371.959991" y2="1821.959961" stroke="red" stroke-width="6.660000" />
<circle cx="1632.959961" cy="1622.959961" r="19.980000" fill="red">
  <title>Delhi</title>
</circle><line x1="371.959991" y1="1821.959961" x2="1632.959961" y2="1622.959961" stroke="red" stroke-width="6.660000" />
<circle cx="1912.959961" cy="1423.959961" r="19.980000" fill="red">
  <title>Mumbai</title>
</circle><line x1="1632.959961" y1="1622.959961" x2="1912.959961" y2="1423.959961" stroke="red" stroke-width="6.660000" />
<circle cx="1646.959961" cy="648.960022" r="19.980000" fill="red">
  <title>Shanghai</title>
</circle><line x1="1912.959961" y1="1423.959961" x2="1646.959961" y2="648.960022" stroke="red" stroke-width="6.660000" />
<circle cx="635.960022" cy="625.960022" r="19.980000" fill="red">
  <title>Mexico City</title>
</circle><line x1="1646.959961" y1="648.960022" x2="635.960022" y2="625.960022" stroke="red" stroke-width="6.660000" />
</svg>
