<?xml version="1.0" encoding="UTF-8" standalone="no"?>
<svg width="500" height="500" viewBox="0 0 2074.000000 2074.000000" xmlns="http://www.w3.org/2000/svg">
<rect x="19.000000" y="19.000000" width="2036.000000" height="2036.000000" fill="black" />
<circle cx="88.959999" cy="1695.959961" r="19.980000" fill="red">
  <title>Tokyo</title>
</circle><line x1="74.959999" y1="1680.959961" x2="88.959999" y2="1695.959961" stroke="red" stroke-width="6.660000" />
<circle cx="106.959999" cy="1732.959961" r="19.980000" fill="red">
  <title>São Paulo</title>
</circle><line x1="88.959999" y1="1695.959961" x2="106.959999" y2="1732.959961" stroke="red" stroke-width="6.660000" />
<circle cx="863.960022" cy="1727.959961" r="19.980000" fill="red">
  <title>Dhaka</title>
</circle><line x1="106.959999" y1="1732.959961" x2="863.960022" y2="1727.959961" stroke="red" stroke-width="6.660000" />
<circle cx="1709.959961" cy="1028.959961" r="19.980000" fill="red">
  <title>Beijing</title>
</circle><line x1="863.960022" y1="1727.959961" x2="1709.959961" y2="1028.959961" stroke="red" stroke-width="6.660000" />
<circle cx="1246.959961" cy="852.960022" r="19.980000" fill="red">
  <title>Mumbai</title>
</circle><line x1="1709.959961" y1="1028.959961" x2="1246.959961" y2="852.960022" stroke="red" stroke-width="6.660000" />
<circle cx="1067.959961" cy="764.960022" r="19.980000" fill="red">
  <title>Delhi</title>
</circle><line x1="1246.959961" y1="852.960022" x2="1067.959961" y2="764.960022" stroke="red" stroke-width="6.660000" />
<circle cx="765.960022" cy="428.959991" r="19.980000" fill="red">
  <title>Shanghai</title>
</circle><line x1="1067.959961" y1="764.960022" x2="765.960022" y2="428.959991" stroke="red" stroke-width="6.660000" />
<circle cx="455.959991" cy="874.960022" r="19.980000" fill="red">
  <title>Mexico City</title>
</circle><line x1="765.960022" y1="428.959991" x2="455.959991" y2="874.960022" stroke="red" stroke-width="6.660000" />
<circle cx="74.959999" cy="1680.959961" r="19.980000" fill="red">
  <title>Cairo</title>
</circle><line x1="455.959991" y1="874.960022" x2="74.959999" y2="1680.959961" stroke="red" stroke-width="6.660000" />
</svg>
