<?xml version="1.0" encoding="UTF-8" standalone="no"?>
<svg width="500" height="500" viewBox="0 0 2074.000000 2074.000000" xmlns="http://www.w3.org/2000/svg">
<rect x="19.000000" y="19.000000" width="2036.000000" height="2036.000000" fill="black" />
<circle cx="834.960022" cy="1001.960022" r="19.980000" fill="red">
  <title>Tokyo</title>
</circle><line x1="693.960022" y1="1080.959961" x2="834.960022" y2="1001.960022" stroke="red" stroke-width="6.660000" />
<circle cx="629.960022" cy="967.960022" r="19.980000" fill="red">
  <title>Shanghai</title>
</circle><line x1="834.960022" y1="1001.960022" x2="629.960022" y2="967.960022" stroke="red" stroke-width="6.660000" />
<circle cx="504.959991" cy="369.959991" r="19.980000" fill="red">
  <title>Istanbul</title>
</circle><line x1="629.960022" y1="967.960022" x2="504.959991" y2="369.959991" stroke="red" stroke-width="6.660000" />
<circle cx="1023.960022" cy="762.960022" r="19.980000" fill="red">
  <title>São Paulo</title>
</circle><line x1="504.959991" y1="369.959991" x2="1023.960022" y2="762.960022" stroke="red" stroke-width="6.660000" />
<circle cx="1261.959961" cy="806.960022" r="19.980000" fill="red">
  <title>Delhi</title>
</circle><line x1="1023.960022" y1="762.960022" x2="1261.959961" y2="806.960022" stroke="red" stroke-width="6.660000" />
<circle cx="1771.959961" cy="40.959999" r="19.980000" fill="red">
  <title>Karachi</title>
</circle><line x1="1261.959961" y1="806.960022" x2="1771.959961" y2="40.959999" stroke="red" stroke-width="6.660000" />
<circle cx="1792.959961" cy="431.959991" r="19.980000" fill="red">
  <title>Cairo</title>
</circle><line x1="1771.959961" y1="40.959999" x2="1792.959961" y2="431.959991" stroke="red" stroke-width="6.660000" />
<circle cx="1907.959961" cy="794.960022" r="19.980000" fill="red">
  <title>Beijing</title>
</circle><line x1="1792.959961" y1="431.959991" x2="1907.959961" y2="794.960022" stroke="red" stroke-width="6.660000" />
<circle cx="1897.959961" cy="1334.959961" r="19.980000" fill="red">
  <title>Osaka</title>
</circle><line x1="1907.959961" y1="794.960022" x2="1897.959961" y2="1334.959961" stroke="red" stroke-width="6.660000" />
<circle cx="2037.959961" cy="1714.959961" r="19.980000" fill="red">
  <title>New York</title>
</circle><line x1="1897.959961" y1="1334.959961" x2="2037.959961" y2="1714.959961" stroke="red" stroke-width="6.660000" />
<circle cx="1119.959961" cy="1300.959961" r="19.980000" fill="red">
  <title>Kolkata</title>
</circle><line x1="2037.959961" y1="1714.959961" x2="1119.959961" y2="1300.959961" stroke="red" stroke-width="6.660000" />
<circle cx="735.960022" cy="1463.959961" r="19.980000" fill="red">
  <title>Buenos Aires</title>
</circle><line x1="1119.959961" y1="1300.959961" x2="735.960022" y2="1463.959961" stroke="red" stroke-width="6.660000" />
<circle cx="396.959991" cy="1902.959961" r="19.980000" fill="red">
  <title>Mumbai</title>
</circle><line x1="735.960022" y1="1463.959961" x2="396.959991" y2="1902.959961" stroke="red" stroke-width="6.660000" />
<circle cx="287.959991" cy="1597.959961" r="19.980000" fill="red">
  <title>Chongqing</title>
</circle><line x1="396.959991" y1="1902.959961" x2="287.959991" y2="1597.959961" stroke="red" stroke-width="6.660000" />
<circle cx="139.959991" cy="1103.959961" r="19.980000" fill="red">
  <title>Dhaka</title>
</circle><line x1="287.959991" y1="1597.959961" x2="139.959991" y2="1103.959961" stroke="red" stroke-width="6.660000" />
<circle cx="693.960022" cy="1080.959961" r="19.980000" fill="red">
  <title>Mexico City</title>
</circle><line x1="139.959991" y1="1103.959961" x2="693.960022" y2="1080.959961" stroke="red" stroke-width="6.660000" />
</svg>
