<?xml version="1.0" encoding="UTF-8" standalone="no"?>
<svg width="500" height="500" viewBox="0 0 2074.000000 2074.000000" xmlns="http://www.w3.org/2000/svg">
<rect x="19.000000" y="19.000000" width="2036.000000" height="2036.000000" fill="black" />
<circle cx="1134.959961" cy="1445.959961" r="19.980000" fill="red">
  <title>Tokyo</title>
</circle><line x1="1266.959961" y1="1675.959961" x2="1134.959961" y2="1445.959961" stroke="red" stroke-width="6.660000" />
<circle cx="1668.959961" cy="1052.959961" r="19.980000" fill="red">
  <title>Beijing</title>
</circle><line x1="1134.959961" y1="1445.959961" x2="1668.959961" y2="1052.959961" stroke="red" stroke-width="6.660000" />
<circle cx="1617.959961" cy="407.959991" r="19.980000" fill="red">
  <title>New York</title>
</circle><line x1="1668.959961" y1="1052.959961" x2="1617.959961" y2="407.959991" stroke="red" stroke-width="6.660000" />
<circle cx="1397.959961" cy="146.959991" r="19.980000" fill="red">
  <title>Delhi</title>
</circle><line x1="1617.959961" y1="407.959991" x2="1397.959961" y2="146.959991" stroke="red" stroke-width="6.660000" />
<circle cx="1281.959961" cy="380.959991" r="19.980000" fill="red">
  <title>Mumbai</title>
</circle><line x1="1397.959961" y1="146.959991" x2="1281.959961" y2="380.959991" stroke="red" stroke-width="6.660000" />
<circle cx="918.960022" cy="650.960022" r="19.980000" fill="red">
  <title>Mexico City</title>
</circle><line x1="1281.959961" y1="380.959991" x2="918.960022" y2="650.960022" stroke="red" stroke-width="6.660000" />
<circle cx="703.960022" cy="481.959991" r="19.980000" fill="red">
  <title>Dhaka</title>
</circle><line x1="918.960022" y1="650.960022" x2="703.960022" y2="481.959991" stroke="red" stroke-width="6.660000" />
<circle cx="61.959999" cy="1486.959961" r="19.980000" fill="red">
  <title>São Paulo</title>
</circle><line x1="703.960022" y1="481.959991" x2="61.959999" y2="1486.959961" stroke="red" stroke-width="6.660000" />
<circle cx="650.960022" cy="1498.959961" r="19.980000" fill="red">
  <title>Shanghai</title>
</circle><line x1="61.959999" y1="1486.959961" x2="650.960022" y2="1498.959961" stroke="red" stroke-width="6.660000" />
<circle cx="831.960022" cy="1916.959961" r="19.980000" fill="red">
  <title>Osaka</title>
</circle><line x1="650.960022" y1="1498.959961" x2="831.960022" y2="1916.959961" stroke="red" stroke-width="6.660000" />
<circle cx="1194.959961" cy="1862.959961" r="19.980000" fill="red">
  <title>Cairo</title>
</circle><line x1="831.960022" y1="1916.959961" x2="1194.959961" y2="1862.959961" stroke="red" stroke-width="6.660000" />
<circle cx="1266.959961" cy="1675.959961" r="19.980000" fill="red">
  <title>Karachi</title>
</circle><line x1="1194.959961" y1="1862.959961" x2="1266.959961" y2="1675.959961" stroke="red" stroke-width="6.660000" />
</svg>
