<?xml version="1.0" encoding="UTF-8" standalone="no"?>
<svg width="500" height="500" viewBox="0 0 2074.000000 2074.000000" xmlns="http://www.w3.org/2000/svg">
<rect x="19.000000" y="19.000000" width="2036.000000" height="2036.000000" fill="black" />
<circle cx="913.960022" cy="986.960022" r="19.980000" fill="red">
  <title>Tokyo</title>
</circle><line x1="425.959991" y1="570.960022" x2="913.960022" y2="986.960022" stroke="red" stroke-width="6.660000" />
<circle cx="475.959991" cy="117.959999" r="19.980000" fill="red">
  <title>Delhi</title>
</circle><line x1="913.960022" y1="986.960022" x2="475.959991" y2="117.959999" stroke="red" stroke-width="6.660000" />
<circle cx="425.959991" cy="570.960022" r="19.980000" fill="red">
  <title>Shanghai</title>
</circle><line x1="475.959991" y1="117.959999" x2="425.959991" y2="570.960022" stroke="red" stroke-width="6.660000" />
</svg>
