<?xml version="1.0" encoding="UTF-8" standalone="no"?>
<svg width="500" height="500" viewBox="0 0 2074.000000 2074.000000" xmlns="http://www.w3.org/2000/svg">
<rect x="19.000000" y="19.000000" width="2036.000000" height="2036.000000" fill="black" />
<circle cx="1720.959961" cy="1796.959961" r="19.980000" fill="red">
  <title>Tokyo</title>
</circle><line x1="1357.959961" y1="1743.959961" x2="1720.959961" y2="1796.959961" stroke="red" stroke-width="6.660000" />
<circle cx="1934.959961" cy="1659.959961" r="19.980000" fill="red">
  <title>Mexico City</title>
</circle><line x1="1720.959961" y1="1796.959961" x2="1934.959961" y2="1659.959961" stroke="red" stroke-width="6.660000" />
<circle cx="1721.959961" cy="749.960022" r="19.980000" fill="red">
  <title>Beijing</title>
</circle><line x1="1934.959961" y1="1659.959961" x2="1721.959961" y2="749.960022" stroke="red" stroke-width="6.660000" />
<circle cx="1463.959961" cy="661.960022" r="19.980000" fill="red">
  <title>Shanghai</title>
</circle><line x1="1721.959961" y1="749.960022" x2="1463.959961" y2="661.960022" stroke="red" stroke-width="6.660000" />
<circle cx="1350.959961" cy="488.959991" r="19.980000" fill="red">
  <title>Buenos Aires</title>
</circle><line x1="1463.959961" y1="661.960022" x2="1350.959961" y2="488.959991" stroke="red" stroke-width="6.660000" />
<circle cx="1326.959961" cy="340.959991" r="19.980000" fill="red">
  <title>Osaka</title>
</circle><line x1="1350.959961" y1="488.959991" x2="1326.959961" y2="340.959991" stroke="red" stroke-width="6.660000" />
<circle cx="721.960022" cy="122.959999" r="19.980000" fill="red">
  <title>Cairo</title>
</circle><line x1="1326.959961" y1="340.959991" x2="721.960022" y2="122.959999" stroke="red" stroke-width="6.660000" />
<circle cx="52.959999" cy="43.959999" r="19.980000" fill="red">
  <title>Mumbai</title>
</circle><line x1="721.960022" y1="122.959999" x2="52.959999" y2="43.959999" stroke="red" stroke-width="6.660000" />
<circle cx="1037.959961" cy="409.959991" r="19.980000" fill="red">
  <title>Istanbul</title>
</circle><line x1="52.959999" y1="43.959999" x2="1037.959961" y2="409.959991" stroke="red" stroke-width="6.660000" />
<circle cx="1039.959961" cy="812.960022" r="19.980000" fill="red">
  <title>Delhi</title>
</circle><line x1="1037.959961" y1="409.959991" x2="1039.959961" y2="812.960022" stroke="red" stroke-width="6.660000" />
<circle cx="1078.959961" cy="1111.959961" r="19.980000" fill="red">
  <title>Chongqing</title>
</circle><line x1="1039.959961" y1="812.960022" x2="1078.959961" y2="1111.959961" stroke="red" stroke-width="6.660000" />
<circle cx="659.960022" cy="1038.959961" r="19.980000" fill="red">
  <title>New York</title>
</circle><line x1="1078.959961" y1="1111.959961" x2="659.960022" y2="1038.959961" stroke="red" stroke-width="6.660000" />
<circle cx="121.959999" cy="1431.959961" r="19.980000" fill="red">
  <title>Dhaka</title>
</circle><line x1="659.960022" y1="1038.959961" x2="121.959999" y2="1431.959961" stroke="red" stroke-width="6.660000" />
<circle cx="844.960022" cy="1288.959961" r="19.980000" fill="red">
  <title>São Paulo</title>
</circle><line x1="121.959999" y1="1431.959961" x2="844.960022" y2="1288.959961" stroke="red" stroke-width="6.660000" />
<circle cx="1357.959961" cy="1743.959961" r="19.980000" fill="red">
  <title>Karachi</title>
</circle><line x1="844.960022" y1="1288.959961" x2="1357.959961" y2="1743.959961" stroke="red" stroke-width="6.660000" />
</svg>
