<?xml version="1.0" encoding="UTF-8" standalone="no"?>
<svg width="500" height="500" viewBox="0 0 2074.000000 2074.000000" xmlns="http://www.w3.org/2000/svg">
<rect x="19.000000" y="19.000000" width="2036.000000" height="2036.000000" fill="black" />
<circle cx="385.959991" cy="1882.959961" r="19.980000" fill="red">
  <title>Tokyo</title>
</circle><line x1="218.959991" y1="1498.959961" x2="385.959991" y2="1882.959961" stroke="red" stroke-width="6.660000" />
<circle cx="553.960022" cy="1820.959961" r="19.980000" fill="red">
  <title>Dhaka</title>
</circle><line x1="385.959991" y1="1882.959961" x2="553.960022" y2="1820.959961" stroke="red" stroke-width="6.660000" />
<circle cx="793.960022" cy="1171.959961" r="19.980000" fill="red">
  <title>Mumbai</title>
</circle><line x1="553.960022" y1="1820.959961" x2="793.960022" y2="1171.959961" stroke="red" stroke-width="6.660000" />
<circle cx="1094.959961" cy="1092.959961" r="19.980000" fill="red">
  <title>Delhi</title>
</circle><line x1="793.960022" y1="1171.959961" x2="1094.959961" y2="1092.959961" stroke="red" stroke-width="6.660000" />
<circle cx="1276.959961" cy="1301.959961" r="19.980000" fill="red">
  <title>Kolkata</title>
</circle><line x1="1094.959961" y1="1092.959961" x2="1276.959961" y2="1301.959961" stroke="red" stroke-width="6.660000" />
<circle cx="1368.959961" cy="1475.959961" r="19.980000" fill="red">
  <title>Mexico City</title>
</circle><line x1="1276.959961" y1="1301.959961" x2="1368.959961" y2="1475.959961" stroke="red" stroke-width="6.660000" />
<circle cx="1501.959961" cy="1970.959961" r="19.980000" fill="red">
  <title>Buenos Aires</title>
</circle><line x1="1368.959961" y1="1475.959961" x2="1501.959961" y2="1970.959961" stroke="red" stroke-width="6.660000" />
<circle cx="1608.959961" cy="1389.959961" r="19.980000" fill="red">
  <title>Chongqing</title>
</circle><line x1="1501.959961" y1="1970.959961" x2="1608.959961" y2="1389.959961" stroke="red" stroke-width="6.660000" />
<circle cx="2012.959961" cy="778.960022" r="19.980000" fill="red">
  <title>Karachi</title>
</circle><line x1="1608.959961" y1="1389.959961" x2="2012.959961" y2="778.960022" stroke="red" stroke-width="6.660000" />
<circle cx="1783.959961" cy="141.959991" r="19.980000" fill="red">
  <title>Cairo</title>
</circle><line x1="2012.959961" y1="778.960022" x2="1783.959961" y2="141.959991" stroke="red" stroke-width="6.660000" />
<circle cx="881.960022" cy="545.960022" r="19.980000" fill="red">
  <title>Beijing</title>
</circle><line x1="1783.959961" y1="141.959991" x2="881.960022" y2="545.960022" stroke="red" stroke-width="6.660000" />
<circle cx="955.960022" cy="728.960022" r="19.980000" fill="red">
  <title>Istanbul</title>
</circle><line x1="881.960022" y1="545.960022" x2="955.960022" y2="728.960022" stroke="red" stroke-width="6.660000" />
<circle cx="708.960022" cy="812.960022" r="19.980000" fill="red">
  <title>Rio de Janeiro</title>
</circle><line x1="955.960022" y1="728.960022" x2="708.960022" y2="812.960022" stroke="red" stroke-width="6.660000" />
<circle cx="572.960022" cy="333.959991" r="19.980000" fill="red">
  <title>Manila</title>
</circle><line x1="708.960022" y1="812.960022" x2="572.960022" y2="333.959991" stroke="red" stroke-width="6.660000" />
<circle cx="428.959991" cy="413.959991" r="19.980000" fill="red">
  <title>Shanghai</title>
</circle><line x1="572.960022" y1="333.959991" x2="428.959991" y2="413.959991" stroke="red" stroke-width="6.660000" />
<circle cx="495.959991" cy="791.960022" r="19.980000" fill="red">
  <title>São Paulo</title>
</circle><line x1="428.959991" y1="413.959991" x2="495.959991" y2="791.960022" stroke="red" stroke-width="6.660000" />
<circle cx="355.959991" cy="962.960022" r="19.980000" fill="red">
  <title>Lagos</title>
</circle><line x1="495.959991" y1="791.960022" x2="355.959991" y2="962.960022" stroke="red" stroke-width="6.660000" />
<circle cx="408.959991" cy="1264.959961" r="19.980000" fill="red">
  <title>Osaka</title>
</circle><line x1="355.959991" y1="962.960022" x2="408.959991" y2="1264.959961" stroke="red" stroke-width="6.660000" />
<circle cx="218.959991" cy="1498.959961" r="19.980000" fill="red">
  <title>New York</title>
</circle><line x1="408.959991" y1="1264.959961" x2="218.959991" y2="1498.959961" stroke="red" stroke-width="6.660000" />
</svg>
