<?xml version="1.0" encoding="UTF-8" standalone="no"?>
<svg width="500" height="500" viewBox="0 0 2074.000000 2074.000000" xmlns="http://www.w3.org/2000/svg">
<rect x="19.000000" y="19.000000" width="2036.000000" height="2036.000000" fill="black" />
<circle cx="1700.959961" cy="1749.959961" r="19.980000" fill="red">
  <title>Tokyo</title>
</circle><line x1="1913.959961" y1="1471.959961" x2="1700.959961" y2="1749.959961" stroke="red" stroke-width="6.660000" />
<circle cx="1662.959961" cy="1327.959961" r="19.980000" fill="red">
  <title>São Paulo</title>
</circle><line x1="1700.959961" y1="1749.959961" x2="1662.959961" y2="1327.959961" stroke="red" stroke-width="6.660000" />
<circle cx="1370.959961" cy="1225.959961" r="19.980000" fill="red">
  <title>Osaka</title>
</circle><line x1="1662.959961" y1="1327.959961" x2="1370.959961" y2="1225.959961" stroke="red" stroke-width="6.660000" />
<circle cx="710.960022" cy="1766.959961" r="19.980000" fill="red">
  <title>Mumbai</title>
</circle><line x1="1370.959961" y1="1225.959961" x2="710.960022" y2="1766.959961" stroke="red" stroke-width="6.660000" />
<circle cx="416.959991" cy="1245.959961" r="19.980000" fill="red">
  <title>Shanghai</title>
</circle><line x1="710.960022" y1="1766.959961" x2="416.959991" y2="1245.959961" stroke="red" stroke-width="6.660000" />
<circle cx="254.959991" cy="1192.959961" r="19.980000" fill="red">
  <title>Cairo</title>
</circle><line x1="416.959991" y1="1245.959961" x2="254.959991" y2="1192.959961" stroke="red" stroke-width="6.660000" />
<circle cx="641.960022" cy="477.959991" r="19.980000" fill="red">
  <title>Karachi</title>
</circle><line x1="254.959991" y1="1192.959961" x2="641.960022" y2="477.959991" stroke="red" stroke-width="6.660000" />
<circle cx="1575.959961" cy="994.960022" r="19.980000" fill="red">
  <title>Beijing</title>
</circle><line x1="641.960022" y1="477.959991" x2="1575.959961" y2="994.960022" stroke="red" stroke-width="6.660000" />
<circle cx="1935.959961" cy="401.959991" r="19.980000" fill="red">
  <title>Delhi</title>
</circle><line x1="1575.959961" y1="994.960022" x2="1935.959961" y2="401.959991" stroke="red" stroke-width="6.660000" />
<circle cx="1944.959961" cy="786.960022" r="19.980000" fill="red">
  <title>New York</title>
</circle><line x1="1935.959961" y1="401.959991" x2="1944.959961" y2="786.960022" stroke="red" stroke-width="6.660000" />
<circle cx="1910.959961" cy="1178.959961" r="19.980000" fill="red">
  <title>Mexico City</title>
</circle><line x1="1944.959961" y1="786.960022" x2="1910.959961" y2="1178.959961" stroke="red" stroke-width="6.660000" />
<circle cx="1913.959961" cy="1471.959961" r="19.980000" fill="red">
  <title>Dhaka</title>
</circle><line x1="1910.959961" y1="1178.959961" x2="1913.959961" y2="1471.959961" stroke="red" stroke-width="6.660000" />
</svg>
