<?xml version="1.0" encoding="UTF-8" standalone="no"?>
<svg width="500" height="500" viewBox="0 0 2074.000000 2074.000000" xmlns="http://www.w3.org/2000/svg">
<rect x="19.000000" y="19.000000" width="2036.000000" height="2036.000000" fill="black" />
<circle cx="415.959991" cy="642.960022" r="19.980000" fill="red">
  <title>Tokyo</title>
</circle><line x1="1173.959961" y1="156.959991" x2="415.959991" y2="642.960022" stroke="red" stroke-width="6.660000" />
<circle cx="164.959991" cy="1247.959961" r="19.980000" fill="red">
  <title>Cairo</title>
</circle><line x1="415.959991" y1="642.960022" x2="164.959991" y2="1247.959961" stroke="red" stroke-width="6.660000" />
<circle cx="748.960022" cy="1735.959961" r="19.980000" fill="red">
  <title>Mumbai</title>
</circle><line x1="164.959991" y1="1247.959961" x2="748.960022" y2="1735.959961" stroke="red" stroke-width="6.660000" />
<circle cx="851.960022" cy="1642.959961" r="19.980000" fill="red">
  <title>São Paulo</title>
</circle><line x1="748.960022" y1="1735.959961" x2="851.960022" y2="1642.959961" stroke="red" stroke-width="6.660000" />
<circle cx="1329.959961" cy="1597.959961" r="19.980000" fill="red">
  <title>New York</title>
</circle><line x1="851.960022" y1="1642.959961" x2="1329.959961" y2="1597.959961" stroke="red" stroke-width="6.660000" />
<circle cx="1487.959961" cy="1180.959961" r="19.980000" fill="red">
  <title>Dhaka</title>
</circle><line x1="1329.959961" y1="1597.959961" x2="1487.959961" y2="1180.959961" stroke="red" stroke-width="6.660000" />
<circle cx="1620.959961" cy="1270.959961" r="19.980000" fill="red">
  <title>Osaka</title>
</circle><line x1="1487.959961" y1="1180.959961" x2="1620.959961" y2="1270.959961" stroke="red" stroke-width="6.660000" />
<circle cx="2009.959961" cy="1312.959961" r="19.980000" fill="red">
  <title>Mexico City</title>
</circle><line x1="1620.959961" y1="1270.959961" x2="2009.959961" y2="1312.959961" stroke="red" stroke-width="6.660000" />
<circle cx="1811.959961" cy="599.960022" r="19.980000" fill="red">
  <title>Shanghai</title>
</circle><line x1="2009.959961" y1="1312.959961" x2="1811.959961" y2="599.960022" stroke="red" stroke-width="6.660000" />
<circle cx="1741.959961" cy="352.959991" r="19.980000" fill="red">
  <title>Delhi</title>
</circle><line x1="1811.959961" y1="599.960022" x2="1741.959961" y2="352.959991" stroke="red" stroke-width="6.660000" />
<circle cx="1173.959961" cy="156.959991" r="19.980000" fill="red">
  <title>Beijing</title>
</circle><line x1="1741.959961" y1="352.959991" x2="1173.959961" y2="156.959991" stroke="red" stroke-width="6.660000" />
</svg>
