<?xml version="1.0" encoding="UTF-8" standalone="no"?>
<svg width="500" height="500" viewBox="0 0 2074.000000 2074.000000" xmlns="http://www.w3.org/2000/svg">
<rect x="19.000000" y="19.000000" width="2036.000000" height="2036.000000" fill="black" />
<circle cx="234.959991" cy="734.960022" r="19.980000" fill="red">
  <title>Tokyo</title>
</circle><line x1="739.960022" y1="803.960022" x2="234.959991" y2="734.960022" stroke="red" stroke-width="6.660000" />
<circle cx="460.959991" cy="1321.959961" r="19.980000" fill="red">
  <title>Beijing</title>
</circle><line x1="234.959991" y1="734.960022" x2="460.959991" y2="1321.959961" stroke="red" stroke-width="6.660000" />
<circle cx="206.959991" cy="1762.959961" r="19.980000" fill="red">
  <title>Karachi</title>
</circle><line x1="460.959991" y1="1321.959961" x2="206.959991" y2="1762.959961" stroke="red" stroke-width="6.660000" />
<circle cx="462.959991" cy="2002.959961" r="19.980000" fill="red">
  <title>Cairo</title>
</circle><line x1="206.959991" y1="1762.959961" x2="462.959991" y2="2002.959961" stroke="red" stroke-width="6.660000" />
<circle cx="473.959991" cy="1386.959961" r="19.980000" fill="red">
  <title>Delhi</title>
</circle><line x1="462.959991" y1="2002.959961" x2="473.959991" y2="1386.959961" stroke="red" stroke-width="6.660000" />
<circle cx="1112.959961" cy="1123.959961" r="19.980000" fill="red">
  <title>Mexico City</title>
</circle><line x1="473.959991" y1="1386.959961" x2="1112.959961" y2="1123.959961" stroke="red" stroke-width="6.660000" />
<circle cx="1358.959961" cy="1564.959961" r="19.980000" fill="red">
  <title>Shanghai</title>
</circle><line x1="1112.959961" y1="1123.959961" x2="1358.959961" y2="1564.959961" stroke="red" stroke-width="6.660000" />
<circle cx="1488.959961" cy="1749.959961" r="19.980000" fill="red">
  <title>Mumbai</title>
</circle><line x1="1358.959961" y1="1564.959961" x2="1488.959961" y2="1749.959961" stroke="red" stroke-width="6.660000" />
<circle cx="1610.959961" cy="1265.959961" r="19.980000" fill="red">
  <title>Dhaka</title>
</circle><line x1="1488.959961" y1="1749.959961" x2="1610.959961" y2="1265.959961" stroke="red" stroke-width="6.660000" />
<circle cx="1710.959961" cy="819.960022" r="19.980000" fill="red">
  <title>São Paulo</title>
</circle><line x1="1610.959961" y1="1265.959961" x2="1710.959961" y2="819.960022" stroke="red" stroke-width="6.660000" />
<circle cx="1179.959961" cy="164.959991" r="19.980000" fill="red">
  <title>New York</title>
</circle><line x1="1710.959961" y1="819.960022" x2="1179.959961" y2="164.959991" stroke="red" stroke-width="6.660000" />
<circle cx="739.960022" cy="803.960022" r="19.980000" fill="red">
  <title>Osaka</title>
</circle><line x1="1179.959961" y1="164.959991" x2="739.960022" y2="803.960022" stroke="red" stroke-width="6.660000" />
</svg>
