<?xml version="1.0" encoding="UTF-8" standalone="no"?>
<svg width="500" height="500" viewBox="0 0 2074.000000 2074.000000" xmlns="http://www.w3.org/2000/svg">
<rect x="19.000000" y="19.000000" width="2036.000000" height="2036.000000" fill="black" />
<circle cx="490.959991" cy="425.959991" r="19.980000" fill="red">
  <title>Tokyo</title>
</circle><line x1="1075.959961" y1="757.960022" x2="490.959991" y2="425.959991" stroke="red" stroke-width="6.660000" />
<circle cx="1081.959961" cy="404.959991" r="19.980000" fill="red">
  <title>Shanghai</title>
</circle><line x1="490.959991" y1="425.959991" x2="1081.959961" y2="404.959991" stroke="red" stroke-width="6.660000" />
<circle cx="1189.959961" cy="71.959999" r="19.980000" fill="red">
  <title>São Paulo</title>
</circle><line x1="1081.959961" y1="404.959991" x2="1189.959961" y2="71.959999" stroke="red" stroke-width="6.660000" />
<circle cx="1318.959961" cy="629.960022" r="19.980000" fill="red">
  <title>Beijing</title>
</circle><line x1="1189.959961" y1="71.959999" x2="1318.959961" y2="629.960022" stroke="red" stroke-width="6.660000" />
<circle cx="1747.959961" cy="1375.959961" r="19.980000" fill="red">
  <title>Mumbai</title>
</circle><line x1="1318.959961" y1="629.960022" x2="1747.959961" y2="1375.959961" stroke="red" stroke-width="6.660000" />
<circle cx="1879.959961" cy="1503.959961" r="19.980000" fill="red">
  <title>Mexico City</title>
</circle><line x1="1747.959961" y1="1375.959961" x2="1879.959961" y2="1503.959961" stroke="red" stroke-width="6.660000" />
<circle cx="1336.959961" cy="1954.959961" r="19.980000" fill="red">
  <title>Delhi</title>
</circle><line x1="1879.959961" y1="1503.959961" x2="1336.959961" y2="1954.959961" stroke="red" stroke-width="6.660000" />
<circle cx="900.960022" cy="1057.959961" r="19.980000" fill="red">
  <title>Dhaka</title>
</circle><line x1="1336.959961" y1="1954.959961" x2="900.960022" y2="1057.959961" stroke="red" stroke-width="6.660000" />
<circle cx="1075.959961" cy="757.960022" r="19.980000" fill="red">
  <title>Cairo</title>
</circle><line x1="900.960022" y1="1057.959961" x2="1075.959961" y2="757.960022" stroke="red" stroke-width="6.660000" />
</svg>
