<?xml version="1.0" encoding="UTF-8" standalone="no"?>
<svg width="500" height="500" viewBox="0 0 2074.000000 2074.000000" xmlns="http://www.w3.org/2000/svg">
<rect x="19.000000" y="19.000000" width="2036.000000" height="2036.000000" fill="black" />
<circle cx="322.959991" cy="404.959991" r="19.980000" fill="red">
  <title>Tokyo</title>
</circle><line x1="749.960022" y1="856.960022" x2="322.959991" y2="404.959991" stroke="red" stroke-width="6.660000" />
<circle cx="86.959999" cy="53.959999" r="19.980000" fill="red">
  <title>Cairo</title>
</circle><line x1="322.959991" y1="404.959991" x2="86.959999" y2="53.959999" stroke="red" stroke-width="6.660000" />
<circle cx="498.959991" cy="400.959991" r="19.980000" fill="red">
  <title>Dhaka</title>
</circle><line x1="86.959999" y1="53.959999" x2="498.959991" y2="400.959991" stroke="red" stroke-width="6.660000" />
<circle cx="1490.959961" cy="228.959991" r="19.980000" fill="red">
  <title>New York</title>
</circle><line x1="498.959991" y1="400.959991" x2="1490.959961" y2="228.959991" stroke="red" stroke-width="6.660000" />
<circle cx="1916.959961" cy="1691.959961" r="19.980000" fill="red">
  <title>Delhi</title>
</circle><line x1="1490.959961" y1="228.959991" x2="1916.959961" y2="1691.959961" stroke="red" stroke-width="6.660000" />
<circle cx="1255.959961" cy="1959.959961" r="19.980000" fill="red">
  <title>Karachi</title>
</circle><line x1="1916.959961" y1="1691.959961" x2="1255.959961" y2="1959.959961" stroke="red" stroke-width="6.660000" />
<circle cx="1239.959961" cy="1949.959961" r="19.980000" fill="red">
  <title>Osaka</title>
</circle><line x1="1255.959961" y1="1959.959961" x2="1239.959961" y2="1949.959961" stroke="red" stroke-width="6.660000" />
<circle cx="1227.959961" cy="1840.959961" r="19.980000" fill="red">
  <title>Mumbai</title>
</circle><line x1="1239.959961" y1="1949.959961" x2="1227.959961" y2="1840.959961" stroke="red" stroke-width="6.660000" />
<circle cx="390.959991" cy="1812.959961" r="19.980000" fill="red">
  <title>Shanghai</title>
</circle><line x1="1227.959961" y1="1840.959961" x2="390.959991" y2="1812.959961" stroke="red" stroke-width="6.660000" />
<circle cx="589.960022" cy="1379.959961" r="19.980000" fill="red">
  <title>São Paulo</title>
</circle><line x1="390.959991" y1="1812.959961" x2="589.960022" y2="1379.959961" stroke="red" stroke-width="6.660000" />
<circle cx="840.960022" cy="1310.959961" r="19.980000" fill="red">
  <title>Mexico City</title>
</circle><line x1="589.960022" y1="1379.959961" x2="840.960022" y2="1310.959961" stroke="red" stroke-width="6.660000" />
<circle cx="749.960022" cy="856.960022" r="19.980000" fill="red">
  <title>Beijing</title>
</circle><line x1="840.960022" y1="1310.959961" x2="749.960022" y2="856.960022" stroke="red" stroke-width="6.660000" />
</svg>
