<?xml version="1.0" encoding="UTF-8" standalone="no"?>
<svg width="500" height="500" viewBox="0 0 2074.000000 2074.000000" xmlns="http://www.w3.org/2000/svg">
<rect x="19.000000" y="19.000000" width="2036.000000" height="2036.000000" fill="black" />
<circle cx="1081.959961" cy="1652.959961" r="19.980000" fill="red">
  <title>Tokyo</title>
</circle><line x1="271.959991" y1="1982.959961" x2="1081.959961" y2="1652.959961" stroke="red" stroke-width="6.660000" />
<circle cx="2035.959961" cy="1581.959961" r="19.980000" fill="red">
  <title>São Paulo</title>
</circle><line x1="1081.959961" y1="1652.959961" x2="2035.959961" y2="1581.959961" stroke="red" stroke-width="6.660000" />
<circle cx="2019.959961" cy="669.960022" r="19.980000" fill="red">
  <title>Mumbai</title>
</circle><line x1="2035.959961" y1="1581.959961" x2="2019.959961" y2="669.960022" stroke="red" stroke-width="6.660000" />
<circle cx="2006.959961" cy="549.960022" r="19.980000" fill="red">
  <title>Cairo</title>
</circle><line x1="2019.959961" y1="669.960022" x2="2006.959961" y2="549.960022" stroke="red" stroke-width="6.660000" />
<circle cx="1283.959961" cy="319.959991" r="19.980000" fill="red">
  <title>Shanghai</title>
</circle><line x1="2006.959961" y1="549.960022" x2="1283.959961" y2="319.959991" stroke="red" stroke-width="6.660000" />
<circle cx="862.960022" cy="519.960022" r="19.980000" fill="red">
  <title>Mexico City</title>
</circle><line x1="1283.959961" y1="319.959991" x2="862.960022" y2="519.960022" stroke="red" stroke-width="6.660000" />
<circle cx="518.960022" cy="157.959991" r="19.980000" fill="red">
  <title>Dhaka</title>
</circle><line x1="862.960022" y1="519.960022" x2="518.960022" y2="157.959991" stroke="red" stroke-width="6.660000" />
<circle cx="809.960022" cy="734.960022" r="19.980000" fill="red">
  <title>Beijing</title>
</circle><line x1="518.960022" y1="157.959991" x2="809.960022" y2="734.960022" stroke="red" stroke-width="6.660000" />
<circle cx="762.960022" cy="1038.959961" r="19.980000" fill="red">
  <title>Osaka</title>
</circle><line x1="809.960022" y1="734.960022" x2="762.960022" y2="1038.959961" stroke="red" stroke-width="6.660000" />
<circle cx="350.959991" cy="1026.959961" r="19.980000" fill="red">
  <title>Delhi</title>
</circle><line x1="762.960022" y1="1038.959961" x2="350.959991" y2="1026.959961" stroke="red" stroke-width="6.660000" />
<circle cx="271.959991" cy="1982.959961" r="19.980000" fill="red">
  <title>New York</title>
</circle><line x1="350.959991" y1="1026.959961" x2="271.959991" y2="1982.959961" stroke="red" stroke-width="6.660000" />
</svg>
