<?xml version="1.0" encoding="UTF-8" standalone="no"?>
<svg width="500" height="500" viewBox="0 0 2074.000000 2074.000000" xmlns="http://www.w3.org/2000/svg">
<rect x="19.000000" y="19.000000" width="2036.000000" height="2036.000000" fill="black" />
<circle cx="668.960022" cy="967.960022" r="19.980000" fill="red">
  <title>Tokyo</title>
</circle><line x1="149.959991" y1="1662.959961" x2="668.960022" y2="967.960022" stroke="red" stroke-width="6.660000" />
<circle cx="826.960022" cy="1040.959961" r="19.980000" fill="red">
  <title>Delhi</title>
</circle><line x1="668.960022" y1="967.960022" x2="826.960022" y2="1040.959961" stroke="red" stroke-width="6.660000" />
<circle cx="735.960022" cy="577.960022" r="19.980000" fill="red">
  <title>Istanbul</title>
</circle><line x1="826.960022" y1="1040.959961" x2="735.960022" y2="577.960022" stroke="red" stroke-width="6.660000" />
<circle cx="416.959991" cy="417.959991" r="19.980000" fill="red">
  <title>New York</title>
</circle><line x1="735.960022" y1="577.960022" x2="416.959991" y2="417.959991" stroke="red" stroke-width="6.660000" />
<circle cx="756.960022" cy="264.959991" r="19.980000" fill="red">
  <title>Dhaka</title>
</circle><line x1="416.959991" y1="417.959991" x2="756.960022" y2="264.959991" stroke="red" stroke-width="6.660000" />
<circle cx="1058.959961" cy="462.959991" r="19.980000" fill="red">
  <title>Mexico City</title>
</circle><line x1="756.960022" y1="264.959991" x2="1058.959961" y2="462.959991" stroke="red" stroke-width="6.660000" />
<circle cx="1644.959961" cy="471.959991" r="19.980000" fill="red">
  <title>Cairo</title>
</circle><line x1="1058.959961" y1="462.959991" x2="1644.959961" y2="471.959991" stroke="red" stroke-width="6.660000" />
<circle cx="1700.959961" cy="45.959999" r="19.980000" fill="red">
  <title>São Paulo</title>
</circle><line x1="1644.959961" y1="471.959991" x2="1700.959961" y2="45.959999" stroke="red" stroke-width="6.660000" />
<circle cx="1992.959961" cy="306.959991" r="19.980000" fill="red">
  <title>Chongqing</title>
</circle><line x1="1700.959961" y1="45.959999" x2="1992.959961" y2="306.959991" stroke="red" stroke-width="6.660000" />
<circle cx="1934.959961" cy="1241.959961" r="19.980000" fill="red">
  <title>Beijing</title>
</circle><line x1="1992.959961" y1="306.959991" x2="1934.959961" y2="1241.959961" stroke="red" stroke-width="6.660000" />
<circle cx="1462.959961" cy="1586.959961" r="19.980000" fill="red">
  <title>Shanghai</title>
</circle><line x1="1934.959961" y1="1241.959961" x2="1462.959961" y2="1586.959961" stroke="red" stroke-width="6.660000" />
<circle cx="1444.959961" cy="1704.959961" r="19.980000" fill="red">
  <title>Mumbai</title>
</circle><line x1="1462.959961" y1="1586.959961" x2="1444.959961" y2="1704.959961" stroke="red" stroke-width="6.660000" />
<circle cx="1118.959961" cy="1670.959961" r="19.980000" fill="red">
  <title>Buenos Aires</title>
</circle><line x1="1444.959961" y1="1704.959961" x2="1118.959961" y2="1670.959961" stroke="red" stroke-width="6.660000" />
<circle cx="1069.959961" cy="1679.959961" r="19.980000" fill="red">
  <title>Osaka</title>
</circle><line x1="1118.959961" y1="1670.959961" x2="1069.959961" y2="1679.959961" stroke="red" stroke-width="6.660000" />
<circle cx="149.959991" cy="1662.959961" r="19.980000" fill="red">
  <title>Karachi</title>
</circle><line x1="1069.959961" y1="1679.959961" x2="149.959991" y2="1662.959961" stroke="red" stroke-width="6.660000" />
</svg>
