<?xml version="1.0" encoding="UTF-8" standalone="no"?>
<svg width="500" height="500" viewBox="0 0 2074.000000 2074.000000" xmlns="http://www.w3.org/2000/svg">
<rect x="19.000000" y="19.000000" width="2036.000000" height="2036.000000" fill="black" />
<circle cx="729.960022" cy="1315.959961" r="19.980000" fill="red">
  <title>Tokyo</title>
</circle><line x1="474.959991" y1="1204.959961" x2="729.960022" y2="1315.959961" stroke="red" stroke-width="6.660000" />
<circle cx="1224.959961" cy="995.960022" r="19.980000" fill="red">
  <title>Chongqing</title>
</circle><line x1="729.960022" y1="1315.959961" x2="1224.959961" y2="995.960022" stroke="red" stroke-width="6.660000" />
<circle cx="1581.959961" cy="541.960022" r="19.980000" fill="red">
  <title>Shanghai</title>
</circle><line x1="1224.959961" y1="995.960022" x2="1581.959961" y2="541.960022" stroke="red" stroke-width="6.660000" />
<circle cx="1705.959961" cy="370.959991" r="19.980000" fill="red">
  <title>Dhaka</title>
</circle><line x1="1581.959961" y1="541.960022" x2="1705.959961" y2="370.959991" stroke="red" stroke-width="6.660000" />
<circle cx="1713.959961" cy="1056.959961" r="19.980000" fill="red">
  <title>Osaka</title>
</circle><line x1="1705.959961" y1="370.959991" x2="1713.959961" y2="1056.959961" stroke="red" stroke-width="6.660000" />
<circle cx="1635.959961" cy="1178.959961" r="19.980000" fill="red">
  <title>Istanbul</title>
</circle><line x1="1713.959961" y1="1056.959961" x2="1635.959961" y2="1178.959961" stroke="red" stroke-width="6.660000" />
<circle cx="1983.959961" cy="1579.959961" r="19.980000" fill="red">
  <title>New York</title>
</circle><line x1="1635.959961" y1="1178.959961" x2="1983.959961" y2="1579.959961" stroke="red" stroke-width="6.660000" />
<circle cx="1236.959961" cy="1673.959961" r="19.980000" fill="red">
  <title>Delhi</title>
</circle><line x1="1983.959961" y1="1579.959961" x2="1236.959961" y2="1673.959961" stroke="red" stroke-width="6.660000" />
<circle cx="1134.959961" cy="1747.959961" r="19.980000" fill="red">
  <title>Beijing</title>
</circle><line x1="1236.959961" y1="1673.959961" x2="1134.959961" y2="1747.959961" stroke="red" stroke-width="6.660000" />
<circle cx="337.959991" cy="1866.959961" r="19.980000" fill="red">
  <title>Mexico City</title>
</circle><line x1="1134.959961" y1="1747.959961" x2="337.959991" y2="1866.959961" stroke="red" stroke-width="6.660000" />
<circle cx="315.959991" cy="2011.959961" r="19.980000" fill="red">
  <title>São Paulo</title>
</circle><line x1="337.959991" y1="1866.959961" x2="315.959991" y2="2011.959961" stroke="red" stroke-width="6.660000" />
<circle cx="94.959999" cy="1660.959961" r="19.980000" fill="red">
  <title>Mumbai</title>
</circle><line x1="315.959991" y1="2011.959961" x2="94.959999" y2="1660.959961" stroke="red" stroke-width="6.660000" />
<circle cx="159.959991" cy="1298.959961" r="19.980000" fill="red">
  <title>Karachi</title>
</circle><line x1="94.959999" y1="1660.959961" x2="159.959991" y2="1298.959961" stroke="red" stroke-width="6.660000" />
<circle cx="59.959999" cy="614.960022" r="19.980000" fill="red">
  <title>Cairo</title>
</circle><line x1="159.959991" y1="1298.959961" x2="59.959999" y2="614.960022" stroke="red" stroke-width="6.660000" />
<circle cx="474.959991" cy="1204.959961" r="19.980000" fill="red">
  <title>Buenos Aires</title>
</circle><line x1="59.959999" y1="614.960022" x2="474.959991" y2="1204.959961" stroke="red" stroke-width="6.660000" />
</svg>
