<?xml version="1.0" encoding="UTF-8" standalone="no"?>
<svg width="500" height="500" viewBox="0 0 2074.000000 2074.000000" xmlns="http://www.w3.org/2000/svg">
<rect x="19.000000" y="19.000000" width="2036.000000" height="2036.000000" fill="black" />
<circle cx="165.959991" cy="1261.959961" r="19.980000" fill="red">
  <title>Tokyo</title>
</circle><line x1="177.959991" y1="1327.959961" x2="165.959991" y2="1261.959961" stroke="red" stroke-width="6.660000" />
<circle cx="938.960022" cy="1524.959961" r="19.980000" fill="red">
  <title>Dhaka</title>
</circle><line x1="165.959991" y1="1261.959961" x2="938.960022" y2="1524.959961" stroke="red" stroke-width="6.660000" />
<circle cx="1280.959961" cy="1183.959961" r="19.980000" fill="red">
  <title>Beijing</title>
</circle><line x1="938.960022" y1="1524.959961" x2="1280.959961" y2="1183.959961" stroke="red" stroke-width="6.660000" />
<circle cx="1400.959961" cy="1054.959961" r="19.980000" fill="red">
  <title>Buenos Aires</title>
</circle><line x1="1280.959961" y1="1183.959961" x2="1400.959961" y2="1054.959961" stroke="red" stroke-width="6.660000" />
<circle cx="1459.959961" cy="624.960022" r="19.980000" fill="red">
  <title>Mumbai</title>
</circle><line x1="1400.959961" y1="1054.959961" x2="1459.959961" y2="624.960022" stroke="red" stroke-width="6.660000" />
<circle cx="1445.959961" cy="261.959991" r="19.980000" fill="red">
  <title>Istanbul</title>
</circle><line x1="1459.959961" y1="624.960022" x2="1445.959961" y2="261.959991" stroke="red" stroke-width="6.660000" />
<circle cx="1290.959961" cy="124.959999" r="19.980000" fill="red">
  <title>Cairo</title>
</circle><line x1="1445.959961" y1="261.959991" x2="1290.959961" y2="124.959999" stroke="red" stroke-width="6.660000" />
<circle cx="1390.959961" cy="96.959999" r="19.980000" fill="red">
  <title>Chongqing</title>
</circle><line x1="1290.959961" y1="124.959999" x2="1390.959961" y2="96.959999" stroke="red" stroke-width="6.660000" />
<circle cx="1722.959961" cy="224.959991" r="19.980000" fill="red">
  <title>Mexico City</title>
</circle><line x1="1390.959961" y1="96.959999" x2="1722.959961" y2="224.959991" stroke="red" stroke-width="6.660000" />
<circle cx="1475.959961" cy="369.959991" r="19.980000" fill="red">
  <title>Shanghai</title>
</circle><line x1="1722.959961" y1="224.959991" x2="1475.959961" y2="369.959991" stroke="red" stroke-width="6.660000" />
<circle cx="1475.959961" cy="921.960022" r="19.980000" fill="red">
  <title>Lagos</title>
</circle><line x1="1475.959961" y1="369.959991" x2="1475.959961" y2="921.960022" stroke="red" stroke-width="6.660000" />
<circle cx="1484.959961" cy="1214.959961" r="19.980000" fill="red">
  <title>Manila</title>
</circle><line x1="1475.959961" y1="921.960022" x2="1484.959961" y2="1214.959961" stroke="red" stroke-width="6.660000" />
<circle cx="1364.959961" cy="1260.959961" r="19.980000" fill="red">
  <title>Osaka</title>
</circle><line x1="1484.959961" y1="1214.959961" x2="1364.959961" y2="1260.959961" stroke="red" stroke-width="6.660000" />
<circle cx="1437.959961" cy="1327.959961" r="19.980000" fill="red">
  <title>Karachi</title>
</circle><line x1="1364.959961" y1="1260.959961" x2="1437.959961" y2="1327.959961" stroke="red" stroke-width="6.660000" />
<circle cx="1888.959961" cy="1572.959961" r="19.980000" fill="red">
  <title>Kolkata</title>
</circle><line x1="1437.959961" y1="1327.959961" x2="1888.959961" y2="1572.959961" stroke="red" stroke-width="6.660000" />
<circle cx="1544.959961" cy="1742.959961" r="19.980000" fill="red">
  <title>Rio de Janeiro</title>
</circle><line x1="1888.959961" y1="1572.959961" x2="1544.959961" y2="1742.959961" stroke="red" stroke-width="6.660000" />
<circle cx="1363.959961" cy="1941.959961" r="19.980000" fill="red">
  <title>Delhi</title>
</circle><line x1="1544.959961" y1="1742.959961" x2="1363.959961" y2="1941.959961" stroke="red" stroke-width="6.660000" />
<circle cx="305.959991" cy="1859.959961" r="19.980000" fill="red">
  <title>São Paulo</title>
</circle><line x1="1363.959961" y1="1941.959961" x2="305.959991" y2="1859.959961" stroke="red" stroke-width="6.660000" />
<circle cx="177.959991" cy="1327.959961" r="19.980000" fill="red">
  <title>New York</title>
</circle><line x1="305.959991" y1="1859.959961" x2="177.959991" y2="1327.959961" stroke="red" stroke-width="6.660000" />
</svg>
