<?xml version="1.0" encoding="UTF-8" standalone="no"?>
<svg width="500" height="500" viewBox="0 0 2074.000000 2074.000000" xmlns="http://www.w3.org/2000/svg">
<rect x="19.000000" y="19.000000" width="2036.000000" height="2036.000000" fill="black" />
<circle cx="2010.959961" cy="303.959991" r="19.980000" fill="red">
  <title>Tokyo</title>
</circle><line x1="1852.959961" y1="378.959991" x2="2010.959961" y2="303.959991" stroke="red" stroke-width="6.660000" />
<circle cx="1930.959961" cy="413.959991" r="19.980000" fill="red">
  <title>Beijing</title>
</circle><line x1="2010.959961" y1="303.959991" x2="1930.959961" y2="413.959991" stroke="red" stroke-width="6.660000" />
<circle cx="1893.959961" cy="1206.959961" r="19.980000" fill="red">
  <title>Mumbai</title>
</circle><line x1="1930.959961" y1="413.959991" x2="1893.959961" y2="1206.959961" stroke="red" stroke-width="6.660000" />
<circle cx="1766.959961" cy="1642.959961" r="19.980000" fill="red">
  <title>Manila</title>
</circle><line x1="1893.959961" y1="1206.959961" x2="1766.959961" y2="1642.959961" stroke="red" stroke-width="6.660000" />
<circle cx="1242.959961" cy="1789.959961" r="19.980000" fill="red">
  <title>Cairo</title>
</circle><line x1="1766.959961" y1="1642.959961" x2="1242.959961" y2="1789.959961" stroke="red" stroke-width="6.660000" />
<circle cx="911.960022" cy="1857.959961" r="19.980000" fill="red">
  <title>Delhi</title>
</circle><line x1="1242.959961" y1="1789.959961" x2="911.960022" y2="1857.959961" stroke="red" stroke-width="6.660000" />
<circle cx="769.960022" cy="2032.959961" r="19.980000" fill="red">
  <title>Kolkata</title>
</circle><line x1="911.960022" y1="1857.959961" x2="769.960022" y2="2032.959961" stroke="red" stroke-width="6.660000" />
<circle cx="650.960022" cy="2032.959961" r="19.980000" fill="red">
  <title>Shanghai</title>
</circle><line x1="769.960022" y1="2032.959961" x2="650.960022" y2="2032.959961" stroke="red" stroke-width="6.660000" />
<circle cx="597.960022" cy="1567.959961" r="19.980000" fill="red">
  <title>Karachi</title>
</circle><line x1="650.960022" y1="2032.959961" x2="597.960022" y2="1567.959961" stroke="red" stroke-width="6.660000" />
<circle cx="378.959991" cy="1715.959961" r="19.980000" fill="red">
  <title>Osaka</title>
</circle><line x1="597.960022" y1="1567.959961" x2="378.959991" y2="1715.959961" stroke="red" stroke-width="6.660000" />
<circle cx="61.959999" cy="1501.959961" r="19.980000" fill="red">
  <title>Istanbul</title>
</circle><line x1="378.959991" y1="1715.959961" x2="61.959999" y2="1501.959961" stroke="red" stroke-width="6.660000" />
<circle cx="412.959991" cy="1499.959961" r="19.980000" fill="red">
  <title>New York</title>
</circle><line x1="61.959999" y1="1501.959961" x2="412.959991" y2="1499.959961" stroke="red" stroke-width="6.660000" />
<circle cx="533.960022" cy="407.959991" r="19.980000" fill="red">
  <title>Dhaka</title>
</circle><line x1="412.959991" y1="1499.959961" x2="533.960022" y2="407.959991" stroke="red" stroke-width="6.660000" />
<circle cx="673.960022" cy="383.959991" r="19.980000" fill="red">
  <title>São Paulo</title>
</circle><line x1="533.960022" y1="407.959991" x2="673.960022" y2="383.959991" stroke="red" stroke-width="6.660000" />
<circle cx="719.960022" cy="521.960022" r="19.980000" fill="red">
  <title>Mexico City</title>
</circle><line x1="673.960022" y1="383.959991" x2="719.960022" y2="521.960022" stroke="red" stroke-width="6.660000" />
<circle cx="1385.959961" cy="1101.959961" r="19.980000" fill="red">
  <title>Chongqing</title>
</circle><line x1="719.960022" y1="521.960022" x2="1385.959961" y2="1101.959961" stroke="red" stroke-width="6.660000" />
<circle cx="1588.959961" cy="1136.959961" r="19.980000" fill="red">
  <title>Buenos Aires</title>
</circle><line x1="1385.959961" y1="1101.959961" x2="1588.959961" y2="1136.959961" stroke="red" stroke-width="6.660000" />
<circle cx="1852.959961" cy="378.959991" r="19.980000" fill="red">
  <title>Lagos</title>
</circle><line x1="1588.959961" y1="1136.959961" x2="1852.959961" y2="378.959991" stroke="red" stroke-width="6.660000" />
</svg>
