<?xml version="1.0" encoding="UTF-8" standalone="no"?>
<svg width="500" height="500" viewBox="0 0 2074.000000 2074.000000" xmlns="http://www.w3.org/2000/svg">
<rect x="19.000000" y="19.000000" width="2036.000000" height="2036.000000" fill="black" />
<circle cx="68.959999" cy="1048.959961" r="19.980000" fill="red">
  <title>Tokyo</title>
</circle><line x1="476.959991" y1="86.959999" x2="68.959999" y2="1048.959961" stroke="red" stroke-width="6.660000" />
<circle cx="1677.959961" cy="929.960022" r="19.980000" fill="red">
  <title>Delhi</title>
</circle><line x1="68.959999" y1="1048.959961" x2="1677.959961" y2="929.960022" stroke="red" stroke-width="6.660000" />
<circle cx="1893.959961" cy="931.960022" r="19.980000" fill="red">
  <title>São Paulo</title>
</circle><line x1="1677.959961" y1="929.960022" x2="1893.959961" y2="931.960022" stroke="red" stroke-width="6.660000" />
<circle cx="2018.959961" cy="547.960022" r="19.980000" fill="red">
  <title>Shanghai</title>
</circle><line x1="1893.959961" y1="931.960022" x2="2018.959961" y2="547.960022" stroke="red" stroke-width="6.660000" />
<circle cx="476.959991" cy="86.959999" r="19.980000" fill="red">
  <title>Mexico City</title>
</circle><line x1="2018.959961" y1="547.960022" x2="476.959991" y2="86.959999" stroke="red" stroke-width="6.660000" />
</svg>
