<?xml version="1.0" encoding="UTF-8" standalone="no"?>
<svg width="500" height="500" viewBox="0 0 2074.000000 2074.000000" xmlns="http://www.w3.org/2000/svg">
<rect x="19.000000" y="19.000000" width="2036.000000" height="2036.000000" fill="black" />
<circle cx="819.960022" cy="1520.959961" r="19.980000" fill="red">
  <title>Tokyo</title>
</circle><line x1="1368.959961" y1="1641.959961" x2="819.960022" y2="1520.959961" stroke="red" stroke-width="6.660000" />
<circle cx="635.960022" cy="1782.959961" r="19.980000" fill="red">
  <title>Osaka</title>
</circle><line x1="819.960022" y1="1520.959961" x2="635.960022" y2="1782.959961" stroke="red" stroke-width="6.660000" />
<circle cx="593.960022" cy="2028.959961" r="19.980000" fill="red">
  <title>Mumbai</title>
</circle><line x1="635.960022" y1="1782.959961" x2="593.960022" y2="2028.959961" stroke="red" stroke-width="6.660000" />
<circle cx="534.960022" cy="1891.959961" r="19.980000" fill="red">
  <title>New York</title>
</circle><line x1="593.960022" y1="2028.959961" x2="534.960022" y2="1891.959961" stroke="red" stroke-width="6.660000" />
<circle cx="291.959991" cy="1787.959961" r="19.980000" fill="red">
  <title>Cairo</title>
</circle><line x1="534.960022" y1="1891.959961" x2="291.959991" y2="1787.959961" stroke="red" stroke-width="6.660000" />
<circle cx="100.959999" cy="1845.959961" r="19.980000" fill="red">
  <title>Mexico City</title>
</circle><line x1="291.959991" y1="1787.959961" x2="100.959999" y2="1845.959961" stroke="red" stroke-width="6.660000" />
<circle cx="304.959991" cy="1754.959961" r="19.980000" fill="red">
  <title>Karachi</title>
</circle><line x1="100.959999" y1="1845.959961" x2="304.959991" y2="1754.959961" stroke="red" stroke-width="6.660000" />
<circle cx="503.959991" cy="1531.959961" r="19.980000" fill="red">
  <title>São Paulo</title>
</circle><line x1="304.959991" y1="1754.959961" x2="503.959991" y2="1531.959961" stroke="red" stroke-width="6.660000" />
<circle cx="394.959991" cy="1217.959961" r="19.980000" fill="red">
  <title>Dhaka</title>
</circle><line x1="503.959991" y1="1531.959961" x2="394.959991" y2="1217.959961" stroke="red" stroke-width="6.660000" />
<circle cx="1181.959961" cy="200.959991" r="19.980000" fill="red">
  <title>Delhi</title>
</circle><line x1="394.959991" y1="1217.959961" x2="1181.959961" y2="200.959991" stroke="red" stroke-width="6.660000" />
<circle cx="1834.959961" cy="167.959991" r="19.980000" fill="red">
  <title>Beijing</title>
</circle><line x1="1181.959961" y1="200.959991" x2="1834.959961" y2="167.959991" stroke="red" stroke-width="6.660000" />
<circle cx="1955.959961" cy="1282.959961" r="19.980000" fill="red">
  <title>Buenos Aires</title>
</circle><line x1="1834.959961" y1="167.959991" x2="1955.959961" y2="1282.959961" stroke="red" stroke-width="6.660000" />
<circle cx="1950.959961" cy="1648.959961" r="19.980000" fill="red">
  <title>Shanghai</title>
</circle><line x1="1955.959961" y1="1282.959961" x2="1950.959961" y2="1648.959961" stroke="red" stroke-width="6.660000" />
<circle cx="1368.959961" cy="1641.959961" r="19.980000" fill="red">
  <title>Chongqing</title>
</circle><line x1="1950.959961" y1="1648.959961" x2="1368.959961" y2="1641.959961" stroke="red" stroke-width="6.660000" />
</svg>
