<?xml version="1.0" encoding="UTF-8" standalone="no"?>
<svg width="500" height="500" viewBox="0 0 2074.000000 2074.000000" xmlns="http://www.w3.org/2000/svg">
<rect x="19.000000" y="19.000000" width="2036.000000" height="2036.000000" fill="black" />
<circle cx="1661.959961" cy="1066.959961" r="19.980000" fill="red">
  <title>Tokyo</title>
</circle><line x1="1640.959961" y1="1625.959961" x2="1661.959961" y2="1066.959961" stroke="red" stroke-width="6.660000" />
<circle cx="1113.959961" cy="920.960022" r="19.980000" fill="red">
  <title>Shanghai</title>
</circle><line x1="1661.959961" y1="1066.959961" x2="1113.959961" y2="920.960022" stroke="red" stroke-width="6.660000" />
<circle cx="922.960022" cy="1159.959961" r="19.980000" fill="red">
  <title>Mumbai</title>
</circle><line x1="1113.959961" y1="920.960022" x2="922.960022" y2="1159.959961" stroke="red" stroke-width="6.660000" />
<circle cx="925.960022" cy="1325.959961" r="19.980000" fill="red">
  <title>Manila</title>
</circle><line x1="922.960022" y1="1159.959961" x2="925.960022" y2="1325.959961" stroke="red" stroke-width="6.660000" />
<circle cx="1040.959961" cy="1897.959961" r="19.980000" fill="red">
  <title>Istanbul</title>
</circle><line x1="925.960022" y1="1325.959961" x2="1040.959961" y2="1897.959961" stroke="red" stroke-width="6.660000" />
<circle cx="426.959991" cy="1999.959961" r="19.980000" fill="red">
  <title>Lagos</title>
</circle><line x1="1040.959961" y1="1897.959961" x2="426.959991" y2="1999.959961" stroke="red" stroke-width="6.660000" />
<circle cx="211.959991" cy="1767.959961" r="19.980000" fill="red">
  <title>São Paulo</title>
</circle><line x1="426.959991" y1="1999.959961" x2="211.959991" y2="1767.959961" stroke="red" stroke-width="6.660000" />
<circle cx="163.959991" cy="1235.959961" r="19.980000" fill="red">
  <title>New York</title>
</circle><line x1="211.959991" y1="1767.959961" x2="163.959991" y2="1235.959961" stroke="red" stroke-width="6.660000" />
<circle cx="208.959991" cy="598.960022" r="19.980000" fill="red">
  <title>Rio de Janeiro</title>
</circle><line x1="163.959991" y1="1235.959961" x2="208.959991" y2="598.960022" stroke="red" stroke-width="6.660000" />
<circle cx="865.960022" cy="432.959991" r="19.980000" fill="red">
  <title>Osaka</title>
</circle><line x1="208.959991" y1="598.960022" x2="865.960022" y2="432.959991" stroke="red" stroke-width="6.660000" />
<circle cx="852.960022" cy="324.959991" r="19.980000" fill="red">
  <title>Beijing</title>
</circle><line x1="865.960022" y1="432.959991" x2="852.960022" y2="324.959991" stroke="red" stroke-width="6.660000" />
<circle cx="1317.959961" cy="97.959999" r="19.980000" fill="red">
  <title>Cairo</title>
</circle><line x1="852.960022" y1="324.959991" x2="1317.959961" y2="97.959999" stroke="red" stroke-width="6.660000" />
<circle cx="1488.959961" cy="663.960022" r="19.980000" fill="red">
  <title>Kolkata</title>
</circle><line x1="1317.959961" y1="97.959999" x2="1488.959961" y2="663.960022" stroke="red" stroke-width="6.660000" />
<circle cx="1753.959961" cy="988.960022" r="19.980000" fill="red">
  <title>Mexico City</title>
</circle><line x1="1488.959961" y1="663.960022" x2="1753.959961" y2="988.960022" stroke="red" stroke-width="6.660000" />
<circle cx="2021.959961" cy="1651.959961" r="19.980000" fill="red">
  <title>Chongqing</title>
</circle><line x1="1753.959961" y1="988.960022" x2="2021.959961" y2="1651.959961" stroke="red" stroke-width="6.660000" />
<circle cx="1875.959961" cy="1801.959961" r="19.980000" fill="red">
  <title>Delhi</title>
</circle><line x1="2021.959961" y1="1651.959961" x2="1875.959961" y2="1801.959961" stroke="red" stroke-width="6.660000" />
<circle cx="1785.959961" cy="1915.959961" r="19.980000" fill="red">
  <title>Dhaka</title>
</circle><line x1="1875.959961" y1="1801.959961" x2="1785.959961" y2="1915.959961" stroke="red" stroke-width="6.660000" />
<circle cx="1625.959961" cy="1630.959961" r="19.980000" fill="red">
  <title>Buenos Aires</title>
</circle><line x1="1785.959961" y1="1915.959961" x2="1625.959961" y2="1630.959961" stroke="red" stroke-width="6.660000" />
<circle cx="1640.959961" cy="1625.959961" r="19.980000" fill="red">
  <title>Karachi</title>
</circle><line x1="1625.959961" y1="1630.959961" x2="1640.959961" y2="1625.959961" stroke="red" stroke-width="6.660000" />
</svg>
