<?xml version="1.0" encoding="UTF-8" standalone="no"?>
<svg width="500" height="500" viewBox="0 0 2074.000000 2074.000000" xmlns="http://www.w3.org/2000/svg">
<rect x="19.000000" y="19.000000" width="2036.000000" height="2036.000000" fill="black" />
<circle cx="1890.959961" cy="1609.959961" r="19.980000" fill="red">
  <title>Tokyo</title>
</circle><line x1="1641.959961" y1="498.959991" x2="1890.959961" y2="1609.959961" stroke="red" stroke-width="6.660000" />
<circle cx="1759.959961" cy="1846.959961" r="19.980000" fill="red">
  <title>Cairo</title>
</circle><line x1="1890.959961" y1="1609.959961" x2="1759.959961" y2="1846.959961" stroke="red" stroke-width="6.660000" />
<circle cx="1469.959961" cy="1634.959961" r="19.980000" fill="red">
  <title>São Paulo</title>
</circle><line x1="1759.959961" y1="1846.959961" x2="1469.959961" y2="1634.959961" stroke="red" stroke-width="6.660000" />
<circle cx="1337.959961" cy="1844.959961" r="19.980000" fill="red">
  <title>Beijing</title>
</circle><line x1="1469.959961" y1="1634.959961" x2="1337.959961" y2="1844.959961" stroke="red" stroke-width="6.660000" />
<circle cx="427.959991" cy="1739.959961" r="19.980000" fill="red">
  <title>Dhaka</title>
</circle><line x1="1337.959961" y1="1844.959961" x2="427.959991" y2="1739.959961" stroke="red" stroke-width="6.660000" />
<circle cx="323.959991" cy="1422.959961" r="19.980000" fill="red">
  <title>Mexico City</title>
</circle><line x1="427.959991" y1="1739.959961" x2="323.959991" y2="1422.959961" stroke="red" stroke-width="6.660000" />
<circle cx="841.960022" cy="392.959991" r="19.980000" fill="red">
  <title>Delhi</title>
</circle><line x1="323.959991" y1="1422.959961" x2="841.960022" y2="392.959991" stroke="red" stroke-width="6.660000" />
<circle cx="853.960022" cy="316.959991" r="19.980000" fill="red">
  <title>Mumbai</title>
</circle><line x1="841.960022" y1="392.959991" x2="853.960022" y2="316.959991" stroke="red" stroke-width="6.660000" />
<circle cx="1641.959961" cy="498.959991" r="19.980000" fill="red">
  <title>Shanghai</title>
</circle><line x1="853.960022" y1="316.959991" x2="1641.959961" y2="498.959991" stroke="red" stroke-width="6.660000" />
</svg>
