<?xml version="1.0" encoding="UTF-8" standalone="no"?>
<svg width="500" height="500" viewBox="0 0 2074.000000 2074.000000" xmlns="http://www.w3.org/2000/svg">
<rect x="19.000000" y="19.000000" width="2036.000000" height="2036.000000" fill="black" />
<circle cx="1659.959961" cy="1114.959961" r="19.980000" fill="red">
  <title>Tokyo</title>
</circle><line x1="1632.959961" y1="1725.959961" x2="1659.959961" y2="1114.959961" stroke="red" stroke-width="6.660000" />
<circle cx="2030.959961" cy="856.960022" r="19.980000" fill="red">
  <title>São Paulo</title>
</circle><line x1="1659.959961" y1="1114.959961" x2="2030.959961" y2="856.960022" stroke="red" stroke-width="6.660000" />
<circle cx="1060.959961" cy="746.960022" r="19.980000" fill="red">
  <title>Shanghai</title>
</circle><line x1="2030.959961" y1="856.960022" x2="1060.959961" y2="746.960022" stroke="red" stroke-width="6.660000" />
<circle cx="1208.959961" cy="327.959991" r="19.980000" fill="red">
  <title>Cairo</title>
</circle><line x1="1060.959961" y1="746.960022" x2="1208.959961" y2="327.959991" stroke="red" stroke-width="6.660000" />
<circle cx="936.960022" cy="268.959991" r="19.980000" fill="red">
  <title>Delhi</title>
</circle><line x1="1208.959961" y1="327.959991" x2="936.960022" y2="268.959991" stroke="red" stroke-width="6.660000" />
<circle cx="475.959991" cy="678.960022" r="19.980000" fill="red">
  <title>Dhaka</title>
</circle><line x1="936.960022" y1="268.959991" x2="475.959991" y2="678.960022" stroke="red" stroke-width="6.660000" />
<circle cx="207.959991" cy="1207.959961" r="19.980000" fill="red">
  <title>Mexico City</title>
</circle><line x1="475.959991" y1="678.960022" x2="207.959991" y2="1207.959961" stroke="red" stroke-width="6.660000" />
<circle cx="1378.959961" cy="1833.959961" r="19.980000" fill="red">
  <title>Beijing</title>
</circle><line x1="207.959991" y1="1207.959961" x2="1378.959961" y2="1833.959961" stroke="red" stroke-width="6.660000" />
<circle cx="1632.959961" cy="1725.959961" r="19.980000" fill="red">
  <title>Mumbai</title>
</circle><line x1="1378.959961" y1="1833.959961" x2="1632.959961" y2="1725.959961" stroke="red" stroke-width="6.660000" />
</svg>
