<?xml version="1.0" encoding="UTF-8" standalone="no"?>
<svg width="500" height="500" viewBox="0 0 2074.000000 2074.000000" xmlns="http://www.w3.org/2000/svg">
<rect x="19.000000" y="19.000000" width="2036.000000" height="2036.000000" fill="black" />
<circle cx="1803.959961" cy="1100.959961" r="19.980000" fill="red">
  <title>Tokyo</title>
</circle><line x1="1543.959961" y1="287.959991" x2="1803.959961" y2="1100.959961" stroke="red" stroke-width="6.660000" />
<circle cx="856.960022" cy="1288.959961" r="19.980000" fill="red">
  <title>Delhi</title>
</circle><line x1="1803.959961" y1="1100.959961" x2="856.960022" y2="1288.959961" stroke="red" stroke-width="6.660000" />
<circle cx="596.960022" cy="1614.959961" r="19.980000" fill="red">
  <title>Shanghai</title>
</circle><line x1="856.960022" y1="1288.959961" x2="596.960022" y2="1614.959961" stroke="red" stroke-width="6.660000" />
<circle cx="283.959991" cy="1873.959961" r="19.980000" fill="red">
  <title>Mumbai</title>
</circle><line x1="596.960022" y1="1614.959961" x2="283.959991" y2="1873.959961" stroke="red" stroke-width="6.660000" />
<circle cx="84.959999" cy="787.960022" r="19.980000" fill="red">
  <title>Cairo</title>
</circle><line x1="283.959991" y1="1873.959961" x2="84.959999" y2="787.960022" stroke="red" stroke-width="6.660000" />
<circle cx="834.960022" cy="127.959999" r="19.980000" fill="red">
  <title>São Paulo</title>
</circle><line x1="84.959999" y1="787.960022" x2="834.960022" y2="127.959999" stroke="red" stroke-width="6.660000" />
<circle cx="1066.959961" cy="529.960022" r="19.980000" fill="red">
  <title>Mexico City</title>
</circle><line x1="834.960022" y1="127.959999" x2="1066.959961" y2="529.960022" stroke="red" stroke-width="6.660000" />
<circle cx="1543.959961" cy="287.959991" r="19.980000" fill="red">
  <title>Beijing</title>
</circle><line x1="1066.959961" y1="529.960022" x2="1543.959961" y2="287.959991" stroke="red" stroke-width="6.660000" />
</svg>
