<?xml version="1.0" encoding="UTF-8" standalone="no"?>
<svg width="500" height="500" viewBox="0 0 2074.000000 2074.000000" xmlns="http://www.w3.org/2000/svg">
<rect x="19.000000" y="19.000000" width="2036.000000" height="2036.000000" fill="black" />
<circle cx="1582.959961" cy="1808.959961" r="19.980000" fill="red">
  <title>Tokyo</title>
</circle><line x1="1124.959961" y1="1562.959961" x2="1582.959961" y2="1808.959961" stroke="red" stroke-width="6.660000" />
<circle cx="1357.959961" cy="1368.959961" r="19.980000" fill="red">
  <title>Buenos Aires</title>
</circle><line x1="1582.959961" y1="1808.959961" x2="1357.959961" y2="1368.959961" stroke="red" stroke-width="6.660000" />
<circle cx="1332.959961" cy="929.960022" r="19.980000" fill="red">
  <title>Manila</title>
</circle><line x1="1357.959961" y1="1368.959961" x2="1332.959961" y2="929.960022" stroke="red" stroke-width="6.660000" />
<circle cx="1708.959961" cy="587.960022" r="19.980000" fill="red">
  <title>New York</title>
</circle><line x1="1332.959961" y1="929.960022" x2="1708.959961" y2="587.960022" stroke="red" stroke-width="6.660000" />
<circle cx="2037.959961" cy="609.960022" r="19.980000" fill="red">
  <title>Karachi</title>
</circle><line x1="1708.959961" y1="587.960022" x2="2037.959961" y2="609.960022" stroke="red" stroke-width="6.660000" />
<circle cx="2005.959961" cy="491.959991" r="19.980000" fill="red">
  <title>Mumbai</title>
</circle><line x1="2037.959961" y1="609.960022" x2="2005.959961" y2="491.959991" stroke="red" stroke-width="6.660000" />
<circle cx="1660.959961" cy="99.959999" r="19.980000" fill="red">
  <title>São Paulo</title>
</circle><line x1="2005.959961" y1="491.959991" x2="1660.959961" y2="99.959999" stroke="red" stroke-width="6.660000" />
<circle cx="595.960022" cy="297.959991" r="19.980000" fill="red">
  <title>Beijing</title>
</circle><line x1="1660.959961" y1="99.959999" x2="595.960022" y2="297.959991" stroke="red" stroke-width="6.660000" />
<circle cx="460.959991" cy="669.960022" r="19.980000" fill="red">
  <title>Kolkata</title>
</circle><line x1="595.960022" y1="297.959991" x2="460.959991" y2="669.960022" stroke="red" stroke-width="6.660000" />
<circle cx="527.960022" cy="874.960022" r="19.980000" fill="red">
  <title>Chongqing</title>
</circle><line x1="460.959991" y1="669.960022" x2="527.960022" y2="874.960022" stroke="red" stroke-width="6.660000" />
<circle cx="205.959991" cy="848.960022" r="19.980000" fill="red">
  <title>Shanghai</title>
</circle><line x1="527.960022" y1="874.960022" x2="205.959991" y2="848.960022" stroke="red" stroke-width="6.660000" />
<circle cx="375.959991" cy="1206.959961" r="19.980000" fill="red">
  <title>Cairo</title>
</circle><line x1="205.959991" y1="848.960022" x2="375.959991" y2="1206.959961" stroke="red" stroke-width="6.660000" />
<circle cx="508.959991" cy="1502.959961" r="19.980000" fill="red">
  <title>Delhi</title>
</circle><line x1="375.959991" y1="1206.959961" x2="508.959991" y2="1502.959961" stroke="red" stroke-width="6.660000" />
<circle cx="605.960022" cy="1769.959961" r="19.980000" fill="red">
  <title>Mexico City</title>
</circle><line x1="508.959991" y1="1502.959961" x2="605.960022" y2="1769.959961" stroke="red" stroke-width="6.660000" />
<circle cx="763.960022" cy="1714.959961" r="19.980000" fill="red">
  <title>Osaka</title>
</circle><line x1="605.960022" y1="1769.959961" x2="763.960022" y2="1714.959961" stroke="red" stroke-width="6.660000" />
<circle cx="942.960022" cy="1981.959961" r="19.980000" fill="red">
  <title>Dhaka</title>
</circle><line x1="763.960022" y1="1714.959961" x2="942.960022" y2="1981.959961" stroke="red" stroke-width="6.660000" />
<circle cx="1124.959961" cy="1562.959961" r="19.980000" fill="red">
  <title>Istanbul</title>
</circle><line x1="942.960022" y1="1981.959961" x2="1124.959961" y2="1562.959961" stroke="red" stroke-width="6.660000" />
</svg>
