<?xml version="1.0" encoding="UTF-8" standalone="no"?>
<svg width="500" height="500" viewBox="0 0 2074.000000 2074.000000" xmlns="http://www.w3.org/2000/svg">
<rect x="19.000000" y="19.000000" width="2036.000000" height="2036.000000" fill="black" />
<circle cx="399.959991" cy="1647.959961" r="19.980000" fill="red">
  <title>Tokyo</title>
</circle><line x1="381.959991" y1="1709.959961" x2="399.959991" y2="1647.959961" stroke="red" stroke-width="6.660000" />
<circle cx="227.959991" cy="1343.959961" r="19.980000" fill="red">
  <title>Dhaka</title>
</circle><line x1="399.959991" y1="1647.959961" x2="227.959991" y2="1343.959961" stroke="red" stroke-width="6.660000" />
<circle cx="452.959991" cy="1017.960022" r="19.980000" fill="red">
  <title>Mumbai</title>
</circle><line x1="227.959991" y1="1343.959961" x2="452.959991" y2="1017.960022" stroke="red" stroke-width="6.660000" />
<circle cx="140.959991" cy="708.960022" r="19.980000" fill="red">
  <title>Lagos</title>
</circle><line x1="452.959991" y1="1017.960022" x2="140.959991" y2="708.960022" stroke="red" stroke-width="6.660000" />
<circle cx="547.960022" cy="802.960022" r="19.980000" fill="red">
  <title>Beijing</title>
</circle><line x1="140.959991" y1="708.960022" x2="547.960022" y2="802.960022" stroke="red" stroke-width="6.660000" />
<circle cx="612.960022" cy="1010.960022" r="19.980000" fill="red">
  <title>Buenos Aires</title>
</circle><line x1="547.960022" y1="802.960022" x2="612.960022" y2="1010.960022" stroke="red" stroke-width="6.660000" />
<circle cx="797.960022" cy="1027.959961" r="19.980000" fill="red">
  <title>Tianjin</title>
</circle><line x1="612.960022" y1="1010.960022" x2="797.960022" y2="1027.959961" stroke="red" stroke-width="6.660000" />
<circle cx="936.960022" cy="714.960022" r="19.980000" fill="red">
  <title>Cairo</title>
</circle><line x1="797.960022" y1="1027.959961" x2="936.960022" y2="714.960022" stroke="red" stroke-width="6.660000" />
<circle cx="1298.959961" cy="107.959999" r="19.980000" fill="red">
  <title>Karachi</title>
</circle><line x1="936.960022" y1="714.960022" x2="1298.959961" y2="107.959999" stroke="red" stroke-width="6.660000" />
<circle cx="1427.959961" cy="197.959991" r="19.980000" fill="red">
  <title>Shanghai</title>
</circle><line x1="1298.959961" y1="107.959999" x2="1427.959961" y2="197.959991" stroke="red" stroke-width="6.660000" />
<circle cx="1490.959961" cy="128.959991" r="19.980000" fill="red">
  <title>São Paulo</title>
</circle><line x1="1427.959961" y1="197.959991" x2="1490.959961" y2="128.959991" stroke="red" stroke-width="6.660000" />
<circle cx="1684.959961" cy="45.959999" r="19.980000" fill="red">
  <title>Mexico City</title>
</circle><line x1="1490.959961" y1="128.959991" x2="1684.959961" y2="45.959999" stroke="red" stroke-width="6.660000" />
<circle cx="1918.959961" cy="742.960022" r="19.980000" fill="red">
  <title>Kolkata</title>
</circle><line x1="1684.959961" y1="45.959999" x2="1918.959961" y2="742.960022" stroke="red" stroke-width="6.660000" />
<circle cx="1318.959961" cy="1222.959961" r="19.980000" fill="red">
  <title>Manila</title>
</circle><line x1="1918.959961" y1="742.960022" x2="1318.959961" y2="1222.959961" stroke="red" stroke-width="6.660000" />
<circle cx="1341.959961" cy="1436.959961" r="19.980000" fill="red">
  <title>Delhi</title>
</circle><line x1="1318.959961" y1="1222.959961" x2="1341.959961" y2="1436.959961" stroke="red" stroke-width="6.660000" />
<circle cx="1380.959961" cy="1592.959961" r="19.980000" fill="red">
  <title>Rio de Janeiro</title>
</circle><line x1="1341.959961" y1="1436.959961" x2="1380.959961" y2="1592.959961" stroke="red" stroke-width="6.660000" />
<circle cx="1284.959961" cy="1796.959961" r="19.980000" fill="red">
  <title>Osaka</title>
</circle><line x1="1380.959961" y1="1592.959961" x2="1284.959961" y2="1796.959961" stroke="red" stroke-width="6.660000" />
<circle cx="626.960022" cy="1828.959961" r="19.980000" fill="red">
  <title>New York</title>
</circle><line x1="1284.959961" y1="1796.959961" x2="626.960022" y2="1828.959961" stroke="red" stroke-width="6.660000" />
<circle cx="268.959991" cy="1938.959961" r="19.980000" fill="red">
  <title>Chongqing</title>
</circle><line x1="626.960022" y1="1828.959961" x2="268.959991" y2="1938.959961" stroke="red" stroke-width="6.660000" />
<circle cx="381.959991" cy="1709.959961" r="19.980000" fill="red">
  <title>Istanbul</title>
</circle><line x1="268.959991" y1="1938.959961" x2="381.959991" y2="1709.959961" stroke="red" stroke-width="6.660000" />
</svg>
