<?xml version="1.0" encoding="UTF-8" standalone="no"?>
<svg width="500" height="500" viewBox="0 0 2074.000000 2074.000000" xmlns="http://www.w3.org/2000/svg">
<rect x="19.000000" y="19.000000" width="2036.000000" height="2036.000000" fill="black" />
<circle cx="664.960022" cy="1426.959961" r="19.980000" fill="red">
  <title>Tokyo</title>
</circle><line x1="170.959991" y1="1484.959961" x2="664.960022" y2="1426.959961" stroke="red" stroke-width="6.660000" />
<circle cx="732.960022" cy="1425.959961" r="19.980000" fill="red">
  <title>New York</title>
</circle><line x1="664.960022" y1="1426.959961" x2="732.960022" y2="1425.959961" stroke="red" stroke-width="6.660000" />
<circle cx="1303.959961" cy="1928.959961" r="19.980000" fill="red">
  <title>Buenos Aires</title>
</circle><line x1="732.960022" y1="1425.959961" x2="1303.959961" y2="1928.959961" stroke="red" stroke-width="6.660000" />
<circle cx="1693.959961" cy="2024.959961" r="19.980000" fill="red">
  <title>Beijing</title>
</circle><line x1="1303.959961" y1="1928.959961" x2="1693.959961" y2="2024.959961" stroke="red" stroke-width="6.660000" />
<circle cx="1813.959961" cy="1369.959961" r="19.980000" fill="red">
  <title>Chongqing</title>
</circle><line x1="1693.959961" y1="2024.959961" x2="1813.959961" y2="1369.959961" stroke="red" stroke-width="6.660000" />
<circle cx="1769.959961" cy="782.960022" r="19.980000" fill="red">
  <title>Istanbul</title>
</circle><line x1="1813.959961" y1="1369.959961" x2="1769.959961" y2="782.960022" stroke="red" stroke-width="6.660000" />
<circle cx="1893.959961" cy="663.960022" r="19.980000" fill="red">
  <title>Dhaka</title>
</circle><line x1="1769.959961" y1="782.960022" x2="1893.959961" y2="663.960022" stroke="red" stroke-width="6.660000" />
<circle cx="1613.959961" cy="537.960022" r="19.980000" fill="red">
  <title>Karachi</title>
</circle><line x1="1893.959961" y1="663.960022" x2="1613.959961" y2="537.960022" stroke="red" stroke-width="6.660000" />
<circle cx="1618.959961" cy="855.960022" r="19.980000" fill="red">
  <title>Cairo</title>
</circle><line x1="1613.959961" y1="537.960022" x2="1618.959961" y2="855.960022" stroke="red" stroke-width="6.660000" />
<circle cx="1294.959961" cy="1171.959961" r="19.980000" fill="red">
  <title>Lagos</title>
</circle><line x1="1618.959961" y1="855.960022" x2="1294.959961" y2="1171.959961" stroke="red" stroke-width="6.660000" />
<circle cx="1045.959961" cy="845.960022" r="19.980000" fill="red">
  <title>São Paulo</title>
</circle><line x1="1294.959961" y1="1171.959961" x2="1045.959961" y2="845.960022" stroke="red" stroke-width="6.660000" />
<circle cx="971.960022" cy="610.960022" r="19.980000" fill="red">
  <title>Mumbai</title>
</circle><line x1="1045.959961" y1="845.960022" x2="971.960022" y2="610.960022" stroke="red" stroke-width="6.660000" />
<circle cx="1136.959961" cy="395.959991" r="19.980000" fill="red">
  <title>Kolkata</title>
</circle><line x1="971.960022" y1="610.960022" x2="1136.959961" y2="395.959991" stroke="red" stroke-width="6.660000" />
<circle cx="1040.959961" cy="291.959991" r="19.980000" fill="red">
  <title>Shanghai</title>
</circle><line x1="1136.959961" y1="395.959991" x2="1040.959961" y2="291.959991" stroke="red" stroke-width="6.660000" />
<circle cx="273.959991" cy="360.959991" r="19.980000" fill="red">
  <title>Osaka</title>
</circle><line x1="1040.959961" y1="291.959991" x2="273.959991" y2="360.959991" stroke="red" stroke-width="6.660000" />
<circle cx="387.959991" cy="937.960022" r="19.980000" fill="red">
  <title>Delhi</title>
</circle><line x1="273.959991" y1="360.959991" x2="387.959991" y2="937.960022" stroke="red" stroke-width="6.660000" />
<circle cx="369.959991" cy="1179.959961" r="19.980000" fill="red">
  <title>Mexico City</title>
</circle><line x1="387.959991" y1="937.960022" x2="369.959991" y2="1179.959961" stroke="red" stroke-width="6.660000" />
<circle cx="170.959991" cy="1484.959961" r="19.980000" fill="red">
  <title>Manila</title>
</circle><line x1="369.959991" y1="1179.959961" x2="170.959991" y2="1484.959961" stroke="red" stroke-width="6.660000" />
</svg>
