<?xml version="1.0" encoding="UTF-8" standalone="no"?>
<svg width="500" height="500" viewBox="0 0 2074.000000 2074.000000" xmlns="http://www.w3.org/2000/svg">
<rect x="19.000000" y="19.000000" width="2036.000000" height="2036.000000" fill="black" />
<circle cx="126.959999" cy="113.959999" r="19.980000" fill="red">
  <title>Tokyo</title>
</circle><line x1="119.959999" y1="68.959999" x2="126.959999" y2="113.959999" stroke="red" stroke-width="6.660000" />
<circle cx="304.959991" cy="435.959991" r="19.980000" fill="red">
  <title>Cairo</title>
</circle><line x1="126.959999" y1="113.959999" x2="304.959991" y2="435.959991" stroke="red" stroke-width="6.660000" />
<circle cx="502.959991" cy="720.960022" r="19.980000" fill="red">
  <title>Beijing</title>
</circle><line x1="304.959991" y1="435.959991" x2="502.959991" y2="720.960022" stroke="red" stroke-width="6.660000" />
<circle cx="629.960022" cy="791.960022" r="19.980000" fill="red">
  <title>Buenos Aires</title>
</circle><line x1="502.959991" y1="720.960022" x2="629.960022" y2="791.960022" stroke="red" stroke-width="6.660000" />
<circle cx="986.960022" cy="1524.959961" r="19.980000" fill="red">
  <title>São Paulo</title>
</circle><line x1="629.960022" y1="791.960022" x2="986.960022" y2="1524.959961" stroke="red" stroke-width="6.660000" />
<circle cx="1129.959961" cy="1592.959961" r="19.980000" fill="red">
  <title>Karachi</title>
</circle><line x1="986.960022" y1="1524.959961" x2="1129.959961" y2="1592.959961" stroke="red" stroke-width="6.660000" />
<circle cx="1329.959961" cy="1415.959961" r="19.980000" fill="red">
  <title>Shanghai</title>
</circle><line x1="1129.959961" y1="1592.959961" x2="1329.959961" y2="1415.959961" stroke="red" stroke-width="6.660000" />
<circle cx="1185.959961" cy="1138.959961" r="19.980000" fill="red">
  <title>Mexico City</title>
</circle><line x1="1329.959961" y1="1415.959961" x2="1185.959961" y2="1138.959961" stroke="red" stroke-width="6.660000" />
<circle cx="1774.959961" cy="732.960022" r="19.980000" fill="red">
  <title>Delhi</title>
</circle><line x1="1185.959961" y1="1138.959961" x2="1774.959961" y2="732.960022" stroke="red" stroke-width="6.660000" />
<circle cx="1967.959961" cy="716.960022" r="19.980000" fill="red">
  <title>Mumbai</title>
</circle><line x1="1774.959961" y1="732.960022" x2="1967.959961" y2="716.960022" stroke="red" stroke-width="6.660000" />
<circle cx="1360.959961" cy="521.960022" r="19.980000" fill="red">
  <title>Osaka</title>
</circle><line x1="1967.959961" y1="716.960022" x2="1360.959961" y2="521.960022" stroke="red" stroke-width="6.660000" />
<circle cx="1374.959961" cy="59.959999" r="19.980000" fill="red">
  <title>New York</title>
</circle><line x1="1360.959961" y1="521.960022" x2="1374.959961" y2="59.959999" stroke="red" stroke-width="6.660000" />
<circle cx="119.959999" cy="68.959999" r="19.980000" fill="red">
  <title>Dhaka</title>
</circle><line x1="1374.959961" y1="59.959999" x2="119.959999" y2="68.959999" stroke="red" stroke-width="6.660000" />
</svg>
