<?xml version="1.0" encoding="UTF-8" standalone="no"?>
<svg width="500" height="500" viewBox="0 0 2074.000000 2074.000000" xmlns="http://www.w3.org/2000/svg">
<rect x="19.000000" y="19.000000" width="2036.000000" height="2036.000000" fill="black" />
<circle cx="132.959991" cy="1227.959961" r="19.980000" fill="red">
  <title>Tokyo</title>
</circle><line x1="230.959991" y1="340.959991" x2="132.959991" y2="1227.959961" stroke="red" stroke-width="6.660000" />
<circle cx="265.959991" cy="1128.959961" r="19.980000" fill="red">
  <title>Delhi</title>
</circle><line x1="132.959991" y1="1227.959961" x2="265.959991" y2="1128.959961" stroke="red" stroke-width="6.660000" />
<circle cx="1343.959961" cy="727.960022" r="19.980000" fill="red">
  <title>Mexico City</title>
</circle><line x1="265.959991" y1="1128.959961" x2="1343.959961" y2="727.960022" stroke="red" stroke-width="6.660000" />
<circle cx="1549.959961" cy="1191.959961" r="19.980000" fill="red">
  <title>Karachi</title>
</circle><line x1="1343.959961" y1="727.960022" x2="1549.959961" y2="1191.959961" stroke="red" stroke-width="6.660000" />
<circle cx="1913.959961" cy="1508.959961" r="19.980000" fill="red">
  <title>Beijing</title>
</circle><line x1="1549.959961" y1="1191.959961" x2="1913.959961" y2="1508.959961" stroke="red" stroke-width="6.660000" />
<circle cx="1751.959961" cy="946.960022" r="19.980000" fill="red">
  <title>Dhaka</title>
</circle><line x1="1913.959961" y1="1508.959961" x2="1751.959961" y2="946.960022" stroke="red" stroke-width="6.660000" />
<circle cx="1981.959961" cy="819.960022" r="19.980000" fill="red">
  <title>Osaka</title>
</circle><line x1="1751.959961" y1="946.960022" x2="1981.959961" y2="819.960022" stroke="red" stroke-width="6.660000" />
<circle cx="1952.959961" cy="644.960022" r="19.980000" fill="red">
  <title>São Paulo</title>
</circle><line x1="1981.959961" y1="819.960022" x2="1952.959961" y2="644.960022" stroke="red" stroke-width="6.660000" />
<circle cx="1827.959961" cy="608.960022" r="19.980000" fill="red">
  <title>Shanghai</title>
</circle><line x1="1952.959961" y1="644.960022" x2="1827.959961" y2="608.960022" stroke="red" stroke-width="6.660000" />
<circle cx="2016.959961" cy="159.959991" r="19.980000" fill="red">
  <title>Cairo</title>
</circle><line x1="1827.959961" y1="608.960022" x2="2016.959961" y2="159.959991" stroke="red" stroke-width="6.660000" />
<circle cx="1353.959961" cy="387.959991" r="19.980000" fill="red">
  <title>New York</title>
</circle><line x1="2016.959961" y1="159.959991" x2="1353.959961" y2="387.959991" stroke="red" stroke-width="6.660000" />
<circle cx="171.959991" cy="149.959991" r="19.980000" fill="red">
  <title>Buenos Aires</title>
</circle><line x1="1353.959961" y1="387.959991" x2="171.959991" y2="149.959991" stroke="red" stroke-width="6.660000" />
<circle cx="230.959991" cy="340.959991" r="19.980000" fill="red">
  <title>Mumbai</title>
</circle><line x1="171.959991" y1="149.959991" x2="230.959991" y2="340.959991" stroke="red" stroke-width="6.660000" />
</svg>
