<?xml version="1.0" encoding="UTF-8" standalone="no"?>
<svg width="500" height="500" viewBox="0 0 2074.000000 2074.000000" xmlns="http://www.w3.org/2000/svg">
<rect x="19.000000" y="19.000000" width="2036.000000" height="2036.000000" fill="black" />
<circle cx="570.960022" cy="1834.959961" r="19.980000" fill="red">
  <title>Tokyo</title>
</circle><line x1="707.960022" y1="400.959991" x2="570.960022" y2="1834.959961" stroke="red" stroke-width="6.660000" />
<circle cx="1024.959961" cy="1199.959961" r="19.980000" fill="red">
  <title>Delhi</title>
</circle><line x1="570.960022" y1="1834.959961" x2="1024.959961" y2="1199.959961" stroke="red" stroke-width="6.660000" />
<circle cx="1702.959961" cy="719.960022" r="19.980000" fill="red">
  <title>São Paulo</title>
</circle><line x1="1024.959961" y1="1199.959961" x2="1702.959961" y2="719.960022" stroke="red" stroke-width="6.660000" />
<circle cx="707.960022" cy="400.959991" r="19.980000" fill="red">
  <title>Shanghai</title>
</circle><line x1="1702.959961" y1="719.960022" x2="707.960022" y2="400.959991" stroke="red" stroke-width="6.660000" />
</svg>
