<?xml version="1.0" encoding="UTF-8" standalone="no"?>
<svg width="500" height="500" viewBox="0 0 2074.000000 2074.000000" xmlns="http://www.w3.org/2000/svg">
<rect x="19.000000" y="19.000000" width="2036.000000" height="2036.000000" fill="black" />
<circle cx="968.960022" cy="112.959999" r="19.980000" fill="red">
  <title>Tokyo</title>
</circle><line x1="761.960022" y1="739.960022" x2="968.960022" y2="112.959999" stroke="red" stroke-width="6.660000" />
<circle cx="1686.959961" cy="488.959991" r="19.980000" fill="red">
  <title>Beijing</title>
</circle><line x1="968.960022" y1="112.959999" x2="1686.959961" y2="488.959991" stroke="red" stroke-width="6.660000" />
<circle cx="1430.959961" cy="1783.959961" r="19.980000" fill="red">
  <title>Shanghai</title>
</circle><line x1="1686.959961" y1="488.959991" x2="1430.959961" y2="1783.959961" stroke="red" stroke-width="6.660000" />
<circle cx="189.959991" cy="1618.959961" r="19.980000" fill="red">
  <title>São Paulo</title>
</circle><line x1="1430.959961" y1="1783.959961" x2="189.959991" y2="1618.959961" stroke="red" stroke-width="6.660000" />
<circle cx="266.959991" cy="1320.959961" r="19.980000" fill="red">
  <title>Cairo</title>
</circle><line x1="189.959991" y1="1618.959961" x2="266.959991" y2="1320.959961" stroke="red" stroke-width="6.660000" />
<circle cx="472.959991" cy="815.960022" r="19.980000" fill="red">
  <title>Delhi</title>
</circle><line x1="266.959991" y1="1320.959961" x2="472.959991" y2="815.960022" stroke="red" stroke-width="6.660000" />
<circle cx="83.959999" cy="456.959991" r="19.980000" fill="red">
  <title>Mexico City</title>
</circle><line x1="472.959991" y1="815.960022" x2="83.959999" y2="456.959991" stroke="red" stroke-width="6.660000" />
<circle cx="387.959991" cy="353.959991" r="19.980000" fill="red">
  <title>Mumbai</title>
</circle><line x1="83.959999" y1="456.959991" x2="387.959991" y2="353.959991" stroke="red" stroke-width="6.660000" />
<circle cx="761.960022" cy="739.960022" r="19.980000" fill="red">
  <title>Dhaka</title>
</circle><line x1="387.959991" y1="353.959991" x2="761.960022" y2="739.960022" stroke="red" stroke-width="6.660000" />
</svg>
