<?xml version="1.0" encoding="UTF-8" standalone="no"?>
<svg width="500" height="500" viewBox="0 0 2074.000000 2074.000000" xmlns="http://www.w3.org/2000/svg">
<rect x="19.000000" y="19.000000" width="2036.000000" height="2036.000000" fill="black" />
<circle cx="167.959991" cy="579.960022" r="19.980000" fill="red">
  <title>Tokyo</title>
</circle><line x1="877.960022" y1="772.960022" x2="167.959991" y2="579.960022" stroke="red" stroke-width="6.660000" />
<circle cx="277.959991" cy="485.959991" r="19.980000" fill="red">
  <title>Osaka</title>
</circle><line x1="167.959991" y1="579.960022" x2="277.959991" y2="485.959991" stroke="red" stroke-width="6.660000" />
<circle cx="689.960022" cy="487.959991" r="19.980000" fill="red">
  <title>Dhaka</title>
</circle><line x1="277.959991" y1="485.959991" x2="689.960022" y2="487.959991" stroke="red" stroke-width="6.660000" />
<circle cx="1090.959961" cy="293.959991" r="19.980000" fill="red">
  <title>Mexico City</title>
</circle><line x1="689.960022" y1="487.959991" x2="1090.959961" y2="293.959991" stroke="red" stroke-width="6.660000" />
<circle cx="1275.959961" cy="206.959991" r="19.980000" fill="red">
  <title>Beijing</title>
</circle><line x1="1090.959961" y1="293.959991" x2="1275.959961" y2="206.959991" stroke="red" stroke-width="6.660000" />
<circle cx="1478.959961" cy="759.960022" r="19.980000" fill="red">
  <title>Shanghai</title>
</circle><line x1="1275.959961" y1="206.959991" x2="1478.959961" y2="759.960022" stroke="red" stroke-width="6.660000" />
<circle cx="1811.959961" cy="533.960022" r="19.980000" fill="red">
  <title>New York</title>
</circle><line x1="1478.959961" y1="759.960022" x2="1811.959961" y2="533.960022" stroke="red" stroke-width="6.660000" />
<circle cx="1982.959961" cy="673.960022" r="19.980000" fill="red">
  <title>Buenos Aires</title>
</circle><line x1="1811.959961" y1="533.960022" x2="1982.959961" y2="673.960022" stroke="red" stroke-width="6.660000" />
<circle cx="1877.959961" cy="1958.959961" r="19.980000" fill="red">
  <title>Mumbai</title>
</circle><line x1="1982.959961" y1="673.960022" x2="1877.959961" y2="1958.959961" stroke="red" stroke-width="6.660000" />
<circle cx="540.960022" cy="1998.959961" r="19.980000" fill="red">
  <title>Cairo</title>
</circle><line x1="1877.959961" y1="1958.959961" x2="540.960022" y2="1998.959961" stroke="red" stroke-width="6.660000" />
<circle cx="419.959991" cy="1803.959961" r="19.980000" fill="red">
  <title>Karachi</title>
</circle><line x1="540.960022" y1="1998.959961" x2="419.959991" y2="1803.959961" stroke="red" stroke-width="6.660000" />
<circle cx="791.960022" cy="999.960022" r="19.980000" fill="red">
  <title>Delhi</title>
</circle><line x1="419.959991" y1="1803.959961" x2="791.960022" y2="999.960022" stroke="red" stroke-width="6.660000" />
<circle cx="877.960022" cy="772.960022" r="19.980000" fill="red">
  <title>São Paulo</title>
</circle><line x1="791.960022" y1="999.960022" x2="877.960022" y2="772.960022" stroke="red" stroke-width="6.660000" />
</svg>
