<?xml version="1.0" encoding="UTF-8" standalone="no"?>
<svg width="500" height="500" viewBox="0 0 2074.000000 2074.000000" xmlns="http://www.w3.org/2000/svg">
<rect x="19.000000" y="19.000000" width="2036.000000" height="2036.000000" fill="black" />
<circle cx="1631.959961" cy="831.960022" r="19.980000" fill="red">
  <title>Tokyo</title>
</circle><line x1="1869.959961" y1="963.960022" x2="1631.959961" y2="831.960022" stroke="red" stroke-width="6.660000" />
<circle cx="1095.959961" cy="468.959991" r="19.980000" fill="red">
  <title>Beijing</title>
</circle><line x1="1631.959961" y1="831.960022" x2="1095.959961" y2="468.959991" stroke="red" stroke-width="6.660000" />
<circle cx="1002.960022" cy="539.960022" r="19.980000" fill="red">
  <title>Lagos</title>
</circle><line x1="1095.959961" y1="468.959991" x2="1002.960022" y2="539.960022" stroke="red" stroke-width="6.660000" />
<circle cx="810.960022" cy="611.960022" r="19.980000" fill="red">
  <title>Kolkata</title>
</circle><line x1="1002.960022" y1="539.960022" x2="810.960022" y2="611.960022" stroke="red" stroke-width="6.660000" />
<circle cx="553.960022" cy="429.959991" r="19.980000" fill="red">
  <title>Delhi</title>
</circle><line x1="810.960022" y1="611.960022" x2="553.960022" y2="429.959991" stroke="red" stroke-width="6.660000" />
<circle cx="368.959991" cy="157.959991" r="19.980000" fill="red">
  <title>Rio de Janeiro</title>
</circle><line x1="553.960022" y1="429.959991" x2="368.959991" y2="157.959991" stroke="red" stroke-width="6.660000" />
<circle cx="296.959991" cy="462.959991" r="19.980000" fill="red">
  <title>Karachi</title>
</circle><line x1="368.959991" y1="157.959991" x2="296.959991" y2="462.959991" stroke="red" stroke-width="6.660000" />
<circle cx="432.959991" cy="538.960022" r="19.980000" fill="red">
  <title>Mumbai</title>
</circle><line x1="296.959991" y1="462.959991" x2="432.959991" y2="538.960022" stroke="red" stroke-width="6.660000" />
<circle cx="45.959999" cy="956.960022" r="19.980000" fill="red">
  <title>New York</title>
</circle><line x1="432.959991" y1="538.960022" x2="45.959999" y2="956.960022" stroke="red" stroke-width="6.660000" />
<circle cx="530.960022" cy="1059.959961" r="19.980000" fill="red">
  <title>Mexico City</title>
</circle><line x1="45.959999" y1="956.960022" x2="530.960022" y2="1059.959961" stroke="red" stroke-width="6.660000" />
<circle cx="668.960022" cy="1325.959961" r="19.980000" fill="red">
  <title>Manila</title>
</circle><line x1="530.960022" y1="1059.959961" x2="668.960022" y2="1325.959961" stroke="red" stroke-width="6.660000" />
<circle cx="297.959991" cy="1919.959961" r="19.980000" fill="red">
  <title>Cairo</title>
</circle><line x1="668.960022" y1="1325.959961" x2="297.959991" y2="1919.959961" stroke="red" stroke-width="6.660000" />
<circle cx="1017.960022" cy="1875.959961" r="19.980000" fill="red">
  <title>Istanbul</title>
</circle><line x1="297.959991" y1="1919.959961" x2="1017.960022" y2="1875.959961" stroke="red" stroke-width="6.660000" />
<circle cx="1490.959961" cy="1895.959961" r="19.980000" fill="red">
  <title>Osaka</title>
</circle><line x1="1017.960022" y1="1875.959961" x2="1490.959961" y2="1895.959961" stroke="red" stroke-width="6.660000" />
<circle cx="1204.959961" cy="1534.959961" r="19.980000" fill="red">
  <title>Dhaka</title>
</circle><line x1="1490.959961" y1="1895.959961" x2="1204.959961" y2="1534.959961" stroke="red" stroke-width="6.660000" />
<circle cx="1138.959961" cy="1243.959961" r="19.980000" fill="red">
  <title>Buenos Aires</title>
</circle><line x1="1204.959961" y1="1534.959961" x2="1138.959961" y2="1243.959961" stroke="red" stroke-width="6.660000" />
<circle cx="1193.959961" cy="1242.959961" r="19.980000" fill="red">
  <title>São Paulo</title>
</circle><line x1="1138.959961" y1="1243.959961" x2="1193.959961" y2="1242.959961" stroke="red" stroke-width="6.660000" />
<circle cx="1908.959961" cy="1080.959961" r="19.980000" fill="red">
  <title>Shanghai</title>
</circle><line x1="1193.959961" y1="1242.959961" x2="1908.959961" y2="1080.959961" stroke="red" stroke-width="6.660000" />
<circle cx="1869.959961" cy="963.960022" r="19.980000" fill="red">
  <title>Chongqing</title>
</circle><line x1="1908.959961" y1="1080.959961" x2="1869.959961" y2="963.960022" stroke="red" stroke-width="6.660000" />
</svg>
