<?xml version="1.0" encoding="UTF-8" standalone="no"?>
<svg width="500" height="500" viewBox="0 0 2074.000000 2074.000000" xmlns="http://www.w3.org/2000/svg">
<rect x="19.000000" y="19.000000" width="2036.000000" height="2036.000000" fill="black" />
<circle cx="1661.959961" cy="1161.959961" r="19.980000" fill="red">
  <title>Tokyo</title>
</circle><line x1="1863.959961" y1="1272.959961" x2="1661.959961" y2="1161.959961" stroke="red" stroke-width="6.660000" />
<circle cx="1640.959961" cy="1090.959961" r="19.980000" fill="red">
  <title>Cairo</title>
</circle><line x1="1661.959961" y1="1161.959961" x2="1640.959961" y2="1090.959961" stroke="red" stroke-width="6.660000" />
<circle cx="1880.959961" cy="1053.959961" r="19.980000" fill="red">
  <title>Karachi</title>
</circle><line x1="1640.959961" y1="1090.959961" x2="1880.959961" y2="1053.959961" stroke="red" stroke-width="6.660000" />
<circle cx="1905.959961" cy="921.960022" r="19.980000" fill="red">
  <title>Mumbai</title>
</circle><line x1="1880.959961" y1="1053.959961" x2="1905.959961" y2="921.960022" stroke="red" stroke-width="6.660000" />
<circle cx="2020.959961" cy="650.960022" r="19.980000" fill="red">
  <title>São Paulo</title>
</circle><line x1="1905.959961" y1="921.960022" x2="2020.959961" y2="650.960022" stroke="red" stroke-width="6.660000" />
<circle cx="1473.959961" cy="636.960022" r="19.980000" fill="red">
  <title>New York</title>
</circle><line x1="2020.959961" y1="650.960022" x2="1473.959961" y2="636.960022" stroke="red" stroke-width="6.660000" />
<circle cx="1248.959961" cy="816.960022" r="19.980000" fill="red">
  <title>Beijing</title>
</circle><line x1="1473.959961" y1="636.960022" x2="1248.959961" y2="816.960022" stroke="red" stroke-width="6.660000" />
<circle cx="1108.959961" cy="887.960022" r="19.980000" fill="red">
  <title>Delhi</title>
</circle><line x1="1248.959961" y1="816.960022" x2="1108.959961" y2="887.960022" stroke="red" stroke-width="6.660000" />
<circle cx="912.960022" cy="283.959991" r="19.980000" fill="red">
  <title>Osaka</title>
</circle><line x1="1108.959961" y1="887.960022" x2="912.960022" y2="283.959991" stroke="red" stroke-width="6.660000" />
<circle cx="852.960022" cy="168.959991" r="19.980000" fill="red">
  <title>Shanghai</title>
</circle><line x1="912.960022" y1="283.959991" x2="852.960022" y2="168.959991" stroke="red" stroke-width="6.660000" />
<circle cx="438.959991" cy="149.959991" r="19.980000" fill="red">
  <title>Manila</title>
</circle><line x1="852.960022" y1="168.959991" x2="438.959991" y2="149.959991" stroke="red" stroke-width="6.660000" />
<circle cx="278.959991" cy="696.960022" r="19.980000" fill="red">
  <title>Rio de Janeiro</title>
</circle><line x1="438.959991" y1="149.959991" x2="278.959991" y2="696.960022" stroke="red" stroke-width="6.660000" />
<circle cx="241.959991" cy="1314.959961" r="19.980000" fill="red">
  <title>Istanbul</title>
</circle><line x1="278.959991" y1="696.960022" x2="241.959991" y2="1314.959961" stroke="red" stroke-width="6.660000" />
<circle cx="106.959999" cy="1832.959961" r="19.980000" fill="red">
  <title>Buenos Aires</title>
</circle><line x1="241.959991" y1="1314.959961" x2="106.959999" y2="1832.959961" stroke="red" stroke-width="6.660000" />
<circle cx="713.960022" cy="1252.959961" r="19.980000" fill="red">
  <title>Lagos</title>
</circle><line x1="106.959999" y1="1832.959961" x2="713.960022" y2="1252.959961" stroke="red" stroke-width="6.660000" />
<circle cx="945.960022" cy="1105.959961" r="19.980000" fill="red">
  <title>Chongqing</title>
</circle><line x1="713.960022" y1="1252.959961" x2="945.960022" y2="1105.959961" stroke="red" stroke-width="6.660000" />
<circle cx="1033.959961" cy="1510.959961" r="19.980000" fill="red">
  <title>Mexico City</title>
</circle><line x1="945.960022" y1="1105.959961" x2="1033.959961" y2="1510.959961" stroke="red" stroke-width="6.660000" />
<circle cx="1079.959961" cy="1864.959961" r="19.980000" fill="red">
  <title>Kolkata</title>
</circle><line x1="1033.959961" y1="1510.959961" x2="1079.959961" y2="1864.959961" stroke="red" stroke-width="6.660000" />
<circle cx="1954.959961" cy="1748.959961" r="19.980000" fill="red">
  <title>Dhaka</title>
</circle><line x1="1079.959961" y1="1864.959961" x2="1954.959961" y2="1748.959961" stroke="red" stroke-width="6.660000" />
<circle cx="1863.959961" cy="1272.959961" r="19.980000" fill="red">
  <title>Tianjin</title>
</circle><line x1="1954.959961" y1="1748.959961" x2="1863.959961" y2="1272.959961" stroke="red" stroke-width="6.660000" />
</svg>
