<?xml version="1.0" encoding="UTF-8" standalone="no"?>
<svg width="500" height="500" viewBox="0 0 2074.000000 2074.000000" xmlns="http://www.w3.org/2000/svg">
<rect x="19.000000" y="19.000000" width="2036.000000" height="2036.000000" fill="black" />
<circle cx="1599.959961" cy="45.959999" r="19.980000" fill="red">
  <title>Tokyo</title>
</circle><line x1="1349.959961" y1="434.959991" x2="1599.959961" y2="45.959999" stroke="red" stroke-width="6.660000" />
<circle cx="1615.959961" cy="196.959991" r="19.980000" fill="red">
  <title>Beijing</title>
</circle><line x1="1599.959961" y1="45.959999" x2="1615.959961" y2="196.959991" stroke="red" stroke-width="6.660000" />
<circle cx="1885.959961" cy="433.959991" r="19.980000" fill="red">
  <title>New York</title>
</circle><line x1="1615.959961" y1="196.959991" x2="1885.959961" y2="433.959991" stroke="red" stroke-width="6.660000" />
<circle cx="2007.959961" cy="888.960022" r="19.980000" fill="red">
  <title>Cairo</title>
</circle><line x1="1885.959961" y1="433.959991" x2="2007.959961" y2="888.960022" stroke="red" stroke-width="6.660000" />
<circle cx="1595.959961" cy="1384.959961" r="19.980000" fill="red">
  <title>Dhaka</title>
</circle><line x1="2007.959961" y1="888.960022" x2="1595.959961" y2="1384.959961" stroke="red" stroke-width="6.660000" />
<circle cx="1558.959961" cy="1598.959961" r="19.980000" fill="red">
  <title>Mexico City</title>
</circle><line x1="1595.959961" y1="1384.959961" x2="1558.959961" y2="1598.959961" stroke="red" stroke-width="6.660000" />
<circle cx="950.960022" cy="917.960022" r="19.980000" fill="red">
  <title>São Paulo</title>
</circle><line x1="1558.959961" y1="1598.959961" x2="950.960022" y2="917.960022" stroke="red" stroke-width="6.660000" />
<circle cx="524.960022" cy="1207.959961" r="19.980000" fill="red">
  <title>Osaka</title>
</circle><line x1="950.960022" y1="917.960022" x2="524.960022" y2="1207.959961" stroke="red" stroke-width="6.660000" />
<circle cx="89.959999" cy="700.960022" r="19.980000" fill="red">
  <title>Karachi</title>
</circle><line x1="524.960022" y1="1207.959961" x2="89.959999" y2="700.960022" stroke="red" stroke-width="6.660000" />
<circle cx="931.960022" cy="412.959991" r="19.980000" fill="red">
  <title>Chongqing</title>
</circle><line x1="89.959999" y1="700.960022" x2="931.960022" y2="412.959991" stroke="red" stroke-width="6.660000" />
<circle cx="1084.959961" cy="154.959991" r="19.980000" fill="red">
  <title>Istanbul</title>
</circle><line x1="931.960022" y1="412.959991" x2="1084.959961" y2="154.959991" stroke="red" stroke-width="6.660000" />
<circle cx="1119.959961" cy="208.959991" r="19.980000" fill="red">
  <title>Mumbai</title>
</circle><line x1="1084.959961" y1="154.959991" x2="1119.959961" y2="208.959991" stroke="red" stroke-width="6.660000" />
<circle cx="1070.959961" cy="453.959991" r="19.980000" fill="red">
  <title>Shanghai</title>
</circle><line x1="1119.959961" y1="208.959991" x2="1070.959961" y2="453.959991" stroke="red" stroke-width="6.660000" />
<circle cx="1203.959961" cy="672.960022" r="19.980000" fill="red">
  <title>Buenos Aires</title>
</circle><line x1="1070.959961" y1="453.959991" x2="1203.959961" y2="672.960022" stroke="red" stroke-width="6.660000" />
<circle cx="1349.959961" cy="434.959991" r="19.980000" fill="red">
  <title>Delhi</title>
</circle><line x1="1203.959961" y1="672.960022" x2="1349.959961" y2="434.959991" stroke="red" stroke-width="6.660000" />
</svg>
