<?xml version="1.0" encoding="UTF-8" standalone="no"?>
<svg width="500" height="500" viewBox="0 0 2074.000000 2074.000000" xmlns="http://www.w3.org/2000/svg">
<rect x="19.000000" y="19.000000" width="2036.000000" height="2036.000000" fill="black" />
<circle cx="1567.959961" cy="131.959991" r="19.980000" fill="red">
  <title>Tokyo</title>
</circle><line x1="1854.959961" y1="545.960022" x2="1567.959961" y2="131.959991" stroke="red" stroke-width="6.660000" />
<circle cx="1387.959961" cy="370.959991" r="19.980000" fill="red">
  <title>Cairo</title>
</circle><line x1="1567.959961" y1="131.959991" x2="1387.959961" y2="370.959991" stroke="red" stroke-width="6.660000" />
<circle cx="981.960022" cy="454.959991" r="19.980000" fill="red">
  <title>Chongqing</title>
</circle><line x1="1387.959961" y1="370.959991" x2="981.960022" y2="454.959991" stroke="red" stroke-width="6.660000" />
<circle cx="631.960022" cy="567.960022" r="19.980000" fill="red">
  <title>São Paulo</title>
</circle><line x1="981.960022" y1="454.959991" x2="631.960022" y2="567.960022" stroke="red" stroke-width="6.660000" />
<circle cx="307.959991" cy="362.959991" r="19.980000" fill="red">
  <title>New York</title>
</circle><line x1="631.960022" y1="567.960022" x2="307.959991" y2="362.959991" stroke="red" stroke-width="6.660000" />
<circle cx="176.959991" cy="766.960022" r="19.980000" fill="red">
  <title>Shanghai</title>
</circle><line x1="307.959991" y1="362.959991" x2="176.959991" y2="766.960022" stroke="red" stroke-width="6.660000" />
<circle cx="622.960022" cy="981.960022" r="19.980000" fill="red">
  <title>Osaka</title>
</circle><line x1="176.959991" y1="766.960022" x2="622.960022" y2="981.960022" stroke="red" stroke-width="6.660000" />
<circle cx="420.959991" cy="969.960022" r="19.980000" fill="red">
  <title>Karachi</title>
</circle><line x1="622.960022" y1="981.960022" x2="420.959991" y2="969.960022" stroke="red" stroke-width="6.660000" />
<circle cx="46.959999" cy="1154.959961" r="19.980000" fill="red">
  <title>Dhaka</title>
</circle><line x1="420.959991" y1="969.960022" x2="46.959999" y2="1154.959961" stroke="red" stroke-width="6.660000" />
<circle cx="237.959991" cy="1809.959961" r="19.980000" fill="red">
  <title>Delhi</title>
</circle><line x1="46.959999" y1="1154.959961" x2="237.959991" y2="1809.959961" stroke="red" stroke-width="6.660000" />
<circle cx="1340.959961" cy="1982.959961" r="19.980000" fill="red">
  <title>Beijing</title>
</circle><line x1="237.959991" y1="1809.959961" x2="1340.959961" y2="1982.959961" stroke="red" stroke-width="6.660000" />
<circle cx="1203.959961" cy="1055.959961" r="19.980000" fill="red">
  <title>Istanbul</title>
</circle><line x1="1340.959961" y1="1982.959961" x2="1203.959961" y2="1055.959961" stroke="red" stroke-width="6.660000" />
<circle cx="1574.959961" cy="996.960022" r="19.980000" fill="red">
  <title>Buenos Aires</title>
</circle><line x1="1203.959961" y1="1055.959961" x2="1574.959961" y2="996.960022" stroke="red" stroke-width="6.660000" />
<circle cx="1484.959961" cy="711.960022" r="19.980000" fill="red">
  <title>Mexico City</title>
</circle><line x1="1574.959961" y1="996.960022" x2="1484.959961" y2="711.960022" stroke="red" stroke-width="6.660000" />
<circle cx="1914.959961" cy="732.960022" r="19.980000" fill="red">
  <title>Kolkata</title>
</circle><line x1="1484.959961" y1="711.960022" x2="1914.959961" y2="732.960022" stroke="red" stroke-width="6.660000" />
<circle cx="1854.959961" cy="545.960022" r="19.980000" fill="red">
  <title>Mumbai</title>
</circle><line x1="1914.959961" y1="732.960022" x2="1854.959961" y2="545.960022" stroke="red" stroke-width="6.660000" />
</svg>
