<?xml version="1.0" encoding="UTF-8" standalone="no"?>
<svg width="500" height="500" viewBox="0 0 2074.000000 2074.000000" xmlns="http://www.w3.org/2000/svg">
<rect x="19.000000" y="19.000000" width="2036.000000" height="2036.000000" fill="black" />
<circle cx="1241.959961" cy="879.960022" r="19.980000" fill="red">
  <title>Tokyo</title>
</circle><line x1="1533.959961" y1="67.959999" x2="1241.959961" y2="879.960022" stroke="red" stroke-width="6.660000" />
<circle cx="1695.959961" cy="1429.959961" r="19.980000" fill="red">
  <title>New York</title>
</circle><line x1="1241.959961" y1="879.960022" x2="1695.959961" y2="1429.959961" stroke="red" stroke-width="6.660000" />
<circle cx="1566.959961" cy="2003.959961" r="19.980000" fill="red">
  <title>Dhaka</title>
</circle><line x1="1695.959961" y1="1429.959961" x2="1566.959961" y2="2003.959961" stroke="red" stroke-width="6.660000" />
<circle cx="1547.959961" cy="2030.959961" r="19.980000" fill="red">
  <title>Mexico City</title>
</circle><line x1="1566.959961" y1="2003.959961" x2="1547.959961" y2="2030.959961" stroke="red" stroke-width="6.660000" />
<circle cx="968.960022" cy="1834.959961" r="19.980000" fill="red">
  <title>Osaka</title>
</circle><line x1="1547.959961" y1="2030.959961" x2="968.960022" y2="1834.959961" stroke="red" stroke-width="6.660000" />
<circle cx="580.960022" cy="1543.959961" r="19.980000" fill="red">
  <title>Shanghai</title>
</circle><line x1="968.960022" y1="1834.959961" x2="580.960022" y2="1543.959961" stroke="red" stroke-width="6.660000" />
<circle cx="77.959999" cy="1544.959961" r="19.980000" fill="red">
  <title>São Paulo</title>
</circle><line x1="580.960022" y1="1543.959961" x2="77.959999" y2="1544.959961" stroke="red" stroke-width="6.660000" />
<circle cx="378.959991" cy="1388.959961" r="19.980000" fill="red">
  <title>Cairo</title>
</circle><line x1="77.959999" y1="1544.959961" x2="378.959991" y2="1388.959961" stroke="red" stroke-width="6.660000" />
<circle cx="584.960022" cy="1400.959961" r="19.980000" fill="red">
  <title>Mumbai</title>
</circle><line x1="378.959991" y1="1388.959961" x2="584.960022" y2="1400.959961" stroke="red" stroke-width="6.660000" />
<circle cx="519.960022" cy="980.960022" r="19.980000" fill="red">
  <title>Delhi</title>
</circle><line x1="584.960022" y1="1400.959961" x2="519.960022" y2="980.960022" stroke="red" stroke-width="6.660000" />
<circle cx="1159.959961" cy="566.960022" r="19.980000" fill="red">
  <title>Karachi</title>
</circle><line x1="519.960022" y1="980.960022" x2="1159.959961" y2="566.960022" stroke="red" stroke-width="6.660000" />
<circle cx="1533.959961" cy="67.959999" r="19.980000" fill="red">
  <title>Beijing</title>
</circle><line x1="1159.959961" y1="566.960022" x2="1533.959961" y2="67.959999" stroke="red" stroke-width="6.660000" />
</svg>
