<?xml version="1.0" encoding="UTF-8" standalone="no"?>
<svg width="500" height="500" viewBox="0 0 2074.000000 2074.000000" xmlns="http://www.w3.org/2000/svg">
<rect x="19.000000" y="19.000000" width="2036.000000" height="2036.000000" fill="black" />
<circle cx="1642.959961" cy="588.960022" r="19.980000" fill="red">
  <title>Tokyo</title>
</circle><line x1="1446.959961" y1="1086.959961" x2="1642.959961" y2="588.960022" stroke="red" stroke-width="6.660000" />
<circle cx="1482.959961" cy="127.959999" r="19.980000" fill="red">
  <title>Delhi</title>
</circle><line x1="1642.959961" y1="588.960022" x2="1482.959961" y2="127.959999" stroke="red" stroke-width="6.660000" />
<circle cx="891.960022" cy="282.959991" r="19.980000" fill="red">
  <title>Dhaka</title>
</circle><line x1="1482.959961" y1="127.959999" x2="891.960022" y2="282.959991" stroke="red" stroke-width="6.660000" />
<circle cx="595.960022" cy="388.959991" r="19.980000" fill="red">
  <title>Mexico City</title>
</circle><line x1="891.960022" y1="282.959991" x2="595.960022" y2="388.959991" stroke="red" stroke-width="6.660000" />
<circle cx="72.959999" cy="598.960022" r="19.980000" fill="red">
  <title>New York</title>
</circle><line x1="595.960022" y1="388.959991" x2="72.959999" y2="598.960022" stroke="red" stroke-width="6.660000" />
<circle cx="222.959991" cy="1075.959961" r="19.980000" fill="red">
  <title>Mumbai</title>
</circle><line x1="72.959999" y1="598.960022" x2="222.959991" y2="1075.959961" stroke="red" stroke-width="6.660000" />
<circle cx="341.959991" cy="1083.959961" r="19.980000" fill="red">
  <title>Osaka</title>
</circle><line x1="222.959991" y1="1075.959961" x2="341.959991" y2="1083.959961" stroke="red" stroke-width="6.660000" />
<circle cx="142.959991" cy="1555.959961" r="19.980000" fill="red">
  <title>Shanghai</title>
</circle><line x1="341.959991" y1="1083.959961" x2="142.959991" y2="1555.959961" stroke="red" stroke-width="6.660000" />
<circle cx="473.959991" cy="1769.959961" r="19.980000" fill="red">
  <title>Karachi</title>
</circle><line x1="142.959991" y1="1555.959961" x2="473.959991" y2="1769.959961" stroke="red" stroke-width="6.660000" />
<circle cx="663.960022" cy="1640.959961" r="19.980000" fill="red">
  <title>São Paulo</title>
</circle><line x1="473.959991" y1="1769.959961" x2="663.960022" y2="1640.959961" stroke="red" stroke-width="6.660000" />
<circle cx="1295.959961" cy="1995.959961" r="19.980000" fill="red">
  <title>Beijing</title>
</circle><line x1="663.960022" y1="1640.959961" x2="1295.959961" y2="1995.959961" stroke="red" stroke-width="6.660000" />
<circle cx="1059.959961" cy="1115.959961" r="19.980000" fill="red">
  <title>Cairo</title>
</circle><line x1="1295.959961" y1="1995.959961" x2="1059.959961" y2="1115.959961" stroke="red" stroke-width="6.660000" />
<circle cx="1446.959961" cy="1086.959961" r="19.980000" fill="red">
  <title>Buenos Aires</title>
</circle><line x1="1059.959961" y1="1115.959961" x2="1446.959961" y2="1086.959961" stroke="red" stroke-width="6.660000" />
</svg>
