<?xml version="1.0" encoding="UTF-8" standalone="no"?>
<svg width="500" height="500" viewBox="0 0 2074.000000 2074.000000" xmlns="http://www.w3.org/2000/svg">
<rect x="19.000000" y="19.000000" width="2036.000000" height="2036.000000" fill="black" />
<circle cx="1794.959961" cy="1678.959961" r="19.980000" fill="red">
  <title>Tokyo</title>
</circle><line x1="1514.959961" y1="1531.959961" x2="1794.959961" y2="1678.959961" stroke="red" stroke-width="6.660000" />
<circle cx="1411.959961" cy="1712.959961" r="19.980000" fill="red">
  <title>Delhi</title>
</circle><line x1="1794.959961" y1="1678.959961" x2="1411.959961" y2="1712.959961" stroke="red" stroke-width="6.660000" />
<circle cx="1300.959961" cy="1996.959961" r="19.980000" fill="red">
  <title>New York</title>
</circle><line x1="1411.959961" y1="1712.959961" x2="1300.959961" y2="1996.959961" stroke="red" stroke-width="6.660000" />
<circle cx="1233.959961" cy="1763.959961" r="19.980000" fill="red">
  <title>Dhaka</title>
</circle><line x1="1300.959961" y1="1996.959961" x2="1233.959961" y2="1763.959961" stroke="red" stroke-width="6.660000" />
<circle cx="1282.959961" cy="1444.959961" r="19.980000" fill="red">
  <title>Shanghai</title>
</circle><line x1="1233.959961" y1="1763.959961" x2="1282.959961" y2="1444.959961" stroke="red" stroke-width="6.660000" />
<circle cx="1025.959961" cy="1307.959961" r="19.980000" fill="red">
  <title>Buenos Aires</title>
</circle><line x1="1282.959961" y1="1444.959961" x2="1025.959961" y2="1307.959961" stroke="red" stroke-width="6.660000" />
<circle cx="285.959991" cy="1028.959961" r="19.980000" fill="red">
  <title>Osaka</title>
</circle><line x1="1025.959961" y1="1307.959961" x2="285.959991" y2="1028.959961" stroke="red" stroke-width="6.660000" />
<circle cx="133.959991" cy="984.960022" r="19.980000" fill="red">
  <title>Istanbul</title>
</circle><line x1="285.959991" y1="1028.959961" x2="133.959991" y2="984.960022" stroke="red" stroke-width="6.660000" />
<circle cx="187.959991" cy="383.959991" r="19.980000" fill="red">
  <title>Cairo</title>
</circle><line x1="133.959991" y1="984.960022" x2="187.959991" y2="383.959991" stroke="red" stroke-width="6.660000" />
<circle cx="1002.960022" cy="666.960022" r="19.980000" fill="red">
  <title>Karachi</title>
</circle><line x1="187.959991" y1="383.959991" x2="1002.960022" y2="666.960022" stroke="red" stroke-width="6.660000" />
<circle cx="1369.959961" cy="353.959991" r="19.980000" fill="red">
  <title>São Paulo</title>
</circle><line x1="1002.960022" y1="666.960022" x2="1369.959961" y2="353.959991" stroke="red" stroke-width="6.660000" />
<circle cx="1989.959961" cy="391.959991" r="19.980000" fill="red">
  <title>Mumbai</title>
</circle><line x1="1369.959961" y1="353.959991" x2="1989.959961" y2="391.959991" stroke="red" stroke-width="6.660000" />
<circle cx="1580.959961" cy="754.960022" r="19.980000" fill="red">
  <title>Mexico City</title>
</circle><line x1="1989.959961" y1="391.959991" x2="1580.959961" y2="754.960022" stroke="red" stroke-width="6.660000" />
<circle cx="1460.959961" cy="1467.959961" r="19.980000" fill="red">
  <title>Beijing</title>
</circle><line x1="1580.959961" y1="754.960022" x2="1460.959961" y2="1467.959961" stroke="red" stroke-width="6.660000" />
<circle cx="1514.959961" cy="1531.959961" r="19.980000" fill="red">
  <title>Chongqing</title>
</circle><line x1="1460.959961" y1="1467.959961" x2="1514.959961" y2="1531.959961" stroke="red" stroke-width="6.660000" />
</svg>
