<?xml version="1.0" encoding="UTF-8" standalone="no"?>
<svg width="500" height="500" viewBox="0 0 2074.000000 2074.000000" xmlns="http://www.w3.org/2000/svg">
<rect x="19.000000" y="19.000000" width="2036.000000" height="2036.000000" fill="black" />
<circle cx="388.959991" cy="1129.959961" r="19.980000" fill="red">
  <title>Tokyo</title>
</circle><line x1="438.959991" y1="690.960022" x2="388.959991" y2="1129.959961" stroke="red" stroke-width="6.660000" />
<circle cx="923.960022" cy="1210.959961" r="19.980000" fill="red">
  <title>Delhi</title>
</circle><line x1="388.959991" y1="1129.959961" x2="923.960022" y2="1210.959961" stroke="red" stroke-width="6.660000" />
<circle cx="700.960022" cy="1632.959961" r="19.980000" fill="red">
  <title>Mexico City</title>
</circle><line x1="923.960022" y1="1210.959961" x2="700.960022" y2="1632.959961" stroke="red" stroke-width="6.660000" />
<circle cx="1816.959961" cy="1997.959961" r="19.980000" fill="red">
  <title>Beijing</title>
</circle><line x1="700.960022" y1="1632.959961" x2="1816.959961" y2="1997.959961" stroke="red" stroke-width="6.660000" />
<circle cx="1544.959961" cy="1155.959961" r="19.980000" fill="red">
  <title>Dhaka</title>
</circle><line x1="1816.959961" y1="1997.959961" x2="1544.959961" y2="1155.959961" stroke="red" stroke-width="6.660000" />
<circle cx="1444.959961" cy="604.960022" r="19.980000" fill="red">
  <title>São Paulo</title>
</circle><line x1="1544.959961" y1="1155.959961" x2="1444.959961" y2="604.960022" stroke="red" stroke-width="6.660000" />
<circle cx="1918.959961" cy="155.959991" r="19.980000" fill="red">
  <title>Shanghai</title>
</circle><line x1="1444.959961" y1="604.960022" x2="1918.959961" y2="155.959991" stroke="red" stroke-width="6.660000" />
<circle cx="1010.960022" cy="385.959991" r="19.980000" fill="red">
  <title>Osaka</title>
</circle><line x1="1918.959961" y1="155.959991" x2="1010.960022" y2="385.959991" stroke="red" stroke-width="6.660000" />
<circle cx="929.960022" cy="774.960022" r="19.980000" fill="red">
  <title>Mumbai</title>
</circle><line x1="1010.960022" y1="385.959991" x2="929.960022" y2="774.960022" stroke="red" stroke-width="6.660000" />
<circle cx="385.959991" cy="432.959991" r="19.980000" fill="red">
  <title>New York</title>
</circle><line x1="929.960022" y1="774.960022" x2="385.959991" y2="432.959991" stroke="red" stroke-width="6.660000" />
<circle cx="438.959991" cy="690.960022" r="19.980000" fill="red">
  <title>Cairo</title>
</circle><line x1="385.959991" y1="432.959991" x2="438.959991" y2="690.960022" stroke="red" stroke-width="6.660000" />
</svg>
