<?xml version="1.0" encoding="UTF-8" standalone="no"?>
<svg width="500" height="500" viewBox="0 0 2074.000000 2074.000000" xmlns="http://www.w3.org/2000/svg">
<rect x="19.000000" y="19.000000" width="2036.000000" height="2036.000000" fill="black" />
<circle cx="1023.960022" cy="65.959999" r="19.980000" fill="red">
  <title>Tokyo</title>
</circle><line x1="1511.959961" y1="1508.959961" x2="1023.960022" y2="65.959999" stroke="red" stroke-width="6.660000" />
<circle cx="57.959999" cy="155.959991" r="19.980000" fill="red">
  <title>Delhi</title>
</circle><line x1="1023.960022" y1="65.959999" x2="57.959999" y2="155.959991" stroke="red" stroke-width="6.660000" />
<circle cx="884.960022" cy="1352.959961" r="19.980000" fill="red">
  <title>São Paulo</title>
</circle><line x1="57.959999" y1="155.959991" x2="884.960022" y2="1352.959961" stroke="red" stroke-width="6.660000" />
<circle cx="1511.959961" cy="1508.959961" r="19.980000" fill="red">
  <title>Shanghai</title>
</circle><line x1="884.960022" y1="1352.959961" x2="1511.959961" y2="1508.959961" stroke="red" stroke-width="6.660000" />
</svg>
