<?xml version="1.0" encoding="UTF-8" standalone="no"?>
<svg width="500" height="500" viewBox="0 0 2074.000000 2074.000000" xmlns="http://www.w3.org/2000/svg">
<rect x="19.000000" y="19.000000" width="2036.000000" height="2036.000000" fill="black" />
<circle cx="474.959991" cy="329.959991" r="19.980000" fill="red">
  <title>Tokyo</title>
</circle><line x1="125.959999" y1="181.959991" x2="474.959991" y2="329.959991" stroke="red" stroke-width="6.660000" />
<circle cx="696.960022" cy="627.960022" r="19.980000" fill="red">
  <title>Mumbai</title>
</circle><line x1="474.959991" y1="329.959991" x2="696.960022" y2="627.960022" stroke="red" stroke-width="6.660000" />
<circle cx="1521.959961" cy="176.959991" r="19.980000" fill="red">
  <title>São Paulo</title>
</circle><line x1="696.960022" y1="627.960022" x2="1521.959961" y2="176.959991" stroke="red" stroke-width="6.660000" />
<circle cx="1998.959961" cy="1641.959961" r="19.980000" fill="red">
  <title>Mexico City</title>
</circle><line x1="1521.959961" y1="176.959991" x2="1998.959961" y2="1641.959961" stroke="red" stroke-width="6.660000" />
<circle cx="1494.959961" cy="1674.959961" r="19.980000" fill="red">
  <title>Delhi</title>
</circle><line x1="1998.959961" y1="1641.959961" x2="1494.959961" y2="1674.959961" stroke="red" stroke-width="6.660000" />
<circle cx="159.959991" cy="1313.959961" r="19.980000" fill="red">
  <title>Shanghai</title>
</circle><line x1="1494.959961" y1="1674.959961" x2="159.959991" y2="1313.959961" stroke="red" stroke-width="6.660000" />
<circle cx="309.959991" cy="261.959991" r="19.980000" fill="red">
  <title>Cairo</title>
</circle><line x1="159.959991" y1="1313.959961" x2="309.959991" y2="261.959991" stroke="red" stroke-width="6.660000" />
<circle cx="125.959999" cy="181.959991" r="19.980000" fill="red">
  <title>Beijing</title>
</circle><line x1="309.959991" y1="261.959991" x2="125.959999" y2="181.959991" stroke="red" stroke-width="6.660000" />
</svg>
