<?xml version="1.0" encoding="UTF-8" standalone="no"?>
<svg width="500" height="500" viewBox="0 0 2074.000000 2074.000000" xmlns="http://www.w3.org/2000/svg">
<rect x="19.000000" y="19.000000" width="2036.000000" height="2036.000000" fill="black" />
<circle cx="981.960022" cy="89.959999" r="19.980000" fill="red">
  <title>Tokyo</title>
</circle><line x1="1021.960022" y1="643.960022" x2="981.960022" y2="89.959999" stroke="red" stroke-width="6.660000" />
<circle cx="1378.959961" cy="200.959991" r="19.980000" fill="red">
  <title>Dhaka</title>
</circle><line x1="981.960022" y1="89.959999" x2="1378.959961" y2="200.959991" stroke="red" stroke-width="6.660000" />
<circle cx="1609.959961" cy="792.960022" r="19.980000" fill="red">
  <title>Karachi</title>
</circle><line x1="1378.959961" y1="200.959991" x2="1609.959961" y2="792.960022" stroke="red" stroke-width="6.660000" />
<circle cx="1427.959961" cy="1276.959961" r="19.980000" fill="red">
  <title>Rio de Janeiro</title>
</circle><line x1="1609.959961" y1="792.960022" x2="1427.959961" y2="1276.959961" stroke="red" stroke-width="6.660000" />
<circle cx="1796.959961" cy="1009.960022" r="19.980000" fill="red">
  <title>Buenos Aires</title>
</circle><line x1="1427.959961" y1="1276.959961" x2="1796.959961" y2="1009.960022" stroke="red" stroke-width="6.660000" />
<circle cx="1853.959961" cy="1053.959961" r="19.980000" fill="red">
  <title>Chongqing</title>
</circle><line x1="1796.959961" y1="1009.960022" x2="1853.959961" y2="1053.959961" stroke="red" stroke-width="6.660000" />
<circle cx="1964.959961" cy="1144.959961" r="19.980000" fill="red">
  <title>Beijing</title>
</circle><line x1="1853.959961" y1="1053.959961" x2="1964.959961" y2="1144.959961" stroke="red" stroke-width="6.660000" />
<circle cx="1960.959961" cy="1561.959961" r="19.980000" fill="red">
  <title>Shanghai</title>
</circle><line x1="1964.959961" y1="1144.959961" x2="1960.959961" y2="1561.959961" stroke="red" stroke-width="6.660000" />
<circle cx="1977.959961" cy="1903.959961" r="19.980000" fill="red">
  <title>Manila</title>
</circle><line x1="1960.959961" y1="1561.959961" x2="1977.959961" y2="1903.959961" stroke="red" stroke-width="6.660000" />
<circle cx="1699.959961" cy="1927.959961" r="19.980000" fill="red">
  <title>Istanbul</title>
</circle><line x1="1977.959961" y1="1903.959961" x2="1699.959961" y2="1927.959961" stroke="red" stroke-width="6.660000" />
<circle cx="1316.959961" cy="1759.959961" r="19.980000" fill="red">
  <title>Mexico City</title>
</circle><line x1="1699.959961" y1="1927.959961" x2="1316.959961" y2="1759.959961" stroke="red" stroke-width="6.660000" />
<circle cx="984.960022" cy="1836.959961" r="19.980000" fill="red">
  <title>New York</title>
</circle><line x1="1316.959961" y1="1759.959961" x2="984.960022" y2="1836.959961" stroke="red" stroke-width="6.660000" />
<circle cx="921.960022" cy="1811.959961" r="19.980000" fill="red">
  <title>Delhi</title>
</circle><line x1="984.960022" y1="1836.959961" x2="921.960022" y2="1811.959961" stroke="red" stroke-width="6.660000" />
<circle cx="416.959991" cy="1899.959961" r="19.980000" fill="red">
  <title>Lagos</title>
</circle><line x1="921.960022" y1="1811.959961" x2="416.959991" y2="1899.959961" stroke="red" stroke-width="6.660000" />
<circle cx="374.959991" cy="1351.959961" r="19.980000" fill="red">
  <title>Cairo</title>
</circle><line x1="416.959991" y1="1899.959961" x2="374.959991" y2="1351.959961" stroke="red" stroke-width="6.660000" />
<circle cx="165.959991" cy="652.960022" r="19.980000" fill="red">
  <title>Mumbai</title>
</circle><line x1="374.959991" y1="1351.959961" x2="165.959991" y2="652.960022" stroke="red" stroke-width="6.660000" />
<circle cx="120.959999" cy="134.959991" r="19.980000" fill="red">
  <title>Osaka</title>
</circle><line x1="165.959991" y1="652.960022" x2="120.959999" y2="134.959991" stroke="red" stroke-width="6.660000" />
<circle cx="717.960022" cy="705.960022" r="19.980000" fill="red">
  <title>Tianjin</title>
</circle><line x1="120.959999" y1="134.959991" x2="717.960022" y2="705.960022" stroke="red" stroke-width="6.660000" />
<circle cx="898.960022" cy="855.960022" r="19.980000" fill="red">
  <title>São Paulo</title>
</circle><line x1="717.960022" y1="705.960022" x2="898.960022" y2="855.960022" stroke="red" stroke-width="6.660000" />
<circle cx="1021.960022" cy="643.960022" r="19.980000" fill="red">
  <title>Kolkata</title>
</circle><line x1="898.960022" y1="855.960022" x2="1021.960022" y2="643.960022" stroke="red" stroke-width="6.660000" />
</svg>
