<?xml version="1.0" encoding="UTF-8" standalone="no"?>
<svg width="500" height="500" viewBox="0 0 2074.000000 2074.000000" xmlns="http://www.w3.org/2000/svg">
<rect x="19.000000" y="19.000000" width="2036.000000" height="2036.000000" fill="black" />
<circle cx="1441.959961" cy="1310.959961" r="19.980000" fill="red">
  <title>Tokyo</title>
</circle><line x1="1565.959961" y1="1939.959961" x2="1441.959961" y2="1310.959961" stroke="red" stroke-width="6.660000" />
<circle cx="1903.959961" cy="1131.959961" r="19.980000" fill="red">
  <title>Shanghai</title>
</circle><line x1="1441.959961" y1="1310.959961" x2="1903.959961" y2="1131.959961" stroke="red" stroke-width="6.660000" />
<circle cx="1886.959961" cy="771.960022" r="19.980000" fill="red">
  <title>Osaka</title>
</circle><line x1="1903.959961" y1="1131.959961" x2="1886.959961" y2="771.960022" stroke="red" stroke-width="6.660000" />
<circle cx="1893.959961" cy="637.960022" r="19.980000" fill="red">
  <title>Delhi</title>
</circle><line x1="1886.959961" y1="771.960022" x2="1893.959961" y2="637.960022" stroke="red" stroke-width="6.660000" />
<circle cx="826.960022" cy="603.960022" r="19.980000" fill="red">
  <title>São Paulo</title>
</circle><line x1="1893.959961" y1="637.960022" x2="826.960022" y2="603.960022" stroke="red" stroke-width="6.660000" />
<circle cx="478.959991" cy="68.959999" r="19.980000" fill="red">
  <title>Dhaka</title>
</circle><line x1="826.960022" y1="603.960022" x2="478.959991" y2="68.959999" stroke="red" stroke-width="6.660000" />
<circle cx="43.959999" cy="76.959999" r="19.980000" fill="red">
  <title>Mumbai</title>
</circle><line x1="478.959991" y1="68.959999" x2="43.959999" y2="76.959999" stroke="red" stroke-width="6.660000" />
<circle cx="48.959999" cy="648.960022" r="19.980000" fill="red">
  <title>Mexico City</title>
</circle><line x1="43.959999" y1="76.959999" x2="48.959999" y2="648.960022" stroke="red" stroke-width="6.660000" />
<circle cx="697.960022" cy="1441.959961" r="19.980000" fill="red">
  <title>New York</title>
</circle><line x1="48.959999" y1="648.960022" x2="697.960022" y2="1441.959961" stroke="red" stroke-width="6.660000" />
<circle cx="588.960022" cy="2026.959961" r="19.980000" fill="red">
  <title>Cairo</title>
</circle><line x1="697.960022" y1="1441.959961" x2="588.960022" y2="2026.959961" stroke="red" stroke-width="6.660000" />
<circle cx="1565.959961" cy="1939.959961" r="19.980000" fill="red">
  <title>Beijing</title>
</circle><line x1="588.960022" y1="2026.959961" x2="1565.959961" y2="1939.959961" stroke="red" stroke-width="6.660000" />
</svg>
