<?xml version="1.0" encoding="UTF-8" standalone="no"?>
<svg width="500" height="500" viewBox="0 0 2074.000000 2074.000000" xmlns="http://www.w3.org/2000/svg">
<rect x="19.000000" y="19.000000" width="2036.000000" height="2036.000000" fill="black" />
<circle cx="1709.959961" cy="1657.959961" r="19.980000" fill="red">
  <title>Tokyo</title>
</circle><line x1="1127.959961" y1="294.959991" x2="1709.959961" y2="1657.959961" stroke="red" stroke-width="6.660000" />
<circle cx="1293.959961" cy="1963.959961" r="19.980000" fill="red">
  <title>Delhi</title>
</circle><line x1="1709.959961" y1="1657.959961" x2="1293.959961" y2="1963.959961" stroke="red" stroke-width="6.660000" />
<circle cx="1005.960022" cy="1909.959961" r="19.980000" fill="red">
  <title>Shanghai</title>
</circle><line x1="1293.959961" y1="1963.959961" x2="1005.960022" y2="1909.959961" stroke="red" stroke-width="6.660000" />
<circle cx="878.960022" cy="1551.959961" r="19.980000" fill="red">
  <title>Mumbai</title>
</circle><line x1="1005.960022" y1="1909.959961" x2="878.960022" y2="1551.959961" stroke="red" stroke-width="6.660000" />
<circle cx="322.959991" cy="418.959991" r="19.980000" fill="red">
  <title>Beijing</title>
</circle><line x1="878.960022" y1="1551.959961" x2="322.959991" y2="418.959991" stroke="red" stroke-width="6.660000" />
<circle cx="496.959991" cy="73.959999" r="19.980000" fill="red">
  <title>São Paulo</title>
</circle><line x1="322.959991" y1="418.959991" x2="496.959991" y2="73.959999" stroke="red" stroke-width="6.660000" />
<circle cx="643.960022" cy="142.959991" r="19.980000" fill="red">
  <title>Mexico City</title>
</circle><line x1="496.959991" y1="73.959999" x2="643.960022" y2="142.959991" stroke="red" stroke-width="6.660000" />
<circle cx="1127.959961" cy="294.959991" r="19.980000" fill="red">
  <title>Cairo</title>
</circle><line x1="643.960022" y1="142.959991" x2="1127.959961" y2="294.959991" stroke="red" stroke-width="6.660000" />
</svg>
