<?xml version="1.0" encoding="UTF-8" standalone="no"?>
<svg width="500" height="500" viewBox="0 0 2074.000000 2074.000000" xmlns="http://www.w3.org/2000/svg">
<rect x="19.000000" y="19.000000" width="2036.000000" height="2036.000000" fill="black" />
<circle cx="698.960022" cy="1866.959961" r="19.980000" fill="red">
  <title>Tokyo</title>
</circle><line x1="123.959999" y1="1466.959961" x2="698.960022" y2="1866.959961" stroke="red" stroke-width="6.660000" />
<circle cx="1007.960022" cy="1640.959961" r="19.980000" fill="red">
  <title>Karachi</title>
</circle><line x1="698.960022" y1="1866.959961" x2="1007.960022" y2="1640.959961" stroke="red" stroke-width="6.660000" />
<circle cx="1201.959961" cy="1868.959961" r="19.980000" fill="red">
  <title>Dhaka</title>
</circle><line x1="1007.960022" y1="1640.959961" x2="1201.959961" y2="1868.959961" stroke="red" stroke-width="6.660000" />
<circle cx="1633.959961" cy="1921.959961" r="19.980000" fill="red">
  <title>New York</title>
</circle><line x1="1201.959961" y1="1868.959961" x2="1633.959961" y2="1921.959961" stroke="red" stroke-width="6.660000" />
<circle cx="1602.959961" cy="1498.959961" r="19.980000" fill="red">
  <title>Shanghai</title>
</circle><line x1="1633.959961" y1="1921.959961" x2="1602.959961" y2="1498.959961" stroke="red" stroke-width="6.660000" />
<circle cx="1840.959961" cy="920.960022" r="19.980000" fill="red">
  <title>São Paulo</title>
</circle><line x1="1602.959961" y1="1498.959961" x2="1840.959961" y2="920.960022" stroke="red" stroke-width="6.660000" />
<circle cx="1875.959961" cy="898.960022" r="19.980000" fill="red">
  <title>Beijing</title>
</circle><line x1="1840.959961" y1="920.960022" x2="1875.959961" y2="898.960022" stroke="red" stroke-width="6.660000" />
<circle cx="1315.959961" cy="940.960022" r="19.980000" fill="red">
  <title>Buenos Aires</title>
</circle><line x1="1875.959961" y1="898.960022" x2="1315.959961" y2="940.960022" stroke="red" stroke-width="6.660000" />
<circle cx="1322.959961" cy="1381.959961" r="19.980000" fill="red">
  <title>Delhi</title>
</circle><line x1="1315.959961" y1="940.960022" x2="1322.959961" y2="1381.959961" stroke="red" stroke-width="6.660000" />
<circle cx="1161.959961" cy="1344.959961" r="19.980000" fill="red">
  <title>Cairo</title>
</circle><line x1="1322.959961" y1="1381.959961" x2="1161.959961" y2="1344.959961" stroke="red" stroke-width="6.660000" />
<circle cx="896.960022" cy="1361.959961" r="19.980000" fill="red">
  <title>Osaka</title>
</circle><line x1="1161.959961" y1="1344.959961" x2="896.960022" y2="1361.959961" stroke="red" stroke-width="6.660000" />
<circle cx="359.959991" cy="909.960022" r="19.980000" fill="red">
  <title>Chongqing</title>
</circle><line x1="896.960022" y1="1361.959961" x2="359.959991" y2="909.960022" stroke="red" stroke-width="6.660000" />
<circle cx="325.959991" cy="1383.959961" r="19.980000" fill="red">
  <title>Mexico City</title>
</circle><line x1="359.959991" y1="909.960022" x2="325.959991" y2="1383.959961" stroke="red" stroke-width="6.660000" />
<circle cx="123.959999" cy="1466.959961" r="19.980000" fill="red">
  <title>Mumbai</title>
</circle><line x1="325.959991" y1="1383.959961" x2="123.959999" y2="1466.959961" stroke="red" stroke-width="6.660000" />
</svg>
