<?xml version="1.0" encoding="UTF-8" standalone="no"?>
<svg width="500" height="500" viewBox="0 0 2074.000000 2074.000000" xmlns="http://www.w3.org/2000/svg">
<rect x="19.000000" y="19.000000" width="2036.000000" height="2036.000000" fill="black" />
<circle cx="508.959991" cy="1346.959961" r="19.980000" fill="red">
  <title>Tokyo</title>
</circle><line x1="715.960022" y1="742.960022" x2="508.959991" y2="1346.959961" stroke="red" stroke-width="6.660000" />
<circle cx="772.960022" cy="1847.959961" r="19.980000" fill="red">
  <title>Delhi</title>
</circle><line x1="508.959991" y1="1346.959961" x2="772.960022" y2="1847.959961" stroke="red" stroke-width="6.660000" />
<circle cx="715.960022" cy="742.960022" r="19.980000" fill="red">
  <title>Shanghai</title>
</circle><line x1="772.960022" y1="1847.959961" x2="715.960022" y2="742.960022" stroke="red" stroke-width="6.660000" />
</svg>
