<?xml version="1.0" encoding="UTF-8" standalone="no"?>
<svg width="500" height="500" viewBox="0 0 2074.000000 2074.000000" xmlns="http://www.w3.org/2000/svg">
<rect x="19.000000" y="19.000000" width="2036.000000" height="2036.000000" fill="black" />
<circle cx="554.960022" cy="1492.959961" r="19.980000" fill="red">
  <title>Tokyo</title>
</circle><line x1="365.959991" y1="1167.959961" x2="554.960022" y2="1492.959961" stroke="red" stroke-width="6.660000" />
<circle cx="680.960022" cy="1797.959961" r="19.980000" fill="red">
  <title>Mexico City</title>
</circle><line x1="554.960022" y1="1492.959961" x2="680.960022" y2="1797.959961" stroke="red" stroke-width="6.660000" />
<circle cx="1065.959961" cy="1453.959961" r="19.980000" fill="red">
  <title>Shanghai</title>
</circle><line x1="680.960022" y1="1797.959961" x2="1065.959961" y2="1453.959961" stroke="red" stroke-width="6.660000" />
<circle cx="1736.959961" cy="1165.959961" r="19.980000" fill="red">
  <title>Delhi</title>
</circle><line x1="1065.959961" y1="1453.959961" x2="1736.959961" y2="1165.959961" stroke="red" stroke-width="6.660000" />
<circle cx="878.960022" cy="704.960022" r="19.980000" fill="red">
  <title>Mumbai</title>
</circle><line x1="1736.959961" y1="1165.959961" x2="878.960022" y2="704.960022" stroke="red" stroke-width="6.660000" />
<circle cx="504.959991" cy="1095.959961" r="19.980000" fill="red">
  <title>São Paulo</title>
</circle><line x1="878.960022" y1="704.960022" x2="504.959991" y2="1095.959961" stroke="red" stroke-width="6.660000" />
<circle cx="222.959991" cy="1061.959961" r="19.980000" fill="red">
  <title>Beijing</title>
</circle><line x1="504.959991" y1="1095.959961" x2="222.959991" y2="1061.959961" stroke="red" stroke-width="6.660000" />
<circle cx="365.959991" cy="1167.959961" r="19.980000" fill="red">
  <title>Cairo</title>
</circle><line x1="222.959991" y1="1061.959961" x2="365.959991" y2="1167.959961" stroke="red" stroke-width="6.660000" />
</svg>
