<?xml version="1.0" encoding="UTF-8" standalone="no"?>
<svg width="500" height="500" viewBox="0 0 2074.000000 2074.000000" xmlns="http://www.w3.org/2000/svg">
<rect x="19.000000" y="19.000000" width="2036.000000" height="2036.000000" fill="black" />
<circle cx="1210.959961" cy="320.959991" r="19.980000" fill="red">
  <title>Tokyo</title>
</circle><line x1="1112.959961" y1="45.959999" x2="1210.959961" y2="320.959991" stroke="red" stroke-width="6.660000" />
<circle cx="1365.959961" cy="505.959991" r="19.980000" fill="red">
  <title>Karachi</title>
</circle><line x1="1210.959961" y1="320.959991" x2="1365.959961" y2="505.959991" stroke="red" stroke-width="6.660000" />
<circle cx="1654.959961" cy="611.960022" r="19.980000" fill="red">
  <title>Osaka</title>
</circle><line x1="1365.959961" y1="505.959991" x2="1654.959961" y2="611.960022" stroke="red" stroke-width="6.660000" />
<circle cx="2016.959961" cy="588.960022" r="19.980000" fill="red">
  <title>Dhaka</title>
</circle><line x1="1654.959961" y1="611.960022" x2="2016.959961" y2="588.960022" stroke="red" stroke-width="6.660000" />
<circle cx="2017.959961" cy="721.960022" r="19.980000" fill="red">
  <title>New York</title>
</circle><line x1="2016.959961" y1="588.960022" x2="2017.959961" y2="721.960022" stroke="red" stroke-width="6.660000" />
<circle cx="2035.959961" cy="1226.959961" r="19.980000" fill="red">
  <title>Buenos Aires</title>
</circle><line x1="2017.959961" y1="721.960022" x2="2035.959961" y2="1226.959961" stroke="red" stroke-width="6.660000" />
<circle cx="1453.959961" cy="1337.959961" r="19.980000" fill="red">
  <title>Mexico City</title>
</circle><line x1="2035.959961" y1="1226.959961" x2="1453.959961" y2="1337.959961" stroke="red" stroke-width="6.660000" />
<circle cx="1257.959961" cy="1392.959961" r="19.980000" fill="red">
  <title>Lagos</title>
</circle><line x1="1453.959961" y1="1337.959961" x2="1257.959961" y2="1392.959961" stroke="red" stroke-width="6.660000" />
<circle cx="475.959991" cy="1927.959961" r="19.980000" fill="red">
  <title>Kolkata</title>
</circle><line x1="1257.959961" y1="1392.959961" x2="475.959991" y2="1927.959961" stroke="red" stroke-width="6.660000" />
<circle cx="214.959991" cy="1633.959961" r="19.980000" fill="red">
  <title>São Paulo</title>
</circle><line x1="475.959991" y1="1927.959961" x2="214.959991" y2="1633.959961" stroke="red" stroke-width="6.660000" />
<circle cx="122.959999" cy="1367.959961" r="19.980000" fill="red">
  <title>Delhi</title>
</circle><line x1="214.959991" y1="1633.959961" x2="122.959999" y2="1367.959961" stroke="red" stroke-width="6.660000" />
<circle cx="618.960022" cy="1178.959961" r="19.980000" fill="red">
  <title>Mumbai</title>
</circle><line x1="122.959999" y1="1367.959961" x2="618.960022" y2="1178.959961" stroke="red" stroke-width="6.660000" />
<circle cx="497.959991" cy="1048.959961" r="19.980000" fill="red">
  <title>Shanghai</title>
</circle><line x1="618.960022" y1="1178.959961" x2="497.959991" y2="1048.959961" stroke="red" stroke-width="6.660000" />
<circle cx="105.959999" cy="606.960022" r="19.980000" fill="red">
  <title>Cairo</title>
</circle><line x1="497.959991" y1="1048.959961" x2="105.959999" y2="606.960022" stroke="red" stroke-width="6.660000" />
<circle cx="477.959991" cy="708.960022" r="19.980000" fill="red">
  <title>Chongqing</title>
</circle><line x1="105.959999" y1="606.960022" x2="477.959991" y2="708.960022" stroke="red" stroke-width="6.660000" />
<circle cx="756.960022" cy="652.960022" r="19.980000" fill="red">
  <title>Istanbul</title>
</circle><line x1="477.959991" y1="708.960022" x2="756.960022" y2="652.960022" stroke="red" stroke-width="6.660000" />
<circle cx="933.960022" cy="558.960022" r="19.980000" fill="red">
  <title>Manila</title>
</circle><line x1="756.960022" y1="652.960022" x2="933.960022" y2="558.960022" stroke="red" stroke-width="6.660000" />
<circle cx="1112.959961" cy="45.959999" r="19.980000" fill="red">
  <title>Beijing</title>
</circle><line x1="933.960022" y1="558.960022" x2="1112.959961" y2="45.959999" stroke="red" stroke-width="6.660000" />
</svg>
