<?xml version="1.0" encoding="UTF-8" standalone="no"?>
<svg width="500" height="500" viewBox="0 0 2074.000000 2074.000000" xmlns="http://www.w3.org/2000/svg">
<rect x="19.000000" y="19.000000" width="2036.000000" height="2036.000000" fill="black" />
<circle cx="1189.959961" cy="1935.959961" r="19.980000" fill="red">
  <title>Tokyo</title>
</circle><line x1="463.959991" y1="1913.959961" x2="1189.959961" y2="1935.959961" stroke="red" stroke-width="6.660000" />
<circle cx="1385.959961" cy="1867.959961" r="19.980000" fill="red">
  <title>São Paulo</title>
</circle><line x1="1189.959961" y1="1935.959961" x2="1385.959961" y2="1867.959961" stroke="red" stroke-width="6.660000" />
<circle cx="1471.959961" cy="2001.959961" r="19.980000" fill="red">
  <title>Delhi</title>
</circle><line x1="1385.959961" y1="1867.959961" x2="1471.959961" y2="2001.959961" stroke="red" stroke-width="6.660000" />
<circle cx="1733.959961" cy="1853.959961" r="19.980000" fill="red">
  <title>Shanghai</title>
</circle><line x1="1471.959961" y1="2001.959961" x2="1733.959961" y2="1853.959961" stroke="red" stroke-width="6.660000" />
<circle cx="1482.959961" cy="1699.959961" r="19.980000" fill="red">
  <title>Chongqing</title>
</circle><line x1="1733.959961" y1="1853.959961" x2="1482.959961" y2="1699.959961" stroke="red" stroke-width="6.660000" />
<circle cx="1267.959961" cy="1613.959961" r="19.980000" fill="red">
  <title>Kolkata</title>
</circle><line x1="1482.959961" y1="1699.959961" x2="1267.959961" y2="1613.959961" stroke="red" stroke-width="6.660000" />
<circle cx="1416.959961" cy="1517.959961" r="19.980000" fill="red">
  <title>Karachi</title>
</circle><line x1="1267.959961" y1="1613.959961" x2="1416.959961" y2="1517.959961" stroke="red" stroke-width="6.660000" />
<circle cx="1730.959961" cy="1468.959961" r="19.980000" fill="red">
  <title>Beijing</title>
</circle><line x1="1416.959961" y1="1517.959961" x2="1730.959961" y2="1468.959961" stroke="red" stroke-width="6.660000" />
<circle cx="1426.959961" cy="1296.959961" r="19.980000" fill="red">
  <title>Dhaka</title>
</circle><line x1="1730.959961" y1="1468.959961" x2="1426.959961" y2="1296.959961" stroke="red" stroke-width="6.660000" />
<circle cx="1810.959961" cy="700.960022" r="19.980000" fill="red">
  <title>Manila</title>
</circle><line x1="1426.959961" y1="1296.959961" x2="1810.959961" y2="700.960022" stroke="red" stroke-width="6.660000" />
<circle cx="1168.959961" cy="825.960022" r="19.980000" fill="red">
  <title>Mumbai</title>
</circle><line x1="1810.959961" y1="700.960022" x2="1168.959961" y2="825.960022" stroke="red" stroke-width="6.660000" />
<circle cx="440.959991" cy="363.959991" r="19.980000" fill="red">
  <title>New York</title>
</circle><line x1="1168.959961" y1="825.960022" x2="440.959991" y2="363.959991" stroke="red" stroke-width="6.660000" />
<circle cx="304.959991" cy="465.959991" r="19.980000" fill="red">
  <title>Buenos Aires</title>
</circle><line x1="440.959991" y1="363.959991" x2="304.959991" y2="465.959991" stroke="red" stroke-width="6.660000" />
<circle cx="299.959991" cy="900.960022" r="19.980000" fill="red">
  <title>Mexico City</title>
</circle><line x1="304.959991" y1="465.959991" x2="299.959991" y2="900.960022" stroke="red" stroke-width="6.660000" />
<circle cx="1063.959961" cy="1192.959961" r="19.980000" fill="red">
  <title>Cairo</title>
</circle><line x1="299.959991" y1="900.960022" x2="1063.959961" y2="1192.959961" stroke="red" stroke-width="6.660000" />
<circle cx="1010.960022" cy="1465.959961" r="19.980000" fill="red">
  <title>Osaka</title>
</circle><line x1="1063.959961" y1="1192.959961" x2="1010.960022" y2="1465.959961" stroke="red" stroke-width="6.660000" />
<circle cx="463.959991" cy="1913.959961" r="19.980000" fill="red">
  <title>Istanbul</title>
</circle><line x1="1010.960022" y1="1465.959961" x2="463.959991" y2="1913.959961" stroke="red" stroke-width="6.660000" />
</svg>
