<?xml version="1.0" encoding="UTF-8" standalone="no"?>
<svg width="500" height="500" viewBox="0 0 2074.000000 2074.000000" xmlns="http://www.w3.org/2000/svg">
<rect x="19.000000" y="19.000000" width="2036.000000" height="2036.000000" fill="black" />
<circle cx="663.960022" cy="265.959991" r="19.980000" fill="red">
  <title>Tokyo</title>
</circle><line x1="365.959991" y1="324.959991" x2="663.960022" y2="265.959991" stroke="red" stroke-width="6.660000" />
<circle cx="1552.959961" cy="618.960022" r="19.980000" fill="red">
  <title>Mexico City</title>
</circle><line x1="663.960022" y1="265.959991" x2="1552.959961" y2="618.960022" stroke="red" stroke-width="6.660000" />
<circle cx="1193.959961" cy="775.960022" r="19.980000" fill="red">
  <title>Dhaka</title>
</circle><line x1="1552.959961" y1="618.960022" x2="1193.959961" y2="775.960022" stroke="red" stroke-width="6.660000" />
<circle cx="1106.959961" cy="1284.959961" r="19.980000" fill="red">
  <title>Delhi</title>
</circle><line x1="1193.959961" y1="775.960022" x2="1106.959961" y2="1284.959961" stroke="red" stroke-width="6.660000" />
<circle cx="1763.959961" cy="1918.959961" r="19.980000" fill="red">
  <title>São Paulo</title>
</circle><line x1="1106.959961" y1="1284.959961" x2="1763.959961" y2="1918.959961" stroke="red" stroke-width="6.660000" />
<circle cx="768.960022" cy="1944.959961" r="19.980000" fill="red">
  <title>Mumbai</title>
</circle><line x1="1763.959961" y1="1918.959961" x2="768.960022" y2="1944.959961" stroke="red" stroke-width="6.660000" />
<circle cx="882.960022" cy="1470.959961" r="19.980000" fill="red">
  <title>Shanghai</title>
</circle><line x1="768.960022" y1="1944.959961" x2="882.960022" y2="1470.959961" stroke="red" stroke-width="6.660000" />
<circle cx="937.960022" cy="1230.959961" r="19.980000" fill="red">
  <title>Cairo</title>
</circle><line x1="882.960022" y1="1470.959961" x2="937.960022" y2="1230.959961" stroke="red" stroke-width="6.660000" />
<circle cx="365.959991" cy="324.959991" r="19.980000" fill="red">
  <title>Beijing</title>
</circle><line x1="937.960022" y1="1230.959961" x2="365.959991" y2="324.959991" stroke="red" stroke-width="6.660000" />
</svg>
