<?xml version="1.0" encoding="UTF-8" standalone="no"?>
<svg width="500" height="500" viewBox="0 0 2074.000000 2074.000000" xmlns="http://www.w3.org/2000/svg">
<rect x="19.000000" y="19.000000" width="2036.000000" height="2036.000000" fill="black" />
<circle cx="730.960022" cy="726.960022" r="19.980000" fill="red">
  <title>Tokyo</title>
</circle><line x1="679.960022" y1="449.959991" x2="730.960022" y2="726.960022" stroke="red" stroke-width="6.660000" />
<circle cx="223.959991" cy="1157.959961" r="19.980000" fill="red">
  <title>São Paulo</title>
</circle><line x1="730.960022" y1="726.960022" x2="223.959991" y2="1157.959961" stroke="red" stroke-width="6.660000" />
<circle cx="761.960022" cy="1517.959961" r="19.980000" fill="red">
  <title>Shanghai</title>
</circle><line x1="223.959991" y1="1157.959961" x2="761.960022" y2="1517.959961" stroke="red" stroke-width="6.660000" />
<circle cx="1639.959961" cy="709.960022" r="19.980000" fill="red">
  <title>Delhi</title>
</circle><line x1="761.960022" y1="1517.959961" x2="1639.959961" y2="709.960022" stroke="red" stroke-width="6.660000" />
<circle cx="679.960022" cy="449.959991" r="19.980000" fill="red">
  <title>Mexico City</title>
</circle><line x1="1639.959961" y1="709.960022" x2="679.960022" y2="449.959991" stroke="red" stroke-width="6.660000" />
</svg>
