<?xml version="1.0" encoding="UTF-8" standalone="no"?>
<svg width="500" height="500" viewBox="0 0 2074.000000 2074.000000" xmlns="http://www.w3.org/2000/svg">
<rect x="19.000000" y="19.000000" width="2036.000000" height="2036.000000" fill="black" />
<circle cx="1967.959961" cy="393.959991" r="19.980000" fill="red">
  <title>Tokyo</title>
</circle><line x1="1768.959961" y1="1207.959961" x2="1967.959961" y2="393.959991" stroke="red" stroke-width="6.660000" />
<circle cx="1088.959961" cy="1180.959961" r="19.980000" fill="red">
  <title>Cairo</title>
</circle><line x1="1967.959961" y1="393.959991" x2="1088.959961" y2="1180.959961" stroke="red" stroke-width="6.660000" />
<circle cx="841.960022" cy="1335.959961" r="19.980000" fill="red">
  <title>Mexico City</title>
</circle><line x1="1088.959961" y1="1180.959961" x2="841.960022" y2="1335.959961" stroke="red" stroke-width="6.660000" />
<circle cx="563.960022" cy="976.960022" r="19.980000" fill="red">
  <title>Karachi</title>
</circle><line x1="841.960022" y1="1335.959961" x2="563.960022" y2="976.960022" stroke="red" stroke-width="6.660000" />
<circle cx="254.959991" cy="41.959999" r="19.980000" fill="red">
  <title>Osaka</title>
</circle><line x1="563.960022" y1="976.960022" x2="254.959991" y2="41.959999" stroke="red" stroke-width="6.660000" />
<circle cx="181.959991" cy="1116.959961" r="19.980000" fill="red">
  <title>Delhi</title>
</circle><line x1="254.959991" y1="41.959999" x2="181.959991" y2="1116.959961" stroke="red" stroke-width="6.660000" />
<circle cx="75.959999" cy="1246.959961" r="19.980000" fill="red">
  <title>New York</title>
</circle><line x1="181.959991" y1="1116.959961" x2="75.959999" y2="1246.959961" stroke="red" stroke-width="6.660000" />
<circle cx="724.960022" cy="1708.959961" r="19.980000" fill="red">
  <title>Shanghai</title>
</circle><line x1="75.959999" y1="1246.959961" x2="724.960022" y2="1708.959961" stroke="red" stroke-width="6.660000" />
<circle cx="831.960022" cy="1480.959961" r="19.980000" fill="red">
  <title>Mumbai</title>
</circle><line x1="724.960022" y1="1708.959961" x2="831.960022" y2="1480.959961" stroke="red" stroke-width="6.660000" />
<circle cx="1241.959961" cy="1748.959961" r="19.980000" fill="red">
  <title>Dhaka</title>
</circle><line x1="831.960022" y1="1480.959961" x2="1241.959961" y2="1748.959961" stroke="red" stroke-width="6.660000" />
<circle cx="1638.959961" cy="1327.959961" r="19.980000" fill="red">
  <title>São Paulo</title>
</circle><line x1="1241.959961" y1="1748.959961" x2="1638.959961" y2="1327.959961" stroke="red" stroke-width="6.660000" />
<circle cx="1768.959961" cy="1207.959961" r="19.980000" fill="red">
  <title>Beijing</title>
</circle><line x1="1638.959961" y1="1327.959961" x2="1768.959961" y2="1207.959961" stroke="red" stroke-width="6.660000" />
</svg>
