<?xml version="1.0" encoding="UTF-8" standalone="no"?>
<svg width="500" height="500" viewBox="0 0 2074.000000 2074.000000" xmlns="http://www.w3.org/2000/svg">
<rect x="19.000000" y="19.000000" width="2036.000000" height="2036.000000" fill="black" />
<circle cx="982.960022" cy="1511.959961" r="19.980000" fill="red">
  <title>Tokyo</title>
</circle><line x1="1510.959961" y1="1650.959961" x2="982.960022" y2="1511.959961" stroke="red" stroke-width="6.660000" />
<circle cx="474.959991" cy="1558.959961" r="19.980000" fill="red">
  <title>Cairo</title>
</circle><line x1="982.960022" y1="1511.959961" x2="474.959991" y2="1558.959961" stroke="red" stroke-width="6.660000" />
<circle cx="369.959991" cy="1852.959961" r="19.980000" fill="red">
  <title>Shanghai</title>
</circle><line x1="474.959991" y1="1558.959961" x2="369.959991" y2="1852.959961" stroke="red" stroke-width="6.660000" />
<circle cx="106.959999" cy="1436.959961" r="19.980000" fill="red">
  <title>São Paulo</title>
</circle><line x1="369.959991" y1="1852.959961" x2="106.959999" y2="1436.959961" stroke="red" stroke-width="6.660000" />
<circle cx="87.959999" cy="1098.959961" r="19.980000" fill="red">
  <title>Delhi</title>
</circle><line x1="106.959999" y1="1436.959961" x2="87.959999" y2="1098.959961" stroke="red" stroke-width="6.660000" />
<circle cx="339.959991" cy="828.960022" r="19.980000" fill="red">
  <title>New York</title>
</circle><line x1="87.959999" y1="1098.959961" x2="339.959991" y2="828.960022" stroke="red" stroke-width="6.660000" />
<circle cx="640.960022" cy="235.959991" r="19.980000" fill="red">
  <title>Mumbai</title>
</circle><line x1="339.959991" y1="828.960022" x2="640.960022" y2="235.959991" stroke="red" stroke-width="6.660000" />
<circle cx="1318.959961" cy="415.959991" r="19.980000" fill="red">
  <title>Mexico City</title>
</circle><line x1="640.960022" y1="235.959991" x2="1318.959961" y2="415.959991" stroke="red" stroke-width="6.660000" />
<circle cx="1641.959961" cy="182.959991" r="19.980000" fill="red">
  <title>Dhaka</title>
</circle><line x1="1318.959961" y1="415.959991" x2="1641.959961" y2="182.959991" stroke="red" stroke-width="6.660000" />
<circle cx="1357.959961" cy="979.960022" r="19.980000" fill="red">
  <title>Osaka</title>
</circle><line x1="1641.959961" y1="182.959991" x2="1357.959961" y2="979.960022" stroke="red" stroke-width="6.660000" />
<circle cx="1768.959961" cy="1827.959961" r="19.980000" fill="red">
  <title>Karachi</title>
</circle><line x1="1357.959961" y1="979.960022" x2="1768.959961" y2="1827.959961" stroke="red" stroke-width="6.660000" />
<circle cx="1510.959961" cy="1650.959961" r="19.980000" fill="red">
  <title>Beijing</title>
</circle><line x1="1768.959961" y1="1827.959961" x2="1510.959961" y2="1650.959961" stroke="red" stroke-width="6.660000" />
</svg>
