<?xml version="1.0" encoding="UTF-8" standalone="no"?>
<svg width="500" height="500" viewBox="0 0 2074.000000 2074.000000" xmlns="http://www.w3.org/2000/svg">
<rect x="19.000000" y="19.000000" width="2036.000000" height="2036.000000" fill="black" />
<circle cx="990.960022" cy="1039.959961" r="19.980000" fill="red">
  <title>Tokyo</title>
</circle><line x1="1394.959961" y1="76.959999" x2="990.960022" y2="1039.959961" stroke="red" stroke-width="6.660000" />
<circle cx="882.960022" cy="406.959991" r="19.980000" fill="red">
  <title>Delhi</title>
</circle><line x1="990.960022" y1="1039.959961" x2="882.960022" y2="406.959991" stroke="red" stroke-width="6.660000" />
<circle cx="1394.959961" cy="76.959999" r="19.980000" fill="red">
  <title>Shanghai</title>
</circle><line x1="882.960022" y1="406.959991" x2="1394.959961" y2="76.959999" stroke="red" stroke-width="6.660000" />
</svg>
