<?xml version="1.0" encoding="UTF-8" standalone="no"?>
<svg width="500" height="500" viewBox="0 0 2074.000000 2074.000000" xmlns="http://www.w3.org/2000/svg">
<rect x="19.000000" y="19.000000" width="2036.000000" height="2036.000000" fill="black" />
<circle cx="1416.959961" cy="1907.959961" r="19.980000" fill="red">
  <title>Tokyo</title>
</circle><line x1="1117.959961" y1="2034.959961" x2="1416.959961" y2="1907.959961" stroke="red" stroke-width="6.660000" />
<circle cx="1624.959961" cy="1892.959961" r="19.980000" fill="red">
  <title>New York</title>
</circle><line x1="1416.959961" y1="1907.959961" x2="1624.959961" y2="1892.959961" stroke="red" stroke-width="6.660000" />
<circle cx="1773.959961" cy="1447.959961" r="19.980000" fill="red">
  <title>Karachi</title>
</circle><line x1="1624.959961" y1="1892.959961" x2="1773.959961" y2="1447.959961" stroke="red" stroke-width="6.660000" />
<circle cx="1759.959961" cy="1146.959961" r="19.980000" fill="red">
  <title>Manila</title>
</circle><line x1="1773.959961" y1="1447.959961" x2="1759.959961" y2="1146.959961" stroke="red" stroke-width="6.660000" />
<circle cx="1923.959961" cy="584.960022" r="19.980000" fill="red">
  <title>Delhi</title>
</circle><line x1="1759.959961" y1="1146.959961" x2="1923.959961" y2="584.960022" stroke="red" stroke-width="6.660000" />
<circle cx="1260.959961" cy="506.959991" r="19.980000" fill="red">
  <title>Kolkata</title>
</circle><line x1="1923.959961" y1="584.960022" x2="1260.959961" y2="506.959991" stroke="red" stroke-width="6.660000" />
<circle cx="809.960022" cy="94.959999" r="19.980000" fill="red">
  <title>Osaka</title>
</circle><line x1="1260.959961" y1="506.959991" x2="809.960022" y2="94.959999" stroke="red" stroke-width="6.660000" />
<circle cx="1052.959961" cy="301.959991" r="19.980000" fill="red">
  <title>Lagos</title>
</circle><line x1="809.960022" y1="94.959999" x2="1052.959961" y2="301.959991" stroke="red" stroke-width="6.660000" />
<circle cx="1260.959961" cy="1205.959961" r="19.980000" fill="red">
  <title>Dhaka</title>
</circle><line x1="1052.959961" y1="301.959991" x2="1260.959961" y2="1205.959961" stroke="red" stroke-width="6.660000" />
<circle cx="830.960022" cy="1458.959961" r="19.980000" fill="red">
  <title>Chongqing</title>
</circle><line x1="1260.959961" y1="1205.959961" x2="830.960022" y2="1458.959961" stroke="red" stroke-width="6.660000" />
<circle cx="781.960022" cy="1087.959961" r="19.980000" fill="red">
  <title>Mumbai</title>
</circle><line x1="830.960022" y1="1458.959961" x2="781.960022" y2="1087.959961" stroke="red" stroke-width="6.660000" />
<circle cx="580.960022" cy="1207.959961" r="19.980000" fill="red">
  <title>Shanghai</title>
</circle><line x1="781.960022" y1="1087.959961" x2="580.960022" y2="1207.959961" stroke="red" stroke-width="6.660000" />
<circle cx="315.959991" cy="1511.959961" r="19.980000" fill="red">
  <title>Rio de Janeiro</title>
</circle><line x1="580.960022" y1="1207.959961" x2="315.959991" y2="1511.959961" stroke="red" stroke-width="6.660000" />
<circle cx="483.959991" cy="1773.959961" r="19.980000" fill="red">
  <title>Mexico City</title>
</circle><line x1="315.959991" y1="1511.959961" x2="483.959991" y2="1773.959961" stroke="red" stroke-width="6.660000" />
<circle cx="498.959991" cy="1880.959961" r="19.980000" fill="red">
  <title>São Paulo</title>
</circle><line x1="483.959991" y1="1773.959961" x2="498.959991" y2="1880.959961" stroke="red" stroke-width="6.660000" />
<circle cx="519.960022" cy="1823.959961" r="19.980000" fill="red">
  <title>Beijing</title>
</circle><line x1="498.959991" y1="1880.959961" x2="519.960022" y2="1823.959961" stroke="red" stroke-width="6.660000" />
<circle cx="1015.960022" cy="1832.959961" r="19.980000" fill="red">
  <title>Cairo</title>
</circle><line x1="519.960022" y1="1823.959961" x2="1015.960022" y2="1832.959961" stroke="red" stroke-width="6.660000" />
<circle cx="1128.959961" cy="1889.959961" r="19.980000" fill="red">
  <title>Istanbul</title>
</circle><line x1="1015.960022" y1="1832.959961" x2="1128.959961" y2="1889.959961" stroke="red" stroke-width="6.660000" />
<circle cx="1117.959961" cy="2034.959961" r="19.980000" fill="red">
  <title>Buenos Aires</title>
</circle><line x1="1128.959961" y1="1889.959961" x2="1117.959961" y2="2034.959961" stroke="red" stroke-width="6.660000" />
</svg>
