<?xml version="1.0" encoding="UTF-8" standalone="no"?>
<svg width="500" height="500" viewBox="0 0 2074.000000 2074.000000" xmlns="http://www.w3.org/2000/svg">
<rect x="19.000000" y="19.000000" width="2036.000000" height="2036.000000" fill="black" />
<circle cx="1978.959961" cy="96.959999" r="19.980000" fill="red">
  <title>Tokyo</title>
</circle><line x1="1642.959961" y1="323.959991" x2="1978.959961" y2="96.959999" stroke="red" stroke-width="6.660000" />
<circle cx="1954.959961" cy="335.959991" r="19.980000" fill="red">
  <title>Mumbai</title>
</circle><line x1="1978.959961" y1="96.959999" x2="1954.959961" y2="335.959991" stroke="red" stroke-width="6.660000" />
<circle cx="1970.959961" cy="1003.960022" r="19.980000" fill="red">
  <title>Buenos Aires</title>
</circle><line x1="1954.959961" y1="335.959991" x2="1970.959961" y2="1003.960022" stroke="red" stroke-width="6.660000" />
<circle cx="1411.959961" cy="928.960022" r="19.980000" fill="red">
  <title>Shanghai</title>
</circle><line x1="1970.959961" y1="1003.960022" x2="1411.959961" y2="928.960022" stroke="red" stroke-width="6.660000" />
<circle cx="1264.959961" cy="1193.959961" r="19.980000" fill="red">
  <title>Manila</title>
</circle><line x1="1411.959961" y1="928.960022" x2="1264.959961" y2="1193.959961" stroke="red" stroke-width="6.660000" />
<circle cx="1360.959961" cy="1480.959961" r="19.980000" fill="red">
  <title>São Paulo</title>
</circle><line x1="1264.959961" y1="1193.959961" x2="1360.959961" y2="1480.959961" stroke="red" stroke-width="6.660000" />
<circle cx="1251.959961" cy="1689.959961" r="19.980000" fill="red">
  <title>Mexico City</title>
</circle><line x1="1360.959961" y1="1480.959961" x2="1251.959961" y2="1689.959961" stroke="red" stroke-width="6.660000" />
<circle cx="584.960022" cy="1994.959961" r="19.980000" fill="red">
  <title>Beijing</title>
</circle><line x1="1251.959961" y1="1689.959961" x2="584.960022" y2="1994.959961" stroke="red" stroke-width="6.660000" />
<circle cx="311.959991" cy="1207.959961" r="19.980000" fill="red">
  <title>Istanbul</title>
</circle><line x1="584.960022" y1="1994.959961" x2="311.959991" y2="1207.959961" stroke="red" stroke-width="6.660000" />
<circle cx="404.959991" cy="986.960022" r="19.980000" fill="red">
  <title>New York</title>
</circle><line x1="311.959991" y1="1207.959961" x2="404.959991" y2="986.960022" stroke="red" stroke-width="6.660000" />
<circle cx="465.959991" cy="909.960022" r="19.980000" fill="red">
  <title>Chongqing</title>
</circle><line x1="404.959991" y1="986.960022" x2="465.959991" y2="909.960022" stroke="red" stroke-width="6.660000" />
<circle cx="295.959991" cy="894.960022" r="19.980000" fill="red">
  <title>Karachi</title>
</circle><line x1="465.959991" y1="909.960022" x2="295.959991" y2="894.960022" stroke="red" stroke-width="6.660000" />
<circle cx="84.959999" cy="272.959991" r="19.980000" fill="red">
  <title>Rio de Janeiro</title>
</circle><line x1="295.959991" y1="894.960022" x2="84.959999" y2="272.959991" stroke="red" stroke-width="6.660000" />
<circle cx="505.959991" cy="736.960022" r="19.980000" fill="red">
  <title>Delhi</title>
</circle><line x1="84.959999" y1="272.959991" x2="505.959991" y2="736.960022" stroke="red" stroke-width="6.660000" />
<circle cx="971.960022" cy="844.960022" r="19.980000" fill="red">
  <title>Cairo</title>
</circle><line x1="505.959991" y1="736.960022" x2="971.960022" y2="844.960022" stroke="red" stroke-width="6.660000" />
<circle cx="950.960022" cy="638.960022" r="19.980000" fill="red">
  <title>Lagos</title>
</circle><line x1="971.960022" y1="844.960022" x2="950.960022" y2="638.960022" stroke="red" stroke-width="6.660000" />
<circle cx="726.960022" cy="252.959991" r="19.980000" fill="red">
  <title>Kolkata</title>
</circle><line x1="950.960022" y1="638.960022" x2="726.960022" y2="252.959991" stroke="red" stroke-width="6.660000" />
<circle cx="1121.959961" cy="61.959999" r="19.980000" fill="red">
  <title>Dhaka</title>
</circle><line x1="726.960022" y1="252.959991" x2="1121.959961" y2="61.959999" stroke="red" stroke-width="6.660000" />
<circle cx="1642.959961" cy="323.959991" r="19.980000" fill="red">
  <title>Osaka</title>
</circle><line x1="1121.959961" y1="61.959999" x2="1642.959961" y2="323.959991" stroke="red" stroke-width="6.660000" />
</svg>
