<?xml version="1.0" encoding="UTF-8" standalone="no"?>
<svg width="500" height="500" viewBox="0 0 2074.000000 2074.000000" xmlns="http://www.w3.org/2000/svg">
<rect x="19.000000" y="19.000000" width="2036.000000" height="2036.000000" fill="black" />
<circle cx="297.959991" cy="1450.959961" r="19.980000" fill="red">
  <title>Tokyo</title>
</circle><line x1="1021.960022" y1="741.960022" x2="297.959991" y2="1450.959961" stroke="red" stroke-width="6.660000" />
<circle cx="218.959991" cy="1984.959961" r="19.980000" fill="red">
  <title>São Paulo</title>
</circle><line x1="297.959991" y1="1450.959961" x2="218.959991" y2="1984.959961" stroke="red" stroke-width="6.660000" />
<circle cx="776.960022" cy="776.960022" r="19.980000" fill="red">
  <title>Mexico City</title>
</circle><line x1="218.959991" y1="1984.959961" x2="776.960022" y2="776.960022" stroke="red" stroke-width="6.660000" />
<circle cx="1093.959961" cy="333.959991" r="19.980000" fill="red">
  <title>Shanghai</title>
</circle><line x1="776.960022" y1="776.960022" x2="1093.959961" y2="333.959991" stroke="red" stroke-width="6.660000" />
<circle cx="1581.959961" cy="420.959991" r="19.980000" fill="red">
  <title>Cairo</title>
</circle><line x1="1093.959961" y1="333.959991" x2="1581.959961" y2="420.959991" stroke="red" stroke-width="6.660000" />
<circle cx="1236.959961" cy="712.960022" r="19.980000" fill="red">
  <title>Delhi</title>
</circle><line x1="1581.959961" y1="420.959991" x2="1236.959961" y2="712.960022" stroke="red" stroke-width="6.660000" />
<circle cx="1021.960022" cy="741.960022" r="19.980000" fill="red">
  <title>Mumbai</title>
</circle><line x1="1236.959961" y1="712.960022" x2="1021.960022" y2="741.960022" stroke="red" stroke-width="6.660000" />
</svg>
