<?xml version="1.0" encoding="UTF-8" standalone="no"?>
<svg width="500" height="500" viewBox="0 0 2074.000000 2074.000000" xmlns="http://www.w3.org/2000/svg">
<rect x="19.000000" y="19.000000" width="2036.000000" height="2036.000000" fill="black" />
<circle cx="1441.959961" cy="1121.959961" r="19.980000" fill="red">
  <title>Tokyo</title>
</circle><line x1="989.960022" y1="1956.959961" x2="1441.959961" y2="1121.959961" stroke="red" stroke-width="6.660000" />
<circle cx="1308.959961" cy="805.960022" r="19.980000" fill="red">
  <title>Delhi</title>
</circle><line x1="1441.959961" y1="1121.959961" x2="1308.959961" y2="805.960022" stroke="red" stroke-width="6.660000" />
<circle cx="569.960022" cy="252.959991" r="19.980000" fill="red">
  <title>São Paulo</title>
</circle><line x1="1308.959961" y1="805.960022" x2="569.960022" y2="252.959991" stroke="red" stroke-width="6.660000" />
<circle cx="155.959991" cy="1330.959961" r="19.980000" fill="red">
  <title>Mexico City</title>
</circle><line x1="569.960022" y1="252.959991" x2="155.959991" y2="1330.959961" stroke="red" stroke-width="6.660000" />
<circle cx="989.960022" cy="1956.959961" r="19.980000" fill="red">
  <title>Shanghai</title>
</circle><line x1="155.959991" y1="1330.959961" x2="989.960022" y2="1956.959961" stroke="red" stroke-width="6.660000" />
</svg>
