<?xml version="1.0" encoding="UTF-8" standalone="no"?>
<svg width="500" height="500" viewBox="0 0 2074.000000 2074.000000" xmlns="http://www.w3.org/2000/svg">
<rect x="19.000000" y="19.000000" width="2036.000000" height="2036.000000" fill="black" />
<circle cx="1266.959961" cy="562.960022" r="19.980000" fill="red">
  <title>Tokyo</title>
</circle><line x1="1057.959961" y1="962.960022" x2="1266.959961" y2="562.960022" stroke="red" stroke-width="6.660000" />
<circle cx="1383.959961" cy="937.960022" r="19.980000" fill="red">
  <title>Cairo</title>
</circle><line x1="1266.959961" y1="562.960022" x2="1383.959961" y2="937.960022" stroke="red" stroke-width="6.660000" />
<circle cx="1435.959961" cy="1152.959961" r="19.980000" fill="red">
  <title>Mexico City</title>
</circle><line x1="1383.959961" y1="937.960022" x2="1435.959961" y2="1152.959961" stroke="red" stroke-width="6.660000" />
<circle cx="1198.959961" cy="1229.959961" r="19.980000" fill="red">
  <title>São Paulo</title>
</circle><line x1="1435.959961" y1="1152.959961" x2="1198.959961" y2="1229.959961" stroke="red" stroke-width="6.660000" />
<circle cx="751.960022" cy="1739.959961" r="19.980000" fill="red">
  <title>Delhi</title>
</circle><line x1="1198.959961" y1="1229.959961" x2="751.960022" y2="1739.959961" stroke="red" stroke-width="6.660000" />
<circle cx="625.960022" cy="1475.959961" r="19.980000" fill="red">
  <title>Beijing</title>
</circle><line x1="751.960022" y1="1739.959961" x2="625.960022" y2="1475.959961" stroke="red" stroke-width="6.660000" />
<circle cx="164.959991" cy="1055.959961" r="19.980000" fill="red">
  <title>Shanghai</title>
</circle><line x1="625.960022" y1="1475.959961" x2="164.959991" y2="1055.959961" stroke="red" stroke-width="6.660000" />
<circle cx="811.960022" cy="1046.959961" r="19.980000" fill="red">
  <title>Dhaka</title>
</circle><line x1="164.959991" y1="1055.959961" x2="811.960022" y2="1046.959961" stroke="red" stroke-width="6.660000" />
<circle cx="1057.959961" cy="962.960022" r="19.980000" fill="red">
  <title>Mumbai</title>
</circle><line x1="811.960022" y1="1046.959961" x2="1057.959961" y2="962.960022" stroke="red" stroke-width="6.660000" />
</svg>
