<?xml version="1.0" encoding="UTF-8" standalone="no"?>
<svg width="500" height="500" viewBox="0 0 2074.000000 2074.000000" xmlns="http://www.w3.org/2000/svg">
<rect x="19.000000" y="19.000000" width="2036.000000" height="2036.000000" fill="black" />
<circle cx="1670.959961" cy="1350.959961" r="19.980000" fill="red">
  <title>Tokyo</title>
</circle><line x1="2020.959961" y1="62.959999" x2="1670.959961" y2="1350.959961" stroke="red" stroke-width="6.660000" />
<circle cx="1631.959961" cy="1666.959961" r="19.980000" fill="red">
  <title>Delhi</title>
</circle><line x1="1670.959961" y1="1350.959961" x2="1631.959961" y2="1666.959961" stroke="red" stroke-width="6.660000" />
<circle cx="1477.959961" cy="409.959991" r="19.980000" fill="red">
  <title>Shanghai</title>
</circle><line x1="1631.959961" y1="1666.959961" x2="1477.959961" y2="409.959991" stroke="red" stroke-width="6.660000" />
<circle cx="2020.959961" cy="62.959999" r="19.980000" fill="red">
  <title>São Paulo</title>
</circle><line x1="1477.959961" y1="409.959991" x2="2020.959961" y2="62.959999" stroke="red" stroke-width="6.660000" />
</svg>
