<?xml version="1.0" encoding="UTF-8" standalone="no"?>
<svg width="500" height="500" viewBox="0 0 2074.000000 2074.000000" xmlns="http://www.w3.org/2000/svg">
<rect x="19.000000" y="19.000000" width="2036.000000" height="2036.000000" fill="black" />
<circle cx="1266.959961" cy="487.959991" r="19.980000" fill="red">
  <title>Tokyo</title>
</circle><line x1="1011.960022" y1="1188.959961" x2="1266.959961" y2="487.959991" stroke="red" stroke-width="6.660000" />
<circle cx="1297.959961" cy="164.959991" r="19.980000" fill="red">
  <title>Delhi</title>
</circle><line x1="1266.959961" y1="487.959991" x2="1297.959961" y2="164.959991" stroke="red" stroke-width="6.660000" />
<circle cx="1577.959961" cy="473.959991" r="19.980000" fill="red">
  <title>São Paulo</title>
</circle><line x1="1297.959961" y1="164.959991" x2="1577.959961" y2="473.959991" stroke="red" stroke-width="6.660000" />
<circle cx="1932.959961" cy="1350.959961" r="19.980000" fill="red">
  <title>Cairo</title>
</circle><line x1="1577.959961" y1="473.959991" x2="1932.959961" y2="1350.959961" stroke="red" stroke-width="6.660000" />
<circle cx="1023.960022" cy="1986.959961" r="19.980000" fill="red">
  <title>Beijing</title>
</circle><line x1="1932.959961" y1="1350.959961" x2="1023.960022" y2="1986.959961" stroke="red" stroke-width="6.660000" />
<circle cx="1023.960022" cy="1724.959961" r="19.980000" fill="red">
  <title>Mexico City</title>
</circle><line x1="1023.960022" y1="1986.959961" x2="1023.960022" y2="1724.959961" stroke="red" stroke-width="6.660000" />
<circle cx="381.959991" cy="1167.959961" r="19.980000" fill="red">
  <title>Mumbai</title>
</circle><line x1="1023.960022" y1="1724.959961" x2="381.959991" y2="1167.959961" stroke="red" stroke-width="6.660000" />
<circle cx="1011.960022" cy="1188.959961" r="19.980000" fill="red">
  <title>Shanghai</title>
</circle><line x1="381.959991" y1="1167.959961" x2="1011.960022" y2="1188.959961" stroke="red" stroke-width="6.660000" />
</svg>
