<?xml version="1.0" encoding="UTF-8" standalone="no"?>
<svg width="500" height="500" viewBox="0 0 2074.000000 2074.000000" xmlns="http://www.w3.org/2000/svg">
<rect x="19.000000" y="19.000000" width="2036.000000" height="2036.000000" fill="black" />
<circle cx="612.960022" cy="376.959991" r="19.980000" fill="red">
  <title>Tokyo</title>
</circle><line x1="123.959999" y1="67.959999" x2="612.960022" y2="376.959991" stroke="red" stroke-width="6.660000" />
<circle cx="1250.959961" cy="368.959991" r="19.980000" fill="red">
  <title>Delhi</title>
</circle><line x1="612.960022" y1="376.959991" x2="1250.959961" y2="368.959991" stroke="red" stroke-width="6.660000" />
<circle cx="1752.959961" cy="102.959999" r="19.980000" fill="red">
  <title>Mumbai</title>
</circle><line x1="1250.959961" y1="368.959991" x2="1752.959961" y2="102.959999" stroke="red" stroke-width="6.660000" />
<circle cx="1284.959961" cy="391.959991" r="19.980000" fill="red">
  <title>Beijing</title>
</circle><line x1="1752.959961" y1="102.959999" x2="1284.959961" y2="391.959991" stroke="red" stroke-width="6.660000" />
<circle cx="1211.959961" cy="551.960022" r="19.980000" fill="red">
  <title>Osaka</title>
</circle><line x1="1284.959961" y1="391.959991" x2="1211.959961" y2="551.960022" stroke="red" stroke-width="6.660000" />
<circle cx="1331.959961" cy="1105.959961" r="19.980000" fill="red">
  <title>Cairo</title>
</circle><line x1="1211.959961" y1="551.960022" x2="1331.959961" y2="1105.959961" stroke="red" stroke-width="6.660000" />
<circle cx="1064.959961" cy="1242.959961" r="19.980000" fill="red">
  <title>Dhaka</title>
</circle><line x1="1331.959961" y1="1105.959961" x2="1064.959961" y2="1242.959961" stroke="red" stroke-width="6.660000" />
<circle cx="400.959991" cy="1693.959961" r="19.980000" fill="red">
  <title>New York</title>
</circle><line x1="1064.959961" y1="1242.959961" x2="400.959991" y2="1693.959961" stroke="red" stroke-width="6.660000" />
<circle cx="698.960022" cy="854.960022" r="19.980000" fill="red">
  <title>Shanghai</title>
</circle><line x1="400.959991" y1="1693.959961" x2="698.960022" y2="854.960022" stroke="red" stroke-width="6.660000" />
<circle cx="287.959991" cy="765.960022" r="19.980000" fill="red">
  <title>Mexico City</title>
</circle><line x1="698.960022" y1="854.960022" x2="287.959991" y2="765.960022" stroke="red" stroke-width="6.660000" />
<circle cx="123.959999" cy="67.959999" r="19.980000" fill="red">
  <title>São Paulo</title>
</circle><line x1="287.959991" y1="765.960022" x2="123.959999" y2="67.959999" stroke="red" stroke-width="6.660000" />
</svg>
