<?xml version="1.0" encoding="UTF-8" standalone="no"?>
<svg width="500" height="500" viewBox="0 0 2074.000000 2074.000000" xmlns="http://www.w3.org/2000/svg">
<rect x="19.000000" y="19.000000" width="2036.000000" height="2036.000000" fill="black" />
<circle cx="1686.959961" cy="1720.959961" r="19.980000" fill="red">
  <title>Tokyo</title>
</circle><line x1="315.959991" y1="1140.959961" x2="1686.959961" y2="1720.959961" stroke="red" stroke-width="6.660000" />
<circle cx="1616.959961" cy="1893.959961" r="19.980000" fill="red">
  <title>Delhi</title>
</circle><line x1="1686.959961" y1="1720.959961" x2="1616.959961" y2="1893.959961" stroke="red" stroke-width="6.660000" />
<circle cx="1061.959961" cy="1587.959961" r="19.980000" fill="red">
  <title>Mexico City</title>
</circle><line x1="1616.959961" y1="1893.959961" x2="1061.959961" y2="1587.959961" stroke="red" stroke-width="6.660000" />
<circle cx="250.959991" cy="473.959991" r="19.980000" fill="red">
  <title>São Paulo</title>
</circle><line x1="1061.959961" y1="1587.959961" x2="250.959991" y2="473.959991" stroke="red" stroke-width="6.660000" />
<circle cx="315.959991" cy="1140.959961" r="19.980000" fill="red">
  <title>Shanghai</title>
</circle><line x1="250.959991" y1="473.959991" x2="315.959991" y2="1140.959961" stroke="red" stroke-width="6.660000" />
</svg>
