<?xml version="1.0" encoding="UTF-8" standalone="no"?>
<svg width="500" height="500" viewBox="0 0 2074.000000 2074.000000" xmlns="http://www.w3.org/2000/svg">
<rect x="19.000000" y="19.000000" width="2036.000000" height="2036.000000" fill="black" />
<circle cx="754.960022" cy="436.959991" r="19.980000" fill="red">
  <title>Tokyo</title>
</circle><line x1="802.960022" y1="458.959991" x2="754.960022" y2="436.959991" stroke="red" stroke-width="6.660000" />
<circle cx="548.960022" cy="364.959991" r="19.980000" fill="red">
  <title>Buenos Aires</title>
</circle><line x1="754.960022" y1="436.959991" x2="548.960022" y2="364.959991" stroke="red" stroke-width="6.660000" />
<circle cx="681.960022" cy="520.960022" r="19.980000" fill="red">
  <title>Mexico City</title>
</circle><line x1="548.960022" y1="364.959991" x2="681.960022" y2="520.960022" stroke="red" stroke-width="6.660000" />
<circle cx="717.960022" cy="549.960022" r="19.980000" fill="red">
  <title>New York</title>
</circle><line x1="681.960022" y1="520.960022" x2="717.960022" y2="549.960022" stroke="red" stroke-width="6.660000" />
<circle cx="654.960022" cy="825.960022" r="19.980000" fill="red">
  <title>Karachi</title>
</circle><line x1="717.960022" y1="549.960022" x2="654.960022" y2="825.960022" stroke="red" stroke-width="6.660000" />
<circle cx="94.959999" cy="1233.959961" r="19.980000" fill="red">
  <title>Chongqing</title>
</circle><line x1="654.960022" y1="825.960022" x2="94.959999" y2="1233.959961" stroke="red" stroke-width="6.660000" />
<circle cx="406.959991" cy="1329.959961" r="19.980000" fill="red">
  <title>São Paulo</title>
</circle><line x1="94.959999" y1="1233.959961" x2="406.959991" y2="1329.959961" stroke="red" stroke-width="6.660000" />
<circle cx="872.960022" cy="1468.959961" r="19.980000" fill="red">
  <title>Delhi</title>
</circle><line x1="406.959991" y1="1329.959961" x2="872.960022" y2="1468.959961" stroke="red" stroke-width="6.660000" />
<circle cx="912.960022" cy="1532.959961" r="19.980000" fill="red">
  <title>Cairo</title>
</circle><line x1="872.960022" y1="1468.959961" x2="912.960022" y2="1532.959961" stroke="red" stroke-width="6.660000" />
<circle cx="1070.959961" cy="1635.959961" r="19.980000" fill="red">
  <title>Manila</title>
</circle><line x1="912.960022" y1="1532.959961" x2="1070.959961" y2="1635.959961" stroke="red" stroke-width="6.660000" />
<circle cx="1071.959961" cy="1680.959961" r="19.980000" fill="red">
  <title>Mumbai</title>
</circle><line x1="1070.959961" y1="1635.959961" x2="1071.959961" y2="1680.959961" stroke="red" stroke-width="6.660000" />
<circle cx="1231.959961" cy="1716.959961" r="19.980000" fill="red">
  <title>Beijing</title>
</circle><line x1="1071.959961" y1="1680.959961" x2="1231.959961" y2="1716.959961" stroke="red" stroke-width="6.660000" />
<circle cx="1363.959961" cy="1401.959961" r="19.980000" fill="red">
  <title>Shanghai</title>
</circle><line x1="1231.959961" y1="1716.959961" x2="1363.959961" y2="1401.959961" stroke="red" stroke-width="6.660000" />
<circle cx="1416.959961" cy="1161.959961" r="19.980000" fill="red">
  <title>Dhaka</title>
</circle><line x1="1363.959961" y1="1401.959961" x2="1416.959961" y2="1161.959961" stroke="red" stroke-width="6.660000" />
<circle cx="1741.959961" cy="673.960022" r="19.980000" fill="red">
  <title>Istanbul</title>
</circle><line x1="1416.959961" y1="1161.959961" x2="1741.959961" y2="673.960022" stroke="red" stroke-width="6.660000" />
<circle cx="831.960022" cy="712.960022" r="19.980000" fill="red">
  <title>Osaka</title>
</circle><line x1="1741.959961" y1="673.960022" x2="831.960022" y2="712.960022" stroke="red" stroke-width="6.660000" />
<circle cx="802.960022" cy="458.959991" r="19.980000" fill="red">
  <title>Kolkata</title>
</circle><line x1="831.960022" y1="712.960022" x2="802.960022" y2="458.959991" stroke="red" stroke-width="6.660000" />
</svg>
