<?xml version="1.0" encoding="UTF-8" standalone="no"?>
<svg width="500" height="500" viewBox="0 0 2074.000000 2074.000000" xmlns="http://www.w3.org/2000/svg">
<rect x="19.000000" y="19.000000" width="2036.000000" height="2036.000000" fill="black" />
<circle cx="1942.959961" cy="941.960022" r="19.980000" fill="red">
  <title>Tokyo</title>
</circle><line x1="1457.959961" y1="249.959991" x2="1942.959961" y2="941.960022" stroke="red" stroke-width="6.660000" />
<circle cx="2010.959961" cy="1013.960022" r="19.980000" fill="red">
  <title>Mumbai</title>
</circle><line x1="1942.959961" y1="941.960022" x2="2010.959961" y2="1013.960022" stroke="red" stroke-width="6.660000" />
<circle cx="1571.959961" cy="1497.959961" r="19.980000" fill="red">
  <title>Delhi</title>
</circle><line x1="2010.959961" y1="1013.960022" x2="1571.959961" y2="1497.959961" stroke="red" stroke-width="6.660000" />
<circle cx="1351.959961" cy="1991.959961" r="19.980000" fill="red">
  <title>Cairo</title>
</circle><line x1="1571.959961" y1="1497.959961" x2="1351.959961" y2="1991.959961" stroke="red" stroke-width="6.660000" />
<circle cx="1145.959961" cy="2011.959961" r="19.980000" fill="red">
  <title>Beijing</title>
</circle><line x1="1351.959961" y1="1991.959961" x2="1145.959961" y2="2011.959961" stroke="red" stroke-width="6.660000" />
<circle cx="107.959999" cy="1564.959961" r="19.980000" fill="red">
  <title>Chongqing</title>
</circle><line x1="1145.959961" y1="2011.959961" x2="107.959999" y2="1564.959961" stroke="red" stroke-width="6.660000" />
<circle cx="343.959991" cy="1006.960022" r="19.980000" fill="red">
  <title>Osaka</title>
</circle><line x1="107.959999" y1="1564.959961" x2="343.959991" y2="1006.960022" stroke="red" stroke-width="6.660000" />
<circle cx="164.959991" cy="244.959991" r="19.980000" fill="red">
  <title>New York</title>
</circle><line x1="343.959991" y1="1006.960022" x2="164.959991" y2="244.959991" stroke="red" stroke-width="6.660000" />
<circle cx="1059.959961" cy="557.960022" r="19.980000" fill="red">
  <title>Shanghai</title>
</circle><line x1="164.959991" y1="244.959991" x2="1059.959961" y2="557.960022" stroke="red" stroke-width="6.660000" />
<circle cx="1111.959961" cy="731.960022" r="19.980000" fill="red">
  <title>Dhaka</title>
</circle><line x1="1059.959961" y1="557.960022" x2="1111.959961" y2="731.960022" stroke="red" stroke-width="6.660000" />
<circle cx="1196.959961" cy="960.960022" r="19.980000" fill="red">
  <title>São Paulo</title>
</circle><line x1="1111.959961" y1="731.960022" x2="1196.959961" y2="960.960022" stroke="red" stroke-width="6.660000" />
<circle cx="1200.959961" cy="976.960022" r="19.980000" fill="red">
  <title>Karachi</title>
</circle><line x1="1196.959961" y1="960.960022" x2="1200.959961" y2="976.960022" stroke="red" stroke-width="6.660000" />
<circle cx="1280.959961" cy="754.960022" r="19.980000" fill="red">
  <title>Mexico City</title>
</circle><line x1="1200.959961" y1="976.960022" x2="1280.959961" y2="754.960022" stroke="red" stroke-width="6.660000" />
<circle cx="1457.959961" cy="249.959991" r="19.980000" fill="red">
  <title>Buenos Aires</title>
</circle><line x1="1280.959961" y1="754.960022" x2="1457.959961" y2="249.959991" stroke="red" stroke-width="6.660000" />
</svg>
