<?xml version="1.0" encoding="UTF-8" standalone="no"?>
<svg width="500" height="500" viewBox="0 0 2074.000000 2074.000000" xmlns="http://www.w3.org/2000/svg">
<rect x="19.000000" y="19.000000" width="2036.000000" height="2036.000000" fill="black" />
<circle cx="1007.960022" cy="1856.959961" r="19.980000" fill="red">
  <title>Tokyo</title>
</circle><line x1="94.959999" y1="1853.959961" x2="1007.960022" y2="1856.959961" stroke="red" stroke-width="6.660000" />
<circle cx="1297.959961" cy="1430.959961" r="19.980000" fill="red">
  <title>Beijing</title>
</circle><line x1="1007.960022" y1="1856.959961" x2="1297.959961" y2="1430.959961" stroke="red" stroke-width="6.660000" />
<circle cx="1301.959961" cy="957.960022" r="19.980000" fill="red">
  <title>São Paulo</title>
</circle><line x1="1297.959961" y1="1430.959961" x2="1301.959961" y2="957.960022" stroke="red" stroke-width="6.660000" />
<circle cx="740.960022" cy="525.960022" r="19.980000" fill="red">
  <title>Cairo</title>
</circle><line x1="1301.959961" y1="957.960022" x2="740.960022" y2="525.960022" stroke="red" stroke-width="6.660000" />
<circle cx="597.960022" cy="669.960022" r="19.980000" fill="red">
  <title>Delhi</title>
</circle><line x1="740.960022" y1="525.960022" x2="597.960022" y2="669.960022" stroke="red" stroke-width="6.660000" />
<circle cx="71.959999" cy="517.960022" r="19.980000" fill="red">
  <title>Mexico City</title>
</circle><line x1="597.960022" y1="669.960022" x2="71.959999" y2="517.960022" stroke="red" stroke-width="6.660000" />
<circle cx="59.959999" cy="1869.959961" r="19.980000" fill="red">
  <title>Shanghai</title>
</circle><line x1="71.959999" y1="517.960022" x2="59.959999" y2="1869.959961" stroke="red" stroke-width="6.660000" />
<circle cx="94.959999" cy="1853.959961" r="19.980000" fill="red">
  <title>Mumbai</title>
</circle><line x1="59.959999" y1="1869.959961" x2="94.959999" y2="1853.959961" stroke="red" stroke-width="6.660000" />
</svg>
