<?xml version="1.0" encoding="UTF-8" standalone="no"?>
<svg width="500" height="500" viewBox="0 0 2074.000000 2074.000000" xmlns="http://www.w3.org/2000/svg">
<rect x="19.000000" y="19.000000" width="2036.000000" height="2036.000000" fill="black" />
<circle cx="705.960022" cy="1377.959961" r="19.980000" fill="red">
  <title>Tokyo</title>
</circle><line x1="429.959991" y1="1643.959961" x2="705.960022" y2="1377.959961" stroke="red" stroke-width="6.660000" />
<circle cx="350.959991" cy="754.960022" r="19.980000" fill="red">
  <title>Shanghai</title>
</circle><line x1="705.960022" y1="1377.959961" x2="350.959991" y2="754.960022" stroke="red" stroke-width="6.660000" />
<circle cx="1349.959961" cy="977.960022" r="19.980000" fill="red">
  <title>Delhi</title>
</circle><line x1="350.959991" y1="754.960022" x2="1349.959961" y2="977.960022" stroke="red" stroke-width="6.660000" />
<circle cx="1694.959961" cy="215.959991" r="19.980000" fill="red">
  <title>Mexico City</title>
</circle><line x1="1349.959961" y1="977.960022" x2="1694.959961" y2="215.959991" stroke="red" stroke-width="6.660000" />
<circle cx="1989.959961" cy="1369.959961" r="19.980000" fill="red">
  <title>Mumbai</title>
</circle><line x1="1694.959961" y1="215.959991" x2="1989.959961" y2="1369.959961" stroke="red" stroke-width="6.660000" />
<circle cx="1094.959961" cy="1967.959961" r="19.980000" fill="red">
  <title>São Paulo</title>
</circle><line x1="1989.959961" y1="1369.959961" x2="1094.959961" y2="1967.959961" stroke="red" stroke-width="6.660000" />
<circle cx="429.959991" cy="1643.959961" r="19.980000" fill="red">
  <title>Cairo</title>
</circle><line x1="1094.959961" y1="1967.959961" x2="429.959991" y2="1643.959961" stroke="red" stroke-width="6.660000" />
</svg>
