<?xml version="1.0" encoding="UTF-8" standalone="no"?>
<svg width="500" height="500" viewBox="0 0 2074.000000 2074.000000" xmlns="http://www.w3.org/2000/svg">
<rect x="19.000000" y="19.000000" width="2036.000000" height="2036.000000" fill="black" />
<circle cx="404.959991" cy="857.960022" r="19.980000" fill="red">
  <title>Tokyo</title>
</circle><line x1="562.960022" y1="989.960022" x2="404.959991" y2="857.960022" stroke="red" stroke-width="6.660000" />
<circle cx="332.959991" cy="423.959991" r="19.980000" fill="red">
  <title>Mexico City</title>
</circle><line x1="404.959991" y1="857.960022" x2="332.959991" y2="423.959991" stroke="red" stroke-width="6.660000" />
<circle cx="345.959991" cy="282.959991" r="19.980000" fill="red">
  <title>Dhaka</title>
</circle><line x1="332.959991" y1="423.959991" x2="345.959991" y2="282.959991" stroke="red" stroke-width="6.660000" />
<circle cx="446.959991" cy="611.960022" r="19.980000" fill="red">
  <title>Lagos</title>
</circle><line x1="345.959991" y1="282.959991" x2="446.959991" y2="611.960022" stroke="red" stroke-width="6.660000" />
<circle cx="1505.959961" cy="494.959991" r="19.980000" fill="red">
  <title>Chongqing</title>
</circle><line x1="446.959991" y1="611.960022" x2="1505.959961" y2="494.959991" stroke="red" stroke-width="6.660000" />
<circle cx="1891.959961" cy="247.959991" r="19.980000" fill="red">
  <title>Osaka</title>
</circle><line x1="1505.959961" y1="494.959991" x2="1891.959961" y2="247.959991" stroke="red" stroke-width="6.660000" />
<circle cx="1978.959961" cy="246.959991" r="19.980000" fill="red">
  <title>Shanghai</title>
</circle><line x1="1891.959961" y1="247.959991" x2="1978.959961" y2="246.959991" stroke="red" stroke-width="6.660000" />
<circle cx="1866.959961" cy="456.959991" r="19.980000" fill="red">
  <title>Rio de Janeiro</title>
</circle><line x1="1978.959961" y1="246.959991" x2="1866.959961" y2="456.959991" stroke="red" stroke-width="6.660000" />
<circle cx="1347.959961" cy="1015.960022" r="19.980000" fill="red">
  <title>Delhi</title>
</circle><line x1="1866.959961" y1="456.959991" x2="1347.959961" y2="1015.960022" stroke="red" stroke-width="6.660000" />
<circle cx="1507.959961" cy="1535.959961" r="19.980000" fill="red">
  <title>Buenos Aires</title>
</circle><line x1="1347.959961" y1="1015.960022" x2="1507.959961" y2="1535.959961" stroke="red" stroke-width="6.660000" />
<circle cx="1376.959961" cy="1830.959961" r="19.980000" fill="red">
  <title>Mumbai</title>
</circle><line x1="1507.959961" y1="1535.959961" x2="1376.959961" y2="1830.959961" stroke="red" stroke-width="6.660000" />
<circle cx="1103.959961" cy="1852.959961" r="19.980000" fill="red">
  <title>Istanbul</title>
</circle><line x1="1376.959961" y1="1830.959961" x2="1103.959961" y2="1852.959961" stroke="red" stroke-width="6.660000" />
<circle cx="671.960022" cy="1659.959961" r="19.980000" fill="red">
  <title>Manila</title>
</circle><line x1="1103.959961" y1="1852.959961" x2="671.960022" y2="1659.959961" stroke="red" stroke-width="6.660000" />
<circle cx="396.959991" cy="1667.959961" r="19.980000" fill="red">
  <title>Cairo</title>
</circle><line x1="671.960022" y1="1659.959961" x2="396.959991" y2="1667.959961" stroke="red" stroke-width="6.660000" />
<circle cx="81.959999" cy="1961.959961" r="19.980000" fill="red">
  <title>Beijing</title>
</circle><line x1="396.959991" y1="1667.959961" x2="81.959999" y2="1961.959961" stroke="red" stroke-width="6.660000" />
<circle cx="350.959991" cy="1469.959961" r="19.980000" fill="red">
  <title>Kolkata</title>
</circle><line x1="81.959999" y1="1961.959961" x2="350.959991" y2="1469.959961" stroke="red" stroke-width="6.660000" />
<circle cx="49.959999" cy="1260.959961" r="19.980000" fill="red">
  <title>São Paulo</title>
</circle><line x1="350.959991" y1="1469.959961" x2="49.959999" y2="1260.959961" stroke="red" stroke-width="6.660000" />
<circle cx="239.959991" cy="1038.959961" r="19.980000" fill="red">
  <title>New York</title>
</circle><line x1="49.959999" y1="1260.959961" x2="239.959991" y2="1038.959961" stroke="red" stroke-width="6.660000" />
<circle cx="562.960022" cy="989.960022" r="19.980000" fill="red">
  <title>Karachi</title>
</circle><line x1="239.959991" y1="1038.959961" x2="562.960022" y2="989.960022" stroke="red" stroke-width="6.660000" />
</svg>
