<?xml version="1.0" encoding="UTF-8" standalone="no"?>
<svg width="500" height="500" viewBox="0 0 2074.000000 2074.000000" xmlns="http://www.w3.org/2000/svg">
<rect x="19.000000" y="19.000000" width="2036.000000" height="2036.000000" fill="black" />
<circle cx="209.959991" cy="1231.959961" r="19.980000" fill="red">
  <title>Tokyo</title>
</circle><line x1="552.960022" y1="1421.959961" x2="209.959991" y2="1231.959961" stroke="red" stroke-width="6.660000" />
<circle cx="417.959991" cy="1065.959961" r="19.980000" fill="red">
  <title>Dhaka</title>
</circle><line x1="209.959991" y1="1231.959961" x2="417.959991" y2="1065.959961" stroke="red" stroke-width="6.660000" />
<circle cx="184.959991" cy="663.960022" r="19.980000" fill="red">
  <title>Delhi</title>
</circle><line x1="417.959991" y1="1065.959961" x2="184.959991" y2="663.960022" stroke="red" stroke-width="6.660000" />
<circle cx="357.959991" cy="259.959991" r="19.980000" fill="red">
  <title>Karachi</title>
</circle><line x1="184.959991" y1="663.960022" x2="357.959991" y2="259.959991" stroke="red" stroke-width="6.660000" />
<circle cx="551.960022" cy="42.959999" r="19.980000" fill="red">
  <title>Istanbul</title>
</circle><line x1="357.959991" y1="259.959991" x2="551.960022" y2="42.959999" stroke="red" stroke-width="6.660000" />
<circle cx="889.960022" cy="182.959991" r="19.980000" fill="red">
  <title>Mexico City</title>
</circle><line x1="551.960022" y1="42.959999" x2="889.960022" y2="182.959991" stroke="red" stroke-width="6.660000" />
<circle cx="1052.959961" cy="722.960022" r="19.980000" fill="red">
  <title>Kolkata</title>
</circle><line x1="889.960022" y1="182.959991" x2="1052.959961" y2="722.960022" stroke="red" stroke-width="6.660000" />
<circle cx="1594.959961" cy="657.960022" r="19.980000" fill="red">
  <title>Cairo</title>
</circle><line x1="1052.959961" y1="722.960022" x2="1594.959961" y2="657.960022" stroke="red" stroke-width="6.660000" />
<circle cx="1876.959961" cy="566.960022" r="19.980000" fill="red">
  <title>Osaka</title>
</circle><line x1="1594.959961" y1="657.960022" x2="1876.959961" y2="566.960022" stroke="red" stroke-width="6.660000" />
<circle cx="2033.959961" cy="1061.959961" r="19.980000" fill="red">
  <title>Beijing</title>
</circle><line x1="1876.959961" y1="566.960022" x2="2033.959961" y2="1061.959961" stroke="red" stroke-width="6.660000" />
<circle cx="1931.959961" cy="1861.959961" r="19.980000" fill="red">
  <title>Shanghai</title>
</circle><line x1="2033.959961" y1="1061.959961" x2="1931.959961" y2="1861.959961" stroke="red" stroke-width="6.660000" />
<circle cx="1959.959961" cy="2026.959961" r="19.980000" fill="red">
  <title>Mumbai</title>
</circle><line x1="1931.959961" y1="1861.959961" x2="1959.959961" y2="2026.959961" stroke="red" stroke-width="6.660000" />
<circle cx="1695.959961" cy="1211.959961" r="19.980000" fill="red">
  <title>Buenos Aires</title>
</circle><line x1="1959.959961" y1="2026.959961" x2="1695.959961" y2="1211.959961" stroke="red" stroke-width="6.660000" />
<circle cx="1716.959961" cy="1080.959961" r="19.980000" fill="red">
  <title>São Paulo</title>
</circle><line x1="1695.959961" y1="1211.959961" x2="1716.959961" y2="1080.959961" stroke="red" stroke-width="6.660000" />
<circle cx="1235.959961" cy="1197.959961" r="19.980000" fill="red">
  <title>Manila</title>
</circle><line x1="1716.959961" y1="1080.959961" x2="1235.959961" y2="1197.959961" stroke="red" stroke-width="6.660000" />
<circle cx="627.960022" cy="1945.959961" r="19.980000" fill="red">
  <title>New York</title>
</circle><line x1="1235.959961" y1="1197.959961" x2="627.960022" y2="1945.959961" stroke="red" stroke-width="6.660000" />
<circle cx="552.960022" cy="1421.959961" r="19.980000" fill="red">
  <title>Chongqing</title>
</circle><line x1="627.960022" y1="1945.959961" x2="552.960022" y2="1421.959961" stroke="red" stroke-width="6.660000" />
</svg>
