<?xml version="1.0" encoding="UTF-8" standalone="no"?>
<svg width="500" height="500" viewBox="0 0 2074.000000 2074.000000" xmlns="http://www.w3.org/2000/svg">
<rect x="19.000000" y="19.000000" width="2036.000000" height="2036.000000" fill="black" />
<circle cx="1011.960022" cy="1668.959961" r="19.980000" fill="red">
  <title>Tokyo</title>
</circle><line x1="340.959991" y1="1826.959961" x2="1011.960022" y2="1668.959961" stroke="red" stroke-width="6.660000" />
<circle cx="1818.959961" cy="698.960022" r="19.980000" fill="red">
  <title>Shanghai</title>
</circle><line x1="1011.960022" y1="1668.959961" x2="1818.959961" y2="698.960022" stroke="red" stroke-width="6.660000" />
<circle cx="854.960022" cy="1437.959961" r="19.980000" fill="red">
  <title>Mexico City</title>
</circle><line x1="1818.959961" y1="698.960022" x2="854.960022" y2="1437.959961" stroke="red" stroke-width="6.660000" />
<circle cx="518.960022" cy="1077.959961" r="19.980000" fill="red">
  <title>São Paulo</title>
</circle><line x1="854.960022" y1="1437.959961" x2="518.960022" y2="1077.959961" stroke="red" stroke-width="6.660000" />
<circle cx="354.959991" cy="1134.959961" r="19.980000" fill="red">
  <title>Delhi</title>
</circle><line x1="518.960022" y1="1077.959961" x2="354.959991" y2="1134.959961" stroke="red" stroke-width="6.660000" />
<circle cx="340.959991" cy="1826.959961" r="19.980000" fill="red">
  <title>Cairo</title>
</circle><line x1="354.959991" y1="1134.959961" x2="340.959991" y2="1826.959961" stroke="red" stroke-width="6.660000" />
</svg>
