<?xml version="1.0" encoding="UTF-8" standalone="no"?>
<svg width="500" height="500" viewBox="0 0 2074.000000 2074.000000" xmlns="http://www.w3.org/2000/svg">
<rect x="19.000000" y="19.000000" width="2036.000000" height="2036.000000" fill="black" />
<circle cx="514.960022" cy="1778.959961" r="19.980000" fill="red">
  <title>Tokyo</title>
</circle><line x1="302.959991" y1="1698.959961" x2="514.960022" y2="1778.959961" stroke="red" stroke-width="6.660000" />
<circle cx="743.960022" cy="1815.959961" r="19.980000" fill="red">
  <title>Beijing</title>
</circle><line x1="514.960022" y1="1778.959961" x2="743.960022" y2="1815.959961" stroke="red" stroke-width="6.660000" />
<circle cx="967.960022" cy="1445.959961" r="19.980000" fill="red">
  <title>Cairo</title>
</circle><line x1="743.960022" y1="1815.959961" x2="967.960022" y2="1445.959961" stroke="red" stroke-width="6.660000" />
<circle cx="1550.959961" cy="1955.959961" r="19.980000" fill="red">
  <title>Mumbai</title>
</circle><line x1="967.960022" y1="1445.959961" x2="1550.959961" y2="1955.959961" stroke="red" stroke-width="6.660000" />
<circle cx="1747.959961" cy="1654.959961" r="19.980000" fill="red">
  <title>Chongqing</title>
</circle><line x1="1550.959961" y1="1955.959961" x2="1747.959961" y2="1654.959961" stroke="red" stroke-width="6.660000" />
<circle cx="1761.959961" cy="1448.959961" r="19.980000" fill="red">
  <title>Tianjin</title>
</circle><line x1="1747.959961" y1="1654.959961" x2="1761.959961" y2="1448.959961" stroke="red" stroke-width="6.660000" />
<circle cx="1411.959961" cy="1203.959961" r="19.980000" fill="red">
  <title>São Paulo</title>
</circle><line x1="1761.959961" y1="1448.959961" x2="1411.959961" y2="1203.959961" stroke="red" stroke-width="6.660000" />
<circle cx="1513.959961" cy="978.960022" r="19.980000" fill="red">
  <title>Mexico City</title>
</circle><line x1="1411.959961" y1="1203.959961" x2="1513.959961" y2="978.960022" stroke="red" stroke-width="6.660000" />
<circle cx="1973.959961" cy="878.960022" r="19.980000" fill="red">
  <title>Rio de Janeiro</title>
</circle><line x1="1513.959961" y1="978.960022" x2="1973.959961" y2="878.960022" stroke="red" stroke-width="6.660000" />
<circle cx="1633.959961" cy="676.960022" r="19.980000" fill="red">
  <title>Kolkata</title>
</circle><line x1="1973.959961" y1="878.960022" x2="1633.959961" y2="676.960022" stroke="red" stroke-width="6.660000" />
<circle cx="1504.959961" cy="597.960022" r="19.980000" fill="red">
  <title>Lagos</title>
</circle><line x1="1633.959961" y1="676.960022" x2="1504.959961" y2="597.960022" stroke="red" stroke-width="6.660000" />
<circle cx="1417.959961" cy="476.959991" r="19.980000" fill="red">
  <title>Dhaka</title>
</circle><line x1="1504.959961" y1="597.960022" x2="1417.959961" y2="476.959991" stroke="red" stroke-width="6.660000" />
<circle cx="921.960022" cy="721.960022" r="19.980000" fill="red">
  <title>Buenos Aires</title>
</circle><line x1="1417.959961" y1="476.959991" x2="921.960022" y2="721.960022" stroke="red" stroke-width="6.660000" />
<circle cx="375.959991" cy="341.959991" r="19.980000" fill="red">
  <title>Shanghai</title>
</circle><line x1="921.960022" y1="721.960022" x2="375.959991" y2="341.959991" stroke="red" stroke-width="6.660000" />
<circle cx="272.959991" cy="499.959991" r="19.980000" fill="red">
  <title>Osaka</title>
</circle><line x1="375.959991" y1="341.959991" x2="272.959991" y2="499.959991" stroke="red" stroke-width="6.660000" />
<circle cx="201.959991" cy="519.960022" r="19.980000" fill="red">
  <title>Istanbul</title>
</circle><line x1="272.959991" y1="499.959991" x2="201.959991" y2="519.960022" stroke="red" stroke-width="6.660000" />
<circle cx="77.959999" cy="866.960022" r="19.980000" fill="red">
  <title>Delhi</title>
</circle><line x1="201.959991" y1="519.960022" x2="77.959999" y2="866.960022" stroke="red" stroke-width="6.660000" />
<circle cx="255.959991" cy="1311.959961" r="19.980000" fill="red">
  <title>New York</title>
</circle><line x1="77.959999" y1="866.960022" x2="255.959991" y2="1311.959961" stroke="red" stroke-width="6.660000" />
<circle cx="260.959991" cy="1671.959961" r="19.980000" fill="red">
  <title>Manila</title>
</circle><line x1="255.959991" y1="1311.959961" x2="260.959991" y2="1671.959961" stroke="red" stroke-width="6.660000" />
<circle cx="302.959991" cy="1698.959961" r="19.980000" fill="red">
  <title>Karachi</title>
</circle><line x1="260.959991" y1="1671.959961" x2="302.959991" y2="1698.959961" stroke="red" stroke-width="6.660000" />
</svg>
