<?xml version="1.0" encoding="UTF-8" standalone="no"?>
<svg width="500" height="500" viewBox="0 0 2074.000000 2074.000000" xmlns="http://www.w3.org/2000/svg">
<rect x="19.000000" y="19.000000" width="2036.000000" height="2036.000000" fill="black" />
<circle cx="1805.959961" cy="1558.959961" r="19.980000" fill="red">
  <title>Tokyo</title>
</circle><line x1="1169.959961" y1="1216.959961" x2="1805.959961" y2="1558.959961" stroke="red" stroke-width="6.660000" />
<circle cx="1337.959961" cy="1834.959961" r="19.980000" fill="red">
  <title>Shanghai</title>
</circle><line x1="1805.959961" y1="1558.959961" x2="1337.959961" y2="1834.959961" stroke="red" stroke-width="6.660000" />
<circle cx="774.960022" cy="1633.959961" r="19.980000" fill="red">
  <title>Cairo</title>
</circle><line x1="1337.959961" y1="1834.959961" x2="774.960022" y2="1633.959961" stroke="red" stroke-width="6.660000" />
<circle cx="711.960022" cy="1656.959961" r="19.980000" fill="red">
  <title>Beijing</title>
</circle><line x1="774.960022" y1="1633.959961" x2="711.960022" y2="1656.959961" stroke="red" stroke-width="6.660000" />
<circle cx="635.960022" cy="1719.959961" r="19.980000" fill="red">
  <title>São Paulo</title>
</circle><line x1="711.960022" y1="1656.959961" x2="635.960022" y2="1719.959961" stroke="red" stroke-width="6.660000" />
<circle cx="636.960022" cy="1596.959961" r="19.980000" fill="red">
  <title>Karachi</title>
</circle><line x1="635.960022" y1="1719.959961" x2="636.960022" y2="1596.959961" stroke="red" stroke-width="6.660000" />
<circle cx="422.959991" cy="1188.959961" r="19.980000" fill="red">
  <title>Dhaka</title>
</circle><line x1="636.960022" y1="1596.959961" x2="422.959991" y2="1188.959961" stroke="red" stroke-width="6.660000" />
<circle cx="51.959999" cy="1053.959961" r="19.980000" fill="red">
  <title>Mexico City</title>
</circle><line x1="422.959991" y1="1188.959961" x2="51.959999" y2="1053.959961" stroke="red" stroke-width="6.660000" />
<circle cx="45.959999" cy="555.960022" r="19.980000" fill="red">
  <title>Delhi</title>
</circle><line x1="51.959999" y1="1053.959961" x2="45.959999" y2="555.960022" stroke="red" stroke-width="6.660000" />
<circle cx="279.959991" cy="481.959991" r="19.980000" fill="red">
  <title>Osaka</title>
</circle><line x1="45.959999" y1="555.960022" x2="279.959991" y2="481.959991" stroke="red" stroke-width="6.660000" />
<circle cx="1478.959961" cy="196.959991" r="19.980000" fill="red">
  <title>Mumbai</title>
</circle><line x1="279.959991" y1="481.959991" x2="1478.959961" y2="196.959991" stroke="red" stroke-width="6.660000" />
<circle cx="1169.959961" cy="1216.959961" r="19.980000" fill="red">
  <title>New York</title>
</circle><line x1="1478.959961" y1="196.959991" x2="1169.959961" y2="1216.959961" stroke="red" stroke-width="6.660000" />
</svg>
