<?xml version="1.0" encoding="UTF-8" standalone="no"?>
<svg width="500" height="500" viewBox="0 0 2074.000000 2074.000000" xmlns="http://www.w3.org/2000/svg">
<rect x="19.000000" y="19.000000" width="2036.000000" height="2036.000000" fill="black" />
<circle cx="1716.959961" cy="623.960022" r="19.980000" fill="red">
  <title>Tokyo</title>
</circle><line x1="1262.959961" y1="1725.959961" x2="1716.959961" y2="623.960022" stroke="red" stroke-width="6.660000" />
<circle cx="922.960022" cy="341.959991" r="19.980000" fill="red">
  <title>Delhi</title>
</circle><line x1="1716.959961" y1="623.960022" x2="922.960022" y2="341.959991" stroke="red" stroke-width="6.660000" />
<circle cx="880.960022" cy="1304.959961" r="19.980000" fill="red">
  <title>Shanghai</title>
</circle><line x1="922.960022" y1="341.959991" x2="880.960022" y2="1304.959961" stroke="red" stroke-width="6.660000" />
<circle cx="1075.959961" cy="2006.959961" r="19.980000" fill="red">
  <title>São Paulo</title>
</circle><line x1="880.960022" y1="1304.959961" x2="1075.959961" y2="2006.959961" stroke="red" stroke-width="6.660000" />
<circle cx="1262.959961" cy="1725.959961" r="19.980000" fill="red">
  <title>Mexico City</title>
</circle><line x1="1075.959961" y1="2006.959961" x2="1262.959961" y2="1725.959961" stroke="red" stroke-width="6.660000" />
</svg>
