<?xml version="1.0" encoding="UTF-8" standalone="no"?>
<svg width="500" height="500" viewBox="0 0 2074.000000 2074.000000" xmlns="http://www.w3.org/2000/svg">
<rect x="19.000000" y="19.000000" width="2036.000000" height="2036.000000" fill="black" />
<circle cx="634.960022" cy="592.960022" r="19.980000" fill="red">
  <title>Tokyo</title>
</circle><line x1="149.959991" y1="802.960022" x2="634.960022" y2="592.960022" stroke="red" stroke-width="6.660000" />
<circle cx="1184.959961" cy="90.959999" r="19.980000" fill="red">
  <title>Karachi</title>
</circle><line x1="634.960022" y1="592.960022" x2="1184.959961" y2="90.959999" stroke="red" stroke-width="6.660000" />
<circle cx="1455.959961" cy="660.960022" r="19.980000" fill="red">
  <title>Mexico City</title>
</circle><line x1="1184.959961" y1="90.959999" x2="1455.959961" y2="660.960022" stroke="red" stroke-width="6.660000" />
<circle cx="1791.959961" cy="438.959991" r="19.980000" fill="red">
  <title>Osaka</title>
</circle><line x1="1455.959961" y1="660.960022" x2="1791.959961" y2="438.959991" stroke="red" stroke-width="6.660000" />
<circle cx="1992.959961" cy="1008.960022" r="19.980000" fill="red">
  <title>Delhi</title>
</circle><line x1="1791.959961" y1="438.959991" x2="1992.959961" y2="1008.960022" stroke="red" stroke-width="6.660000" />
<circle cx="2017.959961" cy="1152.959961" r="19.980000" fill="red">
  <title>Shanghai</title>
</circle><line x1="1992.959961" y1="1008.960022" x2="2017.959961" y2="1152.959961" stroke="red" stroke-width="6.660000" />
<circle cx="2009.959961" cy="1366.959961" r="19.980000" fill="red">
  <title>Cairo</title>
</circle><line x1="2017.959961" y1="1152.959961" x2="2009.959961" y2="1366.959961" stroke="red" stroke-width="6.660000" />
<circle cx="1327.959961" cy="1719.959961" r="19.980000" fill="red">
  <title>Dhaka</title>
</circle><line x1="2009.959961" y1="1366.959961" x2="1327.959961" y2="1719.959961" stroke="red" stroke-width="6.660000" />
<circle cx="1293.959961" cy="1770.959961" r="19.980000" fill="red">
  <title>New York</title>
</circle><line x1="1327.959961" y1="1719.959961" x2="1293.959961" y2="1770.959961" stroke="red" stroke-width="6.660000" />
<circle cx="1038.959961" cy="1763.959961" r="19.980000" fill="red">
  <title>Mumbai</title>
</circle><line x1="1293.959961" y1="1770.959961" x2="1038.959961" y2="1763.959961" stroke="red" stroke-width="6.660000" />
<circle cx="434.959991" cy="1745.959961" r="19.980000" fill="red">
  <title>Beijing</title>
</circle><line x1="1038.959961" y1="1763.959961" x2="434.959991" y2="1745.959961" stroke="red" stroke-width="6.660000" />
<circle cx="456.959991" cy="1296.959961" r="19.980000" fill="red">
  <title>São Paulo</title>
</circle><line x1="434.959991" y1="1745.959961" x2="456.959991" y2="1296.959961" stroke="red" stroke-width="6.660000" />
<circle cx="269.959991" cy="990.960022" r="19.980000" fill="red">
  <title>Chongqing</title>
</circle><line x1="456.959991" y1="1296.959961" x2="269.959991" y2="990.960022" stroke="red" stroke-width="6.660000" />
<circle cx="149.959991" cy="802.960022" r="19.980000" fill="red">
  <title>Buenos Aires</title>
</circle><line x1="269.959991" y1="990.960022" x2="149.959991" y2="802.960022" stroke="red" stroke-width="6.660000" />
</svg>
