<?xml version="1.0" encoding="UTF-8" standalone="no"?>
<svg width="500" height="500" viewBox="0 0 2074.000000 2074.000000" xmlns="http://www.w3.org/2000/svg">
<rect x="19.000000" y="19.000000" width="2036.000000" height="2036.000000" fill="black" />
<circle cx="1868.959961" cy="437.959991" r="19.980000" fill="red">
  <title>Tokyo</title>
</circle><line x1="1860.959961" y1="1804.959961" x2="1868.959961" y2="437.959991" stroke="red" stroke-width="6.660000" />
<circle cx="1692.959961" cy="200.959991" r="19.980000" fill="red">
  <title>Shanghai</title>
</circle><line x1="1868.959961" y1="437.959991" x2="1692.959961" y2="200.959991" stroke="red" stroke-width="6.660000" />
<circle cx="528.960022" cy="1367.959961" r="19.980000" fill="red">
  <title>Delhi</title>
</circle><line x1="1692.959961" y1="200.959991" x2="528.960022" y2="1367.959961" stroke="red" stroke-width="6.660000" />
<circle cx="1860.959961" cy="1804.959961" r="19.980000" fill="red">
  <title>São Paulo</title>
</circle><line x1="528.960022" y1="1367.959961" x2="1860.959961" y2="1804.959961" stroke="red" stroke-width="6.660000" />
</svg>
