<?xml version="1.0" encoding="UTF-8" standalone="no"?>
<svg width="500" height="500" viewBox="0 0 2074.000000 2074.000000" xmlns="http://www.w3.org/2000/svg">
<rect x="19.000000" y="19.000000" width="2036.000000" height="2036.000000" fill="black" />
<circle cx="1103.959961" cy="475.959991" r="19.980000" fill="red">
  <title>Tokyo</title>
</circle><line x1="806.960022" y1="748.960022" x2="1103.959961" y2="475.959991" stroke="red" stroke-width="6.660000" />
<circle cx="1319.959961" cy="121.959999" r="19.980000" fill="red">
  <title>São Paulo</title>
</circle><line x1="1103.959961" y1="475.959991" x2="1319.959961" y2="121.959999" stroke="red" stroke-width="6.660000" />
<circle cx="1869.959961" cy="249.959991" r="19.980000" fill="red">
  <title>Beijing</title>
</circle><line x1="1319.959961" y1="121.959999" x2="1869.959961" y2="249.959991" stroke="red" stroke-width="6.660000" />
<circle cx="1960.959961" cy="311.959991" r="19.980000" fill="red">
  <title>New York</title>
</circle><line x1="1869.959961" y1="249.959991" x2="1960.959961" y2="311.959991" stroke="red" stroke-width="6.660000" />
<circle cx="1232.959961" cy="421.959991" r="19.980000" fill="red">
  <title>Karachi</title>
</circle><line x1="1960.959961" y1="311.959991" x2="1232.959961" y2="421.959991" stroke="red" stroke-width="6.660000" />
<circle cx="853.960022" cy="475.959991" r="19.980000" fill="red">
  <title>Dhaka</title>
</circle><line x1="1232.959961" y1="421.959991" x2="853.960022" y2="475.959991" stroke="red" stroke-width="6.660000" />
<circle cx="426.959991" cy="143.959991" r="19.980000" fill="red">
  <title>Osaka</title>
</circle><line x1="853.960022" y1="475.959991" x2="426.959991" y2="143.959991" stroke="red" stroke-width="6.660000" />
<circle cx="346.959991" cy="120.959999" r="19.980000" fill="red">
  <title>Mumbai</title>
</circle><line x1="426.959991" y1="143.959991" x2="346.959991" y2="120.959999" stroke="red" stroke-width="6.660000" />
<circle cx="161.959991" cy="477.959991" r="19.980000" fill="red">
  <title>Mexico City</title>
</circle><line x1="346.959991" y1="120.959999" x2="161.959991" y2="477.959991" stroke="red" stroke-width="6.660000" />
<circle cx="397.959991" cy="426.959991" r="19.980000" fill="red">
  <title>Delhi</title>
</circle><line x1="161.959991" y1="477.959991" x2="397.959991" y2="426.959991" stroke="red" stroke-width="6.660000" />
<circle cx="635.960022" cy="863.960022" r="19.980000" fill="red">
  <title>Istanbul</title>
</circle><line x1="397.959991" y1="426.959991" x2="635.960022" y2="863.960022" stroke="red" stroke-width="6.660000" />
<circle cx="783.960022" cy="1918.959961" r="19.980000" fill="red">
  <title>Buenos Aires</title>
</circle><line x1="635.960022" y1="863.960022" x2="783.960022" y2="1918.959961" stroke="red" stroke-width="6.660000" />
<circle cx="1300.959961" cy="1818.959961" r="19.980000" fill="red">
  <title>Manila</title>
</circle><line x1="783.960022" y1="1918.959961" x2="1300.959961" y2="1818.959961" stroke="red" stroke-width="6.660000" />
<circle cx="1990.959961" cy="1839.959961" r="19.980000" fill="red">
  <title>Chongqing</title>
</circle><line x1="1300.959961" y1="1818.959961" x2="1990.959961" y2="1839.959961" stroke="red" stroke-width="6.660000" />
<circle cx="1459.959961" cy="1700.959961" r="19.980000" fill="red">
  <title>Kolkata</title>
</circle><line x1="1990.959961" y1="1839.959961" x2="1459.959961" y2="1700.959961" stroke="red" stroke-width="6.660000" />
<circle cx="1071.959961" cy="1263.959961" r="19.980000" fill="red">
  <title>Cairo</title>
</circle><line x1="1459.959961" y1="1700.959961" x2="1071.959961" y2="1263.959961" stroke="red" stroke-width="6.660000" />
<circle cx="806.960022" cy="748.960022" r="19.980000" fill="red">
  <title>Shanghai</title>
</circle><line x1="1071.959961" y1="1263.959961" x2="806.960022" y2="748.960022" stroke="red" stroke-width="6.660000" />
</svg>
