<?xml version="1.0" encoding="UTF-8" standalone="no"?>
<svg width="500" height="500" viewBox="0 0 2074.000000 2074.000000" xmlns="http://www.w3.org/2000/svg">
<rect x="19.000000" y="19.000000" width="2036.000000" height="2036.000000" fill="black" />
<circle cx="1305.959961" cy="1885.959961" r="19.980000" fill="red">
  <title>Tokyo</title>
</circle><line x1="1335.959961" y1="1581.959961" x2="1305.959961" y2="1885.959961" stroke="red" stroke-width="6.660000" />
<circle cx="1560.959961" cy="1823.959961" r="19.980000" fill="red">
  <title>Mumbai</title>
</circle><line x1="1305.959961" y1="1885.959961" x2="1560.959961" y2="1823.959961" stroke="red" stroke-width="6.660000" />
<circle cx="1910.959961" cy="1582.959961" r="19.980000" fill="red">
  <title>Kolkata</title>
</circle><line x1="1560.959961" y1="1823.959961" x2="1910.959961" y2="1582.959961" stroke="red" stroke-width="6.660000" />
<circle cx="1759.959961" cy="1228.959961" r="19.980000" fill="red">
  <title>São Paulo</title>
</circle><line x1="1910.959961" y1="1582.959961" x2="1759.959961" y2="1228.959961" stroke="red" stroke-width="6.660000" />
<circle cx="1611.959961" cy="1007.960022" r="19.980000" fill="red">
  <title>New York</title>
</circle><line x1="1759.959961" y1="1228.959961" x2="1611.959961" y2="1007.960022" stroke="red" stroke-width="6.660000" />
<circle cx="1626.959961" cy="686.960022" r="19.980000" fill="red">
  <title>Delhi</title>
</circle><line x1="1611.959961" y1="1007.960022" x2="1626.959961" y2="686.960022" stroke="red" stroke-width="6.660000" />
<circle cx="1607.959961" cy="468.959991" r="19.980000" fill="red">
  <title>Mexico City</title>
</circle><line x1="1626.959961" y1="686.960022" x2="1607.959961" y2="468.959991" stroke="red" stroke-width="6.660000" />
<circle cx="1373.959961" cy="384.959991" r="19.980000" fill="red">
  <title>Chongqing</title>
</circle><line x1="1607.959961" y1="468.959991" x2="1373.959961" y2="384.959991" stroke="red" stroke-width="6.660000" />
<circle cx="594.960022" cy="251.959991" r="19.980000" fill="red">
  <title>Dhaka</title>
</circle><line x1="1373.959961" y1="384.959991" x2="594.960022" y2="251.959991" stroke="red" stroke-width="6.660000" />
<circle cx="362.959991" cy="912.960022" r="19.980000" fill="red">
  <title>Karachi</title>
</circle><line x1="594.960022" y1="251.959991" x2="362.959991" y2="912.960022" stroke="red" stroke-width="6.660000" />
<circle cx="315.959991" cy="917.960022" r="19.980000" fill="red">
  <title>Istanbul</title>
</circle><line x1="362.959991" y1="912.960022" x2="315.959991" y2="917.960022" stroke="red" stroke-width="6.660000" />
<circle cx="609.960022" cy="1088.959961" r="19.980000" fill="red">
  <title>Shanghai</title>
</circle><line x1="315.959991" y1="917.960022" x2="609.960022" y2="1088.959961" stroke="red" stroke-width="6.660000" />
<circle cx="304.959991" cy="1205.959961" r="19.980000" fill="red">
  <title>Osaka</title>
</circle><line x1="609.960022" y1="1088.959961" x2="304.959991" y2="1205.959961" stroke="red" stroke-width="6.660000" />
<circle cx="369.959991" cy="1607.959961" r="19.980000" fill="red">
  <title>Cairo</title>
</circle><line x1="304.959991" y1="1205.959961" x2="369.959991" y2="1607.959961" stroke="red" stroke-width="6.660000" />
<circle cx="936.960022" cy="1704.959961" r="19.980000" fill="red">
  <title>Buenos Aires</title>
</circle><line x1="369.959991" y1="1607.959961" x2="936.960022" y2="1704.959961" stroke="red" stroke-width="6.660000" />
<circle cx="1335.959961" cy="1581.959961" r="19.980000" fill="red">
  <title>Beijing</title>
</circle><line x1="936.960022" y1="1704.959961" x2="1335.959961" y2="1581.959961" stroke="red" stroke-width="6.660000" />
</svg>
