<?xml version="1.0" encoding="UTF-8" standalone="no"?>
<svg width="500" height="500" viewBox="0 0 2074.000000 2074.000000" xmlns="http://www.w3.org/2000/svg">
<rect x="19.000000" y="19.000000" width="2036.000000" height="2036.000000" fill="black" />
<circle cx="761.960022" cy="460.959991" r="19.980000" fill="red">
  <title>Tokyo</title>
</circle><line x1="673.960022" y1="576.960022" x2="761.960022" y2="460.959991" stroke="red" stroke-width="6.660000" />
<circle cx="845.960022" cy="330.959991" r="19.980000" fill="red">
  <title>Osaka</title>
</circle><line x1="761.960022" y1="460.959991" x2="845.960022" y2="330.959991" stroke="red" stroke-width="6.660000" />
<circle cx="1130.959961" cy="262.959991" r="19.980000" fill="red">
  <title>Mumbai</title>
</circle><line x1="845.960022" y1="330.959991" x2="1130.959961" y2="262.959991" stroke="red" stroke-width="6.660000" />
<circle cx="1349.959961" cy="222.959991" r="19.980000" fill="red">
  <title>Dhaka</title>
</circle><line x1="1130.959961" y1="262.959991" x2="1349.959961" y2="222.959991" stroke="red" stroke-width="6.660000" />
<circle cx="1548.959961" cy="219.959991" r="19.980000" fill="red">
  <title>Delhi</title>
</circle><line x1="1349.959961" y1="222.959991" x2="1548.959961" y2="219.959991" stroke="red" stroke-width="6.660000" />
<circle cx="1928.959961" cy="474.959991" r="19.980000" fill="red">
  <title>New York</title>
</circle><line x1="1548.959961" y1="219.959991" x2="1928.959961" y2="474.959991" stroke="red" stroke-width="6.660000" />
<circle cx="1183.959961" cy="760.960022" r="19.980000" fill="red">
  <title>Istanbul</title>
</circle><line x1="1928.959961" y1="474.959991" x2="1183.959961" y2="760.960022" stroke="red" stroke-width="6.660000" />
<circle cx="1443.959961" cy="1157.959961" r="19.980000" fill="red">
  <title>Beijing</title>
</circle><line x1="1183.959961" y1="760.960022" x2="1443.959961" y2="1157.959961" stroke="red" stroke-width="6.660000" />
<circle cx="1609.959961" cy="1670.959961" r="19.980000" fill="red">
  <title>Karachi</title>
</circle><line x1="1443.959961" y1="1157.959961" x2="1609.959961" y2="1670.959961" stroke="red" stroke-width="6.660000" />
<circle cx="2011.959961" cy="1768.959961" r="19.980000" fill="red">
  <title>Cairo</title>
</circle><line x1="1609.959961" y1="1670.959961" x2="2011.959961" y2="1768.959961" stroke="red" stroke-width="6.660000" />
<circle cx="1528.959961" cy="1805.959961" r="19.980000" fill="red">
  <title>São Paulo</title>
</circle><line x1="2011.959961" y1="1768.959961" x2="1528.959961" y2="1805.959961" stroke="red" stroke-width="6.660000" />
<circle cx="1201.959961" cy="1703.959961" r="19.980000" fill="red">
  <title>Shanghai</title>
</circle><line x1="1528.959961" y1="1805.959961" x2="1201.959961" y2="1703.959961" stroke="red" stroke-width="6.660000" />
<circle cx="108.959999" cy="1906.959961" r="19.980000" fill="red">
  <title>Kolkata</title>
</circle><line x1="1201.959961" y1="1703.959961" x2="108.959999" y2="1906.959961" stroke="red" stroke-width="6.660000" />
<circle cx="466.959991" cy="1453.959961" r="19.980000" fill="red">
  <title>Buenos Aires</title>
</circle><line x1="108.959999" y1="1906.959961" x2="466.959991" y2="1453.959961" stroke="red" stroke-width="6.660000" />
<circle cx="46.959999" cy="397.959991" r="19.980000" fill="red">
  <title>Mexico City</title>
</circle><line x1="466.959991" y1="1453.959961" x2="46.959999" y2="397.959991" stroke="red" stroke-width="6.660000" />
<circle cx="673.960022" cy="576.960022" r="19.980000" fill="red">
  <title>Chongqing</title>
</circle><line x1="46.959999" y1="397.959991" x2="673.960022" y2="576.960022" stroke="red" stroke-width="6.660000" />
</svg>
