<?xml version="1.0" encoding="UTF-8" standalone="no"?>
<svg width="500" height="500" viewBox="0 0 2074.000000 2074.000000" xmlns="http://www.w3.org/2000/svg">
<rect x="19.000000" y="19.000000" width="2036.000000" height="2036.000000" fill="black" />
<circle cx="1793.959961" cy="185.959991" r="19.980000" fill="red">
  <title>Tokyo</title>
</circle><line x1="2019.959961" y1="1710.959961" x2="1793.959961" y2="185.959991" stroke="red" stroke-width="6.660000" />
<circle cx="1470.959961" cy="226.959991" r="19.980000" fill="red">
  <title>Delhi</title>
</circle><line x1="1793.959961" y1="185.959991" x2="1470.959961" y2="226.959991" stroke="red" stroke-width="6.660000" />
<circle cx="187.959991" cy="215.959991" r="19.980000" fill="red">
  <title>Mumbai</title>
</circle><line x1="1470.959961" y1="226.959991" x2="187.959991" y2="215.959991" stroke="red" stroke-width="6.660000" />
<circle cx="396.959991" cy="1191.959961" r="19.980000" fill="red">
  <title>Cairo</title>
</circle><line x1="187.959991" y1="215.959991" x2="396.959991" y2="1191.959961" stroke="red" stroke-width="6.660000" />
<circle cx="286.959991" cy="1701.959961" r="19.980000" fill="red">
  <title>São Paulo</title>
</circle><line x1="396.959991" y1="1191.959961" x2="286.959991" y2="1701.959961" stroke="red" stroke-width="6.660000" />
<circle cx="266.959991" cy="1526.959961" r="19.980000" fill="red">
  <title>Shanghai</title>
</circle><line x1="286.959991" y1="1701.959961" x2="266.959991" y2="1526.959961" stroke="red" stroke-width="6.660000" />
<circle cx="854.960022" cy="950.960022" r="19.980000" fill="red">
  <title>Beijing</title>
</circle><line x1="266.959991" y1="1526.959961" x2="854.960022" y2="950.960022" stroke="red" stroke-width="6.660000" />
<circle cx="2019.959961" cy="1710.959961" r="19.980000" fill="red">
  <title>Mexico City</title>
</circle><line x1="854.960022" y1="950.960022" x2="2019.959961" y2="1710.959961" stroke="red" stroke-width="6.660000" />
</svg>
