<?xml version="1.0" encoding="UTF-8" standalone="no"?>
<svg width="500" height="500" viewBox="0 0 2074.000000 2074.000000" xmlns="http://www.w3.org/2000/svg">
<rect x="19.000000" y="19.000000" width="2036.000000" height="2036.000000" fill="black" />
<circle cx="752.960022" cy="656.960022" r="19.980000" fill="red">
  <title>Tokyo</title>
</circle><line x1="867.960022" y1="151.959991" x2="752.960022" y2="656.960022" stroke="red" stroke-width="6.660000" />
<circle cx="742.960022" cy="983.960022" r="19.980000" fill="red">
  <title>Shanghai</title>
</circle><line x1="752.960022" y1="656.960022" x2="742.960022" y2="983.960022" stroke="red" stroke-width="6.660000" />
<circle cx="654.960022" cy="1307.959961" r="19.980000" fill="red">
  <title>Cairo</title>
</circle><line x1="742.960022" y1="983.960022" x2="654.960022" y2="1307.959961" stroke="red" stroke-width="6.660000" />
<circle cx="611.960022" cy="1420.959961" r="19.980000" fill="red">
  <title>Delhi</title>
</circle><line x1="654.960022" y1="1307.959961" x2="611.960022" y2="1420.959961" stroke="red" stroke-width="6.660000" />
<circle cx="1273.959961" cy="1597.959961" r="19.980000" fill="red">
  <title>Dhaka</title>
</circle><line x1="611.960022" y1="1420.959961" x2="1273.959961" y2="1597.959961" stroke="red" stroke-width="6.660000" />
<circle cx="1194.959961" cy="1025.959961" r="19.980000" fill="red">
  <title>Beijing</title>
</circle><line x1="1273.959961" y1="1597.959961" x2="1194.959961" y2="1025.959961" stroke="red" stroke-width="6.660000" />
<circle cx="1321.959961" cy="1078.959961" r="19.980000" fill="red">
  <title>São Paulo</title>
</circle><line x1="1194.959961" y1="1025.959961" x2="1321.959961" y2="1078.959961" stroke="red" stroke-width="6.660000" />
<circle cx="1833.959961" cy="1032.959961" r="19.980000" fill="red">
  <title>Osaka</title>
</circle><line x1="1321.959961" y1="1078.959961" x2="1833.959961" y2="1032.959961" stroke="red" stroke-width="6.660000" />
<circle cx="1746.959961" cy="958.960022" r="19.980000" fill="red">
  <title>New York</title>
</circle><line x1="1833.959961" y1="1032.959961" x2="1746.959961" y2="958.960022" stroke="red" stroke-width="6.660000" />
<circle cx="1368.959961" cy="534.960022" r="19.980000" fill="red">
  <title>Mexico City</title>
</circle><line x1="1746.959961" y1="958.960022" x2="1368.959961" y2="534.960022" stroke="red" stroke-width="6.660000" />
<circle cx="867.960022" cy="151.959991" r="19.980000" fill="red">
  <title>Mumbai</title>
</circle><line x1="1368.959961" y1="534.960022" x2="867.960022" y2="151.959991" stroke="red" stroke-width="6.660000" />
</svg>
