<?xml version="1.0" encoding="UTF-8" standalone="no"?>
<svg width="500" height="500" viewBox="0 0 2074.000000 2074.000000" xmlns="http://www.w3.org/2000/svg">
<rect x="19.000000" y="19.000000" width="2036.000000" height="2036.000000" fill="black" />
<circle cx="1112.959961" cy="1913.959961" r="19.980000" fill="red">
  <title>Tokyo</title>
</circle><line x1="1638.959961" y1="1700.959961" x2="1112.959961" y2="1913.959961" stroke="red" stroke-width="6.660000" />
<circle cx="851.960022" cy="1861.959961" r="19.980000" fill="red">
  <title>Delhi</title>
</circle><line x1="1112.959961" y1="1913.959961" x2="851.960022" y2="1861.959961" stroke="red" stroke-width="6.660000" />
<circle cx="572.960022" cy="1907.959961" r="19.980000" fill="red">
  <title>Buenos Aires</title>
</circle><line x1="851.960022" y1="1861.959961" x2="572.960022" y2="1907.959961" stroke="red" stroke-width="6.660000" />
<circle cx="361.959991" cy="1498.959961" r="19.980000" fill="red">
  <title>Mumbai</title>
</circle><line x1="572.960022" y1="1907.959961" x2="361.959991" y2="1498.959961" stroke="red" stroke-width="6.660000" />
<circle cx="83.959999" cy="1187.959961" r="19.980000" fill="red">
  <title>Beijing</title>
</circle><line x1="361.959991" y1="1498.959961" x2="83.959999" y2="1187.959961" stroke="red" stroke-width="6.660000" />
<circle cx="573.960022" cy="572.960022" r="19.980000" fill="red">
  <title>Cairo</title>
</circle><line x1="83.959999" y1="1187.959961" x2="573.960022" y2="572.960022" stroke="red" stroke-width="6.660000" />
<circle cx="371.959991" cy="1203.959961" r="19.980000" fill="red">
  <title>Mexico City</title>
</circle><line x1="573.960022" y1="572.960022" x2="371.959991" y2="1203.959961" stroke="red" stroke-width="6.660000" />
<circle cx="945.960022" cy="1479.959961" r="19.980000" fill="red">
  <title>New York</title>
</circle><line x1="371.959991" y1="1203.959961" x2="945.960022" y2="1479.959961" stroke="red" stroke-width="6.660000" />
<circle cx="1172.959961" cy="1514.959961" r="19.980000" fill="red">
  <title>Osaka</title>
</circle><line x1="945.960022" y1="1479.959961" x2="1172.959961" y2="1514.959961" stroke="red" stroke-width="6.660000" />
<circle cx="1427.959961" cy="1158.959961" r="19.980000" fill="red">
  <title>São Paulo</title>
</circle><line x1="1172.959961" y1="1514.959961" x2="1427.959961" y2="1158.959961" stroke="red" stroke-width="6.660000" />
<circle cx="2020.959961" cy="1321.959961" r="19.980000" fill="red">
  <title>Karachi</title>
</circle><line x1="1427.959961" y1="1158.959961" x2="2020.959961" y2="1321.959961" stroke="red" stroke-width="6.660000" />
<circle cx="1963.959961" cy="1784.959961" r="19.980000" fill="red">
  <title>Shanghai</title>
</circle><line x1="2020.959961" y1="1321.959961" x2="1963.959961" y2="1784.959961" stroke="red" stroke-width="6.660000" />
<circle cx="1638.959961" cy="1700.959961" r="19.980000" fill="red">
  <title>Dhaka</title>
</circle><line x1="1963.959961" y1="1784.959961" x2="1638.959961" y2="1700.959961" stroke="red" stroke-width="6.660000" />
</svg>
