<?xml version="1.0" encoding="UTF-8" standalone="no"?>
<svg width="500" height="500" viewBox="0 0 2074.000000 2074.000000" xmlns="http://www.w3.org/2000/svg">
<rect x="19.000000" y="19.000000" width="2036.000000" height="2036.000000" fill="black" />
<circle cx="825.960022" cy="333.959991" r="19.980000" fill="red">
  <title>Tokyo</title>
</circle><line x1="1359.959961" y1="394.959991" x2="825.960022" y2="333.959991" stroke="red" stroke-width="6.660000" />
<circle cx="127.959999" cy="149.959991" r="19.980000" fill="red">
  <title>Cairo</title>
</circle><line x1="825.960022" y1="333.959991" x2="127.959999" y2="149.959991" stroke="red" stroke-width="6.660000" />
<circle cx="100.959999" cy="658.960022" r="19.980000" fill="red">
  <title>São Paulo</title>
</circle><line x1="127.959999" y1="149.959991" x2="100.959999" y2="658.960022" stroke="red" stroke-width="6.660000" />
<circle cx="287.959991" cy="1518.959961" r="19.980000" fill="red">
  <title>Mexico City</title>
</circle><line x1="100.959999" y1="658.960022" x2="287.959991" y2="1518.959961" stroke="red" stroke-width="6.660000" />
<circle cx="516.960022" cy="1953.959961" r="19.980000" fill="red">
  <title>Mumbai</title>
</circle><line x1="287.959991" y1="1518.959961" x2="516.960022" y2="1953.959961" stroke="red" stroke-width="6.660000" />
<circle cx="1647.959961" cy="2030.959961" r="19.980000" fill="red">
  <title>Shanghai</title>
</circle><line x1="516.960022" y1="1953.959961" x2="1647.959961" y2="2030.959961" stroke="red" stroke-width="6.660000" />
<circle cx="1670.959961" cy="1339.959961" r="19.980000" fill="red">
  <title>Dhaka</title>
</circle><line x1="1647.959961" y1="2030.959961" x2="1670.959961" y2="1339.959961" stroke="red" stroke-width="6.660000" />
<circle cx="804.960022" cy="987.960022" r="19.980000" fill="red">
  <title>Delhi</title>
</circle><line x1="1670.959961" y1="1339.959961" x2="804.960022" y2="987.960022" stroke="red" stroke-width="6.660000" />
<circle cx="1359.959961" cy="394.959991" r="19.980000" fill="red">
  <title>Beijing</title>
</circle><line x1="804.960022" y1="987.960022" x2="1359.959961" y2="394.959991" stroke="red" stroke-width="6.660000" />
</svg>
