<?xml version="1.0" encoding="UTF-8" standalone="no"?>
<svg width="500" height="500" viewBox="0 0 2074.000000 2074.000000" xmlns="http://www.w3.org/2000/svg">
<rect x="19.000000" y="19.000000" width="2036.000000" height="2036.000000" fill="black" />
<circle cx="614.960022" cy="859.960022" r="19.980000" fill="red">
  <title>Tokyo</title>
</circle><line x1="299.959991" y1="1161.959961" x2="614.960022" y2="859.960022" stroke="red" stroke-width="6.660000" />
<circle cx="1034.959961" cy="873.960022" r="19.980000" fill="red">
  <title>Delhi</title>
</circle><line x1="614.960022" y1="859.960022" x2="1034.959961" y2="873.960022" stroke="red" stroke-width="6.660000" />
<circle cx="1585.959961" cy="735.960022" r="19.980000" fill="red">
  <title>Beijing</title>
</circle><line x1="1034.959961" y1="873.960022" x2="1585.959961" y2="735.960022" stroke="red" stroke-width="6.660000" />
<circle cx="1276.959961" cy="1131.959961" r="19.980000" fill="red">
  <title>Cairo</title>
</circle><line x1="1585.959961" y1="735.960022" x2="1276.959961" y2="1131.959961" stroke="red" stroke-width="6.660000" />
<circle cx="1321.959961" cy="1423.959961" r="19.980000" fill="red">
  <title>Mexico City</title>
</circle><line x1="1276.959961" y1="1131.959961" x2="1321.959961" y2="1423.959961" stroke="red" stroke-width="6.660000" />
<circle cx="1139.959961" cy="1583.959961" r="19.980000" fill="red">
  <title>Mumbai</title>
</circle><line x1="1321.959961" y1="1423.959961" x2="1139.959961" y2="1583.959961" stroke="red" stroke-width="6.660000" />
<circle cx="703.960022" cy="1390.959961" r="19.980000" fill="red">
  <title>Shanghai</title>
</circle><line x1="1139.959961" y1="1583.959961" x2="703.960022" y2="1390.959961" stroke="red" stroke-width="6.660000" />
<circle cx="299.959991" cy="1161.959961" r="19.980000" fill="red">
  <title>São Paulo</title>
</circle><line x1="703.960022" y1="1390.959961" x2="299.959991" y2="1161.959961" stroke="red" stroke-width="6.660000" />
</svg>
