<?xml version="1.0" encoding="UTF-8" standalone="no"?>
<svg width="500" height="500" viewBox="0 0 2074.000000 2074.000000" xmlns="http://www.w3.org/2000/svg">
<rect x="19.000000" y="19.000000" width="2036.000000" height="2036.000000" fill="black" />
<circle cx="586.960022" cy="1292.959961" r="19.980000" fill="red">
  <title>Tokyo</title>
</circle><line x1="1355.959961" y1="1989.959961" x2="586.960022" y2="1292.959961" stroke="red" stroke-width="6.660000" />
<circle cx="635.960022" cy="387.959991" r="19.980000" fill="red">
  <title>São Paulo</title>
</circle><line x1="586.960022" y1="1292.959961" x2="635.960022" y2="387.959991" stroke="red" stroke-width="6.660000" />
<circle cx="262.959991" cy="124.959999" r="19.980000" fill="red">
  <title>Mexico City</title>
</circle><line x1="635.960022" y1="387.959991" x2="262.959991" y2="124.959999" stroke="red" stroke-width="6.660000" />
<circle cx="441.959991" cy="438.959991" r="19.980000" fill="red">
  <title>Cairo</title>
</circle><line x1="262.959991" y1="124.959999" x2="441.959991" y2="438.959991" stroke="red" stroke-width="6.660000" />
<circle cx="553.960022" cy="1344.959961" r="19.980000" fill="red">
  <title>Delhi</title>
</circle><line x1="441.959991" y1="438.959991" x2="553.960022" y2="1344.959961" stroke="red" stroke-width="6.660000" />
<circle cx="586.960022" cy="1746.959961" r="19.980000" fill="red">
  <title>Shanghai</title>
</circle><line x1="553.960022" y1="1344.959961" x2="586.960022" y2="1746.959961" stroke="red" stroke-width="6.660000" />
<circle cx="1355.959961" cy="1989.959961" r="19.980000" fill="red">
  <title>Mumbai</title>
</circle><line x1="586.960022" y1="1746.959961" x2="1355.959961" y2="1989.959961" stroke="red" stroke-width="6.660000" />
</svg>
