<?xml version="1.0" encoding="UTF-8" standalone="no"?>
<svg width="500" height="500" viewBox="0 0 2074.000000 2074.000000" xmlns="http://www.w3.org/2000/svg">
<rect x="19.000000" y="19.000000" width="2036.000000" height="2036.000000" fill="black" />
<circle cx="352.959991" cy="1117.959961" r="19.980000" fill="red">
  <title>Tokyo</title>
</circle><line x1="617.960022" y1="907.960022" x2="352.959991" y2="1117.959961" stroke="red" stroke-width="6.660000" />
<circle cx="399.959991" cy="1777.959961" r="19.980000" fill="red">
  <title>Shanghai</title>
</circle><line x1="352.959991" y1="1117.959961" x2="399.959991" y2="1777.959961" stroke="red" stroke-width="6.660000" />
<circle cx="1405.959961" cy="1979.959961" r="19.980000" fill="red">
  <title>Cairo</title>
</circle><line x1="399.959991" y1="1777.959961" x2="1405.959961" y2="1979.959961" stroke="red" stroke-width="6.660000" />
<circle cx="1479.959961" cy="1604.959961" r="19.980000" fill="red">
  <title>Delhi</title>
</circle><line x1="1405.959961" y1="1979.959961" x2="1479.959961" y2="1604.959961" stroke="red" stroke-width="6.660000" />
<circle cx="2012.959961" cy="1551.959961" r="19.980000" fill="red">
  <title>Osaka</title>
</circle><line x1="1479.959961" y1="1604.959961" x2="2012.959961" y2="1551.959961" stroke="red" stroke-width="6.660000" />
<circle cx="1406.959961" cy="1221.959961" r="19.980000" fill="red">
  <title>Buenos Aires</title>
</circle><line x1="2012.959961" y1="1551.959961" x2="1406.959961" y2="1221.959961" stroke="red" stroke-width="6.660000" />
<circle cx="1143.959961" cy="710.960022" r="19.980000" fill="red">
  <title>Mexico City</title>
</circle><line x1="1406.959961" y1="1221.959961" x2="1143.959961" y2="710.960022" stroke="red" stroke-width="6.660000" />
<circle cx="1624.959961" cy="728.960022" r="19.980000" fill="red">
  <title>Chongqing</title>
</circle><line x1="1143.959961" y1="710.960022" x2="1624.959961" y2="728.960022" stroke="red" stroke-width="6.660000" />
<circle cx="2000.959961" cy="65.959999" r="19.980000" fill="red">
  <title>New York</title>
</circle><line x1="1624.959961" y1="728.960022" x2="2000.959961" y2="65.959999" stroke="red" stroke-width="6.660000" />
<circle cx="1130.959961" cy="436.959991" r="19.980000" fill="red">
  <title>Mumbai</title>
</circle><line x1="2000.959961" y1="65.959999" x2="1130.959961" y2="436.959991" stroke="red" stroke-width="6.660000" />
<circle cx="913.960022" cy="198.959991" r="19.980000" fill="red">
  <title>Dhaka</title>
</circle><line x1="1130.959961" y1="436.959991" x2="913.960022" y2="198.959991" stroke="red" stroke-width="6.660000" />
<circle cx="301.959991" cy="235.959991" r="19.980000" fill="red">
  <title>Istanbul</title>
</circle><line x1="913.960022" y1="198.959991" x2="301.959991" y2="235.959991" stroke="red" stroke-width="6.660000" />
<circle cx="285.959991" cy="391.959991" r="19.980000" fill="red">
  <title>Beijing</title>
</circle><line x1="301.959991" y1="235.959991" x2="285.959991" y2="391.959991" stroke="red" stroke-width="6.660000" />
<circle cx="130.959991" cy="837.960022" r="19.980000" fill="red">
  <title>São Paulo</title>
</circle><line x1="285.959991" y1="391.959991" x2="130.959991" y2="837.960022" stroke="red" stroke-width="6.660000" />
<circle cx="617.960022" cy="907.960022" r="19.980000" fill="red">
  <title>Karachi</title>
</circle><line x1="130.959991" y1="837.960022" x2="617.960022" y2="907.960022" stroke="red" stroke-width="6.660000" />
</svg>
