<?xml version="1.0" encoding="UTF-8" standalone="no"?>
<svg width="500" height="500" viewBox="0 0 2074.000000 2074.000000" xmlns="http://www.w3.org/2000/svg">
<rect x="19.000000" y="19.000000" width="2036.000000" height="2036.000000" fill="black" />
<circle cx="54.959999" cy="1366.959961" r="19.980000" fill="red">
  <title>Tokyo</title>
</circle><line x1="336.959991" y1="276.959991" x2="54.959999" y2="1366.959961" stroke="red" stroke-width="6.660000" />
<circle cx="500.959991" cy="1608.959961" r="19.980000" fill="red">
  <title>Mexico City</title>
</circle><line x1="54.959999" y1="1366.959961" x2="500.959991" y2="1608.959961" stroke="red" stroke-width="6.660000" />
<circle cx="1987.959961" cy="1914.959961" r="19.980000" fill="red">
  <title>Shanghai</title>
</circle><line x1="500.959991" y1="1608.959961" x2="1987.959961" y2="1914.959961" stroke="red" stroke-width="6.660000" />
<circle cx="1251.959961" cy="1544.959961" r="19.980000" fill="red">
  <title>Delhi</title>
</circle><line x1="1987.959961" y1="1914.959961" x2="1251.959961" y2="1544.959961" stroke="red" stroke-width="6.660000" />
<circle cx="984.960022" cy="234.959991" r="19.980000" fill="red">
  <title>São Paulo</title>
</circle><line x1="1251.959961" y1="1544.959961" x2="984.960022" y2="234.959991" stroke="red" stroke-width="6.660000" />
<circle cx="336.959991" cy="276.959991" r="19.980000" fill="red">
  <title>Cairo</title>
</circle><line x1="984.960022" y1="234.959991" x2="336.959991" y2="276.959991" stroke="red" stroke-width="6.660000" />
</svg>
