<?xml version="1.0" encoding="UTF-8" standalone="no"?>
<svg width="500" height="500" viewBox="0 0 2074.000000 2074.000000" xmlns="http://www.w3.org/2000/svg">
<rect x="19.000000" y="19.000000" width="2036.000000" height="2036.000000" fill="black" />
<circle cx="478.959991" cy="1618.959961" r="19.980000" fill="red">
  <title>Tokyo</title>
</circle><line x1="140.959991" y1="1975.959961" x2="478.959991" y2="1618.959961" stroke="red" stroke-width="6.660000" />
<circle cx="920.960022" cy="1238.959961" r="19.980000" fill="red">
  <title>Beijing</title>
</circle><line x1="478.959991" y1="1618.959961" x2="920.960022" y2="1238.959961" stroke="red" stroke-width="6.660000" />
<circle cx="1007.960022" cy="1095.959961" r="19.980000" fill="red">
  <title>Shanghai</title>
</circle><line x1="920.960022" y1="1238.959961" x2="1007.960022" y2="1095.959961" stroke="red" stroke-width="6.660000" />
<circle cx="344.959991" cy="889.960022" r="19.980000" fill="red">
  <title>São Paulo</title>
</circle><line x1="1007.960022" y1="1095.959961" x2="344.959991" y2="889.960022" stroke="red" stroke-width="6.660000" />
<circle cx="823.960022" cy="103.959999" r="19.980000" fill="red">
  <title>Osaka</title>
</circle><line x1="344.959991" y1="889.960022" x2="823.960022" y2="103.959999" stroke="red" stroke-width="6.660000" />
<circle cx="1057.959961" cy="89.959999" r="19.980000" fill="red">
  <title>Manila</title>
</circle><line x1="823.960022" y1="103.959999" x2="1057.959961" y2="89.959999" stroke="red" stroke-width="6.660000" />
<circle cx="1432.959961" cy="582.960022" r="19.980000" fill="red">
  <title>Chongqing</title>
</circle><line x1="1057.959961" y1="89.959999" x2="1432.959961" y2="582.960022" stroke="red" stroke-width="6.660000" />
<circle cx="1658.959961" cy="261.959991" r="19.980000" fill="red">
  <title>Cairo</title>
</circle><line x1="1432.959961" y1="582.960022" x2="1658.959961" y2="261.959991" stroke="red" stroke-width="6.660000" />
<circle cx="1935.959961" cy="591.960022" r="19.980000" fill="red">
  <title>Mumbai</title>
</circle><line x1="1658.959961" y1="261.959991" x2="1935.959961" y2="591.960022" stroke="red" stroke-width="6.660000" />
<circle cx="1986.959961" cy="995.960022" r="19.980000" fill="red">
  <title>Delhi</title>
</circle><line x1="1935.959961" y1="591.960022" x2="1986.959961" y2="995.960022" stroke="red" stroke-width="6.660000" />
<circle cx="2027.959961" cy="1194.959961" r="19.980000" fill="red">
  <title>Mexico City</title>
</circle><line x1="1986.959961" y1="995.960022" x2="2027.959961" y2="1194.959961" stroke="red" stroke-width="6.660000" />
<circle cx="1535.959961" cy="1476.959961" r="19.980000" fill="red">
  <title>Istanbul</title>
</circle><line x1="2027.959961" y1="1194.959961" x2="1535.959961" y2="1476.959961" stroke="red" stroke-width="6.660000" />
<circle cx="1276.959961" cy="1538.959961" r="19.980000" fill="red">
  <title>Karachi</title>
</circle><line x1="1535.959961" y1="1476.959961" x2="1276.959961" y2="1538.959961" stroke="red" stroke-width="6.660000" />
<circle cx="1042.959961" cy="2032.959961" r="19.980000" fill="red">
  <title>New York</title>
</circle><line x1="1276.959961" y1="1538.959961" x2="1042.959961" y2="2032.959961" stroke="red" stroke-width="6.660000" />
<circle cx="830.960022" cy="1817.959961" r="19.980000" fill="red">
  <title>Buenos Aires</title>
</circle><line x1="1042.959961" y1="2032.959961" x2="830.960022" y2="1817.959961" stroke="red" stroke-width="6.660000" />
<circle cx="157.959991" cy="1992.959961" r="19.980000" fill="red">
  <title>Dhaka</title>
</circle><line x1="830.960022" y1="1817.959961" x2="157.959991" y2="1992.959961" stroke="red" stroke-width="6.660000" />
<circle cx="140.959991" cy="1975.959961" r="19.980000" fill="red">
  <title>Kolkata</title>
</circle><line x1="157.959991" y1="1992.959961" x2="140.959991" y2="1975.959961" stroke="red" stroke-width="6.660000" />
</svg>
