<?xml version="1.0" encoding="UTF-8" standalone="no"?>
<svg width="500" height="500" viewBox="0 0 2074.000000 2074.000000" xmlns="http://www.w3.org/2000/svg">
<rect x="19.000000" y="19.000000" width="2036.000000" height="2036.000000" fill="black" />
<circle cx="883.960022" cy="1454.959961" r="19.980000" fill="red">
  <title>Tokyo</title>
</circle><line x1="865.960022" y1="1201.959961" x2="883.960022" y2="1454.959961" stroke="red" stroke-width="6.660000" />
<circle cx="654.960022" cy="1400.959961" r="19.980000" fill="red">
  <title>Shanghai</title>
</circle><line x1="883.960022" y1="1454.959961" x2="654.960022" y2="1400.959961" stroke="red" stroke-width="6.660000" />
<circle cx="521.960022" cy="1898.959961" r="19.980000" fill="red">
  <title>Osaka</title>
</circle><line x1="654.960022" y1="1400.959961" x2="521.960022" y2="1898.959961" stroke="red" stroke-width="6.660000" />
<circle cx="198.959991" cy="2011.959961" r="19.980000" fill="red">
  <title>New York</title>
</circle><line x1="521.960022" y1="1898.959961" x2="198.959991" y2="2011.959961" stroke="red" stroke-width="6.660000" />
<circle cx="52.959999" cy="1190.959961" r="19.980000" fill="red">
  <title>Delhi</title>
</circle><line x1="198.959991" y1="2011.959961" x2="52.959999" y2="1190.959961" stroke="red" stroke-width="6.660000" />
<circle cx="238.959991" cy="1069.959961" r="19.980000" fill="red">
  <title>Chongqing</title>
</circle><line x1="52.959999" y1="1190.959961" x2="238.959991" y2="1069.959961" stroke="red" stroke-width="6.660000" />
<circle cx="647.960022" cy="568.960022" r="19.980000" fill="red">
  <title>Dhaka</title>
</circle><line x1="238.959991" y1="1069.959961" x2="647.960022" y2="568.960022" stroke="red" stroke-width="6.660000" />
<circle cx="1349.959961" cy="348.959991" r="19.980000" fill="red">
  <title>Beijing</title>
</circle><line x1="647.960022" y1="568.960022" x2="1349.959961" y2="348.959991" stroke="red" stroke-width="6.660000" />
<circle cx="1605.959961" cy="406.959991" r="19.980000" fill="red">
  <title>Cairo</title>
</circle><line x1="1349.959961" y1="348.959991" x2="1605.959961" y2="406.959991" stroke="red" stroke-width="6.660000" />
<circle cx="1684.959961" cy="888.960022" r="19.980000" fill="red">
  <title>Karachi</title>
</circle><line x1="1605.959961" y1="406.959991" x2="1684.959961" y2="888.960022" stroke="red" stroke-width="6.660000" />
<circle cx="1817.959961" cy="1003.960022" r="19.980000" fill="red">
  <title>São Paulo</title>
</circle><line x1="1684.959961" y1="888.960022" x2="1817.959961" y2="1003.960022" stroke="red" stroke-width="6.660000" />
<circle cx="1904.959961" cy="1144.959961" r="19.980000" fill="red">
  <title>Mumbai</title>
</circle><line x1="1817.959961" y1="1003.960022" x2="1904.959961" y2="1144.959961" stroke="red" stroke-width="6.660000" />
<circle cx="1768.959961" cy="1222.959961" r="19.980000" fill="red">
  <title>Istanbul</title>
</circle><line x1="1904.959961" y1="1144.959961" x2="1768.959961" y2="1222.959961" stroke="red" stroke-width="6.660000" />
<circle cx="1165.959961" cy="1355.959961" r="19.980000" fill="red">
  <title>Mexico City</title>
</circle><line x1="1768.959961" y1="1222.959961" x2="1165.959961" y2="1355.959961" stroke="red" stroke-width="6.660000" />
<circle cx="865.960022" cy="1201.959961" r="19.980000" fill="red">
  <title>Buenos Aires</title>
</circle><line x1="1165.959961" y1="1355.959961" x2="865.960022" y2="1201.959961" stroke="red" stroke-width="6.660000" />
</svg>
