<?xml version="1.0" encoding="UTF-8" standalone="no"?>
<svg width="500" height="500" viewBox="0 0 2074.000000 2074.000000" xmlns="http://www.w3.org/2000/svg">
<rect x="19.000000" y="19.000000" width="2036.000000" height="2036.000000" fill="black" />
<circle cx="921.960022" cy="610.960022" r="19.980000" fill="red">
  <title>Tokyo</title>
</circle><line x1="640.960022" y1="1131.959961" x2="921.960022" y2="610.960022" stroke="red" stroke-width="6.660000" />
<circle cx="1014.960022" cy="402.959991" r="19.980000" fill="red">
  <title>New York</title>
</circle><line x1="921.960022" y1="610.960022" x2="1014.960022" y2="402.959991" stroke="red" stroke-width="6.660000" />
<circle cx="1328.959961" cy="425.959991" r="19.980000" fill="red">
  <title>Osaka</title>
</circle><line x1="1014.960022" y1="402.959991" x2="1328.959961" y2="425.959991" stroke="red" stroke-width="6.660000" />
<circle cx="1399.959961" cy="789.960022" r="19.980000" fill="red">
  <title>Shanghai</title>
</circle><line x1="1328.959961" y1="425.959991" x2="1399.959961" y2="789.960022" stroke="red" stroke-width="6.660000" />
<circle cx="1531.959961" cy="995.960022" r="19.980000" fill="red">
  <title>Cairo</title>
</circle><line x1="1399.959961" y1="789.960022" x2="1531.959961" y2="995.960022" stroke="red" stroke-width="6.660000" />
<circle cx="1770.959961" cy="1104.959961" r="19.980000" fill="red">
  <title>Karachi</title>
</circle><line x1="1531.959961" y1="995.960022" x2="1770.959961" y2="1104.959961" stroke="red" stroke-width="6.660000" />
<circle cx="1321.959961" cy="1204.959961" r="19.980000" fill="red">
  <title>Delhi</title>
</circle><line x1="1770.959961" y1="1104.959961" x2="1321.959961" y2="1204.959961" stroke="red" stroke-width="6.660000" />
<circle cx="792.960022" cy="1401.959961" r="19.980000" fill="red">
  <title>Dhaka</title>
</circle><line x1="1321.959961" y1="1204.959961" x2="792.960022" y2="1401.959961" stroke="red" stroke-width="6.660000" />
<circle cx="362.959991" cy="1791.959961" r="19.980000" fill="red">
  <title>Mexico City</title>
</circle><line x1="792.960022" y1="1401.959961" x2="362.959991" y2="1791.959961" stroke="red" stroke-width="6.660000" />
<circle cx="519.960022" cy="1137.959961" r="19.980000" fill="red">
  <title>São Paulo</title>
</circle><line x1="362.959991" y1="1791.959961" x2="519.960022" y2="1137.959961" stroke="red" stroke-width="6.660000" />
<circle cx="182.959991" cy="964.960022" r="19.980000" fill="red">
  <title>Mumbai</title>
</circle><line x1="519.960022" y1="1137.959961" x2="182.959991" y2="964.960022" stroke="red" stroke-width="6.660000" />
<circle cx="640.960022" cy="1131.959961" r="19.980000" fill="red">
  <title>Beijing</title>
</circle><line x1="182.959991" y1="964.960022" x2="640.960022" y2="1131.959961" stroke="red" stroke-width="6.660000" />
</svg>
