<?xml version="1.0" encoding="UTF-8" standalone="no"?>
<svg width="500" height="500" viewBox="0 0 2074.000000 2074.000000" xmlns="http://www.w3.org/2000/svg">
<rect x="19.000000" y="19.000000" width="2036.000000" height="2036.000000" fill="black" />
<circle cx="1630.959961" cy="1916.959961" r="19.980000" fill="red">
  <title>Tokyo</title>
</circle><line x1="2018.959961" y1="105.959999" x2="1630.959961" y2="1916.959961" stroke="red" stroke-width="6.660000" />
<circle cx="910.960022" cy="1561.959961" r="19.980000" fill="red">
  <title>Delhi</title>
</circle><line x1="1630.959961" y1="1916.959961" x2="910.960022" y2="1561.959961" stroke="red" stroke-width="6.660000" />
<circle cx="55.959999" cy="1845.959961" r="19.980000" fill="red">
  <title>Cairo</title>
</circle><line x1="910.960022" y1="1561.959961" x2="55.959999" y2="1845.959961" stroke="red" stroke-width="6.660000" />
<circle cx="232.959991" cy="1151.959961" r="19.980000" fill="red">
  <title>São Paulo</title>
</circle><line x1="55.959999" y1="1845.959961" x2="232.959991" y2="1151.959961" stroke="red" stroke-width="6.660000" />
<circle cx="734.960022" cy="176.959991" r="19.980000" fill="red">
  <title>Shanghai</title>
</circle><line x1="232.959991" y1="1151.959961" x2="734.960022" y2="176.959991" stroke="red" stroke-width="6.660000" />
<circle cx="2018.959961" cy="105.959999" r="19.980000" fill="red">
  <title>Mexico City</title>
</circle><line x1="734.960022" y1="176.959991" x2="2018.959961" y2="105.959999" stroke="red" stroke-width="6.660000" />
</svg>
