<?xml version="1.0" encoding="UTF-8" standalone="no"?>
<svg width="500" height="500" viewBox="0 0 2074.000000 2074.000000" xmlns="http://www.w3.org/2000/svg">
<rect x="19.000000" y="19.000000" width="2036.000000" height="2036.000000" fill="black" />
<circle cx="1467.959961" cy="1036.959961" r="19.980000" fill="red">
  <title>Tokyo</title>
</circle><line x1="713.960022" y1="1873.959961" x2="1467.959961" y2="1036.959961" stroke="red" stroke-width="6.660000" />
<circle cx="866.960022" cy="386.959991" r="19.980000" fill="red">
  <title>Delhi</title>
</circle><line x1="1467.959961" y1="1036.959961" x2="866.960022" y2="386.959991" stroke="red" stroke-width="6.660000" />
<circle cx="632.960022" cy="959.960022" r="19.980000" fill="red">
  <title>Mexico City</title>
</circle><line x1="866.960022" y1="386.959991" x2="632.960022" y2="959.960022" stroke="red" stroke-width="6.660000" />
<circle cx="632.960022" cy="1917.959961" r="19.980000" fill="red">
  <title>Shanghai</title>
</circle><line x1="632.960022" y1="959.960022" x2="632.960022" y2="1917.959961" stroke="red" stroke-width="6.660000" />
<circle cx="713.960022" cy="1873.959961" r="19.980000" fill="red">
  <title>São Paulo</title>
</circle><line x1="632.960022" y1="1917.959961" x2="713.960022" y2="1873.959961" stroke="red" stroke-width="6.660000" />
</svg>
