<?xml version="1.0" encoding="UTF-8" standalone="no"?>
<svg width="500" height="500" viewBox="0 0 2074.000000 2074.000000" xmlns="http://www.w3.org/2000/svg">
<rect x="19.000000" y="19.000000" width="2036.000000" height="2036.000000" fill="black" />
<circle cx="792.960022" cy="496.959991" r="19.980000" fill="red">
  <title>Tokyo</title>
</circle><line x1="691.960022" y1="1069.959961" x2="792.960022" y2="496.959991" stroke="red" stroke-width="6.660000" />
<circle cx="1006.960022" cy="161.959991" r="19.980000" fill="red">
  <title>Delhi</title>
</circle><line x1="792.960022" y1="496.959991" x2="1006.960022" y2="161.959991" stroke="red" stroke-width="6.660000" />
<circle cx="1069.959961" cy="193.959991" r="19.980000" fill="red">
  <title>Cairo</title>
</circle><line x1="1006.960022" y1="161.959991" x2="1069.959961" y2="193.959991" stroke="red" stroke-width="6.660000" />
<circle cx="1357.959961" cy="148.959991" r="19.980000" fill="red">
  <title>Mexico City</title>
</circle><line x1="1069.959961" y1="193.959991" x2="1357.959961" y2="148.959991" stroke="red" stroke-width="6.660000" />
<circle cx="1804.959961" cy="106.959999" r="19.980000" fill="red">
  <title>São Paulo</title>
</circle><line x1="1357.959961" y1="148.959991" x2="1804.959961" y2="106.959999" stroke="red" stroke-width="6.660000" />
<circle cx="1231.959961" cy="671.960022" r="19.980000" fill="red">
  <title>Mumbai</title>
</circle><line x1="1804.959961" y1="106.959999" x2="1231.959961" y2="671.960022" stroke="red" stroke-width="6.660000" />
<circle cx="1456.959961" cy="1072.959961" r="19.980000" fill="red">
  <title>Beijing</title>
</circle><line x1="1231.959961" y1="671.960022" x2="1456.959961" y2="1072.959961" stroke="red" stroke-width="6.660000" />
<circle cx="1365.959961" cy="1650.959961" r="19.980000" fill="red">
  <title>Shanghai</title>
</circle><line x1="1456.959961" y1="1072.959961" x2="1365.959961" y2="1650.959961" stroke="red" stroke-width="6.660000" />
<circle cx="1240.959961" cy="1322.959961" r="19.980000" fill="red">
  <title>Osaka</title>
</circle><line x1="1365.959961" y1="1650.959961" x2="1240.959961" y2="1322.959961" stroke="red" stroke-width="6.660000" />
<circle cx="691.960022" cy="1069.959961" r="19.980000" fill="red">
  <title>Dhaka</title>
</circle><line x1="1240.959961" y1="1322.959961" x2="691.960022" y2="1069.959961" stroke="red" stroke-width="6.660000" />
</svg>
