<?xml version="1.0" encoding="UTF-8" standalone="no"?>
<svg width="500" height="500" viewBox="0 0 2074.000000 2074.000000" xmlns="http://www.w3.org/2000/svg">
<rect x="19.000000" y="19.000000" width="2036.000000" height="2036.000000" fill="black" />
<circle cx="1297.959961" cy="1446.959961" r="19.980000" fill="red">
  <title>Tokyo</title>
</circle><line x1="1407.959961" y1="1250.959961" x2="1297.959961" y2="1446.959961" stroke="red" stroke-width="6.660000" />
<circle cx="1198.959961" cy="1896.959961" r="19.980000" fill="red">
  <title>Delhi</title>
</circle><line x1="1297.959961" y1="1446.959961" x2="1198.959961" y2="1896.959961" stroke="red" stroke-width="6.660000" />
<circle cx="1186.959961" cy="1390.959961" r="19.980000" fill="red">
  <title>Shanghai</title>
</circle><line x1="1198.959961" y1="1896.959961" x2="1186.959961" y2="1390.959961" stroke="red" stroke-width="6.660000" />
<circle cx="74.959999" cy="490.959991" r="19.980000" fill="red">
  <title>Cairo</title>
</circle><line x1="1186.959961" y1="1390.959961" x2="74.959999" y2="490.959991" stroke="red" stroke-width="6.660000" />
<circle cx="848.960022" cy="379.959991" r="19.980000" fill="red">
  <title>Mexico City</title>
</circle><line x1="74.959999" y1="490.959991" x2="848.960022" y2="379.959991" stroke="red" stroke-width="6.660000" />
<circle cx="1407.959961" cy="1250.959961" r="19.980000" fill="red">
  <title>São Paulo</title>
</circle><line x1="848.960022" y1="379.959991" x2="1407.959961" y2="1250.959961" stroke="red" stroke-width="6.660000" />
</svg>
