<?xml version="1.0" encoding="UTF-8" standalone="no"?>
<svg width="500" height="500" viewBox="0 0 2074.000000 2074.000000" xmlns="http://www.w3.org/2000/svg">
<rect x="19.000000" y="19.000000" width="2036.000000" height="2036.000000" fill="black" />
<circle cx="1473.959961" cy="1767.959961" r="19.980000" fill="red">
  <title>Tokyo</title>
</circle><line x1="1618.959961" y1="1626.959961" x2="1473.959961" y2="1767.959961" stroke="red" stroke-width="6.660000" />
<circle cx="1345.959961" cy="1423.959961" r="19.980000" fill="red">
  <title>Buenos Aires</title>
</circle><line x1="1473.959961" y1="1767.959961" x2="1345.959961" y2="1423.959961" stroke="red" stroke-width="6.660000" />
<circle cx="1153.959961" cy="911.960022" r="19.980000" fill="red">
  <title>Istanbul</title>
</circle><line x1="1345.959961" y1="1423.959961" x2="1153.959961" y2="911.960022" stroke="red" stroke-width="6.660000" />
<circle cx="1021.960022" cy="1000.960022" r="19.980000" fill="red">
  <title>Mumbai</title>
</circle><line x1="1153.959961" y1="911.960022" x2="1021.960022" y2="1000.960022" stroke="red" stroke-width="6.660000" />
<circle cx="181.959991" cy="1111.959961" r="19.980000" fill="red">
  <title>Karachi</title>
</circle><line x1="1021.960022" y1="1000.960022" x2="181.959991" y2="1111.959961" stroke="red" stroke-width="6.660000" />
<circle cx="553.960022" cy="905.960022" r="19.980000" fill="red">
  <title>Dhaka</title>
</circle><line x1="181.959991" y1="1111.959961" x2="553.960022" y2="905.960022" stroke="red" stroke-width="6.660000" />
<circle cx="955.960022" cy="626.960022" r="19.980000" fill="red">
  <title>Beijing</title>
</circle><line x1="553.960022" y1="905.960022" x2="955.960022" y2="626.960022" stroke="red" stroke-width="6.660000" />
<circle cx="648.960022" cy="211.959991" r="19.980000" fill="red">
  <title>Lagos</title>
</circle><line x1="955.960022" y1="626.960022" x2="648.960022" y2="211.959991" stroke="red" stroke-width="6.660000" />
<circle cx="640.960022" cy="54.959999" r="19.980000" fill="red">
  <title>Manila</title>
</circle><line x1="648.960022" y1="211.959991" x2="640.960022" y2="54.959999" stroke="red" stroke-width="6.660000" />
<circle cx="756.960022" cy="98.959999" r="19.980000" fill="red">
  <title>Delhi</title>
</circle><line x1="640.960022" y1="54.959999" x2="756.960022" y2="98.959999" stroke="red" stroke-width="6.660000" />
<circle cx="1423.959961" cy="41.959999" r="19.980000" fill="red">
  <title>São Paulo</title>
</circle><line x1="756.960022" y1="98.959999" x2="1423.959961" y2="41.959999" stroke="red" stroke-width="6.660000" />
<circle cx="1608.959961" cy="259.959991" r="19.980000" fill="red">
  <title>Shanghai</title>
</circle><line x1="1423.959961" y1="41.959999" x2="1608.959961" y2="259.959991" stroke="red" stroke-width="6.660000" />
<circle cx="1526.959961" cy="279.959991" r="19.980000" fill="red">
  <title>Osaka</title>
</circle><line x1="1608.959961" y1="259.959991" x2="1526.959961" y2="279.959991" stroke="red" stroke-width="6.660000" />
<circle cx="1424.959961" cy="275.959991" r="19.980000" fill="red">
  <title>Mexico City</title>
</circle><line x1="1526.959961" y1="279.959991" x2="1424.959961" y2="275.959991" stroke="red" stroke-width="6.660000" />
<circle cx="1336.959961" cy="589.960022" r="19.980000" fill="red">
  <title>Kolkata</title>
</circle><line x1="1424.959961" y1="275.959991" x2="1336.959961" y2="589.960022" stroke="red" stroke-width="6.660000" />
<circle cx="1662.959961" cy="832.960022" r="19.980000" fill="red">
  <title>New York</title>
</circle><line x1="1336.959961" y1="589.960022" x2="1662.959961" y2="832.960022" stroke="red" stroke-width="6.660000" />
<circle cx="1619.959961" cy="941.960022" r="19.980000" fill="red">
  <title>Cairo</title>
</circle><line x1="1662.959961" y1="832.960022" x2="1619.959961" y2="941.960022" stroke="red" stroke-width="6.660000" />
<circle cx="1618.959961" cy="1626.959961" r="19.980000" fill="red">
  <title>Chongqing</title>
</circle><line x1="1619.959961" y1="941.960022" x2="1618.959961" y2="1626.959961" stroke="red" stroke-width="6.660000" />
</svg>
