<?xml version="1.0" encoding="UTF-8" standalone="no"?>
<svg width="500" height="500" viewBox="0 0 2074.000000 2074.000000" xmlns="http://www.w3.org/2000/svg">
<rect x="19.000000" y="19.000000" width="2036.000000" height="2036.000000" fill="black" />
<circle cx="179.959991" cy="2026.959961" r="19.980000" fill="red">
  <title>Tokyo</title>
</circle><line x1="468.959991" y1="1916.959961" x2="179.959991" y2="2026.959961" stroke="red" stroke-width="6.660000" />
<circle cx="292.959991" cy="1404.959961" r="19.980000" fill="red">
  <title>New York</title>
</circle><line x1="179.959991" y1="2026.959961" x2="292.959991" y2="1404.959961" stroke="red" stroke-width="6.660000" />
<circle cx="298.959991" cy="1195.959961" r="19.980000" fill="red">
  <title>Kolkata</title>
</circle><line x1="292.959991" y1="1404.959961" x2="298.959991" y2="1195.959961" stroke="red" stroke-width="6.660000" />
<circle cx="57.959999" cy="806.960022" r="19.980000" fill="red">
  <title>Rio de Janeiro</title>
</circle><line x1="298.959991" y1="1195.959961" x2="57.959999" y2="806.960022" stroke="red" stroke-width="6.660000" />
<circle cx="134.959991" cy="682.960022" r="19.980000" fill="red">
  <title>Karachi</title>
</circle><line x1="57.959999" y1="806.960022" x2="134.959991" y2="682.960022" stroke="red" stroke-width="6.660000" />
<circle cx="167.959991" cy="94.959999" r="19.980000" fill="red">
  <title>Osaka</title>
</circle><line x1="134.959991" y1="682.960022" x2="167.959991" y2="94.959999" stroke="red" stroke-width="6.660000" />
<circle cx="501.959991" cy="426.959991" r="19.980000" fill="red">
  <title>Mexico City</title>
</circle><line x1="167.959991" y1="94.959999" x2="501.959991" y2="426.959991" stroke="red" stroke-width="6.660000" />
<circle cx="743.960022" cy="348.959991" r="19.980000" fill="red">
  <title>Chongqing</title>
</circle><line x1="501.959991" y1="426.959991" x2="743.960022" y2="348.959991" stroke="red" stroke-width="6.660000" />
<circle cx="642.960022" cy="48.959999" r="19.980000" fill="red">
  <title>Manila</title>
</circle><line x1="743.960022" y1="348.959991" x2="642.960022" y2="48.959999" stroke="red" stroke-width="6.660000" />
<circle cx="954.960022" cy="48.959999" r="19.980000" fill="red">
  <title>Shanghai</title>
</circle><line x1="642.960022" y1="48.959999" x2="954.960022" y2="48.959999" stroke="red" stroke-width="6.660000" />
<circle cx="1228.959961" cy="184.959991" r="19.980000" fill="red">
  <title>São Paulo</title>
</circle><line x1="954.960022" y1="48.959999" x2="1228.959961" y2="184.959991" stroke="red" stroke-width="6.660000" />
<circle cx="926.960022" cy="373.959991" r="19.980000" fill="red">
  <title>Beijing</title>
</circle><line x1="1228.959961" y1="184.959991" x2="926.960022" y2="373.959991" stroke="red" stroke-width="6.660000" />
<circle cx="1054.959961" cy="653.960022" r="19.980000" fill="red">
  <title>Istanbul</title>
</circle><line x1="926.960022" y1="373.959991" x2="1054.959961" y2="653.960022" stroke="red" stroke-width="6.660000" />
<circle cx="1072.959961" cy="773.960022" r="19.980000" fill="red">
  <title>Mumbai</title>
</circle><line x1="1054.959961" y1="653.960022" x2="1072.959961" y2="773.960022" stroke="red" stroke-width="6.660000" />
<circle cx="1194.959961" cy="1010.960022" r="19.980000" fill="red">
  <title>Cairo</title>
</circle><line x1="1072.959961" y1="773.960022" x2="1194.959961" y2="1010.960022" stroke="red" stroke-width="6.660000" />
<circle cx="1703.959961" cy="520.960022" r="19.980000" fill="red">
  <title>Tianjin</title>
</circle><line x1="1194.959961" y1="1010.960022" x2="1703.959961" y2="520.960022" stroke="red" stroke-width="6.660000" />
<circle cx="1787.959961" cy="459.959991" r="19.980000" fill="red">
  <title>Delhi</title>
</circle><line x1="1703.959961" y1="520.960022" x2="1787.959961" y2="459.959991" stroke="red" stroke-width="6.660000" />
<circle cx="1876.959961" cy="886.960022" r="19.980000" fill="red">
  <title>Buenos Aires</title>
</circle><line x1="1787.959961" y1="459.959991" x2="1876.959961" y2="886.960022" stroke="red" stroke-width="6.660000" />
<circle cx="1616.959961" cy="1557.959961" r="19.980000" fill="red">
  <title>Lagos</title>
</circle><line x1="1876.959961" y1="886.960022" x2="1616.959961" y2="1557.959961" stroke="red" stroke-width="6.660000" />
<circle cx="468.959991" cy="1916.959961" r="19.980000" fill="red">
  <title>Dhaka</title>
</circle><line x1="1616.959961" y1="1557.959961" x2="468.959991" y2="1916.959961" stroke="red" stroke-width="6.660000" />
</svg>
