<?xml version="1.0" encoding="UTF-8" standalone="no"?>
<svg width="500" height="500" viewBox="0 0 2074.000000 2074.000000" xmlns="http://www.w3.org/2000/svg">
<rect x="19.000000" y="19.000000" width="2036.000000" height="2036.000000" fill="black" />
<circle cx="1496.959961" cy="1280.959961" r="19.980000" fill="red">
  <title>Tokyo</title>
</circle><line x1="1604.959961" y1="462.959991" x2="1496.959961" y2="1280.959961" stroke="red" stroke-width="6.660000" />
<circle cx="951.960022" cy="1602.959961" r="19.980000" fill="red">
  <title>Delhi</title>
</circle><line x1="1496.959961" y1="1280.959961" x2="951.960022" y2="1602.959961" stroke="red" stroke-width="6.660000" />
<circle cx="513.960022" cy="1917.959961" r="19.980000" fill="red">
  <title>Cairo</title>
</circle><line x1="951.960022" y1="1602.959961" x2="513.960022" y2="1917.959961" stroke="red" stroke-width="6.660000" />
<circle cx="969.960022" cy="1467.959961" r="19.980000" fill="red">
  <title>Beijing</title>
</circle><line x1="513.960022" y1="1917.959961" x2="969.960022" y2="1467.959961" stroke="red" stroke-width="6.660000" />
<circle cx="788.960022" cy="647.960022" r="19.980000" fill="red">
  <title>Shanghai</title>
</circle><line x1="969.960022" y1="1467.959961" x2="788.960022" y2="647.960022" stroke="red" stroke-width="6.660000" />
<circle cx="1006.960022" cy="175.959991" r="19.980000" fill="red">
  <title>Mexico City</title>
</circle><line x1="788.960022" y1="647.960022" x2="1006.960022" y2="175.959991" stroke="red" stroke-width="6.660000" />
<circle cx="1504.959961" cy="499.959991" r="19.980000" fill="red">
  <title>São Paulo</title>
</circle><line x1="1006.960022" y1="175.959991" x2="1504.959961" y2="499.959991" stroke="red" stroke-width="6.660000" />
<circle cx="1604.959961" cy="462.959991" r="19.980000" fill="red">
  <title>Mumbai</title>
</circle><line x1="1504.959961" y1="499.959991" x2="1604.959961" y2="462.959991" stroke="red" stroke-width="6.660000" />
</svg>
