<?xml version="1.0" encoding="UTF-8" standalone="no"?>
<svg width="500" height="500" viewBox="0 0 2074.000000 2074.000000" xmlns="http://www.w3.org/2000/svg">
<rect x="19.000000" y="19.000000" width="2036.000000" height="2036.000000" fill="black" />
<circle cx="1546.959961" cy="1375.959961" r="19.980000" fill="red">
  <title>Tokyo</title>
</circle><line x1="2037.959961" y1="365.959991" x2="1546.959961" y2="1375.959961" stroke="red" stroke-width="6.660000" />
<circle cx="1703.959961" cy="1777.959961" r="19.980000" fill="red">
  <title>Mexico City</title>
</circle><line x1="1546.959961" y1="1375.959961" x2="1703.959961" y2="1777.959961" stroke="red" stroke-width="6.660000" />
<circle cx="867.960022" cy="1599.959961" r="19.980000" fill="red">
  <title>Shanghai</title>
</circle><line x1="1703.959961" y1="1777.959961" x2="867.960022" y2="1599.959961" stroke="red" stroke-width="6.660000" />
<circle cx="464.959991" cy="490.959991" r="19.980000" fill="red">
  <title>São Paulo</title>
</circle><line x1="867.960022" y1="1599.959961" x2="464.959991" y2="490.959991" stroke="red" stroke-width="6.660000" />
<circle cx="968.960022" cy="752.960022" r="19.980000" fill="red">
  <title>Delhi</title>
</circle><line x1="464.959991" y1="490.959991" x2="968.960022" y2="752.960022" stroke="red" stroke-width="6.660000" />
<circle cx="2037.959961" cy="365.959991" r="19.980000" fill="red">
  <title>Cairo</title>
</circle><line x1="968.960022" y1="752.960022" x2="2037.959961" y2="365.959991" stroke="red" stroke-width="6.660000" />
</svg>
