<?xml version="1.0" encoding="UTF-8" standalone="no"?>
<svg width="500" height="500" viewBox="0 0 2074.000000 2074.000000" xmlns="http://www.w3.org/2000/svg">
<rect x="19.000000" y="19.000000" width="2036.000000" height="2036.000000" fill="black" />
<circle cx="1027.959961" cy="1704.959961" r="19.980000" fill="red">
  <title>Tokyo</title>
</circle><line x1="983.960022" y1="1796.959961" x2="1027.959961" y2="1704.959961" stroke="red" stroke-width="6.660000" />
<circle cx="446.959991" cy="970.960022" r="19.980000" fill="red">
  <title>Osaka</title>
</circle><line x1="1027.959961" y1="1704.959961" x2="446.959991" y2="970.960022" stroke="red" stroke-width="6.660000" />
<circle cx="486.959991" cy="755.960022" r="19.980000" fill="red">
  <title>Chongqing</title>
</circle><line x1="446.959991" y1="970.960022" x2="486.959991" y2="755.960022" stroke="red" stroke-width="6.660000" />
<circle cx="1001.960022" cy="752.960022" r="19.980000" fill="red">
  <title>Buenos Aires</title>
</circle><line x1="486.959991" y1="755.960022" x2="1001.960022" y2="752.960022" stroke="red" stroke-width="6.660000" />
<circle cx="1299.959961" cy="433.959991" r="19.980000" fill="red">
  <title>Cairo</title>
</circle><line x1="1001.960022" y1="752.960022" x2="1299.959961" y2="433.959991" stroke="red" stroke-width="6.660000" />
<circle cx="1138.959961" cy="268.959991" r="19.980000" fill="red">
  <title>Dhaka</title>
</circle><line x1="1299.959961" y1="433.959991" x2="1138.959961" y2="268.959991" stroke="red" stroke-width="6.660000" />
<circle cx="939.960022" cy="82.959999" r="19.980000" fill="red">
  <title>Shanghai</title>
</circle><line x1="1138.959961" y1="268.959991" x2="939.960022" y2="82.959999" stroke="red" stroke-width="6.660000" />
<circle cx="1263.959961" cy="242.959991" r="19.980000" fill="red">
  <title>Beijing</title>
</circle><line x1="939.960022" y1="82.959999" x2="1263.959961" y2="242.959991" stroke="red" stroke-width="6.660000" />
<circle cx="1734.959961" cy="332.959991" r="19.980000" fill="red">
  <title>Mumbai</title>
</circle><line x1="1263.959961" y1="242.959991" x2="1734.959961" y2="332.959991" stroke="red" stroke-width="6.660000" />
<circle cx="2027.959961" cy="1126.959961" r="19.980000" fill="red">
  <title>Mexico City</title>
</circle><line x1="1734.959961" y1="332.959991" x2="2027.959961" y2="1126.959961" stroke="red" stroke-width="6.660000" />
<circle cx="1627.959961" cy="1386.959961" r="19.980000" fill="red">
  <title>São Paulo</title>
</circle><line x1="2027.959961" y1="1126.959961" x2="1627.959961" y2="1386.959961" stroke="red" stroke-width="6.660000" />
<circle cx="1591.959961" cy="1319.959961" r="19.980000" fill="red">
  <title>Delhi</title>
</circle><line x1="1627.959961" y1="1386.959961" x2="1591.959961" y2="1319.959961" stroke="red" stroke-width="6.660000" />
<circle cx="1326.959961" cy="1394.959961" r="19.980000" fill="red">
  <title>New York</title>
</circle><line x1="1591.959961" y1="1319.959961" x2="1326.959961" y2="1394.959961" stroke="red" stroke-width="6.660000" />
<circle cx="983.960022" cy="1796.959961" r="19.980000" fill="red">
  <title>Karachi</title>
</circle><line x1="1326.959961" y1="1394.959961" x2="983.960022" y2="1796.959961" stroke="red" stroke-width="6.660000" />
</svg>
