<?xml version="1.0" encoding="UTF-8" standalone="no"?>
<svg width="500" height="500" viewBox="0 0 2074.000000 2074.000000" xmlns="http://www.w3.org/2000/svg">
<rect x="19.000000" y="19.000000" width="2036.000000" height="2036.000000" fill="black" />
<circle cx="1193.959961" cy="293.959991" r="19.980000" fill="red">
  <title>Tokyo</title>
</circle><line x1="1068.959961" y1="419.959991" x2="1193.959961" y2="293.959991" stroke="red" stroke-width="6.660000" />
<circle cx="1202.959961" cy="668.960022" r="19.980000" fill="red">
  <title>Karachi</title>
</circle><line x1="1193.959961" y1="293.959991" x2="1202.959961" y2="668.960022" stroke="red" stroke-width="6.660000" />
<circle cx="1556.959961" cy="550.960022" r="19.980000" fill="red">
  <title>Istanbul</title>
</circle><line x1="1202.959961" y1="668.960022" x2="1556.959961" y2="550.960022" stroke="red" stroke-width="6.660000" />
<circle cx="1836.959961" cy="441.959991" r="19.980000" fill="red">
  <title>Beijing</title>
</circle><line x1="1556.959961" y1="550.960022" x2="1836.959961" y2="441.959991" stroke="red" stroke-width="6.660000" />
<circle cx="2007.959961" cy="1281.959961" r="19.980000" fill="red">
  <title>Lagos</title>
</circle><line x1="1836.959961" y1="441.959991" x2="2007.959961" y2="1281.959961" stroke="red" stroke-width="6.660000" />
<circle cx="1997.959961" cy="1779.959961" r="19.980000" fill="red">
  <title>Cairo</title>
</circle><line x1="2007.959961" y1="1281.959961" x2="1997.959961" y2="1779.959961" stroke="red" stroke-width="6.660000" />
<circle cx="1645.959961" cy="1335.959961" r="19.980000" fill="red">
  <title>Delhi</title>
</circle><line x1="1997.959961" y1="1779.959961" x2="1645.959961" y2="1335.959961" stroke="red" stroke-width="6.660000" />
<circle cx="1423.959961" cy="1463.959961" r="19.980000" fill="red">
  <title>Osaka</title>
</circle><line x1="1645.959961" y1="1335.959961" x2="1423.959961" y2="1463.959961" stroke="red" stroke-width="6.660000" />
<circle cx="939.960022" cy="1519.959961" r="19.980000" fill="red">
  <title>Mexico City</title>
</circle><line x1="1423.959961" y1="1463.959961" x2="939.960022" y2="1519.959961" stroke="red" stroke-width="6.660000" />
<circle cx="805.960022" cy="1792.959961" r="19.980000" fill="red">
  <title>Manila</title>
</circle><line x1="939.960022" y1="1519.959961" x2="805.960022" y2="1792.959961" stroke="red" stroke-width="6.660000" />
<circle cx="700.960022" cy="1573.959961" r="19.980000" fill="red">
  <title>New York</title>
</circle><line x1="805.960022" y1="1792.959961" x2="700.960022" y2="1573.959961" stroke="red" stroke-width="6.660000" />
<circle cx="396.959991" cy="988.960022" r="19.980000" fill="red">
  <title>Buenos Aires</title>
</circle><line x1="700.960022" y1="1573.959961" x2="396.959991" y2="988.960022" stroke="red" stroke-width="6.660000" />
<circle cx="364.959991" cy="933.960022" r="19.980000" fill="red">
  <title>São Paulo</title>
</circle><line x1="396.959991" y1="988.960022" x2="364.959991" y2="933.960022" stroke="red" stroke-width="6.660000" />
<circle cx="185.959991" cy="711.960022" r="19.980000" fill="red">
  <title>Kolkata</title>
</circle><line x1="364.959991" y1="933.960022" x2="185.959991" y2="711.960022" stroke="red" stroke-width="6.660000" />
<circle cx="115.959999" cy="685.960022" r="19.980000" fill="red">
  <title>Dhaka</title>
</circle><line x1="185.959991" y1="711.960022" x2="115.959999" y2="685.960022" stroke="red" stroke-width="6.660000" />
<circle cx="353.959991" cy="804.960022" r="19.980000" fill="red">
  <title>Mumbai</title>
</circle><line x1="115.959999" y1="685.960022" x2="353.959991" y2="804.960022" stroke="red" stroke-width="6.660000" />
<circle cx="515.960022" cy="784.960022" r="19.980000" fill="red">
  <title>Shanghai</title>
</circle><line x1="353.959991" y1="804.960022" x2="515.960022" y2="784.960022" stroke="red" stroke-width="6.660000" />
<circle cx="1068.959961" cy="419.959991" r="19.980000" fill="red">
  <title>Chongqing</title>
</circle><line x1="515.960022" y1="784.960022" x2="1068.959961" y2="419.959991" stroke="red" stroke-width="6.660000" />
</svg>
