<?xml version="1.0" encoding="UTF-8" standalone="no"?>
<svg width="500" height="500" viewBox="0 0 2074.000000 2074.000000" xmlns="http://www.w3.org/2000/svg">
<rect x="19.000000" y="19.000000" width="2036.000000" height="2036.000000" fill="black" />
<circle cx="80.959999" cy="1696.959961" r="19.980000" fill="red">
  <title>Tokyo</title>
</circle><line x1="208.959991" y1="182.959991" x2="80.959999" y2="1696.959961" stroke="red" stroke-width="6.660000" />
<circle cx="396.959991" cy="1894.959961" r="19.980000" fill="red">
  <title>Delhi</title>
</circle><line x1="80.959999" y1="1696.959961" x2="396.959991" y2="1894.959961" stroke="red" stroke-width="6.660000" />
<circle cx="2001.959961" cy="1127.959961" r="19.980000" fill="red">
  <title>São Paulo</title>
</circle><line x1="396.959991" y1="1894.959961" x2="2001.959961" y2="1127.959961" stroke="red" stroke-width="6.660000" />
<circle cx="203.959991" cy="83.959999" r="19.980000" fill="red">
  <title>Mexico City</title>
</circle><line x1="2001.959961" y1="1127.959961" x2="203.959991" y2="83.959999" stroke="red" stroke-width="6.660000" />
<circle cx="208.959991" cy="182.959991" r="19.980000" fill="red">
  <title>Shanghai</title>
</circle><line x1="203.959991" y1="83.959999" x2="208.959991" y2="182.959991" stroke="red" stroke-width="6.660000" />
</svg>
