<?xml version="1.0" encoding="UTF-8" standalone="no"?>
<svg width="500" height="500" viewBox="0 0 2074.000000 2074.000000" xmlns="http://www.w3.org/2000/svg">
<rect x="19.000000" y="19.000000" width="2036.000000" height="2036.000000" fill="black" />
<circle cx="160.959991" cy="1585.959961" r="19.980000" fill="red">
  <title>Tokyo</title>
</circle><line x1="373.959991" y1="1466.959961" x2="160.959991" y2="1585.959961" stroke="red" stroke-width="6.660000" />
<circle cx="567.960022" cy="1622.959961" r="19.980000" fill="red">
  <title>São Paulo</title>
</circle><line x1="160.959991" y1="1585.959961" x2="567.960022" y2="1622.959961" stroke="red" stroke-width="6.660000" />
<circle cx="1134.959961" cy="1299.959961" r="19.980000" fill="red">
  <title>Cairo</title>
</circle><line x1="567.960022" y1="1622.959961" x2="1134.959961" y2="1299.959961" stroke="red" stroke-width="6.660000" />
<circle cx="1719.959961" cy="1473.959961" r="19.980000" fill="red">
  <title>New York</title>
</circle><line x1="1134.959961" y1="1299.959961" x2="1719.959961" y2="1473.959961" stroke="red" stroke-width="6.660000" />
<circle cx="1961.959961" cy="1749.959961" r="19.980000" fill="red">
  <title>Karachi</title>
</circle><line x1="1719.959961" y1="1473.959961" x2="1961.959961" y2="1749.959961" stroke="red" stroke-width="6.660000" />
<circle cx="1999.959961" cy="1181.959961" r="19.980000" fill="red">
  <title>Buenos Aires</title>
</circle><line x1="1961.959961" y1="1749.959961" x2="1999.959961" y2="1181.959961" stroke="red" stroke-width="6.660000" />
<circle cx="1579.959961" cy="899.960022" r="19.980000" fill="red">
  <title>Chongqing</title>
</circle><line x1="1999.959961" y1="1181.959961" x2="1579.959961" y2="899.960022" stroke="red" stroke-width="6.660000" />
<circle cx="1763.959961" cy="744.960022" r="19.980000" fill="red">
  <title>Delhi</title>
</circle><line x1="1579.959961" y1="899.960022" x2="1763.959961" y2="744.960022" stroke="red" stroke-width="6.660000" />
<circle cx="1640.959961" cy="631.960022" r="19.980000" fill="red">
  <title>Mumbai</title>
</circle><line x1="1763.959961" y1="744.960022" x2="1640.959961" y2="631.960022" stroke="red" stroke-width="6.660000" />
<circle cx="1441.959961" cy="460.959991" r="19.980000" fill="red">
  <title>Dhaka</title>
</circle><line x1="1640.959961" y1="631.960022" x2="1441.959961" y2="460.959991" stroke="red" stroke-width="6.660000" />
<circle cx="612.960022" cy="328.959991" r="19.980000" fill="red">
  <title>Osaka</title>
</circle><line x1="1441.959961" y1="460.959991" x2="612.960022" y2="328.959991" stroke="red" stroke-width="6.660000" />
<circle cx="920.960022" cy="1021.960022" r="19.980000" fill="red">
  <title>Shanghai</title>
</circle><line x1="612.960022" y1="328.959991" x2="920.960022" y2="1021.960022" stroke="red" stroke-width="6.660000" />
<circle cx="473.959991" cy="1278.959961" r="19.980000" fill="red">
  <title>Beijing</title>
</circle><line x1="920.960022" y1="1021.960022" x2="473.959991" y2="1278.959961" stroke="red" stroke-width="6.660000" />
<circle cx="373.959991" cy="1466.959961" r="19.980000" fill="red">
  <title>Mexico City</title>
</circle><line x1="473.959991" y1="1278.959961" x2="373.959991" y2="1466.959961" stroke="red" stroke-width="6.660000" />
</svg>
