<?xml version="1.0" encoding="UTF-8" standalone="no"?>
<svg width="500" height="500" viewBox="0 0 2074.000000 2074.000000" xmlns="http://www.w3.org/2000/svg">
<rect x="19.000000" y="19.000000" width="2036.000000" height="2036.000000" fill="black" />
<circle cx="388.959991" cy="1578.959961" r="19.980000" fill="red">
  <title>Tokyo</title>
</circle><line x1="179.959991" y1="1910.959961" x2="388.959991" y2="1578.959961" stroke="red" stroke-width="6.660000" />
<circle cx="923.960022" cy="1500.959961" r="19.980000" fill="red">
  <title>Mexico City</title>
</circle><line x1="388.959991" y1="1578.959961" x2="923.960022" y2="1500.959961" stroke="red" stroke-width="6.660000" />
<circle cx="1288.959961" cy="701.960022" r="19.980000" fill="red">
  <title>Mumbai</title>
</circle><line x1="923.960022" y1="1500.959961" x2="1288.959961" y2="701.960022" stroke="red" stroke-width="6.660000" />
<circle cx="1463.959961" cy="227.959991" r="19.980000" fill="red">
  <title>Shanghai</title>
</circle><line x1="1288.959961" y1="701.960022" x2="1463.959961" y2="227.959991" stroke="red" stroke-width="6.660000" />
<circle cx="874.960022" cy="490.959991" r="19.980000" fill="red">
  <title>Cairo</title>
</circle><line x1="1463.959961" y1="227.959991" x2="874.960022" y2="490.959991" stroke="red" stroke-width="6.660000" />
<circle cx="40.959999" cy="330.959991" r="19.980000" fill="red">
  <title>São Paulo</title>
</circle><line x1="874.960022" y1="490.959991" x2="40.959999" y2="330.959991" stroke="red" stroke-width="6.660000" />
<circle cx="96.959999" cy="1411.959961" r="19.980000" fill="red">
  <title>Delhi</title>
</circle><line x1="40.959999" y1="330.959991" x2="96.959999" y2="1411.959961" stroke="red" stroke-width="6.660000" />
<circle cx="179.959991" cy="1910.959961" r="19.980000" fill="red">
  <title>Beijing</title>
</circle><line x1="96.959999" y1="1411.959961" x2="179.959991" y2="1910.959961" stroke="red" stroke-width="6.660000" />
</svg>
