<?xml version="1.0" encoding="UTF-8" standalone="no"?>
<svg width="500" height="500" viewBox="0 0 2074.000000 2074.000000" xmlns="http://www.w3.org/2000/svg">
<rect x="19.000000" y="19.000000" width="2036.000000" height="2036.000000" fill="black" />
<circle cx="822.960022" cy="1174.959961" r="19.980000" fill="red">
  <title>Tokyo</title>
</circle><line x1="1018.960022" y1="1221.959961" x2="822.960022" y2="1174.959961" stroke="red" stroke-width="6.660000" />
<circle cx="342.959991" cy="1076.959961" r="19.980000" fill="red">
  <title>Mexico City</title>
</circle><line x1="822.960022" y1="1174.959961" x2="342.959991" y2="1076.959961" stroke="red" stroke-width="6.660000" />
<circle cx="77.959999" cy="1433.959961" r="19.980000" fill="red">
  <title>New York</title>
</circle><line x1="342.959991" y1="1076.959961" x2="77.959999" y2="1433.959961" stroke="red" stroke-width="6.660000" />
<circle cx="201.959991" cy="1072.959961" r="19.980000" fill="red">
  <title>Mumbai</title>
</circle><line x1="77.959999" y1="1433.959961" x2="201.959991" y2="1072.959961" stroke="red" stroke-width="6.660000" />
<circle cx="461.959991" cy="614.960022" r="19.980000" fill="red">
  <title>Delhi</title>
</circle><line x1="201.959991" y1="1072.959961" x2="461.959991" y2="614.960022" stroke="red" stroke-width="6.660000" />
<circle cx="414.959991" cy="540.960022" r="19.980000" fill="red">
  <title>Beijing</title>
</circle><line x1="461.959991" y1="614.960022" x2="414.959991" y2="540.960022" stroke="red" stroke-width="6.660000" />
<circle cx="286.959991" cy="90.959999" r="19.980000" fill="red">
  <title>Cairo</title>
</circle><line x1="414.959991" y1="540.960022" x2="286.959991" y2="90.959999" stroke="red" stroke-width="6.660000" />
<circle cx="810.960022" cy="290.959991" r="19.980000" fill="red">
  <title>Osaka</title>
</circle><line x1="286.959991" y1="90.959999" x2="810.960022" y2="290.959991" stroke="red" stroke-width="6.660000" />
<circle cx="1065.959961" cy="96.959999" r="19.980000" fill="red">
  <title>Karachi</title>
</circle><line x1="810.960022" y1="290.959991" x2="1065.959961" y2="96.959999" stroke="red" stroke-width="6.660000" />
<circle cx="1071.959961" cy="248.959991" r="19.980000" fill="red">
  <title>Shanghai</title>
</circle><line x1="1065.959961" y1="96.959999" x2="1071.959961" y2="248.959991" stroke="red" stroke-width="6.660000" />
<circle cx="1092.959961" cy="627.960022" r="19.980000" fill="red">
  <title>São Paulo</title>
</circle><line x1="1071.959961" y1="248.959991" x2="1092.959961" y2="627.960022" stroke="red" stroke-width="6.660000" />
<circle cx="1018.960022" cy="1221.959961" r="19.980000" fill="red">
  <title>Dhaka</title>
</circle><line x1="1092.959961" y1="627.960022" x2="1018.960022" y2="1221.959961" stroke="red" stroke-width="6.660000" />
</svg>
