<?xml version="1.0" encoding="UTF-8" standalone="no"?>
<svg width="500" height="500" viewBox="0 0 2074.000000 2074.000000" xmlns="http://www.w3.org/2000/svg">
<rect x="19.000000" y="19.000000" width="2036.000000" height="2036.000000" fill="black" />
<circle cx="1208.959961" cy="375.959991" r="19.980000" fill="red">
  <title>Tokyo</title>
</circle><line x1="689.960022" y1="954.960022" x2="1208.959961" y2="375.959991" stroke="red" stroke-width="6.660000" />
<circle cx="1291.959961" cy="240.959991" r="19.980000" fill="red">
  <title>Shanghai</title>
</circle><line x1="1208.959961" y1="375.959991" x2="1291.959961" y2="240.959991" stroke="red" stroke-width="6.660000" />
<circle cx="1966.959961" cy="447.959991" r="19.980000" fill="red">
  <title>Cairo</title>
</circle><line x1="1291.959961" y1="240.959991" x2="1966.959961" y2="447.959991" stroke="red" stroke-width="6.660000" />
<circle cx="1569.959961" cy="1780.959961" r="19.980000" fill="red">
  <title>Mexico City</title>
</circle><line x1="1966.959961" y1="447.959991" x2="1569.959961" y2="1780.959961" stroke="red" stroke-width="6.660000" />
<circle cx="55.959999" cy="1799.959961" r="19.980000" fill="red">
  <title>Delhi</title>
</circle><line x1="1569.959961" y1="1780.959961" x2="55.959999" y2="1799.959961" stroke="red" stroke-width="6.660000" />
<circle cx="689.960022" cy="954.960022" r="19.980000" fill="red">
  <title>São Paulo</title>
</circle><line x1="55.959999" y1="1799.959961" x2="689.960022" y2="954.960022" stroke="red" stroke-width="6.660000" />
</svg>
