<?xml version="1.0" encoding="UTF-8" standalone="no"?>
<svg width="500" height="500" viewBox="0 0 2074.000000 2074.000000" xmlns="http://www.w3.org/2000/svg">
<rect x="19.000000" y="19.000000" width="2036.000000" height="2036.000000" fill="black" />
<circle cx="349.959991" cy="933.960022" r="19.980000" fill="red">
  <title>Tokyo</title>
</circle><line x1="353.959991" y1="713.960022" x2="349.959991" y2="933.960022" stroke="red" stroke-width="6.660000" />
<circle cx="77.959999" cy="1151.959961" r="19.980000" fill="red">
  <title>Cairo</title>
</circle><line x1="349.959991" y1="933.960022" x2="77.959999" y2="1151.959961" stroke="red" stroke-width="6.660000" />
<circle cx="181.959991" cy="1267.959961" r="19.980000" fill="red">
  <title>Mexico City</title>
</circle><line x1="77.959999" y1="1151.959961" x2="181.959991" y2="1267.959961" stroke="red" stroke-width="6.660000" />
<circle cx="463.959991" cy="1432.959961" r="19.980000" fill="red">
  <title>Osaka</title>
</circle><line x1="181.959991" y1="1267.959961" x2="463.959991" y2="1432.959961" stroke="red" stroke-width="6.660000" />
<circle cx="911.960022" cy="1951.959961" r="19.980000" fill="red">
  <title>Delhi</title>
</circle><line x1="463.959991" y1="1432.959961" x2="911.960022" y2="1951.959961" stroke="red" stroke-width="6.660000" />
<circle cx="1706.959961" cy="2000.959961" r="19.980000" fill="red">
  <title>Karachi</title>
</circle><line x1="911.960022" y1="1951.959961" x2="1706.959961" y2="2000.959961" stroke="red" stroke-width="6.660000" />
<circle cx="1937.959961" cy="505.959991" r="19.980000" fill="red">
  <title>Mumbai</title>
</circle><line x1="1706.959961" y1="2000.959961" x2="1937.959961" y2="505.959991" stroke="red" stroke-width="6.660000" />
<circle cx="1940.959961" cy="219.959991" r="19.980000" fill="red">
  <title>Beijing</title>
</circle><line x1="1937.959961" y1="505.959991" x2="1940.959961" y2="219.959991" stroke="red" stroke-width="6.660000" />
<circle cx="1836.959961" cy="114.959999" r="19.980000" fill="red">
  <title>São Paulo</title>
</circle><line x1="1940.959961" y1="219.959991" x2="1836.959961" y2="114.959999" stroke="red" stroke-width="6.660000" />
<circle cx="1393.959961" cy="455.959991" r="19.980000" fill="red">
  <title>Shanghai</title>
</circle><line x1="1836.959961" y1="114.959999" x2="1393.959961" y2="455.959991" stroke="red" stroke-width="6.660000" />
<circle cx="817.960022" cy="557.960022" r="19.980000" fill="red">
  <title>Chongqing</title>
</circle><line x1="1393.959961" y1="455.959991" x2="817.960022" y2="557.960022" stroke="red" stroke-width="6.660000" />
<circle cx="692.960022" cy="759.960022" r="19.980000" fill="red">
  <title>New York</title>
</circle><line x1="817.960022" y1="557.960022" x2="692.960022" y2="759.960022" stroke="red" stroke-width="6.660000" />
<circle cx="612.960022" cy="1092.959961" r="19.980000" fill="red">
  <title>Dhaka</title>
</circle><line x1="692.960022" y1="759.960022" x2="612.960022" y2="1092.959961" stroke="red" stroke-width="6.660000" />
<circle cx="353.959991" cy="713.960022" r="19.980000" fill="red">
  <title>Buenos Aires</title>
</circle><line x1="612.960022" y1="1092.959961" x2="353.959991" y2="713.960022" stroke="red" stroke-width="6.660000" />
</svg>
