<?xml version="1.0" encoding="UTF-8" standalone="no"?>
<svg width="500" height="500" viewBox="0 0 2074.000000 2074.000000" xmlns="http://www.w3.org/2000/svg">
<rect x="19.000000" y="19.000000" width="2036.000000" height="2036.000000" fill="black" />
<circle cx="883.960022" cy="1022.960022" r="19.980000" fill="red">
  <title>Tokyo</title>
</circle><line x1="1303.959961" y1="1389.959961" x2="883.960022" y2="1022.960022" stroke="red" stroke-width="6.660000" />
<circle cx="441.959991" cy="876.960022" r="19.980000" fill="red">
  <title>São Paulo</title>
</circle><line x1="883.960022" y1="1022.960022" x2="441.959991" y2="876.960022" stroke="red" stroke-width="6.660000" />
<circle cx="949.960022" cy="333.959991" r="19.980000" fill="red">
  <title>Delhi</title>
</circle><line x1="441.959991" y1="876.960022" x2="949.960022" y2="333.959991" stroke="red" stroke-width="6.660000" />
<circle cx="1513.959961" cy="507.959991" r="19.980000" fill="red">
  <title>Shanghai</title>
</circle><line x1="949.960022" y1="333.959991" x2="1513.959961" y2="507.959991" stroke="red" stroke-width="6.660000" />
<circle cx="1303.959961" cy="1389.959961" r="19.980000" fill="red">
  <title>Mexico City</title>
</circle><line x1="1513.959961" y1="507.959991" x2="1303.959961" y2="1389.959961" stroke="red" stroke-width="6.660000" />
</svg>
