<?xml version="1.0" encoding="UTF-8" standalone="no"?>
<svg width="500" height="500" viewBox="0 0 2074.000000 2074.000000" xmlns="http://www.w3.org/2000/svg">
<rect x="19.000000" y="19.000000" width="2036.000000" height="2036.000000" fill="black" />
<circle cx="347.959991" cy="1422.959961" r="19.980000" fill="red">
  <title>Tokyo</title>
</circle><line x1="266.959991" y1="1250.959961" x2="347.959991" y2="1422.959961" stroke="red" stroke-width="6.660000" />
<circle cx="402.959991" cy="1476.959961" r="19.980000" fill="red">
  <title>New York</title>
</circle><line x1="347.959991" y1="1422.959961" x2="402.959991" y2="1476.959961" stroke="red" stroke-width="6.660000" />
<circle cx="244.959991" cy="1656.959961" r="19.980000" fill="red">
  <title>Delhi</title>
</circle><line x1="402.959991" y1="1476.959961" x2="244.959991" y2="1656.959961" stroke="red" stroke-width="6.660000" />
<circle cx="568.960022" cy="1723.959961" r="19.980000" fill="red">
  <title>Dhaka</title>
</circle><line x1="244.959991" y1="1656.959961" x2="568.960022" y2="1723.959961" stroke="red" stroke-width="6.660000" />
<circle cx="824.960022" cy="1696.959961" r="19.980000" fill="red">
  <title>Buenos Aires</title>
</circle><line x1="568.960022" y1="1723.959961" x2="824.960022" y2="1696.959961" stroke="red" stroke-width="6.660000" />
<circle cx="976.960022" cy="1539.959961" r="19.980000" fill="red">
  <title>Beijing</title>
</circle><line x1="824.960022" y1="1696.959961" x2="976.960022" y2="1539.959961" stroke="red" stroke-width="6.660000" />
<circle cx="1231.959961" cy="837.960022" r="19.980000" fill="red">
  <title>Mexico City</title>
</circle><line x1="976.960022" y1="1539.959961" x2="1231.959961" y2="837.960022" stroke="red" stroke-width="6.660000" />
<circle cx="1620.959961" cy="840.960022" r="19.980000" fill="red">
  <title>Shanghai</title>
</circle><line x1="1231.959961" y1="837.960022" x2="1620.959961" y2="840.960022" stroke="red" stroke-width="6.660000" />
<circle cx="1057.959961" cy="621.960022" r="19.980000" fill="red">
  <title>Osaka</title>
</circle><line x1="1620.959961" y1="840.960022" x2="1057.959961" y2="621.960022" stroke="red" stroke-width="6.660000" />
<circle cx="975.960022" cy="489.959991" r="19.980000" fill="red">
  <title>São Paulo</title>
</circle><line x1="1057.959961" y1="621.960022" x2="975.960022" y2="489.959991" stroke="red" stroke-width="6.660000" />
<circle cx="849.960022" cy="971.960022" r="19.980000" fill="red">
  <title>Mumbai</title>
</circle><line x1="975.960022" y1="489.959991" x2="849.960022" y2="971.960022" stroke="red" stroke-width="6.660000" />
<circle cx="233.959991" cy="1105.959961" r="19.980000" fill="red">
  <title>Cairo</title>
</circle><line x1="849.960022" y1="971.960022" x2="233.959991" y2="1105.959961" stroke="red" stroke-width="6.660000" />
<circle cx="266.959991" cy="1250.959961" r="19.980000" fill="red">
  <title>Karachi</title>
</circle><line x1="233.959991" y1="1105.959961" x2="266.959991" y2="1250.959961" stroke="red" stroke-width="6.660000" />
</svg>
