<?xml version="1.0" encoding="UTF-8" standalone="no"?>
<svg width="500" height="500" viewBox="0 0 2074.000000 2074.000000" xmlns="http://www.w3.org/2000/svg">
<rect x="19.000000" y="19.000000" width="2036.000000" height="2036.000000" fill="black" />
<circle cx="1690.959961" cy="1492.959961" r="19.980000" fill="red">
  <title>Tokyo</title>
</circle><line x1="1549.959961" y1="1423.959961" x2="1690.959961" y2="1492.959961" stroke="red" stroke-width="6.660000" />
<circle cx="1865.959961" cy="1138.959961" r="19.980000" fill="red">
  <title>Delhi</title>
</circle><line x1="1690.959961" y1="1492.959961" x2="1865.959961" y2="1138.959961" stroke="red" stroke-width="6.660000" />
<circle cx="1903.959961" cy="954.960022" r="19.980000" fill="red">
  <title>Dhaka</title>
</circle><line x1="1865.959961" y1="1138.959961" x2="1903.959961" y2="954.960022" stroke="red" stroke-width="6.660000" />
<circle cx="1567.959961" cy="795.960022" r="19.980000" fill="red">
  <title>Osaka</title>
</circle><line x1="1903.959961" y1="954.960022" x2="1567.959961" y2="795.960022" stroke="red" stroke-width="6.660000" />
<circle cx="1370.959961" cy="718.960022" r="19.980000" fill="red">
  <title>Cairo</title>
</circle><line x1="1567.959961" y1="795.960022" x2="1370.959961" y2="718.960022" stroke="red" stroke-width="6.660000" />
<circle cx="1304.959961" cy="301.959991" r="19.980000" fill="red">
  <title>Mumbai</title>
</circle><line x1="1370.959961" y1="718.960022" x2="1304.959961" y2="301.959991" stroke="red" stroke-width="6.660000" />
<circle cx="932.960022" cy="339.959991" r="19.980000" fill="red">
  <title>São Paulo</title>
</circle><line x1="1304.959961" y1="301.959991" x2="932.960022" y2="339.959991" stroke="red" stroke-width="6.660000" />
<circle cx="510.959991" cy="1363.959961" r="19.980000" fill="red">
  <title>Mexico City</title>
</circle><line x1="932.960022" y1="339.959991" x2="510.959991" y2="1363.959961" stroke="red" stroke-width="6.660000" />
<circle cx="602.960022" cy="1915.959961" r="19.980000" fill="red">
  <title>Shanghai</title>
</circle><line x1="510.959991" y1="1363.959961" x2="602.960022" y2="1915.959961" stroke="red" stroke-width="6.660000" />
<circle cx="1549.959961" cy="1423.959961" r="19.980000" fill="red">
  <title>Beijing</title>
</circle><line x1="602.960022" y1="1915.959961" x2="1549.959961" y2="1423.959961" stroke="red" stroke-width="6.660000" />
</svg>
