<?xml version="1.0" encoding="UTF-8" standalone="no"?>
<svg width="500" height="500" viewBox="0 0 2074.000000 2074.000000" xmlns="http://www.w3.org/2000/svg">
<rect x="19.000000" y="19.000000" width="2036.000000" height="2036.000000" fill="black" />
<circle cx="1808.959961" cy="1578.959961" r="19.980000" fill="red">
  <title>Tokyo</title>
</circle><line x1="961.960022" y1="1243.959961" x2="1808.959961" y2="1578.959961" stroke="red" stroke-width="6.660000" />
<circle cx="1328.959961" cy="1489.959961" r="19.980000" fill="red">
  <title>Shanghai</title>
</circle><line x1="1808.959961" y1="1578.959961" x2="1328.959961" y2="1489.959961" stroke="red" stroke-width="6.660000" />
<circle cx="892.960022" cy="1560.959961" r="19.980000" fill="red">
  <title>Cairo</title>
</circle><line x1="1328.959961" y1="1489.959961" x2="892.960022" y2="1560.959961" stroke="red" stroke-width="6.660000" />
<circle cx="668.960022" cy="1610.959961" r="19.980000" fill="red">
  <title>Delhi</title>
</circle><line x1="892.960022" y1="1560.959961" x2="668.960022" y2="1610.959961" stroke="red" stroke-width="6.660000" />
<circle cx="919.960022" cy="1416.959961" r="19.980000" fill="red">
  <title>São Paulo</title>
</circle><line x1="668.960022" y1="1610.959961" x2="919.960022" y2="1416.959961" stroke="red" stroke-width="6.660000" />
<circle cx="961.960022" cy="1243.959961" r="19.980000" fill="red">
  <title>Mexico City</title>
</circle><line x1="919.960022" y1="1416.959961" x2="961.960022" y2="1243.959961" stroke="red" stroke-width="6.660000" />
</svg>
