<?xml version="1.0" encoding="UTF-8" standalone="no"?>
<svg width="500" height="500" viewBox="0 0 2074.000000 2074.000000" xmlns="http://www.w3.org/2000/svg">
<rect x="19.000000" y="19.000000" width="2036.000000" height="2036.000000" fill="black" />
<circle cx="532.960022" cy="767.960022" r="19.980000" fill="red">
  <title>Tokyo</title>
</circle><line x1="709.960022" y1="1789.959961" x2="532.960022" y2="767.960022" stroke="red" stroke-width="6.660000" />
<circle cx="211.959991" cy="818.960022" r="19.980000" fill="red">
  <title>Shanghai</title>
</circle><line x1="532.960022" y1="767.960022" x2="211.959991" y2="818.960022" stroke="red" stroke-width="6.660000" />
<circle cx="172.959991" cy="1640.959961" r="19.980000" fill="red">
  <title>Delhi</title>
</circle><line x1="211.959991" y1="818.960022" x2="172.959991" y2="1640.959961" stroke="red" stroke-width="6.660000" />
<circle cx="709.960022" cy="1789.959961" r="19.980000" fill="red">
  <title>São Paulo</title>
</circle><line x1="172.959991" y1="1640.959961" x2="709.960022" y2="1789.959961" stroke="red" stroke-width="6.660000" />
</svg>
