<?xml version="1.0" encoding="UTF-8" standalone="no"?>
<svg width="500" height="500" viewBox="0 0 2074.000000 2074.000000" xmlns="http://www.w3.org/2000/svg">
<rect x="19.000000" y="19.000000" width="2036.000000" height="2036.000000" fill="black" />
<circle cx="1284.959961" cy="987.960022" r="19.980000" fill="red">
  <title>Tokyo</title>
</circle><line x1="1403.959961" y1="1032.959961" x2="1284.959961" y2="987.960022" stroke="red" stroke-width="6.660000" />
<circle cx="1017.960022" cy="545.960022" r="19.980000" fill="red">
  <title>Cairo</title>
</circle><line x1="1284.959961" y1="987.960022" x2="1017.960022" y2="545.960022" stroke="red" stroke-width="6.660000" />
<circle cx="1198.959961" cy="301.959991" r="19.980000" fill="red">
  <title>Beijing</title>
</circle><line x1="1017.960022" y1="545.960022" x2="1198.959961" y2="301.959991" stroke="red" stroke-width="6.660000" />
<circle cx="772.960022" cy="149.959991" r="19.980000" fill="red">
  <title>Mexico City</title>
</circle><line x1="1198.959961" y1="301.959991" x2="772.960022" y2="149.959991" stroke="red" stroke-width="6.660000" />
<circle cx="499.959991" cy="41.959999" r="19.980000" fill="red">
  <title>Chongqing</title>
</circle><line x1="772.960022" y1="149.959991" x2="499.959991" y2="41.959999" stroke="red" stroke-width="6.660000" />
<circle cx="196.959991" cy="630.960022" r="19.980000" fill="red">
  <title>Karachi</title>
</circle><line x1="499.959991" y1="41.959999" x2="196.959991" y2="630.960022" stroke="red" stroke-width="6.660000" />
<circle cx="153.959991" cy="1248.959961" r="19.980000" fill="red">
  <title>Shanghai</title>
</circle><line x1="196.959991" y1="630.960022" x2="153.959991" y2="1248.959961" stroke="red" stroke-width="6.660000" />
<circle cx="448.959991" cy="1192.959961" r="19.980000" fill="red">
  <title>Osaka</title>
</circle><line x1="153.959991" y1="1248.959961" x2="448.959991" y2="1192.959961" stroke="red" stroke-width="6.660000" />
<circle cx="899.960022" cy="1991.959961" r="19.980000" fill="red">
  <title>Lagos</title>
</circle><line x1="448.959991" y1="1192.959961" x2="899.960022" y2="1991.959961" stroke="red" stroke-width="6.660000" />
<circle cx="940.960022" cy="1918.959961" r="19.980000" fill="red">
  <title>Delhi</title>
</circle><line x1="899.960022" y1="1991.959961" x2="940.960022" y2="1918.959961" stroke="red" stroke-width="6.660000" />
<circle cx="1825.959961" cy="1337.959961" r="19.980000" fill="red">
  <title>São Paulo</title>
</circle><line x1="940.960022" y1="1918.959961" x2="1825.959961" y2="1337.959961" stroke="red" stroke-width="6.660000" />
<circle cx="2018.959961" cy="1483.959961" r="19.980000" fill="red">
  <title>Mumbai</title>
</circle><line x1="1825.959961" y1="1337.959961" x2="2018.959961" y2="1483.959961" stroke="red" stroke-width="6.660000" />
<circle cx="1916.959961" cy="1290.959961" r="19.980000" fill="red">
  <title>Dhaka</title>
</circle><line x1="2018.959961" y1="1483.959961" x2="1916.959961" y2="1290.959961" stroke="red" stroke-width="6.660000" />
<circle cx="1760.959961" cy="1075.959961" r="19.980000" fill="red">
  <title>New York</title>
</circle><line x1="1916.959961" y1="1290.959961" x2="1760.959961" y2="1075.959961" stroke="red" stroke-width="6.660000" />
<circle cx="1772.959961" cy="928.960022" r="19.980000" fill="red">
  <title>Istanbul</title>
</circle><line x1="1760.959961" y1="1075.959961" x2="1772.959961" y2="928.960022" stroke="red" stroke-width="6.660000" />
<circle cx="1877.959961" cy="613.960022" r="19.980000" fill="red">
  <title>Manila</title>
</circle><line x1="1772.959961" y1="928.960022" x2="1877.959961" y2="613.960022" stroke="red" stroke-width="6.660000" />
<circle cx="1711.959961" cy="1019.960022" r="19.980000" fill="red">
  <title>Kolkata</title>
</circle><line x1="1877.959961" y1="613.960022" x2="1711.959961" y2="1019.960022" stroke="red" stroke-width="6.660000" />
<circle cx="1403.959961" cy="1032.959961" r="19.980000" fill="red">
  <title>Buenos Aires</title>
</circle><line x1="1711.959961" y1="1019.960022" x2="1403.959961" y2="1032.959961" stroke="red" stroke-width="6.660000" />
</svg>
