<?xml version="1.0" encoding="UTF-8" standalone="no"?>
<svg width="500" height="500" viewBox="0 0 2074.000000 2074.000000" xmlns="http://www.w3.org/2000/svg">
<rect x="19.000000" y="19.000000" width="2036.000000" height="2036.000000" fill="black" />
<circle cx="1586.959961" cy="1950.959961" r="19.980000" fill="red">
  <title>Tokyo</title>
</circle><line x1="1672.959961" y1="1878.959961" x2="1586.959961" y2="1950.959961" stroke="red" stroke-width="6.660000" />
<circle cx="1008.960022" cy="1082.959961" r="19.980000" fill="red">
  <title>Shanghai</title>
</circle><line x1="1586.959961" y1="1950.959961" x2="1008.960022" y2="1082.959961" stroke="red" stroke-width="6.660000" />
<circle cx="1402.959961" cy="441.959991" r="19.980000" fill="red">
  <title>São Paulo</title>
</circle><line x1="1008.960022" y1="1082.959961" x2="1402.959961" y2="441.959991" stroke="red" stroke-width="6.660000" />
<circle cx="1625.959961" cy="130.959991" r="19.980000" fill="red">
  <title>Mexico City</title>
</circle><line x1="1402.959961" y1="441.959991" x2="1625.959961" y2="130.959991" stroke="red" stroke-width="6.660000" />
<circle cx="1632.959961" cy="700.960022" r="19.980000" fill="red">
  <title>Cairo</title>
</circle><line x1="1625.959961" y1="130.959991" x2="1632.959961" y2="700.960022" stroke="red" stroke-width="6.660000" />
<circle cx="2000.959961" cy="1559.959961" r="19.980000" fill="red">
  <title>Delhi</title>
</circle><line x1="1632.959961" y1="700.960022" x2="2000.959961" y2="1559.959961" stroke="red" stroke-width="6.660000" />
<circle cx="1672.959961" cy="1878.959961" r="19.980000" fill="red">
  <title>Mumbai</title>
</circle><line x1="2000.959961" y1="1559.959961" x2="1672.959961" y2="1878.959961" stroke="red" stroke-width="6.660000" />
</svg>
