<?xml version="1.0" encoding="UTF-8" standalone="no"?>
<svg width="500" height="500" viewBox="0 0 2074.000000 2074.000000" xmlns="http://www.w3.org/2000/svg">
<rect x="19.000000" y="19.000000" width="2036.000000" height="2036.000000" fill="black" />
<circle cx="1897.959961" cy="1966.959961" r="19.980000" fill="red">
  <title>Tokyo</title>
</circle><line x1="861.960022" y1="1860.959961" x2="1897.959961" y2="1966.959961" stroke="red" stroke-width="6.660000" />
<circle cx="1713.959961" cy="1759.959961" r="19.980000" fill="red">
  <title>São Paulo</title>
</circle><line x1="1897.959961" y1="1966.959961" x2="1713.959961" y2="1759.959961" stroke="red" stroke-width="6.660000" />
<circle cx="1104.959961" cy="1208.959961" r="19.980000" fill="red">
  <title>Istanbul</title>
</circle><line x1="1713.959961" y1="1759.959961" x2="1104.959961" y2="1208.959961" stroke="red" stroke-width="6.660000" />
<circle cx="1279.959961" cy="820.960022" r="19.980000" fill="red">
  <title>Buenos Aires</title>
</circle><line x1="1104.959961" y1="1208.959961" x2="1279.959961" y2="820.960022" stroke="red" stroke-width="6.660000" />
<circle cx="1623.959961" cy="555.960022" r="19.980000" fill="red">
  <title>Chongqing</title>
</circle><line x1="1279.959961" y1="820.960022" x2="1623.959961" y2="555.960022" stroke="red" stroke-width="6.660000" />
<circle cx="1526.959961" cy="502.959991" r="19.980000" fill="red">
  <title>Shanghai</title>
</circle><line x1="1623.959961" y1="555.960022" x2="1526.959961" y2="502.959991" stroke="red" stroke-width="6.660000" />
<circle cx="1222.959961" cy="634.960022" r="19.980000" fill="red">
  <title>Rio de Janeiro</title>
</circle><line x1="1526.959961" y1="502.959991" x2="1222.959961" y2="634.960022" stroke="red" stroke-width="6.660000" />
<circle cx="1136.959961" cy="758.960022" r="19.980000" fill="red">
  <title>Manila</title>
</circle><line x1="1222.959961" y1="634.960022" x2="1136.959961" y2="758.960022" stroke="red" stroke-width="6.660000" />
<circle cx="958.960022" cy="624.960022" r="19.980000" fill="red">
  <title>Lagos</title>
</circle><line x1="1136.959961" y1="758.960022" x2="958.960022" y2="624.960022" stroke="red" stroke-width="6.660000" />
<circle cx="986.960022" cy="315.959991" r="19.980000" fill="red">
  <title>Beijing</title>
</circle><line x1="958.960022" y1="624.960022" x2="986.960022" y2="315.959991" stroke="red" stroke-width="6.660000" />
<circle cx="983.960022" cy="224.959991" r="19.980000" fill="red">
  <title>Mexico City</title>
</circle><line x1="986.960022" y1="315.959991" x2="983.960022" y2="224.959991" stroke="red" stroke-width="6.660000" />
<circle cx="643.960022" cy="341.959991" r="19.980000" fill="red">
  <title>Dhaka</title>
</circle><line x1="983.960022" y1="224.959991" x2="643.960022" y2="341.959991" stroke="red" stroke-width="6.660000" />
<circle cx="805.960022" cy="661.960022" r="19.980000" fill="red">
  <title>Karachi</title>
</circle><line x1="643.960022" y1="341.959991" x2="805.960022" y2="661.960022" stroke="red" stroke-width="6.660000" />
<circle cx="347.959991" cy="963.960022" r="19.980000" fill="red">
  <title>Kolkata</title>
</circle><line x1="805.960022" y1="661.960022" x2="347.959991" y2="963.960022" stroke="red" stroke-width="6.660000" />
<circle cx="109.959999" cy="1184.959961" r="19.980000" fill="red">
  <title>Mumbai</title>
</circle><line x1="347.959991" y1="963.960022" x2="109.959999" y2="1184.959961" stroke="red" stroke-width="6.660000" />
<circle cx="421.959991" cy="1205.959961" r="19.980000" fill="red">
  <title>Osaka</title>
</circle><line x1="109.959999" y1="1184.959961" x2="421.959991" y2="1205.959961" stroke="red" stroke-width="6.660000" />
<circle cx="622.960022" cy="1429.959961" r="19.980000" fill="red">
  <title>New York</title>
</circle><line x1="421.959991" y1="1205.959961" x2="622.960022" y2="1429.959961" stroke="red" stroke-width="6.660000" />
<circle cx="450.959991" cy="2032.959961" r="19.980000" fill="red">
  <title>Delhi</title>
</circle><line x1="622.960022" y1="1429.959961" x2="450.959991" y2="2032.959961" stroke="red" stroke-width="6.660000" />
<circle cx="861.960022" cy="1860.959961" r="19.980000" fill="red">
  <title>Cairo</title>
</circle><line x1="450.959991" y1="2032.959961" x2="861.960022" y2="1860.959961" stroke="red" stroke-width="6.660000" />
</svg>
