<?xml version="1.0" encoding="UTF-8" standalone="no"?>
<svg width="500" height="500" viewBox="0 0 2074.000000 2074.000000" xmlns="http://www.w3.org/2000/svg">
<rect x="19.000000" y="19.000000" width="2036.000000" height="2036.000000" fill="black" />
<circle cx="903.960022" cy="1412.959961" r="19.980000" fill="red">
  <title>Tokyo</title>
</circle><line x1="790.960022" y1="1251.959961" x2="903.960022" y2="1412.959961" stroke="red" stroke-width="6.660000" />
<circle cx="1155.959961" cy="1415.959961" r="19.980000" fill="red">
  <title>Istanbul</title>
</circle><line x1="903.960022" y1="1412.959961" x2="1155.959961" y2="1415.959961" stroke="red" stroke-width="6.660000" />
<circle cx="1349.959961" cy="1698.959961" r="19.980000" fill="red">
  <title>Beijing</title>
</circle><line x1="1155.959961" y1="1415.959961" x2="1349.959961" y2="1698.959961" stroke="red" stroke-width="6.660000" />
<circle cx="1335.959961" cy="1779.959961" r="19.980000" fill="red">
  <title>Lagos</title>
</circle><line x1="1349.959961" y1="1698.959961" x2="1335.959961" y2="1779.959961" stroke="red" stroke-width="6.660000" />
<circle cx="1634.959961" cy="2019.959961" r="19.980000" fill="red">
  <title>Kolkata</title>
</circle><line x1="1335.959961" y1="1779.959961" x2="1634.959961" y2="2019.959961" stroke="red" stroke-width="6.660000" />
<circle cx="1523.959961" cy="1728.959961" r="19.980000" fill="red">
  <title>Chongqing</title>
</circle><line x1="1634.959961" y1="2019.959961" x2="1523.959961" y2="1728.959961" stroke="red" stroke-width="6.660000" />
<circle cx="1654.959961" cy="1353.959961" r="19.980000" fill="red">
  <title>Delhi</title>
</circle><line x1="1523.959961" y1="1728.959961" x2="1654.959961" y2="1353.959961" stroke="red" stroke-width="6.660000" />
<circle cx="1377.959961" cy="1419.959961" r="19.980000" fill="red">
  <title>Osaka</title>
</circle><line x1="1654.959961" y1="1353.959961" x2="1377.959961" y2="1419.959961" stroke="red" stroke-width="6.660000" />
<circle cx="1124.959961" cy="1256.959961" r="19.980000" fill="red">
  <title>Cairo</title>
</circle><line x1="1377.959961" y1="1419.959961" x2="1124.959961" y2="1256.959961" stroke="red" stroke-width="6.660000" />
<circle cx="1028.959961" cy="830.960022" r="19.980000" fill="red">
  <title>Shanghai</title>
</circle><line x1="1124.959961" y1="1256.959961" x2="1028.959961" y2="830.960022" stroke="red" stroke-width="6.660000" />
<circle cx="1644.959961" cy="247.959991" r="19.980000" fill="red">
  <title>Mexico City</title>
</circle><line x1="1028.959961" y1="830.960022" x2="1644.959961" y2="247.959991" stroke="red" stroke-width="6.660000" />
<circle cx="648.960022" cy="176.959991" r="19.980000" fill="red">
  <title>New York</title>
</circle><line x1="1644.959961" y1="247.959991" x2="648.960022" y2="176.959991" stroke="red" stroke-width="6.660000" />
<circle cx="245.959991" cy="663.960022" r="19.980000" fill="red">
  <title>Karachi</title>
</circle><line x1="648.960022" y1="176.959991" x2="245.959991" y2="663.960022" stroke="red" stroke-width="6.660000" />
<circle cx="186.959991" cy="774.960022" r="19.980000" fill="red">
  <title>Buenos Aires</title>
</circle><line x1="245.959991" y1="663.960022" x2="186.959991" y2="774.960022" stroke="red" stroke-width="6.660000" />
<circle cx="537.960022" cy="995.960022" r="19.980000" fill="red">
  <title>São Paulo</title>
</circle><line x1="186.959991" y1="774.960022" x2="537.960022" y2="995.960022" stroke="red" stroke-width="6.660000" />
<circle cx="219.959991" cy="1326.959961" r="19.980000" fill="red">
  <title>Dhaka</title>
</circle><line x1="537.960022" y1="995.960022" x2="219.959991" y2="1326.959961" stroke="red" stroke-width="6.660000" />
<circle cx="104.959999" cy="1262.959961" r="19.980000" fill="red">
  <title>Mumbai</title>
</circle><line x1="219.959991" y1="1326.959961" x2="104.959999" y2="1262.959961" stroke="red" stroke-width="6.660000" />
<circle cx="43.959999" cy="1833.959961" r="19.980000" fill="red">
  <title>Rio de Janeiro</title>
</circle><line x1="104.959999" y1="1262.959961" x2="43.959999" y2="1833.959961" stroke="red" stroke-width="6.660000" />
<circle cx="736.960022" cy="1648.959961" r="19.980000" fill="red">
  <title>Tianjin</title>
</circle><line x1="43.959999" y1="1833.959961" x2="736.960022" y2="1648.959961" stroke="red" stroke-width="6.660000" />
<circle cx="790.960022" cy="1251.959961" r="19.980000" fill="red">
  <title>Manila</title>
</circle><line x1="736.960022" y1="1648.959961" x2="790.960022" y2="1251.959961" stroke="red" stroke-width="6.660000" />
</svg>
