<?xml version="1.0" encoding="UTF-8" standalone="no"?>
<svg width="500" height="500" viewBox="0 0 2074.000000 2074.000000" xmlns="http://www.w3.org/2000/svg">
<rect x="19.000000" y="19.000000" width="2036.000000" height="2036.000000" fill="black" />
<circle cx="691.960022" cy="1745.959961" r="19.980000" fill="red">
  <title>Tokyo</title>
</circle><line x1="510.959991" y1="824.960022" x2="691.960022" y2="1745.959961" stroke="red" stroke-width="6.660000" />
<circle cx="1263.959961" cy="1667.959961" r="19.980000" fill="red">
  <title>Delhi</title>
</circle><line x1="691.960022" y1="1745.959961" x2="1263.959961" y2="1667.959961" stroke="red" stroke-width="6.660000" />
<circle cx="1457.959961" cy="1575.959961" r="19.980000" fill="red">
  <title>Beijing</title>
</circle><line x1="1263.959961" y1="1667.959961" x2="1457.959961" y2="1575.959961" stroke="red" stroke-width="6.660000" />
<circle cx="1331.959961" cy="1225.959961" r="19.980000" fill="red">
  <title>New York</title>
</circle><line x1="1457.959961" y1="1575.959961" x2="1331.959961" y2="1225.959961" stroke="red" stroke-width="6.660000" />
<circle cx="1341.959961" cy="1177.959961" r="19.980000" fill="red">
  <title>Cairo</title>
</circle><line x1="1331.959961" y1="1225.959961" x2="1341.959961" y2="1177.959961" stroke="red" stroke-width="6.660000" />
<circle cx="1862.959961" cy="130.959991" r="19.980000" fill="red">
  <title>Osaka</title>
</circle><line x1="1341.959961" y1="1177.959961" x2="1862.959961" y2="130.959991" stroke="red" stroke-width="6.660000" />
<circle cx="1660.959961" cy="215.959991" r="19.980000" fill="red">
  <title>Dhaka</title>
</circle><line x1="1862.959961" y1="130.959991" x2="1660.959961" y2="215.959991" stroke="red" stroke-width="6.660000" />
<circle cx="856.960022" cy="52.959999" r="19.980000" fill="red">
  <title>São Paulo</title>
</circle><line x1="1660.959961" y1="215.959991" x2="856.960022" y2="52.959999" stroke="red" stroke-width="6.660000" />
<circle cx="891.960022" cy="611.960022" r="19.980000" fill="red">
  <title>Mexico City</title>
</circle><line x1="856.960022" y1="52.959999" x2="891.960022" y2="611.960022" stroke="red" stroke-width="6.660000" />
<circle cx="725.960022" cy="749.960022" r="19.980000" fill="red">
  <title>Mumbai</title>
</circle><line x1="891.960022" y1="611.960022" x2="725.960022" y2="749.960022" stroke="red" stroke-width="6.660000" />
<circle cx="510.959991" cy="824.960022" r="19.980000" fill="red">
  <title>Shanghai</title>
</circle><line x1="725.960022" y1="749.960022" x2="510.959991" y2="824.960022" stroke="red" stroke-width="6.660000" />
</svg>
