<?xml version="1.0" encoding="UTF-8" standalone="no"?>
<svg width="500" height="500" viewBox="0 0 2074.000000 2074.000000" xmlns="http://www.w3.org/2000/svg">
<rect x="19.000000" y="19.000000" width="2036.000000" height="2036.000000" fill="black" />
<circle cx="1974.959961" cy="994.960022" r="19.980000" fill="red">
  <title>Tokyo</title>
</circle><line x1="1766.959961" y1="867.960022" x2="1974.959961" y2="994.960022" stroke="red" stroke-width="6.660000" />
<circle cx="1942.959961" cy="1989.959961" r="19.980000" fill="red">
  <title>Delhi</title>
</circle><line x1="1974.959961" y1="994.960022" x2="1942.959961" y2="1989.959961" stroke="red" stroke-width="6.660000" />
<circle cx="1403.959961" cy="1955.959961" r="19.980000" fill="red">
  <title>Beijing</title>
</circle><line x1="1942.959961" y1="1989.959961" x2="1403.959961" y2="1955.959961" stroke="red" stroke-width="6.660000" />
<circle cx="529.960022" cy="1431.959961" r="19.980000" fill="red">
  <title>Mumbai</title>
</circle><line x1="1403.959961" y1="1955.959961" x2="529.960022" y2="1431.959961" stroke="red" stroke-width="6.660000" />
<circle cx="166.959991" cy="1517.959961" r="19.980000" fill="red">
  <title>New York</title>
</circle><line x1="529.960022" y1="1431.959961" x2="166.959991" y2="1517.959961" stroke="red" stroke-width="6.660000" />
<circle cx="826.960022" cy="558.960022" r="19.980000" fill="red">
  <title>Dhaka</title>
</circle><line x1="166.959991" y1="1517.959961" x2="826.960022" y2="558.960022" stroke="red" stroke-width="6.660000" />
<circle cx="883.960022" cy="73.959999" r="19.980000" fill="red">
  <title>Buenos Aires</title>
</circle><line x1="826.960022" y1="558.960022" x2="883.960022" y2="73.959999" stroke="red" stroke-width="6.660000" />
<circle cx="1404.959961" cy="67.959999" r="19.980000" fill="red">
  <title>Karachi</title>
</circle><line x1="883.960022" y1="73.959999" x2="1404.959961" y2="67.959999" stroke="red" stroke-width="6.660000" />
<circle cx="1197.959961" cy="661.960022" r="19.980000" fill="red">
  <title>Mexico City</title>
</circle><line x1="1404.959961" y1="67.959999" x2="1197.959961" y2="661.960022" stroke="red" stroke-width="6.660000" />
<circle cx="1310.959961" cy="857.960022" r="19.980000" fill="red">
  <title>Shanghai</title>
</circle><line x1="1197.959961" y1="661.960022" x2="1310.959961" y2="857.960022" stroke="red" stroke-width="6.660000" />
<circle cx="1482.959961" cy="944.960022" r="19.980000" fill="red">
  <title>São Paulo</title>
</circle><line x1="1310.959961" y1="857.960022" x2="1482.959961" y2="944.960022" stroke="red" stroke-width="6.660000" />
<circle cx="1705.959961" cy="933.960022" r="19.980000" fill="red">
  <title>Cairo</title>
</circle><line x1="1482.959961" y1="944.960022" x2="1705.959961" y2="933.960022" stroke="red" stroke-width="6.660000" />
<circle cx="1766.959961" cy="867.960022" r="19.980000" fill="red">
  <title>Osaka</title>
</circle><line x1="1705.959961" y1="933.960022" x2="1766.959961" y2="867.960022" stroke="red" stroke-width="6.660000" />
</svg>
