<?xml version="1.0" encoding="UTF-8" standalone="no"?>
<svg width="500" height="500" viewBox="0 0 2074.000000 2074.000000" xmlns="http://www.w3.org/2000/svg">
<rect x="19.000000" y="19.000000" width="2036.000000" height="2036.000000" fill="black" />
<circle cx="61.959999" cy="103.959999" r="19.980000" fill="red">
  <title>Tokyo</title>
</circle><line x1="221.959991" y1="1503.959961" x2="61.959999" y2="103.959999" stroke="red" stroke-width="6.660000" />
<circle cx="316.959991" cy="178.959991" r="19.980000" fill="red">
  <title>Shanghai</title>
</circle><line x1="61.959999" y1="103.959999" x2="316.959991" y2="178.959991" stroke="red" stroke-width="6.660000" />
<circle cx="1709.959961" cy="170.959991" r="19.980000" fill="red">
  <title>Mumbai</title>
</circle><line x1="316.959991" y1="178.959991" x2="1709.959961" y2="170.959991" stroke="red" stroke-width="6.660000" />
<circle cx="1356.959961" cy="817.960022" r="19.980000" fill="red">
  <title>Mexico City</title>
</circle><line x1="1709.959961" y1="170.959991" x2="1356.959961" y2="817.960022" stroke="red" stroke-width="6.660000" />
<circle cx="1603.959961" cy="1275.959961" r="19.980000" fill="red">
  <title>Delhi</title>
</circle><line x1="1356.959961" y1="817.960022" x2="1603.959961" y2="1275.959961" stroke="red" stroke-width="6.660000" />
<circle cx="875.960022" cy="2023.959961" r="19.980000" fill="red">
  <title>Dhaka</title>
</circle><line x1="1603.959961" y1="1275.959961" x2="875.960022" y2="2023.959961" stroke="red" stroke-width="6.660000" />
<circle cx="624.960022" cy="1719.959961" r="19.980000" fill="red">
  <title>Cairo</title>
</circle><line x1="875.960022" y1="2023.959961" x2="624.960022" y2="1719.959961" stroke="red" stroke-width="6.660000" />
<circle cx="203.959991" cy="1757.959961" r="19.980000" fill="red">
  <title>Beijing</title>
</circle><line x1="624.960022" y1="1719.959961" x2="203.959991" y2="1757.959961" stroke="red" stroke-width="6.660000" />
<circle cx="221.959991" cy="1503.959961" r="19.980000" fill="red">
  <title>São Paulo</title>
</circle><line x1="203.959991" y1="1757.959961" x2="221.959991" y2="1503.959961" stroke="red" stroke-width="6.660000" />
</svg>
