<?xml version="1.0" encoding="UTF-8" standalone="no"?>
<svg width="500" height="500" viewBox="0 0 2074.000000 2074.000000" xmlns="http://www.w3.org/2000/svg">
<rect x="19.000000" y="19.000000" width="2036.000000" height="2036.000000" fill="black" />
<circle cx="1574.959961" cy="1538.959961" r="19.980000" fill="red">
  <title>Tokyo</title>
</circle><line x1="1984.959961" y1="2014.959961" x2="1574.959961" y2="1538.959961" stroke="red" stroke-width="6.660000" />
<circle cx="1409.959961" cy="1179.959961" r="19.980000" fill="red">
  <title>Dhaka</title>
</circle><line x1="1574.959961" y1="1538.959961" x2="1409.959961" y2="1179.959961" stroke="red" stroke-width="6.660000" />
<circle cx="1633.959961" cy="1100.959961" r="19.980000" fill="red">
  <title>Mumbai</title>
</circle><line x1="1409.959961" y1="1179.959961" x2="1633.959961" y2="1100.959961" stroke="red" stroke-width="6.660000" />
<circle cx="1785.959961" cy="984.960022" r="19.980000" fill="red">
  <title>Osaka</title>
</circle><line x1="1633.959961" y1="1100.959961" x2="1785.959961" y2="984.960022" stroke="red" stroke-width="6.660000" />
<circle cx="1706.959961" cy="864.960022" r="19.980000" fill="red">
  <title>Cairo</title>
</circle><line x1="1785.959961" y1="984.960022" x2="1706.959961" y2="864.960022" stroke="red" stroke-width="6.660000" />
<circle cx="1769.959961" cy="701.960022" r="19.980000" fill="red">
  <title>Mexico City</title>
</circle><line x1="1706.959961" y1="864.960022" x2="1769.959961" y2="701.960022" stroke="red" stroke-width="6.660000" />
<circle cx="1849.959961" cy="410.959991" r="19.980000" fill="red">
  <title>Shanghai</title>
</circle><line x1="1769.959961" y1="701.960022" x2="1849.959961" y2="410.959991" stroke="red" stroke-width="6.660000" />
<circle cx="1787.959961" cy="193.959991" r="19.980000" fill="red">
  <title>São Paulo</title>
</circle><line x1="1849.959961" y1="410.959991" x2="1787.959961" y2="193.959991" stroke="red" stroke-width="6.660000" />
<circle cx="725.960022" cy="275.959991" r="19.980000" fill="red">
  <title>Kolkata</title>
</circle><line x1="1787.959961" y1="193.959991" x2="725.960022" y2="275.959991" stroke="red" stroke-width="6.660000" />
<circle cx="315.959991" cy="583.960022" r="19.980000" fill="red">
  <title>New York</title>
</circle><line x1="725.960022" y1="275.959991" x2="315.959991" y2="583.960022" stroke="red" stroke-width="6.660000" />
<circle cx="1263.959961" cy="1225.959961" r="19.980000" fill="red">
  <title>Chongqing</title>
</circle><line x1="315.959991" y1="583.960022" x2="1263.959961" y2="1225.959961" stroke="red" stroke-width="6.660000" />
<circle cx="1209.959961" cy="1453.959961" r="19.980000" fill="red">
  <title>Buenos Aires</title>
</circle><line x1="1263.959961" y1="1225.959961" x2="1209.959961" y2="1453.959961" stroke="red" stroke-width="6.660000" />
<circle cx="1138.959961" cy="1402.959961" r="19.980000" fill="red">
  <title>Beijing</title>
</circle><line x1="1209.959961" y1="1453.959961" x2="1138.959961" y2="1402.959961" stroke="red" stroke-width="6.660000" />
<circle cx="739.960022" cy="1816.959961" r="19.980000" fill="red">
  <title>Istanbul</title>
</circle><line x1="1138.959961" y1="1402.959961" x2="739.960022" y2="1816.959961" stroke="red" stroke-width="6.660000" />
<circle cx="1520.959961" cy="1984.959961" r="19.980000" fill="red">
  <title>Delhi</title>
</circle><line x1="739.960022" y1="1816.959961" x2="1520.959961" y2="1984.959961" stroke="red" stroke-width="6.660000" />
<circle cx="1984.959961" cy="2014.959961" r="19.980000" fill="red">
  <title>Karachi</title>
</circle><line x1="1520.959961" y1="1984.959961" x2="1984.959961" y2="2014.959961" stroke="red" stroke-width="6.660000" />
</svg>
