<?xml version="1.0" encoding="UTF-8" standalone="no"?>
<svg width="500" height="500" viewBox="0 0 2074.000000 2074.000000" xmlns="http://www.w3.org/2000/svg">
<rect x="19.000000" y="19.000000" width="2036.000000" height="2036.000000" fill="black" />
<circle cx="2007.959961" cy="309.959991" r="19.980000" fill="red">
  <title>Tokyo</title>
</circle><line x1="1667.959961" y1="935.960022" x2="2007.959961" y2="309.959991" stroke="red" stroke-width="6.660000" />
<circle cx="2020.959961" cy="201.959991" r="19.980000" fill="red">
  <title>Manila</title>
</circle><line x1="2007.959961" y1="309.959991" x2="2020.959961" y2="201.959991" stroke="red" stroke-width="6.660000" />
<circle cx="1688.959961" cy="720.960022" r="19.980000" fill="red">
  <title>Kolkata</title>
</circle><line x1="2020.959961" y1="201.959991" x2="1688.959961" y2="720.960022" stroke="red" stroke-width="6.660000" />
<circle cx="1173.959961" cy="879.960022" r="19.980000" fill="red">
  <title>Mexico City</title>
</circle><line x1="1688.959961" y1="720.960022" x2="1173.959961" y2="879.960022" stroke="red" stroke-width="6.660000" />
<circle cx="895.960022" cy="354.959991" r="19.980000" fill="red">
  <title>New York</title>
</circle><line x1="1173.959961" y1="879.960022" x2="895.960022" y2="354.959991" stroke="red" stroke-width="6.660000" />
<circle cx="953.960022" cy="139.959991" r="19.980000" fill="red">
  <title>Shanghai</title>
</circle><line x1="895.960022" y1="354.959991" x2="953.960022" y2="139.959991" stroke="red" stroke-width="6.660000" />
<circle cx="648.960022" cy="312.959991" r="19.980000" fill="red">
  <title>Dhaka</title>
</circle><line x1="953.960022" y1="139.959991" x2="648.960022" y2="312.959991" stroke="red" stroke-width="6.660000" />
<circle cx="337.959991" cy="316.959991" r="19.980000" fill="red">
  <title>Beijing</title>
</circle><line x1="648.960022" y1="312.959991" x2="337.959991" y2="316.959991" stroke="red" stroke-width="6.660000" />
<circle cx="551.960022" cy="986.960022" r="19.980000" fill="red">
  <title>Delhi</title>
</circle><line x1="337.959991" y1="316.959991" x2="551.960022" y2="986.960022" stroke="red" stroke-width="6.660000" />
<circle cx="193.959991" cy="1029.959961" r="19.980000" fill="red">
  <title>Buenos Aires</title>
</circle><line x1="551.960022" y1="986.960022" x2="193.959991" y2="1029.959961" stroke="red" stroke-width="6.660000" />
<circle cx="302.959991" cy="1558.959961" r="19.980000" fill="red">
  <title>Rio de Janeiro</title>
</circle><line x1="193.959991" y1="1029.959961" x2="302.959991" y2="1558.959961" stroke="red" stroke-width="6.660000" />
<circle cx="70.959999" cy="1808.959961" r="19.980000" fill="red">
  <title>Chongqing</title>
</circle><line x1="302.959991" y1="1558.959961" x2="70.959999" y2="1808.959961" stroke="red" stroke-width="6.660000" />
<circle cx="751.960022" cy="1749.959961" r="19.980000" fill="red">
  <title>Istanbul</title>
</circle><line x1="70.959999" y1="1808.959961" x2="751.960022" y2="1749.959961" stroke="red" stroke-width="6.660000" />
<circle cx="1043.959961" cy="1692.959961" r="19.980000" fill="red">
  <title>Mumbai</title>
</circle><line x1="751.960022" y1="1749.959961" x2="1043.959961" y2="1692.959961" stroke="red" stroke-width="6.660000" />
<circle cx="1437.959961" cy="1517.959961" r="19.980000" fill="red">
  <title>Cairo</title>
</circle><line x1="1043.959961" y1="1692.959961" x2="1437.959961" y2="1517.959961" stroke="red" stroke-width="6.660000" />
<circle cx="1601.959961" cy="1782.959961" r="19.980000" fill="red">
  <title>Karachi</title>
</circle><line x1="1437.959961" y1="1517.959961" x2="1601.959961" y2="1782.959961" stroke="red" stroke-width="6.660000" />
<circle cx="1928.959961" cy="1476.959961" r="19.980000" fill="red">
  <title>São Paulo</title>
</circle><line x1="1601.959961" y1="1782.959961" x2="1928.959961" y2="1476.959961" stroke="red" stroke-width="6.660000" />
<circle cx="1794.959961" cy="1364.959961" r="19.980000" fill="red">
  <title>Osaka</title>
</circle><line x1="1928.959961" y1="1476.959961" x2="1794.959961" y2="1364.959961" stroke="red" stroke-width="6.660000" />
<circle cx="1667.959961" cy="935.960022" r="19.980000" fill="red">
  <title>Lagos</title>
</circle><line x1="1794.959961" y1="1364.959961" x2="1667.959961" y2="935.960022" stroke="red" stroke-width="6.660000" />
</svg>
