<?xml version="1.0" encoding="UTF-8" standalone="no"?>
<svg width="500" height="500" viewBox="0 0 2074.000000 2074.000000" xmlns="http://www.w3.org/2000/svg">
<rect x="19.000000" y="19.000000" width="2036.000000" height="2036.000000" fill="black" />
<circle cx="706.960022" cy="1621.959961" r="19.980000" fill="red">
  <title>Tokyo</title>
</circle><line x1="335.959991" y1="1779.959961" x2="706.960022" y2="1621.959961" stroke="red" stroke-width="6.660000" />
<circle cx="972.960022" cy="1287.959961" r="19.980000" fill="red">
  <title>Mexico City</title>
</circle><line x1="706.960022" y1="1621.959961" x2="972.960022" y2="1287.959961" stroke="red" stroke-width="6.660000" />
<circle cx="389.959991" cy="479.959991" r="19.980000" fill="red">
  <title>São Paulo</title>
</circle><line x1="972.960022" y1="1287.959961" x2="389.959991" y2="479.959991" stroke="red" stroke-width="6.660000" />
<circle cx="365.959991" cy="92.959999" r="19.980000" fill="red">
  <title>Osaka</title>
</circle><line x1="389.959991" y1="479.959991" x2="365.959991" y2="92.959999" stroke="red" stroke-width="6.660000" />
<circle cx="783.960022" cy="413.959991" r="19.980000" fill="red">
  <title>Beijing</title>
</circle><line x1="365.959991" y1="92.959999" x2="783.960022" y2="413.959991" stroke="red" stroke-width="6.660000" />
<circle cx="1473.959961" cy="75.959999" r="19.980000" fill="red">
  <title>Shanghai</title>
</circle><line x1="783.960022" y1="413.959991" x2="1473.959961" y2="75.959999" stroke="red" stroke-width="6.660000" />
<circle cx="1289.959961" cy="1445.959961" r="19.980000" fill="red">
  <title>Dhaka</title>
</circle><line x1="1473.959961" y1="75.959999" x2="1289.959961" y2="1445.959961" stroke="red" stroke-width="6.660000" />
<circle cx="897.960022" cy="1742.959961" r="19.980000" fill="red">
  <title>Delhi</title>
</circle><line x1="1289.959961" y1="1445.959961" x2="897.960022" y2="1742.959961" stroke="red" stroke-width="6.660000" />
<circle cx="579.960022" cy="1795.959961" r="19.980000" fill="red">
  <title>Mumbai</title>
</circle><line x1="897.960022" y1="1742.959961" x2="579.960022" y2="1795.959961" stroke="red" stroke-width="6.660000" />
<circle cx="335.959991" cy="1779.959961" r="19.980000" fill="red">
  <title>Cairo</title>
</circle><line x1="579.960022" y1="1795.959961" x2="335.959991" y2="1779.959961" stroke="red" stroke-width="6.660000" />
</svg>
