<?xml version="1.0" encoding="UTF-8" standalone="no"?>
<svg width="500" height="500" viewBox="0 0 2074.000000 2074.000000" xmlns="http://www.w3.org/2000/svg">
<rect x="19.000000" y="19.000000" width="2036.000000" height="2036.000000" fill="black" />
<circle cx="939.960022" cy="1347.959961" r="19.980000" fill="red">
  <title>Tokyo</title>
</circle><line x1="1274.959961" y1="369.959991" x2="939.960022" y2="1347.959961" stroke="red" stroke-width="6.660000" />
<circle cx="1086.959961" cy="1319.959961" r="19.980000" fill="red">
  <title>Mexico City</title>
</circle><line x1="939.960022" y1="1347.959961" x2="1086.959961" y2="1319.959961" stroke="red" stroke-width="6.660000" />
<circle cx="1715.959961" cy="1602.959961" r="19.980000" fill="red">
  <title>Delhi</title>
</circle><line x1="1086.959961" y1="1319.959961" x2="1715.959961" y2="1602.959961" stroke="red" stroke-width="6.660000" />
<circle cx="1381.959961" cy="395.959991" r="19.980000" fill="red">
  <title>Shanghai</title>
</circle><line x1="1715.959961" y1="1602.959961" x2="1381.959961" y2="395.959991" stroke="red" stroke-width="6.660000" />
<circle cx="1274.959961" cy="369.959991" r="19.980000" fill="red">
  <title>São Paulo</title>
</circle><line x1="1381.959961" y1="395.959991" x2="1274.959961" y2="369.959991" stroke="red" stroke-width="6.660000" />
</svg>
