<?xml version="1.0" encoding="UTF-8" standalone="no"?>
<svg width="500" height="500" viewBox="0 0 2074.000000 2074.000000" xmlns="http://www.w3.org/2000/svg">
<rect x="19.000000" y="19.000000" width="2036.000000" height="2036.000000" fill="black" />
<circle cx="1360.959961" cy="39.959999" r="19.980000" fill="red">
  <title>Tokyo</title>
</circle><line x1="1194.959961" y1="522.960022" x2="1360.959961" y2="39.959999" stroke="red" stroke-width="6.660000" />
<circle cx="676.960022" cy="86.959999" r="19.980000" fill="red">
  <title>Mexico City</title>
</circle><line x1="1360.959961" y1="39.959999" x2="676.960022" y2="86.959999" stroke="red" stroke-width="6.660000" />
<circle cx="448.959991" cy="107.959999" r="19.980000" fill="red">
  <title>Kolkata</title>
</circle><line x1="676.960022" y1="86.959999" x2="448.959991" y2="107.959999" stroke="red" stroke-width="6.660000" />
<circle cx="545.960022" cy="423.959991" r="19.980000" fill="red">
  <title>Shanghai</title>
</circle><line x1="448.959991" y1="107.959999" x2="545.960022" y2="423.959991" stroke="red" stroke-width="6.660000" />
<circle cx="563.960022" cy="645.960022" r="19.980000" fill="red">
  <title>Dhaka</title>
</circle><line x1="545.960022" y1="423.959991" x2="563.960022" y2="645.960022" stroke="red" stroke-width="6.660000" />
<circle cx="356.959991" cy="1144.959961" r="19.980000" fill="red">
  <title>Rio de Janeiro</title>
</circle><line x1="563.960022" y1="645.960022" x2="356.959991" y2="1144.959961" stroke="red" stroke-width="6.660000" />
<circle cx="785.960022" cy="1088.959961" r="19.980000" fill="red">
  <title>Istanbul</title>
</circle><line x1="356.959991" y1="1144.959961" x2="785.960022" y2="1088.959961" stroke="red" stroke-width="6.660000" />
<circle cx="1033.959961" cy="1013.960022" r="19.980000" fill="red">
  <title>Karachi</title>
</circle><line x1="785.960022" y1="1088.959961" x2="1033.959961" y2="1013.960022" stroke="red" stroke-width="6.660000" />
<circle cx="1229.959961" cy="1441.959961" r="19.980000" fill="red">
  <title>Buenos Aires</title>
</circle><line x1="1033.959961" y1="1013.960022" x2="1229.959961" y2="1441.959961" stroke="red" stroke-width="6.660000" />
<circle cx="1039.959961" cy="1482.959961" r="19.980000" fill="red">
  <title>Beijing</title>
</circle><line x1="1229.959961" y1="1441.959961" x2="1039.959961" y2="1482.959961" stroke="red" stroke-width="6.660000" />
<circle cx="813.960022" cy="1828.959961" r="19.980000" fill="red">
  <title>New York</title>
</circle><line x1="1039.959961" y1="1482.959961" x2="813.960022" y2="1828.959961" stroke="red" stroke-width="6.660000" />
<circle cx="1088.959961" cy="1970.959961" r="19.980000" fill="red">
  <title>Manila</title>
</circle><line x1="813.960022" y1="1828.959961" x2="1088.959961" y2="1970.959961" stroke="red" stroke-width="6.660000" />
<circle cx="1415.959961" cy="1797.959961" r="19.980000" fill="red">
  <title>Mumbai</title>
</circle><line x1="1088.959961" y1="1970.959961" x2="1415.959961" y2="1797.959961" stroke="red" stroke-width="6.660000" />
<circle cx="1561.959961" cy="1756.959961" r="19.980000" fill="red">
  <title>Delhi</title>
</circle><line x1="1415.959961" y1="1797.959961" x2="1561.959961" y2="1756.959961" stroke="red" stroke-width="6.660000" />
<circle cx="1912.959961" cy="1858.959961" r="19.980000" fill="red">
  <title>Cairo</title>
</circle><line x1="1561.959961" y1="1756.959961" x2="1912.959961" y2="1858.959961" stroke="red" stroke-width="6.660000" />
<circle cx="1825.959961" cy="1595.959961" r="19.980000" fill="red">
  <title>Lagos</title>
</circle><line x1="1912.959961" y1="1858.959961" x2="1825.959961" y2="1595.959961" stroke="red" stroke-width="6.660000" />
<circle cx="1989.959961" cy="993.960022" r="19.980000" fill="red">
  <title>Tianjin</title>
</circle><line x1="1825.959961" y1="1595.959961" x2="1989.959961" y2="993.960022" stroke="red" stroke-width="6.660000" />
<circle cx="1959.959961" cy="800.960022" r="19.980000" fill="red">
  <title>Osaka</title>
</circle><line x1="1989.959961" y1="993.960022" x2="1959.959961" y2="800.960022" stroke="red" stroke-width="6.660000" />
<circle cx="1357.959961" cy="433.959991" r="19.980000" fill="red">
  <title>São Paulo</title>
</circle><line x1="1959.959961" y1="800.960022" x2="1357.959961" y2="433.959991" stroke="red" stroke-width="6.660000" />
<circle cx="1194.959961" cy="522.960022" r="19.980000" fill="red">
  <title>Chongqing</title>
</circle><line x1="1357.959961" y1="433.959991" x2="1194.959961" y2="522.960022" stroke="red" stroke-width="6.660000" />
</svg>
