<?xml version="1.0" encoding="UTF-8" standalone="no"?>
<svg width="500" height="500" viewBox="0 0 2074.000000 2074.000000" xmlns="http://www.w3.org/2000/svg">
<rect x="19.000000" y="19.000000" width="2036.000000" height="2036.000000" fill="black" />
<circle cx="573.960022" cy="639.960022" r="19.980000" fill="red">
  <title>Tokyo</title>
</circle><line x1="439.959991" y1="1445.959961" x2="573.960022" y2="639.960022" stroke="red" stroke-width="6.660000" />
<circle cx="454.959991" cy="122.959999" r="19.980000" fill="red">
  <title>Mumbai</title>
</circle><line x1="573.960022" y1="639.960022" x2="454.959991" y2="122.959999" stroke="red" stroke-width="6.660000" />
<circle cx="1232.959961" cy="386.959991" r="19.980000" fill="red">
  <title>Shanghai</title>
</circle><line x1="454.959991" y1="122.959999" x2="1232.959961" y2="386.959991" stroke="red" stroke-width="6.660000" />
<circle cx="1292.959961" cy="147.959991" r="19.980000" fill="red">
  <title>Delhi</title>
</circle><line x1="1232.959961" y1="386.959991" x2="1292.959961" y2="147.959991" stroke="red" stroke-width="6.660000" />
<circle cx="1532.959961" cy="150.959991" r="19.980000" fill="red">
  <title>Mexico City</title>
</circle><line x1="1292.959961" y1="147.959991" x2="1532.959961" y2="150.959991" stroke="red" stroke-width="6.660000" />
<circle cx="1633.959961" cy="809.960022" r="19.980000" fill="red">
  <title>Karachi</title>
</circle><line x1="1532.959961" y1="150.959991" x2="1633.959961" y2="809.960022" stroke="red" stroke-width="6.660000" />
<circle cx="1970.959961" cy="873.960022" r="19.980000" fill="red">
  <title>Cairo</title>
</circle><line x1="1633.959961" y1="809.960022" x2="1970.959961" y2="873.960022" stroke="red" stroke-width="6.660000" />
<circle cx="1630.959961" cy="1225.959961" r="19.980000" fill="red">
  <title>New York</title>
</circle><line x1="1970.959961" y1="873.960022" x2="1630.959961" y2="1225.959961" stroke="red" stroke-width="6.660000" />
<circle cx="1545.959961" cy="1470.959961" r="19.980000" fill="red">
  <title>Chongqing</title>
</circle><line x1="1630.959961" y1="1225.959961" x2="1545.959961" y2="1470.959961" stroke="red" stroke-width="6.660000" />
<circle cx="1402.959961" cy="1766.959961" r="19.980000" fill="red">
  <title>Beijing</title>
</circle><line x1="1545.959961" y1="1470.959961" x2="1402.959961" y2="1766.959961" stroke="red" stroke-width="6.660000" />
<circle cx="1279.959961" cy="1805.959961" r="19.980000" fill="red">
  <title>São Paulo</title>
</circle><line x1="1402.959961" y1="1766.959961" x2="1279.959961" y2="1805.959961" stroke="red" stroke-width="6.660000" />
<circle cx="867.960022" cy="1556.959961" r="19.980000" fill="red">
  <title>Buenos Aires</title>
</circle><line x1="1279.959961" y1="1805.959961" x2="867.960022" y2="1556.959961" stroke="red" stroke-width="6.660000" />
<circle cx="453.959991" cy="1935.959961" r="19.980000" fill="red">
  <title>Dhaka</title>
</circle><line x1="867.960022" y1="1556.959961" x2="453.959991" y2="1935.959961" stroke="red" stroke-width="6.660000" />
<circle cx="323.959991" cy="1910.959961" r="19.980000" fill="red">
  <title>Istanbul</title>
</circle><line x1="453.959991" y1="1935.959961" x2="323.959991" y2="1910.959961" stroke="red" stroke-width="6.660000" />
<circle cx="439.959991" cy="1445.959961" r="19.980000" fill="red">
  <title>Osaka</title>
</circle><line x1="323.959991" y1="1910.959961" x2="439.959991" y2="1445.959961" stroke="red" stroke-width="6.660000" />
</svg>
