<?xml version="1.0" encoding="UTF-8" standalone="no"?>
<svg width="500" height="500" viewBox="0 0 2074.000000 2074.000000" xmlns="http://www.w3.org/2000/svg">
<rect x="19.000000" y="19.000000" width="2036.000000" height="2036.000000" fill="black" />
<circle cx="1646.959961" cy="374.959991" r="19.980000" fill="red">
  <title>Tokyo</title>
</circle><line x1="1530.959961" y1="53.959999" x2="1646.959961" y2="374.959991" stroke="red" stroke-width="6.660000" />
<circle cx="1692.959961" cy="979.960022" r="19.980000" fill="red">
  <title>Mexico City</title>
</circle><line x1="1646.959961" y1="374.959991" x2="1692.959961" y2="979.960022" stroke="red" stroke-width="6.660000" />
<circle cx="1700.959961" cy="1104.959961" r="19.980000" fill="red">
  <title>Karachi</title>
</circle><line x1="1692.959961" y1="979.960022" x2="1700.959961" y2="1104.959961" stroke="red" stroke-width="6.660000" />
<circle cx="1402.959961" cy="899.960022" r="19.980000" fill="red">
  <title>Dhaka</title>
</circle><line x1="1700.959961" y1="1104.959961" x2="1402.959961" y2="899.960022" stroke="red" stroke-width="6.660000" />
<circle cx="1129.959961" cy="877.960022" r="19.980000" fill="red">
  <title>Beijing</title>
</circle><line x1="1402.959961" y1="899.960022" x2="1129.959961" y2="877.960022" stroke="red" stroke-width="6.660000" />
<circle cx="785.960022" cy="1311.959961" r="19.980000" fill="red">
  <title>Cairo</title>
</circle><line x1="1129.959961" y1="877.960022" x2="785.960022" y2="1311.959961" stroke="red" stroke-width="6.660000" />
<circle cx="1262.959961" cy="1914.959961" r="19.980000" fill="red">
  <title>Chongqing</title>
</circle><line x1="785.960022" y1="1311.959961" x2="1262.959961" y2="1914.959961" stroke="red" stroke-width="6.660000" />
<circle cx="844.960022" cy="1737.959961" r="19.980000" fill="red">
  <title>Osaka</title>
</circle><line x1="1262.959961" y1="1914.959961" x2="844.960022" y2="1737.959961" stroke="red" stroke-width="6.660000" />
<circle cx="126.959999" cy="1445.959961" r="19.980000" fill="red">
  <title>Buenos Aires</title>
</circle><line x1="844.960022" y1="1737.959961" x2="126.959999" y2="1445.959961" stroke="red" stroke-width="6.660000" />
<circle cx="419.959991" cy="1302.959961" r="19.980000" fill="red">
  <title>Shanghai</title>
</circle><line x1="126.959999" y1="1445.959961" x2="419.959991" y2="1302.959961" stroke="red" stroke-width="6.660000" />
<circle cx="513.960022" cy="655.960022" r="19.980000" fill="red">
  <title>Mumbai</title>
</circle><line x1="419.959991" y1="1302.959961" x2="513.960022" y2="655.960022" stroke="red" stroke-width="6.660000" />
<circle cx="445.959991" cy="450.959991" r="19.980000" fill="red">
  <title>Istanbul</title>
</circle><line x1="513.960022" y1="655.960022" x2="445.959991" y2="450.959991" stroke="red" stroke-width="6.660000" />
<circle cx="703.960022" cy="100.959999" r="19.980000" fill="red">
  <title>Delhi</title>
</circle><line x1="445.959991" y1="450.959991" x2="703.960022" y2="100.959999" stroke="red" stroke-width="6.660000" />
<circle cx="786.960022" cy="196.959991" r="19.980000" fill="red">
  <title>Manila</title>
</circle><line x1="703.960022" y1="100.959999" x2="786.960022" y2="196.959991" stroke="red" stroke-width="6.660000" />
<circle cx="1293.959961" cy="210.959991" r="19.980000" fill="red">
  <title>New York</title>
</circle><line x1="786.960022" y1="196.959991" x2="1293.959961" y2="210.959991" stroke="red" stroke-width="6.660000" />
<circle cx="1361.959961" cy="108.959999" r="19.980000" fill="red">
  <title>São Paulo</title>
</circle><line x1="1293.959961" y1="210.959991" x2="1361.959961" y2="108.959999" stroke="red" stroke-width="6.660000" />
<circle cx="1530.959961" cy="53.959999" r="19.980000" fill="red">
  <title>Kolkata</title>
</circle><line x1="1361.959961" y1="108.959999" x2="1530.959961" y2="53.959999" stroke="red" stroke-width="6.660000" />
</svg>
