<?xml version="1.0" encoding="UTF-8" standalone="no"?>
<svg width="500" height="500" viewBox="0 0 2074.000000 2074.000000" xmlns="http://www.w3.org/2000/svg">
<rect x="19.000000" y="19.000000" width="2036.000000" height="2036.000000" fill="black" />
<circle cx="1955.959961" cy="1651.959961" r="19.980000" fill="red">
  <title>Tokyo</title>
</circle><line x1="2037.959961" y1="484.959991" x2="1955.959961" y2="1651.959961" stroke="red" stroke-width="6.660000" />
<circle cx="1606.959961" cy="1770.959961" r="19.980000" fill="red">
  <title>São Paulo</title>
</circle><line x1="1955.959961" y1="1651.959961" x2="1606.959961" y2="1770.959961" stroke="red" stroke-width="6.660000" />
<circle cx="149.959991" cy="1997.959961" r="19.980000" fill="red">
  <title>Beijing</title>
</circle><line x1="1606.959961" y1="1770.959961" x2="149.959991" y2="1997.959961" stroke="red" stroke-width="6.660000" />
<circle cx="358.959991" cy="440.959991" r="19.980000" fill="red">
  <title>Delhi</title>
</circle><line x1="149.959991" y1="1997.959961" x2="358.959991" y2="440.959991" stroke="red" stroke-width="6.660000" />
<circle cx="180.959991" cy="365.959991" r="19.980000" fill="red">
  <title>Cairo</title>
</circle><line x1="358.959991" y1="440.959991" x2="180.959991" y2="365.959991" stroke="red" stroke-width="6.660000" />
<circle cx="618.960022" cy="196.959991" r="19.980000" fill="red">
  <title>Osaka</title>
</circle><line x1="180.959991" y1="365.959991" x2="618.960022" y2="196.959991" stroke="red" stroke-width="6.660000" />
<circle cx="1077.959961" cy="125.959999" r="19.980000" fill="red">
  <title>Dhaka</title>
</circle><line x1="618.960022" y1="196.959991" x2="1077.959961" y2="125.959999" stroke="red" stroke-width="6.660000" />
<circle cx="1496.959961" cy="518.960022" r="19.980000" fill="red">
  <title>Mexico City</title>
</circle><line x1="1077.959961" y1="125.959999" x2="1496.959961" y2="518.960022" stroke="red" stroke-width="6.660000" />
<circle cx="1530.959961" cy="444.959991" r="19.980000" fill="red">
  <title>Shanghai</title>
</circle><line x1="1496.959961" y1="518.960022" x2="1530.959961" y2="444.959991" stroke="red" stroke-width="6.660000" />
<circle cx="2037.959961" cy="484.959991" r="19.980000" fill="red">
  <title>Mumbai</title>
</circle><line x1="1530.959961" y1="444.959991" x2="2037.959961" y2="484.959991" stroke="red" stroke-width="6.660000" />
</svg>
