<?xml version="1.0" encoding="UTF-8" standalone="no"?>
<svg width="500" height="500" viewBox="0 0 2074.000000 2074.000000" xmlns="http://www.w3.org/2000/svg">
<rect x="19.000000" y="19.000000" width="2036.000000" height="2036.000000" fill="black" />
<circle cx="1681.959961" cy="219.959991" r="19.980000" fill="red">
  <title>Tokyo</title>
</circle><line x1="288.959991" y1="714.960022" x2="1681.959961" y2="219.959991" stroke="red" stroke-width="6.660000" />
<circle cx="1679.959961" cy="1169.959961" r="19.980000" fill="red">
  <title>Cairo</title>
</circle><line x1="1681.959961" y1="219.959991" x2="1679.959961" y2="1169.959961" stroke="red" stroke-width="6.660000" />
<circle cx="1211.959961" cy="1653.959961" r="19.980000" fill="red">
  <title>São Paulo</title>
</circle><line x1="1679.959961" y1="1169.959961" x2="1211.959961" y2="1653.959961" stroke="red" stroke-width="6.660000" />
<circle cx="978.960022" cy="1923.959961" r="19.980000" fill="red">
  <title>Delhi</title>
</circle><line x1="1211.959961" y1="1653.959961" x2="978.960022" y2="1923.959961" stroke="red" stroke-width="6.660000" />
<circle cx="536.960022" cy="860.960022" r="19.980000" fill="red">
  <title>Mexico City</title>
</circle><line x1="978.960022" y1="1923.959961" x2="536.960022" y2="860.960022" stroke="red" stroke-width="6.660000" />
<circle cx="288.959991" cy="714.960022" r="19.980000" fill="red">
  <title>Shanghai</title>
</circle><line x1="536.960022" y1="860.960022" x2="288.959991" y2="714.960022" stroke="red" stroke-width="6.660000" />
</svg>
