<?xml version="1.0" encoding="UTF-8" standalone="no"?>
<svg width="500" height="500" viewBox="0 0 2074.000000 2074.000000" xmlns="http://www.w3.org/2000/svg">
<rect x="19.000000" y="19.000000" width="2036.000000" height="2036.000000" fill="black" />
<circle cx="1634.959961" cy="1871.959961" r="19.980000" fill="red">
  <title>Tokyo</title>
</circle><line x1="791.960022" y1="1789.959961" x2="1634.959961" y2="1871.959961" stroke="red" stroke-width="6.660000" />
<circle cx="1732.959961" cy="1599.959961" r="19.980000" fill="red">
  <title>Karachi</title>
</circle><line x1="1634.959961" y1="1871.959961" x2="1732.959961" y2="1599.959961" stroke="red" stroke-width="6.660000" />
<circle cx="1836.959961" cy="1350.959961" r="19.980000" fill="red">
  <title>Istanbul</title>
</circle><line x1="1732.959961" y1="1599.959961" x2="1836.959961" y2="1350.959961" stroke="red" stroke-width="6.660000" />
<circle cx="1927.959961" cy="1345.959961" r="19.980000" fill="red">
  <title>Cairo</title>
</circle><line x1="1836.959961" y1="1350.959961" x2="1927.959961" y2="1345.959961" stroke="red" stroke-width="6.660000" />
<circle cx="1878.959961" cy="896.960022" r="19.980000" fill="red">
  <title>São Paulo</title>
</circle><line x1="1927.959961" y1="1345.959961" x2="1878.959961" y2="896.960022" stroke="red" stroke-width="6.660000" />
<circle cx="1884.959961" cy="852.960022" r="19.980000" fill="red">
  <title>Beijing</title>
</circle><line x1="1878.959961" y1="896.960022" x2="1884.959961" y2="852.960022" stroke="red" stroke-width="6.660000" />
<circle cx="2031.959961" cy="112.959999" r="19.980000" fill="red">
  <title>New York</title>
</circle><line x1="1884.959961" y1="852.960022" x2="2031.959961" y2="112.959999" stroke="red" stroke-width="6.660000" />
<circle cx="1652.959961" cy="629.960022" r="19.980000" fill="red">
  <title>Chongqing</title>
</circle><line x1="2031.959961" y1="112.959999" x2="1652.959961" y2="629.960022" stroke="red" stroke-width="6.660000" />
<circle cx="1183.959961" cy="377.959991" r="19.980000" fill="red">
  <title>Lagos</title>
</circle><line x1="1652.959961" y1="629.960022" x2="1183.959961" y2="377.959991" stroke="red" stroke-width="6.660000" />
<circle cx="986.960022" cy="742.960022" r="19.980000" fill="red">
  <title>Buenos Aires</title>
</circle><line x1="1183.959961" y1="377.959991" x2="986.960022" y2="742.960022" stroke="red" stroke-width="6.660000" />
<circle cx="946.960022" cy="864.960022" r="19.980000" fill="red">
  <title>Dhaka</title>
</circle><line x1="986.960022" y1="742.960022" x2="946.960022" y2="864.960022" stroke="red" stroke-width="6.660000" />
<circle cx="1235.959961" cy="1079.959961" r="19.980000" fill="red">
  <title>Tianjin</title>
</circle><line x1="946.960022" y1="864.960022" x2="1235.959961" y2="1079.959961" stroke="red" stroke-width="6.660000" />
<circle cx="1231.959961" cy="1188.959961" r="19.980000" fill="red">
  <title>Shanghai</title>
</circle><line x1="1235.959961" y1="1079.959961" x2="1231.959961" y2="1188.959961" stroke="red" stroke-width="6.660000" />
<circle cx="1184.959961" cy="1335.959961" r="19.980000" fill="red">
  <title>Manila</title>
</circle><line x1="1231.959961" y1="1188.959961" x2="1184.959961" y2="1335.959961" stroke="red" stroke-width="6.660000" />
<circle cx="908.960022" cy="1106.959961" r="19.980000" fill="red">
  <title>Osaka</title>
</circle><line x1="1184.959961" y1="1335.959961" x2="908.960022" y2="1106.959961" stroke="red" stroke-width="6.660000" />
<circle cx="485.959991" cy="1024.959961" r="19.980000" fill="red">
  <title>Rio de Janeiro</title>
</circle><line x1="908.960022" y1="1106.959961" x2="485.959991" y2="1024.959961" stroke="red" stroke-width="6.660000" />
<circle cx="583.960022" cy="1432.959961" r="19.980000" fill="red">
  <title>Kolkata</title>
</circle><line x1="485.959991" y1="1024.959961" x2="583.960022" y2="1432.959961" stroke="red" stroke-width="6.660000" />
<circle cx="454.959991" cy="1784.959961" r="19.980000" fill="red">
  <title>Mumbai</title>
</circle><line x1="583.960022" y1="1432.959961" x2="454.959991" y2="1784.959961" stroke="red" stroke-width="6.660000" />
<circle cx="632.960022" cy="1966.959961" r="19.980000" fill="red">
  <title>Mexico City</title>
</circle><line x1="454.959991" y1="1784.959961" x2="632.960022" y2="1966.959961" stroke="red" stroke-width="6.660000" />
<circle cx="791.960022" cy="1789.959961" r="19.980000" fill="red">
  <title>Delhi</title>
</circle><line x1="632.960022" y1="1966.959961" x2="791.960022" y2="1789.959961" stroke="red" stroke-width="6.660000" />
</svg>
