<?xml version="1.0" encoding="UTF-8" standalone="no"?>
<svg width="500" height="500" viewBox="0 0 2074.000000 2074.000000" xmlns="http://www.w3.org/2000/svg">
<rect x="19.000000" y="19.000000" width="2036.000000" height="2036.000000" fill="black" />
<circle cx="1048.959961" cy="794.960022" r="19.980000" fill="red">
  <title>Tokyo</title>
</circle><line x1="1462.959961" y1="401.959991" x2="1048.959961" y2="794.960022" stroke="red" stroke-width="6.660000" />
<circle cx="839.960022" cy="1161.959961" r="19.980000" fill="red">
  <title>Delhi</title>
</circle><line x1="1048.959961" y1="794.960022" x2="839.960022" y2="1161.959961" stroke="red" stroke-width="6.660000" />
<circle cx="1960.959961" cy="1831.959961" r="19.980000" fill="red">
  <title>Shanghai</title>
</circle><line x1="839.960022" y1="1161.959961" x2="1960.959961" y2="1831.959961" stroke="red" stroke-width="6.660000" />
<circle cx="1590.959961" cy="1891.959961" r="19.980000" fill="red">
  <title>Mumbai</title>
</circle><line x1="1960.959961" y1="1831.959961" x2="1590.959961" y2="1891.959961" stroke="red" stroke-width="6.660000" />
<circle cx="595.960022" cy="1857.959961" r="19.980000" fill="red">
  <title>São Paulo</title>
</circle><line x1="1590.959961" y1="1891.959961" x2="595.960022" y2="1857.959961" stroke="red" stroke-width="6.660000" />
<circle cx="225.959991" cy="1087.959961" r="19.980000" fill="red">
  <title>Cairo</title>
</circle><line x1="595.960022" y1="1857.959961" x2="225.959991" y2="1087.959961" stroke="red" stroke-width="6.660000" />
<circle cx="459.959991" cy="482.959991" r="19.980000" fill="red">
  <title>Beijing</title>
</circle><line x1="225.959991" y1="1087.959961" x2="459.959991" y2="482.959991" stroke="red" stroke-width="6.660000" />
<circle cx="1462.959961" cy="401.959991" r="19.980000" fill="red">
  <title>Mexico City</title>
</circle><line x1="459.959991" y1="482.959991" x2="1462.959961" y2="401.959991" stroke="red" stroke-width="6.660000" />
</svg>
