<?xml version="1.0" encoding="UTF-8" standalone="no"?>
<svg width="500" height="500" viewBox="0 0 2074.000000 2074.000000" xmlns="http://www.w3.org/2000/svg">
<rect x="19.000000" y="19.000000" width="2036.000000" height="2036.000000" fill="black" />
<circle cx="900.960022" cy="1400.959961" r="19.980000" fill="red">
  <title>Tokyo</title>
</circle><line x1="886.960022" y1="1332.959961" x2="900.960022" y2="1400.959961" stroke="red" stroke-width="6.660000" />
<circle cx="1172.959961" cy="1435.959961" r="19.980000" fill="red">
  <title>Kolkata</title>
</circle><line x1="900.960022" y1="1400.959961" x2="1172.959961" y2="1435.959961" stroke="red" stroke-width="6.660000" />
<circle cx="1387.959961" cy="1861.959961" r="19.980000" fill="red">
  <title>Beijing</title>
</circle><line x1="1172.959961" y1="1435.959961" x2="1387.959961" y2="1861.959961" stroke="red" stroke-width="6.660000" />
<circle cx="1489.959961" cy="1556.959961" r="19.980000" fill="red">
  <title>Mumbai</title>
</circle><line x1="1387.959961" y1="1861.959961" x2="1489.959961" y2="1556.959961" stroke="red" stroke-width="6.660000" />
<circle cx="1844.959961" cy="1189.959961" r="19.980000" fill="red">
  <title>Chongqing</title>
</circle><line x1="1489.959961" y1="1556.959961" x2="1844.959961" y2="1189.959961" stroke="red" stroke-width="6.660000" />
<circle cx="1833.959961" cy="562.960022" r="19.980000" fill="red">
  <title>Shanghai</title>
</circle><line x1="1844.959961" y1="1189.959961" x2="1833.959961" y2="562.960022" stroke="red" stroke-width="6.660000" />
<circle cx="1855.959961" cy="57.959999" r="19.980000" fill="red">
  <title>Rio de Janeiro</title>
</circle><line x1="1833.959961" y1="562.960022" x2="1855.959961" y2="57.959999" stroke="red" stroke-width="6.660000" />
<circle cx="1303.959961" cy="356.959991" r="19.980000" fill="red">
  <title>Dhaka</title>
</circle><line x1="1855.959961" y1="57.959999" x2="1303.959961" y2="356.959991" stroke="red" stroke-width="6.660000" />
<circle cx="1060.959961" cy="91.959999" r="19.980000" fill="red">
  <title>Tianjin</title>
</circle><line x1="1303.959961" y1="356.959991" x2="1060.959961" y2="91.959999" stroke="red" stroke-width="6.660000" />
<circle cx="120.959999" cy="279.959991" r="19.980000" fill="red">
  <title>New York</title>
</circle><line x1="1060.959961" y1="91.959999" x2="120.959999" y2="279.959991" stroke="red" stroke-width="6.660000" />
<circle cx="871.960022" cy="417.959991" r="19.980000" fill="red">
  <title>São Paulo</title>
</circle><line x1="120.959999" y1="279.959991" x2="871.960022" y2="417.959991" stroke="red" stroke-width="6.660000" />
<circle cx="1159.959961" cy="568.960022" r="19.980000" fill="red">
  <title>Osaka</title>
</circle><line x1="871.960022" y1="417.959991" x2="1159.959961" y2="568.960022" stroke="red" stroke-width="6.660000" />
<circle cx="1224.959961" cy="682.960022" r="19.980000" fill="red">
  <title>Lagos</title>
</circle><line x1="1159.959961" y1="568.960022" x2="1224.959961" y2="682.960022" stroke="red" stroke-width="6.660000" />
<circle cx="874.960022" cy="1078.959961" r="19.980000" fill="red">
  <title>Cairo</title>
</circle><line x1="1224.959961" y1="682.960022" x2="874.960022" y2="1078.959961" stroke="red" stroke-width="6.660000" />
<circle cx="565.960022" cy="1228.959961" r="19.980000" fill="red">
  <title>Buenos Aires</title>
</circle><line x1="874.960022" y1="1078.959961" x2="565.960022" y2="1228.959961" stroke="red" stroke-width="6.660000" />
<circle cx="273.959991" cy="1313.959961" r="19.980000" fill="red">
  <title>Mexico City</title>
</circle><line x1="565.960022" y1="1228.959961" x2="273.959991" y2="1313.959961" stroke="red" stroke-width="6.660000" />
<circle cx="71.959999" cy="1508.959961" r="19.980000" fill="red">
  <title>Karachi</title>
</circle><line x1="273.959991" y1="1313.959961" x2="71.959999" y2="1508.959961" stroke="red" stroke-width="6.660000" />
<circle cx="198.959991" cy="1826.959961" r="19.980000" fill="red">
  <title>Delhi</title>
</circle><line x1="71.959999" y1="1508.959961" x2="198.959991" y2="1826.959961" stroke="red" stroke-width="6.660000" />
<circle cx="574.960022" cy="1524.959961" r="19.980000" fill="red">
  <title>Istanbul</title>
</circle><line x1="198.959991" y1="1826.959961" x2="574.960022" y2="1524.959961" stroke="red" stroke-width="6.660000" />
<circle cx="886.960022" cy="1332.959961" r="19.980000" fill="red">
  <title>Manila</title>
</circle><line x1="574.960022" y1="1524.959961" x2="886.960022" y2="1332.959961" stroke="red" stroke-width="6.660000" />
</svg>
