<?xml version="1.0" encoding="UTF-8" standalone="no"?>
<svg width="500" height="500" viewBox="0 0 2074.000000 2074.000000" xmlns="http://www.w3.org/2000/svg">
<rect x="19.000000" y="19.000000" width="2036.000000" height="2036.000000" fill="black" />
<circle cx="771.960022" cy="60.959999" r="19.980000" fill="red">
  <title>Tokyo</title>
</circle><line x1="571.960022" y1="209.959991" x2="771.960022" y2="60.959999" stroke="red" stroke-width="6.660000" />
<circle cx="722.960022" cy="218.959991" r="19.980000" fill="red">
  <title>Shanghai</title>
</circle><line x1="771.960022" y1="60.959999" x2="722.960022" y2="218.959991" stroke="red" stroke-width="6.660000" />
<circle cx="1128.959961" cy="1401.959961" r="19.980000" fill="red">
  <title>Mumbai</title>
</circle><line x1="722.960022" y1="218.959991" x2="1128.959961" y2="1401.959961" stroke="red" stroke-width="6.660000" />
<circle cx="270.959991" cy="1685.959961" r="19.980000" fill="red">
  <title>Delhi</title>
</circle><line x1="1128.959961" y1="1401.959961" x2="270.959991" y2="1685.959961" stroke="red" stroke-width="6.660000" />
<circle cx="443.959991" cy="844.960022" r="19.980000" fill="red">
  <title>Mexico City</title>
</circle><line x1="270.959991" y1="1685.959961" x2="443.959991" y2="844.960022" stroke="red" stroke-width="6.660000" />
<circle cx="272.959991" cy="209.959991" r="19.980000" fill="red">
  <title>Cairo</title>
</circle><line x1="443.959991" y1="844.960022" x2="272.959991" y2="209.959991" stroke="red" stroke-width="6.660000" />
<circle cx="571.960022" cy="209.959991" r="19.980000" fill="red">
  <title>São Paulo</title>
</circle><line x1="272.959991" y1="209.959991" x2="571.960022" y2="209.959991" stroke="red" stroke-width="6.660000" />
</svg>
