<?xml version="1.0" encoding="UTF-8" standalone="no"?>
<svg width="500" height="500" viewBox="0 0 2074.000000 2074.000000" xmlns="http://www.w3.org/2000/svg">
<rect x="19.000000" y="19.000000" width="2036.000000" height="2036.000000" fill="black" />
<circle cx="258.959991" cy="1367.959961" r="19.980000" fill="red">
  <title>Tokyo</title>
</circle><line x1="230.959991" y1="261.959991" x2="258.959991" y2="1367.959961" stroke="red" stroke-width="6.660000" />
<circle cx="645.960022" cy="1549.959961" r="19.980000" fill="red">
  <title>Osaka</title>
</circle><line x1="258.959991" y1="1367.959961" x2="645.960022" y2="1549.959961" stroke="red" stroke-width="6.660000" />
<circle cx="1030.959961" cy="1251.959961" r="19.980000" fill="red">
  <title>Buenos Aires</title>
</circle><line x1="645.960022" y1="1549.959961" x2="1030.959961" y2="1251.959961" stroke="red" stroke-width="6.660000" />
<circle cx="1461.959961" cy="1614.959961" r="19.980000" fill="red">
  <title>Chongqing</title>
</circle><line x1="1030.959961" y1="1251.959961" x2="1461.959961" y2="1614.959961" stroke="red" stroke-width="6.660000" />
<circle cx="1208.959961" cy="2022.959961" r="19.980000" fill="red">
  <title>New York</title>
</circle><line x1="1461.959961" y1="1614.959961" x2="1208.959961" y2="2022.959961" stroke="red" stroke-width="6.660000" />
<circle cx="1433.959961" cy="1956.959961" r="19.980000" fill="red">
  <title>Cairo</title>
</circle><line x1="1208.959961" y1="2022.959961" x2="1433.959961" y2="1956.959961" stroke="red" stroke-width="6.660000" />
<circle cx="1603.959961" cy="1862.959961" r="19.980000" fill="red">
  <title>Mumbai</title>
</circle><line x1="1433.959961" y1="1956.959961" x2="1603.959961" y2="1862.959961" stroke="red" stroke-width="6.660000" />
<circle cx="1966.959961" cy="1417.959961" r="19.980000" fill="red">
  <title>São Paulo</title>
</circle><line x1="1603.959961" y1="1862.959961" x2="1966.959961" y2="1417.959961" stroke="red" stroke-width="6.660000" />
<circle cx="1748.959961" cy="834.960022" r="19.980000" fill="red">
  <title>Delhi</title>
</circle><line x1="1966.959961" y1="1417.959961" x2="1748.959961" y2="834.960022" stroke="red" stroke-width="6.660000" />
<circle cx="1896.959961" cy="354.959991" r="19.980000" fill="red">
  <title>Beijing</title>
</circle><line x1="1748.959961" y1="834.960022" x2="1896.959961" y2="354.959991" stroke="red" stroke-width="6.660000" />
<circle cx="1206.959961" cy="823.960022" r="19.980000" fill="red">
  <title>Karachi</title>
</circle><line x1="1896.959961" y1="354.959991" x2="1206.959961" y2="823.960022" stroke="red" stroke-width="6.660000" />
<circle cx="718.960022" cy="106.959999" r="19.980000" fill="red">
  <title>Shanghai</title>
</circle><line x1="1206.959961" y1="823.960022" x2="718.960022" y2="106.959999" stroke="red" stroke-width="6.660000" />
<circle cx="536.960022" cy="299.959991" r="19.980000" fill="red">
  <title>Dhaka</title>
</circle><line x1="718.960022" y1="106.959999" x2="536.960022" y2="299.959991" stroke="red" stroke-width="6.660000" />
<circle cx="230.959991" cy="261.959991" r="19.980000" fill="red">
  <title>Mexico City</title>
</circle><line x1="536.960022" y1="299.959991" x2="230.959991" y2="261.959991" stroke="red" stroke-width="6.660000" />
</svg>
