<?xml version="1.0" encoding="UTF-8" standalone="no"?>
<svg width="500" height="500" viewBox="0 0 2074.000000 2074.000000" xmlns="http://www.w3.org/2000/svg">
<rect x="19.000000" y="19.000000" width="2036.000000" height="2036.000000" fill="black" />
<circle cx="1091.959961" cy="1755.959961" r="19.980000" fill="red">
  <title>Tokyo</title>
</circle><line x1="847.960022" y1="1769.959961" x2="1091.959961" y2="1755.959961" stroke="red" stroke-width="6.660000" />
<circle cx="1522.959961" cy="1769.959961" r="19.980000" fill="red">
  <title>Shanghai</title>
</circle><line x1="1091.959961" y1="1755.959961" x2="1522.959961" y2="1769.959961" stroke="red" stroke-width="6.660000" />
<circle cx="1709.959961" cy="1369.959961" r="19.980000" fill="red">
  <title>Dhaka</title>
</circle><line x1="1522.959961" y1="1769.959961" x2="1709.959961" y2="1369.959961" stroke="red" stroke-width="6.660000" />
<circle cx="2012.959961" cy="1317.959961" r="19.980000" fill="red">
  <title>Karachi</title>
</circle><line x1="1709.959961" y1="1369.959961" x2="2012.959961" y2="1317.959961" stroke="red" stroke-width="6.660000" />
<circle cx="1963.959961" cy="1032.959961" r="19.980000" fill="red">
  <title>Chongqing</title>
</circle><line x1="2012.959961" y1="1317.959961" x2="1963.959961" y2="1032.959961" stroke="red" stroke-width="6.660000" />
<circle cx="2000.959961" cy="784.960022" r="19.980000" fill="red">
  <title>Beijing</title>
</circle><line x1="1963.959961" y1="1032.959961" x2="2000.959961" y2="784.960022" stroke="red" stroke-width="6.660000" />
<circle cx="1521.959961" cy="176.959991" r="19.980000" fill="red">
  <title>Delhi</title>
</circle><line x1="2000.959961" y1="784.960022" x2="1521.959961" y2="176.959991" stroke="red" stroke-width="6.660000" />
<circle cx="1477.959961" cy="908.960022" r="19.980000" fill="red">
  <title>Buenos Aires</title>
</circle><line x1="1521.959961" y1="176.959991" x2="1477.959961" y2="908.960022" stroke="red" stroke-width="6.660000" />
<circle cx="1580.959961" cy="1140.959961" r="19.980000" fill="red">
  <title>Mexico City</title>
</circle><line x1="1477.959961" y1="908.960022" x2="1580.959961" y2="1140.959961" stroke="red" stroke-width="6.660000" />
<circle cx="770.960022" cy="1535.959961" r="19.980000" fill="red">
  <title>New York</title>
</circle><line x1="1580.959961" y1="1140.959961" x2="770.960022" y2="1535.959961" stroke="red" stroke-width="6.660000" />
<circle cx="572.960022" cy="1311.959961" r="19.980000" fill="red">
  <title>São Paulo</title>
</circle><line x1="770.960022" y1="1535.959961" x2="572.960022" y2="1311.959961" stroke="red" stroke-width="6.660000" />
<circle cx="427.959991" cy="762.960022" r="19.980000" fill="red">
  <title>Istanbul</title>
</circle><line x1="572.960022" y1="1311.959961" x2="427.959991" y2="762.960022" stroke="red" stroke-width="6.660000" />
<circle cx="41.959999" cy="794.960022" r="19.980000" fill="red">
  <title>Mumbai</title>
</circle><line x1="427.959991" y1="762.960022" x2="41.959999" y2="794.960022" stroke="red" stroke-width="6.660000" />
<circle cx="129.959991" cy="1788.959961" r="19.980000" fill="red">
  <title>Cairo</title>
</circle><line x1="41.959999" y1="794.960022" x2="129.959991" y2="1788.959961" stroke="red" stroke-width="6.660000" />
<circle cx="847.960022" cy="1769.959961" r="19.980000" fill="red">
  <title>Osaka</title>
</circle><line x1="129.959991" y1="1788.959961" x2="847.960022" y2="1769.959961" stroke="red" stroke-width="6.660000" />
</svg>
