<?xml version="1.0" encoding="UTF-8" standalone="no"?>
<svg width="500" height="500" viewBox="0 0 2074.000000 2074.000000" xmlns="http://www.w3.org/2000/svg">
<rect x="19.000000" y="19.000000" width="2036.000000" height="2036.000000" fill="black" />
<circle cx="1640.959961" cy="921.960022" r="19.980000" fill="red">
  <title>Tokyo</title>
</circle><line x1="950.960022" y1="914.960022" x2="1640.959961" y2="921.960022" stroke="red" stroke-width="6.660000" />
<circle cx="763.960022" cy="1865.959961" r="19.980000" fill="red">
  <title>Delhi</title>
</circle><line x1="1640.959961" y1="921.960022" x2="763.960022" y2="1865.959961" stroke="red" stroke-width="6.660000" />
<circle cx="106.959999" cy="1282.959961" r="19.980000" fill="red">
  <title>São Paulo</title>
</circle><line x1="763.960022" y1="1865.959961" x2="106.959999" y2="1282.959961" stroke="red" stroke-width="6.660000" />
<circle cx="521.960022" cy="811.960022" r="19.980000" fill="red">
  <title>Mexico City</title>
</circle><line x1="106.959999" y1="1282.959961" x2="521.960022" y2="811.960022" stroke="red" stroke-width="6.660000" />
<circle cx="950.960022" cy="914.960022" r="19.980000" fill="red">
  <title>Shanghai</title>
</circle><line x1="521.960022" y1="811.960022" x2="950.960022" y2="914.960022" stroke="red" stroke-width="6.660000" />
</svg>
