<?xml version="1.0" encoding="UTF-8" standalone="no"?>
<svg width="500" height="500" viewBox="0 0 2074.000000 2074.000000" xmlns="http://www.w3.org/2000/svg">
<rect x="19.000000" y="19.000000" width="2036.000000" height="2036.000000" fill="black" />
<circle cx="888.960022" cy="1511.959961" r="19.980000" fill="red">
  <title>Tokyo</title>
</circle><line x1="1028.959961" y1="2032.959961" x2="888.960022" y2="1511.959961" stroke="red" stroke-width="6.660000" />
<circle cx="726.960022" cy="1297.959961" r="19.980000" fill="red">
  <title>Delhi</title>
</circle><line x1="888.960022" y1="1511.959961" x2="726.960022" y2="1297.959961" stroke="red" stroke-width="6.660000" />
<circle cx="140.959991" cy="1072.959961" r="19.980000" fill="red">
  <title>Dhaka</title>
</circle><line x1="726.960022" y1="1297.959961" x2="140.959991" y2="1072.959961" stroke="red" stroke-width="6.660000" />
<circle cx="350.959991" cy="869.960022" r="19.980000" fill="red">
  <title>Cairo</title>
</circle><line x1="140.959991" y1="1072.959961" x2="350.959991" y2="869.960022" stroke="red" stroke-width="6.660000" />
<circle cx="169.959991" cy="511.959991" r="19.980000" fill="red">
  <title>São Paulo</title>
</circle><line x1="350.959991" y1="869.960022" x2="169.959991" y2="511.959991" stroke="red" stroke-width="6.660000" />
<circle cx="446.959991" cy="148.959991" r="19.980000" fill="red">
  <title>Beijing</title>
</circle><line x1="169.959991" y1="511.959991" x2="446.959991" y2="148.959991" stroke="red" stroke-width="6.660000" />
<circle cx="742.960022" cy="485.959991" r="19.980000" fill="red">
  <title>New York</title>
</circle><line x1="446.959991" y1="148.959991" x2="742.960022" y2="485.959991" stroke="red" stroke-width="6.660000" />
<circle cx="1037.959961" cy="650.960022" r="19.980000" fill="red">
  <title>Chongqing</title>
</circle><line x1="742.960022" y1="485.959991" x2="1037.959961" y2="650.960022" stroke="red" stroke-width="6.660000" />
<circle cx="1621.959961" cy="801.960022" r="19.980000" fill="red">
  <title>Karachi</title>
</circle><line x1="1037.959961" y1="650.960022" x2="1621.959961" y2="801.960022" stroke="red" stroke-width="6.660000" />
<circle cx="1962.959961" cy="440.959991" r="19.980000" fill="red">
  <title>Mumbai</title>
</circle><line x1="1621.959961" y1="801.960022" x2="1962.959961" y2="440.959991" stroke="red" stroke-width="6.660000" />
<circle cx="1826.959961" cy="695.960022" r="19.980000" fill="red">
  <title>Osaka</title>
</circle><line x1="1962.959961" y1="440.959991" x2="1826.959961" y2="695.960022" stroke="red" stroke-width="6.660000" />
<circle cx="1769.959961" cy="1908.959961" r="19.980000" fill="red">
  <title>Mexico City</title>
</circle><line x1="1826.959961" y1="695.960022" x2="1769.959961" y2="1908.959961" stroke="red" stroke-width="6.660000" />
<circle cx="1206.959961" cy="1833.959961" r="19.980000" fill="red">
  <title>Buenos Aires</title>
</circle><line x1="1769.959961" y1="1908.959961" x2="1206.959961" y2="1833.959961" stroke="red" stroke-width="6.660000" />
<circle cx="1028.959961" cy="2032.959961" r="19.980000" fill="red">
  <title>Shanghai</title>
</circle><line x1="1206.959961" y1="1833.959961" x2="1028.959961" y2="2032.959961" stroke="red" stroke-width="6.660000" />
</svg>
