<?xml version="1.0" encoding="UTF-8" standalone="no"?>
<svg width="500" height="500" viewBox="0 0 2074.000000 2074.000000" xmlns="http://www.w3.org/2000/svg">
<rect x="19.000000" y="19.000000" width="2036.000000" height="2036.000000" fill="black" />
<circle cx="1075.959961" cy="1263.959961" r="19.980000" fill="red">
  <title>Tokyo</title>
</circle><line x1="978.960022" y1="385.959991" x2="1075.959961" y2="1263.959961" stroke="red" stroke-width="6.660000" />
<circle cx="91.959999" cy="229.959991" r="19.980000" fill="red">
  <title>Shanghai</title>
</circle><line x1="1075.959961" y1="1263.959961" x2="91.959999" y2="229.959991" stroke="red" stroke-width="6.660000" />
<circle cx="548.960022" cy="249.959991" r="19.980000" fill="red">
  <title>Delhi</title>
</circle><line x1="91.959999" y1="229.959991" x2="548.960022" y2="249.959991" stroke="red" stroke-width="6.660000" />
<circle cx="1274.959961" cy="81.959999" r="19.980000" fill="red">
  <title>São Paulo</title>
</circle><line x1="548.960022" y1="249.959991" x2="1274.959961" y2="81.959999" stroke="red" stroke-width="6.660000" />
<circle cx="978.960022" cy="385.959991" r="19.980000" fill="red">
  <title>Mexico City</title>
</circle><line x1="1274.959961" y1="81.959999" x2="978.960022" y2="385.959991" stroke="red" stroke-width="6.660000" />
</svg>
