<?xml version="1.0" encoding="UTF-8" standalone="no"?>
<svg width="500" height="500" viewBox="0 0 2074.000000 2074.000000" xmlns="http://www.w3.org/2000/svg">
<rect x="19.000000" y="19.000000" width="2036.000000" height="2036.000000" fill="black" />
<circle cx="623.960022" cy="1331.959961" r="19.980000" fill="red">
  <title>Tokyo</title>
</circle><line x1="1573.959961" y1="1505.959961" x2="623.960022" y2="1331.959961" stroke="red" stroke-width="6.660000" />
<circle cx="502.959991" cy="1859.959961" r="19.980000" fill="red">
  <title>São Paulo</title>
</circle><line x1="623.960022" y1="1331.959961" x2="502.959991" y2="1859.959961" stroke="red" stroke-width="6.660000" />
<circle cx="325.959991" cy="1477.959961" r="19.980000" fill="red">
  <title>New York</title>
</circle><line x1="502.959991" y1="1859.959961" x2="325.959991" y2="1477.959961" stroke="red" stroke-width="6.660000" />
<circle cx="498.959991" cy="1271.959961" r="19.980000" fill="red">
  <title>Dhaka</title>
</circle><line x1="325.959991" y1="1477.959961" x2="498.959991" y2="1271.959961" stroke="red" stroke-width="6.660000" />
<circle cx="471.959991" cy="839.960022" r="19.980000" fill="red">
  <title>Cairo</title>
</circle><line x1="498.959991" y1="1271.959961" x2="471.959991" y2="839.960022" stroke="red" stroke-width="6.660000" />
<circle cx="579.960022" cy="860.960022" r="19.980000" fill="red">
  <title>Delhi</title>
</circle><line x1="471.959991" y1="839.960022" x2="579.960022" y2="860.960022" stroke="red" stroke-width="6.660000" />
<circle cx="1141.959961" cy="824.960022" r="19.980000" fill="red">
  <title>Karachi</title>
</circle><line x1="579.960022" y1="860.960022" x2="1141.959961" y2="824.960022" stroke="red" stroke-width="6.660000" />
<circle cx="1470.959961" cy="477.959991" r="19.980000" fill="red">
  <title>Mexico City</title>
</circle><line x1="1141.959961" y1="824.960022" x2="1470.959961" y2="477.959991" stroke="red" stroke-width="6.660000" />
<circle cx="1539.959961" cy="481.959991" r="19.980000" fill="red">
  <title>Osaka</title>
</circle><line x1="1470.959961" y1="477.959991" x2="1539.959961" y2="481.959991" stroke="red" stroke-width="6.660000" />
<circle cx="1837.959961" cy="1052.959961" r="19.980000" fill="red">
  <title>Mumbai</title>
</circle><line x1="1539.959961" y1="481.959991" x2="1837.959961" y2="1052.959961" stroke="red" stroke-width="6.660000" />
<circle cx="1635.959961" cy="1270.959961" r="19.980000" fill="red">
  <title>Shanghai</title>
</circle><line x1="1837.959961" y1="1052.959961" x2="1635.959961" y2="1270.959961" stroke="red" stroke-width="6.660000" />
<circle cx="1573.959961" cy="1505.959961" r="19.980000" fill="red">
  <title>Beijing</title>
</circle><line x1="1635.959961" y1="1270.959961" x2="1573.959961" y2="1505.959961" stroke="red" stroke-width="6.660000" />
</svg>
