<?xml version="1.0" encoding="UTF-8" standalone="no"?>
<svg width="500" height="500" viewBox="0 0 2074.000000 2074.000000" xmlns="http://www.w3.org/2000/svg">
<rect x="19.000000" y="19.000000" width="2036.000000" height="2036.000000" fill="black" />
<circle cx="397.959991" cy="617.960022" r="19.980000" fill="red">
  <title>Tokyo</title>
</circle><line x1="265.959991" y1="1082.959961" x2="397.959991" y2="617.960022" stroke="red" stroke-width="6.660000" />
<circle cx="847.960022" cy="507.959991" r="19.980000" fill="red">
  <title>Mexico City</title>
</circle><line x1="397.959991" y1="617.960022" x2="847.960022" y2="507.959991" stroke="red" stroke-width="6.660000" />
<circle cx="1141.959961" cy="851.960022" r="19.980000" fill="red">
  <title>Delhi</title>
</circle><line x1="847.960022" y1="507.959991" x2="1141.959961" y2="851.960022" stroke="red" stroke-width="6.660000" />
<circle cx="1879.959961" cy="204.959991" r="19.980000" fill="red">
  <title>Cairo</title>
</circle><line x1="1141.959961" y1="851.960022" x2="1879.959961" y2="204.959991" stroke="red" stroke-width="6.660000" />
<circle cx="1451.959961" cy="999.960022" r="19.980000" fill="red">
  <title>Mumbai</title>
</circle><line x1="1879.959961" y1="204.959991" x2="1451.959961" y2="999.960022" stroke="red" stroke-width="6.660000" />
<circle cx="1253.959961" cy="1027.959961" r="19.980000" fill="red">
  <title>Dhaka</title>
</circle><line x1="1451.959961" y1="999.960022" x2="1253.959961" y2="1027.959961" stroke="red" stroke-width="6.660000" />
<circle cx="1177.959961" cy="1109.959961" r="19.980000" fill="red">
  <title>Beijing</title>
</circle><line x1="1253.959961" y1="1027.959961" x2="1177.959961" y2="1109.959961" stroke="red" stroke-width="6.660000" />
<circle cx="1352.959961" cy="1861.959961" r="19.980000" fill="red">
  <title>Shanghai</title>
</circle><line x1="1177.959961" y1="1109.959961" x2="1352.959961" y2="1861.959961" stroke="red" stroke-width="6.660000" />
<circle cx="53.959999" cy="1363.959961" r="19.980000" fill="red">
  <title>São Paulo</title>
</circle><line x1="1352.959961" y1="1861.959961" x2="53.959999" y2="1363.959961" stroke="red" stroke-width="6.660000" />
<circle cx="265.959991" cy="1082.959961" r="19.980000" fill="red">
  <title>Osaka</title>
</circle><line x1="53.959999" y1="1363.959961" x2="265.959991" y2="1082.959961" stroke="red" stroke-width="6.660000" />
</svg>
