<?xml version="1.0" encoding="UTF-8" standalone="no"?>
<svg width="500" height="500" viewBox="0 0 2074.000000 2074.000000" xmlns="http://www.w3.org/2000/svg">
<rect x="19.000000" y="19.000000" width="2036.000000" height="2036.000000" fill="black" />
<circle cx="730.960022" cy="1615.959961" r="19.980000" fill="red">
  <title>Tokyo</title>
</circle><line x1="1760.959961" y1="1980.959961" x2="730.960022" y2="1615.959961" stroke="red" stroke-width="6.660000" />
<circle cx="91.959999" cy="837.960022" r="19.980000" fill="red">
  <title>Delhi</title>
</circle><line x1="730.960022" y1="1615.959961" x2="91.959999" y2="837.960022" stroke="red" stroke-width="6.660000" />
<circle cx="292.959991" cy="1602.959961" r="19.980000" fill="red">
  <title>São Paulo</title>
</circle><line x1="91.959999" y1="837.960022" x2="292.959991" y2="1602.959961" stroke="red" stroke-width="6.660000" />
<circle cx="1760.959961" cy="1980.959961" r="19.980000" fill="red">
  <title>Shanghai</title>
</circle><line x1="292.959991" y1="1602.959961" x2="1760.959961" y2="1980.959961" stroke="red" stroke-width="6.660000" />
</svg>
