<?xml version="1.0" encoding="UTF-8" standalone="no"?>
<svg width="500" height="500" viewBox="0 0 2074.000000 2074.000000" xmlns="http://www.w3.org/2000/svg">
<rect x="19.000000" y="19.000000" width="2036.000000" height="2036.000000" fill="black" />
<circle cx="1431.959961" cy="1945.959961" r="19.980000" fill="red">
  <title>Tokyo</title>
</circle><line x1="1232.959961" y1="1234.959961" x2="1431.959961" y2="1945.959961" stroke="red" stroke-width="6.660000" />
<circle cx="1492.959961" cy="1254.959961" r="19.980000" fill="red">
  <title>Dhaka</title>
</circle><line x1="1431.959961" y1="1945.959961" x2="1492.959961" y2="1254.959961" stroke="red" stroke-width="6.660000" />
<circle cx="2035.959961" cy="687.960022" r="19.980000" fill="red">
  <title>Mumbai</title>
</circle><line x1="1492.959961" y1="1254.959961" x2="2035.959961" y2="687.960022" stroke="red" stroke-width="6.660000" />
<circle cx="1895.959961" cy="502.959991" r="19.980000" fill="red">
  <title>Mexico City</title>
</circle><line x1="2035.959961" y1="687.960022" x2="1895.959961" y2="502.959991" stroke="red" stroke-width="6.660000" />
<circle cx="1691.959961" cy="548.960022" r="19.980000" fill="red">
  <title>São Paulo</title>
</circle><line x1="1895.959961" y1="502.959991" x2="1691.959961" y2="548.960022" stroke="red" stroke-width="6.660000" />
<circle cx="1687.959961" cy="126.959999" r="19.980000" fill="red">
  <title>Cairo</title>
</circle><line x1="1691.959961" y1="548.960022" x2="1687.959961" y2="126.959999" stroke="red" stroke-width="6.660000" />
<circle cx="1083.959961" cy="461.959991" r="19.980000" fill="red">
  <title>Delhi</title>
</circle><line x1="1687.959961" y1="126.959999" x2="1083.959961" y2="461.959991" stroke="red" stroke-width="6.660000" />
<circle cx="508.959991" cy="217.959991" r="19.980000" fill="red">
  <title>Shanghai</title>
</circle><line x1="1083.959961" y1="461.959991" x2="508.959991" y2="217.959991" stroke="red" stroke-width="6.660000" />
<circle cx="627.960022" cy="438.959991" r="19.980000" fill="red">
  <title>Beijing</title>
</circle><line x1="508.959991" y1="217.959991" x2="627.960022" y2="438.959991" stroke="red" stroke-width="6.660000" />
<circle cx="1232.959961" cy="1234.959961" r="19.980000" fill="red">
  <title>Osaka</title>
</circle><line x1="627.960022" y1="438.959991" x2="1232.959961" y2="1234.959961" stroke="red" stroke-width="6.660000" />
</svg>
