<?xml version="1.0" encoding="UTF-8" standalone="no"?>
<svg width="500" height="500" viewBox="0 0 2074.000000 2074.000000" xmlns="http://www.w3.org/2000/svg">
<rect x="19.000000" y="19.000000" width="2036.000000" height="2036.000000" fill="black" />
<circle cx="1834.959961" cy="1071.959961" r="19.980000" fill="red">
  <title>Tokyo</title>
</circle><line x1="1691.959961" y1="881.960022" x2="1834.959961" y2="1071.959961" stroke="red" stroke-width="6.660000" />
<circle cx="1953.959961" cy="1268.959961" r="19.980000" fill="red">
  <title>Shanghai</title>
</circle><line x1="1834.959961" y1="1071.959961" x2="1953.959961" y2="1268.959961" stroke="red" stroke-width="6.660000" />
<circle cx="1489.959961" cy="1886.959961" r="19.980000" fill="red">
  <title>São Paulo</title>
</circle><line x1="1953.959961" y1="1268.959961" x2="1489.959961" y2="1886.959961" stroke="red" stroke-width="6.660000" />
<circle cx="1142.959961" cy="1946.959961" r="19.980000" fill="red">
  <title>New York</title>
</circle><line x1="1489.959961" y1="1886.959961" x2="1142.959961" y2="1946.959961" stroke="red" stroke-width="6.660000" />
<circle cx="781.960022" cy="1860.959961" r="19.980000" fill="red">
  <title>Karachi</title>
</circle><line x1="1142.959961" y1="1946.959961" x2="781.960022" y2="1860.959961" stroke="red" stroke-width="6.660000" />
<circle cx="232.959991" cy="1650.959961" r="19.980000" fill="red">
  <title>Dhaka</title>
</circle><line x1="781.960022" y1="1860.959961" x2="232.959991" y2="1650.959961" stroke="red" stroke-width="6.660000" />
<circle cx="59.959999" cy="1325.959961" r="19.980000" fill="red">
  <title>Cairo</title>
</circle><line x1="232.959991" y1="1650.959961" x2="59.959999" y2="1325.959961" stroke="red" stroke-width="6.660000" />
<circle cx="73.959999" cy="553.960022" r="19.980000" fill="red">
  <title>Mumbai</title>
</circle><line x1="59.959999" y1="1325.959961" x2="73.959999" y2="553.960022" stroke="red" stroke-width="6.660000" />
<circle cx="197.959991" cy="653.960022" r="19.980000" fill="red">
  <title>Mexico City</title>
</circle><line x1="73.959999" y1="553.960022" x2="197.959991" y2="653.960022" stroke="red" stroke-width="6.660000" />
<circle cx="1465.959961" cy="563.960022" r="19.980000" fill="red">
  <title>Beijing</title>
</circle><line x1="197.959991" y1="653.960022" x2="1465.959961" y2="563.960022" stroke="red" stroke-width="6.660000" />
<circle cx="1778.959961" cy="328.959991" r="19.980000" fill="red">
  <title>Buenos Aires</title>
</circle><line x1="1465.959961" y1="563.960022" x2="1778.959961" y2="328.959991" stroke="red" stroke-width="6.660000" />
<circle cx="1768.959961" cy="450.959991" r="19.980000" fill="red">
  <title>Delhi</title>
</circle><line x1="1778.959961" y1="328.959991" x2="1768.959961" y2="450.959991" stroke="red" stroke-width="6.660000" />
<circle cx="1691.959961" cy="881.960022" r="19.980000" fill="red">
  <title>Osaka</title>
</circle><line x1="1768.959961" y1="450.959991" x2="1691.959961" y2="881.960022" stroke="red" stroke-width="6.660000" />
</svg>
