<?xml version="1.0" encoding="UTF-8" standalone="no"?>
<svg width="500" height="500" viewBox="0 0 2074.000000 2074.000000" xmlns="http://www.w3.org/2000/svg">
<rect x="19.000000" y="19.000000" width="2036.000000" height="2036.000000" fill="black" />
<circle cx="1626.959961" cy="1904.959961" r="19.980000" fill="red">
  <title>Tokyo</title>
</circle><line x1="272.959991" y1="1691.959961" x2="1626.959961" y2="1904.959961" stroke="red" stroke-width="6.660000" />
<circle cx="1926.959961" cy="1347.959961" r="19.980000" fill="red">
  <title>Cairo</title>
</circle><line x1="1626.959961" y1="1904.959961" x2="1926.959961" y2="1347.959961" stroke="red" stroke-width="6.660000" />
<circle cx="1331.959961" cy="766.960022" r="19.980000" fill="red">
  <title>Shanghai</title>
</circle><line x1="1926.959961" y1="1347.959961" x2="1331.959961" y2="766.960022" stroke="red" stroke-width="6.660000" />
<circle cx="1479.959961" cy="651.960022" r="19.980000" fill="red">
  <title>São Paulo</title>
</circle><line x1="1331.959961" y1="766.960022" x2="1479.959961" y2="651.960022" stroke="red" stroke-width="6.660000" />
<circle cx="1398.959961" cy="450.959991" r="19.980000" fill="red">
  <title>Delhi</title>
</circle><line x1="1479.959961" y1="651.960022" x2="1398.959961" y2="450.959991" stroke="red" stroke-width="6.660000" />
<circle cx="812.960022" cy="226.959991" r="19.980000" fill="red">
  <title>Mumbai</title>
</circle><line x1="1398.959961" y1="450.959991" x2="812.960022" y2="226.959991" stroke="red" stroke-width="6.660000" />
<circle cx="655.960022" cy="630.960022" r="19.980000" fill="red">
  <title>Mexico City</title>
</circle><line x1="812.960022" y1="226.959991" x2="655.960022" y2="630.960022" stroke="red" stroke-width="6.660000" />
<circle cx="256.959991" cy="1558.959961" r="19.980000" fill="red">
  <title>Beijing</title>
</circle><line x1="655.960022" y1="630.960022" x2="256.959991" y2="1558.959961" stroke="red" stroke-width="6.660000" />
<circle cx="272.959991" cy="1691.959961" r="19.980000" fill="red">
  <title>Dhaka</title>
</circle><line x1="256.959991" y1="1558.959961" x2="272.959991" y2="1691.959961" stroke="red" stroke-width="6.660000" />
</svg>
