<?xml version="1.0" encoding="UTF-8" standalone="no"?>
<svg width="500" height="500" viewBox="0 0 2074.000000 2074.000000" xmlns="http://www.w3.org/2000/svg">
<rect x="19.000000" y="19.000000" width="2036.000000" height="2036.000000" fill="black" />
<circle cx="879.960022" cy="2022.959961" r="19.980000" fill="red">
  <title>Tokyo</title>
</circle><line x1="1039.959961" y1="2012.959961" x2="879.960022" y2="2022.959961" stroke="red" stroke-width="6.660000" />
<circle cx="46.959999" cy="1934.959961" r="19.980000" fill="red">
  <title>Osaka</title>
</circle><line x1="879.960022" y1="2022.959961" x2="46.959999" y2="1934.959961" stroke="red" stroke-width="6.660000" />
<circle cx="424.959991" cy="1583.959961" r="19.980000" fill="red">
  <title>Dhaka</title>
</circle><line x1="46.959999" y1="1934.959961" x2="424.959991" y2="1583.959961" stroke="red" stroke-width="6.660000" />
<circle cx="296.959991" cy="1271.959961" r="19.980000" fill="red">
  <title>Shanghai</title>
</circle><line x1="424.959991" y1="1583.959961" x2="296.959991" y2="1271.959961" stroke="red" stroke-width="6.660000" />
<circle cx="173.959991" cy="980.960022" r="19.980000" fill="red">
  <title>Delhi</title>
</circle><line x1="296.959991" y1="1271.959961" x2="173.959991" y2="980.960022" stroke="red" stroke-width="6.660000" />
<circle cx="353.959991" cy="361.959991" r="19.980000" fill="red">
  <title>New York</title>
</circle><line x1="173.959991" y1="980.960022" x2="353.959991" y2="361.959991" stroke="red" stroke-width="6.660000" />
<circle cx="1082.959961" cy="182.959991" r="19.980000" fill="red">
  <title>São Paulo</title>
</circle><line x1="353.959991" y1="361.959991" x2="1082.959961" y2="182.959991" stroke="red" stroke-width="6.660000" />
<circle cx="1545.959961" cy="337.959991" r="19.980000" fill="red">
  <title>Beijing</title>
</circle><line x1="1082.959961" y1="182.959991" x2="1545.959961" y2="337.959991" stroke="red" stroke-width="6.660000" />
<circle cx="1939.959961" cy="400.959991" r="19.980000" fill="red">
  <title>Mexico City</title>
</circle><line x1="1545.959961" y1="337.959991" x2="1939.959961" y2="400.959991" stroke="red" stroke-width="6.660000" />
<circle cx="1668.959961" cy="851.960022" r="19.980000" fill="red">
  <title>Cairo</title>
</circle><line x1="1939.959961" y1="400.959991" x2="1668.959961" y2="851.960022" stroke="red" stroke-width="6.660000" />
<circle cx="1653.959961" cy="922.960022" r="19.980000" fill="red">
  <title>Buenos Aires</title>
</circle><line x1="1668.959961" y1="851.960022" x2="1653.959961" y2="922.960022" stroke="red" stroke-width="6.660000" />
<circle cx="775.960022" cy="1456.959961" r="19.980000" fill="red">
  <title>Mumbai</title>
</circle><line x1="1653.959961" y1="922.960022" x2="775.960022" y2="1456.959961" stroke="red" stroke-width="6.660000" />
<circle cx="1039.959961" cy="2012.959961" r="19.980000" fill="red">
  <title>Karachi</title>
</circle><line x1="775.960022" y1="1456.959961" x2="1039.959961" y2="2012.959961" stroke="red" stroke-width="6.660000" />
</svg>
