<?xml version="1.0" encoding="UTF-8" standalone="no"?>
<svg width="500" height="500" viewBox="0 0 2074.000000 2074.000000" xmlns="http://www.w3.org/2000/svg">
<rect x="19.000000" y="19.000000" width="2036.000000" height="2036.000000" fill="black" />
<circle cx="1588.959961" cy="684.960022" r="19.980000" fill="red">
  <title>Tokyo</title>
</circle><line x1="1457.959961" y1="901.960022" x2="1588.959961" y2="684.960022" stroke="red" stroke-width="6.660000" />
<circle cx="1692.959961" cy="469.959991" r="19.980000" fill="red">
  <title>Shanghai</title>
</circle><line x1="1588.959961" y1="684.960022" x2="1692.959961" y2="469.959991" stroke="red" stroke-width="6.660000" />
<circle cx="1999.959961" cy="593.960022" r="19.980000" fill="red">
  <title>Osaka</title>
</circle><line x1="1692.959961" y1="469.959991" x2="1999.959961" y2="593.960022" stroke="red" stroke-width="6.660000" />
<circle cx="1778.959961" cy="741.960022" r="19.980000" fill="red">
  <title>Cairo</title>
</circle><line x1="1999.959961" y1="593.960022" x2="1778.959961" y2="741.960022" stroke="red" stroke-width="6.660000" />
<circle cx="1857.959961" cy="1303.959961" r="19.980000" fill="red">
  <title>Manila</title>
</circle><line x1="1778.959961" y1="741.960022" x2="1857.959961" y2="1303.959961" stroke="red" stroke-width="6.660000" />
<circle cx="1976.959961" cy="1434.959961" r="19.980000" fill="red">
  <title>Chongqing</title>
</circle><line x1="1857.959961" y1="1303.959961" x2="1976.959961" y2="1434.959961" stroke="red" stroke-width="6.660000" />
<circle cx="1432.959961" cy="1822.959961" r="19.980000" fill="red">
  <title>Mexico City</title>
</circle><line x1="1976.959961" y1="1434.959961" x2="1432.959961" y2="1822.959961" stroke="red" stroke-width="6.660000" />
<circle cx="803.960022" cy="1677.959961" r="19.980000" fill="red">
  <title>Buenos Aires</title>
</circle><line x1="1432.959961" y1="1822.959961" x2="803.960022" y2="1677.959961" stroke="red" stroke-width="6.660000" />
<circle cx="855.960022" cy="1217.959961" r="19.980000" fill="red">
  <title>Karachi</title>
</circle><line x1="803.960022" y1="1677.959961" x2="855.960022" y2="1217.959961" stroke="red" stroke-width="6.660000" />
<circle cx="450.959991" cy="1182.959961" r="19.980000" fill="red">
  <title>New York</title>
</circle><line x1="855.960022" y1="1217.959961" x2="450.959991" y2="1182.959961" stroke="red" stroke-width="6.660000" />
<circle cx="268.959991" cy="1145.959961" r="19.980000" fill="red">
  <title>Delhi</title>
</circle><line x1="450.959991" y1="1182.959961" x2="268.959991" y2="1145.959961" stroke="red" stroke-width="6.660000" />
<circle cx="583.960022" cy="448.959991" r="19.980000" fill="red">
  <title>Mumbai</title>
</circle><line x1="268.959991" y1="1145.959961" x2="583.960022" y2="448.959991" stroke="red" stroke-width="6.660000" />
<circle cx="1073.959961" cy="967.960022" r="19.980000" fill="red">
  <title>Kolkata</title>
</circle><line x1="583.960022" y1="448.959991" x2="1073.959961" y2="967.960022" stroke="red" stroke-width="6.660000" />
<circle cx="1047.959961" cy="1053.959961" r="19.980000" fill="red">
  <title>Dhaka</title>
</circle><line x1="1073.959961" y1="967.960022" x2="1047.959961" y2="1053.959961" stroke="red" stroke-width="6.660000" />
<circle cx="1416.959961" cy="1212.959961" r="19.980000" fill="red">
  <title>Istanbul</title>
</circle><line x1="1047.959961" y1="1053.959961" x2="1416.959961" y2="1212.959961" stroke="red" stroke-width="6.660000" />
<circle cx="1418.959961" cy="1156.959961" r="19.980000" fill="red">
  <title>Beijing</title>
</circle><line x1="1416.959961" y1="1212.959961" x2="1418.959961" y2="1156.959961" stroke="red" stroke-width="6.660000" />
<circle cx="1457.959961" cy="901.960022" r="19.980000" fill="red">
  <title>São Paulo</title>
</circle><line x1="1418.959961" y1="1156.959961" x2="1457.959961" y2="901.960022" stroke="red" stroke-width="6.660000" />
</svg>
