<?xml version="1.0" encoding="UTF-8" standalone="no"?>
<svg width="500" height="500" viewBox="0 0 2074.000000 2074.000000" xmlns="http://www.w3.org/2000/svg">
<rect x="19.000000" y="19.000000" width="2036.000000" height="2036.000000" fill="black" />
<circle cx="159.959991" cy="575.960022" r="19.980000" fill="red">
  <title>Tokyo</title>
</circle><line x1="205.959991" y1="1990.959961" x2="159.959991" y2="575.960022" stroke="red" stroke-width="6.660000" />
<circle cx="675.960022" cy="691.960022" r="19.980000" fill="red">
  <title>Shanghai</title>
</circle><line x1="159.959991" y1="575.960022" x2="675.960022" y2="691.960022" stroke="red" stroke-width="6.660000" />
<circle cx="1080.959961" cy="599.960022" r="19.980000" fill="red">
  <title>Mexico City</title>
</circle><line x1="675.960022" y1="691.960022" x2="1080.959961" y2="599.960022" stroke="red" stroke-width="6.660000" />
<circle cx="1252.959961" cy="1056.959961" r="19.980000" fill="red">
  <title>São Paulo</title>
</circle><line x1="1080.959961" y1="599.960022" x2="1252.959961" y2="1056.959961" stroke="red" stroke-width="6.660000" />
<circle cx="221.959991" cy="1972.959961" r="19.980000" fill="red">
  <title>Delhi</title>
</circle><line x1="1252.959961" y1="1056.959961" x2="221.959991" y2="1972.959961" stroke="red" stroke-width="6.660000" />
<circle cx="205.959991" cy="1990.959961" r="19.980000" fill="red">
  <title>Cairo</title>
</circle><line x1="221.959991" y1="1972.959961" x2="205.959991" y2="1990.959961" stroke="red" stroke-width="6.660000" />
</svg>
