<?xml version="1.0" encoding="UTF-8" standalone="no"?>
<svg width="500" height="500" viewBox="0 0 2074.000000 2074.000000" xmlns="http://www.w3.org/2000/svg">
<rect x="19.000000" y="19.000000" width="2036.000000" height="2036.000000" fill="black" />
<circle cx="1915.959961" cy="1652.959961" r="19.980000" fill="red">
  <title>Tokyo</title>
</circle><line x1="1880.959961" y1="569.960022" x2="1915.959961" y2="1652.959961" stroke="red" stroke-width="6.660000" />
<circle cx="1331.959961" cy="1216.959961" r="19.980000" fill="red">
  <title>Kolkata</title>
</circle><line x1="1915.959961" y1="1652.959961" x2="1331.959961" y2="1216.959961" stroke="red" stroke-width="6.660000" />
<circle cx="1275.959961" cy="1218.959961" r="19.980000" fill="red">
  <title>Delhi</title>
</circle><line x1="1331.959961" y1="1216.959961" x2="1275.959961" y2="1218.959961" stroke="red" stroke-width="6.660000" />
<circle cx="1062.959961" cy="1656.959961" r="19.980000" fill="red">
  <title>Buenos Aires</title>
</circle><line x1="1275.959961" y1="1218.959961" x2="1062.959961" y2="1656.959961" stroke="red" stroke-width="6.660000" />
<circle cx="778.960022" cy="1881.959961" r="19.980000" fill="red">
  <title>Dhaka</title>
</circle><line x1="1062.959961" y1="1656.959961" x2="778.960022" y2="1881.959961" stroke="red" stroke-width="6.660000" />
<circle cx="543.960022" cy="1612.959961" r="19.980000" fill="red">
  <title>Beijing</title>
</circle><line x1="778.960022" y1="1881.959961" x2="543.960022" y2="1612.959961" stroke="red" stroke-width="6.660000" />
<circle cx="181.959991" cy="1705.959961" r="19.980000" fill="red">
  <title>Osaka</title>
</circle><line x1="543.960022" y1="1612.959961" x2="181.959991" y2="1705.959961" stroke="red" stroke-width="6.660000" />
<circle cx="282.959991" cy="1592.959961" r="19.980000" fill="red">
  <title>São Paulo</title>
</circle><line x1="181.959991" y1="1705.959961" x2="282.959991" y2="1592.959961" stroke="red" stroke-width="6.660000" />
<circle cx="397.959991" cy="1280.959961" r="19.980000" fill="red">
  <title>Lagos</title>
</circle><line x1="282.959991" y1="1592.959961" x2="397.959991" y2="1280.959961" stroke="red" stroke-width="6.660000" />
<circle cx="569.960022" cy="1351.959961" r="19.980000" fill="red">
  <title>Chongqing</title>
</circle><line x1="397.959991" y1="1280.959961" x2="569.960022" y2="1351.959961" stroke="red" stroke-width="6.660000" />
<circle cx="906.960022" cy="1046.959961" r="19.980000" fill="red">
  <title>Cairo</title>
</circle><line x1="569.960022" y1="1351.959961" x2="906.960022" y2="1046.959961" stroke="red" stroke-width="6.660000" />
<circle cx="633.960022" cy="828.960022" r="19.980000" fill="red">
  <title>New York</title>
</circle><line x1="906.960022" y1="1046.959961" x2="633.960022" y2="828.960022" stroke="red" stroke-width="6.660000" />
<circle cx="710.960022" cy="659.960022" r="19.980000" fill="red">
  <title>Karachi</title>
</circle><line x1="633.960022" y1="828.960022" x2="710.960022" y2="659.960022" stroke="red" stroke-width="6.660000" />
<circle cx="714.960022" cy="640.960022" r="19.980000" fill="red">
  <title>Rio de Janeiro</title>
</circle><line x1="710.960022" y1="659.960022" x2="714.960022" y2="640.960022" stroke="red" stroke-width="6.660000" />
<circle cx="79.959999" cy="220.959991" r="19.980000" fill="red">
  <title>Mumbai</title>
</circle><line x1="714.960022" y1="640.960022" x2="79.959999" y2="220.959991" stroke="red" stroke-width="6.660000" />
<circle cx="835.960022" cy="181.959991" r="19.980000" fill="red">
  <title>Tianjin</title>
</circle><line x1="79.959999" y1="220.959991" x2="835.960022" y2="181.959991" stroke="red" stroke-width="6.660000" />
<circle cx="1338.959961" cy="267.959991" r="19.980000" fill="red">
  <title>Istanbul</title>
</circle><line x1="835.960022" y1="181.959991" x2="1338.959961" y2="267.959991" stroke="red" stroke-width="6.660000" />
<circle cx="1437.959961" cy="184.959991" r="19.980000" fill="red">
  <title>Shanghai</title>
</circle><line x1="1338.959961" y1="267.959991" x2="1437.959961" y2="184.959991" stroke="red" stroke-width="6.660000" />
<circle cx="1505.959961" cy="234.959991" r="19.980000" fill="red">
  <title>Mexico City</title>
</circle><line x1="1437.959961" y1="184.959991" x2="1505.959961" y2="234.959991" stroke="red" stroke-width="6.660000" />
<circle cx="1880.959961" cy="569.960022" r="19.980000" fill="red">
  <title>Manila</title>
</circle><line x1="1505.959961" y1="234.959991" x2="1880.959961" y2="569.960022" stroke="red" stroke-width="6.660000" />
</svg>
