<?xml version="1.0" encoding="UTF-8" standalone="no"?>
<svg width="500" height="500" viewBox="0 0 2074.000000 2074.000000" xmlns="http://www.w3.org/2000/svg">
<rect x="19.000000" y="19.000000" width="2036.000000" height="2036.000000" fill="black" />
<circle cx="1922.959961" cy="1099.959961" r="19.980000" fill="red">
  <title>Tokyo</title>
</circle><line x1="1213.959961" y1="739.960022" x2="1922.959961" y2="1099.959961" stroke="red" stroke-width="6.660000" />
<circle cx="1932.959961" cy="1611.959961" r="19.980000" fill="red">
  <title>Shanghai</title>
</circle><line x1="1922.959961" y1="1099.959961" x2="1932.959961" y2="1611.959961" stroke="red" stroke-width="6.660000" />
<circle cx="1958.959961" cy="1986.959961" r="19.980000" fill="red">
  <title>Mumbai</title>
</circle><line x1="1932.959961" y1="1611.959961" x2="1958.959961" y2="1986.959961" stroke="red" stroke-width="6.660000" />
<circle cx="1651.959961" cy="1217.959961" r="19.980000" fill="red">
  <title>Cairo</title>
</circle><line x1="1958.959961" y1="1986.959961" x2="1651.959961" y2="1217.959961" stroke="red" stroke-width="6.660000" />
<circle cx="993.960022" cy="1251.959961" r="19.980000" fill="red">
  <title>São Paulo</title>
</circle><line x1="1651.959961" y1="1217.959961" x2="993.960022" y2="1251.959961" stroke="red" stroke-width="6.660000" />
<circle cx="250.959991" cy="384.959991" r="19.980000" fill="red">
  <title>Delhi</title>
</circle><line x1="993.960022" y1="1251.959961" x2="250.959991" y2="384.959991" stroke="red" stroke-width="6.660000" />
<circle cx="1213.959961" cy="739.960022" r="19.980000" fill="red">
  <title>Mexico City</title>
</circle><line x1="250.959991" y1="384.959991" x2="1213.959961" y2="739.960022" stroke="red" stroke-width="6.660000" />
</svg>
