<?xml version="1.0" encoding="UTF-8" standalone="no"?>
<svg width="500" height="500" viewBox="0 0 2074.000000 2074.000000" xmlns="http://www.w3.org/2000/svg">
<rect x="19.000000" y="19.000000" width="2036.000000" height="2036.000000" fill="black" />
<circle cx="307.959991" cy="1401.959961" r="19.980000" fill="red">
  <title>Tokyo</title>
</circle><line x1="396.959991" y1="1249.959961" x2="307.959991" y2="1401.959961" stroke="red" stroke-width="6.660000" />
<circle cx="377.959991" cy="1483.959961" r="19.980000" fill="red">
  <title>Cairo</title>
</circle><line x1="307.959991" y1="1401.959961" x2="377.959991" y2="1483.959961" stroke="red" stroke-width="6.660000" />
<circle cx="453.959991" cy="1460.959961" r="19.980000" fill="red">
  <title>Mumbai</title>
</circle><line x1="377.959991" y1="1483.959961" x2="453.959991" y2="1460.959961" stroke="red" stroke-width="6.660000" />
<circle cx="1535.959961" cy="1305.959961" r="19.980000" fill="red">
  <title>Mexico City</title>
</circle><line x1="453.959991" y1="1460.959961" x2="1535.959961" y2="1305.959961" stroke="red" stroke-width="6.660000" />
<circle cx="1747.959961" cy="1332.959961" r="19.980000" fill="red">
  <title>Delhi</title>
</circle><line x1="1535.959961" y1="1305.959961" x2="1747.959961" y2="1332.959961" stroke="red" stroke-width="6.660000" />
<circle cx="1353.959961" cy="653.960022" r="19.980000" fill="red">
  <title>Shanghai</title>
</circle><line x1="1747.959961" y1="1332.959961" x2="1353.959961" y2="653.960022" stroke="red" stroke-width="6.660000" />
<circle cx="1505.959961" cy="466.959991" r="19.980000" fill="red">
  <title>Beijing</title>
</circle><line x1="1353.959961" y1="653.960022" x2="1505.959961" y2="466.959991" stroke="red" stroke-width="6.660000" />
<circle cx="1588.959961" cy="69.959999" r="19.980000" fill="red">
  <title>Dhaka</title>
</circle><line x1="1505.959961" y1="466.959991" x2="1588.959961" y2="69.959999" stroke="red" stroke-width="6.660000" />
<circle cx="960.960022" cy="49.959999" r="19.980000" fill="red">
  <title>Karachi</title>
</circle><line x1="1588.959961" y1="69.959999" x2="960.960022" y2="49.959999" stroke="red" stroke-width="6.660000" />
<circle cx="1133.959961" cy="303.959991" r="19.980000" fill="red">
  <title>São Paulo</title>
</circle><line x1="960.960022" y1="49.959999" x2="1133.959961" y2="303.959991" stroke="red" stroke-width="6.660000" />
<circle cx="457.959991" cy="1118.959961" r="19.980000" fill="red">
  <title>New York</title>
</circle><line x1="1133.959961" y1="303.959991" x2="457.959991" y2="1118.959961" stroke="red" stroke-width="6.660000" />
<circle cx="396.959991" cy="1249.959961" r="19.980000" fill="red">
  <title>Osaka</title>
</circle><line x1="457.959991" y1="1118.959961" x2="396.959991" y2="1249.959961" stroke="red" stroke-width="6.660000" />
</svg>
