<?xml version="1.0" encoding="UTF-8" standalone="no"?>
<svg width="500" height="500" viewBox="0 0 2074.000000 2074.000000" xmlns="http://www.w3.org/2000/svg">
<rect x="19.000000" y="19.000000" width="2036.000000" height="2036.000000" fill="black" />
<circle cx="791.960022" cy="1839.959961" r="19.980000" fill="red">
  <title>Tokyo</title>
</circle><line x1="557.960022" y1="1138.959961" x2="791.960022" y2="1839.959961" stroke="red" stroke-width="6.660000" />
<circle cx="131.959991" cy="1747.959961" r="19.980000" fill="red">
  <title>Mumbai</title>
</circle><line x1="791.960022" y1="1839.959961" x2="131.959991" y2="1747.959961" stroke="red" stroke-width="6.660000" />
<circle cx="271.959991" cy="891.960022" r="19.980000" fill="red">
  <title>Shanghai</title>
</circle><line x1="131.959991" y1="1747.959961" x2="271.959991" y2="891.960022" stroke="red" stroke-width="6.660000" />
<circle cx="144.959991" cy="211.959991" r="19.980000" fill="red">
  <title>São Paulo</title>
</circle><line x1="271.959991" y1="891.960022" x2="144.959991" y2="211.959991" stroke="red" stroke-width="6.660000" />
<circle cx="567.960022" cy="839.960022" r="19.980000" fill="red">
  <title>Cairo</title>
</circle><line x1="144.959991" y1="211.959991" x2="567.960022" y2="839.960022" stroke="red" stroke-width="6.660000" />
<circle cx="1098.959961" cy="652.960022" r="19.980000" fill="red">
  <title>Mexico City</title>
</circle><line x1="567.960022" y1="839.960022" x2="1098.959961" y2="652.960022" stroke="red" stroke-width="6.660000" />
<circle cx="1759.959961" cy="608.960022" r="19.980000" fill="red">
  <title>Delhi</title>
</circle><line x1="1098.959961" y1="652.960022" x2="1759.959961" y2="608.960022" stroke="red" stroke-width="6.660000" />
<circle cx="814.960022" cy="788.960022" r="19.980000" fill="red">
  <title>Dhaka</title>
</circle><line x1="1759.959961" y1="608.960022" x2="814.960022" y2="788.960022" stroke="red" stroke-width="6.660000" />
<circle cx="557.960022" cy="1138.959961" r="19.980000" fill="red">
  <title>Beijing</title>
</circle><line x1="814.960022" y1="788.960022" x2="557.960022" y2="1138.959961" stroke="red" stroke-width="6.660000" />
</svg>
