<?xml version="1.0" encoding="UTF-8" standalone="no"?>
<svg width="500" height="500" viewBox="0 0 2074.000000 2074.000000" xmlns="http://www.w3.org/2000/svg">
<rect x="19.000000" y="19.000000" width="2036.000000" height="2036.000000" fill="black" />
<circle cx="1048.959961" cy="1111.959961" r="19.980000" fill="red">
  <title>Tokyo</title>
</circle><line x1="779.960022" y1="350.959991" x2="1048.959961" y2="1111.959961" stroke="red" stroke-width="6.660000" />
<circle cx="174.959991" cy="1646.959961" r="19.980000" fill="red">
  <title>Delhi</title>
</circle><line x1="1048.959961" y1="1111.959961" x2="174.959991" y2="1646.959961" stroke="red" stroke-width="6.660000" />
<circle cx="117.959999" cy="1626.959961" r="19.980000" fill="red">
  <title>Osaka</title>
</circle><line x1="174.959991" y1="1646.959961" x2="117.959999" y2="1626.959961" stroke="red" stroke-width="6.660000" />
<circle cx="426.959991" cy="1982.959961" r="19.980000" fill="red">
  <title>Cairo</title>
</circle><line x1="117.959999" y1="1626.959961" x2="426.959991" y2="1982.959961" stroke="red" stroke-width="6.660000" />
<circle cx="931.960022" cy="1950.959961" r="19.980000" fill="red">
  <title>Mumbai</title>
</circle><line x1="426.959991" y1="1982.959961" x2="931.960022" y2="1950.959961" stroke="red" stroke-width="6.660000" />
<circle cx="1361.959961" cy="2002.959961" r="19.980000" fill="red">
  <title>New York</title>
</circle><line x1="931.960022" y1="1950.959961" x2="1361.959961" y2="2002.959961" stroke="red" stroke-width="6.660000" />
<circle cx="1607.959961" cy="1908.959961" r="19.980000" fill="red">
  <title>Mexico City</title>
</circle><line x1="1361.959961" y1="2002.959961" x2="1607.959961" y2="1908.959961" stroke="red" stroke-width="6.660000" />
<circle cx="1807.959961" cy="1938.959961" r="19.980000" fill="red">
  <title>Shanghai</title>
</circle><line x1="1607.959961" y1="1908.959961" x2="1807.959961" y2="1938.959961" stroke="red" stroke-width="6.660000" />
<circle cx="1641.959961" cy="1792.959961" r="19.980000" fill="red">
  <title>Beijing</title>
</circle><line x1="1807.959961" y1="1938.959961" x2="1641.959961" y2="1792.959961" stroke="red" stroke-width="6.660000" />
<circle cx="1158.959961" cy="1141.959961" r="19.980000" fill="red">
  <title>Dhaka</title>
</circle><line x1="1641.959961" y1="1792.959961" x2="1158.959961" y2="1141.959961" stroke="red" stroke-width="6.660000" />
<circle cx="779.960022" cy="350.959991" r="19.980000" fill="red">
  <title>São Paulo</title>
</circle><line x1="1158.959961" y1="1141.959961" x2="779.960022" y2="350.959991" stroke="red" stroke-width="6.660000" />
</svg>
