<?xml version="1.0" encoding="UTF-8" standalone="no"?>
<svg width="500" height="500" viewBox="0 0 2074.000000 2074.000000" xmlns="http://www.w3.org/2000/svg">
<rect x="19.000000" y="19.000000" width="2036.000000" height="2036.000000" fill="black" />
<circle cx="393.959991" cy="824.960022" r="19.980000" fill="red">
  <title>Tokyo</title>
</circle><line x1="1470.959961" y1="696.960022" x2="393.959991" y2="824.960022" stroke="red" stroke-width="6.660000" />
<circle cx="247.959991" cy="1277.959961" r="19.980000" fill="red">
  <title>São Paulo</title>
</circle><line x1="393.959991" y1="824.960022" x2="247.959991" y2="1277.959961" stroke="red" stroke-width="6.660000" />
<circle cx="1141.959961" cy="1324.959961" r="19.980000" fill="red">
  <title>Delhi</title>
</circle><line x1="247.959991" y1="1277.959961" x2="1141.959961" y2="1324.959961" stroke="red" stroke-width="6.660000" />
<circle cx="1593.959961" cy="1554.959961" r="19.980000" fill="red">
  <title>Mexico City</title>
</circle><line x1="1141.959961" y1="1324.959961" x2="1593.959961" y2="1554.959961" stroke="red" stroke-width="6.660000" />
<circle cx="1755.959961" cy="1165.959961" r="19.980000" fill="red">
  <title>Cairo</title>
</circle><line x1="1593.959961" y1="1554.959961" x2="1755.959961" y2="1165.959961" stroke="red" stroke-width="6.660000" />
<circle cx="1865.959961" cy="447.959991" r="19.980000" fill="red">
  <title>Beijing</title>
</circle><line x1="1755.959961" y1="1165.959961" x2="1865.959961" y2="447.959991" stroke="red" stroke-width="6.660000" />
<circle cx="1419.959961" cy="177.959991" r="19.980000" fill="red">
  <title>Shanghai</title>
</circle><line x1="1865.959961" y1="447.959991" x2="1419.959961" y2="177.959991" stroke="red" stroke-width="6.660000" />
<circle cx="1470.959961" cy="696.960022" r="19.980000" fill="red">
  <title>Mumbai</title>
</circle><line x1="1419.959961" y1="177.959991" x2="1470.959961" y2="696.960022" stroke="red" stroke-width="6.660000" />
</svg>
