<?xml version="1.0" encoding="UTF-8" standalone="no"?>
<svg width="500" height="500" viewBox="0 0 2074.000000 2074.000000" xmlns="http://www.w3.org/2000/svg">
<rect x="19.000000" y="19.000000" width="2036.000000" height="2036.000000" fill="black" />
<circle cx="611.960022" cy="596.960022" r="19.980000" fill="red">
  <title>Tokyo</title>
</circle><line x1="837.960022" y1="1239.959961" x2="611.960022" y2="596.960022" stroke="red" stroke-width="6.660000" />
<circle cx="1163.959961" cy="908.960022" r="19.980000" fill="red">
  <title>São Paulo</title>
</circle><line x1="611.960022" y1="596.960022" x2="1163.959961" y2="908.960022" stroke="red" stroke-width="6.660000" />
<circle cx="1429.959961" cy="824.960022" r="19.980000" fill="red">
  <title>Delhi</title>
</circle><line x1="1163.959961" y1="908.960022" x2="1429.959961" y2="824.960022" stroke="red" stroke-width="6.660000" />
<circle cx="1726.959961" cy="233.959991" r="19.980000" fill="red">
  <title>Cairo</title>
</circle><line x1="1429.959961" y1="824.960022" x2="1726.959961" y2="233.959991" stroke="red" stroke-width="6.660000" />
<circle cx="1927.959961" cy="630.960022" r="19.980000" fill="red">
  <title>Mumbai</title>
</circle><line x1="1726.959961" y1="233.959991" x2="1927.959961" y2="630.960022" stroke="red" stroke-width="6.660000" />
<circle cx="1949.959961" cy="1653.959961" r="19.980000" fill="red">
  <title>Shanghai</title>
</circle><line x1="1927.959961" y1="630.960022" x2="1949.959961" y2="1653.959961" stroke="red" stroke-width="6.660000" />
<circle cx="1122.959961" cy="1675.959961" r="19.980000" fill="red">
  <title>Beijing</title>
</circle><line x1="1949.959961" y1="1653.959961" x2="1122.959961" y2="1675.959961" stroke="red" stroke-width="6.660000" />
<circle cx="837.960022" cy="1239.959961" r="19.980000" fill="red">
  <title>Mexico City</title>
</circle><line x1="1122.959961" y1="1675.959961" x2="837.960022" y2="1239.959961" stroke="red" stroke-width="6.660000" />
</svg>
