<?xml version="1.0" encoding="UTF-8" standalone="no"?>
<svg width="500" height="500" viewBox="0 0 2074.000000 2074.000000" xmlns="http://www.w3.org/2000/svg">
<rect x="19.000000" y="19.000000" width="2036.000000" height="2036.000000" fill="black" />
<circle cx="282.959991" cy="723.960022" r="19.980000" fill="red">
  <title>Tokyo</title>
</circle><line x1="468.959991" y1="954.960022" x2="282.959991" y2="723.960022" stroke="red" stroke-width="6.660000" />
<circle cx="367.959991" cy="268.959991" r="19.980000" fill="red">
  <title>Cairo</title>
</circle><line x1="282.959991" y1="723.960022" x2="367.959991" y2="268.959991" stroke="red" stroke-width="6.660000" />
<circle cx="1126.959961" cy="789.960022" r="19.980000" fill="red">
  <title>Delhi</title>
</circle><line x1="367.959991" y1="268.959991" x2="1126.959961" y2="789.960022" stroke="red" stroke-width="6.660000" />
<circle cx="1884.959961" cy="1521.959961" r="19.980000" fill="red">
  <title>Shanghai</title>
</circle><line x1="1126.959961" y1="789.960022" x2="1884.959961" y2="1521.959961" stroke="red" stroke-width="6.660000" />
<circle cx="2032.959961" cy="1747.959961" r="19.980000" fill="red">
  <title>Dhaka</title>
</circle><line x1="1884.959961" y1="1521.959961" x2="2032.959961" y2="1747.959961" stroke="red" stroke-width="6.660000" />
<circle cx="993.960022" cy="1540.959961" r="19.980000" fill="red">
  <title>Beijing</title>
</circle><line x1="2032.959961" y1="1747.959961" x2="993.960022" y2="1540.959961" stroke="red" stroke-width="6.660000" />
<circle cx="883.960022" cy="1615.959961" r="19.980000" fill="red">
  <title>Mexico City</title>
</circle><line x1="993.960022" y1="1540.959961" x2="883.960022" y2="1615.959961" stroke="red" stroke-width="6.660000" />
<circle cx="168.959991" cy="1880.959961" r="19.980000" fill="red">
  <title>Osaka</title>
</circle><line x1="883.960022" y1="1615.959961" x2="168.959991" y2="1880.959961" stroke="red" stroke-width="6.660000" />
<circle cx="583.960022" cy="1382.959961" r="19.980000" fill="red">
  <title>São Paulo</title>
</circle><line x1="168.959991" y1="1880.959961" x2="583.960022" y2="1382.959961" stroke="red" stroke-width="6.660000" />
<circle cx="468.959991" cy="954.960022" r="19.980000" fill="red">
  <title>Mumbai</title>
</circle><line x1="583.960022" y1="1382.959961" x2="468.959991" y2="954.960022" stroke="red" stroke-width="6.660000" />
</svg>
