<?xml version="1.0" encoding="UTF-8" standalone="no"?>
<svg width="500" height="500" viewBox="0 0 2074.000000 2074.000000" xmlns="http://www.w3.org/2000/svg">
<rect x="19.000000" y="19.000000" width="2036.000000" height="2036.000000" fill="black" />
<circle cx="1266.959961" cy="240.959991" r="19.980000" fill="red">
  <title>Tokyo</title>
</circle><line x1="2033.959961" y1="107.959999" x2="1266.959961" y2="240.959991" stroke="red" stroke-width="6.660000" />
<circle cx="494.959991" cy="523.960022" r="19.980000" fill="red">
  <title>São Paulo</title>
</circle><line x1="1266.959961" y1="240.959991" x2="494.959991" y2="523.960022" stroke="red" stroke-width="6.660000" />
<circle cx="93.959999" cy="1437.959961" r="19.980000" fill="red">
  <title>Delhi</title>
</circle><line x1="494.959991" y1="523.960022" x2="93.959999" y2="1437.959961" stroke="red" stroke-width="6.660000" />
<circle cx="1216.959961" cy="824.960022" r="19.980000" fill="red">
  <title>Cairo</title>
</circle><line x1="93.959999" y1="1437.959961" x2="1216.959961" y2="824.960022" stroke="red" stroke-width="6.660000" />
<circle cx="1990.959961" cy="892.960022" r="19.980000" fill="red">
  <title>Shanghai</title>
</circle><line x1="1216.959961" y1="824.960022" x2="1990.959961" y2="892.960022" stroke="red" stroke-width="6.660000" />
<circle cx="2033.959961" cy="107.959999" r="19.980000" fill="red">
  <title>Mexico City</title>
</circle><line x1="1990.959961" y1="892.960022" x2="2033.959961" y2="107.959999" stroke="red" stroke-width="6.660000" />
</svg>
