<?xml version="1.0" encoding="UTF-8" standalone="no"?>
<svg width="500" height="500" viewBox="0 0 2074.000000 2074.000000" xmlns="http://www.w3.org/2000/svg">
<rect x="19.000000" y="19.000000" width="2036.000000" height="2036.000000" fill="black" />
<circle cx="1380.959961" cy="1072.959961" r="19.980000" fill="red">
  <title>Tokyo</title>
</circle><line x1="1288.959961" y1="706.960022" x2="1380.959961" y2="1072.959961" stroke="red" stroke-width="6.660000" />
<circle cx="1945.959961" cy="1363.959961" r="19.980000" fill="red">
  <title>Shanghai</title>
</circle><line x1="1380.959961" y1="1072.959961" x2="1945.959961" y2="1363.959961" stroke="red" stroke-width="6.660000" />
<circle cx="1274.959961" cy="2004.959961" r="19.980000" fill="red">
  <title>São Paulo</title>
</circle><line x1="1945.959961" y1="1363.959961" x2="1274.959961" y2="2004.959961" stroke="red" stroke-width="6.660000" />
<circle cx="739.960022" cy="1583.959961" r="19.980000" fill="red">
  <title>Delhi</title>
</circle><line x1="1274.959961" y1="2004.959961" x2="739.960022" y2="1583.959961" stroke="red" stroke-width="6.660000" />
<circle cx="1288.959961" cy="706.960022" r="19.980000" fill="red">
  <title>Mexico City</title>
</circle><line x1="739.960022" y1="1583.959961" x2="1288.959961" y2="706.960022" stroke="red" stroke-width="6.660000" />
</svg>
