<?xml version="1.0" encoding="UTF-8" standalone="no"?>
<svg width="500" height="500" viewBox="0 0 2074.000000 2074.000000" xmlns="http://www.w3.org/2000/svg">
<rect x="19.000000" y="19.000000" width="2036.000000" height="2036.000000" fill="black" />
<circle cx="1166.959961" cy="1425.959961" r="19.980000" fill="red">
  <title>Tokyo</title>
</circle><line x1="785.960022" y1="1586.959961" x2="1166.959961" y2="1425.959961" stroke="red" stroke-width="6.660000" />
<circle cx="1395.959961" cy="1844.959961" r="19.980000" fill="red">
  <title>Karachi</title>
</circle><line x1="1166.959961" y1="1425.959961" x2="1395.959961" y2="1844.959961" stroke="red" stroke-width="6.660000" />
<circle cx="1886.959961" cy="1436.959961" r="19.980000" fill="red">
  <title>Dhaka</title>
</circle><line x1="1395.959961" y1="1844.959961" x2="1886.959961" y2="1436.959961" stroke="red" stroke-width="6.660000" />
<circle cx="1636.959961" cy="1226.959961" r="19.980000" fill="red">
  <title>São Paulo</title>
</circle><line x1="1886.959961" y1="1436.959961" x2="1636.959961" y2="1226.959961" stroke="red" stroke-width="6.660000" />
<circle cx="1772.959961" cy="605.960022" r="19.980000" fill="red">
  <title>Mexico City</title>
</circle><line x1="1636.959961" y1="1226.959961" x2="1772.959961" y2="605.960022" stroke="red" stroke-width="6.660000" />
<circle cx="1050.959961" cy="651.960022" r="19.980000" fill="red">
  <title>Chongqing</title>
</circle><line x1="1772.959961" y1="605.960022" x2="1050.959961" y2="651.960022" stroke="red" stroke-width="6.660000" />
<circle cx="488.959991" cy="287.959991" r="19.980000" fill="red">
  <title>Osaka</title>
</circle><line x1="1050.959961" y1="651.960022" x2="488.959991" y2="287.959991" stroke="red" stroke-width="6.660000" />
<circle cx="165.959991" cy="451.959991" r="19.980000" fill="red">
  <title>Cairo</title>
</circle><line x1="488.959991" y1="287.959991" x2="165.959991" y2="451.959991" stroke="red" stroke-width="6.660000" />
<circle cx="702.960022" cy="1158.959961" r="19.980000" fill="red">
  <title>New York</title>
</circle><line x1="165.959991" y1="451.959991" x2="702.960022" y2="1158.959961" stroke="red" stroke-width="6.660000" />
<circle cx="375.959991" cy="1796.959961" r="19.980000" fill="red">
  <title>Mumbai</title>
</circle><line x1="702.960022" y1="1158.959961" x2="375.959991" y2="1796.959961" stroke="red" stroke-width="6.660000" />
<circle cx="242.959991" cy="1941.959961" r="19.980000" fill="red">
  <title>Beijing</title>
</circle><line x1="375.959991" y1="1796.959961" x2="242.959991" y2="1941.959961" stroke="red" stroke-width="6.660000" />
<circle cx="283.959991" cy="2031.959961" r="19.980000" fill="red">
  <title>Buenos Aires</title>
</circle><line x1="242.959991" y1="1941.959961" x2="283.959991" y2="2031.959961" stroke="red" stroke-width="6.660000" />
<circle cx="422.959991" cy="1903.959961" r="19.980000" fill="red">
  <title>Shanghai</title>
</circle><line x1="283.959991" y1="2031.959961" x2="422.959991" y2="1903.959961" stroke="red" stroke-width="6.660000" />
<circle cx="596.960022" cy="1999.959961" r="19.980000" fill="red">
  <title>Istanbul</title>
</circle><line x1="422.959991" y1="1903.959961" x2="596.960022" y2="1999.959961" stroke="red" stroke-width="6.660000" />
<circle cx="785.960022" cy="1586.959961" r="19.980000" fill="red">
  <title>Delhi</title>
</circle><line x1="596.960022" y1="1999.959961" x2="785.960022" y2="1586.959961" stroke="red" stroke-width="6.660000" />
</svg>
