<?xml version="1.0" encoding="UTF-8" standalone="no"?>
<svg width="500" height="500" viewBox="0 0 2074.000000 2074.000000" xmlns="http://www.w3.org/2000/svg">
<rect x="19.000000" y="19.000000" width="2036.000000" height="2036.000000" fill="black" />
<circle cx="1388.959961" cy="1757.959961" r="19.980000" fill="red">
  <title>Tokyo</title>
</circle><line x1="1887.959961" y1="1715.959961" x2="1388.959961" y2="1757.959961" stroke="red" stroke-width="6.660000" />
<circle cx="1200.959961" cy="1034.959961" r="19.980000" fill="red">
  <title>Beijing</title>
</circle><line x1="1388.959961" y1="1757.959961" x2="1200.959961" y2="1034.959961" stroke="red" stroke-width="6.660000" />
<circle cx="584.960022" cy="1245.959961" r="19.980000" fill="red">
  <title>Mumbai</title>
</circle><line x1="1200.959961" y1="1034.959961" x2="584.960022" y2="1245.959961" stroke="red" stroke-width="6.660000" />
<circle cx="180.959991" cy="1144.959961" r="19.980000" fill="red">
  <title>Shanghai</title>
</circle><line x1="584.960022" y1="1245.959961" x2="180.959991" y2="1144.959961" stroke="red" stroke-width="6.660000" />
<circle cx="522.960022" cy="636.960022" r="19.980000" fill="red">
  <title>Dhaka</title>
</circle><line x1="180.959991" y1="1144.959961" x2="522.960022" y2="636.960022" stroke="red" stroke-width="6.660000" />
<circle cx="198.959991" cy="456.959991" r="19.980000" fill="red">
  <title>Buenos Aires</title>
</circle><line x1="522.960022" y1="636.960022" x2="198.959991" y2="456.959991" stroke="red" stroke-width="6.660000" />
<circle cx="170.959991" cy="54.959999" r="19.980000" fill="red">
  <title>Cairo</title>
</circle><line x1="198.959991" y1="456.959991" x2="170.959991" y2="54.959999" stroke="red" stroke-width="6.660000" />
<circle cx="1410.959961" cy="39.959999" r="19.980000" fill="red">
  <title>São Paulo</title>
</circle><line x1="170.959991" y1="54.959999" x2="1410.959961" y2="39.959999" stroke="red" stroke-width="6.660000" />
<circle cx="1391.959961" cy="879.960022" r="19.980000" fill="red">
  <title>New York</title>
</circle><line x1="1410.959961" y1="39.959999" x2="1391.959961" y2="879.960022" stroke="red" stroke-width="6.660000" />
<circle cx="1896.959961" cy="936.960022" r="19.980000" fill="red">
  <title>Delhi</title>
</circle><line x1="1391.959961" y1="879.960022" x2="1896.959961" y2="936.960022" stroke="red" stroke-width="6.660000" />
<circle cx="1915.959961" cy="1442.959961" r="19.980000" fill="red">
  <title>Mexico City</title>
</circle><line x1="1896.959961" y1="936.960022" x2="1915.959961" y2="1442.959961" stroke="red" stroke-width="6.660000" />
<circle cx="1954.959961" cy="1755.959961" r="19.980000" fill="red">
  <title>Karachi</title>
</circle><line x1="1915.959961" y1="1442.959961" x2="1954.959961" y2="1755.959961" stroke="red" stroke-width="6.660000" />
<circle cx="1887.959961" cy="1715.959961" r="19.980000" fill="red">
  <title>Osaka</title>
</circle><line x1="1954.959961" y1="1755.959961" x2="1887.959961" y2="1715.959961" stroke="red" stroke-width="6.660000" />
</svg>
