<?xml version="1.0" encoding="UTF-8" standalone="no"?>
<svg width="500" height="500" viewBox="0 0 2074.000000 2074.000000" xmlns="http://www.w3.org/2000/svg">
<rect x="19.000000" y="19.000000" width="2036.000000" height="2036.000000" fill="black" />
<circle cx="203.959991" cy="1070.959961" r="19.980000" fill="red">
  <title>Tokyo</title>
</circle><line x1="590.960022" y1="1173.959961" x2="203.959991" y2="1070.959961" stroke="red" stroke-width="6.660000" />
<circle cx="131.959991" cy="1664.959961" r="19.980000" fill="red">
  <title>Delhi</title>
</circle><line x1="203.959991" y1="1070.959961" x2="131.959991" y2="1664.959961" stroke="red" stroke-width="6.660000" />
<circle cx="699.960022" cy="1515.959961" r="19.980000" fill="red">
  <title>Kolkata</title>
</circle><line x1="131.959991" y1="1664.959961" x2="699.960022" y2="1515.959961" stroke="red" stroke-width="6.660000" />
<circle cx="1350.959961" cy="1973.959961" r="19.980000" fill="red">
  <title>Istanbul</title>
</circle><line x1="699.960022" y1="1515.959961" x2="1350.959961" y2="1973.959961" stroke="red" stroke-width="6.660000" />
<circle cx="1578.959961" cy="1694.959961" r="19.980000" fill="red">
  <title>Mumbai</title>
</circle><line x1="1350.959961" y1="1973.959961" x2="1578.959961" y2="1694.959961" stroke="red" stroke-width="6.660000" />
<circle cx="1752.959961" cy="1466.959961" r="19.980000" fill="red">
  <title>Dhaka</title>
</circle><line x1="1578.959961" y1="1694.959961" x2="1752.959961" y2="1466.959961" stroke="red" stroke-width="6.660000" />
<circle cx="1861.959961" cy="1409.959961" r="19.980000" fill="red">
  <title>São Paulo</title>
</circle><line x1="1752.959961" y1="1466.959961" x2="1861.959961" y2="1409.959961" stroke="red" stroke-width="6.660000" />
<circle cx="2000.959961" cy="1128.959961" r="19.980000" fill="red">
  <title>Mexico City</title>
</circle><line x1="1861.959961" y1="1409.959961" x2="2000.959961" y2="1128.959961" stroke="red" stroke-width="6.660000" />
<circle cx="1305.959961" cy="723.960022" r="19.980000" fill="red">
  <title>Cairo</title>
</circle><line x1="2000.959961" y1="1128.959961" x2="1305.959961" y2="723.960022" stroke="red" stroke-width="6.660000" />
<circle cx="1117.959961" cy="446.959991" r="19.980000" fill="red">
  <title>New York</title>
</circle><line x1="1305.959961" y1="723.960022" x2="1117.959961" y2="446.959991" stroke="red" stroke-width="6.660000" />
<circle cx="1145.959961" cy="939.960022" r="19.980000" fill="red">
  <title>Buenos Aires</title>
</circle><line x1="1117.959961" y1="446.959991" x2="1145.959961" y2="939.960022" stroke="red" stroke-width="6.660000" />
<circle cx="784.960022" cy="888.960022" r="19.980000" fill="red">
  <title>Shanghai</title>
</circle><line x1="1145.959961" y1="939.960022" x2="784.960022" y2="888.960022" stroke="red" stroke-width="6.660000" />
<circle cx="911.960022" cy="1232.959961" r="19.980000" fill="red">
  <title>Osaka</title>
</circle><line x1="784.960022" y1="888.960022" x2="911.960022" y2="1232.959961" stroke="red" stroke-width="6.660000" />
<circle cx="694.960022" cy="1219.959961" r="19.980000" fill="red">
  <title>Beijing</title>
</circle><line x1="911.960022" y1="1232.959961" x2="694.960022" y2="1219.959961" stroke="red" stroke-width="6.660000" />
<circle cx="629.960022" cy="1084.959961" r="19.980000" fill="red">
  <title>Karachi</title>
</circle><line x1="694.960022" y1="1219.959961" x2="629.960022" y2="1084.959961" stroke="red" stroke-width="6.660000" />
<circle cx="590.960022" cy="1173.959961" r="19.980000" fill="red">
  <title>Chongqing</title>
</circle><line x1="629.960022" y1="1084.959961" x2="590.960022" y2="1173.959961" stroke="red" stroke-width="6.660000" />
</svg>
