<?xml version="1.0" encoding="UTF-8" standalone="no"?>
<svg width="500" height="500" viewBox="0 0 2074.000000 2074.000000" xmlns="http://www.w3.org/2000/svg">
<rect x="19.000000" y="19.000000" width="2036.000000" height="2036.000000" fill="black" />
<circle cx="366.959991" cy="1984.959961" r="19.980000" fill="red">
  <title>Tokyo</title>
</circle><line x1="700.960022" y1="688.960022" x2="366.959991" y2="1984.959961" stroke="red" stroke-width="6.660000" />
<circle cx="1770.959961" cy="2007.959961" r="19.980000" fill="red">
  <title>Shanghai</title>
</circle><line x1="366.959991" y1="1984.959961" x2="1770.959961" y2="2007.959961" stroke="red" stroke-width="6.660000" />
<circle cx="1467.959961" cy="1058.959961" r="19.980000" fill="red">
  <title>Delhi</title>
</circle><line x1="1770.959961" y1="2007.959961" x2="1467.959961" y2="1058.959961" stroke="red" stroke-width="6.660000" />
<circle cx="1358.959961" cy="665.960022" r="19.980000" fill="red">
  <title>Mexico City</title>
</circle><line x1="1467.959961" y1="1058.959961" x2="1358.959961" y2="665.960022" stroke="red" stroke-width="6.660000" />
<circle cx="1853.959961" cy="334.959991" r="19.980000" fill="red">
  <title>Cairo</title>
</circle><line x1="1358.959961" y1="665.960022" x2="1853.959961" y2="334.959991" stroke="red" stroke-width="6.660000" />
<circle cx="878.960022" cy="101.959999" r="19.980000" fill="red">
  <title>Beijing</title>
</circle><line x1="1853.959961" y1="334.959991" x2="878.960022" y2="101.959999" stroke="red" stroke-width="6.660000" />
<circle cx="576.960022" cy="108.959999" r="19.980000" fill="red">
  <title>São Paulo</title>
</circle><line x1="878.960022" y1="101.959999" x2="576.960022" y2="108.959999" stroke="red" stroke-width="6.660000" />
<circle cx="700.960022" cy="688.960022" r="19.980000" fill="red">
  <title>Mumbai</title>
</circle><line x1="576.960022" y1="108.959999" x2="700.960022" y2="688.960022" stroke="red" stroke-width="6.660000" />
</svg>
