<?xml version="1.0" encoding="UTF-8" standalone="no"?>
<svg width="500" height="500" viewBox="0 0 2074.000000 2074.000000" xmlns="http://www.w3.org/2000/svg">
<rect x="19.000000" y="19.000000" width="2036.000000" height="2036.000000" fill="black" />
<circle cx="505.959991" cy="1821.959961" r="19.980000" fill="red">
  <title>Tokyo</title>
</circle><line x1="838.960022" y1="1681.959961" x2="505.959991" y2="1821.959961" stroke="red" stroke-width="6.660000" />
<circle cx="542.960022" cy="1763.959961" r="19.980000" fill="red">
  <title>Manila</title>
</circle><line x1="505.959991" y1="1821.959961" x2="542.960022" y2="1763.959961" stroke="red" stroke-width="6.660000" />
<circle cx="505.959991" cy="1430.959961" r="19.980000" fill="red">
  <title>Cairo</title>
</circle><line x1="542.960022" y1="1763.959961" x2="505.959991" y2="1430.959961" stroke="red" stroke-width="6.660000" />
<circle cx="408.959991" cy="1342.959961" r="19.980000" fill="red">
  <title>Lagos</title>
</circle><line x1="505.959991" y1="1430.959961" x2="408.959991" y2="1342.959961" stroke="red" stroke-width="6.660000" />
<circle cx="213.959991" cy="1341.959961" r="19.980000" fill="red">
  <title>New York</title>
</circle><line x1="408.959991" y1="1342.959961" x2="213.959991" y2="1341.959961" stroke="red" stroke-width="6.660000" />
<circle cx="250.959991" cy="833.960022" r="19.980000" fill="red">
  <title>Karachi</title>
</circle><line x1="213.959991" y1="1341.959961" x2="250.959991" y2="833.960022" stroke="red" stroke-width="6.660000" />
<circle cx="691.960022" cy="904.960022" r="19.980000" fill="red">
  <title>Tianjin</title>
</circle><line x1="250.959991" y1="833.960022" x2="691.960022" y2="904.960022" stroke="red" stroke-width="6.660000" />
<circle cx="790.960022" cy="1045.959961" r="19.980000" fill="red">
  <title>Buenos Aires</title>
</circle><line x1="691.960022" y1="904.960022" x2="790.960022" y2="1045.959961" stroke="red" stroke-width="6.660000" />
<circle cx="703.960022" cy="725.960022" r="19.980000" fill="red">
  <title>Delhi</title>
</circle><line x1="790.960022" y1="1045.959961" x2="703.960022" y2="725.960022" stroke="red" stroke-width="6.660000" />
<circle cx="1086.959961" cy="195.959991" r="19.980000" fill="red">
  <title>Mumbai</title>
</circle><line x1="703.960022" y1="725.960022" x2="1086.959961" y2="195.959991" stroke="red" stroke-width="6.660000" />
<circle cx="1255.959961" cy="759.960022" r="19.980000" fill="red">
  <title>Istanbul</title>
</circle><line x1="1086.959961" y1="195.959991" x2="1255.959961" y2="759.960022" stroke="red" stroke-width="6.660000" />
<circle cx="1949.959961" cy="753.960022" r="19.980000" fill="red">
  <title>Osaka</title>
</circle><line x1="1255.959961" y1="759.960022" x2="1949.959961" y2="753.960022" stroke="red" stroke-width="6.660000" />
<circle cx="1912.959961" cy="1161.959961" r="19.980000" fill="red">
  <title>Chongqing</title>
</circle><line x1="1949.959961" y1="753.960022" x2="1912.959961" y2="1161.959961" stroke="red" stroke-width="6.660000" />
<circle cx="1514.959961" cy="1387.959961" r="19.980000" fill="red">
  <title>São Paulo</title>
</circle><line x1="1912.959961" y1="1161.959961" x2="1514.959961" y2="1387.959961" stroke="red" stroke-width="6.660000" />
<circle cx="1536.959961" cy="1424.959961" r="19.980000" fill="red">
  <title>Mexico City</title>
</circle><line x1="1514.959961" y1="1387.959961" x2="1536.959961" y2="1424.959961" stroke="red" stroke-width="6.660000" />
<circle cx="1990.959961" cy="1821.959961" r="19.980000" fill="red">
  <title>Beijing</title>
</circle><line x1="1536.959961" y1="1424.959961" x2="1990.959961" y2="1821.959961" stroke="red" stroke-width="6.660000" />
<circle cx="1406.959961" cy="1884.959961" r="19.980000" fill="red">
  <title>Rio de Janeiro</title>
</circle><line x1="1990.959961" y1="1821.959961" x2="1406.959961" y2="1884.959961" stroke="red" stroke-width="6.660000" />
<circle cx="1098.959961" cy="1721.959961" r="19.980000" fill="red">
  <title>Kolkata</title>
</circle><line x1="1406.959961" y1="1884.959961" x2="1098.959961" y2="1721.959961" stroke="red" stroke-width="6.660000" />
<circle cx="971.960022" cy="1907.959961" r="19.980000" fill="red">
  <title>Dhaka</title>
</circle><line x1="1098.959961" y1="1721.959961" x2="971.960022" y2="1907.959961" stroke="red" stroke-width="6.660000" />
<circle cx="838.960022" cy="1681.959961" r="19.980000" fill="red">
  <title>Shanghai</title>
</circle><line x1="971.960022" y1="1907.959961" x2="838.960022" y2="1681.959961" stroke="red" stroke-width="6.660000" />
</svg>
