<?xml version="1.0" encoding="UTF-8" standalone="no"?>
<svg width="500" height="500" viewBox="0 0 2074.000000 2074.000000" xmlns="http://www.w3.org/2000/svg">
<rect x="19.000000" y="19.000000" width="2036.000000" height="2036.000000" fill="black" />
<circle cx="986.960022" cy="480.959991" r="19.980000" fill="red">
  <title>Tokyo</title>
</circle><line x1="499.959991" y1="667.960022" x2="986.960022" y2="480.959991" stroke="red" stroke-width="6.660000" />
<circle cx="1069.959961" cy="226.959991" r="19.980000" fill="red">
  <title>Shanghai</title>
</circle><line x1="986.960022" y1="480.959991" x2="1069.959961" y2="226.959991" stroke="red" stroke-width="6.660000" />
<circle cx="263.959991" cy="325.959991" r="19.980000" fill="red">
  <title>Mumbai</title>
</circle><line x1="1069.959961" y1="226.959991" x2="263.959991" y2="325.959991" stroke="red" stroke-width="6.660000" />
<circle cx="264.959991" cy="821.960022" r="19.980000" fill="red">
  <title>Cairo</title>
</circle><line x1="263.959991" y1="325.959991" x2="264.959991" y2="821.960022" stroke="red" stroke-width="6.660000" />
<circle cx="256.959991" cy="997.960022" r="19.980000" fill="red">
  <title>Delhi</title>
</circle><line x1="264.959991" y1="821.960022" x2="256.959991" y2="997.960022" stroke="red" stroke-width="6.660000" />
<circle cx="742.960022" cy="1663.959961" r="19.980000" fill="red">
  <title>São Paulo</title>
</circle><line x1="256.959991" y1="997.960022" x2="742.960022" y2="1663.959961" stroke="red" stroke-width="6.660000" />
<circle cx="499.959991" cy="667.960022" r="19.980000" fill="red">
  <title>Mexico City</title>
</circle><line x1="742.960022" y1="1663.959961" x2="499.959991" y2="667.960022" stroke="red" stroke-width="6.660000" />
</svg>
