<?xml version="1.0" encoding="UTF-8" standalone="no"?>
<svg width="500" height="500" viewBox="0 0 2074.000000 2074.000000" xmlns="http://www.w3.org/2000/svg">
<rect x="19.000000" y="19.000000" width="2036.000000" height="2036.000000" fill="black" />
<circle cx="188.959991" cy="1390.959961" r="19.980000" fill="red">
  <title>Tokyo</title>
</circle><line x1="401.959991" y1="1948.959961" x2="188.959991" y2="1390.959961" stroke="red" stroke-width="6.660000" />
<circle cx="100.959999" cy="339.959991" r="19.980000" fill="red">
  <title>Delhi</title>
</circle><line x1="188.959991" y1="1390.959961" x2="100.959999" y2="339.959991" stroke="red" stroke-width="6.660000" />
<circle cx="792.960022" cy="153.959991" r="19.980000" fill="red">
  <title>Karachi</title>
</circle><line x1="100.959999" y1="339.959991" x2="792.960022" y2="153.959991" stroke="red" stroke-width="6.660000" />
<circle cx="1030.959961" cy="509.959991" r="19.980000" fill="red">
  <title>Beijing</title>
</circle><line x1="792.960022" y1="153.959991" x2="1030.959961" y2="509.959991" stroke="red" stroke-width="6.660000" />
<circle cx="1297.959961" cy="746.960022" r="19.980000" fill="red">
  <title>New York</title>
</circle><line x1="1030.959961" y1="509.959991" x2="1297.959961" y2="746.960022" stroke="red" stroke-width="6.660000" />
<circle cx="888.960022" cy="938.960022" r="19.980000" fill="red">
  <title>Istanbul</title>
</circle><line x1="1297.959961" y1="746.960022" x2="888.960022" y2="938.960022" stroke="red" stroke-width="6.660000" />
<circle cx="1175.959961" cy="1037.959961" r="19.980000" fill="red">
  <title>Kolkata</title>
</circle><line x1="888.960022" y1="938.960022" x2="1175.959961" y2="1037.959961" stroke="red" stroke-width="6.660000" />
<circle cx="1563.959961" cy="1121.959961" r="19.980000" fill="red">
  <title>Mumbai</title>
</circle><line x1="1175.959961" y1="1037.959961" x2="1563.959961" y2="1121.959961" stroke="red" stroke-width="6.660000" />
<circle cx="1827.959961" cy="1392.959961" r="19.980000" fill="red">
  <title>Mexico City</title>
</circle><line x1="1563.959961" y1="1121.959961" x2="1827.959961" y2="1392.959961" stroke="red" stroke-width="6.660000" />
<circle cx="1937.959961" cy="1624.959961" r="19.980000" fill="red">
  <title>Chongqing</title>
</circle><line x1="1827.959961" y1="1392.959961" x2="1937.959961" y2="1624.959961" stroke="red" stroke-width="6.660000" />
<circle cx="1719.959961" cy="2008.959961" r="19.980000" fill="red">
  <title>Cairo</title>
</circle><line x1="1937.959961" y1="1624.959961" x2="1719.959961" y2="2008.959961" stroke="red" stroke-width="6.660000" />
<circle cx="1364.959961" cy="2019.959961" r="19.980000" fill="red">
  <title>Dhaka</title>
</circle><line x1="1719.959961" y1="2008.959961" x2="1364.959961" y2="2019.959961" stroke="red" stroke-width="6.660000" />
<circle cx="820.960022" cy="1595.959961" r="19.980000" fill="red">
  <title>Buenos Aires</title>
</circle><line x1="1364.959961" y1="2019.959961" x2="820.960022" y2="1595.959961" stroke="red" stroke-width="6.660000" />
<circle cx="783.960022" cy="1551.959961" r="19.980000" fill="red">
  <title>Shanghai</title>
</circle><line x1="820.960022" y1="1595.959961" x2="783.960022" y2="1551.959961" stroke="red" stroke-width="6.660000" />
<circle cx="472.959991" cy="1822.959961" r="19.980000" fill="red">
  <title>Osaka</title>
</circle><line x1="783.960022" y1="1551.959961" x2="472.959991" y2="1822.959961" stroke="red" stroke-width="6.660000" />
<circle cx="401.959991" cy="1948.959961" r="19.980000" fill="red">
  <title>São Paulo</title>
</circle><line x1="472.959991" y1="1822.959961" x2="401.959991" y2="1948.959961" stroke="red" stroke-width="6.660000" />
</svg>
