<?xml version="1.0" encoding="UTF-8" standalone="no"?>
<svg width="500" height="500" viewBox="0 0 2074.000000 2074.000000" xmlns="http://www.w3.org/2000/svg">
<rect x="19.000000" y="19.000000" width="2036.000000" height="2036.000000" fill="black" />
<circle cx="80.959999" cy="1384.959961" r="19.980000" fill="red">
  <title>Tokyo</title>
</circle><line x1="209.959991" y1="1819.959961" x2="80.959999" y2="1384.959961" stroke="red" stroke-width="6.660000" />
<circle cx="220.959991" cy="1274.959961" r="19.980000" fill="red">
  <title>Delhi</title>
</circle><line x1="80.959999" y1="1384.959961" x2="220.959991" y2="1274.959961" stroke="red" stroke-width="6.660000" />
<circle cx="483.959991" cy="666.960022" r="19.980000" fill="red">
  <title>Karachi</title>
</circle><line x1="220.959991" y1="1274.959961" x2="483.959991" y2="666.960022" stroke="red" stroke-width="6.660000" />
<circle cx="324.959991" cy="43.959999" r="19.980000" fill="red">
  <title>Mexico City</title>
</circle><line x1="483.959991" y1="666.960022" x2="324.959991" y2="43.959999" stroke="red" stroke-width="6.660000" />
<circle cx="671.960022" cy="39.959999" r="19.980000" fill="red">
  <title>Dhaka</title>
</circle><line x1="324.959991" y1="43.959999" x2="671.960022" y2="39.959999" stroke="red" stroke-width="6.660000" />
<circle cx="1378.959961" cy="391.959991" r="19.980000" fill="red">
  <title>Beijing</title>
</circle><line x1="671.960022" y1="39.959999" x2="1378.959961" y2="391.959991" stroke="red" stroke-width="6.660000" />
<circle cx="1458.959961" cy="354.959991" r="19.980000" fill="red">
  <title>Mumbai</title>
</circle><line x1="1378.959961" y1="391.959991" x2="1458.959961" y2="354.959991" stroke="red" stroke-width="6.660000" />
<circle cx="1552.959961" cy="372.959991" r="19.980000" fill="red">
  <title>São Paulo</title>
</circle><line x1="1458.959961" y1="354.959991" x2="1552.959961" y2="372.959991" stroke="red" stroke-width="6.660000" />
<circle cx="1602.959961" cy="858.960022" r="19.980000" fill="red">
  <title>Osaka</title>
</circle><line x1="1552.959961" y1="372.959991" x2="1602.959961" y2="858.960022" stroke="red" stroke-width="6.660000" />
<circle cx="2029.959961" cy="1230.959961" r="19.980000" fill="red">
  <title>Buenos Aires</title>
</circle><line x1="1602.959961" y1="858.960022" x2="2029.959961" y2="1230.959961" stroke="red" stroke-width="6.660000" />
<circle cx="1369.959961" cy="1219.959961" r="19.980000" fill="red">
  <title>Chongqing</title>
</circle><line x1="2029.959961" y1="1230.959961" x2="1369.959961" y2="1219.959961" stroke="red" stroke-width="6.660000" />
<circle cx="1403.959961" cy="1792.959961" r="19.980000" fill="red">
  <title>New York</title>
</circle><line x1="1369.959961" y1="1219.959961" x2="1403.959961" y2="1792.959961" stroke="red" stroke-width="6.660000" />
<circle cx="627.960022" cy="1518.959961" r="19.980000" fill="red">
  <title>Shanghai</title>
</circle><line x1="1403.959961" y1="1792.959961" x2="627.960022" y2="1518.959961" stroke="red" stroke-width="6.660000" />
<circle cx="209.959991" cy="1819.959961" r="19.980000" fill="red">
  <title>Cairo</title>
</circle><line x1="627.960022" y1="1518.959961" x2="209.959991" y2="1819.959961" stroke="red" stroke-width="6.660000" />
</svg>
