<?xml version="1.0" encoding="UTF-8" standalone="no"?>
<svg width="500" height="500" viewBox="0 0 2074.000000 2074.000000" xmlns="http://www.w3.org/2000/svg">
<rect x="19.000000" y="19.000000" width="2036.000000" height="2036.000000" fill="black" />
<circle cx="946.960022" cy="1437.959961" r="19.980000" fill="red">
  <title>Tokyo</title>
</circle><line x1="1053.959961" y1="1692.959961" x2="946.960022" y2="1437.959961" stroke="red" stroke-width="6.660000" />
<circle cx="1778.959961" cy="659.960022" r="19.980000" fill="red">
  <title>Mexico City</title>
</circle><line x1="946.960022" y1="1437.959961" x2="1778.959961" y2="659.960022" stroke="red" stroke-width="6.660000" />
<circle cx="1727.959961" cy="519.960022" r="19.980000" fill="red">
  <title>Cairo</title>
</circle><line x1="1778.959961" y1="659.960022" x2="1727.959961" y2="519.960022" stroke="red" stroke-width="6.660000" />
<circle cx="1609.959961" cy="153.959991" r="19.980000" fill="red">
  <title>Shanghai</title>
</circle><line x1="1727.959961" y1="519.960022" x2="1609.959961" y2="153.959991" stroke="red" stroke-width="6.660000" />
<circle cx="499.959991" cy="567.960022" r="19.980000" fill="red">
  <title>Beijing</title>
</circle><line x1="1609.959961" y1="153.959991" x2="499.959991" y2="567.960022" stroke="red" stroke-width="6.660000" />
<circle cx="859.960022" cy="1323.959961" r="19.980000" fill="red">
  <title>São Paulo</title>
</circle><line x1="499.959991" y1="567.960022" x2="859.960022" y2="1323.959961" stroke="red" stroke-width="6.660000" />
<circle cx="1004.960022" cy="1625.959961" r="19.980000" fill="red">
  <title>Delhi</title>
</circle><line x1="859.960022" y1="1323.959961" x2="1004.960022" y2="1625.959961" stroke="red" stroke-width="6.660000" />
<circle cx="1053.959961" cy="1692.959961" r="19.980000" fill="red">
  <title>Mumbai</title>
</circle><line x1="1004.960022" y1="1625.959961" x2="1053.959961" y2="1692.959961" stroke="red" stroke-width="6.660000" />
</svg>
