<?xml version="1.0" encoding="UTF-8" standalone="no"?>
<svg width="500" height="500" viewBox="0 0 2074.000000 2074.000000" xmlns="http://www.w3.org/2000/svg">
<rect x="19.000000" y="19.000000" width="2036.000000" height="2036.000000" fill="black" />
<circle cx="866.960022" cy="1023.960022" r="19.980000" fill="red">
  <title>Tokyo</title>
</circle><line x1="341.959991" y1="883.960022" x2="866.960022" y2="1023.960022" stroke="red" stroke-width="6.660000" />
<circle cx="1311.959961" cy="331.959991" r="19.980000" fill="red">
  <title>Cairo</title>
</circle><line x1="866.960022" y1="1023.960022" x2="1311.959961" y2="331.959991" stroke="red" stroke-width="6.660000" />
<circle cx="1987.959961" cy="133.959991" r="19.980000" fill="red">
  <title>Delhi</title>
</circle><line x1="1311.959961" y1="331.959991" x2="1987.959961" y2="133.959991" stroke="red" stroke-width="6.660000" />
<circle cx="1949.959961" cy="475.959991" r="19.980000" fill="red">
  <title>Shanghai</title>
</circle><line x1="1987.959961" y1="133.959991" x2="1949.959961" y2="475.959991" stroke="red" stroke-width="6.660000" />
<circle cx="1893.959961" cy="852.960022" r="19.980000" fill="red">
  <title>São Paulo</title>
</circle><line x1="1949.959961" y1="475.959991" x2="1893.959961" y2="852.960022" stroke="red" stroke-width="6.660000" />
<circle cx="1987.959961" cy="992.960022" r="19.980000" fill="red">
  <title>Mumbai</title>
</circle><line x1="1893.959961" y1="852.960022" x2="1987.959961" y2="992.960022" stroke="red" stroke-width="6.660000" />
<circle cx="973.960022" cy="1225.959961" r="19.980000" fill="red">
  <title>Beijing</title>
</circle><line x1="1987.959961" y1="992.960022" x2="973.960022" y2="1225.959961" stroke="red" stroke-width="6.660000" />
<circle cx="740.960022" cy="1130.959961" r="19.980000" fill="red">
  <title>Mexico City</title>
</circle><line x1="973.960022" y1="1225.959961" x2="740.960022" y2="1130.959961" stroke="red" stroke-width="6.660000" />
<circle cx="341.959991" cy="883.960022" r="19.980000" fill="red">
  <title>Dhaka</title>
</circle><line x1="740.960022" y1="1130.959961" x2="341.959991" y2="883.960022" stroke="red" stroke-width="6.660000" />
</svg>
