<?xml version="1.0" encoding="UTF-8" standalone="no"?>
<svg width="500" height="500" viewBox="0 0 2074.000000 2074.000000" xmlns="http://www.w3.org/2000/svg">
<rect x="19.000000" y="19.000000" width="2036.000000" height="2036.000000" fill="black" />
<circle cx="1089.959961" cy="2025.959961" r="19.980000" fill="red">
  <title>Tokyo</title>
</circle><line x1="1489.959961" y1="956.960022" x2="1089.959961" y2="2025.959961" stroke="red" stroke-width="6.660000" />
<circle cx="842.960022" cy="1823.959961" r="19.980000" fill="red">
  <title>Shanghai</title>
</circle><line x1="1089.959961" y1="2025.959961" x2="842.960022" y2="1823.959961" stroke="red" stroke-width="6.660000" />
<circle cx="370.959991" cy="1848.959961" r="19.980000" fill="red">
  <title>Beijing</title>
</circle><line x1="842.960022" y1="1823.959961" x2="370.959991" y2="1848.959961" stroke="red" stroke-width="6.660000" />
<circle cx="744.960022" cy="1815.959961" r="19.980000" fill="red">
  <title>Chongqing</title>
</circle><line x1="370.959991" y1="1848.959961" x2="744.960022" y2="1815.959961" stroke="red" stroke-width="6.660000" />
<circle cx="862.960022" cy="1494.959961" r="19.980000" fill="red">
  <title>Karachi</title>
</circle><line x1="744.960022" y1="1815.959961" x2="862.960022" y2="1494.959961" stroke="red" stroke-width="6.660000" />
<circle cx="600.960022" cy="514.960022" r="19.980000" fill="red">
  <title>Mumbai</title>
</circle><line x1="862.960022" y1="1494.959961" x2="600.960022" y2="514.960022" stroke="red" stroke-width="6.660000" />
<circle cx="266.959991" cy="458.959991" r="19.980000" fill="red">
  <title>Osaka</title>
</circle><line x1="600.960022" y1="514.960022" x2="266.959991" y2="458.959991" stroke="red" stroke-width="6.660000" />
<circle cx="404.959991" cy="158.959991" r="19.980000" fill="red">
  <title>Cairo</title>
</circle><line x1="266.959991" y1="458.959991" x2="404.959991" y2="158.959991" stroke="red" stroke-width="6.660000" />
<circle cx="417.959991" cy="71.959999" r="19.980000" fill="red">
  <title>Delhi</title>
</circle><line x1="404.959991" y1="158.959991" x2="417.959991" y2="71.959999" stroke="red" stroke-width="6.660000" />
<circle cx="1150.959961" cy="228.959991" r="19.980000" fill="red">
  <title>Buenos Aires</title>
</circle><line x1="417.959991" y1="71.959999" x2="1150.959961" y2="228.959991" stroke="red" stroke-width="6.660000" />
<circle cx="1441.959961" cy="543.960022" r="19.980000" fill="red">
  <title>New York</title>
</circle><line x1="1150.959961" y1="228.959991" x2="1441.959961" y2="543.960022" stroke="red" stroke-width="6.660000" />
<circle cx="1878.959961" cy="431.959991" r="19.980000" fill="red">
  <title>São Paulo</title>
</circle><line x1="1441.959961" y1="543.960022" x2="1878.959961" y2="431.959991" stroke="red" stroke-width="6.660000" />
<circle cx="1325.959961" cy="825.960022" r="19.980000" fill="red">
  <title>Mexico City</title>
</circle><line x1="1878.959961" y1="431.959991" x2="1325.959961" y2="825.960022" stroke="red" stroke-width="6.660000" />
<circle cx="1489.959961" cy="956.960022" r="19.980000" fill="red">
  <title>Dhaka</title>
</circle><line x1="1325.959961" y1="825.960022" x2="1489.959961" y2="956.960022" stroke="red" stroke-width="6.660000" />
</svg>
