<?xml version="1.0" encoding="UTF-8" standalone="no"?>
<svg width="500" height="500" viewBox="0 0 2074.000000 2074.000000" xmlns="http://www.w3.org/2000/svg">
<rect x="19.000000" y="19.000000" width="2036.000000" height="2036.000000" fill="black" />
<circle cx="1244.959961" cy="1216.959961" r="19.980000" fill="red">
  <title>Tokyo</title>
</circle><line x1="1406.959961" y1="1409.959961" x2="1244.959961" y2="1216.959961" stroke="red" stroke-width="6.660000" />
<circle cx="376.959991" cy="1050.959961" r="19.980000" fill="red">
  <title>Shanghai</title>
</circle><line x1="1244.959961" y1="1216.959961" x2="376.959991" y2="1050.959961" stroke="red" stroke-width="6.660000" />
<circle cx="494.959991" cy="673.960022" r="19.980000" fill="red">
  <title>Cairo</title>
</circle><line x1="376.959991" y1="1050.959961" x2="494.959991" y2="673.960022" stroke="red" stroke-width="6.660000" />
<circle cx="1657.959961" cy="289.959991" r="19.980000" fill="red">
  <title>Mumbai</title>
</circle><line x1="494.959991" y1="673.960022" x2="1657.959961" y2="289.959991" stroke="red" stroke-width="6.660000" />
<circle cx="1798.959961" cy="376.959991" r="19.980000" fill="red">
  <title>Delhi</title>
</circle><line x1="1657.959961" y1="289.959991" x2="1798.959961" y2="376.959991" stroke="red" stroke-width="6.660000" />
<circle cx="1953.959961" cy="349.959991" r="19.980000" fill="red">
  <title>São Paulo</title>
</circle><line x1="1798.959961" y1="376.959991" x2="1953.959961" y2="349.959991" stroke="red" stroke-width="6.660000" />
<circle cx="1919.959961" cy="1485.959961" r="19.980000" fill="red">
  <title>Mexico City</title>
</circle><line x1="1953.959961" y1="349.959991" x2="1919.959961" y2="1485.959961" stroke="red" stroke-width="6.660000" />
<circle cx="1406.959961" cy="1409.959961" r="19.980000" fill="red">
  <title>Beijing</title>
</circle><line x1="1919.959961" y1="1485.959961" x2="1406.959961" y2="1409.959961" stroke="red" stroke-width="6.660000" />
</svg>
