<?xml version="1.0" encoding="UTF-8" standalone="no"?>
<svg width="500" height="500" viewBox="0 0 2074.000000 2074.000000" xmlns="http://www.w3.org/2000/svg">
<rect x="19.000000" y="19.000000" width="2036.000000" height="2036.000000" fill="black" />
<circle cx="856.960022" cy="872.960022" r="19.980000" fill="red">
  <title>Tokyo</title>
</circle><line x1="629.960022" y1="1267.959961" x2="856.960022" y2="872.960022" stroke="red" stroke-width="6.660000" />
<circle cx="858.960022" cy="581.960022" r="19.980000" fill="red">
  <title>Shanghai</title>
</circle><line x1="856.960022" y1="872.960022" x2="858.960022" y2="581.960022" stroke="red" stroke-width="6.660000" />
<circle cx="1097.959961" cy="151.959991" r="19.980000" fill="red">
  <title>Istanbul</title>
</circle><line x1="858.960022" y1="581.960022" x2="1097.959961" y2="151.959991" stroke="red" stroke-width="6.660000" />
<circle cx="1248.959961" cy="104.959999" r="19.980000" fill="red">
  <title>New York</title>
</circle><line x1="1097.959961" y1="151.959991" x2="1248.959961" y2="104.959999" stroke="red" stroke-width="6.660000" />
<circle cx="2012.959961" cy="209.959991" r="19.980000" fill="red">
  <title>Beijing</title>
</circle><line x1="1248.959961" y1="104.959999" x2="2012.959961" y2="209.959991" stroke="red" stroke-width="6.660000" />
<circle cx="1752.959961" cy="486.959991" r="19.980000" fill="red">
  <title>Cairo</title>
</circle><line x1="2012.959961" y1="209.959991" x2="1752.959961" y2="486.959991" stroke="red" stroke-width="6.660000" />
<circle cx="1093.959961" cy="950.960022" r="19.980000" fill="red">
  <title>São Paulo</title>
</circle><line x1="1752.959961" y1="486.959991" x2="1093.959961" y2="950.960022" stroke="red" stroke-width="6.660000" />
<circle cx="959.960022" cy="1036.959961" r="19.980000" fill="red">
  <title>Chongqing</title>
</circle><line x1="1093.959961" y1="950.960022" x2="959.960022" y2="1036.959961" stroke="red" stroke-width="6.660000" />
<circle cx="1135.959961" cy="1496.959961" r="19.980000" fill="red">
  <title>Delhi</title>
</circle><line x1="959.960022" y1="1036.959961" x2="1135.959961" y2="1496.959961" stroke="red" stroke-width="6.660000" />
<circle cx="1829.959961" cy="1702.959961" r="19.980000" fill="red">
  <title>Buenos Aires</title>
</circle><line x1="1135.959961" y1="1496.959961" x2="1829.959961" y2="1702.959961" stroke="red" stroke-width="6.660000" />
<circle cx="1724.959961" cy="1956.959961" r="19.980000" fill="red">
  <title>Mexico City</title>
</circle><line x1="1829.959961" y1="1702.959961" x2="1724.959961" y2="1956.959961" stroke="red" stroke-width="6.660000" />
<circle cx="1214.959961" cy="1781.959961" r="19.980000" fill="red">
  <title>Dhaka</title>
</circle><line x1="1724.959961" y1="1956.959961" x2="1214.959961" y2="1781.959961" stroke="red" stroke-width="6.660000" />
<circle cx="985.960022" cy="1747.959961" r="19.980000" fill="red">
  <title>Manila</title>
</circle><line x1="1214.959961" y1="1781.959961" x2="985.960022" y2="1747.959961" stroke="red" stroke-width="6.660000" />
<circle cx="949.960022" cy="1719.959961" r="19.980000" fill="red">
  <title>Mumbai</title>
</circle><line x1="985.960022" y1="1747.959961" x2="949.960022" y2="1719.959961" stroke="red" stroke-width="6.660000" />
<circle cx="650.960022" cy="1915.959961" r="19.980000" fill="red">
  <title>Kolkata</title>
</circle><line x1="949.960022" y1="1719.959961" x2="650.960022" y2="1915.959961" stroke="red" stroke-width="6.660000" />
<circle cx="648.960022" cy="1698.959961" r="19.980000" fill="red">
  <title>Osaka</title>
</circle><line x1="650.960022" y1="1915.959961" x2="648.960022" y2="1698.959961" stroke="red" stroke-width="6.660000" />
<circle cx="629.960022" cy="1267.959961" r="19.980000" fill="red">
  <title>Karachi</title>
</circle><line x1="648.960022" y1="1698.959961" x2="629.960022" y2="1267.959961" stroke="red" stroke-width="6.660000" />
</svg>
