<?xml version="1.0" encoding="UTF-8" standalone="no"?>
<svg width="500" height="500" viewBox="0 0 2074.000000 2074.000000" xmlns="http://www.w3.org/2000/svg">
<rect x="19.000000" y="19.000000" width="2036.000000" height="2036.000000" fill="black" />
<circle cx="1702.959961" cy="780.960022" r="19.980000" fill="red">
  <title>Tokyo</title>
</circle><line x1="1924.959961" y1="909.960022" x2="1702.959961" y2="780.960022" stroke="red" stroke-width="6.660000" />
<circle cx="1727.959961" cy="181.959991" r="19.980000" fill="red">
  <title>Shanghai</title>
</circle><line x1="1702.959961" y1="780.960022" x2="1727.959961" y2="181.959991" stroke="red" stroke-width="6.660000" />
<circle cx="1240.959961" cy="210.959991" r="19.980000" fill="red">
  <title>Delhi</title>
</circle><line x1="1727.959961" y1="181.959991" x2="1240.959961" y2="210.959991" stroke="red" stroke-width="6.660000" />
<circle cx="1146.959961" cy="757.960022" r="19.980000" fill="red">
  <title>Dhaka</title>
</circle><line x1="1240.959961" y1="210.959991" x2="1146.959961" y2="757.960022" stroke="red" stroke-width="6.660000" />
<circle cx="281.959991" cy="615.960022" r="19.980000" fill="red">
  <title>Beijing</title>
</circle><line x1="1146.959961" y1="757.960022" x2="281.959991" y2="615.960022" stroke="red" stroke-width="6.660000" />
<circle cx="76.959999" cy="1517.959961" r="19.980000" fill="red">
  <title>São Paulo</title>
</circle><line x1="281.959991" y1="615.960022" x2="76.959999" y2="1517.959961" stroke="red" stroke-width="6.660000" />
<circle cx="501.959991" cy="1743.959961" r="19.980000" fill="red">
  <title>Mexico City</title>
</circle><line x1="76.959999" y1="1517.959961" x2="501.959991" y2="1743.959961" stroke="red" stroke-width="6.660000" />
<circle cx="767.960022" cy="1526.959961" r="19.980000" fill="red">
  <title>Karachi</title>
</circle><line x1="501.959991" y1="1743.959961" x2="767.960022" y2="1526.959961" stroke="red" stroke-width="6.660000" />
<circle cx="1126.959961" cy="1667.959961" r="19.980000" fill="red">
  <title>Osaka</title>
</circle><line x1="767.960022" y1="1526.959961" x2="1126.959961" y2="1667.959961" stroke="red" stroke-width="6.660000" />
<circle cx="1260.959961" cy="1202.959961" r="19.980000" fill="red">
  <title>Cairo</title>
</circle><line x1="1126.959961" y1="1667.959961" x2="1260.959961" y2="1202.959961" stroke="red" stroke-width="6.660000" />
<circle cx="1640.959961" cy="1092.959961" r="19.980000" fill="red">
  <title>New York</title>
</circle><line x1="1260.959961" y1="1202.959961" x2="1640.959961" y2="1092.959961" stroke="red" stroke-width="6.660000" />
<circle cx="1924.959961" cy="909.960022" r="19.980000" fill="red">
  <title>Mumbai</title>
</circle><line x1="1640.959961" y1="1092.959961" x2="1924.959961" y2="909.960022" stroke="red" stroke-width="6.660000" />
</svg>
