<?xml version="1.0" encoding="UTF-8" standalone="no"?>
<svg width="500" height="500" viewBox="0 0 2074.000000 2074.000000" xmlns="http://www.w3.org/2000/svg">
<rect x="19.000000" y="19.000000" width="2036.000000" height="2036.000000" fill="black" />
<circle cx="1877.959961" cy="1706.959961" r="19.980000" fill="red">
  <title>Tokyo</title>
</circle><line x1="1417.959961" y1="1445.959961" x2="1877.959961" y2="1706.959961" stroke="red" stroke-width="6.660000" />
<circle cx="1066.959961" cy="1749.959961" r="19.980000" fill="red">
  <title>Istanbul</title>
</circle><line x1="1877.959961" y1="1706.959961" x2="1066.959961" y2="1749.959961" stroke="red" stroke-width="6.660000" />
<circle cx="432.959991" cy="1997.959961" r="19.980000" fill="red">
  <title>Mexico City</title>
</circle><line x1="1066.959961" y1="1749.959961" x2="432.959991" y2="1997.959961" stroke="red" stroke-width="6.660000" />
<circle cx="594.960022" cy="1687.959961" r="19.980000" fill="red">
  <title>Buenos Aires</title>
</circle><line x1="432.959991" y1="1997.959961" x2="594.960022" y2="1687.959961" stroke="red" stroke-width="6.660000" />
<circle cx="386.959991" cy="1324.959961" r="19.980000" fill="red">
  <title>Cairo</title>
</circle><line x1="594.960022" y1="1687.959961" x2="386.959991" y2="1324.959961" stroke="red" stroke-width="6.660000" />
<circle cx="345.959991" cy="905.960022" r="19.980000" fill="red">
  <title>Kolkata</title>
</circle><line x1="386.959991" y1="1324.959961" x2="345.959991" y2="905.960022" stroke="red" stroke-width="6.660000" />
<circle cx="226.959991" cy="623.960022" r="19.980000" fill="red">
  <title>São Paulo</title>
</circle><line x1="345.959991" y1="905.960022" x2="226.959991" y2="623.960022" stroke="red" stroke-width="6.660000" />
<circle cx="95.959999" cy="189.959991" r="19.980000" fill="red">
  <title>Beijing</title>
</circle><line x1="226.959991" y1="623.960022" x2="95.959999" y2="189.959991" stroke="red" stroke-width="6.660000" />
<circle cx="689.960022" cy="369.959991" r="19.980000" fill="red">
  <title>Karachi</title>
</circle><line x1="95.959999" y1="189.959991" x2="689.960022" y2="369.959991" stroke="red" stroke-width="6.660000" />
<circle cx="1490.959961" cy="141.959991" r="19.980000" fill="red">
  <title>New York</title>
</circle><line x1="689.960022" y1="369.959991" x2="1490.959961" y2="141.959991" stroke="red" stroke-width="6.660000" />
<circle cx="1546.959961" cy="554.960022" r="19.980000" fill="red">
  <title>Shanghai</title>
</circle><line x1="1490.959961" y1="141.959991" x2="1546.959961" y2="554.960022" stroke="red" stroke-width="6.660000" />
<circle cx="1494.959961" cy="680.960022" r="19.980000" fill="red">
  <title>Chongqing</title>
</circle><line x1="1546.959961" y1="554.960022" x2="1494.959961" y2="680.960022" stroke="red" stroke-width="6.660000" />
<circle cx="1163.959961" cy="767.960022" r="19.980000" fill="red">
  <title>Mumbai</title>
</circle><line x1="1494.959961" y1="680.960022" x2="1163.959961" y2="767.960022" stroke="red" stroke-width="6.660000" />
<circle cx="1138.959961" cy="878.960022" r="19.980000" fill="red">
  <title>Delhi</title>
</circle><line x1="1163.959961" y1="767.960022" x2="1138.959961" y2="878.960022" stroke="red" stroke-width="6.660000" />
<circle cx="1384.959961" cy="980.960022" r="19.980000" fill="red">
  <title>Dhaka</title>
</circle><line x1="1138.959961" y1="878.960022" x2="1384.959961" y2="980.960022" stroke="red" stroke-width="6.660000" />
<circle cx="1269.959961" cy="1105.959961" r="19.980000" fill="red">
  <title>Osaka</title>
</circle><line x1="1384.959961" y1="980.960022" x2="1269.959961" y2="1105.959961" stroke="red" stroke-width="6.660000" />
<circle cx="1417.959961" cy="1445.959961" r="19.980000" fill="red">
  <title>Manila</title>
</circle><line x1="1269.959961" y1="1105.959961" x2="1417.959961" y2="1445.959961" stroke="red" stroke-width="6.660000" />
</svg>
