<?xml version="1.0" encoding="UTF-8" standalone="no"?>
<svg width="500" height="500" viewBox="0 0 2074.000000 2074.000000" xmlns="http://www.w3.org/2000/svg">
<rect x="19.000000" y="19.000000" width="2036.000000" height="2036.000000" fill="black" />
<circle cx="1502.959961" cy="1644.959961" r="19.980000" fill="red">
  <title>Tokyo</title>
</circle><line x1="1940.959961" y1="1482.959961" x2="1502.959961" y2="1644.959961" stroke="red" stroke-width="6.660000" />
<circle cx="1279.959961" cy="1962.959961" r="19.980000" fill="red">
  <title>Beijing</title>
</circle><line x1="1502.959961" y1="1644.959961" x2="1279.959961" y2="1962.959961" stroke="red" stroke-width="6.660000" />
<circle cx="1275.959961" cy="1974.959961" r="19.980000" fill="red">
  <title>Osaka</title>
</circle><line x1="1279.959961" y1="1962.959961" x2="1275.959961" y2="1974.959961" stroke="red" stroke-width="6.660000" />
<circle cx="836.960022" cy="2002.959961" r="19.980000" fill="red">
  <title>Shanghai</title>
</circle><line x1="1275.959961" y1="1974.959961" x2="836.960022" y2="2002.959961" stroke="red" stroke-width="6.660000" />
<circle cx="566.960022" cy="1776.959961" r="19.980000" fill="red">
  <title>Kolkata</title>
</circle><line x1="836.960022" y1="2002.959961" x2="566.960022" y2="1776.959961" stroke="red" stroke-width="6.660000" />
<circle cx="491.959991" cy="1769.959961" r="19.980000" fill="red">
  <title>Delhi</title>
</circle><line x1="566.960022" y1="1776.959961" x2="491.959991" y2="1769.959961" stroke="red" stroke-width="6.660000" />
<circle cx="485.959991" cy="1555.959961" r="19.980000" fill="red">
  <title>New York</title>
</circle><line x1="491.959991" y1="1769.959961" x2="485.959991" y2="1555.959961" stroke="red" stroke-width="6.660000" />
<circle cx="707.960022" cy="1031.959961" r="19.980000" fill="red">
  <title>Chongqing</title>
</circle><line x1="485.959991" y1="1555.959961" x2="707.960022" y2="1031.959961" stroke="red" stroke-width="6.660000" />
<circle cx="312.959991" cy="651.960022" r="19.980000" fill="red">
  <title>Istanbul</title>
</circle><line x1="707.960022" y1="1031.959961" x2="312.959991" y2="651.960022" stroke="red" stroke-width="6.660000" />
<circle cx="157.959991" cy="590.960022" r="19.980000" fill="red">
  <title>Dhaka</title>
</circle><line x1="312.959991" y1="651.960022" x2="157.959991" y2="590.960022" stroke="red" stroke-width="6.660000" />
<circle cx="68.959999" cy="593.960022" r="19.980000" fill="red">
  <title>Cairo</title>
</circle><line x1="157.959991" y1="590.960022" x2="68.959999" y2="593.960022" stroke="red" stroke-width="6.660000" />
<circle cx="146.959991" cy="240.959991" r="19.980000" fill="red">
  <title>Karachi</title>
</circle><line x1="68.959999" y1="593.960022" x2="146.959991" y2="240.959991" stroke="red" stroke-width="6.660000" />
<circle cx="669.960022" cy="210.959991" r="19.980000" fill="red">
  <title>Mexico City</title>
</circle><line x1="146.959991" y1="240.959991" x2="669.960022" y2="210.959991" stroke="red" stroke-width="6.660000" />
<circle cx="1554.959961" cy="97.959999" r="19.980000" fill="red">
  <title>São Paulo</title>
</circle><line x1="669.960022" y1="210.959991" x2="1554.959961" y2="97.959999" stroke="red" stroke-width="6.660000" />
<circle cx="1802.959961" cy="978.960022" r="19.980000" fill="red">
  <title>Mumbai</title>
</circle><line x1="1554.959961" y1="97.959999" x2="1802.959961" y2="978.960022" stroke="red" stroke-width="6.660000" />
<circle cx="1940.959961" cy="1482.959961" r="19.980000" fill="red">
  <title>Buenos Aires</title>
</circle><line x1="1802.959961" y1="978.960022" x2="1940.959961" y2="1482.959961" stroke="red" stroke-width="6.660000" />
</svg>
