<?xml version="1.0" encoding="UTF-8" standalone="no"?>
<svg width="500" height="500" viewBox="0 0 2074.000000 2074.000000" xmlns="http://www.w3.org/2000/svg">
<rect x="19.000000" y="19.000000" width="2036.000000" height="2036.000000" fill="black" />
<circle cx="1057.959961" cy="1196.959961" r="19.980000" fill="red">
  <title>Tokyo</title>
</circle><line x1="847.960022" y1="509.959991" x2="1057.959961" y2="1196.959961" stroke="red" stroke-width="6.660000" />
<circle cx="1460.959961" cy="1246.959961" r="19.980000" fill="red">
  <title>Mexico City</title>
</circle><line x1="1057.959961" y1="1196.959961" x2="1460.959961" y2="1246.959961" stroke="red" stroke-width="6.660000" />
<circle cx="1269.959961" cy="1676.959961" r="19.980000" fill="red">
  <title>Shanghai</title>
</circle><line x1="1460.959961" y1="1246.959961" x2="1269.959961" y2="1676.959961" stroke="red" stroke-width="6.660000" />
<circle cx="1280.959961" cy="1940.959961" r="19.980000" fill="red">
  <title>New York</title>
</circle><line x1="1269.959961" y1="1676.959961" x2="1280.959961" y2="1940.959961" stroke="red" stroke-width="6.660000" />
<circle cx="1129.959961" cy="2014.959961" r="19.980000" fill="red">
  <title>São Paulo</title>
</circle><line x1="1280.959961" y1="1940.959961" x2="1129.959961" y2="2014.959961" stroke="red" stroke-width="6.660000" />
<circle cx="808.960022" cy="1770.959961" r="19.980000" fill="red">
  <title>Beijing</title>
</circle><line x1="1129.959961" y1="2014.959961" x2="808.960022" y2="1770.959961" stroke="red" stroke-width="6.660000" />
<circle cx="263.959991" cy="1935.959961" r="19.980000" fill="red">
  <title>Delhi</title>
</circle><line x1="808.960022" y1="1770.959961" x2="263.959991" y2="1935.959961" stroke="red" stroke-width="6.660000" />
<circle cx="251.959991" cy="1836.959961" r="19.980000" fill="red">
  <title>Osaka</title>
</circle><line x1="263.959991" y1="1935.959961" x2="251.959991" y2="1836.959961" stroke="red" stroke-width="6.660000" />
<circle cx="644.960022" cy="1458.959961" r="19.980000" fill="red">
  <title>Dhaka</title>
</circle><line x1="251.959991" y1="1836.959961" x2="644.960022" y2="1458.959961" stroke="red" stroke-width="6.660000" />
<circle cx="349.959991" cy="978.960022" r="19.980000" fill="red">
  <title>Cairo</title>
</circle><line x1="644.960022" y1="1458.959961" x2="349.959991" y2="978.960022" stroke="red" stroke-width="6.660000" />
<circle cx="847.960022" cy="509.959991" r="19.980000" fill="red">
  <title>Mumbai</title>
</circle><line x1="349.959991" y1="978.960022" x2="847.960022" y2="509.959991" stroke="red" stroke-width="6.660000" />
</svg>
