<?xml version="1.0" encoding="UTF-8" standalone="no"?>
<svg width="500" height="500" viewBox="0 0 2074.000000 2074.000000" xmlns="http://www.w3.org/2000/svg">
<rect x="19.000000" y="19.000000" width="2036.000000" height="2036.000000" fill="black" />
<circle cx="1084.959961" cy="525.960022" r="19.980000" fill="red">
  <title>Tokyo</title>
</circle><line x1="809.960022" y1="1092.959961" x2="1084.959961" y2="525.960022" stroke="red" stroke-width="6.660000" />
<circle cx="1543.959961" cy="223.959991" r="19.980000" fill="red">
  <title>Delhi</title>
</circle><line x1="1084.959961" y1="525.960022" x2="1543.959961" y2="223.959991" stroke="red" stroke-width="6.660000" />
<circle cx="387.959991" cy="72.959999" r="19.980000" fill="red">
  <title>Mumbai</title>
</circle><line x1="1543.959961" y1="223.959991" x2="387.959991" y2="72.959999" stroke="red" stroke-width="6.660000" />
<circle cx="411.959991" cy="1132.959961" r="19.980000" fill="red">
  <title>Shanghai</title>
</circle><line x1="387.959991" y1="72.959999" x2="411.959991" y2="1132.959961" stroke="red" stroke-width="6.660000" />
<circle cx="720.960022" cy="1925.959961" r="19.980000" fill="red">
  <title>Cairo</title>
</circle><line x1="411.959991" y1="1132.959961" x2="720.960022" y2="1925.959961" stroke="red" stroke-width="6.660000" />
<circle cx="1750.959961" cy="1773.959961" r="19.980000" fill="red">
  <title>Mexico City</title>
</circle><line x1="720.960022" y1="1925.959961" x2="1750.959961" y2="1773.959961" stroke="red" stroke-width="6.660000" />
<circle cx="809.960022" cy="1092.959961" r="19.980000" fill="red">
  <title>São Paulo</title>
</circle><line x1="1750.959961" y1="1773.959961" x2="809.960022" y2="1092.959961" stroke="red" stroke-width="6.660000" />
</svg>
