<?xml version="1.0" encoding="UTF-8" standalone="no"?>
<svg width="500" height="500" viewBox="0 0 2074.000000 2074.000000" xmlns="http://www.w3.org/2000/svg">
<rect x="19.000000" y="19.000000" width="2036.000000" height="2036.000000" fill="black" />
<circle cx="264.959991" cy="710.960022" r="19.980000" fill="red">
  <title>Tokyo</title>
</circle><line x1="1114.959961" y1="844.960022" x2="264.959991" y2="710.960022" stroke="red" stroke-width="6.660000" />
<circle cx="1122.959961" cy="1023.960022" r="19.980000" fill="red">
  <title>Mexico City</title>
</circle><line x1="264.959991" y1="710.960022" x2="1122.959961" y2="1023.960022" stroke="red" stroke-width="6.660000" />
<circle cx="1517.959961" cy="1492.959961" r="19.980000" fill="red">
  <title>Cairo</title>
</circle><line x1="1122.959961" y1="1023.960022" x2="1517.959961" y2="1492.959961" stroke="red" stroke-width="6.660000" />
<circle cx="1693.959961" cy="1761.959961" r="19.980000" fill="red">
  <title>São Paulo</title>
</circle><line x1="1517.959961" y1="1492.959961" x2="1693.959961" y2="1761.959961" stroke="red" stroke-width="6.660000" />
<circle cx="1727.959961" cy="1201.959961" r="19.980000" fill="red">
  <title>Dhaka</title>
</circle><line x1="1693.959961" y1="1761.959961" x2="1727.959961" y2="1201.959961" stroke="red" stroke-width="6.660000" />
<circle cx="1978.959961" cy="827.960022" r="19.980000" fill="red">
  <title>Shanghai</title>
</circle><line x1="1727.959961" y1="1201.959961" x2="1978.959961" y2="827.960022" stroke="red" stroke-width="6.660000" />
<circle cx="1844.959961" cy="614.960022" r="19.980000" fill="red">
  <title>Mumbai</title>
</circle><line x1="1978.959961" y1="827.960022" x2="1844.959961" y2="614.960022" stroke="red" stroke-width="6.660000" />
<circle cx="1447.959961" cy="348.959991" r="19.980000" fill="red">
  <title>Delhi</title>
</circle><line x1="1844.959961" y1="614.960022" x2="1447.959961" y2="348.959991" stroke="red" stroke-width="6.660000" />
<circle cx="1114.959961" cy="844.960022" r="19.980000" fill="red">
  <title>Beijing</title>
</circle><line x1="1447.959961" y1="348.959991" x2="1114.959961" y2="844.960022" stroke="red" stroke-width="6.660000" />
</svg>
