<?xml version="1.0" encoding="UTF-8" standalone="no"?>
<svg width="500" height="500" viewBox="0 0 2074.000000 2074.000000" xmlns="http://www.w3.org/2000/svg">
<rect x="19.000000" y="19.000000" width="2036.000000" height="2036.000000" fill="black" />
<circle cx="368.959991" cy="1351.959961" r="19.980000" fill="red">
  <title>Tokyo</title>
</circle><line x1="1068.959961" y1="1615.959961" x2="368.959991" y2="1351.959961" stroke="red" stroke-width="6.660000" />
<circle cx="545.960022" cy="880.960022" r="19.980000" fill="red">
  <title>Mexico City</title>
</circle><line x1="368.959991" y1="1351.959961" x2="545.960022" y2="880.960022" stroke="red" stroke-width="6.660000" />
<circle cx="264.959991" cy="524.960022" r="19.980000" fill="red">
  <title>Karachi</title>
</circle><line x1="545.960022" y1="880.960022" x2="264.959991" y2="524.960022" stroke="red" stroke-width="6.660000" />
<circle cx="752.960022" cy="320.959991" r="19.980000" fill="red">
  <title>Delhi</title>
</circle><line x1="264.959991" y1="524.960022" x2="752.960022" y2="320.959991" stroke="red" stroke-width="6.660000" />
<circle cx="900.960022" cy="107.959999" r="19.980000" fill="red">
  <title>Dhaka</title>
</circle><line x1="752.960022" y1="320.959991" x2="900.960022" y2="107.959999" stroke="red" stroke-width="6.660000" />
<circle cx="1731.959961" cy="310.959991" r="19.980000" fill="red">
  <title>São Paulo</title>
</circle><line x1="900.960022" y1="107.959999" x2="1731.959961" y2="310.959991" stroke="red" stroke-width="6.660000" />
<circle cx="1936.959961" cy="828.960022" r="19.980000" fill="red">
  <title>Shanghai</title>
</circle><line x1="1731.959961" y1="310.959991" x2="1936.959961" y2="828.960022" stroke="red" stroke-width="6.660000" />
<circle cx="1691.959961" cy="692.960022" r="19.980000" fill="red">
  <title>New York</title>
</circle><line x1="1936.959961" y1="828.960022" x2="1691.959961" y2="692.960022" stroke="red" stroke-width="6.660000" />
<circle cx="1014.960022" cy="921.960022" r="19.980000" fill="red">
  <title>Mumbai</title>
</circle><line x1="1691.959961" y1="692.960022" x2="1014.960022" y2="921.960022" stroke="red" stroke-width="6.660000" />
<circle cx="1040.959961" cy="1526.959961" r="19.980000" fill="red">
  <title>Osaka</title>
</circle><line x1="1014.960022" y1="921.960022" x2="1040.959961" y2="1526.959961" stroke="red" stroke-width="6.660000" />
<circle cx="1221.959961" cy="1712.959961" r="19.980000" fill="red">
  <title>Buenos Aires</title>
</circle><line x1="1040.959961" y1="1526.959961" x2="1221.959961" y2="1712.959961" stroke="red" stroke-width="6.660000" />
<circle cx="1368.959961" cy="1931.959961" r="19.980000" fill="red">
  <title>Beijing</title>
</circle><line x1="1221.959961" y1="1712.959961" x2="1368.959961" y2="1931.959961" stroke="red" stroke-width="6.660000" />
<circle cx="1068.959961" cy="1615.959961" r="19.980000" fill="red">
  <title>Cairo</title>
</circle><line x1="1368.959961" y1="1931.959961" x2="1068.959961" y2="1615.959961" stroke="red" stroke-width="6.660000" />
</svg>
