<?xml version="1.0" encoding="UTF-8" standalone="no"?>
<svg width="500" height="500" viewBox="0 0 2074.000000 2074.000000" xmlns="http://www.w3.org/2000/svg">
<rect x="19.000000" y="19.000000" width="2036.000000" height="2036.000000" fill="black" />
<circle cx="1886.959961" cy="116.959999" r="19.980000" fill="red">
  <title>Tokyo</title>
</circle><line x1="669.960022" y1="156.959991" x2="1886.959961" y2="116.959999" stroke="red" stroke-width="6.660000" />
<circle cx="1403.959961" cy="1964.959961" r="19.980000" fill="red">
  <title>Delhi</title>
</circle><line x1="1886.959961" y1="116.959999" x2="1403.959961" y2="1964.959961" stroke="red" stroke-width="6.660000" />
<circle cx="254.959991" cy="898.960022" r="19.980000" fill="red">
  <title>Shanghai</title>
</circle><line x1="1403.959961" y1="1964.959961" x2="254.959991" y2="898.960022" stroke="red" stroke-width="6.660000" />
<circle cx="669.960022" cy="156.959991" r="19.980000" fill="red">
  <title>São Paulo</title>
</circle><line x1="254.959991" y1="898.960022" x2="669.960022" y2="156.959991" stroke="red" stroke-width="6.660000" />
</svg>
