<?xml version="1.0" encoding="UTF-8" standalone="no"?>
<svg width="500" height="500" viewBox="0 0 2074.000000 2074.000000" xmlns="http://www.w3.org/2000/svg">
<rect x="19.000000" y="19.000000" width="2036.000000" height="2036.000000" fill="black" />
<circle cx="122.959999" cy="1479.959961" r="19.980000" fill="red">
  <title>Tokyo</title>
</circle><line x1="951.960022" y1="1110.959961" x2="122.959999" y2="1479.959961" stroke="red" stroke-width="6.660000" />
<circle cx="322.959991" cy="1738.959961" r="19.980000" fill="red">
  <title>Osaka</title>
</circle><line x1="122.959999" y1="1479.959961" x2="322.959991" y2="1738.959961" stroke="red" stroke-width="6.660000" />
<circle cx="493.959991" cy="1860.959961" r="19.980000" fill="red">
  <title>Delhi</title>
</circle><line x1="322.959991" y1="1738.959961" x2="493.959991" y2="1860.959961" stroke="red" stroke-width="6.660000" />
<circle cx="1216.959961" cy="1985.959961" r="19.980000" fill="red">
  <title>Beijing</title>
</circle><line x1="493.959991" y1="1860.959961" x2="1216.959961" y2="1985.959961" stroke="red" stroke-width="6.660000" />
<circle cx="1940.959961" cy="1972.959961" r="19.980000" fill="red">
  <title>Kolkata</title>
</circle><line x1="1216.959961" y1="1985.959961" x2="1940.959961" y2="1972.959961" stroke="red" stroke-width="6.660000" />
<circle cx="2000.959961" cy="1000.960022" r="19.980000" fill="red">
  <title>Mumbai</title>
</circle><line x1="1940.959961" y1="1972.959961" x2="2000.959961" y2="1000.960022" stroke="red" stroke-width="6.660000" />
<circle cx="1889.959961" cy="1003.960022" r="19.980000" fill="red">
  <title>Istanbul</title>
</circle><line x1="2000.959961" y1="1000.960022" x2="1889.959961" y2="1003.960022" stroke="red" stroke-width="6.660000" />
<circle cx="1907.959961" cy="912.960022" r="19.980000" fill="red">
  <title>Dhaka</title>
</circle><line x1="1889.959961" y1="1003.960022" x2="1907.959961" y2="912.960022" stroke="red" stroke-width="6.660000" />
<circle cx="1642.959961" cy="888.960022" r="19.980000" fill="red">
  <title>Shanghai</title>
</circle><line x1="1907.959961" y1="912.960022" x2="1642.959961" y2="888.960022" stroke="red" stroke-width="6.660000" />
<circle cx="1889.959961" cy="326.959991" r="19.980000" fill="red">
  <title>Mexico City</title>
</circle><line x1="1642.959961" y1="888.960022" x2="1889.959961" y2="326.959991" stroke="red" stroke-width="6.660000" />
<circle cx="1519.959961" cy="66.959999" r="19.980000" fill="red">
  <title>São Paulo</title>
</circle><line x1="1889.959961" y1="326.959991" x2="1519.959961" y2="66.959999" stroke="red" stroke-width="6.660000" />
<circle cx="1147.959961" cy="99.959999" r="19.980000" fill="red">
  <title>Karachi</title>
</circle><line x1="1519.959961" y1="66.959999" x2="1147.959961" y2="99.959999" stroke="red" stroke-width="6.660000" />
<circle cx="342.959991" cy="370.959991" r="19.980000" fill="red">
  <title>New York</title>
</circle><line x1="1147.959961" y1="99.959999" x2="342.959991" y2="370.959991" stroke="red" stroke-width="6.660000" />
<circle cx="298.959991" cy="418.959991" r="19.980000" fill="red">
  <title>Chongqing</title>
</circle><line x1="342.959991" y1="370.959991" x2="298.959991" y2="418.959991" stroke="red" stroke-width="6.660000" />
<circle cx="808.960022" cy="722.960022" r="19.980000" fill="red">
  <title>Cairo</title>
</circle><line x1="298.959991" y1="418.959991" x2="808.960022" y2="722.960022" stroke="red" stroke-width="6.660000" />
<circle cx="951.960022" cy="1110.959961" r="19.980000" fill="red">
  <title>Buenos Aires</title>
</circle><line x1="808.960022" y1="722.960022" x2="951.960022" y2="1110.959961" stroke="red" stroke-width="6.660000" />
</svg>
