<?xml version="1.0" encoding="UTF-8" standalone="no"?>
<svg width="500" height="500" viewBox="0 0 2074.000000 2074.000000" xmlns="http://www.w3.org/2000/svg">
<rect x="19.000000" y="19.000000" width="2036.000000" height="2036.000000" fill="black" />
<circle cx="1157.959961" cy="1806.959961" r="19.980000" fill="red">
  <title>Tokyo</title>
</circle><line x1="1623.959961" y1="1154.959961" x2="1157.959961" y2="1806.959961" stroke="red" stroke-width="6.660000" />
<circle cx="779.960022" cy="1603.959961" r="19.980000" fill="red">
  <title>Shanghai</title>
</circle><line x1="1157.959961" y1="1806.959961" x2="779.960022" y2="1603.959961" stroke="red" stroke-width="6.660000" />
<circle cx="286.959991" cy="796.960022" r="19.980000" fill="red">
  <title>Beijing</title>
</circle><line x1="779.960022" y1="1603.959961" x2="286.959991" y2="796.960022" stroke="red" stroke-width="6.660000" />
<circle cx="55.959999" cy="566.960022" r="19.980000" fill="red">
  <title>São Paulo</title>
</circle><line x1="286.959991" y1="796.960022" x2="55.959999" y2="566.960022" stroke="red" stroke-width="6.660000" />
<circle cx="1056.959961" cy="322.959991" r="19.980000" fill="red">
  <title>Dhaka</title>
</circle><line x1="55.959999" y1="566.960022" x2="1056.959961" y2="322.959991" stroke="red" stroke-width="6.660000" />
<circle cx="1174.959961" cy="625.960022" r="19.980000" fill="red">
  <title>Delhi</title>
</circle><line x1="1056.959961" y1="322.959991" x2="1174.959961" y2="625.960022" stroke="red" stroke-width="6.660000" />
<circle cx="1261.959961" cy="829.960022" r="19.980000" fill="red">
  <title>Osaka</title>
</circle><line x1="1174.959961" y1="625.960022" x2="1261.959961" y2="829.960022" stroke="red" stroke-width="6.660000" />
<circle cx="1511.959961" cy="737.960022" r="19.980000" fill="red">
  <title>Mumbai</title>
</circle><line x1="1261.959961" y1="829.960022" x2="1511.959961" y2="737.960022" stroke="red" stroke-width="6.660000" />
<circle cx="1859.959961" cy="598.960022" r="19.980000" fill="red">
  <title>Mexico City</title>
</circle><line x1="1511.959961" y1="737.960022" x2="1859.959961" y2="598.960022" stroke="red" stroke-width="6.660000" />
<circle cx="2035.959961" cy="762.960022" r="19.980000" fill="red">
  <title>Cairo</title>
</circle><line x1="1859.959961" y1="598.960022" x2="2035.959961" y2="762.960022" stroke="red" stroke-width="6.660000" />
<circle cx="1681.959961" cy="920.960022" r="19.980000" fill="red">
  <title>New York</title>
</circle><line x1="2035.959961" y1="762.960022" x2="1681.959961" y2="920.960022" stroke="red" stroke-width="6.660000" />
<circle cx="1623.959961" cy="1154.959961" r="19.980000" fill="red">
  <title>Karachi</title>
</circle><line x1="1681.959961" y1="920.960022" x2="1623.959961" y2="1154.959961" stroke="red" stroke-width="6.660000" />
</svg>
