<?xml version="1.0" encoding="UTF-8" standalone="no"?>
<svg width="500" height="500" viewBox="0 0 2074.000000 2074.000000" xmlns="http://www.w3.org/2000/svg">
<rect x="19.000000" y="19.000000" width="2036.000000" height="2036.000000" fill="black" />
<circle cx="860.960022" cy="471.959991" r="19.980000" fill="red">
  <title>Tokyo</title>
</circle><line x1="616.960022" y1="353.959991" x2="860.960022" y2="471.959991" stroke="red" stroke-width="6.660000" />
<circle cx="1582.959961" cy="734.960022" r="19.980000" fill="red">
  <title>Cairo</title>
</circle><line x1="860.960022" y1="471.959991" x2="1582.959961" y2="734.960022" stroke="red" stroke-width="6.660000" />
<circle cx="1823.959961" cy="725.960022" r="19.980000" fill="red">
  <title>Mexico City</title>
</circle><line x1="1582.959961" y1="734.960022" x2="1823.959961" y2="725.960022" stroke="red" stroke-width="6.660000" />
<circle cx="2014.959961" cy="1219.959961" r="19.980000" fill="red">
  <title>Delhi</title>
</circle><line x1="1823.959961" y1="725.960022" x2="2014.959961" y2="1219.959961" stroke="red" stroke-width="6.660000" />
<circle cx="2007.959961" cy="1367.959961" r="19.980000" fill="red">
  <title>New York</title>
</circle><line x1="2014.959961" y1="1219.959961" x2="2007.959961" y2="1367.959961" stroke="red" stroke-width="6.660000" />
<circle cx="1996.959961" cy="1538.959961" r="19.980000" fill="red">
  <title>Chongqing</title>
</circle><line x1="2007.959961" y1="1367.959961" x2="1996.959961" y2="1538.959961" stroke="red" stroke-width="6.660000" />
<circle cx="1243.959961" cy="1551.959961" r="19.980000" fill="red">
  <title>Osaka</title>
</circle><line x1="1996.959961" y1="1538.959961" x2="1243.959961" y2="1551.959961" stroke="red" stroke-width="6.660000" />
<circle cx="975.960022" cy="1945.959961" r="19.980000" fill="red">
  <title>Buenos Aires</title>
</circle><line x1="1243.959961" y1="1551.959961" x2="975.960022" y2="1945.959961" stroke="red" stroke-width="6.660000" />
<circle cx="617.960022" cy="1848.959961" r="19.980000" fill="red">
  <title>Mumbai</title>
</circle><line x1="975.960022" y1="1945.959961" x2="617.960022" y2="1848.959961" stroke="red" stroke-width="6.660000" />
<circle cx="752.960022" cy="1322.959961" r="19.980000" fill="red">
  <title>São Paulo</title>
</circle><line x1="617.960022" y1="1848.959961" x2="752.960022" y2="1322.959961" stroke="red" stroke-width="6.660000" />
<circle cx="184.959991" cy="1198.959961" r="19.980000" fill="red">
  <title>Shanghai</title>
</circle><line x1="752.960022" y1="1322.959961" x2="184.959991" y2="1198.959961" stroke="red" stroke-width="6.660000" />
<circle cx="251.959991" cy="538.960022" r="19.980000" fill="red">
  <title>Dhaka</title>
</circle><line x1="184.959991" y1="1198.959961" x2="251.959991" y2="538.960022" stroke="red" stroke-width="6.660000" />
<circle cx="417.959991" cy="487.959991" r="19.980000" fill="red">
  <title>Karachi</title>
</circle><line x1="251.959991" y1="538.960022" x2="417.959991" y2="487.959991" stroke="red" stroke-width="6.660000" />
<circle cx="616.960022" cy="353.959991" r="19.980000" fill="red">
  <title>Beijing</title>
</circle><line x1="417.959991" y1="487.959991" x2="616.960022" y2="353.959991" stroke="red" stroke-width="6.660000" />
</svg>
