<?xml version="1.0" encoding="UTF-8" standalone="no"?>
<svg width="500" height="500" viewBox="0 0 2074.000000 2074.000000" xmlns="http://www.w3.org/2000/svg">
<rect x="19.000000" y="19.000000" width="2036.000000" height="2036.000000" fill="black" />
<circle cx="1601.959961" cy="1174.959961" r="19.980000" fill="red">
  <title>Tokyo</title>
</circle><line x1="1935.959961" y1="1685.959961" x2="1601.959961" y2="1174.959961" stroke="red" stroke-width="6.660000" />
<circle cx="1360.959961" cy="1302.959961" r="19.980000" fill="red">
  <title>Mumbai</title>
</circle><line x1="1601.959961" y1="1174.959961" x2="1360.959961" y2="1302.959961" stroke="red" stroke-width="6.660000" />
<circle cx="1304.959961" cy="1097.959961" r="19.980000" fill="red">
  <title>São Paulo</title>
</circle><line x1="1360.959961" y1="1302.959961" x2="1304.959961" y2="1097.959961" stroke="red" stroke-width="6.660000" />
<circle cx="1443.959961" cy="866.960022" r="19.980000" fill="red">
  <title>Shanghai</title>
</circle><line x1="1304.959961" y1="1097.959961" x2="1443.959961" y2="866.960022" stroke="red" stroke-width="6.660000" />
<circle cx="1866.959961" cy="322.959991" r="19.980000" fill="red">
  <title>Karachi</title>
</circle><line x1="1443.959961" y1="866.960022" x2="1866.959961" y2="322.959991" stroke="red" stroke-width="6.660000" />
<circle cx="1710.959961" cy="282.959991" r="19.980000" fill="red">
  <title>Dhaka</title>
</circle><line x1="1866.959961" y1="322.959991" x2="1710.959961" y2="282.959991" stroke="red" stroke-width="6.660000" />
<circle cx="1536.959961" cy="226.959991" r="19.980000" fill="red">
  <title>Lagos</title>
</circle><line x1="1710.959961" y1="282.959991" x2="1536.959961" y2="226.959991" stroke="red" stroke-width="6.660000" />
<circle cx="1205.959961" cy="76.959999" r="19.980000" fill="red">
  <title>Delhi</title>
</circle><line x1="1536.959961" y1="226.959991" x2="1205.959961" y2="76.959999" stroke="red" stroke-width="6.660000" />
<circle cx="1177.959961" cy="167.959991" r="19.980000" fill="red">
  <title>Beijing</title>
</circle><line x1="1205.959961" y1="76.959999" x2="1177.959961" y2="167.959991" stroke="red" stroke-width="6.660000" />
<circle cx="566.960022" cy="803.960022" r="19.980000" fill="red">
  <title>Rio de Janeiro</title>
</circle><line x1="1177.959961" y1="167.959991" x2="566.960022" y2="803.960022" stroke="red" stroke-width="6.660000" />
<circle cx="339.959991" cy="694.960022" r="19.980000" fill="red">
  <title>Chongqing</title>
</circle><line x1="566.960022" y1="803.960022" x2="339.959991" y2="694.960022" stroke="red" stroke-width="6.660000" />
<circle cx="147.959991" cy="330.959991" r="19.980000" fill="red">
  <title>Cairo</title>
</circle><line x1="339.959991" y1="694.960022" x2="147.959991" y2="330.959991" stroke="red" stroke-width="6.660000" />
<circle cx="255.959991" cy="919.960022" r="19.980000" fill="red">
  <title>Mexico City</title>
</circle><line x1="147.959991" y1="330.959991" x2="255.959991" y2="919.960022" stroke="red" stroke-width="6.660000" />
<circle cx="571.960022" cy="1498.959961" r="19.980000" fill="red">
  <title>Kolkata</title>
</circle><line x1="255.959991" y1="919.960022" x2="571.960022" y2="1498.959961" stroke="red" stroke-width="6.660000" />
<circle cx="502.959991" cy="1845.959961" r="19.980000" fill="red">
  <title>Osaka</title>
</circle><line x1="571.960022" y1="1498.959961" x2="502.959991" y2="1845.959961" stroke="red" stroke-width="6.660000" />
<circle cx="821.960022" cy="1738.959961" r="19.980000" fill="red">
  <title>Manila</title>
</circle><line x1="502.959991" y1="1845.959961" x2="821.960022" y2="1738.959961" stroke="red" stroke-width="6.660000" />
<circle cx="1244.959961" cy="1615.959961" r="19.980000" fill="red">
  <title>New York</title>
</circle><line x1="821.960022" y1="1738.959961" x2="1244.959961" y2="1615.959961" stroke="red" stroke-width="6.660000" />
<circle cx="2002.959961" cy="2035.959961" r="19.980000" fill="red">
  <title>Buenos Aires</title>
</circle><line x1="1244.959961" y1="1615.959961" x2="2002.959961" y2="2035.959961" stroke="red" stroke-width="6.660000" />
<circle cx="1935.959961" cy="1685.959961" r="19.980000" fill="red">
  <title>Istanbul</title>
</circle><line x1="2002.959961" y1="2035.959961" x2="1935.959961" y2="1685.959961" stroke="red" stroke-width="6.660000" />
</svg>
