<?xml version="1.0" encoding="UTF-8" standalone="no"?>
<svg width="500" height="500" viewBox="0 0 2074.000000 2074.000000" xmlns="http://www.w3.org/2000/svg">
<rect x="19.000000" y="19.000000" width="2036.000000" height="2036.000000" fill="black" />
<circle cx="919.960022" cy="340.959991" r="19.980000" fill="red">
  <title>Tokyo</title>
</circle><line x1="564.960022" y1="471.959991" x2="919.960022" y2="340.959991" stroke="red" stroke-width="6.660000" />
<circle cx="1029.959961" cy="380.959991" r="19.980000" fill="red">
  <title>Shanghai</title>
</circle><line x1="919.960022" y1="340.959991" x2="1029.959961" y2="380.959991" stroke="red" stroke-width="6.660000" />
<circle cx="1944.959961" cy="1011.960022" r="19.980000" fill="red">
  <title>Beijing</title>
</circle><line x1="1029.959961" y1="380.959991" x2="1944.959961" y2="1011.960022" stroke="red" stroke-width="6.660000" />
<circle cx="711.960022" cy="1333.959961" r="19.980000" fill="red">
  <title>São Paulo</title>
</circle><line x1="1944.959961" y1="1011.960022" x2="711.960022" y2="1333.959961" stroke="red" stroke-width="6.660000" />
<circle cx="804.960022" cy="1796.959961" r="19.980000" fill="red">
  <title>Cairo</title>
</circle><line x1="711.960022" y1="1333.959961" x2="804.960022" y2="1796.959961" stroke="red" stroke-width="6.660000" />
<circle cx="55.959999" cy="1666.959961" r="19.980000" fill="red">
  <title>Mumbai</title>
</circle><line x1="804.960022" y1="1796.959961" x2="55.959999" y2="1666.959961" stroke="red" stroke-width="6.660000" />
<circle cx="501.959991" cy="898.960022" r="19.980000" fill="red">
  <title>Delhi</title>
</circle><line x1="55.959999" y1="1666.959961" x2="501.959991" y2="898.960022" stroke="red" stroke-width="6.660000" />
<circle cx="564.960022" cy="471.959991" r="19.980000" fill="red">
  <title>Mexico City</title>
</circle><line x1="501.959991" y1="898.960022" x2="564.960022" y2="471.959991" stroke="red" stroke-width="6.660000" />
</svg>
