<?xml version="1.0" encoding="UTF-8" standalone="no"?>
<svg width="500" height="500" viewBox="0 0 2074.000000 2074.000000" xmlns="http://www.w3.org/2000/svg">
<rect x="19.000000" y="19.000000" width="2036.000000" height="2036.000000" fill="black" />
<circle cx="1231.959961" cy="1618.959961" r="19.980000" fill="red">
  <title>Tokyo</title>
</circle><line x1="1266.959961" y1="1416.959961" x2="1231.959961" y2="1618.959961" stroke="red" stroke-width="6.660000" />
<circle cx="603.960022" cy="1723.959961" r="19.980000" fill="red">
  <title>Cairo</title>
</circle><line x1="1231.959961" y1="1618.959961" x2="603.960022" y2="1723.959961" stroke="red" stroke-width="6.660000" />
<circle cx="420.959991" cy="1931.959961" r="19.980000" fill="red">
  <title>Manila</title>
</circle><line x1="603.960022" y1="1723.959961" x2="420.959991" y2="1931.959961" stroke="red" stroke-width="6.660000" />
<circle cx="186.959991" cy="1652.959961" r="19.980000" fill="red">
  <title>Buenos Aires</title>
</circle><line x1="420.959991" y1="1931.959961" x2="186.959991" y2="1652.959961" stroke="red" stroke-width="6.660000" />
<circle cx="462.959991" cy="1014.960022" r="19.980000" fill="red">
  <title>New York</title>
</circle><line x1="186.959991" y1="1652.959961" x2="462.959991" y2="1014.960022" stroke="red" stroke-width="6.660000" />
<circle cx="142.959991" cy="660.960022" r="19.980000" fill="red">
  <title>Kolkata</title>
</circle><line x1="462.959991" y1="1014.960022" x2="142.959991" y2="660.960022" stroke="red" stroke-width="6.660000" />
<circle cx="243.959991" cy="655.960022" r="19.980000" fill="red">
  <title>Shanghai</title>
</circle><line x1="142.959991" y1="660.960022" x2="243.959991" y2="655.960022" stroke="red" stroke-width="6.660000" />
<circle cx="474.959991" cy="80.959999" r="19.980000" fill="red">
  <title>Beijing</title>
</circle><line x1="243.959991" y1="655.960022" x2="474.959991" y2="80.959999" stroke="red" stroke-width="6.660000" />
<circle cx="613.960022" cy="422.959991" r="19.980000" fill="red">
  <title>Chongqing</title>
</circle><line x1="474.959991" y1="80.959999" x2="613.960022" y2="422.959991" stroke="red" stroke-width="6.660000" />
<circle cx="808.960022" cy="625.960022" r="19.980000" fill="red">
  <title>Lagos</title>
</circle><line x1="613.960022" y1="422.959991" x2="808.960022" y2="625.960022" stroke="red" stroke-width="6.660000" />
<circle cx="871.960022" cy="814.960022" r="19.980000" fill="red">
  <title>Mumbai</title>
</circle><line x1="808.960022" y1="625.960022" x2="871.960022" y2="814.960022" stroke="red" stroke-width="6.660000" />
<circle cx="1376.959961" cy="1140.959961" r="19.980000" fill="red">
  <title>Dhaka</title>
</circle><line x1="871.960022" y1="814.960022" x2="1376.959961" y2="1140.959961" stroke="red" stroke-width="6.660000" />
<circle cx="1467.959961" cy="839.960022" r="19.980000" fill="red">
  <title>Istanbul</title>
</circle><line x1="1376.959961" y1="1140.959961" x2="1467.959961" y2="839.960022" stroke="red" stroke-width="6.660000" />
<circle cx="1828.959961" cy="187.959991" r="19.980000" fill="red">
  <title>Delhi</title>
</circle><line x1="1467.959961" y1="839.960022" x2="1828.959961" y2="187.959991" stroke="red" stroke-width="6.660000" />
<circle cx="1742.959961" cy="1064.959961" r="19.980000" fill="red">
  <title>Osaka</title>
</circle><line x1="1828.959961" y1="187.959991" x2="1742.959961" y2="1064.959961" stroke="red" stroke-width="6.660000" />
<circle cx="1885.959961" cy="1381.959961" r="19.980000" fill="red">
  <title>São Paulo</title>
</circle><line x1="1742.959961" y1="1064.959961" x2="1885.959961" y2="1381.959961" stroke="red" stroke-width="6.660000" />
<circle cx="1772.959961" cy="1678.959961" r="19.980000" fill="red">
  <title>Mexico City</title>
</circle><line x1="1885.959961" y1="1381.959961" x2="1772.959961" y2="1678.959961" stroke="red" stroke-width="6.660000" />
<circle cx="1266.959961" cy="1416.959961" r="19.980000" fill="red">
  <title>Karachi</title>
</circle><line x1="1772.959961" y1="1678.959961" x2="1266.959961" y2="1416.959961" stroke="red" stroke-width="6.660000" />
</svg>
