<?xml version="1.0" encoding="UTF-8" standalone="no"?>
<svg width="500" height="500" viewBox="0 0 2074.000000 2074.000000" xmlns="http://www.w3.org/2000/svg">
<rect x="19.000000" y="19.000000" width="2036.000000" height="2036.000000" fill="black" />
<circle cx="866.960022" cy="1387.959961" r="19.980000" fill="red">
  <title>Tokyo</title>
</circle><line x1="767.960022" y1="951.960022" x2="866.960022" y2="1387.959961" stroke="red" stroke-width="6.660000" />
<circle cx="127.959999" cy="1764.959961" r="19.980000" fill="red">
  <title>Mexico City</title>
</circle><line x1="866.960022" y1="1387.959961" x2="127.959999" y2="1764.959961" stroke="red" stroke-width="6.660000" />
<circle cx="585.960022" cy="953.960022" r="19.980000" fill="red">
  <title>Cairo</title>
</circle><line x1="127.959999" y1="1764.959961" x2="585.960022" y2="953.960022" stroke="red" stroke-width="6.660000" />
<circle cx="537.960022" cy="911.960022" r="19.980000" fill="red">
  <title>Beijing</title>
</circle><line x1="585.960022" y1="953.960022" x2="537.960022" y2="911.960022" stroke="red" stroke-width="6.660000" />
<circle cx="261.959991" cy="178.959991" r="19.980000" fill="red">
  <title>Delhi</title>
</circle><line x1="537.960022" y1="911.960022" x2="261.959991" y2="178.959991" stroke="red" stroke-width="6.660000" />
<circle cx="697.960022" cy="155.959991" r="19.980000" fill="red">
  <title>Shanghai</title>
</circle><line x1="261.959991" y1="178.959991" x2="697.960022" y2="155.959991" stroke="red" stroke-width="6.660000" />
<circle cx="1797.959961" cy="500.959991" r="19.980000" fill="red">
  <title>Osaka</title>
</circle><line x1="697.960022" y1="155.959991" x2="1797.959961" y2="500.959991" stroke="red" stroke-width="6.660000" />
<circle cx="2002.959961" cy="217.959991" r="19.980000" fill="red">
  <title>Dhaka</title>
</circle><line x1="1797.959961" y1="500.959991" x2="2002.959961" y2="217.959991" stroke="red" stroke-width="6.660000" />
<circle cx="1291.959961" cy="583.960022" r="19.980000" fill="red">
  <title>São Paulo</title>
</circle><line x1="2002.959961" y1="217.959991" x2="1291.959961" y2="583.960022" stroke="red" stroke-width="6.660000" />
<circle cx="767.960022" cy="951.960022" r="19.980000" fill="red">
  <title>Mumbai</title>
</circle><line x1="1291.959961" y1="583.960022" x2="767.960022" y2="951.960022" stroke="red" stroke-width="6.660000" />
</svg>
