<?xml version="1.0" encoding="UTF-8" standalone="no"?>
<svg width="500" height="500" viewBox="0 0 2074.000000 2074.000000" xmlns="http://www.w3.org/2000/svg">
<rect x="19.000000" y="19.000000" width="2036.000000" height="2036.000000" fill="black" />
<circle cx="754.960022" cy="1436.959961" r="19.980000" fill="red">
  <title>Tokyo</title>
</circle><line x1="693.960022" y1="1556.959961" x2="754.960022" y2="1436.959961" stroke="red" stroke-width="6.660000" />
<circle cx="598.960022" cy="1556.959961" r="19.980000" fill="red">
  <title>São Paulo</title>
</circle><line x1="754.960022" y1="1436.959961" x2="598.960022" y2="1556.959961" stroke="red" stroke-width="6.660000" />
<circle cx="235.959991" cy="1477.959961" r="19.980000" fill="red">
  <title>Istanbul</title>
</circle><line x1="598.960022" y1="1556.959961" x2="235.959991" y2="1477.959961" stroke="red" stroke-width="6.660000" />
<circle cx="332.959991" cy="905.960022" r="19.980000" fill="red">
  <title>Karachi</title>
</circle><line x1="235.959991" y1="1477.959961" x2="332.959991" y2="905.960022" stroke="red" stroke-width="6.660000" />
<circle cx="552.960022" cy="597.960022" r="19.980000" fill="red">
  <title>Dhaka</title>
</circle><line x1="332.959991" y1="905.960022" x2="552.960022" y2="597.960022" stroke="red" stroke-width="6.660000" />
<circle cx="615.960022" cy="76.959999" r="19.980000" fill="red">
  <title>Beijing</title>
</circle><line x1="552.960022" y1="597.960022" x2="615.960022" y2="76.959999" stroke="red" stroke-width="6.660000" />
<circle cx="875.960022" cy="335.959991" r="19.980000" fill="red">
  <title>Manila</title>
</circle><line x1="615.960022" y1="76.959999" x2="875.960022" y2="335.959991" stroke="red" stroke-width="6.660000" />
<circle cx="1230.959961" cy="134.959991" r="19.980000" fill="red">
  <title>Shanghai</title>
</circle><line x1="875.960022" y1="335.959991" x2="1230.959961" y2="134.959991" stroke="red" stroke-width="6.660000" />
<circle cx="1645.959961" cy="250.959991" r="19.980000" fill="red">
  <title>Buenos Aires</title>
</circle><line x1="1230.959961" y1="134.959991" x2="1645.959961" y2="250.959991" stroke="red" stroke-width="6.660000" />
<circle cx="1324.959961" cy="530.960022" r="19.980000" fill="red">
  <title>Osaka</title>
</circle><line x1="1645.959961" y1="250.959991" x2="1324.959961" y2="530.960022" stroke="red" stroke-width="6.660000" />
<circle cx="957.960022" cy="583.960022" r="19.980000" fill="red">
  <title>Delhi</title>
</circle><line x1="1324.959961" y1="530.960022" x2="957.960022" y2="583.960022" stroke="red" stroke-width="6.660000" />
<circle cx="1089.959961" cy="1096.959961" r="19.980000" fill="red">
  <title>Cairo</title>
</circle><line x1="957.960022" y1="583.960022" x2="1089.959961" y2="1096.959961" stroke="red" stroke-width="6.660000" />
<circle cx="1416.959961" cy="951.960022" r="19.980000" fill="red">
  <title>Kolkata</title>
</circle><line x1="1089.959961" y1="1096.959961" x2="1416.959961" y2="951.960022" stroke="red" stroke-width="6.660000" />
<circle cx="1953.959961" cy="1781.959961" r="19.980000" fill="red">
  <title>Chongqing</title>
</circle><line x1="1416.959961" y1="951.960022" x2="1953.959961" y2="1781.959961" stroke="red" stroke-width="6.660000" />
<circle cx="1076.959961" cy="1847.959961" r="19.980000" fill="red">
  <title>Mumbai</title>
</circle><line x1="1953.959961" y1="1781.959961" x2="1076.959961" y2="1847.959961" stroke="red" stroke-width="6.660000" />
<circle cx="481.959991" cy="2030.959961" r="19.980000" fill="red">
  <title>New York</title>
</circle><line x1="1076.959961" y1="1847.959961" x2="481.959991" y2="2030.959961" stroke="red" stroke-width="6.660000" />
<circle cx="693.960022" cy="1556.959961" r="19.980000" fill="red">
  <title>Mexico City</title>
</circle><line x1="481.959991" y1="2030.959961" x2="693.960022" y2="1556.959961" stroke="red" stroke-width="6.660000" />
</svg>
