<?xml version="1.0" encoding="UTF-8" standalone="no"?>
<svg width="500" height="500" viewBox="0 0 2074.000000 2074.000000" xmlns="http://www.w3.org/2000/svg">
<rect x="19.000000" y="19.000000" width="2036.000000" height="2036.000000" fill="black" />
<circle cx="361.959991" cy="781.960022" r="19.980000" fill="red">
  <title>Tokyo</title>
</circle><line x1="52.959999" y1="750.960022" x2="361.959991" y2="781.960022" stroke="red" stroke-width="6.660000" />
<circle cx="399.959991" cy="1839.959961" r="19.980000" fill="red">
  <title>Buenos Aires</title>
</circle><line x1="361.959991" y1="781.960022" x2="399.959991" y2="1839.959961" stroke="red" stroke-width="6.660000" />
<circle cx="357.959991" cy="1888.959961" r="19.980000" fill="red">
  <title>São Paulo</title>
</circle><line x1="399.959991" y1="1839.959961" x2="357.959991" y2="1888.959961" stroke="red" stroke-width="6.660000" />
<circle cx="523.960022" cy="1752.959961" r="19.980000" fill="red">
  <title>Mumbai</title>
</circle><line x1="357.959991" y1="1888.959961" x2="523.960022" y2="1752.959961" stroke="red" stroke-width="6.660000" />
<circle cx="1262.959961" cy="1940.959961" r="19.980000" fill="red">
  <title>Osaka</title>
</circle><line x1="523.960022" y1="1752.959961" x2="1262.959961" y2="1940.959961" stroke="red" stroke-width="6.660000" />
<circle cx="1377.959961" cy="1773.959961" r="19.980000" fill="red">
  <title>New York</title>
</circle><line x1="1262.959961" y1="1940.959961" x2="1377.959961" y2="1773.959961" stroke="red" stroke-width="6.660000" />
<circle cx="1591.959961" cy="1844.959961" r="19.980000" fill="red">
  <title>Karachi</title>
</circle><line x1="1377.959961" y1="1773.959961" x2="1591.959961" y2="1844.959961" stroke="red" stroke-width="6.660000" />
<circle cx="1980.959961" cy="1528.959961" r="19.980000" fill="red">
  <title>Cairo</title>
</circle><line x1="1591.959961" y1="1844.959961" x2="1980.959961" y2="1528.959961" stroke="red" stroke-width="6.660000" />
<circle cx="1924.959961" cy="1295.959961" r="19.980000" fill="red">
  <title>Dhaka</title>
</circle><line x1="1980.959961" y1="1528.959961" x2="1924.959961" y2="1295.959961" stroke="red" stroke-width="6.660000" />
<circle cx="1994.959961" cy="856.960022" r="19.980000" fill="red">
  <title>Mexico City</title>
</circle><line x1="1924.959961" y1="1295.959961" x2="1994.959961" y2="856.960022" stroke="red" stroke-width="6.660000" />
<circle cx="2000.959961" cy="692.960022" r="19.980000" fill="red">
  <title>Beijing</title>
</circle><line x1="1994.959961" y1="856.960022" x2="2000.959961" y2="692.960022" stroke="red" stroke-width="6.660000" />
<circle cx="1722.959961" cy="877.960022" r="19.980000" fill="red">
  <title>Chongqing</title>
</circle><line x1="2000.959961" y1="692.960022" x2="1722.959961" y2="877.960022" stroke="red" stroke-width="6.660000" />
<circle cx="1446.959961" cy="832.960022" r="19.980000" fill="red">
  <title>Delhi</title>
</circle><line x1="1722.959961" y1="877.960022" x2="1446.959961" y2="832.960022" stroke="red" stroke-width="6.660000" />
<circle cx="1339.959961" cy="608.960022" r="19.980000" fill="red">
  <title>Shanghai</title>
</circle><line x1="1446.959961" y1="832.960022" x2="1339.959961" y2="608.960022" stroke="red" stroke-width="6.660000" />
<circle cx="430.959991" cy="374.959991" r="19.980000" fill="red">
  <title>Kolkata</title>
</circle><line x1="1339.959961" y1="608.960022" x2="430.959991" y2="374.959991" stroke="red" stroke-width="6.660000" />
<circle cx="52.959999" cy="750.960022" r="19.980000" fill="red">
  <title>Istanbul</title>
</circle><line x1="430.959991" y1="374.959991" x2="52.959999" y2="750.960022" stroke="red" stroke-width="6.660000" />
</svg>
