<?xml version="1.0" encoding="UTF-8" standalone="no"?>
<svg width="500" height="500" viewBox="0 0 2074.000000 2074.000000" xmlns="http://www.w3.org/2000/svg">
<rect x="19.000000" y="19.000000" width="2036.000000" height="2036.000000" fill="black" />
<circle cx="295.959991" cy="254.959991" r="19.980000" fill="red">
  <title>Tokyo</title>
</circle><line x1="493.959991" y1="245.959991" x2="295.959991" y2="254.959991" stroke="red" stroke-width="6.660000" />
<circle cx="1017.960022" cy="1021.960022" r="19.980000" fill="red">
  <title>Shanghai</title>
</circle><line x1="295.959991" y1="254.959991" x2="1017.960022" y2="1021.960022" stroke="red" stroke-width="6.660000" />
<circle cx="1225.959961" cy="1497.959961" r="19.980000" fill="red">
  <title>São Paulo</title>
</circle><line x1="1017.960022" y1="1021.960022" x2="1225.959961" y2="1497.959961" stroke="red" stroke-width="6.660000" />
<circle cx="1718.959961" cy="1829.959961" r="19.980000" fill="red">
  <title>Mexico City</title>
</circle><line x1="1225.959961" y1="1497.959961" x2="1718.959961" y2="1829.959961" stroke="red" stroke-width="6.660000" />
<circle cx="1763.959961" cy="813.960022" r="19.980000" fill="red">
  <title>Delhi</title>
</circle><line x1="1718.959961" y1="1829.959961" x2="1763.959961" y2="813.960022" stroke="red" stroke-width="6.660000" />
<circle cx="493.959991" cy="245.959991" r="19.980000" fill="red">
  <title>Cairo</title>
</circle><line x1="1763.959961" y1="813.960022" x2="493.959991" y2="245.959991" stroke="red" stroke-width="6.660000" />
</svg>
