<?xml version="1.0" encoding="UTF-8" standalone="no"?>
<svg width="500" height="500" viewBox="0 0 2074.000000 2074.000000" xmlns="http://www.w3.org/2000/svg">
<rect x="19.000000" y="19.000000" width="2036.000000" height="2036.000000" fill="black" />
<circle cx="557.960022" cy="1761.959961" r="19.980000" fill="red">
  <title>Tokyo</title>
</circle><line x1="255.959991" y1="1654.959961" x2="557.960022" y2="1761.959961" stroke="red" stroke-width="6.660000" />
<circle cx="1135.959961" cy="1501.959961" r="19.980000" fill="red">
  <title>Istanbul</title>
</circle><line x1="557.960022" y1="1761.959961" x2="1135.959961" y2="1501.959961" stroke="red" stroke-width="6.660000" />
<circle cx="1043.959961" cy="1264.959961" r="19.980000" fill="red">
  <title>São Paulo</title>
</circle><line x1="1135.959961" y1="1501.959961" x2="1043.959961" y2="1264.959961" stroke="red" stroke-width="6.660000" />
<circle cx="1155.959961" cy="1062.959961" r="19.980000" fill="red">
  <title>Shanghai</title>
</circle><line x1="1043.959961" y1="1264.959961" x2="1155.959961" y2="1062.959961" stroke="red" stroke-width="6.660000" />
<circle cx="1018.960022" cy="865.960022" r="19.980000" fill="red">
  <title>Beijing</title>
</circle><line x1="1155.959961" y1="1062.959961" x2="1018.960022" y2="865.960022" stroke="red" stroke-width="6.660000" />
<circle cx="1009.960022" cy="801.960022" r="19.980000" fill="red">
  <title>Mexico City</title>
</circle><line x1="1018.960022" y1="865.960022" x2="1009.960022" y2="801.960022" stroke="red" stroke-width="6.660000" />
<circle cx="816.960022" cy="630.960022" r="19.980000" fill="red">
  <title>Osaka</title>
</circle><line x1="1009.960022" y1="801.960022" x2="816.960022" y2="630.960022" stroke="red" stroke-width="6.660000" />
<circle cx="311.959991" cy="494.959991" r="19.980000" fill="red">
  <title>Buenos Aires</title>
</circle><line x1="816.960022" y1="630.960022" x2="311.959991" y2="494.959991" stroke="red" stroke-width="6.660000" />
<circle cx="856.960022" cy="341.959991" r="19.980000" fill="red">
  <title>Lagos</title>
</circle><line x1="311.959991" y1="494.959991" x2="856.960022" y2="341.959991" stroke="red" stroke-width="6.660000" />
<circle cx="1496.959961" cy="271.959991" r="19.980000" fill="red">
  <title>Chongqing</title>
</circle><line x1="856.960022" y1="341.959991" x2="1496.959961" y2="271.959991" stroke="red" stroke-width="6.660000" />
<circle cx="1741.959961" cy="1138.959961" r="19.980000" fill="red">
  <title>Cairo</title>
</circle><line x1="1496.959961" y1="271.959991" x2="1741.959961" y2="1138.959961" stroke="red" stroke-width="6.660000" />
<circle cx="1569.959961" cy="1240.959961" r="19.980000" fill="red">
  <title>Delhi</title>
</circle><line x1="1741.959961" y1="1138.959961" x2="1569.959961" y2="1240.959961" stroke="red" stroke-width="6.660000" />
<circle cx="1618.959961" cy="1399.959961" r="19.980000" fill="red">
  <title>New York</title>
</circle><line x1="1569.959961" y1="1240.959961" x2="1618.959961" y2="1399.959961" stroke="red" stroke-width="6.660000" />
<circle cx="1984.959961" cy="1967.959961" r="19.980000" fill="red">
  <title>Dhaka</title>
</circle><line x1="1618.959961" y1="1399.959961" x2="1984.959961" y2="1967.959961" stroke="red" stroke-width="6.660000" />
<circle cx="1566.959961" cy="1780.959961" r="19.980000" fill="red">
  <title>Tianjin</title>
</circle><line x1="1984.959961" y1="1967.959961" x2="1566.959961" y2="1780.959961" stroke="red" stroke-width="6.660000" />
<circle cx="1224.959961" cy="1786.959961" r="19.980000" fill="red">
  <title>Manila</title>
</circle><line x1="1566.959961" y1="1780.959961" x2="1224.959961" y2="1786.959961" stroke="red" stroke-width="6.660000" />
<circle cx="810.960022" cy="1861.959961" r="19.980000" fill="red">
  <title>Rio de Janeiro</title>
</circle><line x1="1224.959961" y1="1786.959961" x2="810.960022" y2="1861.959961" stroke="red" stroke-width="6.660000" />
<circle cx="292.959991" cy="2019.959961" r="19.980000" fill="red">
  <title>Karachi</title>
</circle><line x1="810.960022" y1="1861.959961" x2="292.959991" y2="2019.959961" stroke="red" stroke-width="6.660000" />
<circle cx="253.959991" cy="1944.959961" r="19.980000" fill="red">
  <title>Mumbai</title>
</circle><line x1="292.959991" y1="2019.959961" x2="253.959991" y2="1944.959961" stroke="red" stroke-width="6.660000" />
<circle cx="255.959991" cy="1654.959961" r="19.980000" fill="red">
  <title>Kolkata</title>
</circle><line x1="253.959991" y1="1944.959961" x2="255.959991" y2="1654.959961" stroke="red" stroke-width="6.660000" />
</svg>
