<?xml version="1.0" encoding="UTF-8" standalone="no"?>
<svg width="500" height="500" viewBox="0 0 2074.000000 2074.000000" xmlns="http://www.w3.org/2000/svg">
<rect x="19.000000" y="19.000000" width="2036.000000" height="2036.000000" fill="black" />
<circle cx="842.960022" cy="1751.959961" r="19.980000" fill="red">
  <title>Tokyo</title>
</circle><line x1="136.959991" y1="1591.959961" x2="842.960022" y2="1751.959961" stroke="red" stroke-width="6.660000" />
<circle cx="1216.959961" cy="1680.959961" r="19.980000" fill="red">
  <title>New York</title>
</circle><line x1="842.960022" y1="1751.959961" x2="1216.959961" y2="1680.959961" stroke="red" stroke-width="6.660000" />
<circle cx="1346.959961" cy="1666.959961" r="19.980000" fill="red">
  <title>São Paulo</title>
</circle><line x1="1216.959961" y1="1680.959961" x2="1346.959961" y2="1666.959961" stroke="red" stroke-width="6.660000" />
<circle cx="1477.959961" cy="1838.959961" r="19.980000" fill="red">
  <title>Osaka</title>
</circle><line x1="1346.959961" y1="1666.959961" x2="1477.959961" y2="1838.959961" stroke="red" stroke-width="6.660000" />
<circle cx="1502.959961" cy="1666.959961" r="19.980000" fill="red">
  <title>Chongqing</title>
</circle><line x1="1477.959961" y1="1838.959961" x2="1502.959961" y2="1666.959961" stroke="red" stroke-width="6.660000" />
<circle cx="1502.959961" cy="1297.959961" r="19.980000" fill="red">
  <title>Shanghai</title>
</circle><line x1="1502.959961" y1="1666.959961" x2="1502.959961" y2="1297.959961" stroke="red" stroke-width="6.660000" />
<circle cx="1417.959961" cy="1173.959961" r="19.980000" fill="red">
  <title>Beijing</title>
</circle><line x1="1502.959961" y1="1297.959961" x2="1417.959961" y2="1173.959961" stroke="red" stroke-width="6.660000" />
<circle cx="1478.959961" cy="1206.959961" r="19.980000" fill="red">
  <title>Karachi</title>
</circle><line x1="1417.959961" y1="1173.959961" x2="1478.959961" y2="1206.959961" stroke="red" stroke-width="6.660000" />
<circle cx="1776.959961" cy="956.960022" r="19.980000" fill="red">
  <title>Mexico City</title>
</circle><line x1="1478.959961" y1="1206.959961" x2="1776.959961" y2="956.960022" stroke="red" stroke-width="6.660000" />
<circle cx="1319.959961" cy="79.959999" r="19.980000" fill="red">
  <title>Buenos Aires</title>
</circle><line x1="1776.959961" y1="956.960022" x2="1319.959961" y2="79.959999" stroke="red" stroke-width="6.660000" />
<circle cx="1054.959961" cy="131.959991" r="19.980000" fill="red">
  <title>Cairo</title>
</circle><line x1="1319.959961" y1="79.959999" x2="1054.959961" y2="131.959991" stroke="red" stroke-width="6.660000" />
<circle cx="728.960022" cy="620.960022" r="19.980000" fill="red">
  <title>Delhi</title>
</circle><line x1="1054.959961" y1="131.959991" x2="728.960022" y2="620.960022" stroke="red" stroke-width="6.660000" />
<circle cx="775.960022" cy="993.960022" r="19.980000" fill="red">
  <title>Mumbai</title>
</circle><line x1="728.960022" y1="620.960022" x2="775.960022" y2="993.960022" stroke="red" stroke-width="6.660000" />
<circle cx="542.960022" cy="1117.959961" r="19.980000" fill="red">
  <title>Dhaka</title>
</circle><line x1="775.960022" y1="993.960022" x2="542.960022" y2="1117.959961" stroke="red" stroke-width="6.660000" />
<circle cx="136.959991" cy="1591.959961" r="19.980000" fill="red">
  <title>Istanbul</title>
</circle><line x1="542.960022" y1="1117.959961" x2="136.959991" y2="1591.959961" stroke="red" stroke-width="6.660000" />
</svg>
