<?xml version="1.0" encoding="UTF-8" standalone="no"?>
<svg width="500" height="500" viewBox="0 0 2074.000000 2074.000000" xmlns="http://www.w3.org/2000/svg">
<rect x="19.000000" y="19.000000" width="2036.000000" height="2036.000000" fill="black" />
<circle cx="398.959991" cy="1367.959961" r="19.980000" fill="red">
  <title>Tokyo</title>
</circle><line x1="554.960022" y1="1953.959961" x2="398.959991" y2="1367.959961" stroke="red" stroke-width="6.660000" />
<circle cx="226.959991" cy="945.960022" r="19.980000" fill="red">
  <title>Delhi</title>
</circle><line x1="398.959991" y1="1367.959961" x2="226.959991" y2="945.960022" stroke="red" stroke-width="6.660000" />
<circle cx="414.959991" cy="466.959991" r="19.980000" fill="red">
  <title>Chongqing</title>
</circle><line x1="226.959991" y1="945.960022" x2="414.959991" y2="466.959991" stroke="red" stroke-width="6.660000" />
<circle cx="606.960022" cy="540.960022" r="19.980000" fill="red">
  <title>Mexico City</title>
</circle><line x1="414.959991" y1="466.959991" x2="606.960022" y2="540.960022" stroke="red" stroke-width="6.660000" />
<circle cx="885.960022" cy="738.960022" r="19.980000" fill="red">
  <title>New York</title>
</circle><line x1="606.960022" y1="540.960022" x2="885.960022" y2="738.960022" stroke="red" stroke-width="6.660000" />
<circle cx="919.960022" cy="573.960022" r="19.980000" fill="red">
  <title>Osaka</title>
</circle><line x1="885.960022" y1="738.960022" x2="919.960022" y2="573.960022" stroke="red" stroke-width="6.660000" />
<circle cx="1454.959961" cy="413.959991" r="19.980000" fill="red">
  <title>Shanghai</title>
</circle><line x1="919.960022" y1="573.960022" x2="1454.959961" y2="413.959991" stroke="red" stroke-width="6.660000" />
<circle cx="1779.959961" cy="251.959991" r="19.980000" fill="red">
  <title>São Paulo</title>
</circle><line x1="1454.959961" y1="413.959991" x2="1779.959961" y2="251.959991" stroke="red" stroke-width="6.660000" />
<circle cx="2035.959961" cy="682.960022" r="19.980000" fill="red">
  <title>Cairo</title>
</circle><line x1="1779.959961" y1="251.959991" x2="2035.959961" y2="682.960022" stroke="red" stroke-width="6.660000" />
<circle cx="1324.959961" cy="888.960022" r="19.980000" fill="red">
  <title>Dhaka</title>
</circle><line x1="2035.959961" y1="682.960022" x2="1324.959961" y2="888.960022" stroke="red" stroke-width="6.660000" />
<circle cx="1077.959961" cy="1084.959961" r="19.980000" fill="red">
  <title>Buenos Aires</title>
</circle><line x1="1324.959961" y1="888.960022" x2="1077.959961" y2="1084.959961" stroke="red" stroke-width="6.660000" />
<circle cx="904.960022" cy="920.960022" r="19.980000" fill="red">
  <title>Karachi</title>
</circle><line x1="1077.959961" y1="1084.959961" x2="904.960022" y2="920.960022" stroke="red" stroke-width="6.660000" />
<circle cx="676.960022" cy="1075.959961" r="19.980000" fill="red">
  <title>Beijing</title>
</circle><line x1="904.960022" y1="920.960022" x2="676.960022" y2="1075.959961" stroke="red" stroke-width="6.660000" />
<circle cx="1037.959961" cy="2012.959961" r="19.980000" fill="red">
  <title>Istanbul</title>
</circle><line x1="676.960022" y1="1075.959961" x2="1037.959961" y2="2012.959961" stroke="red" stroke-width="6.660000" />
<circle cx="554.960022" cy="1953.959961" r="19.980000" fill="red">
  <title>Mumbai</title>
</circle><line x1="1037.959961" y1="2012.959961" x2="554.960022" y2="1953.959961" stroke="red" stroke-width="6.660000" />
</svg>
