<?xml version="1.0" encoding="UTF-8" standalone="no"?>
<svg width="500" height="500" viewBox="0 0 2074.000000 2074.000000" xmlns="http://www.w3.org/2000/svg">
<rect x="19.000000" y="19.000000" width="2036.000000" height="2036.000000" fill="black" />
<circle cx="1939.959961" cy="1345.959961" r="19.980000" fill="red">
  <title>Tokyo</title>
</circle><line x1="1823.959961" y1="1311.959961" x2="1939.959961" y2="1345.959961" stroke="red" stroke-width="6.660000" />
<circle cx="1901.959961" cy="1791.959961" r="19.980000" fill="red">
  <title>New York</title>
</circle><line x1="1939.959961" y1="1345.959961" x2="1901.959961" y2="1791.959961" stroke="red" stroke-width="6.660000" />
<circle cx="1515.959961" cy="1868.959961" r="19.980000" fill="red">
  <title>Delhi</title>
</circle><line x1="1901.959961" y1="1791.959961" x2="1515.959961" y2="1868.959961" stroke="red" stroke-width="6.660000" />
<circle cx="1371.959961" cy="1123.959961" r="19.980000" fill="red">
  <title>Osaka</title>
</circle><line x1="1515.959961" y1="1868.959961" x2="1371.959961" y2="1123.959961" stroke="red" stroke-width="6.660000" />
<circle cx="863.960022" cy="1120.959961" r="19.980000" fill="red">
  <title>Rio de Janeiro</title>
</circle><line x1="1371.959961" y1="1123.959961" x2="863.960022" y2="1120.959961" stroke="red" stroke-width="6.660000" />
<circle cx="685.960022" cy="1243.959961" r="19.980000" fill="red">
  <title>Mexico City</title>
</circle><line x1="863.960022" y1="1120.959961" x2="685.960022" y2="1243.959961" stroke="red" stroke-width="6.660000" />
<circle cx="544.960022" cy="1477.959961" r="19.980000" fill="red">
  <title>São Paulo</title>
</circle><line x1="685.960022" y1="1243.959961" x2="544.960022" y2="1477.959961" stroke="red" stroke-width="6.660000" />
<circle cx="614.960022" cy="1874.959961" r="19.980000" fill="red">
  <title>Lagos</title>
</circle><line x1="544.960022" y1="1477.959961" x2="614.960022" y2="1874.959961" stroke="red" stroke-width="6.660000" />
<circle cx="175.959991" cy="1432.959961" r="19.980000" fill="red">
  <title>Dhaka</title>
</circle><line x1="614.960022" y1="1874.959961" x2="175.959991" y2="1432.959961" stroke="red" stroke-width="6.660000" />
<circle cx="243.959991" cy="745.960022" r="19.980000" fill="red">
  <title>Karachi</title>
</circle><line x1="175.959991" y1="1432.959961" x2="243.959991" y2="745.960022" stroke="red" stroke-width="6.660000" />
<circle cx="54.959999" cy="246.959991" r="19.980000" fill="red">
  <title>Shanghai</title>
</circle><line x1="243.959991" y1="745.960022" x2="54.959999" y2="246.959991" stroke="red" stroke-width="6.660000" />
<circle cx="882.960022" cy="552.960022" r="19.980000" fill="red">
  <title>Istanbul</title>
</circle><line x1="54.959999" y1="246.959991" x2="882.960022" y2="552.960022" stroke="red" stroke-width="6.660000" />
<circle cx="833.960022" cy="711.960022" r="19.980000" fill="red">
  <title>Mumbai</title>
</circle><line x1="882.960022" y1="552.960022" x2="833.960022" y2="711.960022" stroke="red" stroke-width="6.660000" />
<circle cx="939.960022" cy="639.960022" r="19.980000" fill="red">
  <title>Buenos Aires</title>
</circle><line x1="833.960022" y1="711.960022" x2="939.960022" y2="639.960022" stroke="red" stroke-width="6.660000" />
<circle cx="1177.959961" cy="784.960022" r="19.980000" fill="red">
  <title>Kolkata</title>
</circle><line x1="939.960022" y1="639.960022" x2="1177.959961" y2="784.960022" stroke="red" stroke-width="6.660000" />
<circle cx="1644.959961" cy="716.960022" r="19.980000" fill="red">
  <title>Beijing</title>
</circle><line x1="1177.959961" y1="784.960022" x2="1644.959961" y2="716.960022" stroke="red" stroke-width="6.660000" />
<circle cx="1858.959961" cy="655.960022" r="19.980000" fill="red">
  <title>Manila</title>
</circle><line x1="1644.959961" y1="716.960022" x2="1858.959961" y2="655.960022" stroke="red" stroke-width="6.660000" />
<circle cx="1872.959961" cy="914.960022" r="19.980000" fill="red">
  <title>Cairo</title>
</circle><line x1="1858.959961" y1="655.960022" x2="1872.959961" y2="914.960022" stroke="red" stroke-width="6.660000" />
<circle cx="1823.959961" cy="1311.959961" r="19.980000" fill="red">
  <title>Chongqing</title>
</circle><line x1="1872.959961" y1="914.960022" x2="1823.959961" y2="1311.959961" stroke="red" stroke-width="6.660000" />
</svg>
