<?xml version="1.0" encoding="UTF-8" standalone="no"?>
<svg width="500" height="500" viewBox="0 0 2074.000000 2074.000000" xmlns="http://www.w3.org/2000/svg">
<rect x="19.000000" y="19.000000" width="2036.000000" height="2036.000000" fill="black" />
<circle cx="240.959991" cy="427.959991" r="19.980000" fill="red">
  <title>Tokyo</title>
</circle><line x1="815.960022" y1="752.960022" x2="240.959991" y2="427.959991" stroke="red" stroke-width="6.660000" />
<circle cx="129.959991" cy="291.959991" r="19.980000" fill="red">
  <title>Beijing</title>
</circle><line x1="240.959991" y1="427.959991" x2="129.959991" y2="291.959991" stroke="red" stroke-width="6.660000" />
<circle cx="806.960022" cy="44.959999" r="19.980000" fill="red">
  <title>Osaka</title>
</circle><line x1="129.959991" y1="291.959991" x2="806.960022" y2="44.959999" stroke="red" stroke-width="6.660000" />
<circle cx="1287.959961" cy="638.960022" r="19.980000" fill="red">
  <title>Buenos Aires</title>
</circle><line x1="806.960022" y1="44.959999" x2="1287.959961" y2="638.960022" stroke="red" stroke-width="6.660000" />
<circle cx="1590.959961" cy="432.959991" r="19.980000" fill="red">
  <title>Delhi</title>
</circle><line x1="1287.959961" y1="638.960022" x2="1590.959961" y2="432.959991" stroke="red" stroke-width="6.660000" />
<circle cx="1715.959961" cy="138.959991" r="19.980000" fill="red">
  <title>Mexico City</title>
</circle><line x1="1590.959961" y1="432.959991" x2="1715.959961" y2="138.959991" stroke="red" stroke-width="6.660000" />
<circle cx="2037.959961" cy="815.960022" r="19.980000" fill="red">
  <title>Cairo</title>
</circle><line x1="1715.959961" y1="138.959991" x2="2037.959961" y2="815.960022" stroke="red" stroke-width="6.660000" />
<circle cx="1795.959961" cy="771.960022" r="19.980000" fill="red">
  <title>São Paulo</title>
</circle><line x1="2037.959961" y1="815.960022" x2="1795.959961" y2="771.960022" stroke="red" stroke-width="6.660000" />
<circle cx="1468.959961" cy="1017.960022" r="19.980000" fill="red">
  <title>Kolkata</title>
</circle><line x1="1795.959961" y1="771.960022" x2="1468.959961" y2="1017.960022" stroke="red" stroke-width="6.660000" />
<circle cx="1217.959961" cy="1499.959961" r="19.980000" fill="red">
  <title>Dhaka</title>
</circle><line x1="1468.959961" y1="1017.960022" x2="1217.959961" y2="1499.959961" stroke="red" stroke-width="6.660000" />
<circle cx="1969.959961" cy="1998.959961" r="19.980000" fill="red">
  <title>Shanghai</title>
</circle><line x1="1217.959961" y1="1499.959961" x2="1969.959961" y2="1998.959961" stroke="red" stroke-width="6.660000" />
<circle cx="1382.959961" cy="1916.959961" r="19.980000" fill="red">
  <title>Chongqing</title>
</circle><line x1="1969.959961" y1="1998.959961" x2="1382.959961" y2="1916.959961" stroke="red" stroke-width="6.660000" />
<circle cx="401.959991" cy="2011.959961" r="19.980000" fill="red">
  <title>Mumbai</title>
</circle><line x1="1382.959961" y1="1916.959961" x2="401.959991" y2="2011.959961" stroke="red" stroke-width="6.660000" />
<circle cx="73.959999" cy="1425.959961" r="19.980000" fill="red">
  <title>New York</title>
</circle><line x1="401.959991" y1="2011.959961" x2="73.959999" y2="1425.959961" stroke="red" stroke-width="6.660000" />
<circle cx="396.959991" cy="1380.959961" r="19.980000" fill="red">
  <title>Karachi</title>
</circle><line x1="73.959999" y1="1425.959961" x2="396.959991" y2="1380.959961" stroke="red" stroke-width="6.660000" />
<circle cx="815.960022" cy="752.960022" r="19.980000" fill="red">
  <title>Istanbul</title>
</circle><line x1="396.959991" y1="1380.959961" x2="815.960022" y2="752.960022" stroke="red" stroke-width="6.660000" />
</svg>
