<?xml version="1.0" encoding="UTF-8" standalone="no"?>
<svg width="500" height="500" viewBox="0 0 2074.000000 2074.000000" xmlns="http://www.w3.org/2000/svg">
<rect x="19.000000" y="19.000000" width="2036.000000" height="2036.000000" fill="black" />
<circle cx="964.960022" cy="1574.959961" r="19.980000" fill="red">
  <title>Tokyo</title>
</circle><line x1="924.960022" y1="1336.959961" x2="964.960022" y2="1574.959961" stroke="red" stroke-width="6.660000" />
<circle cx="1122.959961" cy="1477.959961" r="19.980000" fill="red">
  <title>Cairo</title>
</circle><line x1="964.960022" y1="1574.959961" x2="1122.959961" y2="1477.959961" stroke="red" stroke-width="6.660000" />
<circle cx="1513.959961" cy="1157.959961" r="19.980000" fill="red">
  <title>Shanghai</title>
</circle><line x1="1122.959961" y1="1477.959961" x2="1513.959961" y2="1157.959961" stroke="red" stroke-width="6.660000" />
<circle cx="1250.959961" cy="513.960022" r="19.980000" fill="red">
  <title>Osaka</title>
</circle><line x1="1513.959961" y1="1157.959961" x2="1250.959961" y2="513.960022" stroke="red" stroke-width="6.660000" />
<circle cx="607.960022" cy="406.959991" r="19.980000" fill="red">
  <title>Dhaka</title>
</circle><line x1="1250.959961" y1="513.960022" x2="607.960022" y2="406.959991" stroke="red" stroke-width="6.660000" />
<circle cx="651.960022" cy="538.960022" r="19.980000" fill="red">
  <title>Delhi</title>
</circle><line x1="607.960022" y1="406.959991" x2="651.960022" y2="538.960022" stroke="red" stroke-width="6.660000" />
<circle cx="863.960022" cy="775.960022" r="19.980000" fill="red">
  <title>São Paulo</title>
</circle><line x1="651.960022" y1="538.960022" x2="863.960022" y2="775.960022" stroke="red" stroke-width="6.660000" />
<circle cx="758.960022" cy="908.960022" r="19.980000" fill="red">
  <title>Mexico City</title>
</circle><line x1="863.960022" y1="775.960022" x2="758.960022" y2="908.960022" stroke="red" stroke-width="6.660000" />
<circle cx="887.960022" cy="963.960022" r="19.980000" fill="red">
  <title>Beijing</title>
</circle><line x1="758.960022" y1="908.960022" x2="887.960022" y2="963.960022" stroke="red" stroke-width="6.660000" />
<circle cx="971.960022" cy="971.960022" r="19.980000" fill="red">
  <title>New York</title>
</circle><line x1="887.960022" y1="963.960022" x2="971.960022" y2="971.960022" stroke="red" stroke-width="6.660000" />
<circle cx="924.960022" cy="1336.959961" r="19.980000" fill="red">
  <title>Mumbai</title>
</circle><line x1="971.960022" y1="971.960022" x2="924.960022" y2="1336.959961" stroke="red" stroke-width="6.660000" />
</svg>
