<?xml version="1.0" encoding="UTF-8" standalone="no"?>
<svg width="500" height="500" viewBox="0 0 2074.000000 2074.000000" xmlns="http://www.w3.org/2000/svg">
<rect x="19.000000" y="19.000000" width="2036.000000" height="2036.000000" fill="black" />
<circle cx="848.960022" cy="591.960022" r="19.980000" fill="red">
  <title>Tokyo</title>
</circle><line x1="817.960022" y1="1110.959961" x2="848.960022" y2="591.960022" stroke="red" stroke-width="6.660000" />
<circle cx="562.960022" cy="173.959991" r="19.980000" fill="red">
  <title>Delhi</title>
</circle><line x1="848.960022" y1="591.960022" x2="562.960022" y2="173.959991" stroke="red" stroke-width="6.660000" />
<circle cx="1934.959961" cy="206.959991" r="19.980000" fill="red">
  <title>Shanghai</title>
</circle><line x1="562.960022" y1="173.959991" x2="1934.959961" y2="206.959991" stroke="red" stroke-width="6.660000" />
<circle cx="1058.959961" cy="798.960022" r="19.980000" fill="red">
  <title>São Paulo</title>
</circle><line x1="1934.959961" y1="206.959991" x2="1058.959961" y2="798.960022" stroke="red" stroke-width="6.660000" />
<circle cx="817.960022" cy="1110.959961" r="19.980000" fill="red">
  <title>Mexico City</title>
</circle><line x1="1058.959961" y1="798.960022" x2="817.960022" y2="1110.959961" stroke="red" stroke-width="6.660000" />
</svg>
