<?xml version="1.0" encoding="UTF-8" standalone="no"?>
<svg width="500" height="500" viewBox="0 0 2074.000000 2074.000000" xmlns="http://www.w3.org/2000/svg">
<rect x="19.000000" y="19.000000" width="2036.000000" height="2036.000000" fill="black" />
<circle cx="453.959991" cy="961.960022" r="19.980000" fill="red">
  <title>Tokyo</title>
</circle><line x1="271.959991" y1="449.959991" x2="453.959991" y2="961.960022" stroke="red" stroke-width="6.660000" />
<circle cx="439.959991" cy="1707.959961" r="19.980000" fill="red">
  <title>São Paulo</title>
</circle><line x1="453.959991" y1="961.960022" x2="439.959991" y2="1707.959961" stroke="red" stroke-width="6.660000" />
<circle cx="300.959991" cy="1958.959961" r="19.980000" fill="red">
  <title>Shanghai</title>
</circle><line x1="439.959991" y1="1707.959961" x2="300.959991" y2="1958.959961" stroke="red" stroke-width="6.660000" />
<circle cx="401.959991" cy="1895.959961" r="19.980000" fill="red">
  <title>Chongqing</title>
</circle><line x1="300.959991" y1="1958.959961" x2="401.959991" y2="1895.959961" stroke="red" stroke-width="6.660000" />
<circle cx="554.960022" cy="1782.959961" r="19.980000" fill="red">
  <title>Mumbai</title>
</circle><line x1="401.959991" y1="1895.959961" x2="554.960022" y2="1782.959961" stroke="red" stroke-width="6.660000" />
<circle cx="881.960022" cy="2029.959961" r="19.980000" fill="red">
  <title>Karachi</title>
</circle><line x1="554.960022" y1="1782.959961" x2="881.960022" y2="2029.959961" stroke="red" stroke-width="6.660000" />
<circle cx="1675.959961" cy="1570.959961" r="19.980000" fill="red">
  <title>Buenos Aires</title>
</circle><line x1="881.960022" y1="2029.959961" x2="1675.959961" y2="1570.959961" stroke="red" stroke-width="6.660000" />
<circle cx="1630.959961" cy="1037.959961" r="19.980000" fill="red">
  <title>Mexico City</title>
</circle><line x1="1675.959961" y1="1570.959961" x2="1630.959961" y2="1037.959961" stroke="red" stroke-width="6.660000" />
<circle cx="1106.959961" cy="994.960022" r="19.980000" fill="red">
  <title>New York</title>
</circle><line x1="1630.959961" y1="1037.959961" x2="1106.959961" y2="994.960022" stroke="red" stroke-width="6.660000" />
<circle cx="1428.959961" cy="831.960022" r="19.980000" fill="red">
  <title>Cairo</title>
</circle><line x1="1106.959961" y1="994.960022" x2="1428.959961" y2="831.960022" stroke="red" stroke-width="6.660000" />
<circle cx="1707.959961" cy="551.960022" r="19.980000" fill="red">
  <title>Osaka</title>
</circle><line x1="1428.959961" y1="831.960022" x2="1707.959961" y2="551.960022" stroke="red" stroke-width="6.660000" />
<circle cx="1654.959961" cy="492.959991" r="19.980000" fill="red">
  <title>Istanbul</title>
</circle><line x1="1707.959961" y1="551.960022" x2="1654.959961" y2="492.959991" stroke="red" stroke-width="6.660000" />
<circle cx="1361.959961" cy="545.960022" r="19.980000" fill="red">
  <title>Delhi</title>
</circle><line x1="1654.959961" y1="492.959991" x2="1361.959961" y2="545.960022" stroke="red" stroke-width="6.660000" />
<circle cx="917.960022" cy="440.959991" r="19.980000" fill="red">
  <title>Beijing</title>
</circle><line x1="1361.959961" y1="545.960022" x2="917.960022" y2="440.959991" stroke="red" stroke-width="6.660000" />
<circle cx="271.959991" cy="449.959991" r="19.980000" fill="red">
  <title>Dhaka</title>
</circle><line x1="917.960022" y1="440.959991" x2="271.959991" y2="449.959991" stroke="red" stroke-width="6.660000" />
</svg>
