<?xml version="1.0" encoding="UTF-8" standalone="no"?>
<svg width="500" height="500" viewBox="0 0 2074.000000 2074.000000" xmlns="http://www.w3.org/2000/svg">
<rect x="19.000000" y="19.000000" width="2036.000000" height="2036.000000" fill="black" />
<circle cx="2002.959961" cy="92.959999" r="19.980000" fill="red">
  <title>Tokyo</title>
</circle><line x1="2026.959961" y1="666.960022" x2="2002.959961" y2="92.959999" stroke="red" stroke-width="6.660000" />
<circle cx="896.960022" cy="704.960022" r="19.980000" fill="red">
  <title>Delhi</title>
</circle><line x1="2002.959961" y1="92.959999" x2="896.960022" y2="704.960022" stroke="red" stroke-width="6.660000" />
<circle cx="271.959991" cy="366.959991" r="19.980000" fill="red">
  <title>Mexico City</title>
</circle><line x1="896.960022" y1="704.960022" x2="271.959991" y2="366.959991" stroke="red" stroke-width="6.660000" />
<circle cx="315.959991" cy="1135.959961" r="19.980000" fill="red">
  <title>Shanghai</title>
</circle><line x1="271.959991" y1="366.959991" x2="315.959991" y2="1135.959961" stroke="red" stroke-width="6.660000" />
<circle cx="877.960022" cy="1484.959961" r="19.980000" fill="red">
  <title>Mumbai</title>
</circle><line x1="315.959991" y1="1135.959961" x2="877.960022" y2="1484.959961" stroke="red" stroke-width="6.660000" />
<circle cx="1377.959961" cy="821.960022" r="19.980000" fill="red">
  <title>Cairo</title>
</circle><line x1="877.960022" y1="1484.959961" x2="1377.959961" y2="821.960022" stroke="red" stroke-width="6.660000" />
<circle cx="2026.959961" cy="666.960022" r="19.980000" fill="red">
  <title>São Paulo</title>
</circle><line x1="1377.959961" y1="821.960022" x2="2026.959961" y2="666.960022" stroke="red" stroke-width="6.660000" />
</svg>
