<?xml version="1.0" encoding="UTF-8" standalone="no"?>
<svg width="500" height="500" viewBox="0 0 2074.000000 2074.000000" xmlns="http://www.w3.org/2000/svg">
<rect x="19.000000" y="19.000000" width="2036.000000" height="2036.000000" fill="black" />
<circle cx="720.960022" cy="1096.959961" r="19.980000" fill="red">
  <title>Tokyo</title>
</circle><line x1="1345.959961" y1="1159.959961" x2="720.960022" y2="1096.959961" stroke="red" stroke-width="6.660000" />
<circle cx="566.960022" cy="1456.959961" r="19.980000" fill="red">
  <title>Dhaka</title>
</circle><line x1="720.960022" y1="1096.959961" x2="566.960022" y2="1456.959961" stroke="red" stroke-width="6.660000" />
<circle cx="207.959991" cy="1677.959961" r="19.980000" fill="red">
  <title>Chongqing</title>
</circle><line x1="566.960022" y1="1456.959961" x2="207.959991" y2="1677.959961" stroke="red" stroke-width="6.660000" />
<circle cx="275.959991" cy="1367.959961" r="19.980000" fill="red">
  <title>Istanbul</title>
</circle><line x1="207.959991" y1="1677.959961" x2="275.959991" y2="1367.959961" stroke="red" stroke-width="6.660000" />
<circle cx="63.959999" cy="747.960022" r="19.980000" fill="red">
  <title>Osaka</title>
</circle><line x1="275.959991" y1="1367.959961" x2="63.959999" y2="747.960022" stroke="red" stroke-width="6.660000" />
<circle cx="104.959999" cy="177.959991" r="19.980000" fill="red">
  <title>Mexico City</title>
</circle><line x1="63.959999" y1="747.960022" x2="104.959999" y2="177.959991" stroke="red" stroke-width="6.660000" />
<circle cx="227.959991" cy="100.959999" r="19.980000" fill="red">
  <title>Shanghai</title>
</circle><line x1="104.959999" y1="177.959991" x2="227.959991" y2="100.959999" stroke="red" stroke-width="6.660000" />
<circle cx="1267.959961" cy="552.960022" r="19.980000" fill="red">
  <title>São Paulo</title>
</circle><line x1="227.959991" y1="100.959999" x2="1267.959961" y2="552.960022" stroke="red" stroke-width="6.660000" />
<circle cx="1708.959961" cy="144.959991" r="19.980000" fill="red">
  <title>New York</title>
</circle><line x1="1267.959961" y1="552.960022" x2="1708.959961" y2="144.959991" stroke="red" stroke-width="6.660000" />
<circle cx="1740.959961" cy="236.959991" r="19.980000" fill="red">
  <title>Cairo</title>
</circle><line x1="1708.959961" y1="144.959991" x2="1740.959961" y2="236.959991" stroke="red" stroke-width="6.660000" />
<circle cx="1893.959961" cy="898.960022" r="19.980000" fill="red">
  <title>Beijing</title>
</circle><line x1="1740.959961" y1="236.959991" x2="1893.959961" y2="898.960022" stroke="red" stroke-width="6.660000" />
<circle cx="1772.959961" cy="1187.959961" r="19.980000" fill="red">
  <title>Buenos Aires</title>
</circle><line x1="1893.959961" y1="898.960022" x2="1772.959961" y2="1187.959961" stroke="red" stroke-width="6.660000" />
<circle cx="1747.959961" cy="2037.959961" r="19.980000" fill="red">
  <title>Mumbai</title>
</circle><line x1="1772.959961" y1="1187.959961" x2="1747.959961" y2="2037.959961" stroke="red" stroke-width="6.660000" />
<circle cx="1369.959961" cy="1869.959961" r="19.980000" fill="red">
  <title>Delhi</title>
</circle><line x1="1747.959961" y1="2037.959961" x2="1369.959961" y2="1869.959961" stroke="red" stroke-width="6.660000" />
<circle cx="1345.959961" cy="1159.959961" r="19.980000" fill="red">
  <title>Karachi</title>
</circle><line x1="1369.959961" y1="1869.959961" x2="1345.959961" y2="1159.959961" stroke="red" stroke-width="6.660000" />
</svg>
