<?xml version="1.0" encoding="UTF-8" standalone="no"?>
<svg width="500" height="500" viewBox="0 0 2074.000000 2074.000000" xmlns="http://www.w3.org/2000/svg">
<rect x="19.000000" y="19.000000" width="2036.000000" height="2036.000000" fill="black" />
<circle cx="944.960022" cy="1435.959961" r="19.980000" fill="red">
  <title>Tokyo</title>
</circle><line x1="1005.960022" y1="251.959991" x2="944.960022" y2="1435.959961" stroke="red" stroke-width="6.660000" />
<circle cx="1464.959961" cy="1675.959961" r="19.980000" fill="red">
  <title>Delhi</title>
</circle><line x1="944.960022" y1="1435.959961" x2="1464.959961" y2="1675.959961" stroke="red" stroke-width="6.660000" />
<circle cx="1861.959961" cy="838.960022" r="19.980000" fill="red">
  <title>Cairo</title>
</circle><line x1="1464.959961" y1="1675.959961" x2="1861.959961" y2="838.960022" stroke="red" stroke-width="6.660000" />
<circle cx="1957.959961" cy="385.959991" r="19.980000" fill="red">
  <title>Mexico City</title>
</circle><line x1="1861.959961" y1="838.960022" x2="1957.959961" y2="385.959991" stroke="red" stroke-width="6.660000" />
<circle cx="1475.959961" cy="152.959991" r="19.980000" fill="red">
  <title>São Paulo</title>
</circle><line x1="1957.959961" y1="385.959991" x2="1475.959961" y2="152.959991" stroke="red" stroke-width="6.660000" />
<circle cx="1005.960022" cy="251.959991" r="19.980000" fill="red">
  <title>Shanghai</title>
</circle><line x1="1475.959961" y1="152.959991" x2="1005.960022" y2="251.959991" stroke="red" stroke-width="6.660000" />
</svg>
