<?xml version="1.0" encoding="UTF-8" standalone="no"?>
<svg width="500" height="500" viewBox="0 0 2074.000000 2074.000000" xmlns="http://www.w3.org/2000/svg">
<rect x="19.000000" y="19.000000" width="2036.000000" height="2036.000000" fill="black" />
<circle cx="1362.959961" cy="1535.959961" r="19.980000" fill="red">
  <title>Tokyo</title>
</circle><line x1="963.960022" y1="1409.959961" x2="1362.959961" y2="1535.959961" stroke="red" stroke-width="6.660000" />
<circle cx="1279.959961" cy="1987.959961" r="19.980000" fill="red">
  <title>Karachi</title>
</circle><line x1="1362.959961" y1="1535.959961" x2="1279.959961" y2="1987.959961" stroke="red" stroke-width="6.660000" />
<circle cx="1636.959961" cy="1953.959961" r="19.980000" fill="red">
  <title>Osaka</title>
</circle><line x1="1279.959961" y1="1987.959961" x2="1636.959961" y2="1953.959961" stroke="red" stroke-width="6.660000" />
<circle cx="1779.959961" cy="1909.959961" r="19.980000" fill="red">
  <title>Istanbul</title>
</circle><line x1="1636.959961" y1="1953.959961" x2="1779.959961" y2="1909.959961" stroke="red" stroke-width="6.660000" />
<circle cx="1757.959961" cy="1424.959961" r="19.980000" fill="red">
  <title>Cairo</title>
</circle><line x1="1779.959961" y1="1909.959961" x2="1757.959961" y2="1424.959961" stroke="red" stroke-width="6.660000" />
<circle cx="1690.959961" cy="1103.959961" r="19.980000" fill="red">
  <title>Kolkata</title>
</circle><line x1="1757.959961" y1="1424.959961" x2="1690.959961" y2="1103.959961" stroke="red" stroke-width="6.660000" />
<circle cx="1407.959961" cy="880.960022" r="19.980000" fill="red">
  <title>Manila</title>
</circle><line x1="1690.959961" y1="1103.959961" x2="1407.959961" y2="880.960022" stroke="red" stroke-width="6.660000" />
<circle cx="1681.959961" cy="841.960022" r="19.980000" fill="red">
  <title>Buenos Aires</title>
</circle><line x1="1407.959961" y1="880.960022" x2="1681.959961" y2="841.960022" stroke="red" stroke-width="6.660000" />
<circle cx="1992.959961" cy="630.960022" r="19.980000" fill="red">
  <title>Beijing</title>
</circle><line x1="1681.959961" y1="841.960022" x2="1992.959961" y2="630.960022" stroke="red" stroke-width="6.660000" />
<circle cx="1867.959961" cy="420.959991" r="19.980000" fill="red">
  <title>Shanghai</title>
</circle><line x1="1992.959961" y1="630.960022" x2="1867.959961" y2="420.959991" stroke="red" stroke-width="6.660000" />
<circle cx="1227.959961" cy="444.959991" r="19.980000" fill="red">
  <title>Delhi</title>
</circle><line x1="1867.959961" y1="420.959991" x2="1227.959961" y2="444.959991" stroke="red" stroke-width="6.660000" />
<circle cx="833.960022" cy="131.959991" r="19.980000" fill="red">
  <title>New York</title>
</circle><line x1="1227.959961" y1="444.959991" x2="833.960022" y2="131.959991" stroke="red" stroke-width="6.660000" />
<circle cx="536.960022" cy="115.959999" r="19.980000" fill="red">
  <title>Chongqing</title>
</circle><line x1="833.960022" y1="131.959991" x2="536.960022" y2="115.959999" stroke="red" stroke-width="6.660000" />
<circle cx="287.959991" cy="823.960022" r="19.980000" fill="red">
  <title>Dhaka</title>
</circle><line x1="536.960022" y1="115.959999" x2="287.959991" y2="823.960022" stroke="red" stroke-width="6.660000" />
<circle cx="270.959991" cy="1439.959961" r="19.980000" fill="red">
  <title>São Paulo</title>
</circle><line x1="287.959991" y1="823.960022" x2="270.959991" y2="1439.959961" stroke="red" stroke-width="6.660000" />
<circle cx="622.960022" cy="1091.959961" r="19.980000" fill="red">
  <title>Mumbai</title>
</circle><line x1="270.959991" y1="1439.959961" x2="622.960022" y2="1091.959961" stroke="red" stroke-width="6.660000" />
<circle cx="963.960022" cy="1409.959961" r="19.980000" fill="red">
  <title>Mexico City</title>
</circle><line x1="622.960022" y1="1091.959961" x2="963.960022" y2="1409.959961" stroke="red" stroke-width="6.660000" />
</svg>
