<?xml version="1.0" encoding="UTF-8" standalone="no"?>
<svg width="500" height="500" viewBox="0 0 2074.000000 2074.000000" xmlns="http://www.w3.org/2000/svg">
<rect x="19.000000" y="19.000000" width="2036.000000" height="2036.000000" fill="black" />
<circle cx="496.959991" cy="1390.959961" r="19.980000" fill="red">
  <title>Tokyo</title>
</circle><line x1="575.960022" y1="731.960022" x2="496.959991" y2="1390.959961" stroke="red" stroke-width="6.660000" />
<circle cx="934.960022" cy="2031.959961" r="19.980000" fill="red">
  <title>São Paulo</title>
</circle><line x1="496.959991" y1="1390.959961" x2="934.960022" y2="2031.959961" stroke="red" stroke-width="6.660000" />
<circle cx="1022.960022" cy="1997.959961" r="19.980000" fill="red">
  <title>Delhi</title>
</circle><line x1="934.960022" y1="2031.959961" x2="1022.960022" y2="1997.959961" stroke="red" stroke-width="6.660000" />
<circle cx="1292.959961" cy="1386.959961" r="19.980000" fill="red">
  <title>Cairo</title>
</circle><line x1="1022.960022" y1="1997.959961" x2="1292.959961" y2="1386.959961" stroke="red" stroke-width="6.660000" />
<circle cx="1660.959961" cy="1600.959961" r="19.980000" fill="red">
  <title>Mexico City</title>
</circle><line x1="1292.959961" y1="1386.959961" x2="1660.959961" y2="1600.959961" stroke="red" stroke-width="6.660000" />
<circle cx="1632.959961" cy="1366.959961" r="19.980000" fill="red">
  <title>Dhaka</title>
</circle><line x1="1660.959961" y1="1600.959961" x2="1632.959961" y2="1366.959961" stroke="red" stroke-width="6.660000" />
<circle cx="1388.959961" cy="671.960022" r="19.980000" fill="red">
  <title>Beijing</title>
</circle><line x1="1632.959961" y1="1366.959961" x2="1388.959961" y2="671.960022" stroke="red" stroke-width="6.660000" />
<circle cx="745.960022" cy="757.960022" r="19.980000" fill="red">
  <title>Osaka</title>
</circle><line x1="1388.959961" y1="671.960022" x2="745.960022" y2="757.960022" stroke="red" stroke-width="6.660000" />
<circle cx="638.960022" cy="389.959991" r="19.980000" fill="red">
  <title>Shanghai</title>
</circle><line x1="745.960022" y1="757.960022" x2="638.960022" y2="389.959991" stroke="red" stroke-width="6.660000" />
<circle cx="220.959991" cy="191.959991" r="19.980000" fill="red">
  <title>Mumbai</title>
</circle><line x1="638.960022" y1="389.959991" x2="220.959991" y2="191.959991" stroke="red" stroke-width="6.660000" />
<circle cx="575.960022" cy="731.960022" r="19.980000" fill="red">
  <title>New York</title>
</circle><line x1="220.959991" y1="191.959991" x2="575.960022" y2="731.960022" stroke="red" stroke-width="6.660000" />
</svg>
