<?xml version="1.0" encoding="UTF-8" standalone="no"?>
<svg width="500" height="500" viewBox="0 0 2074.000000 2074.000000" xmlns="http://www.w3.org/2000/svg">
<rect x="19.000000" y="19.000000" width="2036.000000" height="2036.000000" fill="black" />
<circle cx="43.959999" cy="487.959991" r="19.980000" fill="red">
  <title>Tokyo</title>
</circle><line x1="1852.959961" y1="213.959991" x2="43.959999" y2="487.959991" stroke="red" stroke-width="6.660000" />
<circle cx="735.960022" cy="1015.960022" r="19.980000" fill="red">
  <title>São Paulo</title>
</circle><line x1="43.959999" y1="487.959991" x2="735.960022" y2="1015.960022" stroke="red" stroke-width="6.660000" />
<circle cx="1789.959961" cy="417.959991" r="19.980000" fill="red">
  <title>Delhi</title>
</circle><line x1="735.960022" y1="1015.960022" x2="1789.959961" y2="417.959991" stroke="red" stroke-width="6.660000" />
<circle cx="1852.959961" cy="213.959991" r="19.980000" fill="red">
  <title>Shanghai</title>
</circle><line x1="1789.959961" y1="417.959991" x2="1852.959961" y2="213.959991" stroke="red" stroke-width="6.660000" />
</svg>
