<?xml version="1.0" encoding="UTF-8" standalone="no"?>
<svg width="500" height="500" viewBox="0 0 2074.000000 2074.000000" xmlns="http://www.w3.org/2000/svg">
<rect x="19.000000" y="19.000000" width="2036.000000" height="2036.000000" fill="black" />
<circle cx="1088.959961" cy="888.960022" r="19.980000" fill="red">
  <title>Tokyo</title>
</circle><line x1="356.959991" y1="151.959991" x2="1088.959961" y2="888.960022" stroke="red" stroke-width="6.660000" />
<circle cx="1133.959961" cy="871.960022" r="19.980000" fill="red">
  <title>São Paulo</title>
</circle><line x1="1088.959961" y1="888.960022" x2="1133.959961" y2="871.960022" stroke="red" stroke-width="6.660000" />
<circle cx="1156.959961" cy="814.960022" r="19.980000" fill="red">
  <title>Dhaka</title>
</circle><line x1="1133.959961" y1="871.960022" x2="1156.959961" y2="814.960022" stroke="red" stroke-width="6.660000" />
<circle cx="1971.959961" cy="850.960022" r="19.980000" fill="red">
  <title>Beijing</title>
</circle><line x1="1156.959961" y1="814.960022" x2="1971.959961" y2="850.960022" stroke="red" stroke-width="6.660000" />
<circle cx="1744.959961" cy="1344.959961" r="19.980000" fill="red">
  <title>Karachi</title>
</circle><line x1="1971.959961" y1="850.960022" x2="1744.959961" y2="1344.959961" stroke="red" stroke-width="6.660000" />
<circle cx="1433.959961" cy="1302.959961" r="19.980000" fill="red">
  <title>Cairo</title>
</circle><line x1="1744.959961" y1="1344.959961" x2="1433.959961" y2="1302.959961" stroke="red" stroke-width="6.660000" />
<circle cx="1131.959961" cy="1230.959961" r="19.980000" fill="red">
  <title>Shanghai</title>
</circle><line x1="1433.959961" y1="1302.959961" x2="1131.959961" y2="1230.959961" stroke="red" stroke-width="6.660000" />
<circle cx="1213.959961" cy="1480.959961" r="19.980000" fill="red">
  <title>New York</title>
</circle><line x1="1131.959961" y1="1230.959961" x2="1213.959961" y2="1480.959961" stroke="red" stroke-width="6.660000" />
<circle cx="1078.959961" cy="1460.959961" r="19.980000" fill="red">
  <title>Osaka</title>
</circle><line x1="1213.959961" y1="1480.959961" x2="1078.959961" y2="1460.959961" stroke="red" stroke-width="6.660000" />
<circle cx="553.960022" cy="1418.959961" r="19.980000" fill="red">
  <title>Mexico City</title>
</circle><line x1="1078.959961" y1="1460.959961" x2="553.960022" y2="1418.959961" stroke="red" stroke-width="6.660000" />
<circle cx="145.959991" cy="971.960022" r="19.980000" fill="red">
  <title>Delhi</title>
</circle><line x1="553.960022" y1="1418.959961" x2="145.959991" y2="971.960022" stroke="red" stroke-width="6.660000" />
<circle cx="356.959991" cy="151.959991" r="19.980000" fill="red">
  <title>Mumbai</title>
</circle><line x1="145.959991" y1="971.960022" x2="356.959991" y2="151.959991" stroke="red" stroke-width="6.660000" />
</svg>
