<?xml version="1.0" encoding="UTF-8" standalone="no"?>
<svg width="500" height="500" viewBox="0 0 2074.000000 2074.000000" xmlns="http://www.w3.org/2000/svg">
<rect x="19.000000" y="19.000000" width="2036.000000" height="2036.000000" fill="black" />
<circle cx="688.960022" cy="1488.959961" r="19.980000" fill="red">
  <title>Tokyo</title>
</circle><line x1="375.959991" y1="1146.959961" x2="688.960022" y2="1488.959961" stroke="red" stroke-width="6.660000" />
<circle cx="625.960022" cy="1893.959961" r="19.980000" fill="red">
  <title>Mexico City</title>
</circle><line x1="688.960022" y1="1488.959961" x2="625.960022" y2="1893.959961" stroke="red" stroke-width="6.660000" />
<circle cx="1049.959961" cy="1893.959961" r="19.980000" fill="red">
  <title>Osaka</title>
</circle><line x1="625.960022" y1="1893.959961" x2="1049.959961" y2="1893.959961" stroke="red" stroke-width="6.660000" />
<circle cx="1935.959961" cy="1325.959961" r="19.980000" fill="red">
  <title>Dhaka</title>
</circle><line x1="1049.959961" y1="1893.959961" x2="1935.959961" y2="1325.959961" stroke="red" stroke-width="6.660000" />
<circle cx="1932.959961" cy="298.959991" r="19.980000" fill="red">
  <title>Delhi</title>
</circle><line x1="1935.959961" y1="1325.959961" x2="1932.959961" y2="298.959991" stroke="red" stroke-width="6.660000" />
<circle cx="559.960022" cy="334.959991" r="19.980000" fill="red">
  <title>Mumbai</title>
</circle><line x1="1932.959961" y1="298.959991" x2="559.960022" y2="334.959991" stroke="red" stroke-width="6.660000" />
<circle cx="92.959999" cy="91.959999" r="19.980000" fill="red">
  <title>São Paulo</title>
</circle><line x1="559.960022" y1="334.959991" x2="92.959999" y2="91.959999" stroke="red" stroke-width="6.660000" />
<circle cx="301.959991" cy="407.959991" r="19.980000" fill="red">
  <title>Cairo</title>
</circle><line x1="92.959999" y1="91.959999" x2="301.959991" y2="407.959991" stroke="red" stroke-width="6.660000" />
<circle cx="447.959991" cy="787.960022" r="19.980000" fill="red">
  <title>Shanghai</title>
</circle><line x1="301.959991" y1="407.959991" x2="447.959991" y2="787.960022" stroke="red" stroke-width="6.660000" />
<circle cx="375.959991" cy="1146.959961" r="19.980000" fill="red">
  <title>Beijing</title>
</circle><line x1="447.959991" y1="787.960022" x2="375.959991" y2="1146.959961" stroke="red" stroke-width="6.660000" />
</svg>
