<?xml version="1.0" encoding="UTF-8" standalone="no"?>
<svg width="500" height="500" viewBox="0 0 2074.000000 2074.000000" xmlns="http://www.w3.org/2000/svg">
<rect x="19.000000" y="19.000000" width="2036.000000" height="2036.000000" fill="black" />
<circle cx="1571.959961" cy="462.959991" r="19.980000" fill="red">
  <title>Tokyo</title>
</circle><line x1="1403.959961" y1="141.959991" x2="1571.959961" y2="462.959991" stroke="red" stroke-width="6.660000" />
<circle cx="2007.959961" cy="754.960022" r="19.980000" fill="red">
  <title>Delhi</title>
</circle><line x1="1571.959961" y1="462.959991" x2="2007.959961" y2="754.960022" stroke="red" stroke-width="6.660000" />
<circle cx="1619.959961" cy="1093.959961" r="19.980000" fill="red">
  <title>Beijing</title>
</circle><line x1="2007.959961" y1="754.960022" x2="1619.959961" y2="1093.959961" stroke="red" stroke-width="6.660000" />
<circle cx="1509.959961" cy="1297.959961" r="19.980000" fill="red">
  <title>Dhaka</title>
</circle><line x1="1619.959961" y1="1093.959961" x2="1509.959961" y2="1297.959961" stroke="red" stroke-width="6.660000" />
<circle cx="1603.959961" cy="1659.959961" r="19.980000" fill="red">
  <title>New York</title>
</circle><line x1="1509.959961" y1="1297.959961" x2="1603.959961" y2="1659.959961" stroke="red" stroke-width="6.660000" />
<circle cx="1736.959961" cy="1904.959961" r="19.980000" fill="red">
  <title>Cairo</title>
</circle><line x1="1603.959961" y1="1659.959961" x2="1736.959961" y2="1904.959961" stroke="red" stroke-width="6.660000" />
<circle cx="1402.959961" cy="1545.959961" r="19.980000" fill="red">
  <title>Mexico City</title>
</circle><line x1="1736.959961" y1="1904.959961" x2="1402.959961" y2="1545.959961" stroke="red" stroke-width="6.660000" />
<circle cx="672.960022" cy="1554.959961" r="19.980000" fill="red">
  <title>Rio de Janeiro</title>
</circle><line x1="1402.959961" y1="1545.959961" x2="672.960022" y2="1554.959961" stroke="red" stroke-width="6.660000" />
<circle cx="398.959991" cy="1745.959961" r="19.980000" fill="red">
  <title>Buenos Aires</title>
</circle><line x1="672.960022" y1="1554.959961" x2="398.959991" y2="1745.959961" stroke="red" stroke-width="6.660000" />
<circle cx="284.959991" cy="1826.959961" r="19.980000" fill="red">
  <title>Karachi</title>
</circle><line x1="398.959991" y1="1745.959961" x2="284.959991" y2="1826.959961" stroke="red" stroke-width="6.660000" />
<circle cx="437.959991" cy="1570.959961" r="19.980000" fill="red">
  <title>Mumbai</title>
</circle><line x1="284.959991" y1="1826.959961" x2="437.959991" y2="1570.959961" stroke="red" stroke-width="6.660000" />
<circle cx="288.959991" cy="1233.959961" r="19.980000" fill="red">
  <title>Osaka</title>
</circle><line x1="437.959991" y1="1570.959961" x2="288.959991" y2="1233.959961" stroke="red" stroke-width="6.660000" />
<circle cx="646.960022" cy="979.960022" r="19.980000" fill="red">
  <title>Istanbul</title>
</circle><line x1="288.959991" y1="1233.959961" x2="646.960022" y2="979.960022" stroke="red" stroke-width="6.660000" />
<circle cx="779.960022" cy="570.960022" r="19.980000" fill="red">
  <title>Shanghai</title>
</circle><line x1="646.960022" y1="979.960022" x2="779.960022" y2="570.960022" stroke="red" stroke-width="6.660000" />
<circle cx="698.960022" cy="455.959991" r="19.980000" fill="red">
  <title>São Paulo</title>
</circle><line x1="779.960022" y1="570.960022" x2="698.960022" y2="455.959991" stroke="red" stroke-width="6.660000" />
<circle cx="172.959991" cy="180.959991" r="19.980000" fill="red">
  <title>Kolkata</title>
</circle><line x1="698.960022" y1="455.959991" x2="172.959991" y2="180.959991" stroke="red" stroke-width="6.660000" />
<circle cx="689.960022" cy="369.959991" r="19.980000" fill="red">
  <title>Chongqing</title>
</circle><line x1="172.959991" y1="180.959991" x2="689.960022" y2="369.959991" stroke="red" stroke-width="6.660000" />
<circle cx="895.960022" cy="144.959991" r="19.980000" fill="red">
  <title>Lagos</title>
</circle><line x1="689.960022" y1="369.959991" x2="895.960022" y2="144.959991" stroke="red" stroke-width="6.660000" />
<circle cx="1403.959961" cy="141.959991" r="19.980000" fill="red">
  <title>Manila</title>
</circle><line x1="895.960022" y1="144.959991" x2="1403.959961" y2="141.959991" stroke="red" stroke-width="6.660000" />
</svg>
