<?xml version="1.0" encoding="UTF-8" standalone="no"?>
<svg width="500" height="500" viewBox="0 0 2074.000000 2074.000000" xmlns="http://www.w3.org/2000/svg">
<rect x="19.000000" y="19.000000" width="2036.000000" height="2036.000000" fill="black" />
<circle cx="1434.959961" cy="1903.959961" r="19.980000" fill="red">
  <title>Tokyo</title>
</circle><line x1="1740.959961" y1="1588.959961" x2="1434.959961" y2="1903.959961" stroke="red" stroke-width="6.660000" />
<circle cx="1413.959961" cy="1747.959961" r="19.980000" fill="red">
  <title>Dhaka</title>
</circle><line x1="1434.959961" y1="1903.959961" x2="1413.959961" y2="1747.959961" stroke="red" stroke-width="6.660000" />
<circle cx="1297.959961" cy="1562.959961" r="19.980000" fill="red">
  <title>Beijing</title>
</circle><line x1="1413.959961" y1="1747.959961" x2="1297.959961" y2="1562.959961" stroke="red" stroke-width="6.660000" />
<circle cx="1375.959961" cy="1420.959961" r="19.980000" fill="red">
  <title>São Paulo</title>
</circle><line x1="1297.959961" y1="1562.959961" x2="1375.959961" y2="1420.959961" stroke="red" stroke-width="6.660000" />
<circle cx="1582.959961" cy="1350.959961" r="19.980000" fill="red">
  <title>Buenos Aires</title>
</circle><line x1="1375.959961" y1="1420.959961" x2="1582.959961" y2="1350.959961" stroke="red" stroke-width="6.660000" />
<circle cx="1534.959961" cy="1224.959961" r="19.980000" fill="red">
  <title>Delhi</title>
</circle><line x1="1582.959961" y1="1350.959961" x2="1534.959961" y2="1224.959961" stroke="red" stroke-width="6.660000" />
<circle cx="1482.959961" cy="1065.959961" r="19.980000" fill="red">
  <title>Mexico City</title>
</circle><line x1="1534.959961" y1="1224.959961" x2="1482.959961" y2="1065.959961" stroke="red" stroke-width="6.660000" />
<circle cx="1037.959961" cy="929.960022" r="19.980000" fill="red">
  <title>Karachi</title>
</circle><line x1="1482.959961" y1="1065.959961" x2="1037.959961" y2="929.960022" stroke="red" stroke-width="6.660000" />
<circle cx="610.960022" cy="149.959991" r="19.980000" fill="red">
  <title>Chongqing</title>
</circle><line x1="1037.959961" y1="929.960022" x2="610.960022" y2="149.959991" stroke="red" stroke-width="6.660000" />
<circle cx="1088.959961" cy="40.959999" r="19.980000" fill="red">
  <title>Shanghai</title>
</circle><line x1="610.960022" y1="149.959991" x2="1088.959961" y2="40.959999" stroke="red" stroke-width="6.660000" />
<circle cx="1753.959961" cy="318.959991" r="19.980000" fill="red">
  <title>Osaka</title>
</circle><line x1="1088.959961" y1="40.959999" x2="1753.959961" y2="318.959991" stroke="red" stroke-width="6.660000" />
<circle cx="1928.959961" cy="405.959991" r="19.980000" fill="red">
  <title>New York</title>
</circle><line x1="1753.959961" y1="318.959991" x2="1928.959961" y2="405.959991" stroke="red" stroke-width="6.660000" />
<circle cx="1687.959961" cy="898.960022" r="19.980000" fill="red">
  <title>Istanbul</title>
</circle><line x1="1928.959961" y1="405.959991" x2="1687.959961" y2="898.960022" stroke="red" stroke-width="6.660000" />
<circle cx="1615.959961" cy="1084.959961" r="19.980000" fill="red">
  <title>Kolkata</title>
</circle><line x1="1687.959961" y1="898.960022" x2="1615.959961" y2="1084.959961" stroke="red" stroke-width="6.660000" />
<circle cx="1802.959961" cy="1328.959961" r="19.980000" fill="red">
  <title>Cairo</title>
</circle><line x1="1615.959961" y1="1084.959961" x2="1802.959961" y2="1328.959961" stroke="red" stroke-width="6.660000" />
<circle cx="1740.959961" cy="1588.959961" r="19.980000" fill="red">
  <title>Mumbai</title>
</circle><line x1="1802.959961" y1="1328.959961" x2="1740.959961" y2="1588.959961" stroke="red" stroke-width="6.660000" />
</svg>
