<?xml version="1.0" encoding="UTF-8" standalone="no"?>
<svg width="500" height="500" viewBox="0 0 2074.000000 2074.000000" xmlns="http://www.w3.org/2000/svg">
<rect x="19.000000" y="19.000000" width="2036.000000" height="2036.000000" fill="black" />
<circle cx="539.960022" cy="452.959991" r="19.980000" fill="red">
  <title>Tokyo</title>
</circle><line x1="825.960022" y1="367.959991" x2="539.960022" y2="452.959991" stroke="red" stroke-width="6.660000" />
<circle cx="856.960022" cy="737.960022" r="19.980000" fill="red">
  <title>Delhi</title>
</circle><line x1="539.960022" y1="452.959991" x2="856.960022" y2="737.960022" stroke="red" stroke-width="6.660000" />
<circle cx="536.960022" cy="866.960022" r="19.980000" fill="red">
  <title>Kolkata</title>
</circle><line x1="856.960022" y1="737.960022" x2="536.960022" y2="866.960022" stroke="red" stroke-width="6.660000" />
<circle cx="431.959991" cy="1032.959961" r="19.980000" fill="red">
  <title>Cairo</title>
</circle><line x1="536.960022" y1="866.960022" x2="431.959991" y2="1032.959961" stroke="red" stroke-width="6.660000" />
<circle cx="212.959991" cy="889.960022" r="19.980000" fill="red">
  <title>Karachi</title>
</circle><line x1="431.959991" y1="1032.959961" x2="212.959991" y2="889.960022" stroke="red" stroke-width="6.660000" />
<circle cx="45.959999" cy="1002.960022" r="19.980000" fill="red">
  <title>São Paulo</title>
</circle><line x1="212.959991" y1="889.960022" x2="45.959999" y2="1002.960022" stroke="red" stroke-width="6.660000" />
<circle cx="72.959999" cy="1145.959961" r="19.980000" fill="red">
  <title>Mumbai</title>
</circle><line x1="45.959999" y1="1002.960022" x2="72.959999" y2="1145.959961" stroke="red" stroke-width="6.660000" />
<circle cx="151.959991" cy="1354.959961" r="19.980000" fill="red">
  <title>Manila</title>
</circle><line x1="72.959999" y1="1145.959961" x2="151.959991" y2="1354.959961" stroke="red" stroke-width="6.660000" />
<circle cx="249.959991" cy="1488.959961" r="19.980000" fill="red">
  <title>Shanghai</title>
</circle><line x1="151.959991" y1="1354.959961" x2="249.959991" y2="1488.959961" stroke="red" stroke-width="6.660000" />
<circle cx="275.959991" cy="1806.959961" r="19.980000" fill="red">
  <title>New York</title>
</circle><line x1="249.959991" y1="1488.959961" x2="275.959991" y2="1806.959961" stroke="red" stroke-width="6.660000" />
<circle cx="366.959991" cy="1737.959961" r="19.980000" fill="red">
  <title>Istanbul</title>
</circle><line x1="275.959991" y1="1806.959961" x2="366.959991" y2="1737.959961" stroke="red" stroke-width="6.660000" />
<circle cx="805.960022" cy="1572.959961" r="19.980000" fill="red">
  <title>Rio de Janeiro</title>
</circle><line x1="366.959991" y1="1737.959961" x2="805.960022" y2="1572.959961" stroke="red" stroke-width="6.660000" />
<circle cx="1309.959961" cy="1019.960022" r="19.980000" fill="red">
  <title>Buenos Aires</title>
</circle><line x1="805.960022" y1="1572.959961" x2="1309.959961" y2="1019.960022" stroke="red" stroke-width="6.660000" />
<circle cx="1842.959961" cy="733.960022" r="19.980000" fill="red">
  <title>Chongqing</title>
</circle><line x1="1309.959961" y1="1019.960022" x2="1842.959961" y2="733.960022" stroke="red" stroke-width="6.660000" />
<circle cx="1565.959961" cy="362.959991" r="19.980000" fill="red">
  <title>Lagos</title>
</circle><line x1="1842.959961" y1="733.960022" x2="1565.959961" y2="362.959991" stroke="red" stroke-width="6.660000" />
<circle cx="1383.959961" cy="618.960022" r="19.980000" fill="red">
  <title>Dhaka</title>
</circle><line x1="1565.959961" y1="362.959991" x2="1383.959961" y2="618.960022" stroke="red" stroke-width="6.660000" />
<circle cx="1096.959961" cy="511.959991" r="19.980000" fill="red">
  <title>Osaka</title>
</circle><line x1="1383.959961" y1="618.960022" x2="1096.959961" y2="511.959991" stroke="red" stroke-width="6.660000" />
<circle cx="854.960022" cy="105.959999" r="19.980000" fill="red">
  <title>Mexico City</title>
</circle><line x1="1096.959961" y1="511.959991" x2="854.960022" y2="105.959999" stroke="red" stroke-width="6.660000" />
<circle cx="825.960022" cy="367.959991" r="19.980000" fill="red">
  <title>Beijing</title>
</circle><line x1="854.960022" y1="105.959999" x2="825.960022" y2="367.959991" stroke="red" stroke-width="6.660000" />
</svg>
