<?xml version="1.0" encoding="UTF-8" standalone="no"?>
<svg width="500" height="500" viewBox="0 0 2074.000000 2074.000000" xmlns="http://www.w3.org/2000/svg">
<rect x="19.000000" y="19.000000" width="2036.000000" height="2036.000000" fill="black" />
<circle cx="1801.959961" cy="542.960022" r="19.980000" fill="red">
  <title>Tokyo</title>
</circle><line x1="1854.959961" y1="1306.959961" x2="1801.959961" y2="542.960022" stroke="red" stroke-width="6.660000" />
<circle cx="1814.959961" cy="217.959991" r="19.980000" fill="red">
  <title>Kolkata</title>
</circle><line x1="1801.959961" y1="542.960022" x2="1814.959961" y2="217.959991" stroke="red" stroke-width="6.660000" />
<circle cx="1616.959961" cy="48.959999" r="19.980000" fill="red">
  <title>New York</title>
</circle><line x1="1814.959961" y1="217.959991" x2="1616.959961" y2="48.959999" stroke="red" stroke-width="6.660000" />
<circle cx="1321.959961" cy="391.959991" r="19.980000" fill="red">
  <title>Delhi</title>
</circle><line x1="1616.959961" y1="48.959999" x2="1321.959961" y2="391.959991" stroke="red" stroke-width="6.660000" />
<circle cx="589.960022" cy="483.959991" r="19.980000" fill="red">
  <title>Dhaka</title>
</circle><line x1="1321.959961" y1="391.959991" x2="589.960022" y2="483.959991" stroke="red" stroke-width="6.660000" />
<circle cx="453.959991" cy="408.959991" r="19.980000" fill="red">
  <title>Istanbul</title>
</circle><line x1="589.960022" y1="483.959991" x2="453.959991" y2="408.959991" stroke="red" stroke-width="6.660000" />
<circle cx="306.959991" cy="155.959991" r="19.980000" fill="red">
  <title>Chongqing</title>
</circle><line x1="453.959991" y1="408.959991" x2="306.959991" y2="155.959991" stroke="red" stroke-width="6.660000" />
<circle cx="318.959991" cy="49.959999" r="19.980000" fill="red">
  <title>Osaka</title>
</circle><line x1="306.959991" y1="155.959991" x2="318.959991" y2="49.959999" stroke="red" stroke-width="6.660000" />
<circle cx="45.959999" cy="222.959991" r="19.980000" fill="red">
  <title>São Paulo</title>
</circle><line x1="318.959991" y1="49.959999" x2="45.959999" y2="222.959991" stroke="red" stroke-width="6.660000" />
<circle cx="47.959999" cy="514.960022" r="19.980000" fill="red">
  <title>Cairo</title>
</circle><line x1="45.959999" y1="222.959991" x2="47.959999" y2="514.960022" stroke="red" stroke-width="6.660000" />
<circle cx="142.959991" cy="757.960022" r="19.980000" fill="red">
  <title>Shanghai</title>
</circle><line x1="47.959999" y1="514.960022" x2="142.959991" y2="757.960022" stroke="red" stroke-width="6.660000" />
<circle cx="196.959991" cy="838.960022" r="19.980000" fill="red">
  <title>Mexico City</title>
</circle><line x1="142.959991" y1="757.960022" x2="196.959991" y2="838.960022" stroke="red" stroke-width="6.660000" />
<circle cx="158.959991" cy="1610.959961" r="19.980000" fill="red">
  <title>Mumbai</title>
</circle><line x1="196.959991" y1="838.960022" x2="158.959991" y2="1610.959961" stroke="red" stroke-width="6.660000" />
<circle cx="55.959999" cy="1727.959961" r="19.980000" fill="red">
  <title>Beijing</title>
</circle><line x1="158.959991" y1="1610.959961" x2="55.959999" y2="1727.959961" stroke="red" stroke-width="6.660000" />
<circle cx="893.960022" cy="1545.959961" r="19.980000" fill="red">
  <title>Karachi</title>
</circle><line x1="55.959999" y1="1727.959961" x2="893.960022" y2="1545.959961" stroke="red" stroke-width="6.660000" />
<circle cx="911.960022" cy="1098.959961" r="19.980000" fill="red">
  <title>Manila</title>
</circle><line x1="893.960022" y1="1545.959961" x2="911.960022" y2="1098.959961" stroke="red" stroke-width="6.660000" />
<circle cx="1854.959961" cy="1306.959961" r="19.980000" fill="red">
  <title>Buenos Aires</title>
</circle><line x1="911.960022" y1="1098.959961" x2="1854.959961" y2="1306.959961" stroke="red" stroke-width="6.660000" />
</svg>
