<?xml version="1.0" encoding="UTF-8" standalone="no"?>
<svg width="500" height="500" viewBox="0 0 2074.000000 2074.000000" xmlns="http://www.w3.org/2000/svg">
<rect x="19.000000" y="19.000000" width="2036.000000" height="2036.000000" fill="black" />
<circle cx="1549.959961" cy="1738.959961" r="19.980000" fill="red">
  <title>Tokyo</title>
</circle><line x1="1381.959961" y1="1831.959961" x2="1549.959961" y2="1738.959961" stroke="red" stroke-width="6.660000" />
<circle cx="1533.959961" cy="1940.959961" r="19.980000" fill="red">
  <title>Beijing</title>
</circle><line x1="1549.959961" y1="1738.959961" x2="1533.959961" y2="1940.959961" stroke="red" stroke-width="6.660000" />
<circle cx="1610.959961" cy="1978.959961" r="19.980000" fill="red">
  <title>Shanghai</title>
</circle><line x1="1533.959961" y1="1940.959961" x2="1610.959961" y2="1978.959961" stroke="red" stroke-width="6.660000" />
<circle cx="1872.959961" cy="1942.959961" r="19.980000" fill="red">
  <title>Cairo</title>
</circle><line x1="1610.959961" y1="1978.959961" x2="1872.959961" y2="1942.959961" stroke="red" stroke-width="6.660000" />
<circle cx="2019.959961" cy="1148.959961" r="19.980000" fill="red">
  <title>Mexico City</title>
</circle><line x1="1872.959961" y1="1942.959961" x2="2019.959961" y2="1148.959961" stroke="red" stroke-width="6.660000" />
<circle cx="1945.959961" cy="738.960022" r="19.980000" fill="red">
  <title>São Paulo</title>
</circle><line x1="2019.959961" y1="1148.959961" x2="1945.959961" y2="738.960022" stroke="red" stroke-width="6.660000" />
<circle cx="1226.959961" cy="1090.959961" r="19.980000" fill="red">
  <title>Mumbai</title>
</circle><line x1="1945.959961" y1="738.960022" x2="1226.959961" y2="1090.959961" stroke="red" stroke-width="6.660000" />
<circle cx="938.960022" cy="520.960022" r="19.980000" fill="red">
  <title>Delhi</title>
</circle><line x1="1226.959961" y1="1090.959961" x2="938.960022" y2="520.960022" stroke="red" stroke-width="6.660000" />
<circle cx="347.959991" cy="1480.959961" r="19.980000" fill="red">
  <title>Dhaka</title>
</circle><line x1="938.960022" y1="520.960022" x2="347.959991" y2="1480.959961" stroke="red" stroke-width="6.660000" />
<circle cx="1189.959961" cy="1827.959961" r="19.980000" fill="red">
  <title>Osaka</title>
</circle><line x1="347.959991" y1="1480.959961" x2="1189.959961" y2="1827.959961" stroke="red" stroke-width="6.660000" />
<circle cx="1381.959961" cy="1831.959961" r="19.980000" fill="red">
  <title>New York</title>
</circle><line x1="1189.959961" y1="1827.959961" x2="1381.959961" y2="1831.959961" stroke="red" stroke-width="6.660000" />
</svg>
