<?xml version="1.0" encoding="UTF-8" standalone="no"?>
<svg width="500" height="500" viewBox="0 0 2074.000000 2074.000000" xmlns="http://www.w3.org/2000/svg">
<rect x="19.000000" y="19.000000" width="2036.000000" height="2036.000000" fill="black" />
<circle cx="1758.959961" cy="406.959991" r="19.980000" fill="red">
  <title>Tokyo</title>
</circle><line x1="933.960022" y1="63.959999" x2="1758.959961" y2="406.959991" stroke="red" stroke-width="6.660000" />
<circle cx="1769.959961" cy="1135.959961" r="19.980000" fill="red">
  <title>Cairo</title>
</circle><line x1="1758.959961" y1="406.959991" x2="1769.959961" y2="1135.959961" stroke="red" stroke-width="6.660000" />
<circle cx="1395.959961" cy="1931.959961" r="19.980000" fill="red">
  <title>Mexico City</title>
</circle><line x1="1769.959961" y1="1135.959961" x2="1395.959961" y2="1931.959961" stroke="red" stroke-width="6.660000" />
<circle cx="622.960022" cy="1607.959961" r="19.980000" fill="red">
  <title>Beijing</title>
</circle><line x1="1395.959961" y1="1931.959961" x2="622.960022" y2="1607.959961" stroke="red" stroke-width="6.660000" />
<circle cx="285.959991" cy="1420.959961" r="19.980000" fill="red">
  <title>Shanghai</title>
</circle><line x1="622.960022" y1="1607.959961" x2="285.959991" y2="1420.959961" stroke="red" stroke-width="6.660000" />
<circle cx="560.960022" cy="1309.959961" r="19.980000" fill="red">
  <title>São Paulo</title>
</circle><line x1="285.959991" y1="1420.959961" x2="560.960022" y2="1309.959961" stroke="red" stroke-width="6.660000" />
<circle cx="771.960022" cy="916.960022" r="19.980000" fill="red">
  <title>Mumbai</title>
</circle><line x1="560.960022" y1="1309.959961" x2="771.960022" y2="916.960022" stroke="red" stroke-width="6.660000" />
<circle cx="1023.960022" cy="787.960022" r="19.980000" fill="red">
  <title>Osaka</title>
</circle><line x1="771.960022" y1="916.960022" x2="1023.960022" y2="787.960022" stroke="red" stroke-width="6.660000" />
<circle cx="82.959999" cy="217.959991" r="19.980000" fill="red">
  <title>Delhi</title>
</circle><line x1="1023.960022" y1="787.960022" x2="82.959999" y2="217.959991" stroke="red" stroke-width="6.660000" />
<circle cx="933.960022" cy="63.959999" r="19.980000" fill="red">
  <title>Dhaka</title>
</circle><line x1="82.959999" y1="217.959991" x2="933.960022" y2="63.959999" stroke="red" stroke-width="6.660000" />
</svg>
