<?xml version="1.0" encoding="UTF-8" standalone="no"?>
<svg width="500" height="500" viewBox="0 0 2074.000000 2074.000000" xmlns="http://www.w3.org/2000/svg">
<rect x="19.000000" y="19.000000" width="2036.000000" height="2036.000000" fill="black" />
<circle cx="672.960022" cy="1310.959961" r="19.980000" fill="red">
  <title>Tokyo</title>
</circle><line x1="162.959991" y1="634.960022" x2="672.960022" y2="1310.959961" stroke="red" stroke-width="6.660000" />
<circle cx="616.960022" cy="1366.959961" r="19.980000" fill="red">
  <title>São Paulo</title>
</circle><line x1="672.960022" y1="1310.959961" x2="616.960022" y2="1366.959961" stroke="red" stroke-width="6.660000" />
<circle cx="525.960022" cy="1690.959961" r="19.980000" fill="red">
  <title>Shanghai</title>
</circle><line x1="616.960022" y1="1366.959961" x2="525.960022" y2="1690.959961" stroke="red" stroke-width="6.660000" />
<circle cx="1280.959961" cy="2007.959961" r="19.980000" fill="red">
  <title>Dhaka</title>
</circle><line x1="525.960022" y1="1690.959961" x2="1280.959961" y2="2007.959961" stroke="red" stroke-width="6.660000" />
<circle cx="1199.959961" cy="1704.959961" r="19.980000" fill="red">
  <title>Osaka</title>
</circle><line x1="1280.959961" y1="2007.959961" x2="1199.959961" y2="1704.959961" stroke="red" stroke-width="6.660000" />
<circle cx="1934.959961" cy="1026.959961" r="19.980000" fill="red">
  <title>Cairo</title>
</circle><line x1="1199.959961" y1="1704.959961" x2="1934.959961" y2="1026.959961" stroke="red" stroke-width="6.660000" />
<circle cx="1517.959961" cy="978.960022" r="19.980000" fill="red">
  <title>Delhi</title>
</circle><line x1="1934.959961" y1="1026.959961" x2="1517.959961" y2="978.960022" stroke="red" stroke-width="6.660000" />
<circle cx="980.960022" cy="1041.959961" r="19.980000" fill="red">
  <title>Beijing</title>
</circle><line x1="1517.959961" y1="978.960022" x2="980.960022" y2="1041.959961" stroke="red" stroke-width="6.660000" />
<circle cx="961.960022" cy="950.960022" r="19.980000" fill="red">
  <title>Mumbai</title>
</circle><line x1="980.960022" y1="1041.959961" x2="961.960022" y2="950.960022" stroke="red" stroke-width="6.660000" />
<circle cx="162.959991" cy="634.960022" r="19.980000" fill="red">
  <title>Mexico City</title>
</circle><line x1="961.960022" y1="950.960022" x2="162.959991" y2="634.960022" stroke="red" stroke-width="6.660000" />
</svg>
