<?xml version="1.0" encoding="UTF-8" standalone="no"?>
<svg width="500" height="500" viewBox="0 0 2074.000000 2074.000000" xmlns="http://www.w3.org/2000/svg">
<rect x="19.000000" y="19.000000" width="2036.000000" height="2036.000000" fill="black" />
<circle cx="1534.959961" cy="1632.959961" r="19.980000" fill="red">
  <title>Tokyo</title>
</circle><line x1="1619.959961" y1="1442.959961" x2="1534.959961" y2="1632.959961" stroke="red" stroke-width="6.660000" />
<circle cx="1194.959961" cy="1629.959961" r="19.980000" fill="red">
  <title>Cairo</title>
</circle><line x1="1534.959961" y1="1632.959961" x2="1194.959961" y2="1629.959961" stroke="red" stroke-width="6.660000" />
<circle cx="929.960022" cy="1133.959961" r="19.980000" fill="red">
  <title>Mexico City</title>
</circle><line x1="1194.959961" y1="1629.959961" x2="929.960022" y2="1133.959961" stroke="red" stroke-width="6.660000" />
<circle cx="547.960022" cy="1341.959961" r="19.980000" fill="red">
  <title>Dhaka</title>
</circle><line x1="929.960022" y1="1133.959961" x2="547.960022" y2="1341.959961" stroke="red" stroke-width="6.660000" />
<circle cx="453.959991" cy="747.960022" r="19.980000" fill="red">
  <title>Mumbai</title>
</circle><line x1="547.960022" y1="1341.959961" x2="453.959991" y2="747.960022" stroke="red" stroke-width="6.660000" />
<circle cx="63.959999" cy="401.959991" r="19.980000" fill="red">
  <title>Beijing</title>
</circle><line x1="453.959991" y1="747.960022" x2="63.959999" y2="401.959991" stroke="red" stroke-width="6.660000" />
<circle cx="113.959999" cy="445.959991" r="19.980000" fill="red">
  <title>São Paulo</title>
</circle><line x1="63.959999" y1="401.959991" x2="113.959999" y2="445.959991" stroke="red" stroke-width="6.660000" />
<circle cx="1119.959961" cy="367.959991" r="19.980000" fill="red">
  <title>Osaka</title>
</circle><line x1="113.959999" y1="445.959991" x2="1119.959961" y2="367.959991" stroke="red" stroke-width="6.660000" />
<circle cx="1590.959961" cy="1044.959961" r="19.980000" fill="red">
  <title>Delhi</title>
</circle><line x1="1119.959961" y1="367.959991" x2="1590.959961" y2="1044.959961" stroke="red" stroke-width="6.660000" />
<circle cx="1619.959961" cy="1442.959961" r="19.980000" fill="red">
  <title>Shanghai</title>
</circle><line x1="1590.959961" y1="1044.959961" x2="1619.959961" y2="1442.959961" stroke="red" stroke-width="6.660000" />
</svg>
