<?xml version="1.0" encoding="UTF-8" standalone="no"?>
<svg width="500" height="500" viewBox="0 0 2074.000000 2074.000000" xmlns="http://www.w3.org/2000/svg">
<rect x="19.000000" y="19.000000" width="2036.000000" height="2036.000000" fill="black" />
<circle cx="612.960022" cy="357.959991" r="19.980000" fill="red">
  <title>Tokyo</title>
</circle><line x1="179.959991" y1="1950.959961" x2="612.960022" y2="357.959991" stroke="red" stroke-width="6.660000" />
<circle cx="1335.959961" cy="759.960022" r="19.980000" fill="red">
  <title>Delhi</title>
</circle><line x1="612.960022" y1="357.959991" x2="1335.959961" y2="759.960022" stroke="red" stroke-width="6.660000" />
<circle cx="1857.959961" cy="1901.959961" r="19.980000" fill="red">
  <title>São Paulo</title>
</circle><line x1="1335.959961" y1="759.960022" x2="1857.959961" y2="1901.959961" stroke="red" stroke-width="6.660000" />
<circle cx="179.959991" cy="1950.959961" r="19.980000" fill="red">
  <title>Shanghai</title>
</circle><line x1="1857.959961" y1="1901.959961" x2="179.959991" y2="1950.959961" stroke="red" stroke-width="6.660000" />
</svg>
