<?xml version="1.0" encoding="UTF-8" standalone="no"?>
<svg width="500" height="500" viewBox="0 0 2074.000000 2074.000000" xmlns="http://www.w3.org/2000/svg">
<rect x="19.000000" y="19.000000" width="2036.000000" height="2036.000000" fill="black" />
<circle cx="1019.960022" cy="2002.959961" r="19.980000" fill="red">
  <title>Tokyo</title>
</circle><line x1="142.959991" y1="1671.959961" x2="1019.960022" y2="2002.959961" stroke="red" stroke-width="6.660000" />
<circle cx="1412.959961" cy="1852.959961" r="19.980000" fill="red">
  <title>Cairo</title>
</circle><line x1="1019.960022" y1="2002.959961" x2="1412.959961" y2="1852.959961" stroke="red" stroke-width="6.660000" />
<circle cx="1581.959961" cy="1895.959961" r="19.980000" fill="red">
  <title>Chongqing</title>
</circle><line x1="1412.959961" y1="1852.959961" x2="1581.959961" y2="1895.959961" stroke="red" stroke-width="6.660000" />
<circle cx="1611.959961" cy="1720.959961" r="19.980000" fill="red">
  <title>Beijing</title>
</circle><line x1="1581.959961" y1="1895.959961" x2="1611.959961" y2="1720.959961" stroke="red" stroke-width="6.660000" />
<circle cx="1712.959961" cy="1756.959961" r="19.980000" fill="red">
  <title>Dhaka</title>
</circle><line x1="1611.959961" y1="1720.959961" x2="1712.959961" y2="1756.959961" stroke="red" stroke-width="6.660000" />
<circle cx="1690.959961" cy="1706.959961" r="19.980000" fill="red">
  <title>Osaka</title>
</circle><line x1="1712.959961" y1="1756.959961" x2="1690.959961" y2="1706.959961" stroke="red" stroke-width="6.660000" />
<circle cx="1922.959961" cy="1529.959961" r="19.980000" fill="red">
  <title>Mexico City</title>
</circle><line x1="1690.959961" y1="1706.959961" x2="1922.959961" y2="1529.959961" stroke="red" stroke-width="6.660000" />
<circle cx="2035.959961" cy="1069.959961" r="19.980000" fill="red">
  <title>São Paulo</title>
</circle><line x1="1922.959961" y1="1529.959961" x2="2035.959961" y2="1069.959961" stroke="red" stroke-width="6.660000" />
<circle cx="1180.959961" cy="1247.959961" r="19.980000" fill="red">
  <title>Buenos Aires</title>
</circle><line x1="2035.959961" y1="1069.959961" x2="1180.959961" y2="1247.959961" stroke="red" stroke-width="6.660000" />
<circle cx="1327.959961" cy="195.959991" r="19.980000" fill="red">
  <title>Mumbai</title>
</circle><line x1="1180.959961" y1="1247.959961" x2="1327.959961" y2="195.959991" stroke="red" stroke-width="6.660000" />
<circle cx="992.960022" cy="341.959991" r="19.980000" fill="red">
  <title>New York</title>
</circle><line x1="1327.959961" y1="195.959991" x2="992.960022" y2="341.959991" stroke="red" stroke-width="6.660000" />
<circle cx="667.960022" cy="850.960022" r="19.980000" fill="red">
  <title>Delhi</title>
</circle><line x1="992.960022" y1="341.959991" x2="667.960022" y2="850.960022" stroke="red" stroke-width="6.660000" />
<circle cx="586.960022" cy="1015.960022" r="19.980000" fill="red">
  <title>Shanghai</title>
</circle><line x1="667.960022" y1="850.960022" x2="586.960022" y2="1015.960022" stroke="red" stroke-width="6.660000" />
<circle cx="142.959991" cy="1671.959961" r="19.980000" fill="red">
  <title>Karachi</title>
</circle><line x1="586.960022" y1="1015.960022" x2="142.959991" y2="1671.959961" stroke="red" stroke-width="6.660000" />
</svg>
