<?xml version="1.0" encoding="UTF-8" standalone="no"?>
<svg width="500" height="500" viewBox="0 0 2074.000000 2074.000000" xmlns="http://www.w3.org/2000/svg">
<rect x="19.000000" y="19.000000" width="2036.000000" height="2036.000000" fill="black" />
<circle cx="1035.959961" cy="688.960022" r="19.980000" fill="red">
  <title>Tokyo</title>
</circle><line x1="247.959991" y1="1146.959961" x2="1035.959961" y2="688.960022" stroke="red" stroke-width="6.660000" />
<circle cx="635.960022" cy="985.960022" r="19.980000" fill="red">
  <title>Mexico City</title>
</circle><line x1="1035.959961" y1="688.960022" x2="635.960022" y2="985.960022" stroke="red" stroke-width="6.660000" />
<circle cx="137.959991" cy="1002.960022" r="19.980000" fill="red">
  <title>Shanghai</title>
</circle><line x1="635.960022" y1="985.960022" x2="137.959991" y2="1002.960022" stroke="red" stroke-width="6.660000" />
<circle cx="138.959991" cy="1039.959961" r="19.980000" fill="red">
  <title>Cairo</title>
</circle><line x1="137.959991" y1="1002.960022" x2="138.959991" y2="1039.959961" stroke="red" stroke-width="6.660000" />
<circle cx="271.959991" cy="1787.959961" r="19.980000" fill="red">
  <title>São Paulo</title>
</circle><line x1="138.959991" y1="1039.959961" x2="271.959991" y2="1787.959961" stroke="red" stroke-width="6.660000" />
<circle cx="247.959991" cy="1146.959961" r="19.980000" fill="red">
  <title>Delhi</title>
</circle><line x1="271.959991" y1="1787.959961" x2="247.959991" y2="1146.959961" stroke="red" stroke-width="6.660000" />
</svg>
