<?xml version="1.0" encoding="UTF-8" standalone="no"?>
<svg width="500" height="500" viewBox="0 0 2074.000000 2074.000000" xmlns="http://www.w3.org/2000/svg">
<rect x="19.000000" y="19.000000" width="2036.000000" height="2036.000000" fill="black" />
<circle cx="960.960022" cy="575.960022" r="19.980000" fill="red">
  <title>Tokyo</title>
</circle><line x1="721.960022" y1="556.960022" x2="960.960022" y2="575.960022" stroke="red" stroke-width="6.660000" />
<circle cx="1237.959961" cy="186.959991" r="19.980000" fill="red">
  <title>Delhi</title>
</circle><line x1="960.960022" y1="575.960022" x2="1237.959961" y2="186.959991" stroke="red" stroke-width="6.660000" />
<circle cx="1511.959961" cy="497.959991" r="19.980000" fill="red">
  <title>São Paulo</title>
</circle><line x1="1237.959961" y1="186.959991" x2="1511.959961" y2="497.959991" stroke="red" stroke-width="6.660000" />
<circle cx="1480.959961" cy="1785.959961" r="19.980000" fill="red">
  <title>Cairo</title>
</circle><line x1="1511.959961" y1="497.959991" x2="1480.959961" y2="1785.959961" stroke="red" stroke-width="6.660000" />
<circle cx="719.960022" cy="1378.959961" r="19.980000" fill="red">
  <title>Mexico City</title>
</circle><line x1="1480.959961" y1="1785.959961" x2="719.960022" y2="1378.959961" stroke="red" stroke-width="6.660000" />
<circle cx="721.960022" cy="556.960022" r="19.980000" fill="red">
  <title>Shanghai</title>
</circle><line x1="719.960022" y1="1378.959961" x2="721.960022" y2="556.960022" stroke="red" stroke-width="6.660000" />
</svg>
