<?xml version="1.0" encoding="UTF-8" standalone="no"?>
<svg width="500" height="500" viewBox="0 0 2074.000000 2074.000000" xmlns="http://www.w3.org/2000/svg">
<rect x="19.000000" y="19.000000" width="2036.000000" height="2036.000000" fill="black" />
<circle cx="674.960022" cy="85.959999" r="19.980000" fill="red">
  <title>Tokyo</title>
</circle><line x1="1791.959961" y1="1362.959961" x2="674.960022" y2="85.959999" stroke="red" stroke-width="6.660000" />
<circle cx="66.959999" cy="213.959991" r="19.980000" fill="red">
  <title>Delhi</title>
</circle><line x1="674.960022" y1="85.959999" x2="66.959999" y2="213.959991" stroke="red" stroke-width="6.660000" />
<circle cx="359.959991" cy="902.960022" r="19.980000" fill="red">
  <title>Mexico City</title>
</circle><line x1="66.959999" y1="213.959991" x2="359.959991" y2="902.960022" stroke="red" stroke-width="6.660000" />
<circle cx="957.960022" cy="1799.959961" r="19.980000" fill="red">
  <title>Shanghai</title>
</circle><line x1="359.959991" y1="902.960022" x2="957.960022" y2="1799.959961" stroke="red" stroke-width="6.660000" />
<circle cx="1406.959961" cy="1998.959961" r="19.980000" fill="red">
  <title>São Paulo</title>
</circle><line x1="957.960022" y1="1799.959961" x2="1406.959961" y2="1998.959961" stroke="red" stroke-width="6.660000" />
<circle cx="1791.959961" cy="1362.959961" r="19.980000" fill="red">
  <title>Cairo</title>
</circle><line x1="1406.959961" y1="1998.959961" x2="1791.959961" y2="1362.959961" stroke="red" stroke-width="6.660000" />
</svg>
