<?xml version="1.0" encoding="UTF-8" standalone="no"?>
<svg width="500" height="500" viewBox="0 0 2074.000000 2074.000000" xmlns="http://www.w3.org/2000/svg">
<rect x="19.000000" y="19.000000" width="2036.000000" height="2036.000000" fill="black" />
<circle cx="249.959991" cy="728.960022" r="19.980000" fill="red">
  <title>Tokyo</title>
</circle><line x1="842.960022" y1="854.960022" x2="249.959991" y2="728.960022" stroke="red" stroke-width="6.660000" />
<circle cx="439.959991" cy="1397.959961" r="19.980000" fill="red">
  <title>São Paulo</title>
</circle><line x1="249.959991" y1="728.960022" x2="439.959991" y2="1397.959961" stroke="red" stroke-width="6.660000" />
<circle cx="277.959991" cy="1477.959961" r="19.980000" fill="red">
  <title>Osaka</title>
</circle><line x1="439.959991" y1="1397.959961" x2="277.959991" y2="1477.959961" stroke="red" stroke-width="6.660000" />
<circle cx="821.960022" cy="1897.959961" r="19.980000" fill="red">
  <title>Beijing</title>
</circle><line x1="277.959991" y1="1477.959961" x2="821.960022" y2="1897.959961" stroke="red" stroke-width="6.660000" />
<circle cx="1180.959961" cy="1870.959961" r="19.980000" fill="red">
  <title>Shanghai</title>
</circle><line x1="821.960022" y1="1897.959961" x2="1180.959961" y2="1870.959961" stroke="red" stroke-width="6.660000" />
<circle cx="1615.959961" cy="1723.959961" r="19.980000" fill="red">
  <title>Dhaka</title>
</circle><line x1="1180.959961" y1="1870.959961" x2="1615.959961" y2="1723.959961" stroke="red" stroke-width="6.660000" />
<circle cx="1788.959961" cy="1804.959961" r="19.980000" fill="red">
  <title>Cairo</title>
</circle><line x1="1615.959961" y1="1723.959961" x2="1788.959961" y2="1804.959961" stroke="red" stroke-width="6.660000" />
<circle cx="1498.959961" cy="1247.959961" r="19.980000" fill="red">
  <title>New York</title>
</circle><line x1="1788.959961" y1="1804.959961" x2="1498.959961" y2="1247.959961" stroke="red" stroke-width="6.660000" />
<circle cx="1762.959961" cy="395.959991" r="19.980000" fill="red">
  <title>Mexico City</title>
</circle><line x1="1498.959961" y1="1247.959961" x2="1762.959961" y2="395.959991" stroke="red" stroke-width="6.660000" />
<circle cx="1163.959961" cy="1188.959961" r="19.980000" fill="red">
  <title>Delhi</title>
</circle><line x1="1762.959961" y1="395.959991" x2="1163.959961" y2="1188.959961" stroke="red" stroke-width="6.660000" />
<circle cx="842.960022" cy="854.960022" r="19.980000" fill="red">
  <title>Mumbai</title>
</circle><line x1="1163.959961" y1="1188.959961" x2="842.960022" y2="854.960022" stroke="red" stroke-width="6.660000" />
</svg>
