<?xml version="1.0" encoding="UTF-8" standalone="no"?>
<svg width="500" height="500" viewBox="0 0 2074.000000 2074.000000" xmlns="http://www.w3.org/2000/svg">
<rect x="19.000000" y="19.000000" width="2036.000000" height="2036.000000" fill="black" />
<circle cx="695.960022" cy="1200.959961" r="19.980000" fill="red">
  <title>Tokyo</title>
</circle><line x1="83.959999" y1="726.960022" x2="695.960022" y2="1200.959961" stroke="red" stroke-width="6.660000" />
<circle cx="734.960022" cy="1417.959961" r="19.980000" fill="red">
  <title>São Paulo</title>
</circle><line x1="695.960022" y1="1200.959961" x2="734.960022" y2="1417.959961" stroke="red" stroke-width="6.660000" />
<circle cx="997.960022" cy="578.960022" r="19.980000" fill="red">
  <title>Mexico City</title>
</circle><line x1="734.960022" y1="1417.959961" x2="997.960022" y2="578.960022" stroke="red" stroke-width="6.660000" />
<circle cx="474.959991" cy="540.960022" r="19.980000" fill="red">
  <title>Shanghai</title>
</circle><line x1="997.960022" y1="578.960022" x2="474.959991" y2="540.960022" stroke="red" stroke-width="6.660000" />
<circle cx="383.959991" cy="488.959991" r="19.980000" fill="red">
  <title>Delhi</title>
</circle><line x1="474.959991" y1="540.960022" x2="383.959991" y2="488.959991" stroke="red" stroke-width="6.660000" />
<circle cx="83.959999" cy="726.960022" r="19.980000" fill="red">
  <title>Cairo</title>
</circle><line x1="383.959991" y1="488.959991" x2="83.959999" y2="726.960022" stroke="red" stroke-width="6.660000" />
</svg>
