<?xml version="1.0" encoding="UTF-8" standalone="no"?>
<svg width="500" height="500" viewBox="0 0 2074.000000 2074.000000" xmlns="http://www.w3.org/2000/svg">
<rect x="19.000000" y="19.000000" width="2036.000000" height="2036.000000" fill="black" />
<circle cx="1000.960022" cy="1655.959961" r="19.980000" fill="red">
  <title>Tokyo</title>
</circle><line x1="1701.959961" y1="887.960022" x2="1000.960022" y2="1655.959961" stroke="red" stroke-width="6.660000" />
<circle cx="1551.959961" cy="1262.959961" r="19.980000" fill="red">
  <title>Delhi</title>
</circle><line x1="1000.960022" y1="1655.959961" x2="1551.959961" y2="1262.959961" stroke="red" stroke-width="6.660000" />
<circle cx="1480.959961" cy="441.959991" r="19.980000" fill="red">
  <title>Mexico City</title>
</circle><line x1="1551.959961" y1="1262.959961" x2="1480.959961" y2="441.959991" stroke="red" stroke-width="6.660000" />
<circle cx="1673.959961" cy="231.959991" r="19.980000" fill="red">
  <title>São Paulo</title>
</circle><line x1="1480.959961" y1="441.959991" x2="1673.959961" y2="231.959991" stroke="red" stroke-width="6.660000" />
<circle cx="1701.959961" cy="887.960022" r="19.980000" fill="red">
  <title>Shanghai</title>
</circle><line x1="1673.959961" y1="231.959991" x2="1701.959961" y2="887.960022" stroke="red" stroke-width="6.660000" />
</svg>
