<?xml version="1.0" encoding="UTF-8" standalone="no"?>
<svg width="500" height="500" viewBox="0 0 2074.000000 2074.000000" xmlns="http://www.w3.org/2000/svg">
<rect x="19.000000" y="19.000000" width="2036.000000" height="2036.000000" fill="black" />
<circle cx="324.959991" cy="1826.959961" r="19.980000" fill="red">
  <title>Tokyo</title>
</circle><line x1="246.959991" y1="2023.959961" x2="324.959991" y2="1826.959961" stroke="red" stroke-width="6.660000" />
<circle cx="156.959991" cy="777.960022" r="19.980000" fill="red">
  <title>Dhaka</title>
</circle><line x1="324.959991" y1="1826.959961" x2="156.959991" y2="777.960022" stroke="red" stroke-width="6.660000" />
<circle cx="674.960022" cy="746.960022" r="19.980000" fill="red">
  <title>Beijing</title>
</circle><line x1="156.959991" y1="777.960022" x2="674.960022" y2="746.960022" stroke="red" stroke-width="6.660000" />
<circle cx="858.960022" cy="1118.959961" r="19.980000" fill="red">
  <title>Shanghai</title>
</circle><line x1="674.960022" y1="746.960022" x2="858.960022" y2="1118.959961" stroke="red" stroke-width="6.660000" />
<circle cx="1063.959961" cy="887.960022" r="19.980000" fill="red">
  <title>Cairo</title>
</circle><line x1="858.960022" y1="1118.959961" x2="1063.959961" y2="887.960022" stroke="red" stroke-width="6.660000" />
<circle cx="1204.959961" cy="751.960022" r="19.980000" fill="red">
  <title>Manila</title>
</circle><line x1="1063.959961" y1="887.960022" x2="1204.959961" y2="751.960022" stroke="red" stroke-width="6.660000" />
<circle cx="1068.959961" cy="353.959991" r="19.980000" fill="red">
  <title>Delhi</title>
</circle><line x1="1204.959961" y1="751.960022" x2="1068.959961" y2="353.959991" stroke="red" stroke-width="6.660000" />
<circle cx="904.960022" cy="217.959991" r="19.980000" fill="red">
  <title>New York</title>
</circle><line x1="1068.959961" y1="353.959991" x2="904.960022" y2="217.959991" stroke="red" stroke-width="6.660000" />
<circle cx="1353.959961" cy="432.959991" r="19.980000" fill="red">
  <title>Karachi</title>
</circle><line x1="904.960022" y1="217.959991" x2="1353.959961" y2="432.959991" stroke="red" stroke-width="6.660000" />
<circle cx="1959.959961" cy="98.959999" r="19.980000" fill="red">
  <title>Mumbai</title>
</circle><line x1="1353.959961" y1="432.959991" x2="1959.959961" y2="98.959999" stroke="red" stroke-width="6.660000" />
<circle cx="1783.959961" cy="621.960022" r="19.980000" fill="red">
  <title>Buenos Aires</title>
</circle><line x1="1959.959961" y1="98.959999" x2="1783.959961" y2="621.960022" stroke="red" stroke-width="6.660000" />
<circle cx="1831.959961" cy="1143.959961" r="19.980000" fill="red">
  <title>Rio de Janeiro</title>
</circle><line x1="1783.959961" y1="621.960022" x2="1831.959961" y2="1143.959961" stroke="red" stroke-width="6.660000" />
<circle cx="1351.959961" cy="1301.959961" r="19.980000" fill="red">
  <title>Osaka</title>
</circle><line x1="1831.959961" y1="1143.959961" x2="1351.959961" y2="1301.959961" stroke="red" stroke-width="6.660000" />
<circle cx="1645.959961" cy="1415.959961" r="19.980000" fill="red">
  <title>Istanbul</title>
</circle><line x1="1351.959961" y1="1301.959961" x2="1645.959961" y2="1415.959961" stroke="red" stroke-width="6.660000" />
<circle cx="1699.959961" cy="1650.959961" r="19.980000" fill="red">
  <title>Mexico City</title>
</circle><line x1="1645.959961" y1="1415.959961" x2="1699.959961" y2="1650.959961" stroke="red" stroke-width="6.660000" />
<circle cx="1964.959961" cy="1872.959961" r="19.980000" fill="red">
  <title>Chongqing</title>
</circle><line x1="1699.959961" y1="1650.959961" x2="1964.959961" y2="1872.959961" stroke="red" stroke-width="6.660000" />
<circle cx="1721.959961" cy="1930.959961" r="19.980000" fill="red">
  <title>Kolkata</title>
</circle><line x1="1964.959961" y1="1872.959961" x2="1721.959961" y2="1930.959961" stroke="red" stroke-width="6.660000" />
<circle cx="936.960022" cy="1834.959961" r="19.980000" fill="red">
  <title>São Paulo</title>
</circle><line x1="1721.959961" y1="1930.959961" x2="936.960022" y2="1834.959961" stroke="red" stroke-width="6.660000" />
<circle cx="246.959991" cy="2023.959961" r="19.980000" fill="red">
  <title>Lagos</title>
</circle><line x1="936.960022" y1="1834.959961" x2="246.959991" y2="2023.959961" stroke="red" stroke-width="6.660000" />
</svg>
