<?xml version="1.0" encoding="UTF-8" standalone="no"?>
<svg width="500" height="500" viewBox="0 0 2074.000000 2074.000000" xmlns="http://www.w3.org/2000/svg">
<rect x="19.000000" y="19.000000" width="2036.000000" height="2036.000000" fill="black" />
<circle cx="1739.959961" cy="1930.959961" r="19.980000" fill="red">
  <title>Tokyo</title>
</circle><line x1="501.959991" y1="1263.959961" x2="1739.959961" y2="1930.959961" stroke="red" stroke-width="6.660000" />
<circle cx="1761.959961" cy="632.960022" r="19.980000" fill="red">
  <title>São Paulo</title>
</circle><line x1="1739.959961" y1="1930.959961" x2="1761.959961" y2="632.960022" stroke="red" stroke-width="6.660000" />
<circle cx="1736.959961" cy="286.959991" r="19.980000" fill="red">
  <title>Mumbai</title>
</circle><line x1="1761.959961" y1="632.960022" x2="1736.959961" y2="286.959991" stroke="red" stroke-width="6.660000" />
<circle cx="1286.959961" cy="421.959991" r="19.980000" fill="red">
  <title>New York</title>
</circle><line x1="1736.959961" y1="286.959991" x2="1286.959961" y2="421.959991" stroke="red" stroke-width="6.660000" />
<circle cx="1240.959961" cy="525.960022" r="19.980000" fill="red">
  <title>Beijing</title>
</circle><line x1="1286.959961" y1="421.959991" x2="1240.959961" y2="525.960022" stroke="red" stroke-width="6.660000" />
<circle cx="923.960022" cy="176.959991" r="19.980000" fill="red">
  <title>Mexico City</title>
</circle><line x1="1240.959961" y1="525.960022" x2="923.960022" y2="176.959991" stroke="red" stroke-width="6.660000" />
<circle cx="587.960022" cy="59.959999" r="19.980000" fill="red">
  <title>Shanghai</title>
</circle><line x1="923.960022" y1="176.959991" x2="587.960022" y2="59.959999" stroke="red" stroke-width="6.660000" />
<circle cx="506.959991" cy="85.959999" r="19.980000" fill="red">
  <title>Osaka</title>
</circle><line x1="587.960022" y1="59.959999" x2="506.959991" y2="85.959999" stroke="red" stroke-width="6.660000" />
<circle cx="243.959991" cy="926.960022" r="19.980000" fill="red">
  <title>Dhaka</title>
</circle><line x1="506.959991" y1="85.959999" x2="243.959991" y2="926.960022" stroke="red" stroke-width="6.660000" />
<circle cx="276.959991" cy="1072.959961" r="19.980000" fill="red">
  <title>Delhi</title>
</circle><line x1="243.959991" y1="926.960022" x2="276.959991" y2="1072.959961" stroke="red" stroke-width="6.660000" />
<circle cx="191.959991" cy="1577.959961" r="19.980000" fill="red">
  <title>Cairo</title>
</circle><line x1="276.959991" y1="1072.959961" x2="191.959991" y2="1577.959961" stroke="red" stroke-width="6.660000" />
<circle cx="501.959991" cy="1263.959961" r="19.980000" fill="red">
  <title>Karachi</title>
</circle><line x1="191.959991" y1="1577.959961" x2="501.959991" y2="1263.959961" stroke="red" stroke-width="6.660000" />
</svg>
