<?xml version="1.0" encoding="UTF-8" standalone="no"?>
<svg width="500" height="500" viewBox="0 0 2074.000000 2074.000000" xmlns="http://www.w3.org/2000/svg">
<rect x="19.000000" y="19.000000" width="2036.000000" height="2036.000000" fill="black" />
<circle cx="57.959999" cy="264.959991" r="19.980000" fill="red">
  <title>Tokyo</title>
</circle><line x1="372.959991" y1="482.959991" x2="57.959999" y2="264.959991" stroke="red" stroke-width="6.660000" />
<circle cx="78.959999" cy="178.959991" r="19.980000" fill="red">
  <title>Cairo</title>
</circle><line x1="57.959999" y1="264.959991" x2="78.959999" y2="178.959991" stroke="red" stroke-width="6.660000" />
<circle cx="692.960022" cy="315.959991" r="19.980000" fill="red">
  <title>Lagos</title>
</circle><line x1="78.959999" y1="178.959991" x2="692.960022" y2="315.959991" stroke="red" stroke-width="6.660000" />
<circle cx="912.960022" cy="309.959991" r="19.980000" fill="red">
  <title>New York</title>
</circle><line x1="692.960022" y1="315.959991" x2="912.960022" y2="309.959991" stroke="red" stroke-width="6.660000" />
<circle cx="975.960022" cy="687.960022" r="19.980000" fill="red">
  <title>Manila</title>
</circle><line x1="912.960022" y1="309.959991" x2="975.960022" y2="687.960022" stroke="red" stroke-width="6.660000" />
<circle cx="930.960022" cy="750.960022" r="19.980000" fill="red">
  <title>Istanbul</title>
</circle><line x1="975.960022" y1="687.960022" x2="930.960022" y2="750.960022" stroke="red" stroke-width="6.660000" />
<circle cx="912.960022" cy="882.960022" r="19.980000" fill="red">
  <title>Dhaka</title>
</circle><line x1="930.960022" y1="750.960022" x2="912.960022" y2="882.960022" stroke="red" stroke-width="6.660000" />
<circle cx="1176.959961" cy="897.960022" r="19.980000" fill="red">
  <title>Buenos Aires</title>
</circle><line x1="912.960022" y1="882.960022" x2="1176.959961" y2="897.960022" stroke="red" stroke-width="6.660000" />
<circle cx="2032.959961" cy="95.959999" r="19.980000" fill="red">
  <title>São Paulo</title>
</circle><line x1="1176.959961" y1="897.960022" x2="2032.959961" y2="95.959999" stroke="red" stroke-width="6.660000" />
<circle cx="1562.959961" cy="949.960022" r="19.980000" fill="red">
  <title>Kolkata</title>
</circle><line x1="2032.959961" y1="95.959999" x2="1562.959961" y2="949.960022" stroke="red" stroke-width="6.660000" />
<circle cx="1903.959961" cy="1618.959961" r="19.980000" fill="red">
  <title>Osaka</title>
</circle><line x1="1562.959961" y1="949.960022" x2="1903.959961" y2="1618.959961" stroke="red" stroke-width="6.660000" />
<circle cx="2024.959961" cy="1734.959961" r="19.980000" fill="red">
  <title>Beijing</title>
</circle><line x1="1903.959961" y1="1618.959961" x2="2024.959961" y2="1734.959961" stroke="red" stroke-width="6.660000" />
<circle cx="1378.959961" cy="1776.959961" r="19.980000" fill="red">
  <title>Shanghai</title>
</circle><line x1="2024.959961" y1="1734.959961" x2="1378.959961" y2="1776.959961" stroke="red" stroke-width="6.660000" />
<circle cx="1257.959961" cy="1569.959961" r="19.980000" fill="red">
  <title>Chongqing</title>
</circle><line x1="1378.959961" y1="1776.959961" x2="1257.959961" y2="1569.959961" stroke="red" stroke-width="6.660000" />
<circle cx="1162.959961" cy="1781.959961" r="19.980000" fill="red">
  <title>Delhi</title>
</circle><line x1="1257.959961" y1="1569.959961" x2="1162.959961" y2="1781.959961" stroke="red" stroke-width="6.660000" />
<circle cx="300.959991" cy="1629.959961" r="19.980000" fill="red">
  <title>Mumbai</title>
</circle><line x1="1162.959961" y1="1781.959961" x2="300.959991" y2="1629.959961" stroke="red" stroke-width="6.660000" />
<circle cx="96.959999" cy="1771.959961" r="19.980000" fill="red">
  <title>Mexico City</title>
</circle><line x1="300.959991" y1="1629.959961" x2="96.959999" y2="1771.959961" stroke="red" stroke-width="6.660000" />
<circle cx="49.959999" cy="840.960022" r="19.980000" fill="red">
  <title>Karachi</title>
</circle><line x1="96.959999" y1="1771.959961" x2="49.959999" y2="840.960022" stroke="red" stroke-width="6.660000" />
<circle cx="425.959991" cy="687.960022" r="19.980000" fill="red">
  <title>Rio de Janeiro</title>
</circle><line x1="49.959999" y1="840.960022" x2="425.959991" y2="687.960022" stroke="red" stroke-width="6.660000" />
<circle cx="372.959991" cy="482.959991" r="19.980000" fill="red">
  <title>Tianjin</title>
</circle><line x1="425.959991" y1="687.960022" x2="372.959991" y2="482.959991" stroke="red" stroke-width="6.660000" />
</svg>
