<?xml version="1.0" encoding="UTF-8" standalone="no"?>
<svg width="500" height="500" viewBox="0 0 2074.000000 2074.000000" xmlns="http://www.w3.org/2000/svg">
<rect x="19.000000" y="19.000000" width="2036.000000" height="2036.000000" fill="black" />
<circle cx="1813.959961" cy="718.960022" r="19.980000" fill="red">
  <title>Tokyo</title>
</circle><line x1="430.959991" y1="524.960022" x2="1813.959961" y2="718.960022" stroke="red" stroke-width="6.660000" />
<circle cx="1647.959961" cy="935.960022" r="19.980000" fill="red">
  <title>Delhi</title>
</circle><line x1="1813.959961" y1="718.960022" x2="1647.959961" y2="935.960022" stroke="red" stroke-width="6.660000" />
<circle cx="430.959991" cy="524.960022" r="19.980000" fill="red">
  <title>Shanghai</title>
</circle><line x1="1647.959961" y1="935.960022" x2="430.959991" y2="524.960022" stroke="red" stroke-width="6.660000" />
</svg>
