<?xml version="1.0" encoding="UTF-8" standalone="no"?>
<svg width="500" height="500" viewBox="0 0 2074.000000 2074.000000" xmlns="http://www.w3.org/2000/svg">
<rect x="19.000000" y="19.000000" width="2036.000000" height="2036.000000" fill="black" />
<circle cx="691.960022" cy="1767.959961" r="19.980000" fill="red">
  <title>Tokyo</title>
</circle><line x1="788.960022" y1="2022.959961" x2="691.960022" y2="1767.959961" stroke="red" stroke-width="6.660000" />
<circle cx="681.960022" cy="1351.959961" r="19.980000" fill="red">
  <title>Mumbai</title>
</circle><line x1="691.960022" y1="1767.959961" x2="681.960022" y2="1351.959961" stroke="red" stroke-width="6.660000" />
<circle cx="868.960022" cy="1059.959961" r="19.980000" fill="red">
  <title>Istanbul</title>
</circle><line x1="681.960022" y1="1351.959961" x2="868.960022" y2="1059.959961" stroke="red" stroke-width="6.660000" />
<circle cx="889.960022" cy="1332.959961" r="19.980000" fill="red">
  <title>Cairo</title>
</circle><line x1="868.960022" y1="1059.959961" x2="889.960022" y2="1332.959961" stroke="red" stroke-width="6.660000" />
<circle cx="1129.959961" cy="1506.959961" r="19.980000" fill="red">
  <title>New York</title>
</circle><line x1="889.960022" y1="1332.959961" x2="1129.959961" y2="1506.959961" stroke="red" stroke-width="6.660000" />
<circle cx="1762.959961" cy="1791.959961" r="19.980000" fill="red">
  <title>São Paulo</title>
</circle><line x1="1129.959961" y1="1506.959961" x2="1762.959961" y2="1791.959961" stroke="red" stroke-width="6.660000" />
<circle cx="1198.959961" cy="1384.959961" r="19.980000" fill="red">
  <title>Mexico City</title>
</circle><line x1="1762.959961" y1="1791.959961" x2="1198.959961" y2="1384.959961" stroke="red" stroke-width="6.660000" />
<circle cx="1705.959961" cy="701.960022" r="19.980000" fill="red">
  <title>Delhi</title>
</circle><line x1="1198.959961" y1="1384.959961" x2="1705.959961" y2="701.960022" stroke="red" stroke-width="6.660000" />
<circle cx="1690.959961" cy="442.959991" r="19.980000" fill="red">
  <title>Shanghai</title>
</circle><line x1="1705.959961" y1="701.960022" x2="1690.959961" y2="442.959991" stroke="red" stroke-width="6.660000" />
<circle cx="1436.959961" cy="178.959991" r="19.980000" fill="red">
  <title>Buenos Aires</title>
</circle><line x1="1690.959961" y1="442.959991" x2="1436.959961" y2="178.959991" stroke="red" stroke-width="6.660000" />
<circle cx="791.960022" cy="533.960022" r="19.980000" fill="red">
  <title>Beijing</title>
</circle><line x1="1436.959961" y1="178.959991" x2="791.960022" y2="533.960022" stroke="red" stroke-width="6.660000" />
<circle cx="755.960022" cy="556.960022" r="19.980000" fill="red">
  <title>Chongqing</title>
</circle><line x1="791.960022" y1="533.960022" x2="755.960022" y2="556.960022" stroke="red" stroke-width="6.660000" />
<circle cx="185.959991" cy="441.959991" r="19.980000" fill="red">
  <title>Lagos</title>
</circle><line x1="755.960022" y1="556.960022" x2="185.959991" y2="441.959991" stroke="red" stroke-width="6.660000" />
<circle cx="62.959999" cy="1288.959961" r="19.980000" fill="red">
  <title>Karachi</title>
</circle><line x1="185.959991" y1="441.959991" x2="62.959999" y2="1288.959961" stroke="red" stroke-width="6.660000" />
<circle cx="356.959991" cy="1521.959961" r="19.980000" fill="red">
  <title>Kolkata</title>
</circle><line x1="62.959999" y1="1288.959961" x2="356.959991" y2="1521.959961" stroke="red" stroke-width="6.660000" />
<circle cx="476.959991" cy="1743.959961" r="19.980000" fill="red">
  <title>Osaka</title>
</circle><line x1="356.959991" y1="1521.959961" x2="476.959991" y2="1743.959961" stroke="red" stroke-width="6.660000" />
<circle cx="426.959991" cy="1908.959961" r="19.980000" fill="red">
  <title>Rio de Janeiro</title>
</circle><line x1="476.959991" y1="1743.959961" x2="426.959991" y2="1908.959961" stroke="red" stroke-width="6.660000" />
<circle cx="517.960022" cy="1892.959961" r="19.980000" fill="red">
  <title>Dhaka</title>
</circle><line x1="426.959991" y1="1908.959961" x2="517.960022" y2="1892.959961" stroke="red" stroke-width="6.660000" />
<circle cx="788.960022" cy="2022.959961" r="19.980000" fill="red">
  <title>Manila</title>
</circle><line x1="517.960022" y1="1892.959961" x2="788.960022" y2="2022.959961" stroke="red" stroke-width="6.660000" />
</svg>
