<?xml version="1.0" encoding="UTF-8" standalone="no"?>
<svg width="500" height="500" viewBox="0 0 2074.000000 2074.000000" xmlns="http://www.w3.org/2000/svg">
<rect x="19.000000" y="19.000000" width="2036.000000" height="2036.000000" fill="black" />
<circle cx="885.960022" cy="197.959991" r="19.980000" fill="red">
  <title>Tokyo</title>
</circle><line x1="373.959991" y1="148.959991" x2="885.960022" y2="197.959991" stroke="red" stroke-width="6.660000" />
<circle cx="805.960022" cy="1029.959961" r="19.980000" fill="red">
  <title>Mexico City</title>
</circle><line x1="885.960022" y1="197.959991" x2="805.960022" y2="1029.959961" stroke="red" stroke-width="6.660000" />
<circle cx="1558.959961" cy="1446.959961" r="19.980000" fill="red">
  <title>Dhaka</title>
</circle><line x1="805.960022" y1="1029.959961" x2="1558.959961" y2="1446.959961" stroke="red" stroke-width="6.660000" />
<circle cx="1905.959961" cy="1635.959961" r="19.980000" fill="red">
  <title>Shanghai</title>
</circle><line x1="1558.959961" y1="1446.959961" x2="1905.959961" y2="1635.959961" stroke="red" stroke-width="6.660000" />
<circle cx="1198.959961" cy="1429.959961" r="19.980000" fill="red">
  <title>Delhi</title>
</circle><line x1="1905.959961" y1="1635.959961" x2="1198.959961" y2="1429.959961" stroke="red" stroke-width="6.660000" />
<circle cx="682.960022" cy="1834.959961" r="19.980000" fill="red">
  <title>Mumbai</title>
</circle><line x1="1198.959961" y1="1429.959961" x2="682.960022" y2="1834.959961" stroke="red" stroke-width="6.660000" />
<circle cx="314.959991" cy="1959.959961" r="19.980000" fill="red">
  <title>Beijing</title>
</circle><line x1="682.960022" y1="1834.959961" x2="314.959991" y2="1959.959961" stroke="red" stroke-width="6.660000" />
<circle cx="750.960022" cy="1268.959961" r="19.980000" fill="red">
  <title>São Paulo</title>
</circle><line x1="314.959991" y1="1959.959961" x2="750.960022" y2="1268.959961" stroke="red" stroke-width="6.660000" />
<circle cx="373.959991" cy="148.959991" r="19.980000" fill="red">
  <title>Cairo</title>
</circle><line x1="750.960022" y1="1268.959961" x2="373.959991" y2="148.959991" stroke="red" stroke-width="6.660000" />
</svg>
