<?xml version="1.0" encoding="UTF-8" standalone="no"?>
<svg width="500" height="500" viewBox="0 0 2074.000000 2074.000000" xmlns="http://www.w3.org/2000/svg">
<rect x="19.000000" y="19.000000" width="2036.000000" height="2036.000000" fill="black" />
<circle cx="594.960022" cy="862.960022" r="19.980000" fill="red">
  <title>Tokyo</title>
</circle><line x1="463.959991" y1="1395.959961" x2="594.960022" y2="862.960022" stroke="red" stroke-width="6.660000" />
<circle cx="507.959991" cy="721.960022" r="19.980000" fill="red">
  <title>Buenos Aires</title>
</circle><line x1="594.960022" y1="862.960022" x2="507.959991" y2="721.960022" stroke="red" stroke-width="6.660000" />
<circle cx="747.960022" cy="257.959991" r="19.980000" fill="red">
  <title>Delhi</title>
</circle><line x1="507.959991" y1="721.960022" x2="747.960022" y2="257.959991" stroke="red" stroke-width="6.660000" />
<circle cx="893.960022" cy="341.959991" r="19.980000" fill="red">
  <title>Beijing</title>
</circle><line x1="747.960022" y1="257.959991" x2="893.960022" y2="341.959991" stroke="red" stroke-width="6.660000" />
<circle cx="921.960022" cy="919.960022" r="19.980000" fill="red">
  <title>Karachi</title>
</circle><line x1="893.960022" y1="341.959991" x2="921.960022" y2="919.960022" stroke="red" stroke-width="6.660000" />
<circle cx="1719.959961" cy="1030.959961" r="19.980000" fill="red">
  <title>Osaka</title>
</circle><line x1="921.960022" y1="919.960022" x2="1719.959961" y2="1030.959961" stroke="red" stroke-width="6.660000" />
<circle cx="1940.959961" cy="1138.959961" r="19.980000" fill="red">
  <title>Mexico City</title>
</circle><line x1="1719.959961" y1="1030.959961" x2="1940.959961" y2="1138.959961" stroke="red" stroke-width="6.660000" />
<circle cx="1017.960022" cy="1429.959961" r="19.980000" fill="red">
  <title>São Paulo</title>
</circle><line x1="1940.959961" y1="1138.959961" x2="1017.960022" y2="1429.959961" stroke="red" stroke-width="6.660000" />
<circle cx="734.960022" cy="1498.959961" r="19.980000" fill="red">
  <title>Mumbai</title>
</circle><line x1="1017.960022" y1="1429.959961" x2="734.960022" y2="1498.959961" stroke="red" stroke-width="6.660000" />
<circle cx="794.960022" cy="1794.959961" r="19.980000" fill="red">
  <title>Cairo</title>
</circle><line x1="734.960022" y1="1498.959961" x2="794.960022" y2="1794.959961" stroke="red" stroke-width="6.660000" />
<circle cx="816.960022" cy="1963.959961" r="19.980000" fill="red">
  <title>Dhaka</title>
</circle><line x1="794.960022" y1="1794.959961" x2="816.960022" y2="1963.959961" stroke="red" stroke-width="6.660000" />
<circle cx="554.960022" cy="1610.959961" r="19.980000" fill="red">
  <title>New York</title>
</circle><line x1="816.960022" y1="1963.959961" x2="554.960022" y2="1610.959961" stroke="red" stroke-width="6.660000" />
<circle cx="463.959991" cy="1395.959961" r="19.980000" fill="red">
  <title>Shanghai</title>
</circle><line x1="554.960022" y1="1610.959961" x2="463.959991" y2="1395.959961" stroke="red" stroke-width="6.660000" />
</svg>
