<?xml version="1.0" encoding="UTF-8" standalone="no"?>
<svg width="500" height="500" viewBox="0 0 2074.000000 2074.000000" xmlns="http://www.w3.org/2000/svg">
<rect x="19.000000" y="19.000000" width="2036.000000" height="2036.000000" fill="black" />
<circle cx="693.960022" cy="482.959991" r="19.980000" fill="red">
  <title>Tokyo</title>
</circle><line x1="777.960022" y1="986.960022" x2="693.960022" y2="482.959991" stroke="red" stroke-width="6.660000" />
<circle cx="683.960022" cy="523.960022" r="19.980000" fill="red">
  <title>Shanghai</title>
</circle><line x1="693.960022" y1="482.959991" x2="683.960022" y2="523.960022" stroke="red" stroke-width="6.660000" />
<circle cx="203.959991" cy="909.960022" r="19.980000" fill="red">
  <title>São Paulo</title>
</circle><line x1="683.960022" y1="523.960022" x2="203.959991" y2="909.960022" stroke="red" stroke-width="6.660000" />
<circle cx="743.960022" cy="1522.959961" r="19.980000" fill="red">
  <title>Cairo</title>
</circle><line x1="203.959991" y1="909.960022" x2="743.960022" y2="1522.959961" stroke="red" stroke-width="6.660000" />
<circle cx="811.960022" cy="1993.959961" r="19.980000" fill="red">
  <title>Delhi</title>
</circle><line x1="743.960022" y1="1522.959961" x2="811.960022" y2="1993.959961" stroke="red" stroke-width="6.660000" />
<circle cx="1405.959961" cy="1311.959961" r="19.980000" fill="red">
  <title>Mexico City</title>
</circle><line x1="811.960022" y1="1993.959961" x2="1405.959961" y2="1311.959961" stroke="red" stroke-width="6.660000" />
<circle cx="777.960022" cy="986.960022" r="19.980000" fill="red">
  <title>Mumbai</title>
</circle><line x1="1405.959961" y1="1311.959961" x2="777.960022" y2="986.960022" stroke="red" stroke-width="6.660000" />
</svg>
