<?xml version="1.0" encoding="UTF-8" standalone="no"?>
<svg width="500" height="500" viewBox="0 0 2074.000000 2074.000000" xmlns="http://www.w3.org/2000/svg">
<rect x="19.000000" y="19.000000" width="2036.000000" height="2036.000000" fill="black" />
<circle cx="1210.959961" cy="217.959991" r="19.980000" fill="red">
  <title>Tokyo</title>
</circle><line x1="1823.959961" y1="477.959991" x2="1210.959961" y2="217.959991" stroke="red" stroke-width="6.660000" />
<circle cx="591.960022" cy="249.959991" r="19.980000" fill="red">
  <title>Chongqing</title>
</circle><line x1="1210.959961" y1="217.959991" x2="591.960022" y2="249.959991" stroke="red" stroke-width="6.660000" />
<circle cx="476.959991" cy="243.959991" r="19.980000" fill="red">
  <title>Dhaka</title>
</circle><line x1="591.960022" y1="249.959991" x2="476.959991" y2="243.959991" stroke="red" stroke-width="6.660000" />
<circle cx="465.959991" cy="589.960022" r="19.980000" fill="red">
  <title>Shanghai</title>
</circle><line x1="476.959991" y1="243.959991" x2="465.959991" y2="589.960022" stroke="red" stroke-width="6.660000" />
<circle cx="162.959991" cy="836.960022" r="19.980000" fill="red">
  <title>Mumbai</title>
</circle><line x1="465.959991" y1="589.960022" x2="162.959991" y2="836.960022" stroke="red" stroke-width="6.660000" />
<circle cx="309.959991" cy="1009.960022" r="19.980000" fill="red">
  <title>Cairo</title>
</circle><line x1="162.959991" y1="836.960022" x2="309.959991" y2="1009.960022" stroke="red" stroke-width="6.660000" />
<circle cx="327.959991" cy="1752.959961" r="19.980000" fill="red">
  <title>Buenos Aires</title>
</circle><line x1="309.959991" y1="1009.960022" x2="327.959991" y2="1752.959961" stroke="red" stroke-width="6.660000" />
<circle cx="929.960022" cy="1396.959961" r="19.980000" fill="red">
  <title>New York</title>
</circle><line x1="327.959991" y1="1752.959961" x2="929.960022" y2="1396.959961" stroke="red" stroke-width="6.660000" />
<circle cx="1273.959961" cy="1830.959961" r="19.980000" fill="red">
  <title>Mexico City</title>
</circle><line x1="929.960022" y1="1396.959961" x2="1273.959961" y2="1830.959961" stroke="red" stroke-width="6.660000" />
<circle cx="1351.959961" cy="1971.959961" r="19.980000" fill="red">
  <title>Delhi</title>
</circle><line x1="1273.959961" y1="1830.959961" x2="1351.959961" y2="1971.959961" stroke="red" stroke-width="6.660000" />
<circle cx="1414.959961" cy="1778.959961" r="19.980000" fill="red">
  <title>Osaka</title>
</circle><line x1="1351.959961" y1="1971.959961" x2="1414.959961" y2="1778.959961" stroke="red" stroke-width="6.660000" />
<circle cx="1183.959961" cy="1221.959961" r="19.980000" fill="red">
  <title>São Paulo</title>
</circle><line x1="1414.959961" y1="1778.959961" x2="1183.959961" y2="1221.959961" stroke="red" stroke-width="6.660000" />
<circle cx="959.960022" cy="1136.959961" r="19.980000" fill="red">
  <title>Manila</title>
</circle><line x1="1183.959961" y1="1221.959961" x2="959.960022" y2="1136.959961" stroke="red" stroke-width="6.660000" />
<circle cx="1412.959961" cy="1045.959961" r="19.980000" fill="red">
  <title>Beijing</title>
</circle><line x1="959.960022" y1="1136.959961" x2="1412.959961" y2="1045.959961" stroke="red" stroke-width="6.660000" />
<circle cx="1305.959961" cy="780.960022" r="19.980000" fill="red">
  <title>Istanbul</title>
</circle><line x1="1412.959961" y1="1045.959961" x2="1305.959961" y2="780.960022" stroke="red" stroke-width="6.660000" />
<circle cx="1749.959961" cy="708.960022" r="19.980000" fill="red">
  <title>Karachi</title>
</circle><line x1="1305.959961" y1="780.960022" x2="1749.959961" y2="708.960022" stroke="red" stroke-width="6.660000" />
<circle cx="1823.959961" cy="477.959991" r="19.980000" fill="red">
  <title>Kolkata</title>
</circle><line x1="1749.959961" y1="708.960022" x2="1823.959961" y2="477.959991" stroke="red" stroke-width="6.660000" />
</svg>
