<?xml version="1.0" encoding="UTF-8" standalone="no"?>
<svg width="500" height="500" viewBox="0 0 2074.000000 2074.000000" xmlns="http://www.w3.org/2000/svg">
<rect x="19.000000" y="19.000000" width="2036.000000" height="2036.000000" fill="black" />
<circle cx="680.960022" cy="730.960022" r="19.980000" fill="red">
  <title>Tokyo</title>
</circle><line x1="615.960022" y1="613.960022" x2="680.960022" y2="730.960022" stroke="red" stroke-width="6.660000" />
<circle cx="390.959991" cy="1067.959961" r="19.980000" fill="red">
  <title>Delhi</title>
</circle><line x1="680.960022" y1="730.960022" x2="390.959991" y2="1067.959961" stroke="red" stroke-width="6.660000" />
<circle cx="210.959991" cy="1311.959961" r="19.980000" fill="red">
  <title>Cairo</title>
</circle><line x1="390.959991" y1="1067.959961" x2="210.959991" y2="1311.959961" stroke="red" stroke-width="6.660000" />
<circle cx="407.959991" cy="1899.959961" r="19.980000" fill="red">
  <title>Kolkata</title>
</circle><line x1="210.959991" y1="1311.959961" x2="407.959991" y2="1899.959961" stroke="red" stroke-width="6.660000" />
<circle cx="422.959991" cy="2031.959961" r="19.980000" fill="red">
  <title>Rio de Janeiro</title>
</circle><line x1="407.959991" y1="1899.959961" x2="422.959991" y2="2031.959961" stroke="red" stroke-width="6.660000" />
<circle cx="409.959991" cy="1442.959961" r="19.980000" fill="red">
  <title>Mexico City</title>
</circle><line x1="422.959991" y1="2031.959961" x2="409.959991" y2="1442.959961" stroke="red" stroke-width="6.660000" />
<circle cx="928.960022" cy="1285.959961" r="19.980000" fill="red">
  <title>Lagos</title>
</circle><line x1="409.959991" y1="1442.959961" x2="928.960022" y2="1285.959961" stroke="red" stroke-width="6.660000" />
<circle cx="1030.959961" cy="1463.959961" r="19.980000" fill="red">
  <title>New York</title>
</circle><line x1="928.960022" y1="1285.959961" x2="1030.959961" y2="1463.959961" stroke="red" stroke-width="6.660000" />
<circle cx="1318.959961" cy="1874.959961" r="19.980000" fill="red">
  <title>Mumbai</title>
</circle><line x1="1030.959961" y1="1463.959961" x2="1318.959961" y2="1874.959961" stroke="red" stroke-width="6.660000" />
<circle cx="1886.959961" cy="1701.959961" r="19.980000" fill="red">
  <title>Shanghai</title>
</circle><line x1="1318.959961" y1="1874.959961" x2="1886.959961" y2="1701.959961" stroke="red" stroke-width="6.660000" />
<circle cx="2036.959961" cy="1332.959961" r="19.980000" fill="red">
  <title>Dhaka</title>
</circle><line x1="1886.959961" y1="1701.959961" x2="2036.959961" y2="1332.959961" stroke="red" stroke-width="6.660000" />
<circle cx="1436.959961" cy="758.960022" r="19.980000" fill="red">
  <title>Manila</title>
</circle><line x1="2036.959961" y1="1332.959961" x2="1436.959961" y2="758.960022" stroke="red" stroke-width="6.660000" />
<circle cx="1257.959961" cy="745.960022" r="19.980000" fill="red">
  <title>Istanbul</title>
</circle><line x1="1436.959961" y1="758.960022" x2="1257.959961" y2="745.960022" stroke="red" stroke-width="6.660000" />
<circle cx="1645.959961" cy="591.960022" r="19.980000" fill="red">
  <title>Karachi</title>
</circle><line x1="1257.959961" y1="745.960022" x2="1645.959961" y2="591.960022" stroke="red" stroke-width="6.660000" />
<circle cx="1689.959961" cy="447.959991" r="19.980000" fill="red">
  <title>Buenos Aires</title>
</circle><line x1="1645.959961" y1="591.960022" x2="1689.959961" y2="447.959991" stroke="red" stroke-width="6.660000" />
<circle cx="1477.959961" cy="198.959991" r="19.980000" fill="red">
  <title>Osaka</title>
</circle><line x1="1689.959961" y1="447.959991" x2="1477.959961" y2="198.959991" stroke="red" stroke-width="6.660000" />
<circle cx="1141.959961" cy="114.959999" r="19.980000" fill="red">
  <title>São Paulo</title>
</circle><line x1="1477.959961" y1="198.959991" x2="1141.959961" y2="114.959999" stroke="red" stroke-width="6.660000" />
<circle cx="445.959991" cy="398.959991" r="19.980000" fill="red">
  <title>Beijing</title>
</circle><line x1="1141.959961" y1="114.959999" x2="445.959991" y2="398.959991" stroke="red" stroke-width="6.660000" />
<circle cx="615.960022" cy="613.960022" r="19.980000" fill="red">
  <title>Chongqing</title>
</circle><line x1="445.959991" y1="398.959991" x2="615.960022" y2="613.960022" stroke="red" stroke-width="6.660000" />
</svg>
