<?xml version="1.0" encoding="UTF-8" standalone="no"?>
<svg width="500" height="500" viewBox="0 0 2074.000000 2074.000000" xmlns="http://www.w3.org/2000/svg">
<rect x="19.000000" y="19.000000" width="2036.000000" height="2036.000000" fill="black" />
<circle cx="452.959991" cy="1043.959961" r="19.980000" fill="red">
  <title>Tokyo</title>
</circle><line x1="313.959991" y1="1202.959961" x2="452.959991" y2="1043.959961" stroke="red" stroke-width="6.660000" />
<circle cx="296.959991" cy="207.959991" r="19.980000" fill="red">
  <title>Beijing</title>
</circle><line x1="452.959991" y1="1043.959961" x2="296.959991" y2="207.959991" stroke="red" stroke-width="6.660000" />
<circle cx="937.960022" cy="1037.959961" r="19.980000" fill="red">
  <title>São Paulo</title>
</circle><line x1="296.959991" y1="207.959991" x2="937.960022" y2="1037.959961" stroke="red" stroke-width="6.660000" />
<circle cx="987.960022" cy="1119.959961" r="19.980000" fill="red">
  <title>Cairo</title>
</circle><line x1="937.960022" y1="1037.959961" x2="987.960022" y2="1119.959961" stroke="red" stroke-width="6.660000" />
<circle cx="1610.959961" cy="697.960022" r="19.980000" fill="red">
  <title>New York</title>
</circle><line x1="987.960022" y1="1119.959961" x2="1610.959961" y2="697.960022" stroke="red" stroke-width="6.660000" />
<circle cx="1187.959961" cy="1369.959961" r="19.980000" fill="red">
  <title>Karachi</title>
</circle><line x1="1610.959961" y1="697.960022" x2="1187.959961" y2="1369.959961" stroke="red" stroke-width="6.660000" />
<circle cx="1171.959961" cy="1543.959961" r="19.980000" fill="red">
  <title>Delhi</title>
</circle><line x1="1187.959961" y1="1369.959961" x2="1171.959961" y2="1543.959961" stroke="red" stroke-width="6.660000" />
<circle cx="1915.959961" cy="1862.959961" r="19.980000" fill="red">
  <title>Mumbai</title>
</circle><line x1="1171.959961" y1="1543.959961" x2="1915.959961" y2="1862.959961" stroke="red" stroke-width="6.660000" />
<circle cx="1075.959961" cy="1760.959961" r="19.980000" fill="red">
  <title>Shanghai</title>
</circle><line x1="1915.959961" y1="1862.959961" x2="1075.959961" y2="1760.959961" stroke="red" stroke-width="6.660000" />
<circle cx="843.960022" cy="2026.959961" r="19.980000" fill="red">
  <title>Mexico City</title>
</circle><line x1="1075.959961" y1="1760.959961" x2="843.960022" y2="2026.959961" stroke="red" stroke-width="6.660000" />
<circle cx="539.960022" cy="1881.959961" r="19.980000" fill="red">
  <title>Dhaka</title>
</circle><line x1="843.960022" y1="2026.959961" x2="539.960022" y2="1881.959961" stroke="red" stroke-width="6.660000" />
<circle cx="313.959991" cy="1202.959961" r="19.980000" fill="red">
  <title>Osaka</title>
</circle><line x1="539.960022" y1="1881.959961" x2="313.959991" y2="1202.959961" stroke="red" stroke-width="6.660000" />
</svg>
