<?xml version="1.0" encoding="UTF-8" standalone="no"?>
<svg width="500" height="500" viewBox="0 0 2074.000000 2074.000000" xmlns="http://www.w3.org/2000/svg">
<rect x="19.000000" y="19.000000" width="2036.000000" height="2036.000000" fill="black" />
<circle cx="1761.959961" cy="915.960022" r="19.980000" fill="red">
  <title>Tokyo</title>
</circle><line x1="1618.959961" y1="1353.959961" x2="1761.959961" y2="915.960022" stroke="red" stroke-width="6.660000" />
<circle cx="1412.959961" cy="1058.959961" r="19.980000" fill="red">
  <title>Karachi</title>
</circle><line x1="1761.959961" y1="915.960022" x2="1412.959961" y2="1058.959961" stroke="red" stroke-width="6.660000" />
<circle cx="1201.959961" cy="1015.960022" r="19.980000" fill="red">
  <title>New York</title>
</circle><line x1="1412.959961" y1="1058.959961" x2="1201.959961" y2="1015.960022" stroke="red" stroke-width="6.660000" />
<circle cx="1381.959961" cy="691.960022" r="19.980000" fill="red">
  <title>Buenos Aires</title>
</circle><line x1="1201.959961" y1="1015.960022" x2="1381.959961" y2="691.960022" stroke="red" stroke-width="6.660000" />
<circle cx="1192.959961" cy="512.960022" r="19.980000" fill="red">
  <title>São Paulo</title>
</circle><line x1="1381.959961" y1="691.960022" x2="1192.959961" y2="512.960022" stroke="red" stroke-width="6.660000" />
<circle cx="248.959991" cy="571.960022" r="19.980000" fill="red">
  <title>Osaka</title>
</circle><line x1="1192.959961" y1="512.960022" x2="248.959991" y2="571.960022" stroke="red" stroke-width="6.660000" />
<circle cx="195.959991" cy="281.959991" r="19.980000" fill="red">
  <title>Mexico City</title>
</circle><line x1="248.959991" y1="571.960022" x2="195.959991" y2="281.959991" stroke="red" stroke-width="6.660000" />
<circle cx="200.959991" cy="518.960022" r="19.980000" fill="red">
  <title>Delhi</title>
</circle><line x1="195.959991" y1="281.959991" x2="200.959991" y2="518.960022" stroke="red" stroke-width="6.660000" />
<circle cx="326.959991" cy="990.960022" r="19.980000" fill="red">
  <title>Shanghai</title>
</circle><line x1="200.959991" y1="518.960022" x2="326.959991" y2="990.960022" stroke="red" stroke-width="6.660000" />
<circle cx="351.959991" cy="1783.959961" r="19.980000" fill="red">
  <title>Beijing</title>
</circle><line x1="326.959991" y1="990.960022" x2="351.959991" y2="1783.959961" stroke="red" stroke-width="6.660000" />
<circle cx="452.959991" cy="1967.959961" r="19.980000" fill="red">
  <title>Mumbai</title>
</circle><line x1="351.959991" y1="1783.959961" x2="452.959991" y2="1967.959961" stroke="red" stroke-width="6.660000" />
<circle cx="1229.959961" cy="1576.959961" r="19.980000" fill="red">
  <title>Cairo</title>
</circle><line x1="452.959991" y1="1967.959961" x2="1229.959961" y2="1576.959961" stroke="red" stroke-width="6.660000" />
<circle cx="1544.959961" cy="1317.959961" r="19.980000" fill="red">
  <title>Dhaka</title>
</circle><line x1="1229.959961" y1="1576.959961" x2="1544.959961" y2="1317.959961" stroke="red" stroke-width="6.660000" />
<circle cx="1618.959961" cy="1353.959961" r="19.980000" fill="red">
  <title>Chongqing</title>
</circle><line x1="1544.959961" y1="1317.959961" x2="1618.959961" y2="1353.959961" stroke="red" stroke-width="6.660000" />
</svg>
