<?xml version="1.0" encoding="UTF-8" standalone="no"?>
<svg width="500" height="500" viewBox="0 0 2074.000000 2074.000000" xmlns="http://www.w3.org/2000/svg">
<rect x="19.000000" y="19.000000" width="2036.000000" height="2036.000000" fill="black" />
<circle cx="1248.959961" cy="1289.959961" r="19.980000" fill="red">
  <title>Tokyo</title>
</circle><line x1="867.960022" y1="967.960022" x2="1248.959961" y2="1289.959961" stroke="red" stroke-width="6.660000" />
<circle cx="1399.959961" cy="1219.959961" r="19.980000" fill="red">
  <title>Mumbai</title>
</circle><line x1="1248.959961" y1="1289.959961" x2="1399.959961" y2="1219.959961" stroke="red" stroke-width="6.660000" />
<circle cx="2000.959961" cy="1508.959961" r="19.980000" fill="red">
  <title>Mexico City</title>
</circle><line x1="1399.959961" y1="1219.959961" x2="2000.959961" y2="1508.959961" stroke="red" stroke-width="6.660000" />
<circle cx="2026.959961" cy="1865.959961" r="19.980000" fill="red">
  <title>Shanghai</title>
</circle><line x1="2000.959961" y1="1508.959961" x2="2026.959961" y2="1865.959961" stroke="red" stroke-width="6.660000" />
<circle cx="1900.959961" cy="1733.959961" r="19.980000" fill="red">
  <title>Cairo</title>
</circle><line x1="2026.959961" y1="1865.959961" x2="1900.959961" y2="1733.959961" stroke="red" stroke-width="6.660000" />
<circle cx="1669.959961" cy="1461.959961" r="19.980000" fill="red">
  <title>Buenos Aires</title>
</circle><line x1="1900.959961" y1="1733.959961" x2="1669.959961" y2="1461.959961" stroke="red" stroke-width="6.660000" />
<circle cx="1376.959961" cy="1195.959961" r="19.980000" fill="red">
  <title>Lagos</title>
</circle><line x1="1669.959961" y1="1461.959961" x2="1376.959961" y2="1195.959961" stroke="red" stroke-width="6.660000" />
<circle cx="1206.959961" cy="952.960022" r="19.980000" fill="red">
  <title>Manila</title>
</circle><line x1="1376.959961" y1="1195.959961" x2="1206.959961" y2="952.960022" stroke="red" stroke-width="6.660000" />
<circle cx="1251.959961" cy="859.960022" r="19.980000" fill="red">
  <title>Osaka</title>
</circle><line x1="1206.959961" y1="952.960022" x2="1251.959961" y2="859.960022" stroke="red" stroke-width="6.660000" />
<circle cx="1494.959961" cy="742.960022" r="19.980000" fill="red">
  <title>Tianjin</title>
</circle><line x1="1251.959961" y1="859.960022" x2="1494.959961" y2="742.960022" stroke="red" stroke-width="6.660000" />
<circle cx="1623.959961" cy="197.959991" r="19.980000" fill="red">
  <title>Karachi</title>
</circle><line x1="1494.959961" y1="742.960022" x2="1623.959961" y2="197.959991" stroke="red" stroke-width="6.660000" />
<circle cx="902.960022" cy="338.959991" r="19.980000" fill="red">
  <title>São Paulo</title>
</circle><line x1="1623.959961" y1="197.959991" x2="902.960022" y2="338.959991" stroke="red" stroke-width="6.660000" />
<circle cx="780.960022" cy="241.959991" r="19.980000" fill="red">
  <title>Rio de Janeiro</title>
</circle><line x1="902.960022" y1="338.959991" x2="780.960022" y2="241.959991" stroke="red" stroke-width="6.660000" />
<circle cx="706.960022" cy="120.959999" r="19.980000" fill="red">
  <title>Delhi</title>
</circle><line x1="780.960022" y1="241.959991" x2="706.960022" y2="120.959999" stroke="red" stroke-width="6.660000" />
<circle cx="173.959991" cy="324.959991" r="19.980000" fill="red">
  <title>Chongqing</title>
</circle><line x1="706.960022" y1="120.959999" x2="173.959991" y2="324.959991" stroke="red" stroke-width="6.660000" />
<circle cx="103.959999" cy="1005.960022" r="19.980000" fill="red">
  <title>New York</title>
</circle><line x1="173.959991" y1="324.959991" x2="103.959999" y2="1005.960022" stroke="red" stroke-width="6.660000" />
<circle cx="85.959999" cy="1954.959961" r="19.980000" fill="red">
  <title>Istanbul</title>
</circle><line x1="103.959999" y1="1005.960022" x2="85.959999" y2="1954.959961" stroke="red" stroke-width="6.660000" />
<circle cx="285.959991" cy="1295.959961" r="19.980000" fill="red">
  <title>Kolkata</title>
</circle><line x1="85.959999" y1="1954.959961" x2="285.959991" y2="1295.959961" stroke="red" stroke-width="6.660000" />
<circle cx="792.960022" cy="1079.959961" r="19.980000" fill="red">
  <title>Beijing</title>
</circle><line x1="285.959991" y1="1295.959961" x2="792.960022" y2="1079.959961" stroke="red" stroke-width="6.660000" />
<circle cx="867.960022" cy="967.960022" r="19.980000" fill="red">
  <title>Dhaka</title>
</circle><line x1="792.960022" y1="1079.959961" x2="867.960022" y2="967.960022" stroke="red" stroke-width="6.660000" />
</svg>
