<?xml version="1.0" encoding="UTF-8" standalone="no"?>
<svg width="500" height="500" viewBox="0 0 2074.000000 2074.000000" xmlns="http://www.w3.org/2000/svg">
<rect x="19.000000" y="19.000000" width="2036.000000" height="2036.000000" fill="black" />
<circle cx="129.959991" cy="1893.959961" r="19.980000" fill="red">
  <title>Tokyo</title>
</circle><line x1="506.959991" y1="1111.959961" x2="129.959991" y2="1893.959961" stroke="red" stroke-width="6.660000" />
<circle cx="100.959999" cy="1970.959961" r="19.980000" fill="red">
  <title>São Paulo</title>
</circle><line x1="129.959991" y1="1893.959961" x2="100.959999" y2="1970.959961" stroke="red" stroke-width="6.660000" />
<circle cx="123.959999" cy="1292.959961" r="19.980000" fill="red">
  <title>Shanghai</title>
</circle><line x1="100.959999" y1="1970.959961" x2="123.959999" y2="1292.959961" stroke="red" stroke-width="6.660000" />
<circle cx="230.959991" cy="1065.959961" r="19.980000" fill="red">
  <title>Karachi</title>
</circle><line x1="123.959999" y1="1292.959961" x2="230.959991" y2="1065.959961" stroke="red" stroke-width="6.660000" />
<circle cx="133.959991" cy="246.959991" r="19.980000" fill="red">
  <title>Mumbai</title>
</circle><line x1="230.959991" y1="1065.959961" x2="133.959991" y2="246.959991" stroke="red" stroke-width="6.660000" />
<circle cx="966.960022" cy="262.959991" r="19.980000" fill="red">
  <title>Manila</title>
</circle><line x1="133.959991" y1="246.959991" x2="966.960022" y2="262.959991" stroke="red" stroke-width="6.660000" />
<circle cx="930.960022" cy="597.960022" r="19.980000" fill="red">
  <title>Kolkata</title>
</circle><line x1="966.960022" y1="262.959991" x2="930.960022" y2="597.960022" stroke="red" stroke-width="6.660000" />
<circle cx="1369.959961" cy="555.960022" r="19.980000" fill="red">
  <title>Delhi</title>
</circle><line x1="930.960022" y1="597.960022" x2="1369.959961" y2="555.960022" stroke="red" stroke-width="6.660000" />
<circle cx="1449.959961" cy="646.960022" r="19.980000" fill="red">
  <title>Beijing</title>
</circle><line x1="1369.959961" y1="555.960022" x2="1449.959961" y2="646.960022" stroke="red" stroke-width="6.660000" />
<circle cx="1261.959961" cy="804.960022" r="19.980000" fill="red">
  <title>Mexico City</title>
</circle><line x1="1449.959961" y1="646.960022" x2="1261.959961" y2="804.960022" stroke="red" stroke-width="6.660000" />
<circle cx="1218.959961" cy="966.960022" r="19.980000" fill="red">
  <title>New York</title>
</circle><line x1="1261.959961" y1="804.960022" x2="1218.959961" y2="966.960022" stroke="red" stroke-width="6.660000" />
<circle cx="1515.959961" cy="1175.959961" r="19.980000" fill="red">
  <title>Rio de Janeiro</title>
</circle><line x1="1218.959961" y1="966.960022" x2="1515.959961" y2="1175.959961" stroke="red" stroke-width="6.660000" />
<circle cx="1817.959961" cy="1449.959961" r="19.980000" fill="red">
  <title>Buenos Aires</title>
</circle><line x1="1515.959961" y1="1175.959961" x2="1817.959961" y2="1449.959961" stroke="red" stroke-width="6.660000" />
<circle cx="1117.959961" cy="1477.959961" r="19.980000" fill="red">
  <title>Cairo</title>
</circle><line x1="1817.959961" y1="1449.959961" x2="1117.959961" y2="1477.959961" stroke="red" stroke-width="6.660000" />
<circle cx="1113.959961" cy="1051.959961" r="19.980000" fill="red">
  <title>Lagos</title>
</circle><line x1="1117.959961" y1="1477.959961" x2="1113.959961" y2="1051.959961" stroke="red" stroke-width="6.660000" />
<circle cx="850.960022" cy="928.960022" r="19.980000" fill="red">
  <title>Osaka</title>
</circle><line x1="1113.959961" y1="1051.959961" x2="850.960022" y2="928.960022" stroke="red" stroke-width="6.660000" />
<circle cx="763.960022" cy="1104.959961" r="19.980000" fill="red">
  <title>Chongqing</title>
</circle><line x1="850.960022" y1="928.960022" x2="763.960022" y2="1104.959961" stroke="red" stroke-width="6.660000" />
<circle cx="588.960022" cy="1122.959961" r="19.980000" fill="red">
  <title>Dhaka</title>
</circle><line x1="763.960022" y1="1104.959961" x2="588.960022" y2="1122.959961" stroke="red" stroke-width="6.660000" />
<circle cx="506.959991" cy="1111.959961" r="19.980000" fill="red">
  <title>Istanbul</title>
</circle><line x1="588.960022" y1="1122.959961" x2="506.959991" y2="1111.959961" stroke="red" stroke-width="6.660000" />
</svg>
