<?xml version="1.0" encoding="UTF-8" standalone="no"?>
<svg width="500" height="500" viewBox="0 0 2074.000000 2074.000000" xmlns="http://www.w3.org/2000/svg">
<rect x="19.000000" y="19.000000" width="2036.000000" height="2036.000000" fill="black" />
<circle cx="456.959991" cy="1998.959961" r="19.980000" fill="red">
  <title>Tokyo</title>
</circle><line x1="1384.959961" y1="1903.959961" x2="456.959991" y2="1998.959961" stroke="red" stroke-width="6.660000" />
<circle cx="353.959991" cy="1916.959961" r="19.980000" fill="red">
  <title>São Paulo</title>
</circle><line x1="456.959991" y1="1998.959961" x2="353.959991" y2="1916.959961" stroke="red" stroke-width="6.660000" />
<circle cx="54.959999" cy="1960.959961" r="19.980000" fill="red">
  <title>Kolkata</title>
</circle><line x1="353.959991" y1="1916.959961" x2="54.959999" y2="1960.959961" stroke="red" stroke-width="6.660000" />
<circle cx="113.959999" cy="1667.959961" r="19.980000" fill="red">
  <title>Delhi</title>
</circle><line x1="54.959999" y1="1960.959961" x2="113.959999" y2="1667.959961" stroke="red" stroke-width="6.660000" />
<circle cx="448.959991" cy="1174.959961" r="19.980000" fill="red">
  <title>Beijing</title>
</circle><line x1="113.959999" y1="1667.959961" x2="448.959991" y2="1174.959961" stroke="red" stroke-width="6.660000" />
<circle cx="241.959991" cy="700.960022" r="19.980000" fill="red">
  <title>Mumbai</title>
</circle><line x1="448.959991" y1="1174.959961" x2="241.959991" y2="700.960022" stroke="red" stroke-width="6.660000" />
<circle cx="592.960022" cy="1035.959961" r="19.980000" fill="red">
  <title>Osaka</title>
</circle><line x1="241.959991" y1="700.960022" x2="592.960022" y2="1035.959961" stroke="red" stroke-width="6.660000" />
<circle cx="946.960022" cy="1280.959961" r="19.980000" fill="red">
  <title>Mexico City</title>
</circle><line x1="592.960022" y1="1035.959961" x2="946.960022" y2="1280.959961" stroke="red" stroke-width="6.660000" />
<circle cx="1096.959961" cy="821.960022" r="19.980000" fill="red">
  <title>New York</title>
</circle><line x1="946.960022" y1="1280.959961" x2="1096.959961" y2="821.960022" stroke="red" stroke-width="6.660000" />
<circle cx="1328.959961" cy="441.959991" r="19.980000" fill="red">
  <title>Dhaka</title>
</circle><line x1="1096.959961" y1="821.960022" x2="1328.959961" y2="441.959991" stroke="red" stroke-width="6.660000" />
<circle cx="1495.959961" cy="292.959991" r="19.980000" fill="red">
  <title>Tianjin</title>
</circle><line x1="1328.959961" y1="441.959991" x2="1495.959961" y2="292.959991" stroke="red" stroke-width="6.660000" />
<circle cx="1291.959961" cy="172.959991" r="19.980000" fill="red">
  <title>Karachi</title>
</circle><line x1="1495.959961" y1="292.959991" x2="1291.959961" y2="172.959991" stroke="red" stroke-width="6.660000" />
<circle cx="1542.959961" cy="40.959999" r="19.980000" fill="red">
  <title>Istanbul</title>
</circle><line x1="1291.959961" y1="172.959991" x2="1542.959961" y2="40.959999" stroke="red" stroke-width="6.660000" />
<circle cx="1910.959961" cy="77.959999" r="19.980000" fill="red">
  <title>Chongqing</title>
</circle><line x1="1542.959961" y1="40.959999" x2="1910.959961" y2="77.959999" stroke="red" stroke-width="6.660000" />
<circle cx="2000.959961" cy="128.959991" r="19.980000" fill="red">
  <title>Manila</title>
</circle><line x1="1910.959961" y1="77.959999" x2="2000.959961" y2="128.959991" stroke="red" stroke-width="6.660000" />
<circle cx="1915.959961" cy="357.959991" r="19.980000" fill="red">
  <title>Cairo</title>
</circle><line x1="2000.959961" y1="128.959991" x2="1915.959961" y2="357.959991" stroke="red" stroke-width="6.660000" />
<circle cx="1616.959961" cy="918.960022" r="19.980000" fill="red">
  <title>Buenos Aires</title>
</circle><line x1="1915.959961" y1="357.959991" x2="1616.959961" y2="918.960022" stroke="red" stroke-width="6.660000" />
<circle cx="1654.959961" cy="1294.959961" r="19.980000" fill="red">
  <title>Shanghai</title>
</circle><line x1="1616.959961" y1="918.960022" x2="1654.959961" y2="1294.959961" stroke="red" stroke-width="6.660000" />
<circle cx="1589.959961" cy="1617.959961" r="19.980000" fill="red">
  <title>Lagos</title>
</circle><line x1="1654.959961" y1="1294.959961" x2="1589.959961" y2="1617.959961" stroke="red" stroke-width="6.660000" />
<circle cx="1384.959961" cy="1903.959961" r="19.980000" fill="red">
  <title>Rio de Janeiro</title>
</circle><line x1="1589.959961" y1="1617.959961" x2="1384.959961" y2="1903.959961" stroke="red" stroke-width="6.660000" />
</svg>
