<?xml version="1.0" encoding="UTF-8" standalone="no"?>
<svg width="500" height="500" viewBox="0 0 2074.000000 2074.000000" xmlns="http://www.w3.org/2000/svg">
<rect x="19.000000" y="19.000000" width="2036.000000" height="2036.000000" fill="black" />
<circle cx="600.960022" cy="1910.959961" r="19.980000" fill="red">
  <title>Tokyo</title>
</circle><line x1="76.959999" y1="2000.959961" x2="600.960022" y2="1910.959961" stroke="red" stroke-width="6.660000" />
<circle cx="897.960022" cy="2020.959961" r="19.980000" fill="red">
  <title>Mumbai</title>
</circle><line x1="600.960022" y1="1910.959961" x2="897.960022" y2="2020.959961" stroke="red" stroke-width="6.660000" />
<circle cx="1837.959961" cy="1603.959961" r="19.980000" fill="red">
  <title>Delhi</title>
</circle><line x1="897.960022" y1="2020.959961" x2="1837.959961" y2="1603.959961" stroke="red" stroke-width="6.660000" />
<circle cx="1784.959961" cy="1121.959961" r="19.980000" fill="red">
  <title>Mexico City</title>
</circle><line x1="1837.959961" y1="1603.959961" x2="1784.959961" y2="1121.959961" stroke="red" stroke-width="6.660000" />
<circle cx="813.960022" cy="387.959991" r="19.980000" fill="red">
  <title>Shanghai</title>
</circle><line x1="1784.959961" y1="1121.959961" x2="813.960022" y2="387.959991" stroke="red" stroke-width="6.660000" />
<circle cx="774.960022" cy="120.959999" r="19.980000" fill="red">
  <title>Cairo</title>
</circle><line x1="813.960022" y1="387.959991" x2="774.960022" y2="120.959999" stroke="red" stroke-width="6.660000" />
<circle cx="177.959991" cy="802.960022" r="19.980000" fill="red">
  <title>São Paulo</title>
</circle><line x1="774.960022" y1="120.959999" x2="177.959991" y2="802.960022" stroke="red" stroke-width="6.660000" />
<circle cx="76.959999" cy="2000.959961" r="19.980000" fill="red">
  <title>Beijing</title>
</circle><line x1="177.959991" y1="802.960022" x2="76.959999" y2="2000.959961" stroke="red" stroke-width="6.660000" />
</svg>
