<?xml version="1.0" encoding="UTF-8" standalone="no"?>
<svg width="500" height="500" viewBox="0 0 2074.000000 2074.000000" xmlns="http://www.w3.org/2000/svg">
<rect x="19.000000" y="19.000000" width="2036.000000" height="2036.000000" fill="black" />
<circle cx="1400.959961" cy="67.959999" r="19.980000" fill="red">
  <title>Tokyo</title>
</circle><line x1="1782.959961" y1="213.959991" x2="1400.959961" y2="67.959999" stroke="red" stroke-width="6.660000" />
<circle cx="911.960022" cy="49.959999" r="19.980000" fill="red">
  <title>Shanghai</title>
</circle><line x1="1400.959961" y1="67.959999" x2="911.960022" y2="49.959999" stroke="red" stroke-width="6.660000" />
<circle cx="284.959991" cy="178.959991" r="19.980000" fill="red">
  <title>Beijing</title>
</circle><line x1="911.960022" y1="49.959999" x2="284.959991" y2="178.959991" stroke="red" stroke-width="6.660000" />
<circle cx="356.959991" cy="1319.959961" r="19.980000" fill="red">
  <title>Mumbai</title>
</circle><line x1="284.959991" y1="178.959991" x2="356.959991" y2="1319.959961" stroke="red" stroke-width="6.660000" />
<circle cx="511.959991" cy="941.960022" r="19.980000" fill="red">
  <title>Delhi</title>
</circle><line x1="356.959991" y1="1319.959961" x2="511.959991" y2="941.960022" stroke="red" stroke-width="6.660000" />
<circle cx="930.960022" cy="424.959991" r="19.980000" fill="red">
  <title>Dhaka</title>
</circle><line x1="511.959991" y1="941.960022" x2="930.960022" y2="424.959991" stroke="red" stroke-width="6.660000" />
<circle cx="1394.959961" cy="403.959991" r="19.980000" fill="red">
  <title>Mexico City</title>
</circle><line x1="930.960022" y1="424.959991" x2="1394.959961" y2="403.959991" stroke="red" stroke-width="6.660000" />
<circle cx="1757.959961" cy="226.959991" r="19.980000" fill="red">
  <title>New York</title>
</circle><line x1="1394.959961" y1="403.959991" x2="1757.959961" y2="226.959991" stroke="red" stroke-width="6.660000" />
<circle cx="1995.959961" cy="650.960022" r="19.980000" fill="red">
  <title>São Paulo</title>
</circle><line x1="1757.959961" y1="226.959991" x2="1995.959961" y2="650.960022" stroke="red" stroke-width="6.660000" />
<circle cx="1869.959961" cy="183.959991" r="19.980000" fill="red">
  <title>Osaka</title>
</circle><line x1="1995.959961" y1="650.960022" x2="1869.959961" y2="183.959991" stroke="red" stroke-width="6.660000" />
<circle cx="1782.959961" cy="213.959991" r="19.980000" fill="red">
  <title>Cairo</title>
</circle><line x1="1869.959961" y1="183.959991" x2="1782.959961" y2="213.959991" stroke="red" stroke-width="6.660000" />
</svg>
