<?xml version="1.0" encoding="UTF-8" standalone="no"?>
<svg width="500" height="500" viewBox="0 0 2074.000000 2074.000000" xmlns="http://www.w3.org/2000/svg">
<rect x="19.000000" y="19.000000" width="2036.000000" height="2036.000000" fill="black" />
<circle cx="2028.959961" cy="135.959991" r="19.980000" fill="red">
  <title>Tokyo</title>
</circle><line x1="1422.959961" y1="392.959991" x2="2028.959961" y2="135.959991" stroke="red" stroke-width="6.660000" />
<circle cx="1996.959961" cy="700.960022" r="19.980000" fill="red">
  <title>Mexico City</title>
</circle><line x1="2028.959961" y1="135.959991" x2="1996.959961" y2="700.960022" stroke="red" stroke-width="6.660000" />
<circle cx="1391.959961" cy="931.960022" r="19.980000" fill="red">
  <title>Chongqing</title>
</circle><line x1="1996.959961" y1="700.960022" x2="1391.959961" y2="931.960022" stroke="red" stroke-width="6.660000" />
<circle cx="1710.959961" cy="1131.959961" r="19.980000" fill="red">
  <title>Dhaka</title>
</circle><line x1="1391.959961" y1="931.960022" x2="1710.959961" y2="1131.959961" stroke="red" stroke-width="6.660000" />
<circle cx="1758.959961" cy="1382.959961" r="19.980000" fill="red">
  <title>Cairo</title>
</circle><line x1="1710.959961" y1="1131.959961" x2="1758.959961" y2="1382.959961" stroke="red" stroke-width="6.660000" />
<circle cx="1867.959961" cy="1834.959961" r="19.980000" fill="red">
  <title>Osaka</title>
</circle><line x1="1758.959961" y1="1382.959961" x2="1867.959961" y2="1834.959961" stroke="red" stroke-width="6.660000" />
<circle cx="1659.959961" cy="1621.959961" r="19.980000" fill="red">
  <title>Mumbai</title>
</circle><line x1="1867.959961" y1="1834.959961" x2="1659.959961" y2="1621.959961" stroke="red" stroke-width="6.660000" />
<circle cx="598.960022" cy="1537.959961" r="19.980000" fill="red">
  <title>Karachi</title>
</circle><line x1="1659.959961" y1="1621.959961" x2="598.960022" y2="1537.959961" stroke="red" stroke-width="6.660000" />
<circle cx="196.959991" cy="1869.959961" r="19.980000" fill="red">
  <title>São Paulo</title>
</circle><line x1="598.960022" y1="1537.959961" x2="196.959991" y2="1869.959961" stroke="red" stroke-width="6.660000" />
<circle cx="284.959991" cy="990.960022" r="19.980000" fill="red">
  <title>Buenos Aires</title>
</circle><line x1="196.959991" y1="1869.959961" x2="284.959991" y2="990.960022" stroke="red" stroke-width="6.660000" />
<circle cx="624.960022" cy="510.959991" r="19.980000" fill="red">
  <title>Delhi</title>
</circle><line x1="284.959991" y1="990.960022" x2="624.960022" y2="510.959991" stroke="red" stroke-width="6.660000" />
<circle cx="763.960022" cy="69.959999" r="19.980000" fill="red">
  <title>Istanbul</title>
</circle><line x1="624.960022" y1="510.959991" x2="763.960022" y2="69.959999" stroke="red" stroke-width="6.660000" />
<circle cx="917.960022" cy="218.959991" r="19.980000" fill="red">
  <title>Beijing</title>
</circle><line x1="763.960022" y1="69.959999" x2="917.960022" y2="218.959991" stroke="red" stroke-width="6.660000" />
<circle cx="1176.959961" cy="194.959991" r="19.980000" fill="red">
  <title>Shanghai</title>
</circle><line x1="917.960022" y1="218.959991" x2="1176.959961" y2="194.959991" stroke="red" stroke-width="6.660000" />
<circle cx="1422.959961" cy="392.959991" r="19.980000" fill="red">
  <title>New York</title>
</circle><line x1="1176.959961" y1="194.959991" x2="1422.959961" y2="392.959991" stroke="red" stroke-width="6.660000" />
</svg>
