<?xml version="1.0" encoding="UTF-8" standalone="no"?>
<svg width="500" height="500" viewBox="0 0 2074.000000 2074.000000" xmlns="http://www.w3.org/2000/svg">
<rect x="19.000000" y="19.000000" width="2036.000000" height="2036.000000" fill="black" />
<circle cx="1474.959961" cy="697.960022" r="19.980000" fill="red">
  <title>Tokyo</title>
</circle><line x1="1295.959961" y1="1005.960022" x2="1474.959961" y2="697.960022" stroke="red" stroke-width="6.660000" />
<circle cx="1884.959961" cy="548.960022" r="19.980000" fill="red">
  <title>Mumbai</title>
</circle><line x1="1474.959961" y1="697.960022" x2="1884.959961" y2="548.960022" stroke="red" stroke-width="6.660000" />
<circle cx="1799.959961" cy="509.959991" r="19.980000" fill="red">
  <title>Beijing</title>
</circle><line x1="1884.959961" y1="548.960022" x2="1799.959961" y2="509.959991" stroke="red" stroke-width="6.660000" />
<circle cx="1374.959961" cy="614.960022" r="19.980000" fill="red">
  <title>New York</title>
</circle><line x1="1799.959961" y1="509.959991" x2="1374.959961" y2="614.960022" stroke="red" stroke-width="6.660000" />
<circle cx="823.960022" cy="412.959991" r="19.980000" fill="red">
  <title>Buenos Aires</title>
</circle><line x1="1374.959961" y1="614.960022" x2="823.960022" y2="412.959991" stroke="red" stroke-width="6.660000" />
<circle cx="781.960022" cy="287.959991" r="19.980000" fill="red">
  <title>Delhi</title>
</circle><line x1="823.960022" y1="412.959991" x2="781.960022" y2="287.959991" stroke="red" stroke-width="6.660000" />
<circle cx="530.960022" cy="104.959999" r="19.980000" fill="red">
  <title>Manila</title>
</circle><line x1="781.960022" y1="287.959991" x2="530.960022" y2="104.959999" stroke="red" stroke-width="6.660000" />
<circle cx="124.959999" cy="188.959991" r="19.980000" fill="red">
  <title>Shanghai</title>
</circle><line x1="530.960022" y1="104.959999" x2="124.959999" y2="188.959991" stroke="red" stroke-width="6.660000" />
<circle cx="92.959999" cy="616.960022" r="19.980000" fill="red">
  <title>Lagos</title>
</circle><line x1="124.959999" y1="188.959991" x2="92.959999" y2="616.960022" stroke="red" stroke-width="6.660000" />
<circle cx="254.959991" cy="781.960022" r="19.980000" fill="red">
  <title>Rio de Janeiro</title>
</circle><line x1="92.959999" y1="616.960022" x2="254.959991" y2="781.960022" stroke="red" stroke-width="6.660000" />
<circle cx="728.960022" cy="1382.959961" r="19.980000" fill="red">
  <title>São Paulo</title>
</circle><line x1="254.959991" y1="781.960022" x2="728.960022" y2="1382.959961" stroke="red" stroke-width="6.660000" />
<circle cx="571.960022" cy="1479.959961" r="19.980000" fill="red">
  <title>Osaka</title>
</circle><line x1="728.960022" y1="1382.959961" x2="571.960022" y2="1479.959961" stroke="red" stroke-width="6.660000" />
<circle cx="156.959991" cy="1898.959961" r="19.980000" fill="red">
  <title>Cairo</title>
</circle><line x1="571.960022" y1="1479.959961" x2="156.959991" y2="1898.959961" stroke="red" stroke-width="6.660000" />
<circle cx="408.959991" cy="1871.959961" r="19.980000" fill="red">
  <title>Istanbul</title>
</circle><line x1="156.959991" y1="1898.959961" x2="408.959991" y2="1871.959961" stroke="red" stroke-width="6.660000" />
<circle cx="747.960022" cy="1564.959961" r="19.980000" fill="red">
  <title>Chongqing</title>
</circle><line x1="408.959991" y1="1871.959961" x2="747.960022" y2="1564.959961" stroke="red" stroke-width="6.660000" />
<circle cx="1183.959961" cy="1667.959961" r="19.980000" fill="red">
  <title>Mexico City</title>
</circle><line x1="747.960022" y1="1564.959961" x2="1183.959961" y2="1667.959961" stroke="red" stroke-width="6.660000" />
<circle cx="1360.959961" cy="1843.959961" r="19.980000" fill="red">
  <title>Kolkata</title>
</circle><line x1="1183.959961" y1="1667.959961" x2="1360.959961" y2="1843.959961" stroke="red" stroke-width="6.660000" />
<circle cx="2007.959961" cy="1908.959961" r="19.980000" fill="red">
  <title>Karachi</title>
</circle><line x1="1360.959961" y1="1843.959961" x2="2007.959961" y2="1908.959961" stroke="red" stroke-width="6.660000" />
<circle cx="1295.959961" cy="1005.960022" r="19.980000" fill="red">
  <title>Dhaka</title>
</circle><line x1="2007.959961" y1="1908.959961" x2="1295.959961" y2="1005.960022" stroke="red" stroke-width="6.660000" />
</svg>
