<?xml version="1.0" encoding="UTF-8" standalone="no"?>
<svg width="500" height="500" viewBox="0 0 2074.000000 2074.000000" xmlns="http://www.w3.org/2000/svg">
<rect x="19.000000" y="19.000000" width="2036.000000" height="2036.000000" fill="black" />
<circle cx="835.960022" cy="1549.959961" r="19.980000" fill="red">
  <title>Tokyo</title>
</circle><line x1="901.960022" y1="1788.959961" x2="835.960022" y2="1549.959961" stroke="red" stroke-width="6.660000" />
<circle cx="1163.959961" cy="1195.959961" r="19.980000" fill="red">
  <title>Shanghai</title>
</circle><line x1="835.960022" y1="1549.959961" x2="1163.959961" y2="1195.959961" stroke="red" stroke-width="6.660000" />
<circle cx="1726.959961" cy="1520.959961" r="19.980000" fill="red">
  <title>Delhi</title>
</circle><line x1="1163.959961" y1="1195.959961" x2="1726.959961" y2="1520.959961" stroke="red" stroke-width="6.660000" />
<circle cx="1583.959961" cy="878.960022" r="19.980000" fill="red">
  <title>Beijing</title>
</circle><line x1="1726.959961" y1="1520.959961" x2="1583.959961" y2="878.960022" stroke="red" stroke-width="6.660000" />
<circle cx="1289.959961" cy="666.960022" r="19.980000" fill="red">
  <title>Mumbai</title>
</circle><line x1="1583.959961" y1="878.960022" x2="1289.959961" y2="666.960022" stroke="red" stroke-width="6.660000" />
<circle cx="1116.959961" cy="736.960022" r="19.980000" fill="red">
  <title>Mexico City</title>
</circle><line x1="1289.959961" y1="666.960022" x2="1116.959961" y2="736.960022" stroke="red" stroke-width="6.660000" />
<circle cx="856.960022" cy="325.959991" r="19.980000" fill="red">
  <title>Dhaka</title>
</circle><line x1="1116.959961" y1="736.960022" x2="856.960022" y2="325.959991" stroke="red" stroke-width="6.660000" />
<circle cx="307.959991" cy="710.960022" r="19.980000" fill="red">
  <title>São Paulo</title>
</circle><line x1="856.960022" y1="325.959991" x2="307.959991" y2="710.960022" stroke="red" stroke-width="6.660000" />
<circle cx="172.959991" cy="1795.959961" r="19.980000" fill="red">
  <title>Cairo</title>
</circle><line x1="307.959991" y1="710.960022" x2="172.959991" y2="1795.959961" stroke="red" stroke-width="6.660000" />
<circle cx="901.960022" cy="1788.959961" r="19.980000" fill="red">
  <title>Osaka</title>
</circle><line x1="172.959991" y1="1795.959961" x2="901.960022" y2="1788.959961" stroke="red" stroke-width="6.660000" />
</svg>
