<?xml version="1.0" encoding="UTF-8" standalone="no"?>
<svg width="500" height="500" viewBox="0 0 2074.000000 2074.000000" xmlns="http://www.w3.org/2000/svg">
<rect x="19.000000" y="19.000000" width="2036.000000" height="2036.000000" fill="black" />
<circle cx="1661.959961" cy="922.960022" r="19.980000" fill="red">
  <title>Tokyo</title>
</circle><line x1="411.959991" y1="667.960022" x2="1661.959961" y2="922.960022" stroke="red" stroke-width="6.660000" />
<circle cx="1810.959961" cy="594.960022" r="19.980000" fill="red">
  <title>São Paulo</title>
</circle><line x1="1661.959961" y1="922.960022" x2="1810.959961" y2="594.960022" stroke="red" stroke-width="6.660000" />
<circle cx="1864.959961" cy="1141.959961" r="19.980000" fill="red">
  <title>Cairo</title>
</circle><line x1="1810.959961" y1="594.960022" x2="1864.959961" y2="1141.959961" stroke="red" stroke-width="6.660000" />
<circle cx="1700.959961" cy="1229.959961" r="19.980000" fill="red">
  <title>Osaka</title>
</circle><line x1="1864.959961" y1="1141.959961" x2="1700.959961" y2="1229.959961" stroke="red" stroke-width="6.660000" />
<circle cx="1824.959961" cy="1479.959961" r="19.980000" fill="red">
  <title>Mexico City</title>
</circle><line x1="1700.959961" y1="1229.959961" x2="1824.959961" y2="1479.959961" stroke="red" stroke-width="6.660000" />
<circle cx="1502.959961" cy="1440.959961" r="19.980000" fill="red">
  <title>Delhi</title>
</circle><line x1="1824.959961" y1="1479.959961" x2="1502.959961" y2="1440.959961" stroke="red" stroke-width="6.660000" />
<circle cx="886.960022" cy="1636.959961" r="19.980000" fill="red">
  <title>Mumbai</title>
</circle><line x1="1502.959961" y1="1440.959961" x2="886.960022" y2="1636.959961" stroke="red" stroke-width="6.660000" />
<circle cx="844.960022" cy="1516.959961" r="19.980000" fill="red">
  <title>Shanghai</title>
</circle><line x1="886.960022" y1="1636.959961" x2="844.960022" y2="1516.959961" stroke="red" stroke-width="6.660000" />
<circle cx="210.959991" cy="454.959991" r="19.980000" fill="red">
  <title>Dhaka</title>
</circle><line x1="844.960022" y1="1516.959961" x2="210.959991" y2="454.959991" stroke="red" stroke-width="6.660000" />
<circle cx="411.959991" cy="667.960022" r="19.980000" fill="red">
  <title>Beijing</title>
</circle><line x1="210.959991" y1="454.959991" x2="411.959991" y2="667.960022" stroke="red" stroke-width="6.660000" />
</svg>
