<?xml version="1.0" encoding="UTF-8" standalone="no"?>
<svg width="500" height="500" viewBox="0 0 2074.000000 2074.000000" xmlns="http://www.w3.org/2000/svg">
<rect x="19.000000" y="19.000000" width="2036.000000" height="2036.000000" fill="black" />
<circle cx="681.960022" cy="727.960022" r="19.980000" fill="red">
  <title>Tokyo</title>
</circle><line x1="162.959991" y1="122.959999" x2="681.960022" y2="727.960022" stroke="red" stroke-width="6.660000" />
<circle cx="1227.959961" cy="525.960022" r="19.980000" fill="red">
  <title>Delhi</title>
</circle><line x1="681.960022" y1="727.960022" x2="1227.959961" y2="525.960022" stroke="red" stroke-width="6.660000" />
<circle cx="1448.959961" cy="264.959991" r="19.980000" fill="red">
  <title>New York</title>
</circle><line x1="1227.959961" y1="525.960022" x2="1448.959961" y2="264.959991" stroke="red" stroke-width="6.660000" />
<circle cx="1872.959961" cy="322.959991" r="19.980000" fill="red">
  <title>Dhaka</title>
</circle><line x1="1448.959961" y1="264.959991" x2="1872.959961" y2="322.959991" stroke="red" stroke-width="6.660000" />
<circle cx="1860.959961" cy="426.959991" r="19.980000" fill="red">
  <title>São Paulo</title>
</circle><line x1="1872.959961" y1="322.959991" x2="1860.959961" y2="426.959991" stroke="red" stroke-width="6.660000" />
<circle cx="1472.959961" cy="602.960022" r="19.980000" fill="red">
  <title>Osaka</title>
</circle><line x1="1860.959961" y1="426.959991" x2="1472.959961" y2="602.960022" stroke="red" stroke-width="6.660000" />
<circle cx="1038.959961" cy="732.960022" r="19.980000" fill="red">
  <title>Cairo</title>
</circle><line x1="1472.959961" y1="602.960022" x2="1038.959961" y2="732.960022" stroke="red" stroke-width="6.660000" />
<circle cx="757.960022" cy="1451.959961" r="19.980000" fill="red">
  <title>Mumbai</title>
</circle><line x1="1038.959961" y1="732.960022" x2="757.960022" y2="1451.959961" stroke="red" stroke-width="6.660000" />
<circle cx="374.959991" cy="1526.959961" r="19.980000" fill="red">
  <title>Mexico City</title>
</circle><line x1="757.960022" y1="1451.959961" x2="374.959991" y2="1526.959961" stroke="red" stroke-width="6.660000" />
<circle cx="366.959991" cy="1531.959961" r="19.980000" fill="red">
  <title>Buenos Aires</title>
</circle><line x1="374.959991" y1="1526.959961" x2="366.959991" y2="1531.959961" stroke="red" stroke-width="6.660000" />
<circle cx="82.959999" cy="655.960022" r="19.980000" fill="red">
  <title>Shanghai</title>
</circle><line x1="366.959991" y1="1531.959961" x2="82.959999" y2="655.960022" stroke="red" stroke-width="6.660000" />
<circle cx="44.959999" cy="396.959991" r="19.980000" fill="red">
  <title>Karachi</title>
</circle><line x1="82.959999" y1="655.960022" x2="44.959999" y2="396.959991" stroke="red" stroke-width="6.660000" />
<circle cx="162.959991" cy="122.959999" r="19.980000" fill="red">
  <title>Beijing</title>
</circle><line x1="44.959999" y1="396.959991" x2="162.959991" y2="122.959999" stroke="red" stroke-width="6.660000" />
</svg>
