<?xml version="1.0" encoding="UTF-8" standalone="no"?>
<svg width="500" height="500" viewBox="0 0 2074.000000 2074.000000" xmlns="http://www.w3.org/2000/svg">
<rect x="19.000000" y="19.000000" width="2036.000000" height="2036.000000" fill="black" />
<circle cx="717.960022" cy="350.959991" r="19.980000" fill="red">
  <title>Tokyo</title>
</circle><line x1="2020.959961" y1="278.959991" x2="717.960022" y2="350.959991" stroke="red" stroke-width="6.660000" />
<circle cx="81.959999" cy="313.959991" r="19.980000" fill="red">
  <title>Shanghai</title>
</circle><line x1="717.960022" y1="350.959991" x2="81.959999" y2="313.959991" stroke="red" stroke-width="6.660000" />
<circle cx="624.960022" cy="374.959991" r="19.980000" fill="red">
  <title>Delhi</title>
</circle><line x1="81.959999" y1="313.959991" x2="624.960022" y2="374.959991" stroke="red" stroke-width="6.660000" />
<circle cx="957.960022" cy="1973.959961" r="19.980000" fill="red">
  <title>Mexico City</title>
</circle><line x1="624.960022" y1="374.959991" x2="957.960022" y2="1973.959961" stroke="red" stroke-width="6.660000" />
<circle cx="1059.959961" cy="436.959991" r="19.980000" fill="red">
  <title>Cairo</title>
</circle><line x1="957.960022" y1="1973.959961" x2="1059.959961" y2="436.959991" stroke="red" stroke-width="6.660000" />
<circle cx="2020.959961" cy="278.959991" r="19.980000" fill="red">
  <title>São Paulo</title>
</circle><line x1="1059.959961" y1="436.959991" x2="2020.959961" y2="278.959991" stroke="red" stroke-width="6.660000" />
</svg>
