<?xml version="1.0" encoding="UTF-8" standalone="no"?>
<svg width="500" height="500" viewBox="0 0 2074.000000 2074.000000" xmlns="http://www.w3.org/2000/svg">
<rect x="19.000000" y="19.000000" width="2036.000000" height="2036.000000" fill="black" />
<circle cx="1711.959961" cy="1930.959961" r="19.980000" fill="red">
  <title>Tokyo</title>
</circle><line x1="1507.959961" y1="1734.959961" x2="1711.959961" y2="1930.959961" stroke="red" stroke-width="6.660000" />
<circle cx="1139.959961" cy="1780.959961" r="19.980000" fill="red">
  <title>Mexico City</title>
</circle><line x1="1711.959961" y1="1930.959961" x2="1139.959961" y2="1780.959961" stroke="red" stroke-width="6.660000" />
<circle cx="838.960022" cy="1883.959961" r="19.980000" fill="red">
  <title>Shanghai</title>
</circle><line x1="1139.959961" y1="1780.959961" x2="838.960022" y2="1883.959961" stroke="red" stroke-width="6.660000" />
<circle cx="859.960022" cy="1505.959961" r="19.980000" fill="red">
  <title>Dhaka</title>
</circle><line x1="838.960022" y1="1883.959961" x2="859.960022" y2="1505.959961" stroke="red" stroke-width="6.660000" />
<circle cx="597.960022" cy="1308.959961" r="19.980000" fill="red">
  <title>Chongqing</title>
</circle><line x1="859.960022" y1="1505.959961" x2="597.960022" y2="1308.959961" stroke="red" stroke-width="6.660000" />
<circle cx="135.959991" cy="1000.960022" r="19.980000" fill="red">
  <title>Karachi</title>
</circle><line x1="597.960022" y1="1308.959961" x2="135.959991" y2="1000.960022" stroke="red" stroke-width="6.660000" />
<circle cx="217.959991" cy="265.959991" r="19.980000" fill="red">
  <title>Mumbai</title>
</circle><line x1="135.959991" y1="1000.960022" x2="217.959991" y2="265.959991" stroke="red" stroke-width="6.660000" />
<circle cx="466.959991" cy="459.959991" r="19.980000" fill="red">
  <title>São Paulo</title>
</circle><line x1="217.959991" y1="265.959991" x2="466.959991" y2="459.959991" stroke="red" stroke-width="6.660000" />
<circle cx="606.960022" cy="400.959991" r="19.980000" fill="red">
  <title>Osaka</title>
</circle><line x1="466.959991" y1="459.959991" x2="606.960022" y2="400.959991" stroke="red" stroke-width="6.660000" />
<circle cx="1092.959961" cy="265.959991" r="19.980000" fill="red">
  <title>Delhi</title>
</circle><line x1="606.960022" y1="400.959991" x2="1092.959961" y2="265.959991" stroke="red" stroke-width="6.660000" />
<circle cx="1636.959961" cy="563.960022" r="19.980000" fill="red">
  <title>Beijing</title>
</circle><line x1="1092.959961" y1="265.959991" x2="1636.959961" y2="563.960022" stroke="red" stroke-width="6.660000" />
<circle cx="1924.959961" cy="571.960022" r="19.980000" fill="red">
  <title>Cairo</title>
</circle><line x1="1636.959961" y1="563.960022" x2="1924.959961" y2="571.960022" stroke="red" stroke-width="6.660000" />
<circle cx="1534.959961" cy="773.960022" r="19.980000" fill="red">
  <title>New York</title>
</circle><line x1="1924.959961" y1="571.960022" x2="1534.959961" y2="773.960022" stroke="red" stroke-width="6.660000" />
<circle cx="1507.959961" cy="1734.959961" r="19.980000" fill="red">
  <title>Buenos Aires</title>
</circle><line x1="1534.959961" y1="773.960022" x2="1507.959961" y2="1734.959961" stroke="red" stroke-width="6.660000" />
</svg>
