<?xml version="1.0" encoding="UTF-8" standalone="no"?>
<svg width="500" height="500" viewBox="0 0 2074.000000 2074.000000" xmlns="http://www.w3.org/2000/svg">
<rect x="19.000000" y="19.000000" width="2036.000000" height="2036.000000" fill="black" />
<circle cx="754.960022" cy="704.960022" r="19.980000" fill="red">
  <title>Tokyo</title>
</circle><line x1="647.960022" y1="807.960022" x2="754.960022" y2="704.960022" stroke="red" stroke-width="6.660000" />
<circle cx="476.959991" cy="82.959999" r="19.980000" fill="red">
  <title>São Paulo</title>
</circle><line x1="754.960022" y1="704.960022" x2="476.959991" y2="82.959999" stroke="red" stroke-width="6.660000" />
<circle cx="854.960022" cy="428.959991" r="19.980000" fill="red">
  <title>Shanghai</title>
</circle><line x1="476.959991" y1="82.959999" x2="854.960022" y2="428.959991" stroke="red" stroke-width="6.660000" />
<circle cx="898.960022" cy="565.960022" r="19.980000" fill="red">
  <title>Delhi</title>
</circle><line x1="854.960022" y1="428.959991" x2="898.960022" y2="565.960022" stroke="red" stroke-width="6.660000" />
<circle cx="1696.959961" cy="474.959991" r="19.980000" fill="red">
  <title>Mexico City</title>
</circle><line x1="898.960022" y1="565.960022" x2="1696.959961" y2="474.959991" stroke="red" stroke-width="6.660000" />
<circle cx="1852.959961" cy="328.959991" r="19.980000" fill="red">
  <title>Rio de Janeiro</title>
</circle><line x1="1696.959961" y1="474.959991" x2="1852.959961" y2="328.959991" stroke="red" stroke-width="6.660000" />
<circle cx="1889.959961" cy="289.959991" r="19.980000" fill="red">
  <title>Lagos</title>
</circle><line x1="1852.959961" y1="328.959991" x2="1889.959961" y2="289.959991" stroke="red" stroke-width="6.660000" />
<circle cx="1978.959961" cy="385.959991" r="19.980000" fill="red">
  <title>Mumbai</title>
</circle><line x1="1889.959961" y1="289.959991" x2="1978.959961" y2="385.959991" stroke="red" stroke-width="6.660000" />
<circle cx="1778.959961" cy="457.959991" r="19.980000" fill="red">
  <title>Cairo</title>
</circle><line x1="1978.959961" y1="385.959991" x2="1778.959961" y2="457.959991" stroke="red" stroke-width="6.660000" />
<circle cx="1292.959961" cy="1244.959961" r="19.980000" fill="red">
  <title>Osaka</title>
</circle><line x1="1778.959961" y1="457.959991" x2="1292.959961" y2="1244.959961" stroke="red" stroke-width="6.660000" />
<circle cx="1472.959961" cy="1462.959961" r="19.980000" fill="red">
  <title>Manila</title>
</circle><line x1="1292.959961" y1="1244.959961" x2="1472.959961" y2="1462.959961" stroke="red" stroke-width="6.660000" />
<circle cx="1745.959961" cy="1548.959961" r="19.980000" fill="red">
  <title>Beijing</title>
</circle><line x1="1472.959961" y1="1462.959961" x2="1745.959961" y2="1548.959961" stroke="red" stroke-width="6.660000" />
<circle cx="1756.959961" cy="1765.959961" r="19.980000" fill="red">
  <title>Karachi</title>
</circle><line x1="1745.959961" y1="1548.959961" x2="1756.959961" y2="1765.959961" stroke="red" stroke-width="6.660000" />
<circle cx="1451.959961" cy="1617.959961" r="19.980000" fill="red">
  <title>Buenos Aires</title>
</circle><line x1="1756.959961" y1="1765.959961" x2="1451.959961" y2="1617.959961" stroke="red" stroke-width="6.660000" />
<circle cx="1008.960022" cy="2011.959961" r="19.980000" fill="red">
  <title>Dhaka</title>
</circle><line x1="1451.959961" y1="1617.959961" x2="1008.960022" y2="2011.959961" stroke="red" stroke-width="6.660000" />
<circle cx="736.960022" cy="1662.959961" r="19.980000" fill="red">
  <title>New York</title>
</circle><line x1="1008.960022" y1="2011.959961" x2="736.960022" y2="1662.959961" stroke="red" stroke-width="6.660000" />
<circle cx="603.960022" cy="1362.959961" r="19.980000" fill="red">
  <title>Kolkata</title>
</circle><line x1="736.960022" y1="1662.959961" x2="603.960022" y2="1362.959961" stroke="red" stroke-width="6.660000" />
<circle cx="420.959991" cy="822.960022" r="19.980000" fill="red">
  <title>Chongqing</title>
</circle><line x1="603.960022" y1="1362.959961" x2="420.959991" y2="822.960022" stroke="red" stroke-width="6.660000" />
<circle cx="647.960022" cy="807.960022" r="19.980000" fill="red">
  <title>Istanbul</title>
</circle><line x1="420.959991" y1="822.960022" x2="647.960022" y2="807.960022" stroke="red" stroke-width="6.660000" />
</svg>
