<?xml version="1.0" encoding="UTF-8" standalone="no"?>
<svg width="500" height="500" viewBox="0 0 2074.000000 2074.000000" xmlns="http://www.w3.org/2000/svg">
<rect x="19.000000" y="19.000000" width="2036.000000" height="2036.000000" fill="black" />
<circle cx="1634.959961" cy="547.960022" r="19.980000" fill="red">
  <title>Tokyo</title>
</circle><line x1="1602.959961" y1="809.960022" x2="1634.959961" y2="547.960022" stroke="red" stroke-width="6.660000" />
<circle cx="1045.959961" cy="538.960022" r="19.980000" fill="red">
  <title>Dhaka</title>
</circle><line x1="1634.959961" y1="547.960022" x2="1045.959961" y2="538.960022" stroke="red" stroke-width="6.660000" />
<circle cx="1071.959961" cy="196.959991" r="19.980000" fill="red">
  <title>Delhi</title>
</circle><line x1="1045.959961" y1="538.960022" x2="1071.959961" y2="196.959991" stroke="red" stroke-width="6.660000" />
<circle cx="886.960022" cy="212.959991" r="19.980000" fill="red">
  <title>Cairo</title>
</circle><line x1="1071.959961" y1="196.959991" x2="886.960022" y2="212.959991" stroke="red" stroke-width="6.660000" />
<circle cx="873.960022" cy="370.959991" r="19.980000" fill="red">
  <title>Mumbai</title>
</circle><line x1="886.960022" y1="212.959991" x2="873.960022" y2="370.959991" stroke="red" stroke-width="6.660000" />
<circle cx="192.959991" cy="305.959991" r="19.980000" fill="red">
  <title>Beijing</title>
</circle><line x1="873.960022" y1="370.959991" x2="192.959991" y2="305.959991" stroke="red" stroke-width="6.660000" />
<circle cx="429.959991" cy="716.960022" r="19.980000" fill="red">
  <title>Mexico City</title>
</circle><line x1="192.959991" y1="305.959991" x2="429.959991" y2="716.960022" stroke="red" stroke-width="6.660000" />
<circle cx="92.959999" cy="1468.959961" r="19.980000" fill="red">
  <title>Karachi</title>
</circle><line x1="429.959991" y1="716.960022" x2="92.959999" y2="1468.959961" stroke="red" stroke-width="6.660000" />
<circle cx="375.959991" cy="1627.959961" r="19.980000" fill="red">
  <title>New York</title>
</circle><line x1="92.959999" y1="1468.959961" x2="375.959991" y2="1627.959961" stroke="red" stroke-width="6.660000" />
<circle cx="779.960022" cy="1032.959961" r="19.980000" fill="red">
  <title>Shanghai</title>
</circle><line x1="375.959991" y1="1627.959961" x2="779.960022" y2="1032.959961" stroke="red" stroke-width="6.660000" />
<circle cx="1631.959961" cy="1240.959961" r="19.980000" fill="red">
  <title>São Paulo</title>
</circle><line x1="779.960022" y1="1032.959961" x2="1631.959961" y2="1240.959961" stroke="red" stroke-width="6.660000" />
<circle cx="1602.959961" cy="809.960022" r="19.980000" fill="red">
  <title>Osaka</title>
</circle><line x1="1631.959961" y1="1240.959961" x2="1602.959961" y2="809.960022" stroke="red" stroke-width="6.660000" />
</svg>
