<?xml version="1.0" encoding="UTF-8" standalone="no"?>
<svg width="500" height="500" viewBox="0 0 2074.000000 2074.000000" xmlns="http://www.w3.org/2000/svg">
<rect x="19.000000" y="19.000000" width="2036.000000" height="2036.000000" fill="black" />
<circle cx="821.960022" cy="1520.959961" r="19.980000" fill="red">
  <title>Tokyo</title>
</circle><line x1="710.960022" y1="1381.959961" x2="821.960022" y2="1520.959961" stroke="red" stroke-width="6.660000" />
<circle cx="1667.959961" cy="1682.959961" r="19.980000" fill="red">
  <title>Delhi</title>
</circle><line x1="821.960022" y1="1520.959961" x2="1667.959961" y2="1682.959961" stroke="red" stroke-width="6.660000" />
<circle cx="2032.959961" cy="1793.959961" r="19.980000" fill="red">
  <title>Mexico City</title>
</circle><line x1="1667.959961" y1="1682.959961" x2="2032.959961" y2="1793.959961" stroke="red" stroke-width="6.660000" />
<circle cx="1083.959961" cy="973.960022" r="19.980000" fill="red">
  <title>Shanghai</title>
</circle><line x1="2032.959961" y1="1793.959961" x2="1083.959961" y2="973.960022" stroke="red" stroke-width="6.660000" />
<circle cx="858.960022" cy="815.960022" r="19.980000" fill="red">
  <title>São Paulo</title>
</circle><line x1="1083.959961" y1="973.960022" x2="858.960022" y2="815.960022" stroke="red" stroke-width="6.660000" />
<circle cx="432.959991" cy="400.959991" r="19.980000" fill="red">
  <title>Beijing</title>
</circle><line x1="858.960022" y1="815.960022" x2="432.959991" y2="400.959991" stroke="red" stroke-width="6.660000" />
<circle cx="117.959999" cy="236.959991" r="19.980000" fill="red">
  <title>Mumbai</title>
</circle><line x1="432.959991" y1="400.959991" x2="117.959999" y2="236.959991" stroke="red" stroke-width="6.660000" />
<circle cx="108.959999" cy="528.960022" r="19.980000" fill="red">
  <title>Cairo</title>
</circle><line x1="117.959999" y1="236.959991" x2="108.959999" y2="528.960022" stroke="red" stroke-width="6.660000" />
<circle cx="436.959991" cy="889.960022" r="19.980000" fill="red">
  <title>Osaka</title>
</circle><line x1="108.959999" y1="528.960022" x2="436.959991" y2="889.960022" stroke="red" stroke-width="6.660000" />
<circle cx="710.960022" cy="1381.959961" r="19.980000" fill="red">
  <title>Dhaka</title>
</circle><line x1="436.959991" y1="889.960022" x2="710.960022" y2="1381.959961" stroke="red" stroke-width="6.660000" />
</svg>
