<?xml version="1.0" encoding="UTF-8" standalone="no"?>
<svg width="500" height="500" viewBox="0 0 2074.000000 2074.000000" xmlns="http://www.w3.org/2000/svg">
<rect x="19.000000" y="19.000000" width="2036.000000" height="2036.000000" fill="black" />
<circle cx="1582.959961" cy="359.959991" r="19.980000" fill="red">
  <title>Tokyo</title>
</circle><line x1="1311.959961" y1="690.960022" x2="1582.959961" y2="359.959991" stroke="red" stroke-width="6.660000" />
<circle cx="1174.959961" cy="367.959991" r="19.980000" fill="red">
  <title>Mexico City</title>
</circle><line x1="1582.959961" y1="359.959991" x2="1174.959961" y2="367.959991" stroke="red" stroke-width="6.660000" />
<circle cx="821.960022" cy="207.959991" r="19.980000" fill="red">
  <title>Buenos Aires</title>
</circle><line x1="1174.959961" y1="367.959991" x2="821.960022" y2="207.959991" stroke="red" stroke-width="6.660000" />
<circle cx="564.960022" cy="523.960022" r="19.980000" fill="red">
  <title>Beijing</title>
</circle><line x1="821.960022" y1="207.959991" x2="564.960022" y2="523.960022" stroke="red" stroke-width="6.660000" />
<circle cx="989.960022" cy="1234.959961" r="19.980000" fill="red">
  <title>Shanghai</title>
</circle><line x1="564.960022" y1="523.960022" x2="989.960022" y2="1234.959961" stroke="red" stroke-width="6.660000" />
<circle cx="217.959991" cy="1552.959961" r="19.980000" fill="red">
  <title>Osaka</title>
</circle><line x1="989.960022" y1="1234.959961" x2="217.959991" y2="1552.959961" stroke="red" stroke-width="6.660000" />
<circle cx="652.960022" cy="1944.959961" r="19.980000" fill="red">
  <title>São Paulo</title>
</circle><line x1="217.959991" y1="1552.959961" x2="652.960022" y2="1944.959961" stroke="red" stroke-width="6.660000" />
<circle cx="1422.959961" cy="1772.959961" r="19.980000" fill="red">
  <title>Cairo</title>
</circle><line x1="652.960022" y1="1944.959961" x2="1422.959961" y2="1772.959961" stroke="red" stroke-width="6.660000" />
<circle cx="1535.959961" cy="1752.959961" r="19.980000" fill="red">
  <title>Delhi</title>
</circle><line x1="1422.959961" y1="1772.959961" x2="1535.959961" y2="1752.959961" stroke="red" stroke-width="6.660000" />
<circle cx="1345.959961" cy="1567.959961" r="19.980000" fill="red">
  <title>New York</title>
</circle><line x1="1535.959961" y1="1752.959961" x2="1345.959961" y2="1567.959961" stroke="red" stroke-width="6.660000" />
<circle cx="1342.959961" cy="1344.959961" r="19.980000" fill="red">
  <title>Mumbai</title>
</circle><line x1="1345.959961" y1="1567.959961" x2="1342.959961" y2="1344.959961" stroke="red" stroke-width="6.660000" />
<circle cx="1745.959961" cy="965.960022" r="19.980000" fill="red">
  <title>Dhaka</title>
</circle><line x1="1342.959961" y1="1344.959961" x2="1745.959961" y2="965.960022" stroke="red" stroke-width="6.660000" />
<circle cx="1311.959961" cy="690.960022" r="19.980000" fill="red">
  <title>Karachi</title>
</circle><line x1="1745.959961" y1="965.960022" x2="1311.959961" y2="690.960022" stroke="red" stroke-width="6.660000" />
</svg>
