<?xml version="1.0" encoding="UTF-8" standalone="no"?>
<svg width="500" height="500" viewBox="0 0 2074.000000 2074.000000" xmlns="http://www.w3.org/2000/svg">
<rect x="19.000000" y="19.000000" width="2036.000000" height="2036.000000" fill="black" />
<circle cx="861.960022" cy="1651.959961" r="19.980000" fill="red">
  <title>Tokyo</title>
</circle><line x1="1202.959961" y1="1584.959961" x2="861.960022" y2="1651.959961" stroke="red" stroke-width="6.660000" />
<circle cx="1505.959961" cy="988.960022" r="19.980000" fill="red">
  <title>Shanghai</title>
</circle><line x1="861.960022" y1="1651.959961" x2="1505.959961" y2="988.960022" stroke="red" stroke-width="6.660000" />
<circle cx="1787.959961" cy="62.959999" r="19.980000" fill="red">
  <title>Delhi</title>
</circle><line x1="1505.959961" y1="988.960022" x2="1787.959961" y2="62.959999" stroke="red" stroke-width="6.660000" />
<circle cx="1202.959961" cy="1584.959961" r="19.980000" fill="red">
  <title>São Paulo</title>
</circle><line x1="1787.959961" y1="62.959999" x2="1202.959961" y2="1584.959961" stroke="red" stroke-width="6.660000" />
</svg>
