<?xml version="1.0" encoding="UTF-8" standalone="no"?>
<svg width="500" height="500" viewBox="0 0 2074.000000 2074.000000" xmlns="http://www.w3.org/2000/svg">
<rect x="19.000000" y="19.000000" width="2036.000000" height="2036.000000" fill="black" />
<circle cx="1513.959961" cy="1494.959961" r="19.980000" fill="red">
  <title>Tokyo</title>
</circle><line x1="1640.959961" y1="1449.959961" x2="1513.959961" y2="1494.959961" stroke="red" stroke-width="6.660000" />
<circle cx="1364.959961" cy="1378.959961" r="19.980000" fill="red">
  <title>São Paulo</title>
</circle><line x1="1513.959961" y1="1494.959961" x2="1364.959961" y2="1378.959961" stroke="red" stroke-width="6.660000" />
<circle cx="1092.959961" cy="1635.959961" r="19.980000" fill="red">
  <title>Karachi</title>
</circle><line x1="1364.959961" y1="1378.959961" x2="1092.959961" y2="1635.959961" stroke="red" stroke-width="6.660000" />
<circle cx="747.960022" cy="1729.959961" r="19.980000" fill="red">
  <title>Kolkata</title>
</circle><line x1="1092.959961" y1="1635.959961" x2="747.960022" y2="1729.959961" stroke="red" stroke-width="6.660000" />
<circle cx="255.959991" cy="1885.959961" r="19.980000" fill="red">
  <title>Istanbul</title>
</circle><line x1="747.960022" y1="1729.959961" x2="255.959991" y2="1885.959961" stroke="red" stroke-width="6.660000" />
<circle cx="175.959991" cy="1421.959961" r="19.980000" fill="red">
  <title>New York</title>
</circle><line x1="255.959991" y1="1885.959961" x2="175.959991" y2="1421.959961" stroke="red" stroke-width="6.660000" />
<circle cx="434.959991" cy="1134.959961" r="19.980000" fill="red">
  <title>Osaka</title>
</circle><line x1="175.959991" y1="1421.959961" x2="434.959991" y2="1134.959961" stroke="red" stroke-width="6.660000" />
<circle cx="100.959999" cy="887.960022" r="19.980000" fill="red">
  <title>Lagos</title>
</circle><line x1="434.959991" y1="1134.959961" x2="100.959999" y2="887.960022" stroke="red" stroke-width="6.660000" />
<circle cx="136.959991" cy="409.959991" r="19.980000" fill="red">
  <title>Delhi</title>
</circle><line x1="100.959999" y1="887.960022" x2="136.959991" y2="409.959991" stroke="red" stroke-width="6.660000" />
<circle cx="739.960022" cy="947.960022" r="19.980000" fill="red">
  <title>Chongqing</title>
</circle><line x1="136.959991" y1="409.959991" x2="739.960022" y2="947.960022" stroke="red" stroke-width="6.660000" />
<circle cx="889.960022" cy="1001.960022" r="19.980000" fill="red">
  <title>Cairo</title>
</circle><line x1="739.960022" y1="947.960022" x2="889.960022" y2="1001.960022" stroke="red" stroke-width="6.660000" />
<circle cx="908.960022" cy="922.960022" r="19.980000" fill="red">
  <title>Dhaka</title>
</circle><line x1="889.960022" y1="1001.960022" x2="908.960022" y2="922.960022" stroke="red" stroke-width="6.660000" />
<circle cx="1341.959961" cy="844.960022" r="19.980000" fill="red">
  <title>Manila</title>
</circle><line x1="908.960022" y1="922.960022" x2="1341.959961" y2="844.960022" stroke="red" stroke-width="6.660000" />
<circle cx="1992.959961" cy="55.959999" r="19.980000" fill="red">
  <title>Mumbai</title>
</circle><line x1="1341.959961" y1="844.960022" x2="1992.959961" y2="55.959999" stroke="red" stroke-width="6.660000" />
<circle cx="1728.959961" cy="516.960022" r="19.980000" fill="red">
  <title>Mexico City</title>
</circle><line x1="1992.959961" y1="55.959999" x2="1728.959961" y2="516.960022" stroke="red" stroke-width="6.660000" />
<circle cx="1584.959961" cy="1063.959961" r="19.980000" fill="red">
  <title>Shanghai</title>
</circle><line x1="1728.959961" y1="516.960022" x2="1584.959961" y2="1063.959961" stroke="red" stroke-width="6.660000" />
<circle cx="1869.959961" cy="1426.959961" r="19.980000" fill="red">
  <title>Rio de Janeiro</title>
</circle><line x1="1584.959961" y1="1063.959961" x2="1869.959961" y2="1426.959961" stroke="red" stroke-width="6.660000" />
<circle cx="2021.959961" cy="1647.959961" r="19.980000" fill="red">
  <title>Buenos Aires</title>
</circle><line x1="1869.959961" y1="1426.959961" x2="2021.959961" y2="1647.959961" stroke="red" stroke-width="6.660000" />
<circle cx="1640.959961" cy="1449.959961" r="19.980000" fill="red">
  <title>Beijing</title>
</circle><line x1="2021.959961" y1="1647.959961" x2="1640.959961" y2="1449.959961" stroke="red" stroke-width="6.660000" />
</svg>
