<?xml version="1.0" encoding="UTF-8" standalone="no"?>
<svg width="500" height="500" viewBox="0 0 2074.000000 2074.000000" xmlns="http://www.w3.org/2000/svg">
<rect x="19.000000" y="19.000000" width="2036.000000" height="2036.000000" fill="black" />
<circle cx="1249.959961" cy="1294.959961" r="19.980000" fill="red">
  <title>Tokyo</title>
</circle><line x1="1625.959961" y1="1747.959961" x2="1249.959961" y2="1294.959961" stroke="red" stroke-width="6.660000" />
<circle cx="1457.959961" cy="605.960022" r="19.980000" fill="red">
  <title>Cairo</title>
</circle><line x1="1249.959961" y1="1294.959961" x2="1457.959961" y2="605.960022" stroke="red" stroke-width="6.660000" />
<circle cx="1529.959961" cy="388.959991" r="19.980000" fill="red">
  <title>Beijing</title>
</circle><line x1="1457.959961" y1="605.960022" x2="1529.959961" y2="388.959991" stroke="red" stroke-width="6.660000" />
<circle cx="1030.959961" cy="575.960022" r="19.980000" fill="red">
  <title>Chongqing</title>
</circle><line x1="1529.959961" y1="388.959991" x2="1030.959961" y2="575.960022" stroke="red" stroke-width="6.660000" />
<circle cx="400.959991" cy="134.959991" r="19.980000" fill="red">
  <title>Osaka</title>
</circle><line x1="1030.959961" y1="575.960022" x2="400.959991" y2="134.959991" stroke="red" stroke-width="6.660000" />
<circle cx="283.959991" cy="249.959991" r="19.980000" fill="red">
  <title>Mexico City</title>
</circle><line x1="400.959991" y1="134.959991" x2="283.959991" y2="249.959991" stroke="red" stroke-width="6.660000" />
<circle cx="662.960022" cy="451.959991" r="19.980000" fill="red">
  <title>New York</title>
</circle><line x1="283.959991" y1="249.959991" x2="662.960022" y2="451.959991" stroke="red" stroke-width="6.660000" />
<circle cx="831.960022" cy="1107.959961" r="19.980000" fill="red">
  <title>Shanghai</title>
</circle><line x1="662.960022" y1="451.959991" x2="831.960022" y2="1107.959961" stroke="red" stroke-width="6.660000" />
<circle cx="1032.959961" cy="1320.959961" r="19.980000" fill="red">
  <title>Delhi</title>
</circle><line x1="831.960022" y1="1107.959961" x2="1032.959961" y2="1320.959961" stroke="red" stroke-width="6.660000" />
<circle cx="929.960022" cy="1452.959961" r="19.980000" fill="red">
  <title>Buenos Aires</title>
</circle><line x1="1032.959961" y1="1320.959961" x2="929.960022" y2="1452.959961" stroke="red" stroke-width="6.660000" />
<circle cx="615.960022" cy="1626.959961" r="19.980000" fill="red">
  <title>Dhaka</title>
</circle><line x1="929.960022" y1="1452.959961" x2="615.960022" y2="1626.959961" stroke="red" stroke-width="6.660000" />
<circle cx="92.959999" cy="1899.959961" r="19.980000" fill="red">
  <title>Kolkata</title>
</circle><line x1="615.960022" y1="1626.959961" x2="92.959999" y2="1899.959961" stroke="red" stroke-width="6.660000" />
<circle cx="689.960022" cy="1837.959961" r="19.980000" fill="red">
  <title>Istanbul</title>
</circle><line x1="92.959999" y1="1899.959961" x2="689.960022" y2="1837.959961" stroke="red" stroke-width="6.660000" />
<circle cx="957.960022" cy="1600.959961" r="19.980000" fill="red">
  <title>Karachi</title>
</circle><line x1="689.960022" y1="1837.959961" x2="957.960022" y2="1600.959961" stroke="red" stroke-width="6.660000" />
<circle cx="1185.959961" cy="1347.959961" r="19.980000" fill="red">
  <title>São Paulo</title>
</circle><line x1="957.960022" y1="1600.959961" x2="1185.959961" y2="1347.959961" stroke="red" stroke-width="6.660000" />
<circle cx="1625.959961" cy="1747.959961" r="19.980000" fill="red">
  <title>Mumbai</title>
</circle><line x1="1185.959961" y1="1347.959961" x2="1625.959961" y2="1747.959961" stroke="red" stroke-width="6.660000" />
</svg>
