<?xml version="1.0" encoding="UTF-8" standalone="no"?>
<svg width="500" height="500" viewBox="0 0 2074.000000 2074.000000" xmlns="http://www.w3.org/2000/svg">
<rect x="19.000000" y="19.000000" width="2036.000000" height="2036.000000" fill="black" />
<circle cx="882.960022" cy="1776.959961" r="19.980000" fill="red">
  <title>Tokyo</title>
</circle><line x1="678.960022" y1="254.959991" x2="882.960022" y2="1776.959961" stroke="red" stroke-width="6.660000" />
<circle cx="389.959991" cy="1247.959961" r="19.980000" fill="red">
  <title>Delhi</title>
</circle><line x1="882.960022" y1="1776.959961" x2="389.959991" y2="1247.959961" stroke="red" stroke-width="6.660000" />
<circle cx="678.960022" cy="254.959991" r="19.980000" fill="red">
  <title>Shanghai</title>
</circle><line x1="389.959991" y1="1247.959961" x2="678.960022" y2="254.959991" stroke="red" stroke-width="6.660000" />
</svg>
