<?xml version="1.0" encoding="UTF-8" standalone="no"?>
<svg width="500" height="500" viewBox="0 0 2074.000000 2074.000000" xmlns="http://www.w3.org/2000/svg">
<rect x="19.000000" y="19.000000" width="2036.000000" height="2036.000000" fill="black" />
<circle cx="1070.959961" cy="1791.959961" r="19.980000" fill="red">
  <title>Tokyo</title>
</circle><line x1="1766.959961" y1="1017.960022" x2="1070.959961" y2="1791.959961" stroke="red" stroke-width="6.660000" />
<circle cx="288.959991" cy="1191.959961" r="19.980000" fill="red">
  <title>Delhi</title>
</circle><line x1="1070.959961" y1="1791.959961" x2="288.959991" y2="1191.959961" stroke="red" stroke-width="6.660000" />
<circle cx="500.959991" cy="1063.959961" r="19.980000" fill="red">
  <title>Shanghai</title>
</circle><line x1="288.959991" y1="1191.959961" x2="500.959991" y2="1063.959961" stroke="red" stroke-width="6.660000" />
<circle cx="1689.959961" cy="916.960022" r="19.980000" fill="red">
  <title>Mexico City</title>
</circle><line x1="500.959991" y1="1063.959961" x2="1689.959961" y2="916.960022" stroke="red" stroke-width="6.660000" />
<circle cx="1766.959961" cy="1017.960022" r="19.980000" fill="red">
  <title>São Paulo</title>
</circle><line x1="1689.959961" y1="916.960022" x2="1766.959961" y2="1017.960022" stroke="red" stroke-width="6.660000" />
</svg>
