<?xml version="1.0" encoding="UTF-8" standalone="no"?>
<svg width="500" height="500" viewBox="0 0 2074.000000 2074.000000" xmlns="http://www.w3.org/2000/svg">
<rect x="19.000000" y="19.000000" width="2036.000000" height="2036.000000" fill="black" />
<circle cx="66.959999" cy="1846.959961" r="19.980000" fill="red">
  <title>Tokyo</title>
</circle><line x1="95.959999" y1="1106.959961" x2="66.959999" y2="1846.959961" stroke="red" stroke-width="6.660000" />
<circle cx="552.960022" cy="1818.959961" r="19.980000" fill="red">
  <title>Delhi</title>
</circle><line x1="66.959999" y1="1846.959961" x2="552.960022" y2="1818.959961" stroke="red" stroke-width="6.660000" />
<circle cx="923.960022" cy="1673.959961" r="19.980000" fill="red">
  <title>Buenos Aires</title>
</circle><line x1="552.960022" y1="1818.959961" x2="923.960022" y2="1673.959961" stroke="red" stroke-width="6.660000" />
<circle cx="1087.959961" cy="1077.959961" r="19.980000" fill="red">
  <title>São Paulo</title>
</circle><line x1="923.960022" y1="1673.959961" x2="1087.959961" y2="1077.959961" stroke="red" stroke-width="6.660000" />
<circle cx="1428.959961" cy="1383.959961" r="19.980000" fill="red">
  <title>Manila</title>
</circle><line x1="1087.959961" y1="1077.959961" x2="1428.959961" y2="1383.959961" stroke="red" stroke-width="6.660000" />
<circle cx="1827.959961" cy="1584.959961" r="19.980000" fill="red">
  <title>Lagos</title>
</circle><line x1="1428.959961" y1="1383.959961" x2="1827.959961" y2="1584.959961" stroke="red" stroke-width="6.660000" />
<circle cx="2020.959961" cy="1619.959961" r="19.980000" fill="red">
  <title>Istanbul</title>
</circle><line x1="1827.959961" y1="1584.959961" x2="2020.959961" y2="1619.959961" stroke="red" stroke-width="6.660000" />
<circle cx="1919.959961" cy="453.959991" r="19.980000" fill="red">
  <title>Karachi</title>
</circle><line x1="2020.959961" y1="1619.959961" x2="1919.959961" y2="453.959991" stroke="red" stroke-width="6.660000" />
<circle cx="2031.959961" cy="202.959991" r="19.980000" fill="red">
  <title>Mexico City</title>
</circle><line x1="1919.959961" y1="453.959991" x2="2031.959961" y2="202.959991" stroke="red" stroke-width="6.660000" />
<circle cx="1831.959961" cy="78.959999" r="19.980000" fill="red">
  <title>Dhaka</title>
</circle><line x1="2031.959961" y1="202.959991" x2="1831.959961" y2="78.959999" stroke="red" stroke-width="6.660000" />
<circle cx="1152.959961" cy="194.959991" r="19.980000" fill="red">
  <title>Osaka</title>
</circle><line x1="1831.959961" y1="78.959999" x2="1152.959961" y2="194.959991" stroke="red" stroke-width="6.660000" />
<circle cx="869.960022" cy="48.959999" r="19.980000" fill="red">
  <title>Kolkata</title>
</circle><line x1="1152.959961" y1="194.959991" x2="869.960022" y2="48.959999" stroke="red" stroke-width="6.660000" />
<circle cx="290.959991" cy="49.959999" r="19.980000" fill="red">
  <title>New York</title>
</circle><line x1="869.960022" y1="48.959999" x2="290.959991" y2="49.959999" stroke="red" stroke-width="6.660000" />
<circle cx="195.959991" cy="283.959991" r="19.980000" fill="red">
  <title>Shanghai</title>
</circle><line x1="290.959991" y1="49.959999" x2="195.959991" y2="283.959991" stroke="red" stroke-width="6.660000" />
<circle cx="215.959991" cy="518.960022" r="19.980000" fill="red">
  <title>Mumbai</title>
</circle><line x1="195.959991" y1="283.959991" x2="215.959991" y2="518.960022" stroke="red" stroke-width="6.660000" />
<circle cx="584.960022" cy="820.960022" r="19.980000" fill="red">
  <title>Cairo</title>
</circle><line x1="215.959991" y1="518.960022" x2="584.960022" y2="820.960022" stroke="red" stroke-width="6.660000" />
<circle cx="496.959991" cy="971.960022" r="19.980000" fill="red">
  <title>Beijing</title>
</circle><line x1="584.960022" y1="820.960022" x2="496.959991" y2="971.960022" stroke="red" stroke-width="6.660000" />
<circle cx="95.959999" cy="1106.959961" r="19.980000" fill="red">
  <title>Chongqing</title>
</circle><line x1="496.959991" y1="971.960022" x2="95.959999" y2="1106.959961" stroke="red" stroke-width="6.660000" />
</svg>
