<?xml version="1.0" encoding="UTF-8" standalone="no"?>
<svg width="500" height="500" viewBox="0 0 2074.000000 2074.000000" xmlns="http://www.w3.org/2000/svg">
<rect x="19.000000" y="19.000000" width="2036.000000" height="2036.000000" fill="black" />
<circle cx="835.960022" cy="890.960022" r="19.980000" fill="red">
  <title>Tokyo</title>
</circle><line x1="723.960022" y1="1298.959961" x2="835.960022" y2="890.960022" stroke="red" stroke-width="6.660000" />
<circle cx="1122.959961" cy="1140.959961" r="19.980000" fill="red">
  <title>Shanghai</title>
</circle><line x1="835.960022" y1="890.960022" x2="1122.959961" y2="1140.959961" stroke="red" stroke-width="6.660000" />
<circle cx="1760.959961" cy="1755.959961" r="19.980000" fill="red">
  <title>Delhi</title>
</circle><line x1="1122.959961" y1="1140.959961" x2="1760.959961" y2="1755.959961" stroke="red" stroke-width="6.660000" />
<circle cx="1962.959961" cy="2003.959961" r="19.980000" fill="red">
  <title>São Paulo</title>
</circle><line x1="1760.959961" y1="1755.959961" x2="1962.959961" y2="2003.959961" stroke="red" stroke-width="6.660000" />
<circle cx="1124.959961" cy="1656.959961" r="19.980000" fill="red">
  <title>Beijing</title>
</circle><line x1="1962.959961" y1="2003.959961" x2="1124.959961" y2="1656.959961" stroke="red" stroke-width="6.660000" />
<circle cx="703.960022" cy="1921.959961" r="19.980000" fill="red">
  <title>Mexico City</title>
</circle><line x1="1124.959961" y1="1656.959961" x2="703.960022" y2="1921.959961" stroke="red" stroke-width="6.660000" />
<circle cx="744.960022" cy="1640.959961" r="19.980000" fill="red">
  <title>Cairo</title>
</circle><line x1="703.960022" y1="1921.959961" x2="744.960022" y2="1640.959961" stroke="red" stroke-width="6.660000" />
<circle cx="723.960022" cy="1298.959961" r="19.980000" fill="red">
  <title>Mumbai</title>
</circle><line x1="744.960022" y1="1640.959961" x2="723.960022" y2="1298.959961" stroke="red" stroke-width="6.660000" />
</svg>
