<?xml version="1.0" encoding="UTF-8" standalone="no"?>
<svg width="500" height="500" viewBox="0 0 2074.000000 2074.000000" xmlns="http://www.w3.org/2000/svg">
<rect x="19.000000" y="19.000000" width="2036.000000" height="2036.000000" fill="black" />
<circle cx="118.959999" cy="806.960022" r="19.980000" fill="red">
  <title>Tokyo</title>
</circle><line x1="669.960022" y1="394.959991" x2="118.959999" y2="806.960022" stroke="red" stroke-width="6.660000" />
<circle cx="206.959991" cy="930.960022" r="19.980000" fill="red">
  <title>Osaka</title>
</circle><line x1="118.959999" y1="806.960022" x2="206.959991" y2="930.960022" stroke="red" stroke-width="6.660000" />
<circle cx="99.959999" cy="1538.959961" r="19.980000" fill="red">
  <title>Buenos Aires</title>
</circle><line x1="206.959991" y1="930.960022" x2="99.959999" y2="1538.959961" stroke="red" stroke-width="6.660000" />
<circle cx="482.959991" cy="1819.959961" r="19.980000" fill="red">
  <title>Mumbai</title>
</circle><line x1="99.959999" y1="1538.959961" x2="482.959991" y2="1819.959961" stroke="red" stroke-width="6.660000" />
<circle cx="1105.959961" cy="1873.959961" r="19.980000" fill="red">
  <title>Cairo</title>
</circle><line x1="482.959991" y1="1819.959961" x2="1105.959961" y2="1873.959961" stroke="red" stroke-width="6.660000" />
<circle cx="1102.959961" cy="1909.959961" r="19.980000" fill="red">
  <title>Beijing</title>
</circle><line x1="1105.959961" y1="1873.959961" x2="1102.959961" y2="1909.959961" stroke="red" stroke-width="6.660000" />
<circle cx="1694.959961" cy="1955.959961" r="19.980000" fill="red">
  <title>Delhi</title>
</circle><line x1="1102.959961" y1="1909.959961" x2="1694.959961" y2="1955.959961" stroke="red" stroke-width="6.660000" />
<circle cx="1213.959961" cy="1724.959961" r="19.980000" fill="red">
  <title>Chongqing</title>
</circle><line x1="1694.959961" y1="1955.959961" x2="1213.959961" y2="1724.959961" stroke="red" stroke-width="6.660000" />
<circle cx="934.960022" cy="1211.959961" r="19.980000" fill="red">
  <title>Mexico City</title>
</circle><line x1="1213.959961" y1="1724.959961" x2="934.960022" y2="1211.959961" stroke="red" stroke-width="6.660000" />
<circle cx="821.960022" cy="1158.959961" r="19.980000" fill="red">
  <title>Manila</title>
</circle><line x1="934.960022" y1="1211.959961" x2="821.960022" y2="1158.959961" stroke="red" stroke-width="6.660000" />
<circle cx="889.960022" cy="1059.959961" r="19.980000" fill="red">
  <title>New York</title>
</circle><line x1="821.960022" y1="1158.959961" x2="889.960022" y2="1059.959961" stroke="red" stroke-width="6.660000" />
<circle cx="1404.959961" cy="950.960022" r="19.980000" fill="red">
  <title>São Paulo</title>
</circle><line x1="889.960022" y1="1059.959961" x2="1404.959961" y2="950.960022" stroke="red" stroke-width="6.660000" />
<circle cx="1501.959961" cy="752.960022" r="19.980000" fill="red">
  <title>Kolkata</title>
</circle><line x1="1404.959961" y1="950.960022" x2="1501.959961" y2="752.960022" stroke="red" stroke-width="6.660000" />
<circle cx="1680.959961" cy="875.960022" r="19.980000" fill="red">
  <title>Karachi</title>
</circle><line x1="1501.959961" y1="752.960022" x2="1680.959961" y2="875.960022" stroke="red" stroke-width="6.660000" />
<circle cx="1910.959961" cy="384.959991" r="19.980000" fill="red">
  <title>Dhaka</title>
</circle><line x1="1680.959961" y1="875.960022" x2="1910.959961" y2="384.959991" stroke="red" stroke-width="6.660000" />
<circle cx="1610.959961" cy="356.959991" r="19.980000" fill="red">
  <title>Shanghai</title>
</circle><line x1="1910.959961" y1="384.959991" x2="1610.959961" y2="356.959991" stroke="red" stroke-width="6.660000" />
<circle cx="672.960022" cy="54.959999" r="19.980000" fill="red">
  <title>Istanbul</title>
</circle><line x1="1610.959961" y1="356.959991" x2="672.960022" y2="54.959999" stroke="red" stroke-width="6.660000" />
<circle cx="669.960022" cy="394.959991" r="19.980000" fill="red">
  <title>Lagos</title>
</circle><line x1="672.960022" y1="54.959999" x2="669.960022" y2="394.959991" stroke="red" stroke-width="6.660000" />
</svg>
