<?xml version="1.0" encoding="UTF-8" standalone="no"?>
<svg width="500" height="500" viewBox="0 0 2074.000000 2074.000000" xmlns="http://www.w3.org/2000/svg">
<rect x="19.000000" y="19.000000" width="2036.000000" height="2036.000000" fill="black" />
<circle cx="778.960022" cy="1036.959961" r="19.980000" fill="red">
  <title>Tokyo</title>
</circle><line x1="1587.959961" y1="2000.959961" x2="778.960022" y2="1036.959961" stroke="red" stroke-width="6.660000" />
<circle cx="370.959991" cy="88.959999" r="19.980000" fill="red">
  <title>Delhi</title>
</circle><line x1="778.960022" y1="1036.959961" x2="370.959991" y2="88.959999" stroke="red" stroke-width="6.660000" />
<circle cx="840.960022" cy="1900.959961" r="19.980000" fill="red">
  <title>Shanghai</title>
</circle><line x1="370.959991" y1="88.959999" x2="840.960022" y2="1900.959961" stroke="red" stroke-width="6.660000" />
<circle cx="1587.959961" cy="2000.959961" r="19.980000" fill="red">
  <title>São Paulo</title>
</circle><line x1="840.960022" y1="1900.959961" x2="1587.959961" y2="2000.959961" stroke="red" stroke-width="6.660000" />
</svg>
