<?xml version="1.0" encoding="UTF-8" standalone="no"?>
<svg width="500" height="500" viewBox="0 0 2074.000000 2074.000000" xmlns="http://www.w3.org/2000/svg">
<rect x="19.000000" y="19.000000" width="2036.000000" height="2036.000000" fill="black" />
<circle cx="1996.959961" cy="1316.959961" r="19.980000" fill="red">
  <title>Tokyo</title>
</circle><line x1="1711.959961" y1="440.959991" x2="1996.959961" y2="1316.959961" stroke="red" stroke-width="6.660000" />
<circle cx="1562.959961" cy="1891.959961" r="19.980000" fill="red">
  <title>Shanghai</title>
</circle><line x1="1996.959961" y1="1316.959961" x2="1562.959961" y2="1891.959961" stroke="red" stroke-width="6.660000" />
<circle cx="1134.959961" cy="349.959991" r="19.980000" fill="red">
  <title>Delhi</title>
</circle><line x1="1562.959961" y1="1891.959961" x2="1134.959961" y2="349.959991" stroke="red" stroke-width="6.660000" />
<circle cx="1711.959961" cy="440.959991" r="19.980000" fill="red">
  <title>São Paulo</title>
</circle><line x1="1134.959961" y1="349.959991" x2="1711.959961" y2="440.959991" stroke="red" stroke-width="6.660000" />
</svg>
