<?xml version="1.0" encoding="UTF-8" standalone="no"?>
<svg width="500" height="500" viewBox="0 0 2074.000000 2074.000000" xmlns="http://www.w3.org/2000/svg">
<rect x="19.000000" y="19.000000" width="2036.000000" height="2036.000000" fill="black" />
<circle cx="392.959991" cy="1665.959961" r="19.980000" fill="red">
  <title>Tokyo</title>
</circle><line x1="1308.959961" y1="836.960022" x2="392.959991" y2="1665.959961" stroke="red" stroke-width="6.660000" />
<circle cx="468.959991" cy="1102.959961" r="19.980000" fill="red">
  <title>Mexico City</title>
</circle><line x1="392.959991" y1="1665.959961" x2="468.959991" y2="1102.959961" stroke="red" stroke-width="6.660000" />
<circle cx="121.959999" cy="284.959991" r="19.980000" fill="red">
  <title>Osaka</title>
</circle><line x1="468.959991" y1="1102.959961" x2="121.959999" y2="284.959991" stroke="red" stroke-width="6.660000" />
<circle cx="1204.959961" cy="479.959991" r="19.980000" fill="red">
  <title>Shanghai</title>
</circle><line x1="121.959999" y1="284.959991" x2="1204.959961" y2="479.959991" stroke="red" stroke-width="6.660000" />
<circle cx="1308.959961" cy="375.959991" r="19.980000" fill="red">
  <title>Delhi</title>
</circle><line x1="1204.959961" y1="479.959991" x2="1308.959961" y2="375.959991" stroke="red" stroke-width="6.660000" />
<circle cx="1738.959961" cy="77.959999" r="19.980000" fill="red">
  <title>Mumbai</title>
</circle><line x1="1308.959961" y1="375.959991" x2="1738.959961" y2="77.959999" stroke="red" stroke-width="6.660000" />
<circle cx="1873.959961" cy="194.959991" r="19.980000" fill="red">
  <title>Dhaka</title>
</circle><line x1="1738.959961" y1="77.959999" x2="1873.959961" y2="194.959991" stroke="red" stroke-width="6.660000" />
<circle cx="1553.959961" cy="636.960022" r="19.980000" fill="red">
  <title>Beijing</title>
</circle><line x1="1873.959961" y1="194.959991" x2="1553.959961" y2="636.960022" stroke="red" stroke-width="6.660000" />
<circle cx="1995.959961" cy="1502.959961" r="19.980000" fill="red">
  <title>São Paulo</title>
</circle><line x1="1553.959961" y1="636.960022" x2="1995.959961" y2="1502.959961" stroke="red" stroke-width="6.660000" />
<circle cx="1308.959961" cy="836.960022" r="19.980000" fill="red">
  <title>Cairo</title>
</circle><line x1="1995.959961" y1="1502.959961" x2="1308.959961" y2="836.960022" stroke="red" stroke-width="6.660000" />
</svg>
