<?xml version="1.0" encoding="UTF-8" standalone="no"?>
<svg width="500" height="500" viewBox="0 0 2074.000000 2074.000000" xmlns="http://www.w3.org/2000/svg">
<rect x="19.000000" y="19.000000" width="2036.000000" height="2036.000000" fill="black" />
<circle cx="780.960022" cy="650.960022" r="19.980000" fill="red">
  <title>Tokyo</title>
</circle><line x1="414.959991" y1="584.960022" x2="780.960022" y2="650.960022" stroke="red" stroke-width="6.660000" />
<circle cx="1183.959961" cy="279.959991" r="19.980000" fill="red">
  <title>New York</title>
</circle><line x1="780.960022" y1="650.960022" x2="1183.959961" y2="279.959991" stroke="red" stroke-width="6.660000" />
<circle cx="1755.959961" cy="267.959991" r="19.980000" fill="red">
  <title>Mexico City</title>
</circle><line x1="1183.959961" y1="279.959991" x2="1755.959961" y2="267.959991" stroke="red" stroke-width="6.660000" />
<circle cx="2000.959961" cy="669.960022" r="19.980000" fill="red">
  <title>Buenos Aires</title>
</circle><line x1="1755.959961" y1="267.959991" x2="2000.959961" y2="669.960022" stroke="red" stroke-width="6.660000" />
<circle cx="1524.959961" cy="819.960022" r="19.980000" fill="red">
  <title>Mumbai</title>
</circle><line x1="2000.959961" y1="669.960022" x2="1524.959961" y2="819.960022" stroke="red" stroke-width="6.660000" />
<circle cx="1341.959961" cy="1536.959961" r="19.980000" fill="red">
  <title>Dhaka</title>
</circle><line x1="1524.959961" y1="819.960022" x2="1341.959961" y2="1536.959961" stroke="red" stroke-width="6.660000" />
<circle cx="1785.959961" cy="1827.959961" r="19.980000" fill="red">
  <title>Cairo</title>
</circle><line x1="1341.959961" y1="1536.959961" x2="1785.959961" y2="1827.959961" stroke="red" stroke-width="6.660000" />
<circle cx="1678.959961" cy="1888.959961" r="19.980000" fill="red">
  <title>Osaka</title>
</circle><line x1="1785.959961" y1="1827.959961" x2="1678.959961" y2="1888.959961" stroke="red" stroke-width="6.660000" />
<circle cx="788.960022" cy="1786.959961" r="19.980000" fill="red">
  <title>Delhi</title>
</circle><line x1="1678.959961" y1="1888.959961" x2="788.960022" y2="1786.959961" stroke="red" stroke-width="6.660000" />
<circle cx="879.960022" cy="1049.959961" r="19.980000" fill="red">
  <title>São Paulo</title>
</circle><line x1="788.960022" y1="1786.959961" x2="879.960022" y2="1049.959961" stroke="red" stroke-width="6.660000" />
<circle cx="351.959991" cy="1118.959961" r="19.980000" fill="red">
  <title>Beijing</title>
</circle><line x1="879.960022" y1="1049.959961" x2="351.959991" y2="1118.959961" stroke="red" stroke-width="6.660000" />
<circle cx="235.959991" cy="606.960022" r="19.980000" fill="red">
  <title>Shanghai</title>
</circle><line x1="351.959991" y1="1118.959961" x2="235.959991" y2="606.960022" stroke="red" stroke-width="6.660000" />
<circle cx="414.959991" cy="584.960022" r="19.980000" fill="red">
  <title>Karachi</title>
</circle><line x1="235.959991" y1="606.960022" x2="414.959991" y2="584.960022" stroke="red" stroke-width="6.660000" />
</svg>
