<?xml version="1.0" encoding="UTF-8" standalone="no"?>
<svg width="500" height="500" viewBox="0 0 2074.000000 2074.000000" xmlns="http://www.w3.org/2000/svg">
<rect x="19.000000" y="19.000000" width="2036.000000" height="2036.000000" fill="black" />
<circle cx="1589.959961" cy="1234.959961" r="19.980000" fill="red">
  <title>Tokyo</title>
</circle><line x1="1383.959961" y1="1272.959961" x2="1589.959961" y2="1234.959961" stroke="red" stroke-width="6.660000" />
<circle cx="1570.959961" cy="1322.959961" r="19.980000" fill="red">
  <title>Cairo</title>
</circle><line x1="1589.959961" y1="1234.959961" x2="1570.959961" y2="1322.959961" stroke="red" stroke-width="6.660000" />
<circle cx="1483.959961" cy="1756.959961" r="19.980000" fill="red">
  <title>Lagos</title>
</circle><line x1="1570.959961" y1="1322.959961" x2="1483.959961" y2="1756.959961" stroke="red" stroke-width="6.660000" />
<circle cx="1757.959961" cy="1502.959961" r="19.980000" fill="red">
  <title>Dhaka</title>
</circle><line x1="1483.959961" y1="1756.959961" x2="1757.959961" y2="1502.959961" stroke="red" stroke-width="6.660000" />
<circle cx="1707.959961" cy="1229.959961" r="19.980000" fill="red">
  <title>Manila</title>
</circle><line x1="1757.959961" y1="1502.959961" x2="1707.959961" y2="1229.959961" stroke="red" stroke-width="6.660000" />
<circle cx="1646.959961" cy="765.960022" r="19.980000" fill="red">
  <title>Chongqing</title>
</circle><line x1="1707.959961" y1="1229.959961" x2="1646.959961" y2="765.960022" stroke="red" stroke-width="6.660000" />
<circle cx="1480.959961" cy="635.960022" r="19.980000" fill="red">
  <title>Buenos Aires</title>
</circle><line x1="1646.959961" y1="765.960022" x2="1480.959961" y2="635.960022" stroke="red" stroke-width="6.660000" />
<circle cx="1718.959961" cy="282.959991" r="19.980000" fill="red">
  <title>New York</title>
</circle><line x1="1480.959961" y1="635.960022" x2="1718.959961" y2="282.959991" stroke="red" stroke-width="6.660000" />
<circle cx="1268.959961" cy="465.959991" r="19.980000" fill="red">
  <title>Mumbai</title>
</circle><line x1="1718.959961" y1="282.959991" x2="1268.959961" y2="465.959991" stroke="red" stroke-width="6.660000" />
<circle cx="676.960022" cy="562.960022" r="19.980000" fill="red">
  <title>Mexico City</title>
</circle><line x1="1268.959961" y1="465.959991" x2="676.960022" y2="562.960022" stroke="red" stroke-width="6.660000" />
<circle cx="614.960022" cy="359.959991" r="19.980000" fill="red">
  <title>Rio de Janeiro</title>
</circle><line x1="676.960022" y1="562.960022" x2="614.960022" y2="359.959991" stroke="red" stroke-width="6.660000" />
<circle cx="557.960022" cy="189.959991" r="19.980000" fill="red">
  <title>Kolkata</title>
</circle><line x1="614.960022" y1="359.959991" x2="557.960022" y2="189.959991" stroke="red" stroke-width="6.660000" />
<circle cx="638.960022" cy="512.960022" r="19.980000" fill="red">
  <title>Istanbul</title>
</circle><line x1="557.960022" y1="189.959991" x2="638.960022" y2="512.960022" stroke="red" stroke-width="6.660000" />
<circle cx="47.959999" cy="712.960022" r="19.980000" fill="red">
  <title>Beijing</title>
</circle><line x1="638.960022" y1="512.960022" x2="47.959999" y2="712.960022" stroke="red" stroke-width="6.660000" />
<circle cx="87.959999" cy="1423.959961" r="19.980000" fill="red">
  <title>Shanghai</title>
</circle><line x1="47.959999" y1="712.960022" x2="87.959999" y2="1423.959961" stroke="red" stroke-width="6.660000" />
<circle cx="703.960022" cy="1354.959961" r="19.980000" fill="red">
  <title>Karachi</title>
</circle><line x1="87.959999" y1="1423.959961" x2="703.960022" y2="1354.959961" stroke="red" stroke-width="6.660000" />
<circle cx="710.960022" cy="1333.959961" r="19.980000" fill="red">
  <title>Delhi</title>
</circle><line x1="703.960022" y1="1354.959961" x2="710.960022" y2="1333.959961" stroke="red" stroke-width="6.660000" />
<circle cx="914.960022" cy="1303.959961" r="19.980000" fill="red">
  <title>São Paulo</title>
</circle><line x1="710.960022" y1="1333.959961" x2="914.960022" y2="1303.959961" stroke="red" stroke-width="6.660000" />
<circle cx="1383.959961" cy="1272.959961" r="19.980000" fill="red">
  <title>Osaka</title>
</circle><line x1="914.960022" y1="1303.959961" x2="1383.959961" y2="1272.959961" stroke="red" stroke-width="6.660000" />
</svg>
