<?xml version="1.0" encoding="UTF-8" standalone="no"?>
<svg width="500" height="500" viewBox="0 0 2074.000000 2074.000000" xmlns="http://www.w3.org/2000/svg">
<rect x="19.000000" y="19.000000" width="2036.000000" height="2036.000000" fill="black" />
<circle cx="818.960022" cy="1510.959961" r="19.980000" fill="red">
  <title>Tokyo</title>
</circle><line x1="1153.959961" y1="1426.959961" x2="818.960022" y2="1510.959961" stroke="red" stroke-width="6.660000" />
<circle cx="591.960022" cy="1591.959961" r="19.980000" fill="red">
  <title>Shanghai</title>
</circle><line x1="818.960022" y1="1510.959961" x2="591.960022" y2="1591.959961" stroke="red" stroke-width="6.660000" />
<circle cx="100.959999" cy="2008.959961" r="19.980000" fill="red">
  <title>Cairo</title>
</circle><line x1="591.960022" y1="1591.959961" x2="100.959999" y2="2008.959961" stroke="red" stroke-width="6.660000" />
<circle cx="754.960022" cy="1451.959961" r="19.980000" fill="red">
  <title>Mumbai</title>
</circle><line x1="100.959999" y1="2008.959961" x2="754.960022" y2="1451.959961" stroke="red" stroke-width="6.660000" />
<circle cx="445.959991" cy="430.959991" r="19.980000" fill="red">
  <title>Delhi</title>
</circle><line x1="754.960022" y1="1451.959961" x2="445.959991" y2="430.959991" stroke="red" stroke-width="6.660000" />
<circle cx="1086.959961" cy="436.959991" r="19.980000" fill="red">
  <title>Mexico City</title>
</circle><line x1="445.959991" y1="430.959991" x2="1086.959961" y2="436.959991" stroke="red" stroke-width="6.660000" />
<circle cx="1153.959961" cy="1426.959961" r="19.980000" fill="red">
  <title>São Paulo</title>
</circle><line x1="1086.959961" y1="436.959991" x2="1153.959961" y2="1426.959961" stroke="red" stroke-width="6.660000" />
</svg>
