<?xml version="1.0" encoding="UTF-8" standalone="no"?>
<svg width="500" height="500" viewBox="0 0 2074.000000 2074.000000" xmlns="http://www.w3.org/2000/svg">
<rect x="19.000000" y="19.000000" width="2036.000000" height="2036.000000" fill="black" />
<circle cx="158.959991" cy="1537.959961" r="19.980000" fill="red">
  <title>Tokyo</title>
</circle><line x1="218.959991" y1="1610.959961" x2="158.959991" y2="1537.959961" stroke="red" stroke-width="6.660000" />
<circle cx="397.959991" cy="1915.959961" r="19.980000" fill="red">
  <title>Delhi</title>
</circle><line x1="158.959991" y1="1537.959961" x2="397.959991" y2="1915.959961" stroke="red" stroke-width="6.660000" />
<circle cx="1433.959961" cy="1397.959961" r="19.980000" fill="red">
  <title>Cairo</title>
</circle><line x1="397.959991" y1="1915.959961" x2="1433.959961" y2="1397.959961" stroke="red" stroke-width="6.660000" />
<circle cx="1533.959961" cy="1269.959961" r="19.980000" fill="red">
  <title>São Paulo</title>
</circle><line x1="1433.959961" y1="1397.959961" x2="1533.959961" y2="1269.959961" stroke="red" stroke-width="6.660000" />
<circle cx="1680.959961" cy="390.959991" r="19.980000" fill="red">
  <title>New York</title>
</circle><line x1="1533.959961" y1="1269.959961" x2="1680.959961" y2="390.959991" stroke="red" stroke-width="6.660000" />
<circle cx="2022.959961" cy="48.959999" r="19.980000" fill="red">
  <title>Mexico City</title>
</circle><line x1="1680.959961" y1="390.959991" x2="2022.959961" y2="48.959999" stroke="red" stroke-width="6.660000" />
<circle cx="1741.959961" cy="376.959991" r="19.980000" fill="red">
  <title>Dhaka</title>
</circle><line x1="2022.959961" y1="48.959999" x2="1741.959961" y2="376.959991" stroke="red" stroke-width="6.660000" />
<circle cx="1632.959961" cy="373.959991" r="19.980000" fill="red">
  <title>Beijing</title>
</circle><line x1="1741.959961" y1="376.959991" x2="1632.959961" y2="373.959991" stroke="red" stroke-width="6.660000" />
<circle cx="1565.959961" cy="349.959991" r="19.980000" fill="red">
  <title>Karachi</title>
</circle><line x1="1632.959961" y1="373.959991" x2="1565.959961" y2="349.959991" stroke="red" stroke-width="6.660000" />
<circle cx="1330.959961" cy="911.960022" r="19.980000" fill="red">
  <title>Osaka</title>
</circle><line x1="1565.959961" y1="349.959991" x2="1330.959961" y2="911.960022" stroke="red" stroke-width="6.660000" />
<circle cx="1160.959961" cy="1396.959961" r="19.980000" fill="red">
  <title>Shanghai</title>
</circle><line x1="1330.959961" y1="911.960022" x2="1160.959961" y2="1396.959961" stroke="red" stroke-width="6.660000" />
<circle cx="218.959991" cy="1610.959961" r="19.980000" fill="red">
  <title>Mumbai</title>
</circle><line x1="1160.959961" y1="1396.959961" x2="218.959991" y2="1610.959961" stroke="red" stroke-width="6.660000" />
</svg>
