<?xml version="1.0" encoding="UTF-8" standalone="no"?>
<svg width="500" height="500" viewBox="0 0 2074.000000 2074.000000" xmlns="http://www.w3.org/2000/svg">
<rect x="19.000000" y="19.000000" width="2036.000000" height="2036.000000" fill="black" />
<circle cx="1332.959961" cy="1873.959961" r="19.980000" fill="red">
  <title>Tokyo</title>
</circle><line x1="1151.959961" y1="1253.959961" x2="1332.959961" y2="1873.959961" stroke="red" stroke-width="6.660000" />
<circle cx="1691.959961" cy="969.960022" r="19.980000" fill="red">
  <title>Delhi</title>
</circle><line x1="1332.959961" y1="1873.959961" x2="1691.959961" y2="969.960022" stroke="red" stroke-width="6.660000" />
<circle cx="1151.959961" cy="1253.959961" r="19.980000" fill="red">
  <title>Shanghai</title>
</circle><line x1="1691.959961" y1="969.960022" x2="1151.959961" y2="1253.959961" stroke="red" stroke-width="6.660000" />
</svg>
