<?xml version="1.0" encoding="UTF-8" standalone="no"?>
<svg width="500" height="500" viewBox="0 0 2074.000000 2074.000000" xmlns="http://www.w3.org/2000/svg">
<rect x="19.000000" y="19.000000" width="2036.000000" height="2036.000000" fill="black" />
<circle cx="1367.959961" cy="494.959991" r="19.980000" fill="red">
  <title>Tokyo</title>
</circle><line x1="884.960022" y1="149.959991" x2="1367.959961" y2="494.959991" stroke="red" stroke-width="6.660000" />
<circle cx="1374.959961" cy="740.960022" r="19.980000" fill="red">
  <title>São Paulo</title>
</circle><line x1="1367.959961" y1="494.959991" x2="1374.959961" y2="740.960022" stroke="red" stroke-width="6.660000" />
<circle cx="1148.959961" cy="1072.959961" r="19.980000" fill="red">
  <title>New York</title>
</circle><line x1="1374.959961" y1="740.960022" x2="1148.959961" y2="1072.959961" stroke="red" stroke-width="6.660000" />
<circle cx="721.960022" cy="1187.959961" r="19.980000" fill="red">
  <title>Delhi</title>
</circle><line x1="1148.959961" y1="1072.959961" x2="721.960022" y2="1187.959961" stroke="red" stroke-width="6.660000" />
<circle cx="391.959991" cy="1251.959961" r="19.980000" fill="red">
  <title>Shanghai</title>
</circle><line x1="721.960022" y1="1187.959961" x2="391.959991" y2="1251.959961" stroke="red" stroke-width="6.660000" />
<circle cx="369.959991" cy="1685.959961" r="19.980000" fill="red">
  <title>Chongqing</title>
</circle><line x1="391.959991" y1="1251.959961" x2="369.959991" y2="1685.959961" stroke="red" stroke-width="6.660000" />
<circle cx="779.960022" cy="1293.959961" r="19.980000" fill="red">
  <title>Osaka</title>
</circle><line x1="369.959991" y1="1685.959961" x2="779.960022" y2="1293.959961" stroke="red" stroke-width="6.660000" />
<circle cx="1612.959961" cy="1666.959961" r="19.980000" fill="red">
  <title>Buenos Aires</title>
</circle><line x1="779.960022" y1="1293.959961" x2="1612.959961" y2="1666.959961" stroke="red" stroke-width="6.660000" />
<circle cx="1727.959961" cy="1642.959961" r="19.980000" fill="red">
  <title>Mexico City</title>
</circle><line x1="1612.959961" y1="1666.959961" x2="1727.959961" y2="1642.959961" stroke="red" stroke-width="6.660000" />
<circle cx="1729.959961" cy="1161.959961" r="19.980000" fill="red">
  <title>Cairo</title>
</circle><line x1="1727.959961" y1="1642.959961" x2="1729.959961" y2="1161.959961" stroke="red" stroke-width="6.660000" />
<circle cx="1700.959961" cy="653.960022" r="19.980000" fill="red">
  <title>Karachi</title>
</circle><line x1="1729.959961" y1="1161.959961" x2="1700.959961" y2="653.960022" stroke="red" stroke-width="6.660000" />
<circle cx="1727.959961" cy="363.959991" r="19.980000" fill="red">
  <title>Mumbai</title>
</circle><line x1="1700.959961" y1="653.960022" x2="1727.959961" y2="363.959991" stroke="red" stroke-width="6.660000" />
<circle cx="1284.959961" cy="127.959999" r="19.980000" fill="red">
  <title>Dhaka</title>
</circle><line x1="1727.959961" y1="363.959991" x2="1284.959961" y2="127.959999" stroke="red" stroke-width="6.660000" />
<circle cx="884.960022" cy="149.959991" r="19.980000" fill="red">
  <title>Beijing</title>
</circle><line x1="1284.959961" y1="127.959999" x2="884.960022" y2="149.959991" stroke="red" stroke-width="6.660000" />
</svg>
