<?xml version="1.0" encoding="UTF-8" standalone="no"?>
<svg width="500" height="500" viewBox="0 0 2074.000000 2074.000000" xmlns="http://www.w3.org/2000/svg">
<rect x="19.000000" y="19.000000" width="2036.000000" height="2036.000000" fill="black" />
<circle cx="1555.959961" cy="1492.959961" r="19.980000" fill="red">
  <title>Tokyo</title>
</circle><line x1="1213.959961" y1="1394.959961" x2="1555.959961" y2="1492.959961" stroke="red" stroke-width="6.660000" />
<circle cx="1706.959961" cy="1327.959961" r="19.980000" fill="red">
  <title>Mexico City</title>
</circle><line x1="1555.959961" y1="1492.959961" x2="1706.959961" y2="1327.959961" stroke="red" stroke-width="6.660000" />
<circle cx="1877.959961" cy="1165.959961" r="19.980000" fill="red">
  <title>Istanbul</title>
</circle><line x1="1706.959961" y1="1327.959961" x2="1877.959961" y2="1165.959961" stroke="red" stroke-width="6.660000" />
<circle cx="1479.959961" cy="846.960022" r="19.980000" fill="red">
  <title>Dhaka</title>
</circle><line x1="1877.959961" y1="1165.959961" x2="1479.959961" y2="846.960022" stroke="red" stroke-width="6.660000" />
<circle cx="1178.959961" cy="249.959991" r="19.980000" fill="red">
  <title>Delhi</title>
</circle><line x1="1479.959961" y1="846.960022" x2="1178.959961" y2="249.959991" stroke="red" stroke-width="6.660000" />
<circle cx="620.960022" cy="354.959991" r="19.980000" fill="red">
  <title>Manila</title>
</circle><line x1="1178.959961" y1="249.959991" x2="620.960022" y2="354.959991" stroke="red" stroke-width="6.660000" />
<circle cx="160.959991" cy="299.959991" r="19.980000" fill="red">
  <title>São Paulo</title>
</circle><line x1="620.960022" y1="354.959991" x2="160.959991" y2="299.959991" stroke="red" stroke-width="6.660000" />
<circle cx="290.959991" cy="498.959991" r="19.980000" fill="red">
  <title>Cairo</title>
</circle><line x1="160.959991" y1="299.959991" x2="290.959991" y2="498.959991" stroke="red" stroke-width="6.660000" />
<circle cx="627.960022" cy="488.959991" r="19.980000" fill="red">
  <title>Shanghai</title>
</circle><line x1="290.959991" y1="498.959991" x2="627.960022" y2="488.959991" stroke="red" stroke-width="6.660000" />
<circle cx="706.960022" cy="689.960022" r="19.980000" fill="red">
  <title>Osaka</title>
</circle><line x1="627.960022" y1="488.959991" x2="706.960022" y2="689.960022" stroke="red" stroke-width="6.660000" />
<circle cx="687.960022" cy="1138.959961" r="19.980000" fill="red">
  <title>New York</title>
</circle><line x1="706.960022" y1="689.960022" x2="687.960022" y2="1138.959961" stroke="red" stroke-width="6.660000" />
<circle cx="402.959991" cy="1547.959961" r="19.980000" fill="red">
  <title>Chongqing</title>
</circle><line x1="687.960022" y1="1138.959961" x2="402.959991" y2="1547.959961" stroke="red" stroke-width="6.660000" />
<circle cx="198.959991" cy="1709.959961" r="19.980000" fill="red">
  <title>Beijing</title>
</circle><line x1="402.959991" y1="1547.959961" x2="198.959991" y2="1709.959961" stroke="red" stroke-width="6.660000" />
<circle cx="229.959991" cy="1794.959961" r="19.980000" fill="red">
  <title>Karachi</title>
</circle><line x1="198.959991" y1="1709.959961" x2="229.959991" y2="1794.959961" stroke="red" stroke-width="6.660000" />
<circle cx="306.959991" cy="2036.959961" r="19.980000" fill="red">
  <title>Buenos Aires</title>
</circle><line x1="229.959991" y1="1794.959961" x2="306.959991" y2="2036.959961" stroke="red" stroke-width="6.660000" />
<circle cx="749.960022" cy="1781.959961" r="19.980000" fill="red">
  <title>Mumbai</title>
</circle><line x1="306.959991" y1="2036.959961" x2="749.960022" y2="1781.959961" stroke="red" stroke-width="6.660000" />
<circle cx="1213.959961" cy="1394.959961" r="19.980000" fill="red">
  <title>Kolkata</title>
</circle><line x1="749.960022" y1="1781.959961" x2="1213.959961" y2="1394.959961" stroke="red" stroke-width="6.660000" />
</svg>
