<?xml version="1.0" encoding="UTF-8" standalone="no"?>
<svg width="500" height="500" viewBox="0 0 2074.000000 2074.000000" xmlns="http://www.w3.org/2000/svg">
<rect x="19.000000" y="19.000000" width="2036.000000" height="2036.000000" fill="black" />
<circle cx="1329.959961" cy="1949.959961" r="19.980000" fill="red">
  <title>Tokyo</title>
</circle><line x1="1368.959961" y1="1864.959961" x2="1329.959961" y2="1949.959961" stroke="red" stroke-width="6.660000" />
<circle cx="1448.959961" cy="1987.959961" r="19.980000" fill="red">
  <title>Buenos Aires</title>
</circle><line x1="1329.959961" y1="1949.959961" x2="1448.959961" y2="1987.959961" stroke="red" stroke-width="6.660000" />
<circle cx="1472.959961" cy="1887.959961" r="19.980000" fill="red">
  <title>Shanghai</title>
</circle><line x1="1448.959961" y1="1987.959961" x2="1472.959961" y2="1887.959961" stroke="red" stroke-width="6.660000" />
<circle cx="1716.959961" cy="1833.959961" r="19.980000" fill="red">
  <title>Mexico City</title>
</circle><line x1="1472.959961" y1="1887.959961" x2="1716.959961" y2="1833.959961" stroke="red" stroke-width="6.660000" />
<circle cx="1810.959961" cy="1543.959961" r="19.980000" fill="red">
  <title>Chongqing</title>
</circle><line x1="1716.959961" y1="1833.959961" x2="1810.959961" y2="1543.959961" stroke="red" stroke-width="6.660000" />
<circle cx="1168.959961" cy="1452.959961" r="19.980000" fill="red">
  <title>Manila</title>
</circle><line x1="1810.959961" y1="1543.959961" x2="1168.959961" y2="1452.959961" stroke="red" stroke-width="6.660000" />
<circle cx="990.960022" cy="1119.959961" r="19.980000" fill="red">
  <title>Mumbai</title>
</circle><line x1="1168.959961" y1="1452.959961" x2="990.960022" y2="1119.959961" stroke="red" stroke-width="6.660000" />
<circle cx="1301.959961" cy="627.960022" r="19.980000" fill="red">
  <title>Rio de Janeiro</title>
</circle><line x1="990.960022" y1="1119.959961" x2="1301.959961" y2="627.960022" stroke="red" stroke-width="6.660000" />
<circle cx="1296.959961" cy="602.960022" r="19.980000" fill="red">
  <title>Lagos</title>
</circle><line x1="1301.959961" y1="627.960022" x2="1296.959961" y2="602.960022" stroke="red" stroke-width="6.660000" />
<circle cx="1453.959961" cy="454.959991" r="19.980000" fill="red">
  <title>Cairo</title>
</circle><line x1="1296.959961" y1="602.960022" x2="1453.959961" y2="454.959991" stroke="red" stroke-width="6.660000" />
<circle cx="1340.959961" cy="84.959999" r="19.980000" fill="red">
  <title>Kolkata</title>
</circle><line x1="1453.959961" y1="454.959991" x2="1340.959961" y2="84.959999" stroke="red" stroke-width="6.660000" />
<circle cx="1072.959961" cy="59.959999" r="19.980000" fill="red">
  <title>Osaka</title>
</circle><line x1="1340.959961" y1="84.959999" x2="1072.959961" y2="59.959999" stroke="red" stroke-width="6.660000" />
<circle cx="619.960022" cy="199.959991" r="19.980000" fill="red">
  <title>New York</title>
</circle><line x1="1072.959961" y1="59.959999" x2="619.960022" y2="199.959991" stroke="red" stroke-width="6.660000" />
<circle cx="757.960022" cy="629.960022" r="19.980000" fill="red">
  <title>Karachi</title>
</circle><line x1="619.960022" y1="199.959991" x2="757.960022" y2="629.960022" stroke="red" stroke-width="6.660000" />
<circle cx="150.959991" cy="1251.959961" r="19.980000" fill="red">
  <title>Delhi</title>
</circle><line x1="757.960022" y1="629.960022" x2="150.959991" y2="1251.959961" stroke="red" stroke-width="6.660000" />
<circle cx="792.960022" cy="1257.959961" r="19.980000" fill="red">
  <title>Istanbul</title>
</circle><line x1="150.959991" y1="1251.959961" x2="792.960022" y2="1257.959961" stroke="red" stroke-width="6.660000" />
<circle cx="919.960022" cy="1499.959961" r="19.980000" fill="red">
  <title>Dhaka</title>
</circle><line x1="792.960022" y1="1257.959961" x2="919.960022" y2="1499.959961" stroke="red" stroke-width="6.660000" />
<circle cx="1170.959961" cy="1693.959961" r="19.980000" fill="red">
  <title>Beijing</title>
</circle><line x1="919.960022" y1="1499.959961" x2="1170.959961" y2="1693.959961" stroke="red" stroke-width="6.660000" />
<circle cx="1368.959961" cy="1864.959961" r="19.980000" fill="red">
  <title>São Paulo</title>
</circle><line x1="1170.959961" y1="1693.959961" x2="1368.959961" y2="1864.959961" stroke="red" stroke-width="6.660000" />
</svg>
