<?xml version="1.0" encoding="UTF-8" standalone="no"?>
<svg width="500" height="500" viewBox="0 0 2074.000000 2074.000000" xmlns="http://www.w3.org/2000/svg">
<rect x="19.000000" y="19.000000" width="2036.000000" height="2036.000000" fill="black" />
<circle cx="1931.959961" cy="984.960022" r="19.980000" fill="red">
  <title>Tokyo</title>
</circle><line x1="1815.959961" y1="1335.959961" x2="1931.959961" y2="984.960022" stroke="red" stroke-width="6.660000" />
<circle cx="1442.959961" cy="274.959991" r="19.980000" fill="red">
  <title>Istanbul</title>
</circle><line x1="1931.959961" y1="984.960022" x2="1442.959961" y2="274.959991" stroke="red" stroke-width="6.660000" />
<circle cx="1113.959961" cy="675.960022" r="19.980000" fill="red">
  <title>Delhi</title>
</circle><line x1="1442.959961" y1="274.959991" x2="1113.959961" y2="675.960022" stroke="red" stroke-width="6.660000" />
<circle cx="680.960022" cy="298.959991" r="19.980000" fill="red">
  <title>Chongqing</title>
</circle><line x1="1113.959961" y1="675.960022" x2="680.960022" y2="298.959991" stroke="red" stroke-width="6.660000" />
<circle cx="656.960022" cy="755.960022" r="19.980000" fill="red">
  <title>Dhaka</title>
</circle><line x1="680.960022" y1="298.959991" x2="656.960022" y2="755.960022" stroke="red" stroke-width="6.660000" />
<circle cx="416.959991" cy="884.960022" r="19.980000" fill="red">
  <title>Shanghai</title>
</circle><line x1="656.960022" y1="755.960022" x2="416.959991" y2="884.960022" stroke="red" stroke-width="6.660000" />
<circle cx="1040.959961" cy="1181.959961" r="19.980000" fill="red">
  <title>Buenos Aires</title>
</circle><line x1="416.959991" y1="884.960022" x2="1040.959961" y2="1181.959961" stroke="red" stroke-width="6.660000" />
<circle cx="723.960022" cy="1541.959961" r="19.980000" fill="red">
  <title>Beijing</title>
</circle><line x1="1040.959961" y1="1181.959961" x2="723.960022" y2="1541.959961" stroke="red" stroke-width="6.660000" />
<circle cx="746.960022" cy="2032.959961" r="19.980000" fill="red">
  <title>Osaka</title>
</circle><line x1="723.960022" y1="1541.959961" x2="746.960022" y2="2032.959961" stroke="red" stroke-width="6.660000" />
<circle cx="912.960022" cy="1978.959961" r="19.980000" fill="red">
  <title>Cairo</title>
</circle><line x1="746.960022" y1="2032.959961" x2="912.960022" y2="1978.959961" stroke="red" stroke-width="6.660000" />
<circle cx="1068.959961" cy="1679.959961" r="19.980000" fill="red">
  <title>Mexico City</title>
</circle><line x1="912.960022" y1="1978.959961" x2="1068.959961" y2="1679.959961" stroke="red" stroke-width="6.660000" />
<circle cx="1378.959961" cy="1492.959961" r="19.980000" fill="red">
  <title>Karachi</title>
</circle><line x1="1068.959961" y1="1679.959961" x2="1378.959961" y2="1492.959961" stroke="red" stroke-width="6.660000" />
<circle cx="1636.959961" cy="1582.959961" r="19.980000" fill="red">
  <title>Mumbai</title>
</circle><line x1="1378.959961" y1="1492.959961" x2="1636.959961" y2="1582.959961" stroke="red" stroke-width="6.660000" />
<circle cx="1742.959961" cy="1778.959961" r="19.980000" fill="red">
  <title>São Paulo</title>
</circle><line x1="1636.959961" y1="1582.959961" x2="1742.959961" y2="1778.959961" stroke="red" stroke-width="6.660000" />
<circle cx="1817.959961" cy="1691.959961" r="19.980000" fill="red">
  <title>New York</title>
</circle><line x1="1742.959961" y1="1778.959961" x2="1817.959961" y2="1691.959961" stroke="red" stroke-width="6.660000" />
<circle cx="1815.959961" cy="1335.959961" r="19.980000" fill="red">
  <title>Kolkata</title>
</circle><line x1="1817.959961" y1="1691.959961" x2="1815.959961" y2="1335.959961" stroke="red" stroke-width="6.660000" />
</svg>
