<?xml version="1.0" encoding="UTF-8" standalone="no"?>
<svg width="500" height="500" viewBox="0 0 2074.000000 2074.000000" xmlns="http://www.w3.org/2000/svg">
<rect x="19.000000" y="19.000000" width="2036.000000" height="2036.000000" fill="black" />
<circle cx="1786.959961" cy="146.959991" r="19.980000" fill="red">
  <title>Tokyo</title>
</circle><line x1="209.959991" y1="271.959991" x2="1786.959961" y2="146.959991" stroke="red" stroke-width="6.660000" />
<circle cx="851.960022" cy="552.960022" r="19.980000" fill="red">
  <title>Delhi</title>
</circle><line x1="1786.959961" y1="146.959991" x2="851.960022" y2="552.960022" stroke="red" stroke-width="6.660000" />
<circle cx="110.959999" cy="920.960022" r="19.980000" fill="red">
  <title>São Paulo</title>
</circle><line x1="851.960022" y1="552.960022" x2="110.959999" y2="920.960022" stroke="red" stroke-width="6.660000" />
<circle cx="209.959991" cy="271.959991" r="19.980000" fill="red">
  <title>Shanghai</title>
</circle><line x1="110.959999" y1="920.960022" x2="209.959991" y2="271.959991" stroke="red" stroke-width="6.660000" />
</svg>
