<?xml version="1.0" encoding="UTF-8" standalone="no"?>
<svg width="500" height="500" viewBox="0 0 2074.000000 2074.000000" xmlns="http://www.w3.org/2000/svg">
<rect x="19.000000" y="19.000000" width="2036.000000" height="2036.000000" fill="black" />
<circle cx="1857.959961" cy="1442.959961" r="19.980000" fill="red">
  <title>Tokyo</title>
</circle><line x1="1526.959961" y1="649.960022" x2="1857.959961" y2="1442.959961" stroke="red" stroke-width="6.660000" />
<circle cx="1531.959961" cy="1920.959961" r="19.980000" fill="red">
  <title>São Paulo</title>
</circle><line x1="1857.959961" y1="1442.959961" x2="1531.959961" y2="1920.959961" stroke="red" stroke-width="6.660000" />
<circle cx="1057.959961" cy="1113.959961" r="19.980000" fill="red">
  <title>Mumbai</title>
</circle><line x1="1531.959961" y1="1920.959961" x2="1057.959961" y2="1113.959961" stroke="red" stroke-width="6.660000" />
<circle cx="468.959991" cy="1106.959961" r="19.980000" fill="red">
  <title>Beijing</title>
</circle><line x1="1057.959961" y1="1113.959961" x2="468.959991" y2="1106.959961" stroke="red" stroke-width="6.660000" />
<circle cx="43.959999" cy="1727.959961" r="19.980000" fill="red">
  <title>Cairo</title>
</circle><line x1="468.959991" y1="1106.959961" x2="43.959999" y2="1727.959961" stroke="red" stroke-width="6.660000" />
<circle cx="68.959999" cy="911.960022" r="19.980000" fill="red">
  <title>Mexico City</title>
</circle><line x1="43.959999" y1="1727.959961" x2="68.959999" y2="911.960022" stroke="red" stroke-width="6.660000" />
<circle cx="704.960022" cy="782.960022" r="19.980000" fill="red">
  <title>Dhaka</title>
</circle><line x1="68.959999" y1="911.960022" x2="704.960022" y2="782.960022" stroke="red" stroke-width="6.660000" />
<circle cx="1122.959961" cy="616.960022" r="19.980000" fill="red">
  <title>Shanghai</title>
</circle><line x1="704.960022" y1="782.960022" x2="1122.959961" y2="616.960022" stroke="red" stroke-width="6.660000" />
<circle cx="1353.959961" cy="611.960022" r="19.980000" fill="red">
  <title>Delhi</title>
</circle><line x1="1122.959961" y1="616.960022" x2="1353.959961" y2="611.960022" stroke="red" stroke-width="6.660000" />
<circle cx="1526.959961" cy="649.960022" r="19.980000" fill="red">
  <title>Osaka</title>
</circle><line x1="1353.959961" y1="611.960022" x2="1526.959961" y2="649.960022" stroke="red" stroke-width="6.660000" />
</svg>
