<?xml version="1.0" encoding="UTF-8" standalone="no"?>
<svg width="500" height="500" viewBox="0 0 2074.000000 2074.000000" xmlns="http://www.w3.org/2000/svg">
<rect x="19.000000" y="19.000000" width="2036.000000" height="2036.000000" fill="black" />
<circle cx="1868.959961" cy="467.959991" r="19.980000" fill="red">
  <title>Tokyo</title>
</circle><line x1="426.959991" y1="1791.959961" x2="1868.959961" y2="467.959991" stroke="red" stroke-width="6.660000" />
<circle cx="1921.959961" cy="1952.959961" r="19.980000" fill="red">
  <title>Shanghai</title>
</circle><line x1="1868.959961" y1="467.959991" x2="1921.959961" y2="1952.959961" stroke="red" stroke-width="6.660000" />
<circle cx="89.959999" cy="1836.959961" r="19.980000" fill="red">
  <title>Delhi</title>
</circle><line x1="1921.959961" y1="1952.959961" x2="89.959999" y2="1836.959961" stroke="red" stroke-width="6.660000" />
<circle cx="426.959991" cy="1791.959961" r="19.980000" fill="red">
  <title>São Paulo</title>
</circle><line x1="89.959999" y1="1836.959961" x2="426.959991" y2="1791.959961" stroke="red" stroke-width="6.660000" />
</svg>
