<?xml version="1.0" encoding="UTF-8" standalone="no"?>
<svg width="500" height="500" viewBox="0 0 2074.000000 2074.000000" xmlns="http://www.w3.org/2000/svg">
<rect x="19.000000" y="19.000000" width="2036.000000" height="2036.000000" fill="black" />
<circle cx="1161.959961" cy="1225.959961" r="19.980000" fill="red">
  <title>Tokyo</title>
</circle><line x1="913.960022" y1="1795.959961" x2="1161.959961" y2="1225.959961" stroke="red" stroke-width="6.660000" />
<circle cx="1255.959961" cy="1028.959961" r="19.980000" fill="red">
  <title>Mumbai</title>
</circle><line x1="1161.959961" y1="1225.959961" x2="1255.959961" y2="1028.959961" stroke="red" stroke-width="6.660000" />
<circle cx="1470.959961" cy="543.960022" r="19.980000" fill="red">
  <title>New York</title>
</circle><line x1="1255.959961" y1="1028.959961" x2="1470.959961" y2="543.960022" stroke="red" stroke-width="6.660000" />
<circle cx="1479.959961" cy="521.960022" r="19.980000" fill="red">
  <title>Osaka</title>
</circle><line x1="1470.959961" y1="543.960022" x2="1479.959961" y2="521.960022" stroke="red" stroke-width="6.660000" />
<circle cx="1745.959961" cy="522.960022" r="19.980000" fill="red">
  <title>Chongqing</title>
</circle><line x1="1479.959961" y1="521.960022" x2="1745.959961" y2="522.960022" stroke="red" stroke-width="6.660000" />
<circle cx="1914.959961" cy="298.959991" r="19.980000" fill="red">
  <title>Delhi</title>
</circle><line x1="1745.959961" y1="522.960022" x2="1914.959961" y2="298.959991" stroke="red" stroke-width="6.660000" />
<circle cx="2033.959961" cy="240.959991" r="19.980000" fill="red">
  <title>Dhaka</title>
</circle><line x1="1914.959961" y1="298.959991" x2="2033.959961" y2="240.959991" stroke="red" stroke-width="6.660000" />
<circle cx="1855.959961" cy="193.959991" r="19.980000" fill="red">
  <title>Istanbul</title>
</circle><line x1="2033.959961" y1="240.959991" x2="1855.959961" y2="193.959991" stroke="red" stroke-width="6.660000" />
<circle cx="1379.959961" cy="282.959991" r="19.980000" fill="red">
  <title>Manila</title>
</circle><line x1="1855.959961" y1="193.959991" x2="1379.959961" y2="282.959991" stroke="red" stroke-width="6.660000" />
<circle cx="1238.959961" cy="382.959991" r="19.980000" fill="red">
  <title>Lagos</title>
</circle><line x1="1379.959961" y1="282.959991" x2="1238.959961" y2="382.959991" stroke="red" stroke-width="6.660000" />
<circle cx="1198.959961" cy="497.959991" r="19.980000" fill="red">
  <title>Karachi</title>
</circle><line x1="1238.959961" y1="382.959991" x2="1198.959961" y2="497.959991" stroke="red" stroke-width="6.660000" />
<circle cx="1023.960022" cy="427.959991" r="19.980000" fill="red">
  <title>Buenos Aires</title>
</circle><line x1="1198.959961" y1="497.959991" x2="1023.960022" y2="427.959991" stroke="red" stroke-width="6.660000" />
<circle cx="530.960022" cy="387.959991" r="19.980000" fill="red">
  <title>Mexico City</title>
</circle><line x1="1023.960022" y1="427.959991" x2="530.960022" y2="387.959991" stroke="red" stroke-width="6.660000" />
<circle cx="406.959991" cy="979.960022" r="19.980000" fill="red">
  <title>Kolkata</title>
</circle><line x1="530.960022" y1="387.959991" x2="406.959991" y2="979.960022" stroke="red" stroke-width="6.660000" />
<circle cx="271.959991" cy="1757.959961" r="19.980000" fill="red">
  <title>Cairo</title>
</circle><line x1="406.959991" y1="979.960022" x2="271.959991" y2="1757.959961" stroke="red" stroke-width="6.660000" />
<circle cx="206.959991" cy="1994.959961" r="19.980000" fill="red">
  <title>Rio de Janeiro</title>
</circle><line x1="271.959991" y1="1757.959961" x2="206.959991" y2="1994.959961" stroke="red" stroke-width="6.660000" />
<circle cx="794.960022" cy="1716.959961" r="19.980000" fill="red">
  <title>São Paulo</title>
</circle><line x1="206.959991" y1="1994.959961" x2="794.960022" y2="1716.959961" stroke="red" stroke-width="6.660000" />
<circle cx="1040.959961" cy="1962.959961" r="19.980000" fill="red">
  <title>Shanghai</title>
</circle><line x1="794.960022" y1="1716.959961" x2="1040.959961" y2="1962.959961" stroke="red" stroke-width="6.660000" />
<circle cx="913.960022" cy="1795.959961" r="19.980000" fill="red">
  <title>Beijing</title>
</circle><line x1="1040.959961" y1="1962.959961" x2="913.960022" y2="1795.959961" stroke="red" stroke-width="6.660000" />
</svg>
