<?xml version="1.0" encoding="UTF-8" standalone="no"?>
<svg width="500" height="500" viewBox="0 0 2074.000000 2074.000000" xmlns="http://www.w3.org/2000/svg">
<rect x="19.000000" y="19.000000" width="2036.000000" height="2036.000000" fill="black" />
<circle cx="367.959991" cy="1341.959961" r="19.980000" fill="red">
  <title>Tokyo</title>
</circle><line x1="1085.959961" y1="919.960022" x2="367.959991" y2="1341.959961" stroke="red" stroke-width="6.660000" />
<circle cx="934.960022" cy="1841.959961" r="19.980000" fill="red">
  <title>Cairo</title>
</circle><line x1="367.959991" y1="1341.959961" x2="934.960022" y2="1841.959961" stroke="red" stroke-width="6.660000" />
<circle cx="1690.959961" cy="1429.959961" r="19.980000" fill="red">
  <title>Beijing</title>
</circle><line x1="934.960022" y1="1841.959961" x2="1690.959961" y2="1429.959961" stroke="red" stroke-width="6.660000" />
<circle cx="1963.959961" cy="1234.959961" r="19.980000" fill="red">
  <title>São Paulo</title>
</circle><line x1="1690.959961" y1="1429.959961" x2="1963.959961" y2="1234.959961" stroke="red" stroke-width="6.660000" />
<circle cx="1799.959961" cy="521.960022" r="19.980000" fill="red">
  <title>Mumbai</title>
</circle><line x1="1963.959961" y1="1234.959961" x2="1799.959961" y2="521.960022" stroke="red" stroke-width="6.660000" />
<circle cx="1989.959961" cy="129.959991" r="19.980000" fill="red">
  <title>Mexico City</title>
</circle><line x1="1799.959961" y1="521.960022" x2="1989.959961" y2="129.959991" stroke="red" stroke-width="6.660000" />
<circle cx="1833.959961" cy="419.959991" r="19.980000" fill="red">
  <title>Dhaka</title>
</circle><line x1="1989.959961" y1="129.959991" x2="1833.959961" y2="419.959991" stroke="red" stroke-width="6.660000" />
<circle cx="1561.959961" cy="469.959991" r="19.980000" fill="red">
  <title>Delhi</title>
</circle><line x1="1833.959961" y1="419.959991" x2="1561.959961" y2="469.959991" stroke="red" stroke-width="6.660000" />
<circle cx="1085.959961" cy="919.960022" r="19.980000" fill="red">
  <title>Shanghai</title>
</circle><line x1="1561.959961" y1="469.959991" x2="1085.959961" y2="919.960022" stroke="red" stroke-width="6.660000" />
</svg>
