<?xml version="1.0" encoding="UTF-8" standalone="no"?>
<svg width="500" height="500" viewBox="0 0 2074.000000 2074.000000" xmlns="http://www.w3.org/2000/svg">
<rect x="19.000000" y="19.000000" width="2036.000000" height="2036.000000" fill="black" />
<circle cx="1937.959961" cy="1775.959961" r="19.980000" fill="red">
  <title>Tokyo</title>
</circle><line x1="1128.959961" y1="1101.959961" x2="1937.959961" y2="1775.959961" stroke="red" stroke-width="6.660000" />
<circle cx="1499.959961" cy="666.960022" r="19.980000" fill="red">
  <title>Mexico City</title>
</circle><line x1="1937.959961" y1="1775.959961" x2="1499.959961" y2="666.960022" stroke="red" stroke-width="6.660000" />
<circle cx="1698.959961" cy="478.959991" r="19.980000" fill="red">
  <title>Cairo</title>
</circle><line x1="1499.959961" y1="666.960022" x2="1698.959961" y2="478.959991" stroke="red" stroke-width="6.660000" />
<circle cx="901.960022" cy="327.959991" r="19.980000" fill="red">
  <title>São Paulo</title>
</circle><line x1="1698.959961" y1="478.959991" x2="901.960022" y2="327.959991" stroke="red" stroke-width="6.660000" />
<circle cx="298.959991" cy="299.959991" r="19.980000" fill="red">
  <title>Shanghai</title>
</circle><line x1="901.960022" y1="327.959991" x2="298.959991" y2="299.959991" stroke="red" stroke-width="6.660000" />
<circle cx="448.959991" cy="616.960022" r="19.980000" fill="red">
  <title>Delhi</title>
</circle><line x1="298.959991" y1="299.959991" x2="448.959991" y2="616.960022" stroke="red" stroke-width="6.660000" />
<circle cx="1128.959961" cy="1101.959961" r="19.980000" fill="red">
  <title>Mumbai</title>
</circle><line x1="448.959991" y1="616.960022" x2="1128.959961" y2="1101.959961" stroke="red" stroke-width="6.660000" />
</svg>
