<?xml version="1.0" encoding="UTF-8" standalone="no"?>
<svg width="500" height="500" viewBox="0 0 2074.000000 2074.000000" xmlns="http://www.w3.org/2000/svg">
<rect x="19.000000" y="19.000000" width="2036.000000" height="2036.000000" fill="black" />
<circle cx="1140.959961" cy="1792.959961" r="19.980000" fill="red">
  <title>Tokyo</title>
</circle><line x1="910.960022" y1="1856.959961" x2="1140.959961" y2="1792.959961" stroke="red" stroke-width="6.660000" />
<circle cx="1567.959961" cy="2030.959961" r="19.980000" fill="red">
  <title>Cairo</title>
</circle><line x1="1140.959961" y1="1792.959961" x2="1567.959961" y2="2030.959961" stroke="red" stroke-width="6.660000" />
<circle cx="1248.959961" cy="1719.959961" r="19.980000" fill="red">
  <title>Lagos</title>
</circle><line x1="1567.959961" y1="2030.959961" x2="1248.959961" y2="1719.959961" stroke="red" stroke-width="6.660000" />
<circle cx="1335.959961" cy="1428.959961" r="19.980000" fill="red">
  <title>Istanbul</title>
</circle><line x1="1248.959961" y1="1719.959961" x2="1335.959961" y2="1428.959961" stroke="red" stroke-width="6.660000" />
<circle cx="1366.959961" cy="886.960022" r="19.980000" fill="red">
  <title>Karachi</title>
</circle><line x1="1335.959961" y1="1428.959961" x2="1366.959961" y2="886.960022" stroke="red" stroke-width="6.660000" />
<circle cx="1896.959961" cy="785.960022" r="19.980000" fill="red">
  <title>Chongqing</title>
</circle><line x1="1366.959961" y1="886.960022" x2="1896.959961" y2="785.960022" stroke="red" stroke-width="6.660000" />
<circle cx="2036.959961" cy="850.960022" r="19.980000" fill="red">
  <title>Delhi</title>
</circle><line x1="1896.959961" y1="785.960022" x2="2036.959961" y2="850.960022" stroke="red" stroke-width="6.660000" />
<circle cx="1722.959961" cy="556.960022" r="19.980000" fill="red">
  <title>New York</title>
</circle><line x1="2036.959961" y1="850.960022" x2="1722.959961" y2="556.960022" stroke="red" stroke-width="6.660000" />
<circle cx="1260.959961" cy="166.959991" r="19.980000" fill="red">
  <title>Buenos Aires</title>
</circle><line x1="1722.959961" y1="556.960022" x2="1260.959961" y2="166.959991" stroke="red" stroke-width="6.660000" />
<circle cx="1150.959961" cy="396.959991" r="19.980000" fill="red">
  <title>Mumbai</title>
</circle><line x1="1260.959961" y1="166.959991" x2="1150.959961" y2="396.959991" stroke="red" stroke-width="6.660000" />
<circle cx="616.960022" cy="437.959991" r="19.980000" fill="red">
  <title>Kolkata</title>
</circle><line x1="1150.959961" y1="396.959991" x2="616.960022" y2="437.959991" stroke="red" stroke-width="6.660000" />
<circle cx="1182.959961" cy="614.960022" r="19.980000" fill="red">
  <title>Manila</title>
</circle><line x1="616.960022" y1="437.959991" x2="1182.959961" y2="614.960022" stroke="red" stroke-width="6.660000" />
<circle cx="1124.959961" cy="1053.959961" r="19.980000" fill="red">
  <title>Mexico City</title>
</circle><line x1="1182.959961" y1="614.960022" x2="1124.959961" y2="1053.959961" stroke="red" stroke-width="6.660000" />
<circle cx="1085.959961" cy="1334.959961" r="19.980000" fill="red">
  <title>Osaka</title>
</circle><line x1="1124.959961" y1="1053.959961" x2="1085.959961" y2="1334.959961" stroke="red" stroke-width="6.660000" />
<circle cx="431.959991" cy="1453.959961" r="19.980000" fill="red">
  <title>São Paulo</title>
</circle><line x1="1085.959961" y1="1334.959961" x2="431.959991" y2="1453.959961" stroke="red" stroke-width="6.660000" />
<circle cx="130.959991" cy="1474.959961" r="19.980000" fill="red">
  <title>Beijing</title>
</circle><line x1="431.959991" y1="1453.959961" x2="130.959991" y2="1474.959961" stroke="red" stroke-width="6.660000" />
<circle cx="230.959991" cy="1641.959961" r="19.980000" fill="red">
  <title>Rio de Janeiro</title>
</circle><line x1="130.959991" y1="1474.959961" x2="230.959991" y2="1641.959961" stroke="red" stroke-width="6.660000" />
<circle cx="575.960022" cy="1654.959961" r="19.980000" fill="red">
  <title>Shanghai</title>
</circle><line x1="230.959991" y1="1641.959961" x2="575.960022" y2="1654.959961" stroke="red" stroke-width="6.660000" />
<circle cx="910.960022" cy="1856.959961" r="19.980000" fill="red">
  <title>Dhaka</title>
</circle><line x1="575.960022" y1="1654.959961" x2="910.960022" y2="1856.959961" stroke="red" stroke-width="6.660000" />
</svg>
