<?xml version="1.0" encoding="UTF-8" standalone="no"?>
<svg width="500" height="500" viewBox="0 0 2074.000000 2074.000000" xmlns="http://www.w3.org/2000/svg">
<rect x="19.000000" y="19.000000" width="2036.000000" height="2036.000000" fill="black" />
<circle cx="1345.959961" cy="1007.960022" r="19.980000" fill="red">
  <title>Tokyo</title>
</circle><line x1="1268.959961" y1="960.960022" x2="1345.959961" y2="1007.960022" stroke="red" stroke-width="6.660000" />
<circle cx="1392.959961" cy="1290.959961" r="19.980000" fill="red">
  <title>Beijing</title>
</circle><line x1="1345.959961" y1="1007.960022" x2="1392.959961" y2="1290.959961" stroke="red" stroke-width="6.660000" />
<circle cx="1628.959961" cy="1226.959961" r="19.980000" fill="red">
  <title>Cairo</title>
</circle><line x1="1392.959961" y1="1290.959961" x2="1628.959961" y2="1226.959961" stroke="red" stroke-width="6.660000" />
<circle cx="1949.959961" cy="1321.959961" r="19.980000" fill="red">
  <title>São Paulo</title>
</circle><line x1="1628.959961" y1="1226.959961" x2="1949.959961" y2="1321.959961" stroke="red" stroke-width="6.660000" />
<circle cx="2017.959961" cy="1421.959961" r="19.980000" fill="red">
  <title>Delhi</title>
</circle><line x1="1949.959961" y1="1321.959961" x2="2017.959961" y2="1421.959961" stroke="red" stroke-width="6.660000" />
<circle cx="1404.959961" cy="1439.959961" r="19.980000" fill="red">
  <title>Istanbul</title>
</circle><line x1="2017.959961" y1="1421.959961" x2="1404.959961" y2="1439.959961" stroke="red" stroke-width="6.660000" />
<circle cx="926.960022" cy="1957.959961" r="19.980000" fill="red">
  <title>Dhaka</title>
</circle><line x1="1404.959961" y1="1439.959961" x2="926.960022" y2="1957.959961" stroke="red" stroke-width="6.660000" />
<circle cx="269.959991" cy="1595.959961" r="19.980000" fill="red">
  <title>Osaka</title>
</circle><line x1="926.960022" y1="1957.959961" x2="269.959991" y2="1595.959961" stroke="red" stroke-width="6.660000" />
<circle cx="132.959991" cy="1335.959961" r="19.980000" fill="red">
  <title>Mumbai</title>
</circle><line x1="269.959991" y1="1595.959961" x2="132.959991" y2="1335.959961" stroke="red" stroke-width="6.660000" />
<circle cx="425.959991" cy="945.960022" r="19.980000" fill="red">
  <title>Buenos Aires</title>
</circle><line x1="132.959991" y1="1335.959961" x2="425.959991" y2="945.960022" stroke="red" stroke-width="6.660000" />
<circle cx="702.960022" cy="1216.959961" r="19.980000" fill="red">
  <title>Chongqing</title>
</circle><line x1="425.959991" y1="945.960022" x2="702.960022" y2="1216.959961" stroke="red" stroke-width="6.660000" />
<circle cx="768.960022" cy="712.960022" r="19.980000" fill="red">
  <title>Kolkata</title>
</circle><line x1="702.960022" y1="1216.959961" x2="768.960022" y2="712.960022" stroke="red" stroke-width="6.660000" />
<circle cx="1220.959961" cy="261.959991" r="19.980000" fill="red">
  <title>Mexico City</title>
</circle><line x1="768.960022" y1="712.960022" x2="1220.959961" y2="261.959991" stroke="red" stroke-width="6.660000" />
<circle cx="1342.959961" cy="319.959991" r="19.980000" fill="red">
  <title>Shanghai</title>
</circle><line x1="1220.959961" y1="261.959991" x2="1342.959961" y2="319.959991" stroke="red" stroke-width="6.660000" />
<circle cx="1411.959961" cy="351.959991" r="19.980000" fill="red">
  <title>Karachi</title>
</circle><line x1="1342.959961" y1="319.959991" x2="1411.959961" y2="351.959991" stroke="red" stroke-width="6.660000" />
<circle cx="1268.959961" cy="960.960022" r="19.980000" fill="red">
  <title>New York</title>
</circle><line x1="1411.959961" y1="351.959991" x2="1268.959961" y2="960.960022" stroke="red" stroke-width="6.660000" />
</svg>
