<?xml version="1.0" encoding="UTF-8" standalone="no"?>
<svg width="500" height="500" viewBox="0 0 2074.000000 2074.000000" xmlns="http://www.w3.org/2000/svg">
<rect x="19.000000" y="19.000000" width="2036.000000" height="2036.000000" fill="black" />
<circle cx="1053.959961" cy="94.959999" r="19.980000" fill="red">
  <title>Tokyo</title>
</circle><line x1="1849.959961" y1="595.960022" x2="1053.959961" y2="94.959999" stroke="red" stroke-width="6.660000" />
<circle cx="723.960022" cy="257.959991" r="19.980000" fill="red">
  <title>Delhi</title>
</circle><line x1="1053.959961" y1="94.959999" x2="723.960022" y2="257.959991" stroke="red" stroke-width="6.660000" />
<circle cx="756.960022" cy="579.960022" r="19.980000" fill="red">
  <title>Dhaka</title>
</circle><line x1="723.960022" y1="257.959991" x2="756.960022" y2="579.960022" stroke="red" stroke-width="6.660000" />
<circle cx="298.959991" cy="905.960022" r="19.980000" fill="red">
  <title>Mumbai</title>
</circle><line x1="756.960022" y1="579.960022" x2="298.959991" y2="905.960022" stroke="red" stroke-width="6.660000" />
<circle cx="427.959991" cy="1027.959961" r="19.980000" fill="red">
  <title>Mexico City</title>
</circle><line x1="298.959991" y1="905.960022" x2="427.959991" y2="1027.959961" stroke="red" stroke-width="6.660000" />
<circle cx="590.960022" cy="1306.959961" r="19.980000" fill="red">
  <title>São Paulo</title>
</circle><line x1="427.959991" y1="1027.959961" x2="590.960022" y2="1306.959961" stroke="red" stroke-width="6.660000" />
<circle cx="1826.959961" cy="834.960022" r="19.980000" fill="red">
  <title>Cairo</title>
</circle><line x1="590.960022" y1="1306.959961" x2="1826.959961" y2="834.960022" stroke="red" stroke-width="6.660000" />
<circle cx="1913.959961" cy="771.960022" r="19.980000" fill="red">
  <title>Beijing</title>
</circle><line x1="1826.959961" y1="834.960022" x2="1913.959961" y2="771.960022" stroke="red" stroke-width="6.660000" />
<circle cx="1849.959961" cy="595.960022" r="19.980000" fill="red">
  <title>Shanghai</title>
</circle><line x1="1913.959961" y1="771.960022" x2="1849.959961" y2="595.960022" stroke="red" stroke-width="6.660000" />
</svg>
