<?xml version="1.0" encoding="UTF-8" standalone="no"?>
<svg width="500" height="500" viewBox="0 0 2074.000000 2074.000000" xmlns="http://www.w3.org/2000/svg">
<rect x="19.000000" y="19.000000" width="2036.000000" height="2036.000000" fill="black" />
<circle cx="525.960022" cy="1327.959961" r="19.980000" fill="red">
  <title>Tokyo</title>
</circle><line x1="475.959991" y1="1323.959961" x2="525.960022" y2="1327.959961" stroke="red" stroke-width="6.660000" />
<circle cx="1325.959961" cy="1598.959961" r="19.980000" fill="red">
  <title>Delhi</title>
</circle><line x1="525.960022" y1="1327.959961" x2="1325.959961" y2="1598.959961" stroke="red" stroke-width="6.660000" />
<circle cx="927.960022" cy="1085.959961" r="19.980000" fill="red">
  <title>Mexico City</title>
</circle><line x1="1325.959961" y1="1598.959961" x2="927.960022" y2="1085.959961" stroke="red" stroke-width="6.660000" />
<circle cx="1339.959961" cy="242.959991" r="19.980000" fill="red">
  <title>São Paulo</title>
</circle><line x1="927.960022" y1="1085.959961" x2="1339.959961" y2="242.959991" stroke="red" stroke-width="6.660000" />
<circle cx="730.960022" cy="1020.960022" r="19.980000" fill="red">
  <title>Mumbai</title>
</circle><line x1="1339.959961" y1="242.959991" x2="730.960022" y2="1020.960022" stroke="red" stroke-width="6.660000" />
<circle cx="308.959991" cy="795.960022" r="19.980000" fill="red">
  <title>Shanghai</title>
</circle><line x1="730.960022" y1="1020.960022" x2="308.959991" y2="795.960022" stroke="red" stroke-width="6.660000" />
<circle cx="475.959991" cy="1323.959961" r="19.980000" fill="red">
  <title>Cairo</title>
</circle><line x1="308.959991" y1="795.960022" x2="475.959991" y2="1323.959961" stroke="red" stroke-width="6.660000" />
</svg>
