<?xml version="1.0" encoding="UTF-8" standalone="no"?>
<svg width="500" height="500" viewBox="0 0 2074.000000 2074.000000" xmlns="http://www.w3.org/2000/svg">
<rect x="19.000000" y="19.000000" width="2036.000000" height="2036.000000" fill="black" />
<circle cx="1624.959961" cy="631.960022" r="19.980000" fill="red">
  <title>Tokyo</title>
</circle><line x1="2006.959961" y1="1179.959961" x2="1624.959961" y2="631.960022" stroke="red" stroke-width="6.660000" />
<circle cx="1539.959961" cy="650.960022" r="19.980000" fill="red">
  <title>São Paulo</title>
</circle><line x1="1624.959961" y1="631.960022" x2="1539.959961" y2="650.960022" stroke="red" stroke-width="6.660000" />
<circle cx="1421.959961" cy="1183.959961" r="19.980000" fill="red">
  <title>Delhi</title>
</circle><line x1="1539.959961" y1="650.960022" x2="1421.959961" y2="1183.959961" stroke="red" stroke-width="6.660000" />
<circle cx="1409.959961" cy="1642.959961" r="19.980000" fill="red">
  <title>Shanghai</title>
</circle><line x1="1421.959961" y1="1183.959961" x2="1409.959961" y2="1642.959961" stroke="red" stroke-width="6.660000" />
<circle cx="1713.959961" cy="1252.959961" r="19.980000" fill="red">
  <title>Mexico City</title>
</circle><line x1="1409.959961" y1="1642.959961" x2="1713.959961" y2="1252.959961" stroke="red" stroke-width="6.660000" />
<circle cx="2006.959961" cy="1179.959961" r="19.980000" fill="red">
  <title>Cairo</title>
</circle><line x1="1713.959961" y1="1252.959961" x2="2006.959961" y2="1179.959961" stroke="red" stroke-width="6.660000" />
</svg>
