<?xml version="1.0" encoding="UTF-8" standalone="no"?>
<svg width="500" height="500" viewBox="0 0 2074.000000 2074.000000" xmlns="http://www.w3.org/2000/svg">
<rect x="19.000000" y="19.000000" width="2036.000000" height="2036.000000" fill="black" />
<circle cx="1090.959961" cy="1434.959961" r="19.980000" fill="red">
  <title>Tokyo</title>
</circle><line x1="499.959991" y1="1806.959961" x2="1090.959961" y2="1434.959961" stroke="red" stroke-width="6.660000" />
<circle cx="1352.959961" cy="1662.959961" r="19.980000" fill="red">
  <title>Delhi</title>
</circle><line x1="1090.959961" y1="1434.959961" x2="1352.959961" y2="1662.959961" stroke="red" stroke-width="6.660000" />
<circle cx="1455.959961" cy="1643.959961" r="19.980000" fill="red">
  <title>Beijing</title>
</circle><line x1="1352.959961" y1="1662.959961" x2="1455.959961" y2="1643.959961" stroke="red" stroke-width="6.660000" />
<circle cx="2029.959961" cy="625.960022" r="19.980000" fill="red">
  <title>São Paulo</title>
</circle><line x1="1455.959961" y1="1643.959961" x2="2029.959961" y2="625.960022" stroke="red" stroke-width="6.660000" />
<circle cx="1171.959961" cy="803.960022" r="19.980000" fill="red">
  <title>Cairo</title>
</circle><line x1="2029.959961" y1="625.960022" x2="1171.959961" y2="803.960022" stroke="red" stroke-width="6.660000" />
<circle cx="1084.959961" cy="572.960022" r="19.980000" fill="red">
  <title>Mumbai</title>
</circle><line x1="1171.959961" y1="803.960022" x2="1084.959961" y2="572.960022" stroke="red" stroke-width="6.660000" />
<circle cx="469.959991" cy="860.960022" r="19.980000" fill="red">
  <title>Dhaka</title>
</circle><line x1="1084.959961" y1="572.960022" x2="469.959991" y2="860.960022" stroke="red" stroke-width="6.660000" />
<circle cx="442.959991" cy="1380.959961" r="19.980000" fill="red">
  <title>Mexico City</title>
</circle><line x1="469.959991" y1="860.960022" x2="442.959991" y2="1380.959961" stroke="red" stroke-width="6.660000" />
<circle cx="499.959991" cy="1806.959961" r="19.980000" fill="red">
  <title>Shanghai</title>
</circle><line x1="442.959991" y1="1380.959961" x2="499.959991" y2="1806.959961" stroke="red" stroke-width="6.660000" />
</svg>
