<?xml version="1.0" encoding="UTF-8" standalone="no"?>
<svg width="500" height="500" viewBox="0 0 2074.000000 2074.000000" xmlns="http://www.w3.org/2000/svg">
<rect x="19.000000" y="19.000000" width="2036.000000" height="2036.000000" fill="black" />
<circle cx="231.959991" cy="1025.959961" r="19.980000" fill="red">
  <title>Tokyo</title>
</circle><line x1="87.959999" y1="206.959991" x2="231.959991" y2="1025.959961" stroke="red" stroke-width="6.660000" />
<circle cx="539.960022" cy="1193.959961" r="19.980000" fill="red">
  <title>Mumbai</title>
</circle><line x1="231.959991" y1="1025.959961" x2="539.960022" y2="1193.959961" stroke="red" stroke-width="6.660000" />
<circle cx="487.959991" cy="1489.959961" r="19.980000" fill="red">
  <title>Karachi</title>
</circle><line x1="539.960022" y1="1193.959961" x2="487.959991" y2="1489.959961" stroke="red" stroke-width="6.660000" />
<circle cx="716.960022" cy="1736.959961" r="19.980000" fill="red">
  <title>Beijing</title>
</circle><line x1="487.959991" y1="1489.959961" x2="716.960022" y2="1736.959961" stroke="red" stroke-width="6.660000" />
<circle cx="767.960022" cy="1628.959961" r="19.980000" fill="red">
  <title>São Paulo</title>
</circle><line x1="716.960022" y1="1736.959961" x2="767.960022" y2="1628.959961" stroke="red" stroke-width="6.660000" />
<circle cx="1273.959961" cy="1393.959961" r="19.980000" fill="red">
  <title>New York</title>
</circle><line x1="767.960022" y1="1628.959961" x2="1273.959961" y2="1393.959961" stroke="red" stroke-width="6.660000" />
<circle cx="1488.959961" cy="1881.959961" r="19.980000" fill="red">
  <title>Dhaka</title>
</circle><line x1="1273.959961" y1="1393.959961" x2="1488.959961" y2="1881.959961" stroke="red" stroke-width="6.660000" />
<circle cx="1653.959961" cy="1434.959961" r="19.980000" fill="red">
  <title>Osaka</title>
</circle><line x1="1488.959961" y1="1881.959961" x2="1653.959961" y2="1434.959961" stroke="red" stroke-width="6.660000" />
<circle cx="1894.959961" cy="412.959991" r="19.980000" fill="red">
  <title>Mexico City</title>
</circle><line x1="1653.959961" y1="1434.959961" x2="1894.959961" y2="412.959991" stroke="red" stroke-width="6.660000" />
<circle cx="1314.959961" cy="49.959999" r="19.980000" fill="red">
  <title>Shanghai</title>
</circle><line x1="1894.959961" y1="412.959991" x2="1314.959961" y2="49.959999" stroke="red" stroke-width="6.660000" />
<circle cx="1281.959961" cy="241.959991" r="19.980000" fill="red">
  <title>Delhi</title>
</circle><line x1="1314.959961" y1="49.959999" x2="1281.959961" y2="241.959991" stroke="red" stroke-width="6.660000" />
<circle cx="87.959999" cy="206.959991" r="19.980000" fill="red">
  <title>Cairo</title>
</circle><line x1="1281.959961" y1="241.959991" x2="87.959999" y2="206.959991" stroke="red" stroke-width="6.660000" />
</svg>
