<?xml version="1.0" encoding="UTF-8" standalone="no"?>
<svg width="500" height="500" viewBox="0 0 2074.000000 2074.000000" xmlns="http://www.w3.org/2000/svg">
<rect x="19.000000" y="19.000000" width="2036.000000" height="2036.000000" fill="black" />
<circle cx="1131.959961" cy="1239.959961" r="19.980000" fill="red">
  <title>Tokyo</title>
</circle><line x1="1371.959961" y1="1403.959961" x2="1131.959961" y2="1239.959961" stroke="red" stroke-width="6.660000" />
<circle cx="1049.959961" cy="765.960022" r="19.980000" fill="red">
  <title>Kolkata</title>
</circle><line x1="1131.959961" y1="1239.959961" x2="1049.959961" y2="765.960022" stroke="red" stroke-width="6.660000" />
<circle cx="1161.959961" cy="467.959991" r="19.980000" fill="red">
  <title>Delhi</title>
</circle><line x1="1049.959961" y1="765.960022" x2="1161.959961" y2="467.959991" stroke="red" stroke-width="6.660000" />
<circle cx="685.960022" cy="119.959999" r="19.980000" fill="red">
  <title>Mexico City</title>
</circle><line x1="1161.959961" y1="467.959991" x2="685.960022" y2="119.959999" stroke="red" stroke-width="6.660000" />
<circle cx="546.960022" cy="50.959999" r="19.980000" fill="red">
  <title>Beijing</title>
</circle><line x1="685.960022" y1="119.959999" x2="546.960022" y2="50.959999" stroke="red" stroke-width="6.660000" />
<circle cx="383.959991" cy="713.960022" r="19.980000" fill="red">
  <title>Karachi</title>
</circle><line x1="546.960022" y1="50.959999" x2="383.959991" y2="713.960022" stroke="red" stroke-width="6.660000" />
<circle cx="449.959991" cy="901.960022" r="19.980000" fill="red">
  <title>New York</title>
</circle><line x1="383.959991" y1="713.960022" x2="449.959991" y2="901.960022" stroke="red" stroke-width="6.660000" />
<circle cx="496.959991" cy="950.960022" r="19.980000" fill="red">
  <title>Buenos Aires</title>
</circle><line x1="449.959991" y1="901.960022" x2="496.959991" y2="950.960022" stroke="red" stroke-width="6.660000" />
<circle cx="566.960022" cy="1294.959961" r="19.980000" fill="red">
  <title>Osaka</title>
</circle><line x1="496.959991" y1="950.960022" x2="566.960022" y2="1294.959961" stroke="red" stroke-width="6.660000" />
<circle cx="376.959991" cy="1698.959961" r="19.980000" fill="red">
  <title>Shanghai</title>
</circle><line x1="566.960022" y1="1294.959961" x2="376.959991" y2="1698.959961" stroke="red" stroke-width="6.660000" />
<circle cx="897.960022" cy="1906.959961" r="19.980000" fill="red">
  <title>Mumbai</title>
</circle><line x1="376.959991" y1="1698.959961" x2="897.960022" y2="1906.959961" stroke="red" stroke-width="6.660000" />
<circle cx="1142.959961" cy="2023.959961" r="19.980000" fill="red">
  <title>Cairo</title>
</circle><line x1="897.960022" y1="1906.959961" x2="1142.959961" y2="2023.959961" stroke="red" stroke-width="6.660000" />
<circle cx="1563.959961" cy="1522.959961" r="19.980000" fill="red">
  <title>Chongqing</title>
</circle><line x1="1142.959961" y1="2023.959961" x2="1563.959961" y2="1522.959961" stroke="red" stroke-width="6.660000" />
<circle cx="1874.959961" cy="1363.959961" r="19.980000" fill="red">
  <title>Dhaka</title>
</circle><line x1="1563.959961" y1="1522.959961" x2="1874.959961" y2="1363.959961" stroke="red" stroke-width="6.660000" />
<circle cx="1672.959961" cy="1423.959961" r="19.980000" fill="red">
  <title>Istanbul</title>
</circle><line x1="1874.959961" y1="1363.959961" x2="1672.959961" y2="1423.959961" stroke="red" stroke-width="6.660000" />
<circle cx="1371.959961" cy="1403.959961" r="19.980000" fill="red">
  <title>São Paulo</title>
</circle><line x1="1672.959961" y1="1423.959961" x2="1371.959961" y2="1403.959961" stroke="red" stroke-width="6.660000" />
</svg>
