<?xml version="1.0" encoding="UTF-8" standalone="no"?>
<svg width="500" height="500" viewBox="0 0 2074.000000 2074.000000" xmlns="http://www.w3.org/2000/svg">
<rect x="19.000000" y="19.000000" width="2036.000000" height="2036.000000" fill="black" />
<circle cx="1607.959961" cy="1548.959961" r="19.980000" fill="red">
  <title>Tokyo</title>
</circle><line x1="1584.959961" y1="1678.959961" x2="1607.959961" y2="1548.959961" stroke="red" stroke-width="6.660000" />
<circle cx="1543.959961" cy="1213.959961" r="19.980000" fill="red">
  <title>Mexico City</title>
</circle><line x1="1607.959961" y1="1548.959961" x2="1543.959961" y2="1213.959961" stroke="red" stroke-width="6.660000" />
<circle cx="1717.959961" cy="1066.959961" r="19.980000" fill="red">
  <title>Kolkata</title>
</circle><line x1="1543.959961" y1="1213.959961" x2="1717.959961" y2="1066.959961" stroke="red" stroke-width="6.660000" />
<circle cx="1998.959961" cy="598.960022" r="19.980000" fill="red">
  <title>Delhi</title>
</circle><line x1="1717.959961" y1="1066.959961" x2="1998.959961" y2="598.960022" stroke="red" stroke-width="6.660000" />
<circle cx="1625.959961" cy="581.960022" r="19.980000" fill="red">
  <title>Lagos</title>
</circle><line x1="1998.959961" y1="598.960022" x2="1625.959961" y2="581.960022" stroke="red" stroke-width="6.660000" />
<circle cx="1464.959961" cy="280.959991" r="19.980000" fill="red">
  <title>New York</title>
</circle><line x1="1625.959961" y1="581.960022" x2="1464.959961" y2="280.959991" stroke="red" stroke-width="6.660000" />
<circle cx="1496.959961" cy="75.959999" r="19.980000" fill="red">
  <title>Istanbul</title>
</circle><line x1="1464.959961" y1="280.959991" x2="1496.959961" y2="75.959999" stroke="red" stroke-width="6.660000" />
<circle cx="1220.959961" cy="262.959991" r="19.980000" fill="red">
  <title>Karachi</title>
</circle><line x1="1496.959961" y1="75.959999" x2="1220.959961" y2="262.959991" stroke="red" stroke-width="6.660000" />
<circle cx="1258.959961" cy="536.960022" r="19.980000" fill="red">
  <title>Buenos Aires</title>
</circle><line x1="1220.959961" y1="262.959991" x2="1258.959961" y2="536.960022" stroke="red" stroke-width="6.660000" />
<circle cx="1152.959961" cy="918.960022" r="19.980000" fill="red">
  <title>São Paulo</title>
</circle><line x1="1258.959961" y1="536.960022" x2="1152.959961" y2="918.960022" stroke="red" stroke-width="6.660000" />
<circle cx="1035.959961" cy="488.959991" r="19.980000" fill="red">
  <title>Shanghai</title>
</circle><line x1="1152.959961" y1="918.960022" x2="1035.959961" y2="488.959991" stroke="red" stroke-width="6.660000" />
<circle cx="477.959991" cy="91.959999" r="19.980000" fill="red">
  <title>Mumbai</title>
</circle><line x1="1035.959961" y1="488.959991" x2="477.959991" y2="91.959999" stroke="red" stroke-width="6.660000" />
<circle cx="264.959991" cy="494.959991" r="19.980000" fill="red">
  <title>Dhaka</title>
</circle><line x1="477.959991" y1="91.959999" x2="264.959991" y2="494.959991" stroke="red" stroke-width="6.660000" />
<circle cx="129.959991" cy="740.960022" r="19.980000" fill="red">
  <title>Rio de Janeiro</title>
</circle><line x1="264.959991" y1="494.959991" x2="129.959991" y2="740.960022" stroke="red" stroke-width="6.660000" />
<circle cx="225.959991" cy="931.960022" r="19.980000" fill="red">
  <title>Osaka</title>
</circle><line x1="129.959991" y1="740.960022" x2="225.959991" y2="931.960022" stroke="red" stroke-width="6.660000" />
<circle cx="530.960022" cy="862.960022" r="19.980000" fill="red">
  <title>Cairo</title>
</circle><line x1="225.959991" y1="931.960022" x2="530.960022" y2="862.960022" stroke="red" stroke-width="6.660000" />
<circle cx="618.960022" cy="1789.959961" r="19.980000" fill="red">
  <title>Beijing</title>
</circle><line x1="530.960022" y1="862.960022" x2="618.960022" y2="1789.959961" stroke="red" stroke-width="6.660000" />
<circle cx="541.960022" cy="1899.959961" r="19.980000" fill="red">
  <title>Chongqing</title>
</circle><line x1="618.960022" y1="1789.959961" x2="541.960022" y2="1899.959961" stroke="red" stroke-width="6.660000" />
<circle cx="1584.959961" cy="1678.959961" r="19.980000" fill="red">
  <title>Manila</title>
</circle><line x1="541.960022" y1="1899.959961" x2="1584.959961" y2="1678.959961" stroke="red" stroke-width="6.660000" />
</svg>
