<?xml version="1.0" encoding="UTF-8" standalone="no"?>
<svg width="500" height="500" viewBox="0 0 2074.000000 2074.000000" xmlns="http://www.w3.org/2000/svg">
<rect x="19.000000" y="19.000000" width="2036.000000" height="2036.000000" fill="black" />
<circle cx="201.959991" cy="1445.959961" r="19.980000" fill="red">
  <title>Tokyo</title>
</circle><line x1="173.959991" y1="980.960022" x2="201.959991" y2="1445.959961" stroke="red" stroke-width="6.660000" />
<circle cx="350.959991" cy="1392.959961" r="19.980000" fill="red">
  <title>Dhaka</title>
</circle><line x1="201.959991" y1="1445.959961" x2="350.959991" y2="1392.959961" stroke="red" stroke-width="6.660000" />
<circle cx="635.960022" cy="1323.959961" r="19.980000" fill="red">
  <title>Manila</title>
</circle><line x1="350.959991" y1="1392.959961" x2="635.960022" y2="1323.959961" stroke="red" stroke-width="6.660000" />
<circle cx="742.960022" cy="1743.959961" r="19.980000" fill="red">
  <title>Mexico City</title>
</circle><line x1="635.960022" y1="1323.959961" x2="742.960022" y2="1743.959961" stroke="red" stroke-width="6.660000" />
<circle cx="1189.959961" cy="1847.959961" r="19.980000" fill="red">
  <title>Delhi</title>
</circle><line x1="742.960022" y1="1743.959961" x2="1189.959961" y2="1847.959961" stroke="red" stroke-width="6.660000" />
<circle cx="1644.959961" cy="1744.959961" r="19.980000" fill="red">
  <title>Osaka</title>
</circle><line x1="1189.959961" y1="1847.959961" x2="1644.959961" y2="1744.959961" stroke="red" stroke-width="6.660000" />
<circle cx="1733.959961" cy="1552.959961" r="19.980000" fill="red">
  <title>Rio de Janeiro</title>
</circle><line x1="1644.959961" y1="1744.959961" x2="1733.959961" y2="1552.959961" stroke="red" stroke-width="6.660000" />
<circle cx="1359.959961" cy="1763.959961" r="19.980000" fill="red">
  <title>Buenos Aires</title>
</circle><line x1="1733.959961" y1="1552.959961" x2="1359.959961" y2="1763.959961" stroke="red" stroke-width="6.660000" />
<circle cx="790.960022" cy="1356.959961" r="19.980000" fill="red">
  <title>Lagos</title>
</circle><line x1="1359.959961" y1="1763.959961" x2="790.960022" y2="1356.959961" stroke="red" stroke-width="6.660000" />
<circle cx="818.960022" cy="1228.959961" r="19.980000" fill="red">
  <title>Istanbul</title>
</circle><line x1="790.960022" y1="1356.959961" x2="818.960022" y2="1228.959961" stroke="red" stroke-width="6.660000" />
<circle cx="800.960022" cy="1155.959961" r="19.980000" fill="red">
  <title>São Paulo</title>
</circle><line x1="818.960022" y1="1228.959961" x2="800.960022" y2="1155.959961" stroke="red" stroke-width="6.660000" />
<circle cx="908.960022" cy="609.960022" r="19.980000" fill="red">
  <title>Cairo</title>
</circle><line x1="800.960022" y1="1155.959961" x2="908.960022" y2="609.960022" stroke="red" stroke-width="6.660000" />
<circle cx="1075.959961" cy="357.959991" r="19.980000" fill="red">
  <title>Karachi</title>
</circle><line x1="908.960022" y1="609.960022" x2="1075.959961" y2="357.959991" stroke="red" stroke-width="6.660000" />
<circle cx="1848.959961" cy="50.959999" r="19.980000" fill="red">
  <title>Beijing</title>
</circle><line x1="1075.959961" y1="357.959991" x2="1848.959961" y2="50.959999" stroke="red" stroke-width="6.660000" />
<circle cx="1514.959961" cy="100.959999" r="19.980000" fill="red">
  <title>New York</title>
</circle><line x1="1848.959961" y1="50.959999" x2="1514.959961" y2="100.959999" stroke="red" stroke-width="6.660000" />
<circle cx="939.960022" cy="89.959999" r="19.980000" fill="red">
  <title>Mumbai</title>
</circle><line x1="1514.959961" y1="100.959999" x2="939.960022" y2="89.959999" stroke="red" stroke-width="6.660000" />
<circle cx="745.960022" cy="177.959991" r="19.980000" fill="red">
  <title>Chongqing</title>
</circle><line x1="939.960022" y1="89.959999" x2="745.960022" y2="177.959991" stroke="red" stroke-width="6.660000" />
<circle cx="760.960022" cy="448.959991" r="19.980000" fill="red">
  <title>Shanghai</title>
</circle><line x1="745.960022" y1="177.959991" x2="760.960022" y2="448.959991" stroke="red" stroke-width="6.660000" />
<circle cx="474.959991" cy="437.959991" r="19.980000" fill="red">
  <title>Tianjin</title>
</circle><line x1="760.960022" y1="448.959991" x2="474.959991" y2="437.959991" stroke="red" stroke-width="6.660000" />
<circle cx="173.959991" cy="980.960022" r="19.980000" fill="red">
  <title>Kolkata</title>
</circle><line x1="474.959991" y1="437.959991" x2="173.959991" y2="980.960022" stroke="red" stroke-width="6.660000" />
</svg>
