<?xml version="1.0" encoding="UTF-8" standalone="no"?>
<svg width="500" height="500" viewBox="0 0 2074.000000 2074.000000" xmlns="http://www.w3.org/2000/svg">
<rect x="19.000000" y="19.000000" width="2036.000000" height="2036.000000" fill="black" />
<circle cx="884.960022" cy="1135.959961" r="19.980000" fill="red">
  <title>Tokyo</title>
</circle><line x1="1145.959961" y1="1298.959961" x2="884.960022" y2="1135.959961" stroke="red" stroke-width="6.660000" />
<circle cx="947.960022" cy="1461.959961" r="19.980000" fill="red">
  <title>Dhaka</title>
</circle><line x1="884.960022" y1="1135.959961" x2="947.960022" y2="1461.959961" stroke="red" stroke-width="6.660000" />
<circle cx="680.960022" cy="1964.959961" r="19.980000" fill="red">
  <title>Delhi</title>
</circle><line x1="947.960022" y1="1461.959961" x2="680.960022" y2="1964.959961" stroke="red" stroke-width="6.660000" />
<circle cx="323.959991" cy="1134.959961" r="19.980000" fill="red">
  <title>São Paulo</title>
</circle><line x1="680.960022" y1="1964.959961" x2="323.959991" y2="1134.959961" stroke="red" stroke-width="6.660000" />
<circle cx="96.959999" cy="1217.959961" r="19.980000" fill="red">
  <title>New York</title>
</circle><line x1="323.959991" y1="1134.959961" x2="96.959999" y2="1217.959961" stroke="red" stroke-width="6.660000" />
<circle cx="218.959991" cy="936.960022" r="19.980000" fill="red">
  <title>Beijing</title>
</circle><line x1="96.959999" y1="1217.959961" x2="218.959991" y2="936.960022" stroke="red" stroke-width="6.660000" />
<circle cx="236.959991" cy="112.959999" r="19.980000" fill="red">
  <title>Osaka</title>
</circle><line x1="218.959991" y1="936.960022" x2="236.959991" y2="112.959999" stroke="red" stroke-width="6.660000" />
<circle cx="326.959991" cy="91.959999" r="19.980000" fill="red">
  <title>Chongqing</title>
</circle><line x1="236.959991" y1="112.959999" x2="326.959991" y2="91.959999" stroke="red" stroke-width="6.660000" />
<circle cx="1691.959961" cy="419.959991" r="19.980000" fill="red">
  <title>Kolkata</title>
</circle><line x1="326.959991" y1="91.959999" x2="1691.959961" y2="419.959991" stroke="red" stroke-width="6.660000" />
<circle cx="1986.959961" cy="333.959991" r="19.980000" fill="red">
  <title>Manila</title>
</circle><line x1="1691.959961" y1="419.959991" x2="1986.959961" y2="333.959991" stroke="red" stroke-width="6.660000" />
<circle cx="1573.959961" cy="889.960022" r="19.980000" fill="red">
  <title>Istanbul</title>
</circle><line x1="1986.959961" y1="333.959991" x2="1573.959961" y2="889.960022" stroke="red" stroke-width="6.660000" />
<circle cx="1828.959961" cy="1117.959961" r="19.980000" fill="red">
  <title>Cairo</title>
</circle><line x1="1573.959961" y1="889.960022" x2="1828.959961" y2="1117.959961" stroke="red" stroke-width="6.660000" />
<circle cx="1709.959961" cy="1359.959961" r="19.980000" fill="red">
  <title>Mumbai</title>
</circle><line x1="1828.959961" y1="1117.959961" x2="1709.959961" y2="1359.959961" stroke="red" stroke-width="6.660000" />
<circle cx="1685.959961" cy="1515.959961" r="19.980000" fill="red">
  <title>Shanghai</title>
</circle><line x1="1709.959961" y1="1359.959961" x2="1685.959961" y2="1515.959961" stroke="red" stroke-width="6.660000" />
<circle cx="1667.959961" cy="1217.959961" r="19.980000" fill="red">
  <title>Buenos Aires</title>
</circle><line x1="1685.959961" y1="1515.959961" x2="1667.959961" y2="1217.959961" stroke="red" stroke-width="6.660000" />
<circle cx="1606.959961" cy="1180.959961" r="19.980000" fill="red">
  <title>Mexico City</title>
</circle><line x1="1667.959961" y1="1217.959961" x2="1606.959961" y2="1180.959961" stroke="red" stroke-width="6.660000" />
<circle cx="1145.959961" cy="1298.959961" r="19.980000" fill="red">
  <title>Karachi</title>
</circle><line x1="1606.959961" y1="1180.959961" x2="1145.959961" y2="1298.959961" stroke="red" stroke-width="6.660000" />
</svg>
