<?xml version="1.0" encoding="UTF-8" standalone="no"?>
<svg width="500" height="500" viewBox="0 0 2074.000000 2074.000000" xmlns="http://www.w3.org/2000/svg">
<rect x="19.000000" y="19.000000" width="2036.000000" height="2036.000000" fill="black" />
<circle cx="657.960022" cy="456.959991" r="19.980000" fill="red">
  <title>Tokyo</title>
</circle><line x1="481.959991" y1="527.960022" x2="657.960022" y2="456.959991" stroke="red" stroke-width="6.660000" />
<circle cx="1209.959961" cy="543.960022" r="19.980000" fill="red">
  <title>Delhi</title>
</circle><line x1="657.960022" y1="456.959991" x2="1209.959961" y2="543.960022" stroke="red" stroke-width="6.660000" />
<circle cx="1291.959961" cy="654.960022" r="19.980000" fill="red">
  <title>Shanghai</title>
</circle><line x1="1209.959961" y1="543.960022" x2="1291.959961" y2="654.960022" stroke="red" stroke-width="6.660000" />
<circle cx="1265.959961" cy="731.960022" r="19.980000" fill="red">
  <title>Mexico City</title>
</circle><line x1="1291.959961" y1="654.960022" x2="1265.959961" y2="731.960022" stroke="red" stroke-width="6.660000" />
<circle cx="2024.959961" cy="1765.959961" r="19.980000" fill="red">
  <title>Dhaka</title>
</circle><line x1="1265.959961" y1="731.960022" x2="2024.959961" y2="1765.959961" stroke="red" stroke-width="6.660000" />
<circle cx="1617.959961" cy="1960.959961" r="19.980000" fill="red">
  <title>São Paulo</title>
</circle><line x1="2024.959961" y1="1765.959961" x2="1617.959961" y2="1960.959961" stroke="red" stroke-width="6.660000" />
<circle cx="56.959999" cy="1457.959961" r="19.980000" fill="red">
  <title>Mumbai</title>
</circle><line x1="1617.959961" y1="1960.959961" x2="56.959999" y2="1457.959961" stroke="red" stroke-width="6.660000" />
<circle cx="242.959991" cy="1164.959961" r="19.980000" fill="red">
  <title>Cairo</title>
</circle><line x1="56.959999" y1="1457.959961" x2="242.959991" y2="1164.959961" stroke="red" stroke-width="6.660000" />
<circle cx="481.959991" cy="527.960022" r="19.980000" fill="red">
  <title>Beijing</title>
</circle><line x1="242.959991" y1="1164.959961" x2="481.959991" y2="527.960022" stroke="red" stroke-width="6.660000" />
</svg>
