<?xml version="1.0" encoding="UTF-8" standalone="no"?>
<svg width="500" height="500" viewBox="0 0 2074.000000 2074.000000" xmlns="http://www.w3.org/2000/svg">
<rect x="19.000000" y="19.000000" width="2036.000000" height="2036.000000" fill="black" />
<circle cx="1868.959961" cy="1520.959961" r="19.980000" fill="red">
  <title>Tokyo</title>
</circle><line x1="2001.959961" y1="1203.959961" x2="1868.959961" y2="1520.959961" stroke="red" stroke-width="6.660000" />
<circle cx="1359.959961" cy="1857.959961" r="19.980000" fill="red">
  <title>Delhi</title>
</circle><line x1="1868.959961" y1="1520.959961" x2="1359.959961" y2="1857.959961" stroke="red" stroke-width="6.660000" />
<circle cx="106.959999" cy="791.960022" r="19.980000" fill="red">
  <title>São Paulo</title>
</circle><line x1="1359.959961" y1="1857.959961" x2="106.959999" y2="791.960022" stroke="red" stroke-width="6.660000" />
<circle cx="2001.959961" cy="1203.959961" r="19.980000" fill="red">
  <title>Shanghai</title>
</circle><line x1="106.959999" y1="791.960022" x2="2001.959961" y2="1203.959961" stroke="red" stroke-width="6.660000" />
</svg>
