<?xml version="1.0" encoding="UTF-8" standalone="no"?>
<svg width="500" height="500" viewBox="0 0 2074.000000 2074.000000" xmlns="http://www.w3.org/2000/svg">
<rect x="19.000000" y="19.000000" width="2036.000000" height="2036.000000" fill="black" />
<circle cx="1711.959961" cy="1528.959961" r="19.980000" fill="red">
  <title>Tokyo</title>
</circle><line x1="1572.959961" y1="44.959999" x2="1711.959961" y2="1528.959961" stroke="red" stroke-width="6.660000" />
<circle cx="622.960022" cy="1480.959961" r="19.980000" fill="red">
  <title>Shanghai</title>
</circle><line x1="1711.959961" y1="1528.959961" x2="622.960022" y2="1480.959961" stroke="red" stroke-width="6.660000" />
<circle cx="369.959991" cy="1737.959961" r="19.980000" fill="red">
  <title>Mexico City</title>
</circle><line x1="622.960022" y1="1480.959961" x2="369.959991" y2="1737.959961" stroke="red" stroke-width="6.660000" />
<circle cx="716.960022" cy="1020.960022" r="19.980000" fill="red">
  <title>Delhi</title>
</circle><line x1="369.959991" y1="1737.959961" x2="716.960022" y2="1020.960022" stroke="red" stroke-width="6.660000" />
<circle cx="1572.959961" cy="44.959999" r="19.980000" fill="red">
  <title>São Paulo</title>
</circle><line x1="716.960022" y1="1020.960022" x2="1572.959961" y2="44.959999" stroke="red" stroke-width="6.660000" />
</svg>
