<?xml version="1.0" encoding="UTF-8" standalone="no"?>
<svg width="500" height="500" viewBox="0 0 2074.000000 2074.000000" xmlns="http://www.w3.org/2000/svg">
<rect x="19.000000" y="19.000000" width="2036.000000" height="2036.000000" fill="black" />
<circle cx="64.959999" cy="1688.959961" r="19.980000" fill="red">
  <title>Tokyo</title>
</circle><line x1="598.960022" y1="1394.959961" x2="64.959999" y2="1688.959961" stroke="red" stroke-width="6.660000" />
<circle cx="594.960022" cy="1997.959961" r="19.980000" fill="red">
  <title>Mexico City</title>
</circle><line x1="64.959999" y1="1688.959961" x2="594.960022" y2="1997.959961" stroke="red" stroke-width="6.660000" />
<circle cx="1146.959961" cy="1624.959961" r="19.980000" fill="red">
  <title>Mumbai</title>
</circle><line x1="594.960022" y1="1997.959961" x2="1146.959961" y2="1624.959961" stroke="red" stroke-width="6.660000" />
<circle cx="1560.959961" cy="1590.959961" r="19.980000" fill="red">
  <title>Lagos</title>
</circle><line x1="1146.959961" y1="1624.959961" x2="1560.959961" y2="1590.959961" stroke="red" stroke-width="6.660000" />
<circle cx="1449.959961" cy="1324.959961" r="19.980000" fill="red">
  <title>Delhi</title>
</circle><line x1="1560.959961" y1="1590.959961" x2="1449.959961" y2="1324.959961" stroke="red" stroke-width="6.660000" />
<circle cx="1378.959961" cy="1141.959961" r="19.980000" fill="red">
  <title>New York</title>
</circle><line x1="1449.959961" y1="1324.959961" x2="1378.959961" y2="1141.959961" stroke="red" stroke-width="6.660000" />
<circle cx="1697.959961" cy="1166.959961" r="19.980000" fill="red">
  <title>Osaka</title>
</circle><line x1="1378.959961" y1="1141.959961" x2="1697.959961" y2="1166.959961" stroke="red" stroke-width="6.660000" />
<circle cx="1897.959961" cy="991.960022" r="19.980000" fill="red">
  <title>Shanghai</title>
</circle><line x1="1697.959961" y1="1166.959961" x2="1897.959961" y2="991.960022" stroke="red" stroke-width="6.660000" />
<circle cx="1731.959961" cy="546.960022" r="19.980000" fill="red">
  <title>Manila</title>
</circle><line x1="1897.959961" y1="991.960022" x2="1731.959961" y2="546.960022" stroke="red" stroke-width="6.660000" />
<circle cx="1645.959961" cy="221.959991" r="19.980000" fill="red">
  <title>São Paulo</title>
</circle><line x1="1731.959961" y1="546.960022" x2="1645.959961" y2="221.959991" stroke="red" stroke-width="6.660000" />
<circle cx="1134.959961" cy="274.959991" r="19.980000" fill="red">
  <title>Kolkata</title>
</circle><line x1="1645.959961" y1="221.959991" x2="1134.959961" y2="274.959991" stroke="red" stroke-width="6.660000" />
<circle cx="813.960022" cy="446.959991" r="19.980000" fill="red">
  <title>Beijing</title>
</circle><line x1="1134.959961" y1="274.959991" x2="813.960022" y2="446.959991" stroke="red" stroke-width="6.660000" />
<circle cx="248.959991" cy="81.959999" r="19.980000" fill="red">
  <title>Istanbul</title>
</circle><line x1="813.960022" y1="446.959991" x2="248.959991" y2="81.959999" stroke="red" stroke-width="6.660000" />
<circle cx="274.959991" cy="866.960022" r="19.980000" fill="red">
  <title>Dhaka</title>
</circle><line x1="248.959991" y1="81.959999" x2="274.959991" y2="866.960022" stroke="red" stroke-width="6.660000" />
<circle cx="536.960022" cy="906.960022" r="19.980000" fill="red">
  <title>Cairo</title>
</circle><line x1="274.959991" y1="866.960022" x2="536.960022" y2="906.960022" stroke="red" stroke-width="6.660000" />
<circle cx="781.960022" cy="891.960022" r="19.980000" fill="red">
  <title>Karachi</title>
</circle><line x1="536.960022" y1="906.960022" x2="781.960022" y2="891.960022" stroke="red" stroke-width="6.660000" />
<circle cx="688.960022" cy="1038.959961" r="19.980000" fill="red">
  <title>Buenos Aires</title>
</circle><line x1="781.960022" y1="891.960022" x2="688.960022" y2="1038.959961" stroke="red" stroke-width="6.660000" />
<circle cx="598.960022" cy="1394.959961" r="19.980000" fill="red">
  <title>Chongqing</title>
</circle><line x1="688.960022" y1="1038.959961" x2="598.960022" y2="1394.959961" stroke="red" stroke-width="6.660000" />
</svg>
