<?xml version="1.0" encoding="UTF-8" standalone="no"?>
<svg width="500" height="500" viewBox="0 0 2074.000000 2074.000000" xmlns="http://www.w3.org/2000/svg">
<rect x="19.000000" y="19.000000" width="2036.000000" height="2036.000000" fill="black" />
<circle cx="84.959999" cy="1171.959961" r="19.980000" fill="red">
  <title>Tokyo</title>
</circle><line x1="349.959991" y1="1097.959961" x2="84.959999" y2="1171.959961" stroke="red" stroke-width="6.660000" />
<circle cx="190.959991" cy="1840.959961" r="19.980000" fill="red">
  <title>Mumbai</title>
</circle><line x1="84.959999" y1="1171.959961" x2="190.959991" y2="1840.959961" stroke="red" stroke-width="6.660000" />
<circle cx="638.960022" cy="1804.959961" r="19.980000" fill="red">
  <title>Osaka</title>
</circle><line x1="190.959991" y1="1840.959961" x2="638.960022" y2="1804.959961" stroke="red" stroke-width="6.660000" />
<circle cx="784.960022" cy="1971.959961" r="19.980000" fill="red">
  <title>Shanghai</title>
</circle><line x1="638.960022" y1="1804.959961" x2="784.960022" y2="1971.959961" stroke="red" stroke-width="6.660000" />
<circle cx="1709.959961" cy="1748.959961" r="19.980000" fill="red">
  <title>Beijing</title>
</circle><line x1="784.960022" y1="1971.959961" x2="1709.959961" y2="1748.959961" stroke="red" stroke-width="6.660000" />
<circle cx="1793.959961" cy="1257.959961" r="19.980000" fill="red">
  <title>Mexico City</title>
</circle><line x1="1709.959961" y1="1748.959961" x2="1793.959961" y2="1257.959961" stroke="red" stroke-width="6.660000" />
<circle cx="1895.959961" cy="180.959991" r="19.980000" fill="red">
  <title>Delhi</title>
</circle><line x1="1793.959961" y1="1257.959961" x2="1895.959961" y2="180.959991" stroke="red" stroke-width="6.660000" />
<circle cx="1200.959961" cy="279.959991" r="19.980000" fill="red">
  <title>São Paulo</title>
</circle><line x1="1895.959961" y1="180.959991" x2="1200.959961" y2="279.959991" stroke="red" stroke-width="6.660000" />
<circle cx="125.959999" cy="543.960022" r="19.980000" fill="red">
  <title>Cairo</title>
</circle><line x1="1200.959961" y1="279.959991" x2="125.959999" y2="543.960022" stroke="red" stroke-width="6.660000" />
<circle cx="302.959991" cy="989.960022" r="19.980000" fill="red">
  <title>New York</title>
</circle><line x1="125.959999" y1="543.960022" x2="302.959991" y2="989.960022" stroke="red" stroke-width="6.660000" />
<circle cx="349.959991" cy="1097.959961" r="19.980000" fill="red">
  <title>Dhaka</title>
</circle><line x1="302.959991" y1="989.960022" x2="349.959991" y2="1097.959961" stroke="red" stroke-width="6.660000" />
</svg>
