<?xml version="1.0" encoding="UTF-8" standalone="no"?>
<svg width="500" height="500" viewBox="0 0 2074.000000 2074.000000" xmlns="http://www.w3.org/2000/svg">
<rect x="19.000000" y="19.000000" width="2036.000000" height="2036.000000" fill="black" />
<circle cx="677.960022" cy="1982.959961" r="19.980000" fill="red">
  <title>Tokyo</title>
</circle><line x1="401.959991" y1="1130.959961" x2="677.960022" y2="1982.959961" stroke="red" stroke-width="6.660000" />
<circle cx="999.960022" cy="1480.959961" r="19.980000" fill="red">
  <title>Dhaka</title>
</circle><line x1="677.960022" y1="1982.959961" x2="999.960022" y2="1480.959961" stroke="red" stroke-width="6.660000" />
<circle cx="1933.959961" cy="2014.959961" r="19.980000" fill="red">
  <title>Osaka</title>
</circle><line x1="999.960022" y1="1480.959961" x2="1933.959961" y2="2014.959961" stroke="red" stroke-width="6.660000" />
<circle cx="1726.959961" cy="1264.959961" r="19.980000" fill="red">
  <title>Beijing</title>
</circle><line x1="1933.959961" y1="2014.959961" x2="1726.959961" y2="1264.959961" stroke="red" stroke-width="6.660000" />
<circle cx="1980.959961" cy="1148.959961" r="19.980000" fill="red">
  <title>Shanghai</title>
</circle><line x1="1726.959961" y1="1264.959961" x2="1980.959961" y2="1148.959961" stroke="red" stroke-width="6.660000" />
<circle cx="2020.959961" cy="763.960022" r="19.980000" fill="red">
  <title>Delhi</title>
</circle><line x1="1980.959961" y1="1148.959961" x2="2020.959961" y2="763.960022" stroke="red" stroke-width="6.660000" />
<circle cx="1045.959961" cy="779.960022" r="19.980000" fill="red">
  <title>Karachi</title>
</circle><line x1="2020.959961" y1="763.960022" x2="1045.959961" y2="779.960022" stroke="red" stroke-width="6.660000" />
<circle cx="746.960022" cy="774.960022" r="19.980000" fill="red">
  <title>Cairo</title>
</circle><line x1="1045.959961" y1="779.960022" x2="746.960022" y2="774.960022" stroke="red" stroke-width="6.660000" />
<circle cx="612.960022" cy="308.959991" r="19.980000" fill="red">
  <title>São Paulo</title>
</circle><line x1="746.960022" y1="774.960022" x2="612.960022" y2="308.959991" stroke="red" stroke-width="6.660000" />
<circle cx="460.959991" cy="262.959991" r="19.980000" fill="red">
  <title>New York</title>
</circle><line x1="612.960022" y1="308.959991" x2="460.959991" y2="262.959991" stroke="red" stroke-width="6.660000" />
<circle cx="44.959999" cy="157.959991" r="19.980000" fill="red">
  <title>Mexico City</title>
</circle><line x1="460.959991" y1="262.959991" x2="44.959999" y2="157.959991" stroke="red" stroke-width="6.660000" />
<circle cx="425.959991" cy="384.959991" r="19.980000" fill="red">
  <title>Mumbai</title>
</circle><line x1="44.959999" y1="157.959991" x2="425.959991" y2="384.959991" stroke="red" stroke-width="6.660000" />
<circle cx="401.959991" cy="1130.959961" r="19.980000" fill="red">
  <title>Buenos Aires</title>
</circle><line x1="425.959991" y1="384.959991" x2="401.959991" y2="1130.959961" stroke="red" stroke-width="6.660000" />
</svg>
