<?xml version="1.0" encoding="UTF-8" standalone="no"?>
<svg width="500" height="500" viewBox="0 0 2074.000000 2074.000000" xmlns="http://www.w3.org/2000/svg">
<rect x="19.000000" y="19.000000" width="2036.000000" height="2036.000000" fill="black" />
<circle cx="1180.959961" cy="1908.959961" r="19.980000" fill="red">
  <title>Tokyo</title>
</circle><line x1="370.959991" y1="1649.959961" x2="1180.959961" y2="1908.959961" stroke="red" stroke-width="6.660000" />
<circle cx="1320.959961" cy="1830.959961" r="19.980000" fill="red">
  <title>Dhaka</title>
</circle><line x1="1180.959961" y1="1908.959961" x2="1320.959961" y2="1830.959961" stroke="red" stroke-width="6.660000" />
<circle cx="1508.959961" cy="1488.959961" r="19.980000" fill="red">
  <title>Rio de Janeiro</title>
</circle><line x1="1320.959961" y1="1830.959961" x2="1508.959961" y2="1488.959961" stroke="red" stroke-width="6.660000" />
<circle cx="1849.959961" cy="1607.959961" r="19.980000" fill="red">
  <title>São Paulo</title>
</circle><line x1="1508.959961" y1="1488.959961" x2="1849.959961" y2="1607.959961" stroke="red" stroke-width="6.660000" />
<circle cx="2031.959961" cy="1652.959961" r="19.980000" fill="red">
  <title>Cairo</title>
</circle><line x1="1849.959961" y1="1607.959961" x2="2031.959961" y2="1652.959961" stroke="red" stroke-width="6.660000" />
<circle cx="1677.959961" cy="1451.959961" r="19.980000" fill="red">
  <title>Lagos</title>
</circle><line x1="2031.959961" y1="1652.959961" x2="1677.959961" y2="1451.959961" stroke="red" stroke-width="6.660000" />
<circle cx="1372.959961" cy="1046.959961" r="19.980000" fill="red">
  <title>Beijing</title>
</circle><line x1="1677.959961" y1="1451.959961" x2="1372.959961" y2="1046.959961" stroke="red" stroke-width="6.660000" />
<circle cx="1446.959961" cy="1021.960022" r="19.980000" fill="red">
  <title>Buenos Aires</title>
</circle><line x1="1372.959961" y1="1046.959961" x2="1446.959961" y2="1021.960022" stroke="red" stroke-width="6.660000" />
<circle cx="1691.959961" cy="290.959991" r="19.980000" fill="red">
  <title>Delhi</title>
</circle><line x1="1446.959961" y1="1021.960022" x2="1691.959961" y2="290.959991" stroke="red" stroke-width="6.660000" />
<circle cx="1574.959961" cy="109.959999" r="19.980000" fill="red">
  <title>New York</title>
</circle><line x1="1691.959961" y1="290.959991" x2="1574.959961" y2="109.959999" stroke="red" stroke-width="6.660000" />
<circle cx="1384.959961" cy="111.959999" r="19.980000" fill="red">
  <title>Manila</title>
</circle><line x1="1574.959961" y1="109.959999" x2="1384.959961" y2="111.959999" stroke="red" stroke-width="6.660000" />
<circle cx="803.960022" cy="81.959999" r="19.980000" fill="red">
  <title>Mumbai</title>
</circle><line x1="1384.959961" y1="111.959999" x2="803.960022" y2="81.959999" stroke="red" stroke-width="6.660000" />
<circle cx="505.959991" cy="361.959991" r="19.980000" fill="red">
  <title>Karachi</title>
</circle><line x1="803.960022" y1="81.959999" x2="505.959991" y2="361.959991" stroke="red" stroke-width="6.660000" />
<circle cx="804.960022" cy="579.960022" r="19.980000" fill="red">
  <title>Chongqing</title>
</circle><line x1="505.959991" y1="361.959991" x2="804.960022" y2="579.960022" stroke="red" stroke-width="6.660000" />
<circle cx="783.960022" cy="1280.959961" r="19.980000" fill="red">
  <title>Osaka</title>
</circle><line x1="804.960022" y1="579.960022" x2="783.960022" y2="1280.959961" stroke="red" stroke-width="6.660000" />
<circle cx="457.959991" cy="1426.959961" r="19.980000" fill="red">
  <title>Kolkata</title>
</circle><line x1="783.960022" y1="1280.959961" x2="457.959991" y2="1426.959961" stroke="red" stroke-width="6.660000" />
<circle cx="105.959999" cy="1435.959961" r="19.980000" fill="red">
  <title>Shanghai</title>
</circle><line x1="457.959991" y1="1426.959961" x2="105.959999" y2="1435.959961" stroke="red" stroke-width="6.660000" />
<circle cx="284.959991" cy="1514.959961" r="19.980000" fill="red">
  <title>Istanbul</title>
</circle><line x1="105.959999" y1="1435.959961" x2="284.959991" y2="1514.959961" stroke="red" stroke-width="6.660000" />
<circle cx="370.959991" cy="1649.959961" r="19.980000" fill="red">
  <title>Mexico City</title>
</circle><line x1="284.959991" y1="1514.959961" x2="370.959991" y2="1649.959961" stroke="red" stroke-width="6.660000" />
</svg>
