<?xml version="1.0" encoding="UTF-8" standalone="no"?>
<svg width="500" height="500" viewBox="0 0 2074.000000 2074.000000" xmlns="http://www.w3.org/2000/svg">
<rect x="19.000000" y="19.000000" width="2036.000000" height="2036.000000" fill="black" />
<circle cx="1301.959961" cy="402.959991" r="19.980000" fill="red">
  <title>Tokyo</title>
</circle><line x1="1236.959961" y1="578.960022" x2="1301.959961" y2="402.959991" stroke="red" stroke-width="6.660000" />
<circle cx="1890.959961" cy="553.960022" r="19.980000" fill="red">
  <title>Delhi</title>
</circle><line x1="1301.959961" y1="402.959991" x2="1890.959961" y2="553.960022" stroke="red" stroke-width="6.660000" />
<circle cx="1931.959961" cy="1481.959961" r="19.980000" fill="red">
  <title>Mexico City</title>
</circle><line x1="1890.959961" y1="553.960022" x2="1931.959961" y2="1481.959961" stroke="red" stroke-width="6.660000" />
<circle cx="1959.959961" cy="1948.959961" r="19.980000" fill="red">
  <title>Beijing</title>
</circle><line x1="1931.959961" y1="1481.959961" x2="1959.959961" y2="1948.959961" stroke="red" stroke-width="6.660000" />
<circle cx="1399.959961" cy="939.960022" r="19.980000" fill="red">
  <title>Shanghai</title>
</circle><line x1="1959.959961" y1="1948.959961" x2="1399.959961" y2="939.960022" stroke="red" stroke-width="6.660000" />
<circle cx="49.959999" cy="1462.959961" r="19.980000" fill="red">
  <title>Mumbai</title>
</circle><line x1="1399.959961" y1="939.960022" x2="49.959999" y2="1462.959961" stroke="red" stroke-width="6.660000" />
<circle cx="536.960022" cy="280.959991" r="19.980000" fill="red">
  <title>Dhaka</title>
</circle><line x1="49.959999" y1="1462.959961" x2="536.960022" y2="280.959991" stroke="red" stroke-width="6.660000" />
<circle cx="1031.959961" cy="368.959991" r="19.980000" fill="red">
  <title>São Paulo</title>
</circle><line x1="536.960022" y1="280.959991" x2="1031.959961" y2="368.959991" stroke="red" stroke-width="6.660000" />
<circle cx="1236.959961" cy="578.960022" r="19.980000" fill="red">
  <title>Cairo</title>
</circle><line x1="1031.959961" y1="368.959991" x2="1236.959961" y2="578.960022" stroke="red" stroke-width="6.660000" />
</svg>
