<?xml version="1.0" encoding="UTF-8" standalone="no"?>
<svg width="500" height="500" viewBox="0 0 2074.000000 2074.000000" xmlns="http://www.w3.org/2000/svg">
<rect x="19.000000" y="19.000000" width="2036.000000" height="2036.000000" fill="black" />
<circle cx="1115.959961" cy="1224.959961" r="19.980000" fill="red">
  <title>Tokyo</title>
</circle><line x1="1783.959961" y1="1339.959961" x2="1115.959961" y2="1224.959961" stroke="red" stroke-width="6.660000" />
<circle cx="986.960022" cy="1093.959961" r="19.980000" fill="red">
  <title>Delhi</title>
</circle><line x1="1115.959961" y1="1224.959961" x2="986.960022" y2="1093.959961" stroke="red" stroke-width="6.660000" />
<circle cx="1441.959961" cy="765.960022" r="19.980000" fill="red">
  <title>Mumbai</title>
</circle><line x1="986.960022" y1="1093.959961" x2="1441.959961" y2="765.960022" stroke="red" stroke-width="6.660000" />
<circle cx="1608.959961" cy="728.960022" r="19.980000" fill="red">
  <title>São Paulo</title>
</circle><line x1="1441.959961" y1="765.960022" x2="1608.959961" y2="728.960022" stroke="red" stroke-width="6.660000" />
<circle cx="1227.959961" cy="280.959991" r="19.980000" fill="red">
  <title>New York</title>
</circle><line x1="1608.959961" y1="728.960022" x2="1227.959961" y2="280.959991" stroke="red" stroke-width="6.660000" />
<circle cx="1181.959961" cy="173.959991" r="19.980000" fill="red">
  <title>Osaka</title>
</circle><line x1="1227.959961" y1="280.959991" x2="1181.959961" y2="173.959991" stroke="red" stroke-width="6.660000" />
<circle cx="930.960022" cy="642.960022" r="19.980000" fill="red">
  <title>Mexico City</title>
</circle><line x1="1181.959961" y1="173.959991" x2="930.960022" y2="642.960022" stroke="red" stroke-width="6.660000" />
<circle cx="867.960022" cy="660.960022" r="19.980000" fill="red">
  <title>Karachi</title>
</circle><line x1="930.960022" y1="642.960022" x2="867.960022" y2="660.960022" stroke="red" stroke-width="6.660000" />
<circle cx="224.959991" cy="864.960022" r="19.980000" fill="red">
  <title>Buenos Aires</title>
</circle><line x1="867.960022" y1="660.960022" x2="224.959991" y2="864.960022" stroke="red" stroke-width="6.660000" />
<circle cx="564.960022" cy="1294.959961" r="19.980000" fill="red">
  <title>Shanghai</title>
</circle><line x1="224.959991" y1="864.960022" x2="564.960022" y2="1294.959961" stroke="red" stroke-width="6.660000" />
<circle cx="614.960022" cy="2007.959961" r="19.980000" fill="red">
  <title>Istanbul</title>
</circle><line x1="564.960022" y1="1294.959961" x2="614.960022" y2="2007.959961" stroke="red" stroke-width="6.660000" />
<circle cx="701.960022" cy="2016.959961" r="19.980000" fill="red">
  <title>Chongqing</title>
</circle><line x1="614.960022" y1="2007.959961" x2="701.960022" y2="2016.959961" stroke="red" stroke-width="6.660000" />
<circle cx="1523.959961" cy="1691.959961" r="19.980000" fill="red">
  <title>Kolkata</title>
</circle><line x1="701.960022" y1="2016.959961" x2="1523.959961" y2="1691.959961" stroke="red" stroke-width="6.660000" />
<circle cx="1834.959961" cy="1793.959961" r="19.980000" fill="red">
  <title>Beijing</title>
</circle><line x1="1523.959961" y1="1691.959961" x2="1834.959961" y2="1793.959961" stroke="red" stroke-width="6.660000" />
<circle cx="1942.959961" cy="1610.959961" r="19.980000" fill="red">
  <title>Dhaka</title>
</circle><line x1="1834.959961" y1="1793.959961" x2="1942.959961" y2="1610.959961" stroke="red" stroke-width="6.660000" />
<circle cx="1783.959961" cy="1339.959961" r="19.980000" fill="red">
  <title>Cairo</title>
</circle><line x1="1942.959961" y1="1610.959961" x2="1783.959961" y2="1339.959961" stroke="red" stroke-width="6.660000" />
</svg>
