<?xml version="1.0" encoding="UTF-8" standalone="no"?>
<svg width="500" height="500" viewBox="0 0 2074.000000 2074.000000" xmlns="http://www.w3.org/2000/svg">
<rect x="19.000000" y="19.000000" width="2036.000000" height="2036.000000" fill="black" />
<circle cx="767.960022" cy="1798.959961" r="19.980000" fill="red">
  <title>Tokyo</title>
</circle><line x1="1067.959961" y1="1991.959961" x2="767.960022" y2="1798.959961" stroke="red" stroke-width="6.660000" />
<circle cx="75.959999" cy="1910.959961" r="19.980000" fill="red">
  <title>Delhi</title>
</circle><line x1="767.960022" y1="1798.959961" x2="75.959999" y2="1910.959961" stroke="red" stroke-width="6.660000" />
<circle cx="166.959991" cy="1673.959961" r="19.980000" fill="red">
  <title>Mexico City</title>
</circle><line x1="75.959999" y1="1910.959961" x2="166.959991" y2="1673.959961" stroke="red" stroke-width="6.660000" />
<circle cx="1089.959961" cy="39.959999" r="19.980000" fill="red">
  <title>São Paulo</title>
</circle><line x1="166.959991" y1="1673.959961" x2="1089.959961" y2="39.959999" stroke="red" stroke-width="6.660000" />
<circle cx="1953.959961" cy="1189.959961" r="19.980000" fill="red">
  <title>Shanghai</title>
</circle><line x1="1089.959961" y1="39.959999" x2="1953.959961" y2="1189.959961" stroke="red" stroke-width="6.660000" />
<circle cx="1637.959961" cy="2023.959961" r="19.980000" fill="red">
  <title>Cairo</title>
</circle><line x1="1953.959961" y1="1189.959961" x2="1637.959961" y2="2023.959961" stroke="red" stroke-width="6.660000" />
<circle cx="1067.959961" cy="1991.959961" r="19.980000" fill="red">
  <title>Mumbai</title>
</circle><line x1="1637.959961" y1="2023.959961" x2="1067.959961" y2="1991.959961" stroke="red" stroke-width="6.660000" />
</svg>
