<?xml version="1.0" encoding="UTF-8" standalone="no"?>
<svg width="500" height="500" viewBox="0 0 2074.000000 2074.000000" xmlns="http://www.w3.org/2000/svg">
<rect x="19.000000" y="19.000000" width="2036.000000" height="2036.000000" fill="black" />
<circle cx="503.959991" cy="703.960022" r="19.980000" fill="red">
  <title>Tokyo</title>
</circle><line x1="336.959991" y1="748.960022" x2="503.959991" y2="703.960022" stroke="red" stroke-width="6.660000" />
<circle cx="582.960022" cy="435.959991" r="19.980000" fill="red">
  <title>Delhi</title>
</circle><line x1="503.959991" y1="703.960022" x2="582.960022" y2="435.959991" stroke="red" stroke-width="6.660000" />
<circle cx="273.959991" cy="179.959991" r="19.980000" fill="red">
  <title>Mexico City</title>
</circle><line x1="582.960022" y1="435.959991" x2="273.959991" y2="179.959991" stroke="red" stroke-width="6.660000" />
<circle cx="631.960022" cy="413.959991" r="19.980000" fill="red">
  <title>Cairo</title>
</circle><line x1="273.959991" y1="179.959991" x2="631.960022" y2="413.959991" stroke="red" stroke-width="6.660000" />
<circle cx="1061.959961" cy="402.959991" r="19.980000" fill="red">
  <title>Mumbai</title>
</circle><line x1="631.960022" y1="413.959991" x2="1061.959961" y2="402.959991" stroke="red" stroke-width="6.660000" />
<circle cx="934.960022" cy="512.960022" r="19.980000" fill="red">
  <title>New York</title>
</circle><line x1="1061.959961" y1="402.959991" x2="934.960022" y2="512.960022" stroke="red" stroke-width="6.660000" />
<circle cx="848.960022" cy="813.960022" r="19.980000" fill="red">
  <title>São Paulo</title>
</circle><line x1="934.960022" y1="512.960022" x2="848.960022" y2="813.960022" stroke="red" stroke-width="6.660000" />
<circle cx="497.959991" cy="899.960022" r="19.980000" fill="red">
  <title>Beijing</title>
</circle><line x1="848.960022" y1="813.960022" x2="497.959991" y2="899.960022" stroke="red" stroke-width="6.660000" />
<circle cx="536.960022" cy="1136.959961" r="19.980000" fill="red">
  <title>Osaka</title>
</circle><line x1="497.959991" y1="899.960022" x2="536.960022" y2="1136.959961" stroke="red" stroke-width="6.660000" />
<circle cx="125.959999" cy="986.960022" r="19.980000" fill="red">
  <title>Shanghai</title>
</circle><line x1="536.960022" y1="1136.959961" x2="125.959999" y2="986.960022" stroke="red" stroke-width="6.660000" />
<circle cx="336.959991" cy="748.960022" r="19.980000" fill="red">
  <title>Dhaka</title>
</circle><line x1="125.959999" y1="986.960022" x2="336.959991" y2="748.960022" stroke="red" stroke-width="6.660000" />
</svg>
