<?xml version="1.0" encoding="UTF-8" standalone="no"?>
<svg width="500" height="500" viewBox="0 0 2074.000000 2074.000000" xmlns="http://www.w3.org/2000/svg">
<rect x="19.000000" y="19.000000" width="2036.000000" height="2036.000000" fill="black" />
<circle cx="1996.959961" cy="2014.959961" r="19.980000" fill="red">
  <title>Tokyo</title>
</circle><line x1="1994.959961" y1="1247.959961" x2="1996.959961" y2="2014.959961" stroke="red" stroke-width="6.660000" />
<circle cx="1611.959961" cy="1692.959961" r="19.980000" fill="red">
  <title>Dhaka</title>
</circle><line x1="1996.959961" y1="2014.959961" x2="1611.959961" y2="1692.959961" stroke="red" stroke-width="6.660000" />
<circle cx="1275.959961" cy="1229.959961" r="19.980000" fill="red">
  <title>Chongqing</title>
</circle><line x1="1611.959961" y1="1692.959961" x2="1275.959961" y2="1229.959961" stroke="red" stroke-width="6.660000" />
<circle cx="914.960022" cy="1573.959961" r="19.980000" fill="red">
  <title>Osaka</title>
</circle><line x1="1275.959961" y1="1229.959961" x2="914.960022" y2="1573.959961" stroke="red" stroke-width="6.660000" />
<circle cx="934.960022" cy="1728.959961" r="19.980000" fill="red">
  <title>Karachi</title>
</circle><line x1="914.960022" y1="1573.959961" x2="934.960022" y2="1728.959961" stroke="red" stroke-width="6.660000" />
<circle cx="761.960022" cy="1763.959961" r="19.980000" fill="red">
  <title>Manila</title>
</circle><line x1="934.960022" y1="1728.959961" x2="761.960022" y2="1763.959961" stroke="red" stroke-width="6.660000" />
<circle cx="48.959999" cy="1595.959961" r="19.980000" fill="red">
  <title>Cairo</title>
</circle><line x1="761.960022" y1="1763.959961" x2="48.959999" y2="1595.959961" stroke="red" stroke-width="6.660000" />
<circle cx="115.959999" cy="785.960022" r="19.980000" fill="red">
  <title>Istanbul</title>
</circle><line x1="48.959999" y1="1595.959961" x2="115.959999" y2="785.960022" stroke="red" stroke-width="6.660000" />
<circle cx="374.959991" cy="831.960022" r="19.980000" fill="red">
  <title>Shanghai</title>
</circle><line x1="115.959999" y1="785.960022" x2="374.959991" y2="831.960022" stroke="red" stroke-width="6.660000" />
<circle cx="912.960022" cy="547.960022" r="19.980000" fill="red">
  <title>Buenos Aires</title>
</circle><line x1="374.959991" y1="831.960022" x2="912.960022" y2="547.960022" stroke="red" stroke-width="6.660000" />
<circle cx="920.960022" cy="188.959991" r="19.980000" fill="red">
  <title>Delhi</title>
</circle><line x1="912.960022" y1="547.960022" x2="920.960022" y2="188.959991" stroke="red" stroke-width="6.660000" />
<circle cx="882.960022" cy="73.959999" r="19.980000" fill="red">
  <title>Kolkata</title>
</circle><line x1="920.960022" y1="188.959991" x2="882.960022" y2="73.959999" stroke="red" stroke-width="6.660000" />
<circle cx="991.960022" cy="286.959991" r="19.980000" fill="red">
  <title>Mumbai</title>
</circle><line x1="882.960022" y1="73.959999" x2="991.960022" y2="286.959991" stroke="red" stroke-width="6.660000" />
<circle cx="1241.959961" cy="572.960022" r="19.980000" fill="red">
  <title>New York</title>
</circle><line x1="991.960022" y1="286.959991" x2="1241.959961" y2="572.960022" stroke="red" stroke-width="6.660000" />
<circle cx="1415.959961" cy="699.960022" r="19.980000" fill="red">
  <title>Mexico City</title>
</circle><line x1="1241.959961" y1="572.960022" x2="1415.959961" y2="699.960022" stroke="red" stroke-width="6.660000" />
<circle cx="1964.959961" cy="313.959991" r="19.980000" fill="red">
  <title>São Paulo</title>
</circle><line x1="1415.959961" y1="699.960022" x2="1964.959961" y2="313.959991" stroke="red" stroke-width="6.660000" />
<circle cx="1994.959961" cy="1247.959961" r="19.980000" fill="red">
  <title>Beijing</title>
</circle><line x1="1964.959961" y1="313.959991" x2="1994.959961" y2="1247.959961" stroke="red" stroke-width="6.660000" />
</svg>
