<?xml version="1.0" encoding="UTF-8" standalone="no"?>
<svg width="500" height="500" viewBox="0 0 2074.000000 2074.000000" xmlns="http://www.w3.org/2000/svg">
<rect x="19.000000" y="19.000000" width="2036.000000" height="2036.000000" fill="black" />
<circle cx="2036.959961" cy="882.960022" r="19.980000" fill="red">
  <title>Tokyo</title>
</circle><line x1="2000.959961" y1="377.959991" x2="2036.959961" y2="882.960022" stroke="red" stroke-width="6.660000" />
<circle cx="1986.959961" cy="1273.959961" r="19.980000" fill="red">
  <title>Delhi</title>
</circle><line x1="2036.959961" y1="882.960022" x2="1986.959961" y2="1273.959961" stroke="red" stroke-width="6.660000" />
<circle cx="752.960022" cy="1691.959961" r="19.980000" fill="red">
  <title>Mexico City</title>
</circle><line x1="1986.959961" y1="1273.959961" x2="752.960022" y2="1691.959961" stroke="red" stroke-width="6.660000" />
<circle cx="251.959991" cy="611.960022" r="19.980000" fill="red">
  <title>Cairo</title>
</circle><line x1="752.960022" y1="1691.959961" x2="251.959991" y2="611.960022" stroke="red" stroke-width="6.660000" />
<circle cx="1649.959961" cy="239.959991" r="19.980000" fill="red">
  <title>São Paulo</title>
</circle><line x1="251.959991" y1="611.960022" x2="1649.959961" y2="239.959991" stroke="red" stroke-width="6.660000" />
<circle cx="2000.959961" cy="377.959991" r="19.980000" fill="red">
  <title>Shanghai</title>
</circle><line x1="1649.959961" y1="239.959991" x2="2000.959961" y2="377.959991" stroke="red" stroke-width="6.660000" />
</svg>
