<?xml version="1.0" encoding="UTF-8" standalone="no"?>
<svg width="500" height="500" viewBox="0 0 2074.000000 2074.000000" xmlns="http://www.w3.org/2000/svg">
<rect x="19.000000" y="19.000000" width="2036.000000" height="2036.000000" fill="black" />
<circle cx="1545.959961" cy="1715.959961" r="19.980000" fill="red">
  <title>Tokyo</title>
</circle><line x1="1627.959961" y1="1115.959961" x2="1545.959961" y2="1715.959961" stroke="red" stroke-width="6.660000" />
<circle cx="1471.959961" cy="1751.959961" r="19.980000" fill="red">
  <title>Cairo</title>
</circle><line x1="1545.959961" y1="1715.959961" x2="1471.959961" y2="1751.959961" stroke="red" stroke-width="6.660000" />
<circle cx="1562.959961" cy="1795.959961" r="19.980000" fill="red">
  <title>Mexico City</title>
</circle><line x1="1471.959961" y1="1751.959961" x2="1562.959961" y2="1795.959961" stroke="red" stroke-width="6.660000" />
<circle cx="1853.959961" cy="1849.959961" r="19.980000" fill="red">
  <title>Shanghai</title>
</circle><line x1="1562.959961" y1="1795.959961" x2="1853.959961" y2="1849.959961" stroke="red" stroke-width="6.660000" />
<circle cx="1510.959961" cy="1980.959961" r="19.980000" fill="red">
  <title>New York</title>
</circle><line x1="1853.959961" y1="1849.959961" x2="1510.959961" y2="1980.959961" stroke="red" stroke-width="6.660000" />
<circle cx="1234.959961" cy="2027.959961" r="19.980000" fill="red">
  <title>Rio de Janeiro</title>
</circle><line x1="1510.959961" y1="1980.959961" x2="1234.959961" y2="2027.959961" stroke="red" stroke-width="6.660000" />
<circle cx="468.959991" cy="1709.959961" r="19.980000" fill="red">
  <title>Osaka</title>
</circle><line x1="1234.959961" y1="2027.959961" x2="468.959991" y2="1709.959961" stroke="red" stroke-width="6.660000" />
<circle cx="792.960022" cy="1423.959961" r="19.980000" fill="red">
  <title>Manila</title>
</circle><line x1="468.959991" y1="1709.959961" x2="792.960022" y2="1423.959961" stroke="red" stroke-width="6.660000" />
<circle cx="983.960022" cy="1135.959961" r="19.980000" fill="red">
  <title>Kolkata</title>
</circle><line x1="792.960022" y1="1423.959961" x2="983.960022" y2="1135.959961" stroke="red" stroke-width="6.660000" />
<circle cx="968.960022" cy="831.960022" r="19.980000" fill="red">
  <title>Beijing</title>
</circle><line x1="983.960022" y1="1135.959961" x2="968.960022" y2="831.960022" stroke="red" stroke-width="6.660000" />
<circle cx="478.959991" cy="783.960022" r="19.980000" fill="red">
  <title>Delhi</title>
</circle><line x1="968.960022" y1="831.960022" x2="478.959991" y2="783.960022" stroke="red" stroke-width="6.660000" />
<circle cx="187.959991" cy="84.959999" r="19.980000" fill="red">
  <title>São Paulo</title>
</circle><line x1="478.959991" y1="783.960022" x2="187.959991" y2="84.959999" stroke="red" stroke-width="6.660000" />
<circle cx="885.960022" cy="418.959991" r="19.980000" fill="red">
  <title>Buenos Aires</title>
</circle><line x1="187.959991" y1="84.959999" x2="885.960022" y2="418.959991" stroke="red" stroke-width="6.660000" />
<circle cx="1024.959961" cy="616.960022" r="19.980000" fill="red">
  <title>Dhaka</title>
</circle><line x1="885.960022" y1="418.959991" x2="1024.959961" y2="616.960022" stroke="red" stroke-width="6.660000" />
<circle cx="1318.959961" cy="228.959991" r="19.980000" fill="red">
  <title>Karachi</title>
</circle><line x1="1024.959961" y1="616.960022" x2="1318.959961" y2="228.959991" stroke="red" stroke-width="6.660000" />
<circle cx="1385.959961" cy="424.959991" r="19.980000" fill="red">
  <title>Mumbai</title>
</circle><line x1="1318.959961" y1="228.959991" x2="1385.959961" y2="424.959991" stroke="red" stroke-width="6.660000" />
<circle cx="1879.959961" cy="608.960022" r="19.980000" fill="red">
  <title>Lagos</title>
</circle><line x1="1385.959961" y1="424.959991" x2="1879.959961" y2="608.960022" stroke="red" stroke-width="6.660000" />
<circle cx="1937.959961" cy="1108.959961" r="19.980000" fill="red">
  <title>Chongqing</title>
</circle><line x1="1879.959961" y1="608.960022" x2="1937.959961" y2="1108.959961" stroke="red" stroke-width="6.660000" />
<circle cx="1627.959961" cy="1115.959961" r="19.980000" fill="red">
  <title>Istanbul</title>
</circle><line x1="1937.959961" y1="1108.959961" x2="1627.959961" y2="1115.959961" stroke="red" stroke-width="6.660000" />
</svg>
