<?xml version="1.0" encoding="UTF-8" standalone="no"?>
<svg width="500" height="500" viewBox="0 0 2074.000000 2074.000000" xmlns="http://www.w3.org/2000/svg">
<rect x="19.000000" y="19.000000" width="2036.000000" height="2036.000000" fill="black" />
<circle cx="747.960022" cy="1565.959961" r="19.980000" fill="red">
  <title>Tokyo</title>
</circle><line x1="1211.959961" y1="1596.959961" x2="747.960022" y2="1565.959961" stroke="red" stroke-width="6.660000" />
<circle cx="667.960022" cy="2037.959961" r="19.980000" fill="red">
  <title>Cairo</title>
</circle><line x1="747.960022" y1="1565.959961" x2="667.960022" y2="2037.959961" stroke="red" stroke-width="6.660000" />
<circle cx="57.959999" cy="1881.959961" r="19.980000" fill="red">
  <title>Rio de Janeiro</title>
</circle><line x1="667.960022" y1="2037.959961" x2="57.959999" y2="1881.959961" stroke="red" stroke-width="6.660000" />
<circle cx="48.959999" cy="1486.959961" r="19.980000" fill="red">
  <title>Shanghai</title>
</circle><line x1="57.959999" y1="1881.959961" x2="48.959999" y2="1486.959961" stroke="red" stroke-width="6.660000" />
<circle cx="810.960022" cy="989.960022" r="19.980000" fill="red">
  <title>Istanbul</title>
</circle><line x1="48.959999" y1="1486.959961" x2="810.960022" y2="989.960022" stroke="red" stroke-width="6.660000" />
<circle cx="948.960022" cy="891.960022" r="19.980000" fill="red">
  <title>New York</title>
</circle><line x1="810.960022" y1="989.960022" x2="948.960022" y2="891.960022" stroke="red" stroke-width="6.660000" />
<circle cx="516.960022" cy="608.960022" r="19.980000" fill="red">
  <title>Manila</title>
</circle><line x1="948.960022" y1="891.960022" x2="516.960022" y2="608.960022" stroke="red" stroke-width="6.660000" />
<circle cx="246.959991" cy="419.959991" r="19.980000" fill="red">
  <title>Mumbai</title>
</circle><line x1="516.960022" y1="608.960022" x2="246.959991" y2="419.959991" stroke="red" stroke-width="6.660000" />
<circle cx="663.960022" cy="55.959999" r="19.980000" fill="red">
  <title>Beijing</title>
</circle><line x1="246.959991" y1="419.959991" x2="663.960022" y2="55.959999" stroke="red" stroke-width="6.660000" />
<circle cx="828.960022" cy="63.959999" r="19.980000" fill="red">
  <title>São Paulo</title>
</circle><line x1="663.960022" y1="55.959999" x2="828.960022" y2="63.959999" stroke="red" stroke-width="6.660000" />
<circle cx="959.960022" cy="510.959991" r="19.980000" fill="red">
  <title>Dhaka</title>
</circle><line x1="828.960022" y1="63.959999" x2="959.960022" y2="510.959991" stroke="red" stroke-width="6.660000" />
<circle cx="1091.959961" cy="525.960022" r="19.980000" fill="red">
  <title>Lagos</title>
</circle><line x1="959.960022" y1="510.959991" x2="1091.959961" y2="525.960022" stroke="red" stroke-width="6.660000" />
<circle cx="1325.959961" cy="332.959991" r="19.980000" fill="red">
  <title>Mexico City</title>
</circle><line x1="1091.959961" y1="525.960022" x2="1325.959961" y2="332.959991" stroke="red" stroke-width="6.660000" />
<circle cx="1992.959961" cy="594.960022" r="19.980000" fill="red">
  <title>Osaka</title>
</circle><line x1="1325.959961" y1="332.959991" x2="1992.959961" y2="594.960022" stroke="red" stroke-width="6.660000" />
<circle cx="1894.959961" cy="1430.959961" r="19.980000" fill="red">
  <title>Chongqing</title>
</circle><line x1="1992.959961" y1="594.960022" x2="1894.959961" y2="1430.959961" stroke="red" stroke-width="6.660000" />
<circle cx="1303.959961" cy="1518.959961" r="19.980000" fill="red">
  <title>Kolkata</title>
</circle><line x1="1894.959961" y1="1430.959961" x2="1303.959961" y2="1518.959961" stroke="red" stroke-width="6.660000" />
<circle cx="1342.959961" cy="1611.959961" r="19.980000" fill="red">
  <title>Delhi</title>
</circle><line x1="1303.959961" y1="1518.959961" x2="1342.959961" y2="1611.959961" stroke="red" stroke-width="6.660000" />
<circle cx="1355.959961" cy="1805.959961" r="19.980000" fill="red">
  <title>Karachi</title>
</circle><line x1="1342.959961" y1="1611.959961" x2="1355.959961" y2="1805.959961" stroke="red" stroke-width="6.660000" />
<circle cx="1211.959961" cy="1596.959961" r="19.980000" fill="red">
  <title>Buenos Aires</title>
</circle><line x1="1355.959961" y1="1805.959961" x2="1211.959961" y2="1596.959961" stroke="red" stroke-width="6.660000" />
</svg>
