<?xml version="1.0" encoding="UTF-8" standalone="no"?>
<svg width="500" height="500" viewBox="0 0 2074.000000 2074.000000" xmlns="http://www.w3.org/2000/svg">
<rect x="19.000000" y="19.000000" width="2036.000000" height="2036.000000" fill="black" />
<circle cx="359.959991" cy="1009.960022" r="19.980000" fill="red">
  <title>Tokyo</title>
</circle><line x1="121.959999" y1="231.959991" x2="359.959991" y2="1009.960022" stroke="red" stroke-width="6.660000" />
<circle cx="1619.959961" cy="1124.959961" r="19.980000" fill="red">
  <title>Delhi</title>
</circle><line x1="359.959991" y1="1009.960022" x2="1619.959961" y2="1124.959961" stroke="red" stroke-width="6.660000" />
<circle cx="1376.959961" cy="418.959991" r="19.980000" fill="red">
  <title>Mexico City</title>
</circle><line x1="1619.959961" y1="1124.959961" x2="1376.959961" y2="418.959991" stroke="red" stroke-width="6.660000" />
<circle cx="774.960022" cy="202.959991" r="19.980000" fill="red">
  <title>São Paulo</title>
</circle><line x1="1376.959961" y1="418.959991" x2="774.960022" y2="202.959991" stroke="red" stroke-width="6.660000" />
<circle cx="121.959999" cy="231.959991" r="19.980000" fill="red">
  <title>Shanghai</title>
</circle><line x1="774.960022" y1="202.959991" x2="121.959999" y2="231.959991" stroke="red" stroke-width="6.660000" />
</svg>
