<?xml version="1.0" encoding="UTF-8" standalone="no"?>
<svg width="500" height="500" viewBox="0 0 2074.000000 2074.000000" xmlns="http://www.w3.org/2000/svg">
<rect x="19.000000" y="19.000000" width="2036.000000" height="2036.000000" fill="black" />
<circle cx="1381.959961" cy="1624.959961" r="19.980000" fill="red">
  <title>Tokyo</title>
</circle><line x1="936.960022" y1="1692.959961" x2="1381.959961" y2="1624.959961" stroke="red" stroke-width="6.660000" />
<circle cx="1457.959961" cy="1818.959961" r="19.980000" fill="red">
  <title>Delhi</title>
</circle><line x1="1381.959961" y1="1624.959961" x2="1457.959961" y2="1818.959961" stroke="red" stroke-width="6.660000" />
<circle cx="1600.959961" cy="1513.959961" r="19.980000" fill="red">
  <title>Buenos Aires</title>
</circle><line x1="1457.959961" y1="1818.959961" x2="1600.959961" y2="1513.959961" stroke="red" stroke-width="6.660000" />
<circle cx="1670.959961" cy="1299.959961" r="19.980000" fill="red">
  <title>Kolkata</title>
</circle><line x1="1600.959961" y1="1513.959961" x2="1670.959961" y2="1299.959961" stroke="red" stroke-width="6.660000" />
<circle cx="1975.959961" cy="683.960022" r="19.980000" fill="red">
  <title>Mumbai</title>
</circle><line x1="1670.959961" y1="1299.959961" x2="1975.959961" y2="683.960022" stroke="red" stroke-width="6.660000" />
<circle cx="1955.959961" cy="602.960022" r="19.980000" fill="red">
  <title>Istanbul</title>
</circle><line x1="1975.959961" y1="683.960022" x2="1955.959961" y2="602.960022" stroke="red" stroke-width="6.660000" />
<circle cx="1829.959961" cy="214.959991" r="19.980000" fill="red">
  <title>Osaka</title>
</circle><line x1="1955.959961" y1="602.960022" x2="1829.959961" y2="214.959991" stroke="red" stroke-width="6.660000" />
<circle cx="1150.959961" cy="365.959991" r="19.980000" fill="red">
  <title>New York</title>
</circle><line x1="1829.959961" y1="214.959991" x2="1150.959961" y2="365.959991" stroke="red" stroke-width="6.660000" />
<circle cx="655.960022" cy="277.959991" r="19.980000" fill="red">
  <title>Dhaka</title>
</circle><line x1="1150.959961" y1="365.959991" x2="655.960022" y2="277.959991" stroke="red" stroke-width="6.660000" />
<circle cx="137.959991" cy="323.959991" r="19.980000" fill="red">
  <title>Mexico City</title>
</circle><line x1="655.960022" y1="277.959991" x2="137.959991" y2="323.959991" stroke="red" stroke-width="6.660000" />
<circle cx="797.960022" cy="460.959991" r="19.980000" fill="red">
  <title>Karachi</title>
</circle><line x1="137.959991" y1="323.959991" x2="797.960022" y2="460.959991" stroke="red" stroke-width="6.660000" />
<circle cx="1080.959961" cy="792.960022" r="19.980000" fill="red">
  <title>Lagos</title>
</circle><line x1="797.960022" y1="460.959991" x2="1080.959961" y2="792.960022" stroke="red" stroke-width="6.660000" />
<circle cx="858.960022" cy="1101.959961" r="19.980000" fill="red">
  <title>São Paulo</title>
</circle><line x1="1080.959961" y1="792.960022" x2="858.960022" y2="1101.959961" stroke="red" stroke-width="6.660000" />
<circle cx="642.960022" cy="1042.959961" r="19.980000" fill="red">
  <title>Shanghai</title>
</circle><line x1="858.960022" y1="1101.959961" x2="642.960022" y2="1042.959961" stroke="red" stroke-width="6.660000" />
<circle cx="189.959991" cy="1089.959961" r="19.980000" fill="red">
  <title>Manila</title>
</circle><line x1="642.960022" y1="1042.959961" x2="189.959991" y2="1089.959961" stroke="red" stroke-width="6.660000" />
<circle cx="94.959999" cy="1900.959961" r="19.980000" fill="red">
  <title>Rio de Janeiro</title>
</circle><line x1="189.959991" y1="1089.959961" x2="94.959999" y2="1900.959961" stroke="red" stroke-width="6.660000" />
<circle cx="189.959991" cy="1915.959961" r="19.980000" fill="red">
  <title>Beijing</title>
</circle><line x1="94.959999" y1="1900.959961" x2="189.959991" y2="1915.959961" stroke="red" stroke-width="6.660000" />
<circle cx="437.959991" cy="1810.959961" r="19.980000" fill="red">
  <title>Chongqing</title>
</circle><line x1="189.959991" y1="1915.959961" x2="437.959991" y2="1810.959961" stroke="red" stroke-width="6.660000" />
<circle cx="936.960022" cy="1692.959961" r="19.980000" fill="red">
  <title>Cairo</title>
</circle><line x1="437.959991" y1="1810.959961" x2="936.960022" y2="1692.959961" stroke="red" stroke-width="6.660000" />
</svg>
