<?xml version="1.0" encoding="UTF-8" standalone="no"?>
<svg width="500" height="500" viewBox="0 0 2074.000000 2074.000000" xmlns="http://www.w3.org/2000/svg">
<rect x="19.000000" y="19.000000" width="2036.000000" height="2036.000000" fill="black" />
<circle cx="618.960022" cy="558.960022" r="19.980000" fill="red">
  <title>Tokyo</title>
</circle><line x1="280.959991" y1="1018.960022" x2="618.960022" y2="558.960022" stroke="red" stroke-width="6.660000" />
<circle cx="1802.959961" cy="227.959991" r="19.980000" fill="red">
  <title>Mexico City</title>
</circle><line x1="618.960022" y1="558.960022" x2="1802.959961" y2="227.959991" stroke="red" stroke-width="6.660000" />
<circle cx="1779.959961" cy="1117.959961" r="19.980000" fill="red">
  <title>Beijing</title>
</circle><line x1="1802.959961" y1="227.959991" x2="1779.959961" y2="1117.959961" stroke="red" stroke-width="6.660000" />
<circle cx="1823.959961" cy="1540.959961" r="19.980000" fill="red">
  <title>Dhaka</title>
</circle><line x1="1779.959961" y1="1117.959961" x2="1823.959961" y2="1540.959961" stroke="red" stroke-width="6.660000" />
<circle cx="1693.959961" cy="1571.959961" r="19.980000" fill="red">
  <title>Shanghai</title>
</circle><line x1="1823.959961" y1="1540.959961" x2="1693.959961" y2="1571.959961" stroke="red" stroke-width="6.660000" />
<circle cx="1256.959961" cy="1755.959961" r="19.980000" fill="red">
  <title>Mumbai</title>
</circle><line x1="1693.959961" y1="1571.959961" x2="1256.959961" y2="1755.959961" stroke="red" stroke-width="6.660000" />
<circle cx="754.960022" cy="1676.959961" r="19.980000" fill="red">
  <title>São Paulo</title>
</circle><line x1="1256.959961" y1="1755.959961" x2="754.960022" y2="1676.959961" stroke="red" stroke-width="6.660000" />
<circle cx="182.959991" cy="1676.959961" r="19.980000" fill="red">
  <title>Delhi</title>
</circle><line x1="754.960022" y1="1676.959961" x2="182.959991" y2="1676.959961" stroke="red" stroke-width="6.660000" />
<circle cx="451.959991" cy="1363.959961" r="19.980000" fill="red">
  <title>Cairo</title>
</circle><line x1="182.959991" y1="1676.959961" x2="451.959991" y2="1363.959961" stroke="red" stroke-width="6.660000" />
<circle cx="280.959991" cy="1018.960022" r="19.980000" fill="red">
  <title>Osaka</title>
</circle><line x1="451.959991" y1="1363.959961" x2="280.959991" y2="1018.960022" stroke="red" stroke-width="6.660000" />
</svg>
