<?xml version="1.0" encoding="UTF-8" standalone="no"?>
<svg width="500" height="500" viewBox="0 0 2074.000000 2074.000000" xmlns="http://www.w3.org/2000/svg">
<rect x="19.000000" y="19.000000" width="2036.000000" height="2036.000000" fill="black" />
<circle cx="1355.959961" cy="871.960022" r="19.980000" fill="red">
  <title>Tokyo</title>
</circle><line x1="1575.959961" y1="428.959991" x2="1355.959961" y2="871.960022" stroke="red" stroke-width="6.660000" />
<circle cx="1221.959961" cy="1904.959961" r="19.980000" fill="red">
  <title>Shanghai</title>
</circle><line x1="1355.959961" y1="871.960022" x2="1221.959961" y2="1904.959961" stroke="red" stroke-width="6.660000" />
<circle cx="1240.959961" cy="1117.959961" r="19.980000" fill="red">
  <title>Delhi</title>
</circle><line x1="1221.959961" y1="1904.959961" x2="1240.959961" y2="1117.959961" stroke="red" stroke-width="6.660000" />
<circle cx="290.959991" cy="267.959991" r="19.980000" fill="red">
  <title>São Paulo</title>
</circle><line x1="1240.959961" y1="1117.959961" x2="290.959991" y2="267.959991" stroke="red" stroke-width="6.660000" />
<circle cx="1575.959961" cy="428.959991" r="19.980000" fill="red">
  <title>Mexico City</title>
</circle><line x1="290.959991" y1="267.959991" x2="1575.959961" y2="428.959991" stroke="red" stroke-width="6.660000" />
</svg>
