<?xml version="1.0" encoding="UTF-8" standalone="no"?>
<svg width="500" height="500" viewBox="0 0 2074.000000 2074.000000" xmlns="http://www.w3.org/2000/svg">
<rect x="19.000000" y="19.000000" width="2036.000000" height="2036.000000" fill="black" />
<circle cx="1900.959961" cy="1249.959961" r="19.980000" fill="red">
  <title>Tokyo</title>
</circle><line x1="1799.959961" y1="1524.959961" x2="1900.959961" y2="1249.959961" stroke="red" stroke-width="6.660000" />
<circle cx="1779.959961" cy="1007.960022" r="19.980000" fill="red">
  <title>São Paulo</title>
</circle><line x1="1900.959961" y1="1249.959961" x2="1779.959961" y2="1007.960022" stroke="red" stroke-width="6.660000" />
<circle cx="1712.959961" cy="853.960022" r="19.980000" fill="red">
  <title>Shanghai</title>
</circle><line x1="1779.959961" y1="1007.960022" x2="1712.959961" y2="853.960022" stroke="red" stroke-width="6.660000" />
<circle cx="1381.959961" cy="612.960022" r="19.980000" fill="red">
  <title>Dhaka</title>
</circle><line x1="1712.959961" y1="853.960022" x2="1381.959961" y2="612.960022" stroke="red" stroke-width="6.660000" />
<circle cx="1591.959961" cy="98.959999" r="19.980000" fill="red">
  <title>Kolkata</title>
</circle><line x1="1381.959961" y1="612.960022" x2="1591.959961" y2="98.959999" stroke="red" stroke-width="6.660000" />
<circle cx="894.960022" cy="380.959991" r="19.980000" fill="red">
  <title>Cairo</title>
</circle><line x1="1591.959961" y1="98.959999" x2="894.960022" y2="380.959991" stroke="red" stroke-width="6.660000" />
<circle cx="363.959991" cy="77.959999" r="19.980000" fill="red">
  <title>Delhi</title>
</circle><line x1="894.960022" y1="380.959991" x2="363.959991" y2="77.959999" stroke="red" stroke-width="6.660000" />
<circle cx="168.959991" cy="338.959991" r="19.980000" fill="red">
  <title>Beijing</title>
</circle><line x1="363.959991" y1="77.959999" x2="168.959991" y2="338.959991" stroke="red" stroke-width="6.660000" />
<circle cx="367.959991" cy="272.959991" r="19.980000" fill="red">
  <title>Osaka</title>
</circle><line x1="168.959991" y1="338.959991" x2="367.959991" y2="272.959991" stroke="red" stroke-width="6.660000" />
<circle cx="435.959991" cy="421.959991" r="19.980000" fill="red">
  <title>Mumbai</title>
</circle><line x1="367.959991" y1="272.959991" x2="435.959991" y2="421.959991" stroke="red" stroke-width="6.660000" />
<circle cx="924.960022" cy="1192.959961" r="19.980000" fill="red">
  <title>Karachi</title>
</circle><line x1="435.959991" y1="421.959991" x2="924.960022" y2="1192.959961" stroke="red" stroke-width="6.660000" />
<circle cx="386.959991" cy="1243.959961" r="19.980000" fill="red">
  <title>Mexico City</title>
</circle><line x1="924.960022" y1="1192.959961" x2="386.959991" y2="1243.959961" stroke="red" stroke-width="6.660000" />
<circle cx="236.959991" cy="1761.959961" r="19.980000" fill="red">
  <title>Istanbul</title>
</circle><line x1="386.959991" y1="1243.959961" x2="236.959991" y2="1761.959961" stroke="red" stroke-width="6.660000" />
<circle cx="511.959991" cy="1950.959961" r="19.980000" fill="red">
  <title>Chongqing</title>
</circle><line x1="236.959991" y1="1761.959961" x2="511.959991" y2="1950.959961" stroke="red" stroke-width="6.660000" />
<circle cx="973.960022" cy="1915.959961" r="19.980000" fill="red">
  <title>Manila</title>
</circle><line x1="511.959991" y1="1950.959961" x2="973.960022" y2="1915.959961" stroke="red" stroke-width="6.660000" />
<circle cx="1451.959961" cy="1657.959961" r="19.980000" fill="red">
  <title>New York</title>
</circle><line x1="973.960022" y1="1915.959961" x2="1451.959961" y2="1657.959961" stroke="red" stroke-width="6.660000" />
<circle cx="1799.959961" cy="1524.959961" r="19.980000" fill="red">
  <title>Buenos Aires</title>
</circle><line x1="1451.959961" y1="1657.959961" x2="1799.959961" y2="1524.959961" stroke="red" stroke-width="6.660000" />
</svg>
