<?xml version="1.0" encoding="UTF-8" standalone="no"?>
<svg width="500" height="500" viewBox="0 0 2074.000000 2074.000000" xmlns="http://www.w3.org/2000/svg">
<rect x="19.000000" y="19.000000" width="2036.000000" height="2036.000000" fill="black" />
<circle cx="73.959999" cy="893.960022" r="19.980000" fill="red">
  <title>Tokyo</title>
</circle><line x1="137.959991" y1="1093.959961" x2="73.959999" y2="893.960022" stroke="red" stroke-width="6.660000" />
<circle cx="164.959991" cy="337.959991" r="19.980000" fill="red">
  <title>Delhi</title>
</circle><line x1="73.959999" y1="893.960022" x2="164.959991" y2="337.959991" stroke="red" stroke-width="6.660000" />
<circle cx="299.959991" cy="51.959999" r="19.980000" fill="red">
  <title>Shanghai</title>
</circle><line x1="164.959991" y1="337.959991" x2="299.959991" y2="51.959999" stroke="red" stroke-width="6.660000" />
<circle cx="915.960022" cy="279.959991" r="19.980000" fill="red">
  <title>Osaka</title>
</circle><line x1="299.959991" y1="51.959999" x2="915.960022" y2="279.959991" stroke="red" stroke-width="6.660000" />
<circle cx="1151.959961" cy="345.959991" r="19.980000" fill="red">
  <title>Cairo</title>
</circle><line x1="915.960022" y1="279.959991" x2="1151.959961" y2="345.959991" stroke="red" stroke-width="6.660000" />
<circle cx="1220.959961" cy="362.959991" r="19.980000" fill="red">
  <title>New York</title>
</circle><line x1="1151.959961" y1="345.959991" x2="1220.959961" y2="362.959991" stroke="red" stroke-width="6.660000" />
<circle cx="1616.959961" cy="849.960022" r="19.980000" fill="red">
  <title>Mumbai</title>
</circle><line x1="1220.959961" y1="362.959991" x2="1616.959961" y2="849.960022" stroke="red" stroke-width="6.660000" />
<circle cx="1549.959961" cy="1326.959961" r="19.980000" fill="red">
  <title>Mexico City</title>
</circle><line x1="1616.959961" y1="849.960022" x2="1549.959961" y2="1326.959961" stroke="red" stroke-width="6.660000" />
<circle cx="1595.959961" cy="1813.959961" r="19.980000" fill="red">
  <title>Dhaka</title>
</circle><line x1="1549.959961" y1="1326.959961" x2="1595.959961" y2="1813.959961" stroke="red" stroke-width="6.660000" />
<circle cx="545.960022" cy="1840.959961" r="19.980000" fill="red">
  <title>São Paulo</title>
</circle><line x1="1595.959961" y1="1813.959961" x2="545.960022" y2="1840.959961" stroke="red" stroke-width="6.660000" />
<circle cx="137.959991" cy="1093.959961" r="19.980000" fill="red">
  <title>Beijing</title>
</circle><line x1="545.960022" y1="1840.959961" x2="137.959991" y2="1093.959961" stroke="red" stroke-width="6.660000" />
</svg>
