<?xml version="1.0" encoding="UTF-8" standalone="no"?>
<svg width="500" height="500" viewBox="0 0 2074.000000 2074.000000" xmlns="http://www.w3.org/2000/svg">
<rect x="19.000000" y="19.000000" width="2036.000000" height="2036.000000" fill="black" />
<circle cx="1973.959961" cy="1951.959961" r="19.980000" fill="red">
  <title>Tokyo</title>
</circle><line x1="1918.959961" y1="1713.959961" x2="1973.959961" y2="1951.959961" stroke="red" stroke-width="6.660000" />
<circle cx="1527.959961" cy="1661.959961" r="19.980000" fill="red">
  <title>Mumbai</title>
</circle><line x1="1973.959961" y1="1951.959961" x2="1527.959961" y2="1661.959961" stroke="red" stroke-width="6.660000" />
<circle cx="1084.959961" cy="1722.959961" r="19.980000" fill="red">
  <title>Osaka</title>
</circle><line x1="1527.959961" y1="1661.959961" x2="1084.959961" y2="1722.959961" stroke="red" stroke-width="6.660000" />
<circle cx="756.960022" cy="2023.959961" r="19.980000" fill="red">
  <title>Dhaka</title>
</circle><line x1="1084.959961" y1="1722.959961" x2="756.960022" y2="2023.959961" stroke="red" stroke-width="6.660000" />
<circle cx="588.960022" cy="1880.959961" r="19.980000" fill="red">
  <title>Shanghai</title>
</circle><line x1="756.960022" y1="2023.959961" x2="588.960022" y2="1880.959961" stroke="red" stroke-width="6.660000" />
<circle cx="281.959991" cy="1875.959961" r="19.980000" fill="red">
  <title>Manila</title>
</circle><line x1="588.960022" y1="1880.959961" x2="281.959991" y2="1875.959961" stroke="red" stroke-width="6.660000" />
<circle cx="208.959991" cy="1630.959961" r="19.980000" fill="red">
  <title>São Paulo</title>
</circle><line x1="281.959991" y1="1875.959961" x2="208.959991" y2="1630.959961" stroke="red" stroke-width="6.660000" />
<circle cx="367.959991" cy="1647.959961" r="19.980000" fill="red">
  <title>Chongqing</title>
</circle><line x1="208.959991" y1="1630.959961" x2="367.959991" y2="1647.959961" stroke="red" stroke-width="6.660000" />
<circle cx="888.960022" cy="1604.959961" r="19.980000" fill="red">
  <title>Mexico City</title>
</circle><line x1="367.959991" y1="1647.959961" x2="888.960022" y2="1604.959961" stroke="red" stroke-width="6.660000" />
<circle cx="1182.959961" cy="1405.959961" r="19.980000" fill="red">
  <title>Buenos Aires</title>
</circle><line x1="888.960022" y1="1604.959961" x2="1182.959961" y2="1405.959961" stroke="red" stroke-width="6.660000" />
<circle cx="802.960022" cy="830.960022" r="19.980000" fill="red">
  <title>Lagos</title>
</circle><line x1="1182.959961" y1="1405.959961" x2="802.960022" y2="830.960022" stroke="red" stroke-width="6.660000" />
<circle cx="474.959991" cy="152.959991" r="19.980000" fill="red">
  <title>Delhi</title>
</circle><line x1="802.960022" y1="830.960022" x2="474.959991" y2="152.959991" stroke="red" stroke-width="6.660000" />
<circle cx="753.960022" cy="367.959991" r="19.980000" fill="red">
  <title>Istanbul</title>
</circle><line x1="474.959991" y1="152.959991" x2="753.960022" y2="367.959991" stroke="red" stroke-width="6.660000" />
<circle cx="1235.959961" cy="534.960022" r="19.980000" fill="red">
  <title>Beijing</title>
</circle><line x1="753.960022" y1="367.959991" x2="1235.959961" y2="534.960022" stroke="red" stroke-width="6.660000" />
<circle cx="1440.959961" cy="688.960022" r="19.980000" fill="red">
  <title>Kolkata</title>
</circle><line x1="1235.959961" y1="534.960022" x2="1440.959961" y2="688.960022" stroke="red" stroke-width="6.660000" />
<circle cx="1456.959961" cy="169.959991" r="19.980000" fill="red">
  <title>Cairo</title>
</circle><line x1="1440.959961" y1="688.960022" x2="1456.959961" y2="169.959991" stroke="red" stroke-width="6.660000" />
<circle cx="2012.959961" cy="493.959991" r="19.980000" fill="red">
  <title>New York</title>
</circle><line x1="1456.959961" y1="169.959991" x2="2012.959961" y2="493.959991" stroke="red" stroke-width="6.660000" />
<circle cx="1718.959961" cy="971.960022" r="19.980000" fill="red">
  <title>Rio de Janeiro</title>
</circle><line x1="2012.959961" y1="493.959991" x2="1718.959961" y2="971.960022" stroke="red" stroke-width="6.660000" />
<circle cx="1918.959961" cy="1713.959961" r="19.980000" fill="red">
  <title>Karachi</title>
</circle><line x1="1718.959961" y1="971.960022" x2="1918.959961" y2="1713.959961" stroke="red" stroke-width="6.660000" />
</svg>
