<?xml version="1.0" encoding="UTF-8" standalone="no"?>
<svg width="500" height="500" viewBox="0 0 2074.000000 2074.000000" xmlns="http://www.w3.org/2000/svg">
<rect x="19.000000" y="19.000000" width="2036.000000" height="2036.000000" fill="black" />
<circle cx="782.960022" cy="1267.959961" r="19.980000" fill="red">
  <title>Tokyo</title>
</circle><line x1="446.959991" y1="485.959991" x2="782.960022" y2="1267.959961" stroke="red" stroke-width="6.660000" />
<circle cx="913.960022" cy="1472.959961" r="19.980000" fill="red">
  <title>Mexico City</title>
</circle><line x1="782.960022" y1="1267.959961" x2="913.960022" y2="1472.959961" stroke="red" stroke-width="6.660000" />
<circle cx="700.960022" cy="1346.959961" r="19.980000" fill="red">
  <title>Karachi</title>
</circle><line x1="913.960022" y1="1472.959961" x2="700.960022" y2="1346.959961" stroke="red" stroke-width="6.660000" />
<circle cx="239.959991" cy="1438.959961" r="19.980000" fill="red">
  <title>Osaka</title>
</circle><line x1="700.960022" y1="1346.959961" x2="239.959991" y2="1438.959961" stroke="red" stroke-width="6.660000" />
<circle cx="295.959991" cy="1946.959961" r="19.980000" fill="red">
  <title>Buenos Aires</title>
</circle><line x1="239.959991" y1="1438.959961" x2="295.959991" y2="1946.959961" stroke="red" stroke-width="6.660000" />
<circle cx="675.960022" cy="1696.959961" r="19.980000" fill="red">
  <title>New York</title>
</circle><line x1="295.959991" y1="1946.959961" x2="675.960022" y2="1696.959961" stroke="red" stroke-width="6.660000" />
<circle cx="848.960022" cy="1710.959961" r="19.980000" fill="red">
  <title>Cairo</title>
</circle><line x1="675.960022" y1="1696.959961" x2="848.960022" y2="1710.959961" stroke="red" stroke-width="6.660000" />
<circle cx="1055.959961" cy="1738.959961" r="19.980000" fill="red">
  <title>Rio de Janeiro</title>
</circle><line x1="848.960022" y1="1710.959961" x2="1055.959961" y2="1738.959961" stroke="red" stroke-width="6.660000" />
<circle cx="1472.959961" cy="1618.959961" r="19.980000" fill="red">
  <title>Shanghai</title>
</circle><line x1="1055.959961" y1="1738.959961" x2="1472.959961" y2="1618.959961" stroke="red" stroke-width="6.660000" />
<circle cx="1552.959961" cy="1475.959961" r="19.980000" fill="red">
  <title>Manila</title>
</circle><line x1="1472.959961" y1="1618.959961" x2="1552.959961" y2="1475.959961" stroke="red" stroke-width="6.660000" />
<circle cx="1192.959961" cy="987.960022" r="19.980000" fill="red">
  <title>Lagos</title>
</circle><line x1="1552.959961" y1="1475.959961" x2="1192.959961" y2="987.960022" stroke="red" stroke-width="6.660000" />
<circle cx="1419.959961" cy="981.960022" r="19.980000" fill="red">
  <title>Beijing</title>
</circle><line x1="1192.959961" y1="987.960022" x2="1419.959961" y2="981.960022" stroke="red" stroke-width="6.660000" />
<circle cx="1636.959961" cy="796.960022" r="19.980000" fill="red">
  <title>Delhi</title>
</circle><line x1="1419.959961" y1="981.960022" x2="1636.959961" y2="796.960022" stroke="red" stroke-width="6.660000" />
<circle cx="1876.959961" cy="435.959991" r="19.980000" fill="red">
  <title>Kolkata</title>
</circle><line x1="1636.959961" y1="796.960022" x2="1876.959961" y2="435.959991" stroke="red" stroke-width="6.660000" />
<circle cx="1690.959961" cy="324.959991" r="19.980000" fill="red">
  <title>Istanbul</title>
</circle><line x1="1876.959961" y1="435.959991" x2="1690.959961" y2="324.959991" stroke="red" stroke-width="6.660000" />
<circle cx="609.960022" cy="101.959999" r="19.980000" fill="red">
  <title>Dhaka</title>
</circle><line x1="1690.959961" y1="324.959991" x2="609.960022" y2="101.959999" stroke="red" stroke-width="6.660000" />
<circle cx="584.960022" cy="165.959991" r="19.980000" fill="red">
  <title>São Paulo</title>
</circle><line x1="609.960022" y1="101.959999" x2="584.960022" y2="165.959991" stroke="red" stroke-width="6.660000" />
<circle cx="320.959991" cy="61.959999" r="19.980000" fill="red">
  <title>Chongqing</title>
</circle><line x1="584.960022" y1="165.959991" x2="320.959991" y2="61.959999" stroke="red" stroke-width="6.660000" />
<circle cx="446.959991" cy="485.959991" r="19.980000" fill="red">
  <title>Mumbai</title>
</circle><line x1="320.959991" y1="61.959999" x2="446.959991" y2="485.959991" stroke="red" stroke-width="6.660000" />
</svg>
