<?xml version="1.0" encoding="UTF-8" standalone="no"?>
<svg width="500" height="500" viewBox="0 0 2074.000000 2074.000000" xmlns="http://www.w3.org/2000/svg">
<rect x="19.000000" y="19.000000" width="2036.000000" height="2036.000000" fill="black" />
<circle cx="540.960022" cy="617.960022" r="19.980000" fill="red">
  <title>Tokyo</title>
</circle><line x1="445.959991" y1="1664.959961" x2="540.960022" y2="617.960022" stroke="red" stroke-width="6.660000" />
<circle cx="942.960022" cy="1116.959961" r="19.980000" fill="red">
  <title>Delhi</title>
</circle><line x1="540.960022" y1="617.960022" x2="942.960022" y2="1116.959961" stroke="red" stroke-width="6.660000" />
<circle cx="445.959991" cy="1664.959961" r="19.980000" fill="red">
  <title>Shanghai</title>
</circle><line x1="942.960022" y1="1116.959961" x2="445.959991" y2="1664.959961" stroke="red" stroke-width="6.660000" />
</svg>
