<?xml version="1.0" encoding="UTF-8" standalone="no"?>
<svg width="500" height="500" viewBox="0 0 2074.000000 2074.000000" xmlns="http://www.w3.org/2000/svg">
<rect x="19.000000" y="19.000000" width="2036.000000" height="2036.000000" fill="black" />
<circle cx="769.960022" cy="100.959999" r="19.980000" fill="red">
  <title>Tokyo</title>
</circle><line x1="1661.959961" y1="602.960022" x2="769.960022" y2="100.959999" stroke="red" stroke-width="6.660000" />
<circle cx="161.959991" cy="940.960022" r="19.980000" fill="red">
  <title>Shanghai</title>
</circle><line x1="769.960022" y1="100.959999" x2="161.959991" y2="940.960022" stroke="red" stroke-width="6.660000" />
<circle cx="821.960022" cy="1211.959961" r="19.980000" fill="red">
  <title>São Paulo</title>
</circle><line x1="161.959991" y1="940.960022" x2="821.960022" y2="1211.959961" stroke="red" stroke-width="6.660000" />
<circle cx="1335.959961" cy="1211.959961" r="19.980000" fill="red">
  <title>Cairo</title>
</circle><line x1="821.960022" y1="1211.959961" x2="1335.959961" y2="1211.959961" stroke="red" stroke-width="6.660000" />
<circle cx="1466.959961" cy="1076.959961" r="19.980000" fill="red">
  <title>Delhi</title>
</circle><line x1="1335.959961" y1="1211.959961" x2="1466.959961" y2="1076.959961" stroke="red" stroke-width="6.660000" />
<circle cx="1661.959961" cy="602.960022" r="19.980000" fill="red">
  <title>Mexico City</title>
</circle><line x1="1466.959961" y1="1076.959961" x2="1661.959961" y2="602.960022" stroke="red" stroke-width="6.660000" />
</svg>
