<?xml version="1.0" encoding="UTF-8" standalone="no"?>
<svg width="500" height="500" viewBox="0 0 2074.000000 2074.000000" xmlns="http://www.w3.org/2000/svg">
<rect x="19.000000" y="19.000000" width="2036.000000" height="2036.000000" fill="black" />
<circle cx="611.960022" cy="184.959991" r="19.980000" fill="red">
  <title>Tokyo</title>
</circle><line x1="864.960022" y1="545.960022" x2="611.960022" y2="184.959991" stroke="red" stroke-width="6.660000" />
<circle cx="125.959999" cy="200.959991" r="19.980000" fill="red">
  <title>Cairo</title>
</circle><line x1="611.960022" y1="184.959991" x2="125.959999" y2="200.959991" stroke="red" stroke-width="6.660000" />
<circle cx="736.960022" cy="1051.959961" r="19.980000" fill="red">
  <title>Beijing</title>
</circle><line x1="125.959999" y1="200.959991" x2="736.960022" y2="1051.959961" stroke="red" stroke-width="6.660000" />
<circle cx="730.960022" cy="1125.959961" r="19.980000" fill="red">
  <title>Shanghai</title>
</circle><line x1="736.960022" y1="1051.959961" x2="730.960022" y2="1125.959961" stroke="red" stroke-width="6.660000" />
<circle cx="685.960022" cy="1817.959961" r="19.980000" fill="red">
  <title>Dhaka</title>
</circle><line x1="730.960022" y1="1125.959961" x2="685.960022" y2="1817.959961" stroke="red" stroke-width="6.660000" />
<circle cx="1063.959961" cy="1925.959961" r="19.980000" fill="red">
  <title>Karachi</title>
</circle><line x1="685.960022" y1="1817.959961" x2="1063.959961" y2="1925.959961" stroke="red" stroke-width="6.660000" />
<circle cx="1412.959961" cy="1595.959961" r="19.980000" fill="red">
  <title>Mexico City</title>
</circle><line x1="1063.959961" y1="1925.959961" x2="1412.959961" y2="1595.959961" stroke="red" stroke-width="6.660000" />
<circle cx="1589.959961" cy="1750.959961" r="19.980000" fill="red">
  <title>Mumbai</title>
</circle><line x1="1412.959961" y1="1595.959961" x2="1589.959961" y2="1750.959961" stroke="red" stroke-width="6.660000" />
<circle cx="1897.959961" cy="1826.959961" r="19.980000" fill="red">
  <title>Chongqing</title>
</circle><line x1="1589.959961" y1="1750.959961" x2="1897.959961" y2="1826.959961" stroke="red" stroke-width="6.660000" />
<circle cx="1628.959961" cy="1545.959961" r="19.980000" fill="red">
  <title>New York</title>
</circle><line x1="1897.959961" y1="1826.959961" x2="1628.959961" y2="1545.959961" stroke="red" stroke-width="6.660000" />
<circle cx="1901.959961" cy="1156.959961" r="19.980000" fill="red">
  <title>São Paulo</title>
</circle><line x1="1628.959961" y1="1545.959961" x2="1901.959961" y2="1156.959961" stroke="red" stroke-width="6.660000" />
<circle cx="1925.959961" cy="457.959991" r="19.980000" fill="red">
  <title>Buenos Aires</title>
</circle><line x1="1901.959961" y1="1156.959961" x2="1925.959961" y2="457.959991" stroke="red" stroke-width="6.660000" />
<circle cx="1544.959961" cy="909.960022" r="19.980000" fill="red">
  <title>Delhi</title>
</circle><line x1="1925.959961" y1="457.959991" x2="1544.959961" y2="909.960022" stroke="red" stroke-width="6.660000" />
<circle cx="864.960022" cy="545.960022" r="19.980000" fill="red">
  <title>Osaka</title>
</circle><line x1="1544.959961" y1="909.960022" x2="864.960022" y2="545.960022" stroke="red" stroke-width="6.660000" />
</svg>
