<?xml version="1.0" encoding="UTF-8" standalone="no"?>
<svg width="500" height="500" viewBox="0 0 2074.000000 2074.000000" xmlns="http://www.w3.org/2000/svg">
<rect x="19.000000" y="19.000000" width="2036.000000" height="2036.000000" fill="black" />
<circle cx="101.959999" cy="197.959991" r="19.980000" fill="red">
  <title>Tokyo</title>
</circle><line x1="1084.959961" y1="138.959991" x2="101.959999" y2="197.959991" stroke="red" stroke-width="6.660000" />
<circle cx="252.959991" cy="1262.959961" r="19.980000" fill="red">
  <title>Cairo</title>
</circle><line x1="101.959999" y1="197.959991" x2="252.959991" y2="1262.959961" stroke="red" stroke-width="6.660000" />
<circle cx="1062.959961" cy="1916.959961" r="19.980000" fill="red">
  <title>Delhi</title>
</circle><line x1="252.959991" y1="1262.959961" x2="1062.959961" y2="1916.959961" stroke="red" stroke-width="6.660000" />
<circle cx="1047.959961" cy="2028.959961" r="19.980000" fill="red">
  <title>Shanghai</title>
</circle><line x1="1062.959961" y1="1916.959961" x2="1047.959961" y2="2028.959961" stroke="red" stroke-width="6.660000" />
<circle cx="1476.959961" cy="1632.959961" r="19.980000" fill="red">
  <title>Beijing</title>
</circle><line x1="1047.959961" y1="2028.959961" x2="1476.959961" y2="1632.959961" stroke="red" stroke-width="6.660000" />
<circle cx="1016.960022" cy="920.960022" r="19.980000" fill="red">
  <title>São Paulo</title>
</circle><line x1="1476.959961" y1="1632.959961" x2="1016.960022" y2="920.960022" stroke="red" stroke-width="6.660000" />
<circle cx="1329.959961" cy="144.959991" r="19.980000" fill="red">
  <title>Mexico City</title>
</circle><line x1="1016.960022" y1="920.960022" x2="1329.959961" y2="144.959991" stroke="red" stroke-width="6.660000" />
<circle cx="1084.959961" cy="138.959991" r="19.980000" fill="red">
  <title>Mumbai</title>
</circle><line x1="1329.959961" y1="144.959991" x2="1084.959961" y2="138.959991" stroke="red" stroke-width="6.660000" />
</svg>
