<?xml version="1.0" encoding="UTF-8" standalone="no"?>
<svg width="500" height="500" viewBox="0 0 2074.000000 2074.000000" xmlns="http://www.w3.org/2000/svg">
<rect x="19.000000" y="19.000000" width="2036.000000" height="2036.000000" fill="black" />
<circle cx="575.960022" cy="60.959999" r="19.980000" fill="red">
  <title>Tokyo</title>
</circle><line x1="597.960022" y1="602.960022" x2="575.960022" y2="60.959999" stroke="red" stroke-width="6.660000" />
<circle cx="966.960022" cy="449.959991" r="19.980000" fill="red">
  <title>Mexico City</title>
</circle><line x1="575.960022" y1="60.959999" x2="966.960022" y2="449.959991" stroke="red" stroke-width="6.660000" />
<circle cx="1395.959961" cy="101.959999" r="19.980000" fill="red">
  <title>Shanghai</title>
</circle><line x1="966.960022" y1="449.959991" x2="1395.959961" y2="101.959999" stroke="red" stroke-width="6.660000" />
<circle cx="2004.959961" cy="1276.959961" r="19.980000" fill="red">
  <title>Cairo</title>
</circle><line x1="1395.959961" y1="101.959999" x2="2004.959961" y2="1276.959961" stroke="red" stroke-width="6.660000" />
<circle cx="1347.959961" cy="1427.959961" r="19.980000" fill="red">
  <title>Beijing</title>
</circle><line x1="2004.959961" y1="1276.959961" x2="1347.959961" y2="1427.959961" stroke="red" stroke-width="6.660000" />
<circle cx="914.960022" cy="1011.960022" r="19.980000" fill="red">
  <title>Delhi</title>
</circle><line x1="1347.959961" y1="1427.959961" x2="914.960022" y2="1011.960022" stroke="red" stroke-width="6.660000" />
<circle cx="694.960022" cy="988.960022" r="19.980000" fill="red">
  <title>São Paulo</title>
</circle><line x1="914.960022" y1="1011.960022" x2="694.960022" y2="988.960022" stroke="red" stroke-width="6.660000" />
<circle cx="597.960022" cy="602.960022" r="19.980000" fill="red">
  <title>Mumbai</title>
</circle><line x1="694.960022" y1="988.960022" x2="597.960022" y2="602.960022" stroke="red" stroke-width="6.660000" />
</svg>
