<?xml version="1.0" encoding="UTF-8" standalone="no"?>
<svg width="500" height="500" viewBox="0 0 2074.000000 2074.000000" xmlns="http://www.w3.org/2000/svg">
<rect x="19.000000" y="19.000000" width="2036.000000" height="2036.000000" fill="black" />
<circle cx="140.959991" cy="1041.959961" r="19.980000" fill="red">
  <title>Tokyo</title>
</circle><line x1="340.959991" y1="1053.959961" x2="140.959991" y2="1041.959961" stroke="red" stroke-width="6.660000" />
<circle cx="104.959999" cy="1848.959961" r="19.980000" fill="red">
  <title>Buenos Aires</title>
</circle><line x1="140.959991" y1="1041.959961" x2="104.959999" y2="1848.959961" stroke="red" stroke-width="6.660000" />
<circle cx="568.960022" cy="1752.959961" r="19.980000" fill="red">
  <title>Mexico City</title>
</circle><line x1="104.959999" y1="1848.959961" x2="568.960022" y2="1752.959961" stroke="red" stroke-width="6.660000" />
<circle cx="550.960022" cy="1554.959961" r="19.980000" fill="red">
  <title>Dhaka</title>
</circle><line x1="568.960022" y1="1752.959961" x2="550.960022" y2="1554.959961" stroke="red" stroke-width="6.660000" />
<circle cx="1045.959961" cy="1282.959961" r="19.980000" fill="red">
  <title>Beijing</title>
</circle><line x1="550.960022" y1="1554.959961" x2="1045.959961" y2="1282.959961" stroke="red" stroke-width="6.660000" />
<circle cx="1262.959961" cy="1877.959961" r="19.980000" fill="red">
  <title>Lagos</title>
</circle><line x1="1045.959961" y1="1282.959961" x2="1262.959961" y2="1877.959961" stroke="red" stroke-width="6.660000" />
<circle cx="1927.959961" cy="1836.959961" r="19.980000" fill="red">
  <title>Shanghai</title>
</circle><line x1="1262.959961" y1="1877.959961" x2="1927.959961" y2="1836.959961" stroke="red" stroke-width="6.660000" />
<circle cx="1529.959961" cy="1465.959961" r="19.980000" fill="red">
  <title>Karachi</title>
</circle><line x1="1927.959961" y1="1836.959961" x2="1529.959961" y2="1465.959961" stroke="red" stroke-width="6.660000" />
<circle cx="1830.959961" cy="1187.959961" r="19.980000" fill="red">
  <title>New York</title>
</circle><line x1="1529.959961" y1="1465.959961" x2="1830.959961" y2="1187.959961" stroke="red" stroke-width="6.660000" />
<circle cx="1636.959961" cy="931.960022" r="19.980000" fill="red">
  <title>Delhi</title>
</circle><line x1="1830.959961" y1="1187.959961" x2="1636.959961" y2="931.960022" stroke="red" stroke-width="6.660000" />
<circle cx="1988.959961" cy="422.959991" r="19.980000" fill="red">
  <title>Manila</title>
</circle><line x1="1636.959961" y1="931.960022" x2="1988.959961" y2="422.959991" stroke="red" stroke-width="6.660000" />
<circle cx="1823.959961" cy="143.959991" r="19.980000" fill="red">
  <title>Mumbai</title>
</circle><line x1="1988.959961" y1="422.959991" x2="1823.959961" y2="143.959991" stroke="red" stroke-width="6.660000" />
<circle cx="1613.959961" cy="853.960022" r="19.980000" fill="red">
  <title>Cairo</title>
</circle><line x1="1823.959961" y1="143.959991" x2="1613.959961" y2="853.960022" stroke="red" stroke-width="6.660000" />
<circle cx="1000.960022" cy="781.960022" r="19.980000" fill="red">
  <title>Osaka</title>
</circle><line x1="1613.959961" y1="853.960022" x2="1000.960022" y2="781.960022" stroke="red" stroke-width="6.660000" />
<circle cx="824.960022" cy="369.959991" r="19.980000" fill="red">
  <title>Kolkata</title>
</circle><line x1="1000.960022" y1="781.960022" x2="824.960022" y2="369.959991" stroke="red" stroke-width="6.660000" />
<circle cx="39.959999" cy="47.959999" r="19.980000" fill="red">
  <title>São Paulo</title>
</circle><line x1="824.960022" y1="369.959991" x2="39.959999" y2="47.959999" stroke="red" stroke-width="6.660000" />
<circle cx="268.959991" cy="986.960022" r="19.980000" fill="red">
  <title>Istanbul</title>
</circle><line x1="39.959999" y1="47.959999" x2="268.959991" y2="986.960022" stroke="red" stroke-width="6.660000" />
<circle cx="340.959991" cy="1053.959961" r="19.980000" fill="red">
  <title>Chongqing</title>
</circle><line x1="268.959991" y1="986.960022" x2="340.959991" y2="1053.959961" stroke="red" stroke-width="6.660000" />
</svg>
