<?xml version="1.0" encoding="UTF-8" standalone="no"?>
<svg width="500" height="500" viewBox="0 0 2074.000000 2074.000000" xmlns="http://www.w3.org/2000/svg">
<rect x="19.000000" y="19.000000" width="2036.000000" height="2036.000000" fill="black" />
<circle cx="507.959991" cy="1573.959961" r="19.980000" fill="red">
  <title>Tokyo</title>
</circle><line x1="972.960022" y1="1895.959961" x2="507.959991" y2="1573.959961" stroke="red" stroke-width="6.660000" />
<circle cx="62.959999" cy="609.960022" r="19.980000" fill="red">
  <title>Cairo</title>
</circle><line x1="507.959991" y1="1573.959961" x2="62.959999" y2="609.960022" stroke="red" stroke-width="6.660000" />
<circle cx="293.959991" cy="73.959999" r="19.980000" fill="red">
  <title>São Paulo</title>
</circle><line x1="62.959999" y1="609.960022" x2="293.959991" y2="73.959999" stroke="red" stroke-width="6.660000" />
<circle cx="730.960022" cy="1103.959961" r="19.980000" fill="red">
  <title>Mexico City</title>
</circle><line x1="293.959991" y1="73.959999" x2="730.960022" y2="1103.959961" stroke="red" stroke-width="6.660000" />
<circle cx="1709.959961" cy="943.960022" r="19.980000" fill="red">
  <title>Delhi</title>
</circle><line x1="730.960022" y1="1103.959961" x2="1709.959961" y2="943.960022" stroke="red" stroke-width="6.660000" />
<circle cx="1796.959961" cy="1869.959961" r="19.980000" fill="red">
  <title>Osaka</title>
</circle><line x1="1709.959961" y1="943.960022" x2="1796.959961" y2="1869.959961" stroke="red" stroke-width="6.660000" />
<circle cx="1964.959961" cy="1973.959961" r="19.980000" fill="red">
  <title>Beijing</title>
</circle><line x1="1796.959961" y1="1869.959961" x2="1964.959961" y2="1973.959961" stroke="red" stroke-width="6.660000" />
<circle cx="1262.959961" cy="1783.959961" r="19.980000" fill="red">
  <title>Shanghai</title>
</circle><line x1="1964.959961" y1="1973.959961" x2="1262.959961" y2="1783.959961" stroke="red" stroke-width="6.660000" />
<circle cx="1222.959961" cy="1751.959961" r="19.980000" fill="red">
  <title>Mumbai</title>
</circle><line x1="1262.959961" y1="1783.959961" x2="1222.959961" y2="1751.959961" stroke="red" stroke-width="6.660000" />
<circle cx="972.960022" cy="1895.959961" r="19.980000" fill="red">
  <title>Dhaka</title>
</circle><line x1="1222.959961" y1="1751.959961" x2="972.960022" y2="1895.959961" stroke="red" stroke-width="6.660000" />
</svg>
