<?xml version="1.0" encoding="UTF-8" standalone="no"?>
<svg width="500" height="500" viewBox="0 0 2074.000000 2074.000000" xmlns="http://www.w3.org/2000/svg">
<rect x="19.000000" y="19.000000" width="2036.000000" height="2036.000000" fill="black" />
<circle cx="720.960022" cy="1488.959961" r="19.980000" fill="red">
  <title>Tokyo</title>
</circle><line x1="138.959991" y1="1631.959961" x2="720.960022" y2="1488.959961" stroke="red" stroke-width="6.660000" />
<circle cx="1092.959961" cy="1140.959961" r="19.980000" fill="red">
  <title>São Paulo</title>
</circle><line x1="720.960022" y1="1488.959961" x2="1092.959961" y2="1140.959961" stroke="red" stroke-width="6.660000" />
<circle cx="1107.959961" cy="497.959991" r="19.980000" fill="red">
  <title>Dhaka</title>
</circle><line x1="1092.959961" y1="1140.959961" x2="1107.959961" y2="497.959991" stroke="red" stroke-width="6.660000" />
<circle cx="1488.959961" cy="218.959991" r="19.980000" fill="red">
  <title>Delhi</title>
</circle><line x1="1107.959961" y1="497.959991" x2="1488.959961" y2="218.959991" stroke="red" stroke-width="6.660000" />
<circle cx="1650.959961" cy="265.959991" r="19.980000" fill="red">
  <title>Shanghai</title>
</circle><line x1="1488.959961" y1="218.959991" x2="1650.959961" y2="265.959991" stroke="red" stroke-width="6.660000" />
<circle cx="1591.959961" cy="1231.959961" r="19.980000" fill="red">
  <title>Mumbai</title>
</circle><line x1="1650.959961" y1="265.959991" x2="1591.959961" y2="1231.959961" stroke="red" stroke-width="6.660000" />
<circle cx="1745.959961" cy="1444.959961" r="19.980000" fill="red">
  <title>Mexico City</title>
</circle><line x1="1591.959961" y1="1231.959961" x2="1745.959961" y2="1444.959961" stroke="red" stroke-width="6.660000" />
<circle cx="980.960022" cy="2006.959961" r="19.980000" fill="red">
  <title>Cairo</title>
</circle><line x1="1745.959961" y1="1444.959961" x2="980.960022" y2="2006.959961" stroke="red" stroke-width="6.660000" />
<circle cx="138.959991" cy="1631.959961" r="19.980000" fill="red">
  <title>Beijing</title>
</circle><line x1="980.960022" y1="2006.959961" x2="138.959991" y2="1631.959961" stroke="red" stroke-width="6.660000" />
</svg>
