<?xml version="1.0" encoding="UTF-8" standalone="no"?>
<svg width="500" height="500" viewBox="0 0 2074.000000 2074.000000" xmlns="http://www.w3.org/2000/svg">
<rect x="19.000000" y="19.000000" width="2036.000000" height="2036.000000" fill="black" />
<circle cx="531.960022" cy="265.959991" r="19.980000" fill="red">
  <title>Tokyo</title>
</circle><line x1="1020.960022" y1="116.959999" x2="531.960022" y2="265.959991" stroke="red" stroke-width="6.660000" />
<circle cx="196.959991" cy="563.960022" r="19.980000" fill="red">
  <title>São Paulo</title>
</circle><line x1="531.960022" y1="265.959991" x2="196.959991" y2="563.960022" stroke="red" stroke-width="6.660000" />
<circle cx="572.960022" cy="612.960022" r="19.980000" fill="red">
  <title>Cairo</title>
</circle><line x1="196.959991" y1="563.960022" x2="572.960022" y2="612.960022" stroke="red" stroke-width="6.660000" />
<circle cx="721.960022" cy="1195.959961" r="19.980000" fill="red">
  <title>Shanghai</title>
</circle><line x1="572.960022" y1="612.960022" x2="721.960022" y2="1195.959961" stroke="red" stroke-width="6.660000" />
<circle cx="1446.959961" cy="1475.959961" r="19.980000" fill="red">
  <title>Delhi</title>
</circle><line x1="721.960022" y1="1195.959961" x2="1446.959961" y2="1475.959961" stroke="red" stroke-width="6.660000" />
<circle cx="1863.959961" cy="1557.959961" r="19.980000" fill="red">
  <title>Mexico City</title>
</circle><line x1="1446.959961" y1="1475.959961" x2="1863.959961" y2="1557.959961" stroke="red" stroke-width="6.660000" />
<circle cx="1020.960022" cy="116.959999" r="19.980000" fill="red">
  <title>Mumbai</title>
</circle><line x1="1863.959961" y1="1557.959961" x2="1020.960022" y2="116.959999" stroke="red" stroke-width="6.660000" />
</svg>
