<?xml version="1.0" encoding="UTF-8" standalone="no"?>
<svg width="500" height="500" viewBox="0 0 2074.000000 2074.000000" xmlns="http://www.w3.org/2000/svg">
<rect x="19.000000" y="19.000000" width="2036.000000" height="2036.000000" fill="black" />
<circle cx="859.960022" cy="1763.959961" r="19.980000" fill="red">
  <title>Tokyo</title>
</circle><line x1="1122.959961" y1="1200.959961" x2="859.960022" y2="1763.959961" stroke="red" stroke-width="6.660000" />
<circle cx="1260.959961" cy="1490.959961" r="19.980000" fill="red">
  <title>Shanghai</title>
</circle><line x1="859.960022" y1="1763.959961" x2="1260.959961" y2="1490.959961" stroke="red" stroke-width="6.660000" />
<circle cx="1746.959961" cy="982.960022" r="19.980000" fill="red">
  <title>Mumbai</title>
</circle><line x1="1260.959961" y1="1490.959961" x2="1746.959961" y2="982.960022" stroke="red" stroke-width="6.660000" />
<circle cx="1675.959961" cy="630.960022" r="19.980000" fill="red">
  <title>Delhi</title>
</circle><line x1="1746.959961" y1="982.960022" x2="1675.959961" y2="630.960022" stroke="red" stroke-width="6.660000" />
<circle cx="1896.959961" cy="503.959991" r="19.980000" fill="red">
  <title>São Paulo</title>
</circle><line x1="1675.959961" y1="630.960022" x2="1896.959961" y2="503.959991" stroke="red" stroke-width="6.660000" />
<circle cx="1406.959961" cy="60.959999" r="19.980000" fill="red">
  <title>Mexico City</title>
</circle><line x1="1896.959961" y1="503.959991" x2="1406.959961" y2="60.959999" stroke="red" stroke-width="6.660000" />
<circle cx="1328.959961" cy="433.959991" r="19.980000" fill="red">
  <title>Beijing</title>
</circle><line x1="1406.959961" y1="60.959999" x2="1328.959961" y2="433.959991" stroke="red" stroke-width="6.660000" />
<circle cx="1459.959961" cy="575.960022" r="19.980000" fill="red">
  <title>Dhaka</title>
</circle><line x1="1328.959961" y1="433.959991" x2="1459.959961" y2="575.960022" stroke="red" stroke-width="6.660000" />
<circle cx="1122.959961" cy="1200.959961" r="19.980000" fill="red">
  <title>Cairo</title>
</circle><line x1="1459.959961" y1="575.960022" x2="1122.959961" y2="1200.959961" stroke="red" stroke-width="6.660000" />
</svg>
