<?xml version="1.0" encoding="UTF-8" standalone="no"?>
<svg width="500" height="500" viewBox="0 0 2074.000000 2074.000000" xmlns="http://www.w3.org/2000/svg">
<rect x="19.000000" y="19.000000" width="2036.000000" height="2036.000000" fill="black" />
<circle cx="625.960022" cy="1550.959961" r="19.980000" fill="red">
  <title>Tokyo</title>
</circle><line x1="278.959991" y1="2029.959961" x2="625.960022" y2="1550.959961" stroke="red" stroke-width="6.660000" />
<circle cx="1689.959961" cy="1059.959961" r="19.980000" fill="red">
  <title>Delhi</title>
</circle><line x1="625.960022" y1="1550.959961" x2="1689.959961" y2="1059.959961" stroke="red" stroke-width="6.660000" />
<circle cx="973.960022" cy="720.960022" r="19.980000" fill="red">
  <title>Shanghai</title>
</circle><line x1="1689.959961" y1="1059.959961" x2="973.960022" y2="720.960022" stroke="red" stroke-width="6.660000" />
<circle cx="103.959999" cy="289.959991" r="19.980000" fill="red">
  <title>Cairo</title>
</circle><line x1="973.960022" y1="720.960022" x2="103.959999" y2="289.959991" stroke="red" stroke-width="6.660000" />
<circle cx="575.960022" cy="974.960022" r="19.980000" fill="red">
  <title>Mexico City</title>
</circle><line x1="103.959999" y1="289.959991" x2="575.960022" y2="974.960022" stroke="red" stroke-width="6.660000" />
<circle cx="278.959991" cy="2029.959961" r="19.980000" fill="red">
  <title>São Paulo</title>
</circle><line x1="575.960022" y1="974.960022" x2="278.959991" y2="2029.959961" stroke="red" stroke-width="6.660000" />
</svg>
