<?xml version="1.0" encoding="UTF-8" standalone="no"?>
<svg width="500" height="500" viewBox="0 0 2074.000000 2074.000000" xmlns="http://www.w3.org/2000/svg">
<rect x="19.000000" y="19.000000" width="2036.000000" height="2036.000000" fill="black" />
<circle cx="770.960022" cy="916.960022" r="19.980000" fill="red">
  <title>Tokyo</title>
</circle><line x1="443.959991" y1="541.960022" x2="770.960022" y2="916.960022" stroke="red" stroke-width="6.660000" />
<circle cx="819.960022" cy="1653.959961" r="19.980000" fill="red">
  <title>Mexico City</title>
</circle><line x1="770.960022" y1="916.960022" x2="819.960022" y2="1653.959961" stroke="red" stroke-width="6.660000" />
<circle cx="132.959991" cy="2003.959961" r="19.980000" fill="red">
  <title>Kolkata</title>
</circle><line x1="819.960022" y1="1653.959961" x2="132.959991" y2="2003.959961" stroke="red" stroke-width="6.660000" />
<circle cx="657.960022" cy="1960.959961" r="19.980000" fill="red">
  <title>Cairo</title>
</circle><line x1="132.959991" y1="2003.959961" x2="657.960022" y2="1960.959961" stroke="red" stroke-width="6.660000" />
<circle cx="1031.959961" cy="1288.959961" r="19.980000" fill="red">
  <title>Delhi</title>
</circle><line x1="657.960022" y1="1960.959961" x2="1031.959961" y2="1288.959961" stroke="red" stroke-width="6.660000" />
<circle cx="1174.959961" cy="831.960022" r="19.980000" fill="red">
  <title>São Paulo</title>
</circle><line x1="1031.959961" y1="1288.959961" x2="1174.959961" y2="831.960022" stroke="red" stroke-width="6.660000" />
<circle cx="1271.959961" cy="860.960022" r="19.980000" fill="red">
  <title>Istanbul</title>
</circle><line x1="1174.959961" y1="831.960022" x2="1271.959961" y2="860.960022" stroke="red" stroke-width="6.660000" />
<circle cx="1557.959961" cy="1229.959961" r="19.980000" fill="red">
  <title>Osaka</title>
</circle><line x1="1271.959961" y1="860.960022" x2="1557.959961" y2="1229.959961" stroke="red" stroke-width="6.660000" />
<circle cx="1986.959961" cy="1796.959961" r="19.980000" fill="red">
  <title>Beijing</title>
</circle><line x1="1557.959961" y1="1229.959961" x2="1986.959961" y2="1796.959961" stroke="red" stroke-width="6.660000" />
<circle cx="1737.959961" cy="1125.959961" r="19.980000" fill="red">
  <title>Manila</title>
</circle><line x1="1986.959961" y1="1796.959961" x2="1737.959961" y2="1125.959961" stroke="red" stroke-width="6.660000" />
<circle cx="1897.959961" cy="517.960022" r="19.980000" fill="red">
  <title>New York</title>
</circle><line x1="1737.959961" y1="1125.959961" x2="1897.959961" y2="517.960022" stroke="red" stroke-width="6.660000" />
<circle cx="1545.959961" cy="214.959991" r="19.980000" fill="red">
  <title>Buenos Aires</title>
</circle><line x1="1897.959961" y1="517.960022" x2="1545.959961" y2="214.959991" stroke="red" stroke-width="6.660000" />
<circle cx="1426.959961" cy="357.959991" r="19.980000" fill="red">
  <title>Dhaka</title>
</circle><line x1="1545.959961" y1="214.959991" x2="1426.959961" y2="357.959991" stroke="red" stroke-width="6.660000" />
<circle cx="1296.959961" cy="562.960022" r="19.980000" fill="red">
  <title>Karachi</title>
</circle><line x1="1426.959961" y1="357.959991" x2="1296.959961" y2="562.960022" stroke="red" stroke-width="6.660000" />
<circle cx="1002.960022" cy="406.959991" r="19.980000" fill="red">
  <title>Shanghai</title>
</circle><line x1="1296.959961" y1="562.960022" x2="1002.960022" y2="406.959991" stroke="red" stroke-width="6.660000" />
<circle cx="541.960022" cy="462.959991" r="19.980000" fill="red">
  <title>Mumbai</title>
</circle><line x1="1002.960022" y1="406.959991" x2="541.960022" y2="462.959991" stroke="red" stroke-width="6.660000" />
<circle cx="443.959991" cy="541.960022" r="19.980000" fill="red">
  <title>Chongqing</title>
</circle><line x1="541.960022" y1="462.959991" x2="443.959991" y2="541.960022" stroke="red" stroke-width="6.660000" />
</svg>
