<?xml version="1.0" encoding="UTF-8" standalone="no"?>
<svg width="500" height="500" viewBox="0 0 2074.000000 2074.000000" xmlns="http://www.w3.org/2000/svg">
<rect x="19.000000" y="19.000000" width="2036.000000" height="2036.000000" fill="black" />
<circle cx="1458.959961" cy="491.959991" r="19.980000" fill="red">
  <title>Tokyo</title>
</circle><line x1="1499.959961" y1="530.960022" x2="1458.959961" y2="491.959991" stroke="red" stroke-width="6.660000" />
<circle cx="657.960022" cy="89.959999" r="19.980000" fill="red">
  <title>Cairo</title>
</circle><line x1="1458.959961" y1="491.959991" x2="657.960022" y2="89.959999" stroke="red" stroke-width="6.660000" />
<circle cx="269.959991" cy="662.960022" r="19.980000" fill="red">
  <title>São Paulo</title>
</circle><line x1="657.960022" y1="89.959999" x2="269.959991" y2="662.960022" stroke="red" stroke-width="6.660000" />
<circle cx="132.959991" cy="676.960022" r="19.980000" fill="red">
  <title>Mexico City</title>
</circle><line x1="269.959991" y1="662.960022" x2="132.959991" y2="676.960022" stroke="red" stroke-width="6.660000" />
<circle cx="101.959999" cy="1175.959961" r="19.980000" fill="red">
  <title>Delhi</title>
</circle><line x1="132.959991" y1="676.960022" x2="101.959999" y2="1175.959961" stroke="red" stroke-width="6.660000" />
<circle cx="661.960022" cy="1840.959961" r="19.980000" fill="red">
  <title>Mumbai</title>
</circle><line x1="101.959999" y1="1175.959961" x2="661.960022" y2="1840.959961" stroke="red" stroke-width="6.660000" />
<circle cx="1548.959961" cy="1408.959961" r="19.980000" fill="red">
  <title>Beijing</title>
</circle><line x1="661.960022" y1="1840.959961" x2="1548.959961" y2="1408.959961" stroke="red" stroke-width="6.660000" />
<circle cx="1908.959961" cy="582.960022" r="19.980000" fill="red">
  <title>Shanghai</title>
</circle><line x1="1548.959961" y1="1408.959961" x2="1908.959961" y2="582.960022" stroke="red" stroke-width="6.660000" />
<circle cx="1499.959961" cy="530.960022" r="19.980000" fill="red">
  <title>Dhaka</title>
</circle><line x1="1908.959961" y1="582.960022" x2="1499.959961" y2="530.960022" stroke="red" stroke-width="6.660000" />
</svg>
