<?xml version="1.0" encoding="UTF-8" standalone="no"?>
<svg width="500" height="500" viewBox="0 0 2074.000000 2074.000000" xmlns="http://www.w3.org/2000/svg">
<rect x="19.000000" y="19.000000" width="2036.000000" height="2036.000000" fill="black" />
<circle cx="1255.959961" cy="886.960022" r="19.980000" fill="red">
  <title>Tokyo</title>
</circle><line x1="214.959991" y1="1617.959961" x2="1255.959961" y2="886.960022" stroke="red" stroke-width="6.660000" />
<circle cx="1961.959961" cy="1339.959961" r="19.980000" fill="red">
  <title>Delhi</title>
</circle><line x1="1255.959961" y1="886.960022" x2="1961.959961" y2="1339.959961" stroke="red" stroke-width="6.660000" />
<circle cx="1574.959961" cy="1815.959961" r="19.980000" fill="red">
  <title>Mexico City</title>
</circle><line x1="1961.959961" y1="1339.959961" x2="1574.959961" y2="1815.959961" stroke="red" stroke-width="6.660000" />
<circle cx="964.960022" cy="1879.959961" r="19.980000" fill="red">
  <title>Shanghai</title>
</circle><line x1="1574.959961" y1="1815.959961" x2="964.960022" y2="1879.959961" stroke="red" stroke-width="6.660000" />
<circle cx="214.959991" cy="1617.959961" r="19.980000" fill="red">
  <title>São Paulo</title>
</circle><line x1="964.960022" y1="1879.959961" x2="214.959991" y2="1617.959961" stroke="red" stroke-width="6.660000" />
</svg>
