<?xml version="1.0" encoding="UTF-8" standalone="no"?>
<svg width="500" height="500" viewBox="0 0 2074.000000 2074.000000" xmlns="http://www.w3.org/2000/svg">
<rect x="19.000000" y="19.000000" width="2036.000000" height="2036.000000" fill="black" />
<circle cx="701.960022" cy="1257.959961" r="19.980000" fill="red">
  <title>Tokyo</title>
</circle><line x1="699.960022" y1="1114.959961" x2="701.960022" y2="1257.959961" stroke="red" stroke-width="6.660000" />
<circle cx="263.959991" cy="1792.959961" r="19.980000" fill="red">
  <title>Delhi</title>
</circle><line x1="701.960022" y1="1257.959961" x2="263.959991" y2="1792.959961" stroke="red" stroke-width="6.660000" />
<circle cx="697.960022" cy="1598.959961" r="19.980000" fill="red">
  <title>Osaka</title>
</circle><line x1="263.959991" y1="1792.959961" x2="697.960022" y2="1598.959961" stroke="red" stroke-width="6.660000" />
<circle cx="1198.959961" cy="1878.959961" r="19.980000" fill="red">
  <title>Shanghai</title>
</circle><line x1="697.960022" y1="1598.959961" x2="1198.959961" y2="1878.959961" stroke="red" stroke-width="6.660000" />
<circle cx="1987.959961" cy="1709.959961" r="19.980000" fill="red">
  <title>Istanbul</title>
</circle><line x1="1198.959961" y1="1878.959961" x2="1987.959961" y2="1709.959961" stroke="red" stroke-width="6.660000" />
<circle cx="1629.959961" cy="1033.959961" r="19.980000" fill="red">
  <title>New York</title>
</circle><line x1="1987.959961" y1="1709.959961" x2="1629.959961" y2="1033.959961" stroke="red" stroke-width="6.660000" />
<circle cx="1684.959961" cy="202.959991" r="19.980000" fill="red">
  <title>São Paulo</title>
</circle><line x1="1629.959961" y1="1033.959961" x2="1684.959961" y2="202.959991" stroke="red" stroke-width="6.660000" />
<circle cx="1204.959961" cy="93.959999" r="19.980000" fill="red">
  <title>Cairo</title>
</circle><line x1="1684.959961" y1="202.959991" x2="1204.959961" y2="93.959999" stroke="red" stroke-width="6.660000" />
<circle cx="913.960022" cy="84.959999" r="19.980000" fill="red">
  <title>Mumbai</title>
</circle><line x1="1204.959961" y1="93.959999" x2="913.960022" y2="84.959999" stroke="red" stroke-width="6.660000" />
<circle cx="405.959991" cy="89.959999" r="19.980000" fill="red">
  <title>Lagos</title>
</circle><line x1="913.960022" y1="84.959999" x2="405.959991" y2="89.959999" stroke="red" stroke-width="6.660000" />
<circle cx="421.959991" cy="236.959991" r="19.980000" fill="red">
  <title>Karachi</title>
</circle><line x1="405.959991" y1="89.959999" x2="421.959991" y2="236.959991" stroke="red" stroke-width="6.660000" />
<circle cx="495.959991" cy="498.959991" r="19.980000" fill="red">
  <title>Dhaka</title>
</circle><line x1="421.959991" y1="236.959991" x2="495.959991" y2="498.959991" stroke="red" stroke-width="6.660000" />
<circle cx="479.959991" cy="651.960022" r="19.980000" fill="red">
  <title>Kolkata</title>
</circle><line x1="495.959991" y1="498.959991" x2="479.959991" y2="651.960022" stroke="red" stroke-width="6.660000" />
<circle cx="107.959999" cy="921.960022" r="19.980000" fill="red">
  <title>Beijing</title>
</circle><line x1="479.959991" y1="651.960022" x2="107.959999" y2="921.960022" stroke="red" stroke-width="6.660000" />
<circle cx="556.960022" cy="770.960022" r="19.980000" fill="red">
  <title>Chongqing</title>
</circle><line x1="107.959999" y1="921.960022" x2="556.960022" y2="770.960022" stroke="red" stroke-width="6.660000" />
<circle cx="788.960022" cy="745.960022" r="19.980000" fill="red">
  <title>Mexico City</title>
</circle><line x1="556.960022" y1="770.960022" x2="788.960022" y2="745.960022" stroke="red" stroke-width="6.660000" />
<circle cx="928.960022" cy="704.960022" r="19.980000" fill="red">
  <title>Manila</title>
</circle><line x1="788.960022" y1="745.960022" x2="928.960022" y2="704.960022" stroke="red" stroke-width="6.660000" />
<circle cx="699.960022" cy="1114.959961" r="19.980000" fill="red">
  <title>Buenos Aires</title>
</circle><line x1="928.960022" y1="704.960022" x2="699.960022" y2="1114.959961" stroke="red" stroke-width="6.660000" />
</svg>
