<?xml version="1.0" encoding="UTF-8" standalone="no"?>
<svg width="500" height="500" viewBox="0 0 2074.000000 2074.000000" xmlns="http://www.w3.org/2000/svg">
<rect x="19.000000" y="19.000000" width="2036.000000" height="2036.000000" fill="black" />
<circle cx="1725.959961" cy="1844.959961" r="19.980000" fill="red">
  <title>Tokyo</title>
</circle><line x1="1643.959961" y1="1512.959961" x2="1725.959961" y2="1844.959961" stroke="red" stroke-width="6.660000" />
<circle cx="1514.959961" cy="1953.959961" r="19.980000" fill="red">
  <title>Cairo</title>
</circle><line x1="1725.959961" y1="1844.959961" x2="1514.959961" y2="1953.959961" stroke="red" stroke-width="6.660000" />
<circle cx="805.960022" cy="1876.959961" r="19.980000" fill="red">
  <title>Osaka</title>
</circle><line x1="1514.959961" y1="1953.959961" x2="805.960022" y2="1876.959961" stroke="red" stroke-width="6.660000" />
<circle cx="129.959991" cy="1869.959961" r="19.980000" fill="red">
  <title>New York</title>
</circle><line x1="805.960022" y1="1876.959961" x2="129.959991" y2="1869.959961" stroke="red" stroke-width="6.660000" />
<circle cx="136.959991" cy="1422.959961" r="19.980000" fill="red">
  <title>Mexico City</title>
</circle><line x1="129.959991" y1="1869.959961" x2="136.959991" y2="1422.959961" stroke="red" stroke-width="6.660000" />
<circle cx="575.960022" cy="544.960022" r="19.980000" fill="red">
  <title>Beijing</title>
</circle><line x1="136.959991" y1="1422.959961" x2="575.960022" y2="544.960022" stroke="red" stroke-width="6.660000" />
<circle cx="334.959991" cy="170.959991" r="19.980000" fill="red">
  <title>São Paulo</title>
</circle><line x1="575.960022" y1="544.960022" x2="334.959991" y2="170.959991" stroke="red" stroke-width="6.660000" />
<circle cx="995.960022" cy="70.959999" r="19.980000" fill="red">
  <title>Shanghai</title>
</circle><line x1="334.959991" y1="170.959991" x2="995.960022" y2="70.959999" stroke="red" stroke-width="6.660000" />
<circle cx="1399.959961" cy="453.959991" r="19.980000" fill="red">
  <title>Delhi</title>
</circle><line x1="995.960022" y1="70.959999" x2="1399.959961" y2="453.959991" stroke="red" stroke-width="6.660000" />
<circle cx="1085.959961" cy="892.960022" r="19.980000" fill="red">
  <title>Mumbai</title>
</circle><line x1="1399.959961" y1="453.959991" x2="1085.959961" y2="892.960022" stroke="red" stroke-width="6.660000" />
<circle cx="1643.959961" cy="1512.959961" r="19.980000" fill="red">
  <title>Dhaka</title>
</circle><line x1="1085.959961" y1="892.960022" x2="1643.959961" y2="1512.959961" stroke="red" stroke-width="6.660000" />
</svg>
