<?xml version="1.0" encoding="UTF-8" standalone="no"?>
<svg width="500" height="500" viewBox="0 0 2074.000000 2074.000000" xmlns="http://www.w3.org/2000/svg">
<rect x="19.000000" y="19.000000" width="2036.000000" height="2036.000000" fill="black" />
<circle cx="79.959999" cy="1517.959961" r="19.980000" fill="red">
  <title>Tokyo</title>
</circle><line x1="816.960022" y1="298.959991" x2="79.959999" y2="1517.959961" stroke="red" stroke-width="6.660000" />
<circle cx="186.959991" cy="1619.959961" r="19.980000" fill="red">
  <title>Delhi</title>
</circle><line x1="79.959999" y1="1517.959961" x2="186.959991" y2="1619.959961" stroke="red" stroke-width="6.660000" />
<circle cx="985.960022" cy="1877.959961" r="19.980000" fill="red">
  <title>Mexico City</title>
</circle><line x1="186.959991" y1="1619.959961" x2="985.960022" y2="1877.959961" stroke="red" stroke-width="6.660000" />
<circle cx="1039.959961" cy="1313.959961" r="19.980000" fill="red">
  <title>Dhaka</title>
</circle><line x1="985.960022" y1="1877.959961" x2="1039.959961" y2="1313.959961" stroke="red" stroke-width="6.660000" />
<circle cx="1176.959961" cy="1109.959961" r="19.980000" fill="red">
  <title>Cairo</title>
</circle><line x1="1039.959961" y1="1313.959961" x2="1176.959961" y2="1109.959961" stroke="red" stroke-width="6.660000" />
<circle cx="1325.959961" cy="1043.959961" r="19.980000" fill="red">
  <title>São Paulo</title>
</circle><line x1="1176.959961" y1="1109.959961" x2="1325.959961" y2="1043.959961" stroke="red" stroke-width="6.660000" />
<circle cx="1387.959961" cy="751.960022" r="19.980000" fill="red">
  <title>Mumbai</title>
</circle><line x1="1325.959961" y1="1043.959961" x2="1387.959961" y2="751.960022" stroke="red" stroke-width="6.660000" />
<circle cx="1070.959961" cy="468.959991" r="19.980000" fill="red">
  <title>Beijing</title>
</circle><line x1="1387.959961" y1="751.960022" x2="1070.959961" y2="468.959991" stroke="red" stroke-width="6.660000" />
<circle cx="816.960022" cy="298.959991" r="19.980000" fill="red">
  <title>Shanghai</title>
</circle><line x1="1070.959961" y1="468.959991" x2="816.960022" y2="298.959991" stroke="red" stroke-width="6.660000" />
</svg>
