<?xml version="1.0" encoding="UTF-8" standalone="no"?>
<svg width="500" height="500" viewBox="0 0 2074.000000 2074.000000" xmlns="http://www.w3.org/2000/svg">
<rect x="19.000000" y="19.000000" width="2036.000000" height="2036.000000" fill="black" />
<circle cx="1910.959961" cy="1971.959961" r="19.980000" fill="red">
  <title>Tokyo</title>
</circle><line x1="613.960022" y1="947.960022" x2="1910.959961" y2="1971.959961" stroke="red" stroke-width="6.660000" />
<circle cx="1953.959961" cy="1232.959961" r="19.980000" fill="red">
  <title>Shanghai</title>
</circle><line x1="1910.959961" y1="1971.959961" x2="1953.959961" y2="1232.959961" stroke="red" stroke-width="6.660000" />
<circle cx="1886.959961" cy="659.960022" r="19.980000" fill="red">
  <title>Mexico City</title>
</circle><line x1="1953.959961" y1="1232.959961" x2="1886.959961" y2="659.960022" stroke="red" stroke-width="6.660000" />
<circle cx="1422.959961" cy="821.960022" r="19.980000" fill="red">
  <title>Mumbai</title>
</circle><line x1="1886.959961" y1="659.960022" x2="1422.959961" y2="821.960022" stroke="red" stroke-width="6.660000" />
<circle cx="331.959991" cy="192.959991" r="19.980000" fill="red">
  <title>Cairo</title>
</circle><line x1="1422.959961" y1="821.960022" x2="331.959991" y2="192.959991" stroke="red" stroke-width="6.660000" />
<circle cx="212.959991" cy="802.960022" r="19.980000" fill="red">
  <title>Delhi</title>
</circle><line x1="331.959991" y1="192.959991" x2="212.959991" y2="802.960022" stroke="red" stroke-width="6.660000" />
<circle cx="613.960022" cy="947.960022" r="19.980000" fill="red">
  <title>São Paulo</title>
</circle><line x1="212.959991" y1="802.960022" x2="613.960022" y2="947.960022" stroke="red" stroke-width="6.660000" />
</svg>
