<?xml version="1.0" encoding="UTF-8" standalone="no"?>
<svg width="500" height="500" viewBox="0 0 2074.000000 2074.000000" xmlns="http://www.w3.org/2000/svg">
<rect x="19.000000" y="19.000000" width="2036.000000" height="2036.000000" fill="black" />
<circle cx="578.960022" cy="321.959991" r="19.980000" fill="red">
  <title>Tokyo</title>
</circle><line x1="873.960022" y1="777.960022" x2="578.960022" y2="321.959991" stroke="red" stroke-width="6.660000" />
<circle cx="1073.959961" cy="107.959999" r="19.980000" fill="red">
  <title>Beijing</title>
</circle><line x1="578.960022" y1="321.959991" x2="1073.959961" y2="107.959999" stroke="red" stroke-width="6.660000" />
<circle cx="1079.959961" cy="183.959991" r="19.980000" fill="red">
  <title>Mexico City</title>
</circle><line x1="1073.959961" y1="107.959999" x2="1079.959961" y2="183.959991" stroke="red" stroke-width="6.660000" />
<circle cx="1751.959961" cy="578.960022" r="19.980000" fill="red">
  <title>New York</title>
</circle><line x1="1079.959961" y1="183.959991" x2="1751.959961" y2="578.960022" stroke="red" stroke-width="6.660000" />
<circle cx="1696.959961" cy="676.960022" r="19.980000" fill="red">
  <title>Delhi</title>
</circle><line x1="1751.959961" y1="578.960022" x2="1696.959961" y2="676.960022" stroke="red" stroke-width="6.660000" />
<circle cx="894.960022" cy="1100.959961" r="19.980000" fill="red">
  <title>Osaka</title>
</circle><line x1="1696.959961" y1="676.960022" x2="894.960022" y2="1100.959961" stroke="red" stroke-width="6.660000" />
<circle cx="402.959991" cy="1724.959961" r="19.980000" fill="red">
  <title>Mumbai</title>
</circle><line x1="894.960022" y1="1100.959961" x2="402.959991" y2="1724.959961" stroke="red" stroke-width="6.660000" />
<circle cx="218.959991" cy="1991.959961" r="19.980000" fill="red">
  <title>Shanghai</title>
</circle><line x1="402.959991" y1="1724.959961" x2="218.959991" y2="1991.959961" stroke="red" stroke-width="6.660000" />
<circle cx="97.959999" cy="1936.959961" r="19.980000" fill="red">
  <title>São Paulo</title>
</circle><line x1="218.959991" y1="1991.959961" x2="97.959999" y2="1936.959961" stroke="red" stroke-width="6.660000" />
<circle cx="43.959999" cy="1539.959961" r="19.980000" fill="red">
  <title>Cairo</title>
</circle><line x1="97.959999" y1="1936.959961" x2="43.959999" y2="1539.959961" stroke="red" stroke-width="6.660000" />
<circle cx="873.960022" cy="777.960022" r="19.980000" fill="red">
  <title>Dhaka</title>
</circle><line x1="43.959999" y1="1539.959961" x2="873.960022" y2="777.960022" stroke="red" stroke-width="6.660000" />
</svg>
