<?xml version="1.0" encoding="UTF-8" standalone="no"?>
<svg width="500" height="500" viewBox="0 0 2074.000000 2074.000000" xmlns="http://www.w3.org/2000/svg">
<rect x="19.000000" y="19.000000" width="2036.000000" height="2036.000000" fill="black" />
<circle cx="1960.959961" cy="1331.959961" r="19.980000" fill="red">
  <title>Tokyo</title>
</circle><line x1="1608.959961" y1="1161.959961" x2="1960.959961" y2="1331.959961" stroke="red" stroke-width="6.660000" />
<circle cx="1911.959961" cy="1419.959961" r="19.980000" fill="red">
  <title>New York</title>
</circle><line x1="1960.959961" y1="1331.959961" x2="1911.959961" y2="1419.959961" stroke="red" stroke-width="6.660000" />
<circle cx="1496.959961" cy="1779.959961" r="19.980000" fill="red">
  <title>São Paulo</title>
</circle><line x1="1911.959961" y1="1419.959961" x2="1496.959961" y2="1779.959961" stroke="red" stroke-width="6.660000" />
<circle cx="654.960022" cy="1972.959961" r="19.980000" fill="red">
  <title>Cairo</title>
</circle><line x1="1496.959961" y1="1779.959961" x2="654.960022" y2="1972.959961" stroke="red" stroke-width="6.660000" />
<circle cx="213.959991" cy="1005.960022" r="19.980000" fill="red">
  <title>Dhaka</title>
</circle><line x1="654.960022" y1="1972.959961" x2="213.959991" y2="1005.960022" stroke="red" stroke-width="6.660000" />
<circle cx="976.960022" cy="1068.959961" r="19.980000" fill="red">
  <title>Shanghai</title>
</circle><line x1="213.959991" y1="1005.960022" x2="976.960022" y2="1068.959961" stroke="red" stroke-width="6.660000" />
<circle cx="1208.959961" cy="988.960022" r="19.980000" fill="red">
  <title>Beijing</title>
</circle><line x1="976.960022" y1="1068.959961" x2="1208.959961" y2="988.960022" stroke="red" stroke-width="6.660000" />
<circle cx="1570.959961" cy="785.960022" r="19.980000" fill="red">
  <title>Osaka</title>
</circle><line x1="1208.959961" y1="988.960022" x2="1570.959961" y2="785.960022" stroke="red" stroke-width="6.660000" />
<circle cx="1464.959961" cy="355.959991" r="19.980000" fill="red">
  <title>Mumbai</title>
</circle><line x1="1570.959961" y1="785.960022" x2="1464.959961" y2="355.959991" stroke="red" stroke-width="6.660000" />
<circle cx="1776.959961" cy="670.960022" r="19.980000" fill="red">
  <title>Mexico City</title>
</circle><line x1="1464.959961" y1="355.959991" x2="1776.959961" y2="670.960022" stroke="red" stroke-width="6.660000" />
<circle cx="1825.959961" cy="849.960022" r="19.980000" fill="red">
  <title>Delhi</title>
</circle><line x1="1776.959961" y1="670.960022" x2="1825.959961" y2="849.960022" stroke="red" stroke-width="6.660000" />
<circle cx="1608.959961" cy="1161.959961" r="19.980000" fill="red">
  <title>Karachi</title>
</circle><line x1="1825.959961" y1="849.960022" x2="1608.959961" y2="1161.959961" stroke="red" stroke-width="6.660000" />
</svg>
