<?xml version="1.0" encoding="UTF-8" standalone="no"?>
<svg width="500" height="500" viewBox="0 0 2074.000000 2074.000000" xmlns="http://www.w3.org/2000/svg">
<rect x="19.000000" y="19.000000" width="2036.000000" height="2036.000000" fill="black" />
<circle cx="1712.959961" cy="1359.959961" r="19.980000" fill="red">
  <title>Tokyo</title>
</circle><line x1="1685.959961" y1="861.960022" x2="1712.959961" y2="1359.959961" stroke="red" stroke-width="6.660000" />
<circle cx="1641.959961" cy="1880.959961" r="19.980000" fill="red">
  <title>Mexico City</title>
</circle><line x1="1712.959961" y1="1359.959961" x2="1641.959961" y2="1880.959961" stroke="red" stroke-width="6.660000" />
<circle cx="862.960022" cy="1566.959961" r="19.980000" fill="red">
  <title>Beijing</title>
</circle><line x1="1641.959961" y1="1880.959961" x2="862.960022" y2="1566.959961" stroke="red" stroke-width="6.660000" />
<circle cx="1041.959961" cy="1186.959961" r="19.980000" fill="red">
  <title>Karachi</title>
</circle><line x1="862.960022" y1="1566.959961" x2="1041.959961" y2="1186.959961" stroke="red" stroke-width="6.660000" />
<circle cx="376.959991" cy="980.960022" r="19.980000" fill="red">
  <title>New York</title>
</circle><line x1="1041.959961" y1="1186.959961" x2="376.959991" y2="980.960022" stroke="red" stroke-width="6.660000" />
<circle cx="51.959999" cy="967.960022" r="19.980000" fill="red">
  <title>Shanghai</title>
</circle><line x1="376.959991" y1="980.960022" x2="51.959999" y2="967.960022" stroke="red" stroke-width="6.660000" />
<circle cx="370.959991" cy="564.960022" r="19.980000" fill="red">
  <title>São Paulo</title>
</circle><line x1="51.959999" y1="967.960022" x2="370.959991" y2="564.960022" stroke="red" stroke-width="6.660000" />
<circle cx="895.960022" cy="733.960022" r="19.980000" fill="red">
  <title>Mumbai</title>
</circle><line x1="370.959991" y1="564.960022" x2="895.960022" y2="733.960022" stroke="red" stroke-width="6.660000" />
<circle cx="1078.959961" cy="572.960022" r="19.980000" fill="red">
  <title>Delhi</title>
</circle><line x1="895.960022" y1="733.960022" x2="1078.959961" y2="572.960022" stroke="red" stroke-width="6.660000" />
<circle cx="1951.959961" cy="241.959991" r="19.980000" fill="red">
  <title>Cairo</title>
</circle><line x1="1078.959961" y1="572.960022" x2="1951.959961" y2="241.959991" stroke="red" stroke-width="6.660000" />
<circle cx="1878.959961" cy="854.960022" r="19.980000" fill="red">
  <title>Dhaka</title>
</circle><line x1="1951.959961" y1="241.959991" x2="1878.959961" y2="854.960022" stroke="red" stroke-width="6.660000" />
<circle cx="1685.959961" cy="861.960022" r="19.980000" fill="red">
  <title>Osaka</title>
</circle><line x1="1878.959961" y1="854.960022" x2="1685.959961" y2="861.960022" stroke="red" stroke-width="6.660000" />
</svg>
