<?xml version="1.0" encoding="UTF-8" standalone="no"?>
<svg width="500" height="500" viewBox="0 0 2074.000000 2074.000000" xmlns="http://www.w3.org/2000/svg">
<rect x="19.000000" y="19.000000" width="2036.000000" height="2036.000000" fill="black" />
<circle cx="1504.959961" cy="668.960022" r="19.980000" fill="red">
  <title>Tokyo</title>
</circle><line x1="1663.959961" y1="1085.959961" x2="1504.959961" y2="668.960022" stroke="red" stroke-width="6.660000" />
<circle cx="1932.959961" cy="175.959991" r="19.980000" fill="red">
  <title>Osaka</title>
</circle><line x1="1504.959961" y1="668.960022" x2="1932.959961" y2="175.959991" stroke="red" stroke-width="6.660000" />
<circle cx="1090.959961" cy="286.959991" r="19.980000" fill="red">
  <title>Mumbai</title>
</circle><line x1="1932.959961" y1="175.959991" x2="1090.959961" y2="286.959991" stroke="red" stroke-width="6.660000" />
<circle cx="1072.959961" cy="780.960022" r="19.980000" fill="red">
  <title>Cairo</title>
</circle><line x1="1090.959961" y1="286.959991" x2="1072.959961" y2="780.960022" stroke="red" stroke-width="6.660000" />
<circle cx="593.960022" cy="528.960022" r="19.980000" fill="red">
  <title>Mexico City</title>
</circle><line x1="1072.959961" y1="780.960022" x2="593.960022" y2="528.960022" stroke="red" stroke-width="6.660000" />
<circle cx="520.960022" cy="759.960022" r="19.980000" fill="red">
  <title>Manila</title>
</circle><line x1="593.960022" y1="528.960022" x2="520.960022" y2="759.960022" stroke="red" stroke-width="6.660000" />
<circle cx="404.959991" cy="1110.959961" r="19.980000" fill="red">
  <title>São Paulo</title>
</circle><line x1="520.960022" y1="759.960022" x2="404.959991" y2="1110.959961" stroke="red" stroke-width="6.660000" />
<circle cx="593.960022" cy="1488.959961" r="19.980000" fill="red">
  <title>New York</title>
</circle><line x1="404.959991" y1="1110.959961" x2="593.960022" y2="1488.959961" stroke="red" stroke-width="6.660000" />
<circle cx="518.960022" cy="1889.959961" r="19.980000" fill="red">
  <title>Istanbul</title>
</circle><line x1="593.960022" y1="1488.959961" x2="518.960022" y2="1889.959961" stroke="red" stroke-width="6.660000" />
<circle cx="767.960022" cy="1984.959961" r="19.980000" fill="red">
  <title>Kolkata</title>
</circle><line x1="518.960022" y1="1889.959961" x2="767.960022" y2="1984.959961" stroke="red" stroke-width="6.660000" />
<circle cx="921.960022" cy="1506.959961" r="19.980000" fill="red">
  <title>Dhaka</title>
</circle><line x1="767.960022" y1="1984.959961" x2="921.960022" y2="1506.959961" stroke="red" stroke-width="6.660000" />
<circle cx="1075.959961" cy="1267.959961" r="19.980000" fill="red">
  <title>Beijing</title>
</circle><line x1="921.960022" y1="1506.959961" x2="1075.959961" y2="1267.959961" stroke="red" stroke-width="6.660000" />
<circle cx="1245.959961" cy="1709.959961" r="19.980000" fill="red">
  <title>Buenos Aires</title>
</circle><line x1="1075.959961" y1="1267.959961" x2="1245.959961" y2="1709.959961" stroke="red" stroke-width="6.660000" />
<circle cx="1279.959961" cy="1704.959961" r="19.980000" fill="red">
  <title>Shanghai</title>
</circle><line x1="1245.959961" y1="1709.959961" x2="1279.959961" y2="1704.959961" stroke="red" stroke-width="6.660000" />
<circle cx="1404.959961" cy="2018.959961" r="19.980000" fill="red">
  <title>Karachi</title>
</circle><line x1="1279.959961" y1="1704.959961" x2="1404.959961" y2="2018.959961" stroke="red" stroke-width="6.660000" />
<circle cx="1369.959961" cy="1760.959961" r="19.980000" fill="red">
  <title>Lagos</title>
</circle><line x1="1404.959961" y1="2018.959961" x2="1369.959961" y2="1760.959961" stroke="red" stroke-width="6.660000" />
<circle cx="2029.959961" cy="1423.959961" r="19.980000" fill="red">
  <title>Delhi</title>
</circle><line x1="1369.959961" y1="1760.959961" x2="2029.959961" y2="1423.959961" stroke="red" stroke-width="6.660000" />
<circle cx="1663.959961" cy="1085.959961" r="19.980000" fill="red">
  <title>Chongqing</title>
</circle><line x1="2029.959961" y1="1423.959961" x2="1663.959961" y2="1085.959961" stroke="red" stroke-width="6.660000" />
</svg>
