<?xml version="1.0" encoding="UTF-8" standalone="no"?>
<svg width="500" height="500" viewBox="0 0 2074.000000 2074.000000" xmlns="http://www.w3.org/2000/svg">
<rect x="19.000000" y="19.000000" width="2036.000000" height="2036.000000" fill="black" />
<circle cx="848.960022" cy="1648.959961" r="19.980000" fill="red">
  <title>Tokyo</title>
</circle><line x1="1461.959961" y1="1789.959961" x2="848.960022" y2="1648.959961" stroke="red" stroke-width="6.660000" />
<circle cx="223.959991" cy="1783.959961" r="19.980000" fill="red">
  <title>Delhi</title>
</circle><line x1="848.960022" y1="1648.959961" x2="223.959991" y2="1783.959961" stroke="red" stroke-width="6.660000" />
<circle cx="49.959999" cy="1833.959961" r="19.980000" fill="red">
  <title>Mexico City</title>
</circle><line x1="223.959991" y1="1783.959961" x2="49.959999" y2="1833.959961" stroke="red" stroke-width="6.660000" />
<circle cx="356.959991" cy="1329.959961" r="19.980000" fill="red">
  <title>São Paulo</title>
</circle><line x1="49.959999" y1="1833.959961" x2="356.959991" y2="1329.959961" stroke="red" stroke-width="6.660000" />
<circle cx="669.960022" cy="834.960022" r="19.980000" fill="red">
  <title>Osaka</title>
</circle><line x1="356.959991" y1="1329.959961" x2="669.960022" y2="834.960022" stroke="red" stroke-width="6.660000" />
<circle cx="361.959991" cy="240.959991" r="19.980000" fill="red">
  <title>Dhaka</title>
</circle><line x1="669.960022" y1="834.960022" x2="361.959991" y2="240.959991" stroke="red" stroke-width="6.660000" />
<circle cx="1262.959961" cy="540.960022" r="19.980000" fill="red">
  <title>Beijing</title>
</circle><line x1="361.959991" y1="240.959991" x2="1262.959961" y2="540.960022" stroke="red" stroke-width="6.660000" />
<circle cx="1739.959961" cy="890.960022" r="19.980000" fill="red">
  <title>Cairo</title>
</circle><line x1="1262.959961" y1="540.960022" x2="1739.959961" y2="890.960022" stroke="red" stroke-width="6.660000" />
<circle cx="1842.959961" cy="1336.959961" r="19.980000" fill="red">
  <title>Mumbai</title>
</circle><line x1="1739.959961" y1="890.960022" x2="1842.959961" y2="1336.959961" stroke="red" stroke-width="6.660000" />
<circle cx="1461.959961" cy="1789.959961" r="19.980000" fill="red">
  <title>Shanghai</title>
</circle><line x1="1842.959961" y1="1336.959961" x2="1461.959961" y2="1789.959961" stroke="red" stroke-width="6.660000" />
</svg>
