<?xml version="1.0" encoding="UTF-8" standalone="no"?>
<svg width="500" height="500" viewBox="0 0 2074.000000 2074.000000" xmlns="http://www.w3.org/2000/svg">
<rect x="19.000000" y="19.000000" width="2036.000000" height="2036.000000" fill="black" />
<circle cx="508.959991" cy="1872.959961" r="19.980000" fill="red">
  <title>Tokyo</title>
</circle><line x1="959.960022" y1="1881.959961" x2="508.959991" y2="1872.959961" stroke="red" stroke-width="6.660000" />
<circle cx="784.960022" cy="1497.959961" r="19.980000" fill="red">
  <title>São Paulo</title>
</circle><line x1="508.959991" y1="1872.959961" x2="784.960022" y2="1497.959961" stroke="red" stroke-width="6.660000" />
<circle cx="797.960022" cy="1498.959961" r="19.980000" fill="red">
  <title>Chongqing</title>
</circle><line x1="784.960022" y1="1497.959961" x2="797.960022" y2="1498.959961" stroke="red" stroke-width="6.660000" />
<circle cx="998.960022" cy="1428.959961" r="19.980000" fill="red">
  <title>Kolkata</title>
</circle><line x1="797.960022" y1="1498.959961" x2="998.960022" y2="1428.959961" stroke="red" stroke-width="6.660000" />
<circle cx="625.960022" cy="925.960022" r="19.980000" fill="red">
  <title>Karachi</title>
</circle><line x1="998.960022" y1="1428.959961" x2="625.960022" y2="925.960022" stroke="red" stroke-width="6.660000" />
<circle cx="146.959991" cy="215.959991" r="19.980000" fill="red">
  <title>Osaka</title>
</circle><line x1="625.960022" y1="925.960022" x2="146.959991" y2="215.959991" stroke="red" stroke-width="6.660000" />
<circle cx="480.959991" cy="757.960022" r="19.980000" fill="red">
  <title>Delhi</title>
</circle><line x1="146.959991" y1="215.959991" x2="480.959991" y2="757.960022" stroke="red" stroke-width="6.660000" />
<circle cx="946.960022" cy="735.960022" r="19.980000" fill="red">
  <title>Buenos Aires</title>
</circle><line x1="480.959991" y1="757.960022" x2="946.960022" y2="735.960022" stroke="red" stroke-width="6.660000" />
<circle cx="1850.959961" cy="334.959991" r="19.980000" fill="red">
  <title>Shanghai</title>
</circle><line x1="946.960022" y1="735.960022" x2="1850.959961" y2="334.959991" stroke="red" stroke-width="6.660000" />
<circle cx="1778.959961" cy="603.960022" r="19.980000" fill="red">
  <title>Mumbai</title>
</circle><line x1="1850.959961" y1="334.959991" x2="1778.959961" y2="603.960022" stroke="red" stroke-width="6.660000" />
<circle cx="1948.959961" cy="1233.959961" r="19.980000" fill="red">
  <title>Cairo</title>
</circle><line x1="1778.959961" y1="603.960022" x2="1948.959961" y2="1233.959961" stroke="red" stroke-width="6.660000" />
<circle cx="1593.959961" cy="1525.959961" r="19.980000" fill="red">
  <title>New York</title>
</circle><line x1="1948.959961" y1="1233.959961" x2="1593.959961" y2="1525.959961" stroke="red" stroke-width="6.660000" />
<circle cx="1561.959961" cy="1526.959961" r="19.980000" fill="red">
  <title>Beijing</title>
</circle><line x1="1593.959961" y1="1525.959961" x2="1561.959961" y2="1526.959961" stroke="red" stroke-width="6.660000" />
<circle cx="1409.959961" cy="1552.959961" r="19.980000" fill="red">
  <title>Mexico City</title>
</circle><line x1="1561.959961" y1="1526.959961" x2="1409.959961" y2="1552.959961" stroke="red" stroke-width="6.660000" />
<circle cx="1383.959961" cy="1644.959961" r="19.980000" fill="red">
  <title>Dhaka</title>
</circle><line x1="1409.959961" y1="1552.959961" x2="1383.959961" y2="1644.959961" stroke="red" stroke-width="6.660000" />
<circle cx="959.960022" cy="1881.959961" r="19.980000" fill="red">
  <title>Istanbul</title>
</circle><line x1="1383.959961" y1="1644.959961" x2="959.960022" y2="1881.959961" stroke="red" stroke-width="6.660000" />
</svg>
