<?xml version="1.0" encoding="UTF-8" standalone="no"?>
<svg width="500" height="500" viewBox="0 0 2074.000000 2074.000000" xmlns="http://www.w3.org/2000/svg">
<rect x="19.000000" y="19.000000" width="2036.000000" height="2036.000000" fill="black" />
<circle cx="1808.959961" cy="1917.959961" r="19.980000" fill="red">
  <title>Tokyo</title>
</circle><line x1="824.960022" y1="1223.959961" x2="1808.959961" y2="1917.959961" stroke="red" stroke-width="6.660000" />
<circle cx="655.960022" cy="250.959991" r="19.980000" fill="red">
  <title>Delhi</title>
</circle><line x1="1808.959961" y1="1917.959961" x2="655.960022" y2="250.959991" stroke="red" stroke-width="6.660000" />
<circle cx="50.959999" cy="276.959991" r="19.980000" fill="red">
  <title>São Paulo</title>
</circle><line x1="655.960022" y1="250.959991" x2="50.959999" y2="276.959991" stroke="red" stroke-width="6.660000" />
<circle cx="824.960022" cy="1223.959961" r="19.980000" fill="red">
  <title>Shanghai</title>
</circle><line x1="50.959999" y1="276.959991" x2="824.960022" y2="1223.959961" stroke="red" stroke-width="6.660000" />
</svg>
