<?xml version="1.0" encoding="UTF-8" standalone="no"?>
<svg width="500" height="500" viewBox="0 0 2074.000000 2074.000000" xmlns="http://www.w3.org/2000/svg">
<rect x="19.000000" y="19.000000" width="2036.000000" height="2036.000000" fill="black" />
<circle cx="2012.959961" cy="1388.959961" r="19.980000" fill="red">
  <title>Tokyo</title>
</circle><line x1="1888.959961" y1="1830.959961" x2="2012.959961" y2="1388.959961" stroke="red" stroke-width="6.660000" />
<circle cx="1964.959961" cy="1107.959961" r="19.980000" fill="red">
  <title>Shanghai</title>
</circle><line x1="2012.959961" y1="1388.959961" x2="1964.959961" y2="1107.959961" stroke="red" stroke-width="6.660000" />
<circle cx="1794.959961" cy="991.960022" r="19.980000" fill="red">
  <title>São Paulo</title>
</circle><line x1="1964.959961" y1="1107.959961" x2="1794.959961" y2="991.960022" stroke="red" stroke-width="6.660000" />
<circle cx="1837.959961" cy="861.960022" r="19.980000" fill="red">
  <title>Mexico City</title>
</circle><line x1="1794.959961" y1="991.960022" x2="1837.959961" y2="861.960022" stroke="red" stroke-width="6.660000" />
<circle cx="1965.959961" cy="607.960022" r="19.980000" fill="red">
  <title>Delhi</title>
</circle><line x1="1837.959961" y1="861.960022" x2="1965.959961" y2="607.960022" stroke="red" stroke-width="6.660000" />
<circle cx="1355.959961" cy="512.960022" r="19.980000" fill="red">
  <title>Chongqing</title>
</circle><line x1="1965.959961" y1="607.960022" x2="1355.959961" y2="512.960022" stroke="red" stroke-width="6.660000" />
<circle cx="1169.959961" cy="906.960022" r="19.980000" fill="red">
  <title>Karachi</title>
</circle><line x1="1355.959961" y1="512.960022" x2="1169.959961" y2="906.960022" stroke="red" stroke-width="6.660000" />
<circle cx="710.960022" cy="880.960022" r="19.980000" fill="red">
  <title>Buenos Aires</title>
</circle><line x1="1169.959961" y1="906.960022" x2="710.960022" y2="880.960022" stroke="red" stroke-width="6.660000" />
<circle cx="674.960022" cy="712.960022" r="19.980000" fill="red">
  <title>Osaka</title>
</circle><line x1="710.960022" y1="880.960022" x2="674.960022" y2="712.960022" stroke="red" stroke-width="6.660000" />
<circle cx="615.960022" cy="455.959991" r="19.980000" fill="red">
  <title>Dhaka</title>
</circle><line x1="674.960022" y1="712.960022" x2="615.960022" y2="455.959991" stroke="red" stroke-width="6.660000" />
<circle cx="55.959999" cy="995.960022" r="19.980000" fill="red">
  <title>Mumbai</title>
</circle><line x1="615.960022" y1="455.959991" x2="55.959999" y2="995.960022" stroke="red" stroke-width="6.660000" />
<circle cx="742.960022" cy="1212.959961" r="19.980000" fill="red">
  <title>New York</title>
</circle><line x1="55.959999" y1="995.960022" x2="742.960022" y2="1212.959961" stroke="red" stroke-width="6.660000" />
<circle cx="921.960022" cy="1724.959961" r="19.980000" fill="red">
  <title>Cairo</title>
</circle><line x1="742.960022" y1="1212.959961" x2="921.960022" y2="1724.959961" stroke="red" stroke-width="6.660000" />
<circle cx="1888.959961" cy="1830.959961" r="19.980000" fill="red">
  <title>Beijing</title>
</circle><line x1="921.960022" y1="1724.959961" x2="1888.959961" y2="1830.959961" stroke="red" stroke-width="6.660000" />
</svg>
