<?xml version="1.0" encoding="UTF-8" standalone="no"?>
<svg width="500" height="500" viewBox="0 0 2074.000000 2074.000000" xmlns="http://www.w3.org/2000/svg">
<rect x="19.000000" y="19.000000" width="2036.000000" height="2036.000000" fill="black" />
<circle cx="1267.959961" cy="1641.959961" r="19.980000" fill="red">
  <title>Tokyo</title>
</circle><line x1="941.960022" y1="1960.959961" x2="1267.959961" y2="1641.959961" stroke="red" stroke-width="6.660000" />
<circle cx="987.960022" cy="115.959999" r="19.980000" fill="red">
  <title>Delhi</title>
</circle><line x1="1267.959961" y1="1641.959961" x2="987.960022" y2="115.959999" stroke="red" stroke-width="6.660000" />
<circle cx="1453.959961" cy="893.960022" r="19.980000" fill="red">
  <title>Shanghai</title>
</circle><line x1="987.960022" y1="115.959999" x2="1453.959961" y2="893.960022" stroke="red" stroke-width="6.660000" />
<circle cx="941.960022" cy="1960.959961" r="19.980000" fill="red">
  <title>São Paulo</title>
</circle><line x1="1453.959961" y1="893.960022" x2="941.960022" y2="1960.959961" stroke="red" stroke-width="6.660000" />
</svg>
