<?xml version="1.0" encoding="UTF-8" standalone="no"?>
<svg width="500" height="500" viewBox="0 0 2074.000000 2074.000000" xmlns="http://www.w3.org/2000/svg">
<rect x="19.000000" y="19.000000" width="2036.000000" height="2036.000000" fill="black" />
<circle cx="1673.959961" cy="1317.959961" r="19.980000" fill="red">
  <title>Tokyo</title>
</circle><line x1="1181.959961" y1="1116.959961" x2="1673.959961" y2="1317.959961" stroke="red" stroke-width="6.660000" />
<circle cx="1481.959961" cy="1709.959961" r="19.980000" fill="red">
  <title>Istanbul</title>
</circle><line x1="1673.959961" y1="1317.959961" x2="1481.959961" y2="1709.959961" stroke="red" stroke-width="6.660000" />
<circle cx="1283.959961" cy="1619.959961" r="19.980000" fill="red">
  <title>Rio de Janeiro</title>
</circle><line x1="1481.959961" y1="1709.959961" x2="1283.959961" y2="1619.959961" stroke="red" stroke-width="6.660000" />
<circle cx="1119.959961" cy="1556.959961" r="19.980000" fill="red">
  <title>Shanghai</title>
</circle><line x1="1283.959961" y1="1619.959961" x2="1119.959961" y2="1556.959961" stroke="red" stroke-width="6.660000" />
<circle cx="988.960022" cy="1765.959961" r="19.980000" fill="red">
  <title>Manila</title>
</circle><line x1="1119.959961" y1="1556.959961" x2="988.960022" y2="1765.959961" stroke="red" stroke-width="6.660000" />
<circle cx="52.959999" cy="2016.959961" r="19.980000" fill="red">
  <title>Karachi</title>
</circle><line x1="988.960022" y1="1765.959961" x2="52.959999" y2="2016.959961" stroke="red" stroke-width="6.660000" />
<circle cx="685.960022" cy="1392.959961" r="19.980000" fill="red">
  <title>Chongqing</title>
</circle><line x1="52.959999" y1="2016.959961" x2="685.960022" y2="1392.959961" stroke="red" stroke-width="6.660000" />
<circle cx="640.960022" cy="1225.959961" r="19.980000" fill="red">
  <title>Osaka</title>
</circle><line x1="685.960022" y1="1392.959961" x2="640.960022" y2="1225.959961" stroke="red" stroke-width="6.660000" />
<circle cx="475.959991" cy="787.960022" r="19.980000" fill="red">
  <title>New York</title>
</circle><line x1="640.960022" y1="1225.959961" x2="475.959991" y2="787.960022" stroke="red" stroke-width="6.660000" />
<circle cx="622.960022" cy="577.960022" r="19.980000" fill="red">
  <title>Delhi</title>
</circle><line x1="475.959991" y1="787.960022" x2="622.960022" y2="577.960022" stroke="red" stroke-width="6.660000" />
<circle cx="290.959991" cy="301.959991" r="19.980000" fill="red">
  <title>Beijing</title>
</circle><line x1="622.960022" y1="577.960022" x2="290.959991" y2="301.959991" stroke="red" stroke-width="6.660000" />
<circle cx="673.960022" cy="343.959991" r="19.980000" fill="red">
  <title>Dhaka</title>
</circle><line x1="290.959991" y1="301.959991" x2="673.960022" y2="343.959991" stroke="red" stroke-width="6.660000" />
<circle cx="1175.959961" cy="108.959999" r="19.980000" fill="red">
  <title>Mumbai</title>
</circle><line x1="673.960022" y1="343.959991" x2="1175.959961" y2="108.959999" stroke="red" stroke-width="6.660000" />
<circle cx="1655.959961" cy="69.959999" r="19.980000" fill="red">
  <title>Lagos</title>
</circle><line x1="1175.959961" y1="108.959999" x2="1655.959961" y2="69.959999" stroke="red" stroke-width="6.660000" />
<circle cx="2001.959961" cy="188.959991" r="19.980000" fill="red">
  <title>São Paulo</title>
</circle><line x1="1655.959961" y1="69.959999" x2="2001.959961" y2="188.959991" stroke="red" stroke-width="6.660000" />
<circle cx="1863.959961" cy="484.959991" r="19.980000" fill="red">
  <title>Cairo</title>
</circle><line x1="2001.959961" y1="188.959991" x2="1863.959961" y2="484.959991" stroke="red" stroke-width="6.660000" />
<circle cx="1335.959961" cy="418.959991" r="19.980000" fill="red">
  <title>Mexico City</title>
</circle><line x1="1863.959961" y1="484.959991" x2="1335.959961" y2="418.959991" stroke="red" stroke-width="6.660000" />
<circle cx="997.960022" cy="1090.959961" r="19.980000" fill="red">
  <title>Buenos Aires</title>
</circle><line x1="1335.959961" y1="418.959991" x2="997.960022" y2="1090.959961" stroke="red" stroke-width="6.660000" />
<circle cx="1181.959961" cy="1116.959961" r="19.980000" fill="red">
  <title>Kolkata</title>
</circle><line x1="997.960022" y1="1090.959961" x2="1181.959961" y2="1116.959961" stroke="red" stroke-width="6.660000" />
</svg>
