<?xml version="1.0" encoding="UTF-8" standalone="no"?>
<svg width="500" height="500" viewBox="0 0 2074.000000 2074.000000" xmlns="http://www.w3.org/2000/svg">
<rect x="19.000000" y="19.000000" width="2036.000000" height="2036.000000" fill="black" />
<circle cx="494.959991" cy="328.959991" r="19.980000" fill="red">
  <title>Tokyo</title>
</circle><line x1="822.960022" y1="242.959991" x2="494.959991" y2="328.959991" stroke="red" stroke-width="6.660000" />
<circle cx="173.959991" cy="511.959991" r="19.980000" fill="red">
  <title>Mumbai</title>
</circle><line x1="494.959991" y1="328.959991" x2="173.959991" y2="511.959991" stroke="red" stroke-width="6.660000" />
<circle cx="90.959999" cy="591.960022" r="19.980000" fill="red">
  <title>New York</title>
</circle><line x1="173.959991" y1="511.959991" x2="90.959999" y2="591.960022" stroke="red" stroke-width="6.660000" />
<circle cx="772.960022" cy="813.960022" r="19.980000" fill="red">
  <title>Osaka</title>
</circle><line x1="90.959999" y1="591.960022" x2="772.960022" y2="813.960022" stroke="red" stroke-width="6.660000" />
<circle cx="561.960022" cy="1086.959961" r="19.980000" fill="red">
  <title>Lagos</title>
</circle><line x1="772.960022" y1="813.960022" x2="561.960022" y2="1086.959961" stroke="red" stroke-width="6.660000" />
<circle cx="531.960022" cy="1155.959961" r="19.980000" fill="red">
  <title>Manila</title>
</circle><line x1="561.960022" y1="1086.959961" x2="531.960022" y2="1155.959961" stroke="red" stroke-width="6.660000" />
<circle cx="448.959991" cy="1228.959961" r="19.980000" fill="red">
  <title>Karachi</title>
</circle><line x1="531.960022" y1="1155.959961" x2="448.959991" y2="1228.959961" stroke="red" stroke-width="6.660000" />
<circle cx="593.960022" cy="1323.959961" r="19.980000" fill="red">
  <title>Shanghai</title>
</circle><line x1="448.959991" y1="1228.959961" x2="593.960022" y2="1323.959961" stroke="red" stroke-width="6.660000" />
<circle cx="692.960022" cy="1394.959961" r="19.980000" fill="red">
  <title>Chongqing</title>
</circle><line x1="593.960022" y1="1323.959961" x2="692.960022" y2="1394.959961" stroke="red" stroke-width="6.660000" />
<circle cx="1166.959961" cy="1277.959961" r="19.980000" fill="red">
  <title>Kolkata</title>
</circle><line x1="692.960022" y1="1394.959961" x2="1166.959961" y2="1277.959961" stroke="red" stroke-width="6.660000" />
<circle cx="1661.959961" cy="1297.959961" r="19.980000" fill="red">
  <title>Mexico City</title>
</circle><line x1="1166.959961" y1="1277.959961" x2="1661.959961" y2="1297.959961" stroke="red" stroke-width="6.660000" />
<circle cx="1755.959961" cy="2031.959961" r="19.980000" fill="red">
  <title>Buenos Aires</title>
</circle><line x1="1661.959961" y1="1297.959961" x2="1755.959961" y2="2031.959961" stroke="red" stroke-width="6.660000" />
<circle cx="2026.959961" cy="1321.959961" r="19.980000" fill="red">
  <title>Delhi</title>
</circle><line x1="1755.959961" y1="2031.959961" x2="2026.959961" y2="1321.959961" stroke="red" stroke-width="6.660000" />
<circle cx="1985.959961" cy="1198.959961" r="19.980000" fill="red">
  <title>São Paulo</title>
</circle><line x1="2026.959961" y1="1321.959961" x2="1985.959961" y2="1198.959961" stroke="red" stroke-width="6.660000" />
<circle cx="1746.959961" cy="657.960022" r="19.980000" fill="red">
  <title>Cairo</title>
</circle><line x1="1985.959961" y1="1198.959961" x2="1746.959961" y2="657.960022" stroke="red" stroke-width="6.660000" />
<circle cx="1680.959961" cy="506.959991" r="19.980000" fill="red">
  <title>Dhaka</title>
</circle><line x1="1746.959961" y1="657.960022" x2="1680.959961" y2="506.959991" stroke="red" stroke-width="6.660000" />
<circle cx="954.960022" cy="207.959991" r="19.980000" fill="red">
  <title>Beijing</title>
</circle><line x1="1680.959961" y1="506.959991" x2="954.960022" y2="207.959991" stroke="red" stroke-width="6.660000" />
<circle cx="822.960022" cy="242.959991" r="19.980000" fill="red">
  <title>Istanbul</title>
</circle><line x1="954.960022" y1="207.959991" x2="822.960022" y2="242.959991" stroke="red" stroke-width="6.660000" />
</svg>
