<?xml version="1.0" encoding="UTF-8" standalone="no"?>
<svg width="500" height="500" viewBox="0 0 2074.000000 2074.000000" xmlns="http://www.w3.org/2000/svg">
<rect x="19.000000" y="19.000000" width="2036.000000" height="2036.000000" fill="black" />
<circle cx="1070.959961" cy="754.960022" r="19.980000" fill="red">
  <title>Tokyo</title>
</circle><line x1="358.959991" y1="882.960022" x2="1070.959961" y2="754.960022" stroke="red" stroke-width="6.660000" />
<circle cx="1216.959961" cy="697.960022" r="19.980000" fill="red">
  <title>Shanghai</title>
</circle><line x1="1070.959961" y1="754.960022" x2="1216.959961" y2="697.960022" stroke="red" stroke-width="6.660000" />
<circle cx="1562.959961" cy="455.959991" r="19.980000" fill="red">
  <title>Mexico City</title>
</circle><line x1="1216.959961" y1="697.960022" x2="1562.959961" y2="455.959991" stroke="red" stroke-width="6.660000" />
<circle cx="2012.959961" cy="768.960022" r="19.980000" fill="red">
  <title>Beijing</title>
</circle><line x1="1562.959961" y1="455.959991" x2="2012.959961" y2="768.960022" stroke="red" stroke-width="6.660000" />
<circle cx="1935.959961" cy="1725.959961" r="19.980000" fill="red">
  <title>Delhi</title>
</circle><line x1="2012.959961" y1="768.960022" x2="1935.959961" y2="1725.959961" stroke="red" stroke-width="6.660000" />
<circle cx="1221.959961" cy="1929.959961" r="19.980000" fill="red">
  <title>Dhaka</title>
</circle><line x1="1935.959961" y1="1725.959961" x2="1221.959961" y2="1929.959961" stroke="red" stroke-width="6.660000" />
<circle cx="896.960022" cy="1817.959961" r="19.980000" fill="red">
  <title>Osaka</title>
</circle><line x1="1221.959961" y1="1929.959961" x2="896.960022" y2="1817.959961" stroke="red" stroke-width="6.660000" />
<circle cx="592.960022" cy="1472.959961" r="19.980000" fill="red">
  <title>São Paulo</title>
</circle><line x1="896.960022" y1="1817.959961" x2="592.960022" y2="1472.959961" stroke="red" stroke-width="6.660000" />
<circle cx="123.959999" cy="1681.959961" r="19.980000" fill="red">
  <title>Mumbai</title>
</circle><line x1="592.960022" y1="1472.959961" x2="123.959999" y2="1681.959961" stroke="red" stroke-width="6.660000" />
<circle cx="358.959991" cy="882.960022" r="19.980000" fill="red">
  <title>Cairo</title>
</circle><line x1="123.959999" y1="1681.959961" x2="358.959991" y2="882.960022" stroke="red" stroke-width="6.660000" />
</svg>
