<?xml version="1.0" encoding="UTF-8" standalone="no"?>
<svg width="500" height="500" viewBox="0 0 2074.000000 2074.000000" xmlns="http://www.w3.org/2000/svg">
<rect x="19.000000" y="19.000000" width="2036.000000" height="2036.000000" fill="black" />
<circle cx="1581.959961" cy="1295.959961" r="19.980000" fill="red">
  <title>Tokyo</title>
</circle><line x1="1096.959961" y1="1144.959961" x2="1581.959961" y2="1295.959961" stroke="red" stroke-width="6.660000" />
<circle cx="1144.959961" cy="1793.959961" r="19.980000" fill="red">
  <title>Shanghai</title>
</circle><line x1="1581.959961" y1="1295.959961" x2="1144.959961" y2="1793.959961" stroke="red" stroke-width="6.660000" />
<circle cx="276.959991" cy="1873.959961" r="19.980000" fill="red">
  <title>Cairo</title>
</circle><line x1="1144.959961" y1="1793.959961" x2="276.959991" y2="1873.959961" stroke="red" stroke-width="6.660000" />
<circle cx="825.960022" cy="1690.959961" r="19.980000" fill="red">
  <title>Mumbai</title>
</circle><line x1="276.959991" y1="1873.959961" x2="825.960022" y2="1690.959961" stroke="red" stroke-width="6.660000" />
<circle cx="1143.959961" cy="1276.959961" r="19.980000" fill="red">
  <title>São Paulo</title>
</circle><line x1="825.960022" y1="1690.959961" x2="1143.959961" y2="1276.959961" stroke="red" stroke-width="6.660000" />
<circle cx="647.960022" cy="426.959991" r="19.980000" fill="red">
  <title>Delhi</title>
</circle><line x1="1143.959961" y1="1276.959961" x2="647.960022" y2="426.959991" stroke="red" stroke-width="6.660000" />
<circle cx="1096.959961" cy="1144.959961" r="19.980000" fill="red">
  <title>Mexico City</title>
</circle><line x1="647.960022" y1="426.959991" x2="1096.959961" y2="1144.959961" stroke="red" stroke-width="6.660000" />
</svg>
