<?xml version="1.0" encoding="UTF-8" standalone="no"?>
<svg width="500" height="500" viewBox="0 0 2074.000000 2074.000000" xmlns="http://www.w3.org/2000/svg">
<rect x="19.000000" y="19.000000" width="2036.000000" height="2036.000000" fill="black" />
<circle cx="871.960022" cy="630.960022" r="19.980000" fill="red">
  <title>Tokyo</title>
</circle><line x1="466.959991" y1="746.960022" x2="871.960022" y2="630.960022" stroke="red" stroke-width="6.660000" />
<circle cx="881.960022" cy="654.960022" r="19.980000" fill="red">
  <title>New York</title>
</circle><line x1="871.960022" y1="630.960022" x2="881.960022" y2="654.960022" stroke="red" stroke-width="6.660000" />
<circle cx="1586.959961" cy="781.960022" r="19.980000" fill="red">
  <title>Istanbul</title>
</circle><line x1="881.960022" y1="654.960022" x2="1586.959961" y2="781.960022" stroke="red" stroke-width="6.660000" />
<circle cx="1874.959961" cy="1128.959961" r="19.980000" fill="red">
  <title>Dhaka</title>
</circle><line x1="1586.959961" y1="781.960022" x2="1874.959961" y2="1128.959961" stroke="red" stroke-width="6.660000" />
<circle cx="1781.959961" cy="1330.959961" r="19.980000" fill="red">
  <title>Osaka</title>
</circle><line x1="1874.959961" y1="1128.959961" x2="1781.959961" y2="1330.959961" stroke="red" stroke-width="6.660000" />
<circle cx="1888.959961" cy="1696.959961" r="19.980000" fill="red">
  <title>Beijing</title>
</circle><line x1="1781.959961" y1="1330.959961" x2="1888.959961" y2="1696.959961" stroke="red" stroke-width="6.660000" />
<circle cx="1791.959961" cy="1787.959961" r="19.980000" fill="red">
  <title>Mexico City</title>
</circle><line x1="1888.959961" y1="1696.959961" x2="1791.959961" y2="1787.959961" stroke="red" stroke-width="6.660000" />
<circle cx="1373.959961" cy="1977.959961" r="19.980000" fill="red">
  <title>Manila</title>
</circle><line x1="1791.959961" y1="1787.959961" x2="1373.959961" y2="1977.959961" stroke="red" stroke-width="6.660000" />
<circle cx="1545.959961" cy="1266.959961" r="19.980000" fill="red">
  <title>Delhi</title>
</circle><line x1="1373.959961" y1="1977.959961" x2="1545.959961" y2="1266.959961" stroke="red" stroke-width="6.660000" />
<circle cx="1647.959961" cy="934.960022" r="19.980000" fill="red">
  <title>Lagos</title>
</circle><line x1="1545.959961" y1="1266.959961" x2="1647.959961" y2="934.960022" stroke="red" stroke-width="6.660000" />
<circle cx="1599.959961" cy="613.960022" r="19.980000" fill="red">
  <title>Shanghai</title>
</circle><line x1="1647.959961" y1="934.960022" x2="1599.959961" y2="613.960022" stroke="red" stroke-width="6.660000" />
<circle cx="1793.959961" cy="102.959999" r="19.980000" fill="red">
  <title>Mumbai</title>
</circle><line x1="1599.959961" y1="613.960022" x2="1793.959961" y2="102.959999" stroke="red" stroke-width="6.660000" />
<circle cx="955.960022" cy="235.959991" r="19.980000" fill="red">
  <title>Karachi</title>
</circle><line x1="1793.959961" y1="102.959999" x2="955.960022" y2="235.959991" stroke="red" stroke-width="6.660000" />
<circle cx="720.960022" cy="446.959991" r="19.980000" fill="red">
  <title>Cairo</title>
</circle><line x1="955.960022" y1="235.959991" x2="720.960022" y2="446.959991" stroke="red" stroke-width="6.660000" />
<circle cx="470.959991" cy="419.959991" r="19.980000" fill="red">
  <title>Kolkata</title>
</circle><line x1="720.960022" y1="446.959991" x2="470.959991" y2="419.959991" stroke="red" stroke-width="6.660000" />
<circle cx="109.959999" cy="204.959991" r="19.980000" fill="red">
  <title>Buenos Aires</title>
</circle><line x1="470.959991" y1="419.959991" x2="109.959999" y2="204.959991" stroke="red" stroke-width="6.660000" />
<circle cx="393.959991" cy="852.960022" r="19.980000" fill="red">
  <title>São Paulo</title>
</circle><line x1="109.959999" y1="204.959991" x2="393.959991" y2="852.960022" stroke="red" stroke-width="6.660000" />
<circle cx="466.959991" cy="746.960022" r="19.980000" fill="red">
  <title>Chongqing</title>
</circle><line x1="393.959991" y1="852.960022" x2="466.959991" y2="746.960022" stroke="red" stroke-width="6.660000" />
</svg>
