<?xml version="1.0" encoding="UTF-8" standalone="no"?>
<svg width="500" height="500" viewBox="0 0 2074.000000 2074.000000" xmlns="http://www.w3.org/2000/svg">
<rect x="19.000000" y="19.000000" width="2036.000000" height="2036.000000" fill="black" />
<circle cx="84.959999" cy="1140.959961" r="19.980000" fill="red">
  <title>Tokyo</title>
</circle><line x1="557.960022" y1="1310.959961" x2="84.959999" y2="1140.959961" stroke="red" stroke-width="6.660000" />
<circle cx="66.959999" cy="1821.959961" r="19.980000" fill="red">
  <title>Delhi</title>
</circle><line x1="84.959999" y1="1140.959961" x2="66.959999" y2="1821.959961" stroke="red" stroke-width="6.660000" />
<circle cx="429.959991" cy="1681.959961" r="19.980000" fill="red">
  <title>São Paulo</title>
</circle><line x1="66.959999" y1="1821.959961" x2="429.959991" y2="1681.959961" stroke="red" stroke-width="6.660000" />
<circle cx="1472.959961" cy="1977.959961" r="19.980000" fill="red">
  <title>Beijing</title>
</circle><line x1="429.959991" y1="1681.959961" x2="1472.959961" y2="1977.959961" stroke="red" stroke-width="6.660000" />
<circle cx="1675.959961" cy="781.960022" r="19.980000" fill="red">
  <title>Mexico City</title>
</circle><line x1="1472.959961" y1="1977.959961" x2="1675.959961" y2="781.960022" stroke="red" stroke-width="6.660000" />
<circle cx="1331.959961" cy="552.960022" r="19.980000" fill="red">
  <title>Mumbai</title>
</circle><line x1="1675.959961" y1="781.960022" x2="1331.959961" y2="552.960022" stroke="red" stroke-width="6.660000" />
<circle cx="908.960022" cy="193.959991" r="19.980000" fill="red">
  <title>Cairo</title>
</circle><line x1="1331.959961" y1="552.960022" x2="908.960022" y2="193.959991" stroke="red" stroke-width="6.660000" />
<circle cx="557.960022" cy="1310.959961" r="19.980000" fill="red">
  <title>Shanghai</title>
</circle><line x1="908.960022" y1="193.959991" x2="557.960022" y2="1310.959961" stroke="red" stroke-width="6.660000" />
</svg>
