<?xml version="1.0" encoding="UTF-8" standalone="no"?>
<svg width="500" height="500" viewBox="0 0 2074.000000 2074.000000" xmlns="http://www.w3.org/2000/svg">
<rect x="19.000000" y="19.000000" width="2036.000000" height="2036.000000" fill="black" />
<circle cx="820.960022" cy="1580.959961" r="19.980000" fill="red">
  <title>Tokyo</title>
</circle><line x1="1300.959961" y1="1603.959961" x2="820.960022" y2="1580.959961" stroke="red" stroke-width="6.660000" />
<circle cx="772.960022" cy="1465.959961" r="19.980000" fill="red">
  <title>Karachi</title>
</circle><line x1="820.960022" y1="1580.959961" x2="772.960022" y2="1465.959961" stroke="red" stroke-width="6.660000" />
<circle cx="751.960022" cy="1368.959961" r="19.980000" fill="red">
  <title>New York</title>
</circle><line x1="772.960022" y1="1465.959961" x2="751.960022" y2="1368.959961" stroke="red" stroke-width="6.660000" />
<circle cx="366.959991" cy="1193.959961" r="19.980000" fill="red">
  <title>Beijing</title>
</circle><line x1="751.960022" y1="1368.959961" x2="366.959991" y2="1193.959961" stroke="red" stroke-width="6.660000" />
<circle cx="121.959999" cy="1099.959961" r="19.980000" fill="red">
  <title>Mexico City</title>
</circle><line x1="366.959991" y1="1193.959961" x2="121.959999" y2="1099.959961" stroke="red" stroke-width="6.660000" />
<circle cx="111.959999" cy="1029.959961" r="19.980000" fill="red">
  <title>Manila</title>
</circle><line x1="121.959999" y1="1099.959961" x2="111.959999" y2="1029.959961" stroke="red" stroke-width="6.660000" />
<circle cx="867.960022" cy="922.960022" r="19.980000" fill="red">
  <title>Shanghai</title>
</circle><line x1="111.959999" y1="1029.959961" x2="867.960022" y2="922.960022" stroke="red" stroke-width="6.660000" />
<circle cx="959.960022" cy="939.960022" r="19.980000" fill="red">
  <title>Lagos</title>
</circle><line x1="867.960022" y1="922.960022" x2="959.960022" y2="939.960022" stroke="red" stroke-width="6.660000" />
<circle cx="1033.959961" cy="568.960022" r="19.980000" fill="red">
  <title>Istanbul</title>
</circle><line x1="959.960022" y1="939.960022" x2="1033.959961" y2="568.960022" stroke="red" stroke-width="6.660000" />
<circle cx="1068.959961" cy="354.959991" r="19.980000" fill="red">
  <title>Buenos Aires</title>
</circle><line x1="1033.959961" y1="568.960022" x2="1068.959961" y2="354.959991" stroke="red" stroke-width="6.660000" />
<circle cx="2031.959961" cy="593.960022" r="19.980000" fill="red">
  <title>Dhaka</title>
</circle><line x1="1068.959961" y1="354.959991" x2="2031.959961" y2="593.960022" stroke="red" stroke-width="6.660000" />
<circle cx="1985.959961" cy="745.960022" r="19.980000" fill="red">
  <title>São Paulo</title>
</circle><line x1="2031.959961" y1="593.960022" x2="1985.959961" y2="745.960022" stroke="red" stroke-width="6.660000" />
<circle cx="1753.959961" cy="1182.959961" r="19.980000" fill="red">
  <title>Delhi</title>
</circle><line x1="1985.959961" y1="745.960022" x2="1753.959961" y2="1182.959961" stroke="red" stroke-width="6.660000" />
<circle cx="1534.959961" cy="1099.959961" r="19.980000" fill="red">
  <title>Osaka</title>
</circle><line x1="1753.959961" y1="1182.959961" x2="1534.959961" y2="1099.959961" stroke="red" stroke-width="6.660000" />
<circle cx="1600.959961" cy="1369.959961" r="19.980000" fill="red">
  <title>Cairo</title>
</circle><line x1="1534.959961" y1="1099.959961" x2="1600.959961" y2="1369.959961" stroke="red" stroke-width="6.660000" />
<circle cx="1732.959961" cy="1744.959961" r="19.980000" fill="red">
  <title>Mumbai</title>
</circle><line x1="1600.959961" y1="1369.959961" x2="1732.959961" y2="1744.959961" stroke="red" stroke-width="6.660000" />
<circle cx="1313.959961" cy="1814.959961" r="19.980000" fill="red">
  <title>Kolkata</title>
</circle><line x1="1732.959961" y1="1744.959961" x2="1313.959961" y2="1814.959961" stroke="red" stroke-width="6.660000" />
<circle cx="1300.959961" cy="1603.959961" r="19.980000" fill="red">
  <title>Chongqing</title>
</circle><line x1="1313.959961" y1="1814.959961" x2="1300.959961" y2="1603.959961" stroke="red" stroke-width="6.660000" />
</svg>
