<?xml version="1.0" encoding="UTF-8" standalone="no"?>
<svg width="500" height="500" viewBox="0 0 2074.000000 2074.000000" xmlns="http://www.w3.org/2000/svg">
<rect x="19.000000" y="19.000000" width="2036.000000" height="2036.000000" fill="black" />
<circle cx="730.960022" cy="860.960022" r="19.980000" fill="red">
  <title>Tokyo</title>
</circle><line x1="369.959991" y1="313.959991" x2="730.960022" y2="860.960022" stroke="red" stroke-width="6.660000" />
<circle cx="879.960022" cy="1509.959961" r="19.980000" fill="red">
  <title>Shanghai</title>
</circle><line x1="730.960022" y1="860.960022" x2="879.960022" y2="1509.959961" stroke="red" stroke-width="6.660000" />
<circle cx="1755.959961" cy="1784.959961" r="19.980000" fill="red">
  <title>Mexico City</title>
</circle><line x1="879.960022" y1="1509.959961" x2="1755.959961" y2="1784.959961" stroke="red" stroke-width="6.660000" />
<circle cx="1616.959961" cy="1020.960022" r="19.980000" fill="red">
  <title>Delhi</title>
</circle><line x1="1755.959961" y1="1784.959961" x2="1616.959961" y2="1020.960022" stroke="red" stroke-width="6.660000" />
<circle cx="1201.959961" cy="869.960022" r="19.980000" fill="red">
  <title>Cairo</title>
</circle><line x1="1616.959961" y1="1020.960022" x2="1201.959961" y2="869.960022" stroke="red" stroke-width="6.660000" />
<circle cx="369.959991" cy="313.959991" r="19.980000" fill="red">
  <title>São Paulo</title>
</circle><line x1="1201.959961" y1="869.960022" x2="369.959991" y2="313.959991" stroke="red" stroke-width="6.660000" />
</svg>
