<?xml version="1.0" encoding="UTF-8" standalone="no"?>
<svg width="500" height="500" viewBox="0 0 2074.000000 2074.000000" xmlns="http://www.w3.org/2000/svg">
<rect x="19.000000" y="19.000000" width="2036.000000" height="2036.000000" fill="black" />
<circle cx="463.959991" cy="1614.959961" r="19.980000" fill="red">
  <title>Tokyo</title>
</circle><line x1="733.960022" y1="948.960022" x2="463.959991" y2="1614.959961" stroke="red" stroke-width="6.660000" />
<circle cx="1784.959961" cy="2021.959961" r="19.980000" fill="red">
  <title>Shanghai</title>
</circle><line x1="463.959991" y1="1614.959961" x2="1784.959961" y2="2021.959961" stroke="red" stroke-width="6.660000" />
<circle cx="1048.959961" cy="999.960022" r="19.980000" fill="red">
  <title>São Paulo</title>
</circle><line x1="1784.959961" y1="2021.959961" x2="1048.959961" y2="999.960022" stroke="red" stroke-width="6.660000" />
<circle cx="1506.959961" cy="302.959991" r="19.980000" fill="red">
  <title>Delhi</title>
</circle><line x1="1048.959961" y1="999.960022" x2="1506.959961" y2="302.959991" stroke="red" stroke-width="6.660000" />
<circle cx="733.960022" cy="948.960022" r="19.980000" fill="red">
  <title>Mexico City</title>
</circle><line x1="1506.959961" y1="302.959991" x2="733.960022" y2="948.960022" stroke="red" stroke-width="6.660000" />
</svg>
