<?xml version="1.0" encoding="UTF-8" standalone="no"?>
<svg width="500" height="500" viewBox="0 0 2074.000000 2074.000000" xmlns="http://www.w3.org/2000/svg">
<rect x="19.000000" y="19.000000" width="2036.000000" height="2036.000000" fill="black" />
<circle cx="165.959991" cy="94.959999" r="19.980000" fill="red">
  <title>Tokyo</title>
</circle><line x1="812.960022" y1="103.959999" x2="165.959991" y2="94.959999" stroke="red" stroke-width="6.660000" />
<circle cx="1374.959961" cy="1725.959961" r="19.980000" fill="red">
  <title>Delhi</title>
</circle><line x1="165.959991" y1="94.959999" x2="1374.959961" y2="1725.959961" stroke="red" stroke-width="6.660000" />
<circle cx="812.960022" cy="103.959999" r="19.980000" fill="red">
  <title>Shanghai</title>
</circle><line x1="1374.959961" y1="1725.959961" x2="812.960022" y2="103.959999" stroke="red" stroke-width="6.660000" />
</svg>
