<?xml version="1.0" encoding="UTF-8" standalone="no"?>
<svg width="500" height="500" viewBox="0 0 2074.000000 2074.000000" xmlns="http://www.w3.org/2000/svg">
<rect x="19.000000" y="19.000000" width="2036.000000" height="2036.000000" fill="black" />
<circle cx="1415.959961" cy="455.959991" r="19.980000" fill="red">
  <title>Tokyo</title>
</circle><line x1="1056.959961" y1="769.960022" x2="1415.959961" y2="455.959991" stroke="red" stroke-width="6.660000" />
<circle cx="1331.959961" cy="115.959999" r="19.980000" fill="red">
  <title>Mexico City</title>
</circle><line x1="1415.959961" y1="455.959991" x2="1331.959961" y2="115.959999" stroke="red" stroke-width="6.660000" />
<circle cx="1696.959961" cy="253.959991" r="19.980000" fill="red">
  <title>Dhaka</title>
</circle><line x1="1331.959961" y1="115.959999" x2="1696.959961" y2="253.959991" stroke="red" stroke-width="6.660000" />
<circle cx="1558.959961" cy="374.959991" r="19.980000" fill="red">
  <title>Osaka</title>
</circle><line x1="1696.959961" y1="253.959991" x2="1558.959961" y2="374.959991" stroke="red" stroke-width="6.660000" />
<circle cx="1832.959961" cy="1279.959961" r="19.980000" fill="red">
  <title>Rio de Janeiro</title>
</circle><line x1="1558.959961" y1="374.959991" x2="1832.959961" y2="1279.959961" stroke="red" stroke-width="6.660000" />
<circle cx="1943.959961" cy="1710.959961" r="19.980000" fill="red">
  <title>Istanbul</title>
</circle><line x1="1832.959961" y1="1279.959961" x2="1943.959961" y2="1710.959961" stroke="red" stroke-width="6.660000" />
<circle cx="1448.959961" cy="1321.959961" r="19.980000" fill="red">
  <title>Kolkata</title>
</circle><line x1="1943.959961" y1="1710.959961" x2="1448.959961" y2="1321.959961" stroke="red" stroke-width="6.660000" />
<circle cx="896.960022" cy="1125.959961" r="19.980000" fill="red">
  <title>Tianjin</title>
</circle><line x1="1448.959961" y1="1321.959961" x2="896.960022" y2="1125.959961" stroke="red" stroke-width="6.660000" />
<circle cx="821.960022" cy="1355.959961" r="19.980000" fill="red">
  <title>Delhi</title>
</circle><line x1="896.960022" y1="1125.959961" x2="821.960022" y2="1355.959961" stroke="red" stroke-width="6.660000" />
<circle cx="621.960022" cy="1518.959961" r="19.980000" fill="red">
  <title>Chongqing</title>
</circle><line x1="821.960022" y1="1355.959961" x2="621.960022" y2="1518.959961" stroke="red" stroke-width="6.660000" />
<circle cx="696.960022" cy="1833.959961" r="19.980000" fill="red">
  <title>Beijing</title>
</circle><line x1="621.960022" y1="1518.959961" x2="696.960022" y2="1833.959961" stroke="red" stroke-width="6.660000" />
<circle cx="535.960022" cy="1639.959961" r="19.980000" fill="red">
  <title>Shanghai</title>
</circle><line x1="696.960022" y1="1833.959961" x2="535.960022" y2="1639.959961" stroke="red" stroke-width="6.660000" />
<circle cx="501.959991" cy="1557.959961" r="19.980000" fill="red">
  <title>Cairo</title>
</circle><line x1="535.960022" y1="1639.959961" x2="501.959991" y2="1557.959961" stroke="red" stroke-width="6.660000" />
<circle cx="234.959991" cy="974.960022" r="19.980000" fill="red">
  <title>Buenos Aires</title>
</circle><line x1="501.959991" y1="1557.959961" x2="234.959991" y2="974.960022" stroke="red" stroke-width="6.660000" />
<circle cx="113.959999" cy="347.959991" r="19.980000" fill="red">
  <title>New York</title>
</circle><line x1="234.959991" y1="974.960022" x2="113.959999" y2="347.959991" stroke="red" stroke-width="6.660000" />
<circle cx="127.959999" cy="231.959991" r="19.980000" fill="red">
  <title>Manila</title>
</circle><line x1="113.959999" y1="347.959991" x2="127.959999" y2="231.959991" stroke="red" stroke-width="6.660000" />
<circle cx="159.959991" cy="168.959991" r="19.980000" fill="red">
  <title>Mumbai</title>
</circle><line x1="127.959999" y1="231.959991" x2="159.959991" y2="168.959991" stroke="red" stroke-width="6.660000" />
<circle cx="680.960022" cy="311.959991" r="19.980000" fill="red">
  <title>São Paulo</title>
</circle><line x1="159.959991" y1="168.959991" x2="680.960022" y2="311.959991" stroke="red" stroke-width="6.660000" />
<circle cx="638.960022" cy="623.960022" r="19.980000" fill="red">
  <title>Lagos</title>
</circle><line x1="680.960022" y1="311.959991" x2="638.960022" y2="623.960022" stroke="red" stroke-width="6.660000" />
<circle cx="1056.959961" cy="769.960022" r="19.980000" fill="red">
  <title>Karachi</title>
</circle><line x1="638.960022" y1="623.960022" x2="1056.959961" y2="769.960022" stroke="red" stroke-width="6.660000" />
</svg>
