<?xml version="1.0" encoding="UTF-8" standalone="no"?>
<svg width="500" height="500" viewBox="0 0 2074.000000 2074.000000" xmlns="http://www.w3.org/2000/svg">
<rect x="19.000000" y="19.000000" width="2036.000000" height="2036.000000" fill="black" />
<circle cx="1698.959961" cy="354.959991" r="19.980000" fill="red">
  <title>Tokyo</title>
</circle><line x1="1304.959961" y1="1968.959961" x2="1698.959961" y2="354.959991" stroke="red" stroke-width="6.660000" />
<circle cx="661.960022" cy="1997.959961" r="19.980000" fill="red">
  <title>Delhi</title>
</circle><line x1="1698.959961" y1="354.959991" x2="661.960022" y2="1997.959961" stroke="red" stroke-width="6.660000" />
<circle cx="1304.959961" cy="1968.959961" r="19.980000" fill="red">
  <title>Shanghai</title>
</circle><line x1="661.960022" y1="1997.959961" x2="1304.959961" y2="1968.959961" stroke="red" stroke-width="6.660000" />
</svg>
