<?xml version="1.0" encoding="UTF-8" standalone="no"?>
<svg width="500" height="500" viewBox="0 0 2074.000000 2074.000000" xmlns="http://www.w3.org/2000/svg">
<rect x="19.000000" y="19.000000" width="2036.000000" height="2036.000000" fill="black" />
<circle cx="1571.959961" cy="297.959991" r="19.980000" fill="red">
  <title>Tokyo</title>
</circle><line x1="1656.959961" y1="642.960022" x2="1571.959961" y2="297.959991" stroke="red" stroke-width="6.660000" />
<circle cx="815.960022" cy="175.959991" r="19.980000" fill="red">
  <title>Dhaka</title>
</circle><line x1="1571.959961" y1="297.959991" x2="815.960022" y2="175.959991" stroke="red" stroke-width="6.660000" />
<circle cx="270.959991" cy="509.959991" r="19.980000" fill="red">
  <title>São Paulo</title>
</circle><line x1="815.960022" y1="175.959991" x2="270.959991" y2="509.959991" stroke="red" stroke-width="6.660000" />
<circle cx="67.959999" cy="537.960022" r="19.980000" fill="red">
  <title>Karachi</title>
</circle><line x1="270.959991" y1="509.959991" x2="67.959999" y2="537.960022" stroke="red" stroke-width="6.660000" />
<circle cx="176.959991" cy="1277.959961" r="19.980000" fill="red">
  <title>Osaka</title>
</circle><line x1="67.959999" y1="537.960022" x2="176.959991" y2="1277.959961" stroke="red" stroke-width="6.660000" />
<circle cx="733.960022" cy="1063.959961" r="19.980000" fill="red">
  <title>Beijing</title>
</circle><line x1="176.959991" y1="1277.959961" x2="733.960022" y2="1063.959961" stroke="red" stroke-width="6.660000" />
<circle cx="851.960022" cy="1006.960022" r="19.980000" fill="red">
  <title>New York</title>
</circle><line x1="733.960022" y1="1063.959961" x2="851.960022" y2="1006.960022" stroke="red" stroke-width="6.660000" />
<circle cx="944.960022" cy="1418.959961" r="19.980000" fill="red">
  <title>Buenos Aires</title>
</circle><line x1="851.960022" y1="1006.960022" x2="944.960022" y2="1418.959961" stroke="red" stroke-width="6.660000" />
<circle cx="1474.959961" cy="990.960022" r="19.980000" fill="red">
  <title>Mumbai</title>
</circle><line x1="944.960022" y1="1418.959961" x2="1474.959961" y2="990.960022" stroke="red" stroke-width="6.660000" />
<circle cx="1802.959961" cy="1327.959961" r="19.980000" fill="red">
  <title>Shanghai</title>
</circle><line x1="1474.959961" y1="990.960022" x2="1802.959961" y2="1327.959961" stroke="red" stroke-width="6.660000" />
<circle cx="1937.959961" cy="1680.959961" r="19.980000" fill="red">
  <title>Mexico City</title>
</circle><line x1="1802.959961" y1="1327.959961" x2="1937.959961" y2="1680.959961" stroke="red" stroke-width="6.660000" />
<circle cx="1780.959961" cy="1002.960022" r="19.980000" fill="red">
  <title>Delhi</title>
</circle><line x1="1937.959961" y1="1680.959961" x2="1780.959961" y2="1002.960022" stroke="red" stroke-width="6.660000" />
<circle cx="1656.959961" cy="642.960022" r="19.980000" fill="red">
  <title>Cairo</title>
</circle><line x1="1780.959961" y1="1002.960022" x2="1656.959961" y2="642.960022" stroke="red" stroke-width="6.660000" />
</svg>
