<?xml version="1.0" encoding="UTF-8" standalone="no"?>
<svg width="500" height="500" viewBox="0 0 2074.000000 2074.000000" xmlns="http://www.w3.org/2000/svg">
<rect x="19.000000" y="19.000000" width="2036.000000" height="2036.000000" fill="black" />
<circle cx="1041.959961" cy="859.960022" r="19.980000" fill="red">
  <title>Tokyo</title>
</circle><line x1="664.960022" y1="236.959991" x2="1041.959961" y2="859.960022" stroke="red" stroke-width="6.660000" />
<circle cx="904.960022" cy="1997.959961" r="19.980000" fill="red">
  <title>Delhi</title>
</circle><line x1="1041.959961" y1="859.960022" x2="904.960022" y2="1997.959961" stroke="red" stroke-width="6.660000" />
<circle cx="1421.959961" cy="415.959991" r="19.980000" fill="red">
  <title>Shanghai</title>
</circle><line x1="904.960022" y1="1997.959961" x2="1421.959961" y2="415.959991" stroke="red" stroke-width="6.660000" />
<circle cx="664.960022" cy="236.959991" r="19.980000" fill="red">
  <title>São Paulo</title>
</circle><line x1="1421.959961" y1="415.959991" x2="664.960022" y2="236.959991" stroke="red" stroke-width="6.660000" />
</svg>
