<?xml version="1.0" encoding="UTF-8" standalone="no"?>
<svg width="500" height="500" viewBox="0 0 2074.000000 2074.000000" xmlns="http://www.w3.org/2000/svg">
<rect x="19.000000" y="19.000000" width="2036.000000" height="2036.000000" fill="black" />
<circle cx="1424.959961" cy="1363.959961" r="19.980000" fill="red">
  <title>Tokyo</title>
</circle><line x1="1631.959961" y1="1076.959961" x2="1424.959961" y2="1363.959961" stroke="red" stroke-width="6.660000" />
<circle cx="1732.959961" cy="1366.959961" r="19.980000" fill="red">
  <title>Beijing</title>
</circle><line x1="1424.959961" y1="1363.959961" x2="1732.959961" y2="1366.959961" stroke="red" stroke-width="6.660000" />
<circle cx="1766.959961" cy="1395.959961" r="19.980000" fill="red">
  <title>Manila</title>
</circle><line x1="1732.959961" y1="1366.959961" x2="1766.959961" y2="1395.959961" stroke="red" stroke-width="6.660000" />
<circle cx="1733.959961" cy="2020.959961" r="19.980000" fill="red">
  <title>Karachi</title>
</circle><line x1="1766.959961" y1="1395.959961" x2="1733.959961" y2="2020.959961" stroke="red" stroke-width="6.660000" />
<circle cx="900.960022" cy="1999.959961" r="19.980000" fill="red">
  <title>Delhi</title>
</circle><line x1="1733.959961" y1="2020.959961" x2="900.960022" y2="1999.959961" stroke="red" stroke-width="6.660000" />
<circle cx="482.959991" cy="1987.959961" r="19.980000" fill="red">
  <title>Osaka</title>
</circle><line x1="900.960022" y1="1999.959961" x2="482.959991" y2="1987.959961" stroke="red" stroke-width="6.660000" />
<circle cx="221.959991" cy="2022.959961" r="19.980000" fill="red">
  <title>Rio de Janeiro</title>
</circle><line x1="482.959991" y1="1987.959961" x2="221.959991" y2="2022.959961" stroke="red" stroke-width="6.660000" />
<circle cx="533.960022" cy="1669.959961" r="19.980000" fill="red">
  <title>Kolkata</title>
</circle><line x1="221.959991" y1="2022.959961" x2="533.960022" y2="1669.959961" stroke="red" stroke-width="6.660000" />
<circle cx="514.960022" cy="1315.959961" r="19.980000" fill="red">
  <title>Dhaka</title>
</circle><line x1="533.960022" y1="1669.959961" x2="514.960022" y2="1315.959961" stroke="red" stroke-width="6.660000" />
<circle cx="833.960022" cy="947.960022" r="19.980000" fill="red">
  <title>Mexico City</title>
</circle><line x1="514.960022" y1="1315.959961" x2="833.960022" y2="947.960022" stroke="red" stroke-width="6.660000" />
<circle cx="584.960022" cy="734.960022" r="19.980000" fill="red">
  <title>Chongqing</title>
</circle><line x1="833.960022" y1="947.960022" x2="584.960022" y2="734.960022" stroke="red" stroke-width="6.660000" />
<circle cx="283.959991" cy="441.959991" r="19.980000" fill="red">
  <title>Istanbul</title>
</circle><line x1="584.960022" y1="734.960022" x2="283.959991" y2="441.959991" stroke="red" stroke-width="6.660000" />
<circle cx="430.959991" cy="383.959991" r="19.980000" fill="red">
  <title>São Paulo</title>
</circle><line x1="283.959991" y1="441.959991" x2="430.959991" y2="383.959991" stroke="red" stroke-width="6.660000" />
<circle cx="858.960022" cy="309.959991" r="19.980000" fill="red">
  <title>Mumbai</title>
</circle><line x1="430.959991" y1="383.959991" x2="858.960022" y2="309.959991" stroke="red" stroke-width="6.660000" />
<circle cx="904.960022" cy="484.959991" r="19.980000" fill="red">
  <title>New York</title>
</circle><line x1="858.960022" y1="309.959991" x2="904.960022" y2="484.959991" stroke="red" stroke-width="6.660000" />
<circle cx="1396.959961" cy="497.959991" r="19.980000" fill="red">
  <title>Cairo</title>
</circle><line x1="904.960022" y1="484.959991" x2="1396.959961" y2="497.959991" stroke="red" stroke-width="6.660000" />
<circle cx="1634.959961" cy="242.959991" r="19.980000" fill="red">
  <title>Buenos Aires</title>
</circle><line x1="1396.959961" y1="497.959991" x2="1634.959961" y2="242.959991" stroke="red" stroke-width="6.660000" />
<circle cx="1348.959961" cy="863.960022" r="19.980000" fill="red">
  <title>Shanghai</title>
</circle><line x1="1634.959961" y1="242.959991" x2="1348.959961" y2="863.960022" stroke="red" stroke-width="6.660000" />
<circle cx="1631.959961" cy="1076.959961" r="19.980000" fill="red">
  <title>Lagos</title>
</circle><line x1="1348.959961" y1="863.960022" x2="1631.959961" y2="1076.959961" stroke="red" stroke-width="6.660000" />
</svg>
