<?xml version="1.0" encoding="UTF-8" standalone="no"?>
<svg width="500" height="500" viewBox="0 0 2074.000000 2074.000000" xmlns="http://www.w3.org/2000/svg">
<rect x="19.000000" y="19.000000" width="2036.000000" height="2036.000000" fill="black" />
<circle cx="921.960022" cy="1377.959961" r="19.980000" fill="red">
  <title>Tokyo</title>
</circle><line x1="1320.959961" y1="1773.959961" x2="921.960022" y2="1377.959961" stroke="red" stroke-width="6.660000" />
<circle cx="479.959991" cy="1167.959961" r="19.980000" fill="red">
  <title>Shanghai</title>
</circle><line x1="921.960022" y1="1377.959961" x2="479.959991" y2="1167.959961" stroke="red" stroke-width="6.660000" />
<circle cx="268.959991" cy="1352.959961" r="19.980000" fill="red">
  <title>Chongqing</title>
</circle><line x1="479.959991" y1="1167.959961" x2="268.959991" y2="1352.959961" stroke="red" stroke-width="6.660000" />
<circle cx="51.959999" cy="1488.959961" r="19.980000" fill="red">
  <title>Beijing</title>
</circle><line x1="268.959991" y1="1352.959961" x2="51.959999" y2="1488.959961" stroke="red" stroke-width="6.660000" />
<circle cx="138.959991" cy="1277.959961" r="19.980000" fill="red">
  <title>Mexico City</title>
</circle><line x1="51.959999" y1="1488.959961" x2="138.959991" y2="1277.959961" stroke="red" stroke-width="6.660000" />
<circle cx="119.959999" cy="395.959991" r="19.980000" fill="red">
  <title>Delhi</title>
</circle><line x1="138.959991" y1="1277.959961" x2="119.959999" y2="395.959991" stroke="red" stroke-width="6.660000" />
<circle cx="569.960022" cy="136.959991" r="19.980000" fill="red">
  <title>New York</title>
</circle><line x1="119.959999" y1="395.959991" x2="569.960022" y2="136.959991" stroke="red" stroke-width="6.660000" />
<circle cx="746.960022" cy="310.959991" r="19.980000" fill="red">
  <title>Dhaka</title>
</circle><line x1="569.960022" y1="136.959991" x2="746.960022" y2="310.959991" stroke="red" stroke-width="6.660000" />
<circle cx="1042.959961" cy="360.959991" r="19.980000" fill="red">
  <title>São Paulo</title>
</circle><line x1="746.960022" y1="310.959991" x2="1042.959961" y2="360.959991" stroke="red" stroke-width="6.660000" />
<circle cx="1362.959961" cy="315.959991" r="19.980000" fill="red">
  <title>Cairo</title>
</circle><line x1="1042.959961" y1="360.959991" x2="1362.959961" y2="315.959991" stroke="red" stroke-width="6.660000" />
<circle cx="1429.959961" cy="340.959991" r="19.980000" fill="red">
  <title>Buenos Aires</title>
</circle><line x1="1362.959961" y1="315.959991" x2="1429.959961" y2="340.959991" stroke="red" stroke-width="6.660000" />
<circle cx="1992.959961" cy="504.959991" r="19.980000" fill="red">
  <title>Mumbai</title>
</circle><line x1="1429.959961" y1="340.959991" x2="1992.959961" y2="504.959991" stroke="red" stroke-width="6.660000" />
<circle cx="1227.959961" cy="1048.959961" r="19.980000" fill="red">
  <title>Osaka</title>
</circle><line x1="1992.959961" y1="504.959991" x2="1227.959961" y2="1048.959961" stroke="red" stroke-width="6.660000" />
<circle cx="1320.959961" cy="1773.959961" r="19.980000" fill="red">
  <title>Karachi</title>
</circle><line x1="1227.959961" y1="1048.959961" x2="1320.959961" y2="1773.959961" stroke="red" stroke-width="6.660000" />
</svg>
