<?xml version="1.0" encoding="UTF-8" standalone="no"?>
<svg width="500" height="500" viewBox="0 0 2074.000000 2074.000000" xmlns="http://www.w3.org/2000/svg">
<rect x="19.000000" y="19.000000" width="2036.000000" height="2036.000000" fill="black" />
<circle cx="627.960022" cy="1691.959961" r="19.980000" fill="red">
  <title>Tokyo</title>
</circle><line x1="1023.960022" y1="1218.959961" x2="627.960022" y2="1691.959961" stroke="red" stroke-width="6.660000" />
<circle cx="934.960022" cy="1677.959961" r="19.980000" fill="red">
  <title>Delhi</title>
</circle><line x1="627.960022" y1="1691.959961" x2="934.960022" y2="1677.959961" stroke="red" stroke-width="6.660000" />
<circle cx="1924.959961" cy="1456.959961" r="19.980000" fill="red">
  <title>Cairo</title>
</circle><line x1="934.960022" y1="1677.959961" x2="1924.959961" y2="1456.959961" stroke="red" stroke-width="6.660000" />
<circle cx="1798.959961" cy="802.960022" r="19.980000" fill="red">
  <title>Mexico City</title>
</circle><line x1="1924.959961" y1="1456.959961" x2="1798.959961" y2="802.960022" stroke="red" stroke-width="6.660000" />
<circle cx="1471.959961" cy="785.960022" r="19.980000" fill="red">
  <title>Beijing</title>
</circle><line x1="1798.959961" y1="802.960022" x2="1471.959961" y2="785.960022" stroke="red" stroke-width="6.660000" />
<circle cx="1560.959961" cy="586.960022" r="19.980000" fill="red">
  <title>Dhaka</title>
</circle><line x1="1471.959961" y1="785.960022" x2="1560.959961" y2="586.960022" stroke="red" stroke-width="6.660000" />
<circle cx="1574.959961" cy="400.959991" r="19.980000" fill="red">
  <title>Shanghai</title>
</circle><line x1="1560.959961" y1="586.960022" x2="1574.959961" y2="400.959991" stroke="red" stroke-width="6.660000" />
<circle cx="911.960022" cy="324.959991" r="19.980000" fill="red">
  <title>Osaka</title>
</circle><line x1="1574.959961" y1="400.959991" x2="911.960022" y2="324.959991" stroke="red" stroke-width="6.660000" />
<circle cx="1009.960022" cy="1176.959961" r="19.980000" fill="red">
  <title>São Paulo</title>
</circle><line x1="911.960022" y1="324.959991" x2="1009.960022" y2="1176.959961" stroke="red" stroke-width="6.660000" />
<circle cx="1023.960022" cy="1218.959961" r="19.980000" fill="red">
  <title>Mumbai</title>
</circle><line x1="1009.960022" y1="1176.959961" x2="1023.960022" y2="1218.959961" stroke="red" stroke-width="6.660000" />
</svg>
