<?xml version="1.0" encoding="UTF-8" standalone="no"?>
<svg width="500" height="500" viewBox="0 0 2074.000000 2074.000000" xmlns="http://www.w3.org/2000/svg">
<rect x="19.000000" y="19.000000" width="2036.000000" height="2036.000000" fill="black" />
<circle cx="1677.959961" cy="652.960022" r="19.980000" fill="red">
  <title>Tokyo</title>
</circle><line x1="1694.959961" y1="951.960022" x2="1677.959961" y2="652.960022" stroke="red" stroke-width="6.660000" />
<circle cx="1657.959961" cy="393.959991" r="19.980000" fill="red">
  <title>Shanghai</title>
</circle><line x1="1677.959961" y1="652.960022" x2="1657.959961" y2="393.959991" stroke="red" stroke-width="6.660000" />
<circle cx="1522.959961" cy="267.959991" r="19.980000" fill="red">
  <title>Cairo</title>
</circle><line x1="1657.959961" y1="393.959991" x2="1522.959961" y2="267.959991" stroke="red" stroke-width="6.660000" />
<circle cx="707.960022" cy="169.959991" r="19.980000" fill="red">
  <title>Dhaka</title>
</circle><line x1="1522.959961" y1="267.959991" x2="707.960022" y2="169.959991" stroke="red" stroke-width="6.660000" />
<circle cx="422.959991" cy="412.959991" r="19.980000" fill="red">
  <title>New York</title>
</circle><line x1="707.960022" y1="169.959991" x2="422.959991" y2="412.959991" stroke="red" stroke-width="6.660000" />
<circle cx="623.960022" cy="358.959991" r="19.980000" fill="red">
  <title>Beijing</title>
</circle><line x1="422.959991" y1="412.959991" x2="623.960022" y2="358.959991" stroke="red" stroke-width="6.660000" />
<circle cx="1222.959961" cy="967.960022" r="19.980000" fill="red">
  <title>Osaka</title>
</circle><line x1="623.960022" y1="358.959991" x2="1222.959961" y2="967.960022" stroke="red" stroke-width="6.660000" />
<circle cx="836.960022" cy="1706.959961" r="19.980000" fill="red">
  <title>Buenos Aires</title>
</circle><line x1="1222.959961" y1="967.960022" x2="836.960022" y2="1706.959961" stroke="red" stroke-width="6.660000" />
<circle cx="604.960022" cy="1964.959961" r="19.980000" fill="red">
  <title>Delhi</title>
</circle><line x1="836.960022" y1="1706.959961" x2="604.960022" y2="1964.959961" stroke="red" stroke-width="6.660000" />
<circle cx="974.960022" cy="1349.959961" r="19.980000" fill="red">
  <title>Mexico City</title>
</circle><line x1="604.960022" y1="1964.959961" x2="974.960022" y2="1349.959961" stroke="red" stroke-width="6.660000" />
<circle cx="1529.959961" cy="1069.959961" r="19.980000" fill="red">
  <title>Karachi</title>
</circle><line x1="974.960022" y1="1349.959961" x2="1529.959961" y2="1069.959961" stroke="red" stroke-width="6.660000" />
<circle cx="1781.959961" cy="1274.959961" r="19.980000" fill="red">
  <title>Mumbai</title>
</circle><line x1="1529.959961" y1="1069.959961" x2="1781.959961" y2="1274.959961" stroke="red" stroke-width="6.660000" />
<circle cx="1694.959961" cy="951.960022" r="19.980000" fill="red">
  <title>São Paulo</title>
</circle><line x1="1781.959961" y1="1274.959961" x2="1694.959961" y2="951.960022" stroke="red" stroke-width="6.660000" />
</svg>
