<?xml version="1.0" encoding="UTF-8" standalone="no"?>
<svg width="500" height="500" viewBox="0 0 2074.000000 2074.000000" xmlns="http://www.w3.org/2000/svg">
<rect x="19.000000" y="19.000000" width="2036.000000" height="2036.000000" fill="black" />
<circle cx="781.960022" cy="1487.959961" r="19.980000" fill="red">
  <title>Tokyo</title>
</circle><line x1="964.960022" y1="1458.959961" x2="781.960022" y2="1487.959961" stroke="red" stroke-width="6.660000" />
<circle cx="832.960022" cy="1898.959961" r="19.980000" fill="red">
  <title>Cairo</title>
</circle><line x1="781.960022" y1="1487.959961" x2="832.960022" y2="1898.959961" stroke="red" stroke-width="6.660000" />
<circle cx="841.960022" cy="1980.959961" r="19.980000" fill="red">
  <title>Chongqing</title>
</circle><line x1="832.960022" y1="1898.959961" x2="841.960022" y2="1980.959961" stroke="red" stroke-width="6.660000" />
<circle cx="380.959991" cy="1922.959961" r="19.980000" fill="red">
  <title>Istanbul</title>
</circle><line x1="841.960022" y1="1980.959961" x2="380.959991" y2="1922.959961" stroke="red" stroke-width="6.660000" />
<circle cx="273.959991" cy="1659.959961" r="19.980000" fill="red">
  <title>New York</title>
</circle><line x1="380.959991" y1="1922.959961" x2="273.959991" y2="1659.959961" stroke="red" stroke-width="6.660000" />
<circle cx="306.959991" cy="643.960022" r="19.980000" fill="red">
  <title>Mexico City</title>
</circle><line x1="273.959991" y1="1659.959961" x2="306.959991" y2="643.960022" stroke="red" stroke-width="6.660000" />
<circle cx="613.960022" cy="340.959991" r="19.980000" fill="red">
  <title>Karachi</title>
</circle><line x1="306.959991" y1="643.960022" x2="613.960022" y2="340.959991" stroke="red" stroke-width="6.660000" />
<circle cx="646.960022" cy="48.959999" r="19.980000" fill="red">
  <title>Osaka</title>
</circle><line x1="613.960022" y1="340.959991" x2="646.960022" y2="48.959999" stroke="red" stroke-width="6.660000" />
<circle cx="1440.959961" cy="701.960022" r="19.980000" fill="red">
  <title>Mumbai</title>
</circle><line x1="646.960022" y1="48.959999" x2="1440.959961" y2="701.960022" stroke="red" stroke-width="6.660000" />
<circle cx="1587.959961" cy="590.960022" r="19.980000" fill="red">
  <title>Shanghai</title>
</circle><line x1="1440.959961" y1="701.960022" x2="1587.959961" y2="590.960022" stroke="red" stroke-width="6.660000" />
<circle cx="1459.959961" cy="924.960022" r="19.980000" fill="red">
  <title>Delhi</title>
</circle><line x1="1587.959961" y1="590.960022" x2="1459.959961" y2="924.960022" stroke="red" stroke-width="6.660000" />
<circle cx="1339.959961" cy="1272.959961" r="19.980000" fill="red">
  <title>Dhaka</title>
</circle><line x1="1459.959961" y1="924.960022" x2="1339.959961" y2="1272.959961" stroke="red" stroke-width="6.660000" />
<circle cx="1384.959961" cy="1729.959961" r="19.980000" fill="red">
  <title>Beijing</title>
</circle><line x1="1339.959961" y1="1272.959961" x2="1384.959961" y2="1729.959961" stroke="red" stroke-width="6.660000" />
<circle cx="1039.959961" cy="1355.959961" r="19.980000" fill="red">
  <title>Buenos Aires</title>
</circle><line x1="1384.959961" y1="1729.959961" x2="1039.959961" y2="1355.959961" stroke="red" stroke-width="6.660000" />
<circle cx="964.960022" cy="1458.959961" r="19.980000" fill="red">
  <title>São Paulo</title>
</circle><line x1="1039.959961" y1="1355.959961" x2="964.960022" y2="1458.959961" stroke="red" stroke-width="6.660000" />
</svg>
