<?xml version="1.0" encoding="UTF-8" standalone="no"?>
<svg width="500" height="500" viewBox="0 0 2074.000000 2074.000000" xmlns="http://www.w3.org/2000/svg">
<rect x="19.000000" y="19.000000" width="2036.000000" height="2036.000000" fill="black" />
<circle cx="446.959991" cy="407.959991" r="19.980000" fill="red">
  <title>Tokyo</title>
</circle><line x1="845.960022" y1="1026.959961" x2="446.959991" y2="407.959991" stroke="red" stroke-width="6.660000" />
<circle cx="104.959999" cy="245.959991" r="19.980000" fill="red">
  <title>Chongqing</title>
</circle><line x1="446.959991" y1="407.959991" x2="104.959999" y2="245.959991" stroke="red" stroke-width="6.660000" />
<circle cx="113.959999" cy="527.960022" r="19.980000" fill="red">
  <title>Mumbai</title>
</circle><line x1="104.959999" y1="245.959991" x2="113.959999" y2="527.960022" stroke="red" stroke-width="6.660000" />
<circle cx="393.959991" cy="1157.959961" r="19.980000" fill="red">
  <title>São Paulo</title>
</circle><line x1="113.959999" y1="527.960022" x2="393.959991" y2="1157.959961" stroke="red" stroke-width="6.660000" />
<circle cx="766.960022" cy="2023.959961" r="19.980000" fill="red">
  <title>Buenos Aires</title>
</circle><line x1="393.959991" y1="1157.959961" x2="766.960022" y2="2023.959961" stroke="red" stroke-width="6.660000" />
<circle cx="1013.960022" cy="1962.959961" r="19.980000" fill="red">
  <title>Cairo</title>
</circle><line x1="766.960022" y1="2023.959961" x2="1013.960022" y2="1962.959961" stroke="red" stroke-width="6.660000" />
<circle cx="1447.959961" cy="1954.959961" r="19.980000" fill="red">
  <title>Karachi</title>
</circle><line x1="1013.960022" y1="1962.959961" x2="1447.959961" y2="1954.959961" stroke="red" stroke-width="6.660000" />
<circle cx="1699.959961" cy="1253.959961" r="19.980000" fill="red">
  <title>Kolkata</title>
</circle><line x1="1447.959961" y1="1954.959961" x2="1699.959961" y2="1253.959961" stroke="red" stroke-width="6.660000" />
<circle cx="1998.959961" cy="977.960022" r="19.980000" fill="red">
  <title>Delhi</title>
</circle><line x1="1699.959961" y1="1253.959961" x2="1998.959961" y2="977.960022" stroke="red" stroke-width="6.660000" />
<circle cx="1815.959961" cy="432.959991" r="19.980000" fill="red">
  <title>Mexico City</title>
</circle><line x1="1998.959961" y1="977.960022" x2="1815.959961" y2="432.959991" stroke="red" stroke-width="6.660000" />
<circle cx="1866.959961" cy="180.959991" r="19.980000" fill="red">
  <title>Dhaka</title>
</circle><line x1="1815.959961" y1="432.959991" x2="1866.959961" y2="180.959991" stroke="red" stroke-width="6.660000" />
<circle cx="1405.959961" cy="609.960022" r="19.980000" fill="red">
  <title>New York</title>
</circle><line x1="1866.959961" y1="180.959991" x2="1405.959961" y2="609.960022" stroke="red" stroke-width="6.660000" />
<circle cx="1510.959961" cy="921.960022" r="19.980000" fill="red">
  <title>Shanghai</title>
</circle><line x1="1405.959961" y1="609.960022" x2="1510.959961" y2="921.960022" stroke="red" stroke-width="6.660000" />
<circle cx="1375.959961" cy="849.960022" r="19.980000" fill="red">
  <title>Osaka</title>
</circle><line x1="1510.959961" y1="921.960022" x2="1375.959961" y2="849.960022" stroke="red" stroke-width="6.660000" />
<circle cx="994.960022" cy="984.960022" r="19.980000" fill="red">
  <title>Beijing</title>
</circle><line x1="1375.959961" y1="849.960022" x2="994.960022" y2="984.960022" stroke="red" stroke-width="6.660000" />
<circle cx="845.960022" cy="1026.959961" r="19.980000" fill="red">
  <title>Istanbul</title>
</circle><line x1="994.960022" y1="984.960022" x2="845.960022" y2="1026.959961" stroke="red" stroke-width="6.660000" />
</svg>
