<?xml version="1.0" encoding="UTF-8" standalone="no"?>
<svg width="500" height="500" viewBox="0 0 2074.000000 2074.000000" xmlns="http://www.w3.org/2000/svg">
<rect x="19.000000" y="19.000000" width="2036.000000" height="2036.000000" fill="black" />
<circle cx="1995.959961" cy="1548.959961" r="19.980000" fill="red">
  <title>Tokyo</title>
</circle><line x1="1416.959961" y1="662.960022" x2="1995.959961" y2="1548.959961" stroke="red" stroke-width="6.660000" />
<circle cx="1095.959961" cy="1804.959961" r="19.980000" fill="red">
  <title>Delhi</title>
</circle><line x1="1995.959961" y1="1548.959961" x2="1095.959961" y2="1804.959961" stroke="red" stroke-width="6.660000" />
<circle cx="653.960022" cy="1798.959961" r="19.980000" fill="red">
  <title>Mexico City</title>
</circle><line x1="1095.959961" y1="1804.959961" x2="653.960022" y2="1798.959961" stroke="red" stroke-width="6.660000" />
<circle cx="724.960022" cy="1310.959961" r="19.980000" fill="red">
  <title>Mumbai</title>
</circle><line x1="653.960022" y1="1798.959961" x2="724.960022" y2="1310.959961" stroke="red" stroke-width="6.660000" />
<circle cx="707.960022" cy="884.960022" r="19.980000" fill="red">
  <title>Cairo</title>
</circle><line x1="724.960022" y1="1310.959961" x2="707.960022" y2="884.960022" stroke="red" stroke-width="6.660000" />
<circle cx="566.960022" cy="477.959991" r="19.980000" fill="red">
  <title>Dhaka</title>
</circle><line x1="707.960022" y1="884.960022" x2="566.960022" y2="477.959991" stroke="red" stroke-width="6.660000" />
<circle cx="980.960022" cy="530.960022" r="19.980000" fill="red">
  <title>Beijing</title>
</circle><line x1="566.960022" y1="477.959991" x2="980.960022" y2="530.960022" stroke="red" stroke-width="6.660000" />
<circle cx="1047.959961" cy="793.960022" r="19.980000" fill="red">
  <title>Shanghai</title>
</circle><line x1="980.960022" y1="530.960022" x2="1047.959961" y2="793.960022" stroke="red" stroke-width="6.660000" />
<circle cx="1416.959961" cy="662.960022" r="19.980000" fill="red">
  <title>São Paulo</title>
</circle><line x1="1047.959961" y1="793.960022" x2="1416.959961" y2="662.960022" stroke="red" stroke-width="6.660000" />
</svg>
