<?xml version="1.0" encoding="UTF-8" standalone="no"?>
<svg width="500" height="500" viewBox="0 0 2074.000000 2074.000000" xmlns="http://www.w3.org/2000/svg">
<rect x="19.000000" y="19.000000" width="2036.000000" height="2036.000000" fill="black" />
<circle cx="1353.959961" cy="959.960022" r="19.980000" fill="red">
  <title>Tokyo</title>
</circle><line x1="1384.959961" y1="615.960022" x2="1353.959961" y2="959.960022" stroke="red" stroke-width="6.660000" />
<circle cx="956.960022" cy="1224.959961" r="19.980000" fill="red">
  <title>Dhaka</title>
</circle><line x1="1353.959961" y1="959.960022" x2="956.960022" y2="1224.959961" stroke="red" stroke-width="6.660000" />
<circle cx="932.960022" cy="1317.959961" r="19.980000" fill="red">
  <title>Karachi</title>
</circle><line x1="956.960022" y1="1224.959961" x2="932.960022" y2="1317.959961" stroke="red" stroke-width="6.660000" />
<circle cx="334.959991" cy="1617.959961" r="19.980000" fill="red">
  <title>Cairo</title>
</circle><line x1="932.960022" y1="1317.959961" x2="334.959991" y2="1617.959961" stroke="red" stroke-width="6.660000" />
<circle cx="1021.960022" cy="1808.959961" r="19.980000" fill="red">
  <title>Shanghai</title>
</circle><line x1="334.959991" y1="1617.959961" x2="1021.960022" y2="1808.959961" stroke="red" stroke-width="6.660000" />
<circle cx="2014.959961" cy="2005.959961" r="19.980000" fill="red">
  <title>Osaka</title>
</circle><line x1="1021.960022" y1="1808.959961" x2="2014.959961" y2="2005.959961" stroke="red" stroke-width="6.660000" />
<circle cx="1885.959961" cy="1642.959961" r="19.980000" fill="red">
  <title>São Paulo</title>
</circle><line x1="2014.959961" y1="2005.959961" x2="1885.959961" y2="1642.959961" stroke="red" stroke-width="6.660000" />
<circle cx="1956.959961" cy="918.960022" r="19.980000" fill="red">
  <title>Beijing</title>
</circle><line x1="1885.959961" y1="1642.959961" x2="1956.959961" y2="918.960022" stroke="red" stroke-width="6.660000" />
<circle cx="1727.959961" cy="344.959991" r="19.980000" fill="red">
  <title>Mexico City</title>
</circle><line x1="1956.959961" y1="918.960022" x2="1727.959961" y2="344.959991" stroke="red" stroke-width="6.660000" />
<circle cx="1593.959961" cy="179.959991" r="19.980000" fill="red">
  <title>New York</title>
</circle><line x1="1727.959961" y1="344.959991" x2="1593.959961" y2="179.959991" stroke="red" stroke-width="6.660000" />
<circle cx="301.959991" cy="39.959999" r="19.980000" fill="red">
  <title>Delhi</title>
</circle><line x1="1593.959961" y1="179.959991" x2="301.959991" y2="39.959999" stroke="red" stroke-width="6.660000" />
<circle cx="277.959991" cy="95.959999" r="19.980000" fill="red">
  <title>Mumbai</title>
</circle><line x1="301.959991" y1="39.959999" x2="277.959991" y2="95.959999" stroke="red" stroke-width="6.660000" />
<circle cx="1384.959961" cy="615.960022" r="19.980000" fill="red">
  <title>Buenos Aires</title>
</circle><line x1="277.959991" y1="95.959999" x2="1384.959961" y2="615.960022" stroke="red" stroke-width="6.660000" />
</svg>
