<?xml version="1.0" encoding="UTF-8" standalone="no"?>
<svg width="500" height="500" viewBox="0 0 2074.000000 2074.000000" xmlns="http://www.w3.org/2000/svg">
<rect x="19.000000" y="19.000000" width="2036.000000" height="2036.000000" fill="black" />
<circle cx="1615.959961" cy="1936.959961" r="19.980000" fill="red">
  <title>Tokyo</title>
</circle><line x1="1859.959961" y1="1627.959961" x2="1615.959961" y2="1936.959961" stroke="red" stroke-width="6.660000" />
<circle cx="1634.959961" cy="1998.959961" r="19.980000" fill="red">
  <title>Cairo</title>
</circle><line x1="1615.959961" y1="1936.959961" x2="1634.959961" y2="1998.959961" stroke="red" stroke-width="6.660000" />
<circle cx="1254.959961" cy="1958.959961" r="19.980000" fill="red">
  <title>Delhi</title>
</circle><line x1="1634.959961" y1="1998.959961" x2="1254.959961" y2="1958.959961" stroke="red" stroke-width="6.660000" />
<circle cx="1148.959961" cy="1854.959961" r="19.980000" fill="red">
  <title>New York</title>
</circle><line x1="1254.959961" y1="1958.959961" x2="1148.959961" y2="1854.959961" stroke="red" stroke-width="6.660000" />
<circle cx="1078.959961" cy="1572.959961" r="19.980000" fill="red">
  <title>Osaka</title>
</circle><line x1="1148.959961" y1="1854.959961" x2="1078.959961" y2="1572.959961" stroke="red" stroke-width="6.660000" />
<circle cx="1091.959961" cy="1327.959961" r="19.980000" fill="red">
  <title>Kolkata</title>
</circle><line x1="1078.959961" y1="1572.959961" x2="1091.959961" y2="1327.959961" stroke="red" stroke-width="6.660000" />
<circle cx="877.960022" cy="1518.959961" r="19.980000" fill="red">
  <title>Karachi</title>
</circle><line x1="1091.959961" y1="1327.959961" x2="877.960022" y2="1518.959961" stroke="red" stroke-width="6.660000" />
<circle cx="795.960022" cy="1988.959961" r="19.980000" fill="red">
  <title>São Paulo</title>
</circle><line x1="877.960022" y1="1518.959961" x2="795.960022" y2="1988.959961" stroke="red" stroke-width="6.660000" />
<circle cx="704.960022" cy="2004.959961" r="19.980000" fill="red">
  <title>Rio de Janeiro</title>
</circle><line x1="795.960022" y1="1988.959961" x2="704.960022" y2="2004.959961" stroke="red" stroke-width="6.660000" />
<circle cx="520.960022" cy="1890.959961" r="19.980000" fill="red">
  <title>Mumbai</title>
</circle><line x1="704.960022" y1="2004.959961" x2="520.960022" y2="1890.959961" stroke="red" stroke-width="6.660000" />
<circle cx="410.959991" cy="1431.959961" r="19.980000" fill="red">
  <title>Dhaka</title>
</circle><line x1="520.960022" y1="1890.959961" x2="410.959991" y2="1431.959961" stroke="red" stroke-width="6.660000" />
<circle cx="85.959999" cy="435.959991" r="19.980000" fill="red">
  <title>Shanghai</title>
</circle><line x1="410.959991" y1="1431.959961" x2="85.959999" y2="435.959991" stroke="red" stroke-width="6.660000" />
<circle cx="806.960022" cy="308.959991" r="19.980000" fill="red">
  <title>Manila</title>
</circle><line x1="85.959999" y1="435.959991" x2="806.960022" y2="308.959991" stroke="red" stroke-width="6.660000" />
<circle cx="805.960022" cy="520.960022" r="19.980000" fill="red">
  <title>Buenos Aires</title>
</circle><line x1="806.960022" y1="308.959991" x2="805.960022" y2="520.960022" stroke="red" stroke-width="6.660000" />
<circle cx="804.960022" cy="526.960022" r="19.980000" fill="red">
  <title>Tianjin</title>
</circle><line x1="805.960022" y1="520.960022" x2="804.960022" y2="526.960022" stroke="red" stroke-width="6.660000" />
<circle cx="1247.959961" cy="853.960022" r="19.980000" fill="red">
  <title>Lagos</title>
</circle><line x1="804.960022" y1="526.960022" x2="1247.959961" y2="853.960022" stroke="red" stroke-width="6.660000" />
<circle cx="1491.959961" cy="1190.959961" r="19.980000" fill="red">
  <title>Chongqing</title>
</circle><line x1="1247.959961" y1="853.960022" x2="1491.959961" y2="1190.959961" stroke="red" stroke-width="6.660000" />
<circle cx="1749.959961" cy="907.960022" r="19.980000" fill="red">
  <title>Istanbul</title>
</circle><line x1="1491.959961" y1="1190.959961" x2="1749.959961" y2="907.960022" stroke="red" stroke-width="6.660000" />
<circle cx="1887.959961" cy="1429.959961" r="19.980000" fill="red">
  <title>Beijing</title>
</circle><line x1="1749.959961" y1="907.960022" x2="1887.959961" y2="1429.959961" stroke="red" stroke-width="6.660000" />
<circle cx="1859.959961" cy="1627.959961" r="19.980000" fill="red">
  <title>Mexico City</title>
</circle><line x1="1887.959961" y1="1429.959961" x2="1859.959961" y2="1627.959961" stroke="red" stroke-width="6.660000" />
</svg>
