<?xml version="1.0" encoding="UTF-8" standalone="no"?>
<svg width="500" height="500" viewBox="0 0 2074.000000 2074.000000" xmlns="http://www.w3.org/2000/svg">
<rect x="19.000000" y="19.000000" width="2036.000000" height="2036.000000" fill="black" />
<circle cx="1289.959961" cy="1767.959961" r="19.980000" fill="red">
  <title>Tokyo</title>
</circle><line x1="864.960022" y1="1301.959961" x2="1289.959961" y2="1767.959961" stroke="red" stroke-width="6.660000" />
<circle cx="1620.959961" cy="1829.959961" r="19.980000" fill="red">
  <title>Delhi</title>
</circle><line x1="1289.959961" y1="1767.959961" x2="1620.959961" y2="1829.959961" stroke="red" stroke-width="6.660000" />
<circle cx="1500.959961" cy="388.959991" r="19.980000" fill="red">
  <title>Cairo</title>
</circle><line x1="1620.959961" y1="1829.959961" x2="1500.959961" y2="388.959991" stroke="red" stroke-width="6.660000" />
<circle cx="941.960022" cy="1244.959961" r="19.980000" fill="red">
  <title>Mexico City</title>
</circle><line x1="1500.959961" y1="388.959991" x2="941.960022" y2="1244.959961" stroke="red" stroke-width="6.660000" />
<circle cx="88.959999" cy="1531.959961" r="19.980000" fill="red">
  <title>Shanghai</title>
</circle><line x1="941.960022" y1="1244.959961" x2="88.959999" y2="1531.959961" stroke="red" stroke-width="6.660000" />
<circle cx="864.960022" cy="1301.959961" r="19.980000" fill="red">
  <title>São Paulo</title>
</circle><line x1="88.959999" y1="1531.959961" x2="864.960022" y2="1301.959961" stroke="red" stroke-width="6.660000" />
</svg>
