<?xml version="1.0" encoding="UTF-8" standalone="no"?>
<svg width="500" height="500" viewBox="0 0 2074.000000 2074.000000" xmlns="http://www.w3.org/2000/svg">
<rect x="19.000000" y="19.000000" width="2036.000000" height="2036.000000" fill="black" />
<circle cx="1259.959961" cy="162.959991" r="19.980000" fill="red">
  <title>Tokyo</title>
</circle><line x1="1013.960022" y1="104.959999" x2="1259.959961" y2="162.959991" stroke="red" stroke-width="6.660000" />
<circle cx="1409.959961" cy="123.959999" r="19.980000" fill="red">
  <title>Mumbai</title>
</circle><line x1="1259.959961" y1="162.959991" x2="1409.959961" y2="123.959999" stroke="red" stroke-width="6.660000" />
<circle cx="1674.959961" cy="313.959991" r="19.980000" fill="red">
  <title>Kolkata</title>
</circle><line x1="1409.959961" y1="123.959999" x2="1674.959961" y2="313.959991" stroke="red" stroke-width="6.660000" />
<circle cx="1701.959961" cy="567.960022" r="19.980000" fill="red">
  <title>Mexico City</title>
</circle><line x1="1674.959961" y1="313.959991" x2="1701.959961" y2="567.960022" stroke="red" stroke-width="6.660000" />
<circle cx="2028.959961" cy="647.960022" r="19.980000" fill="red">
  <title>Karachi</title>
</circle><line x1="1701.959961" y1="567.960022" x2="2028.959961" y2="647.960022" stroke="red" stroke-width="6.660000" />
<circle cx="1980.959961" cy="1386.959961" r="19.980000" fill="red">
  <title>Buenos Aires</title>
</circle><line x1="2028.959961" y1="647.960022" x2="1980.959961" y2="1386.959961" stroke="red" stroke-width="6.660000" />
<circle cx="2011.959961" cy="1995.959961" r="19.980000" fill="red">
  <title>Shanghai</title>
</circle><line x1="1980.959961" y1="1386.959961" x2="2011.959961" y2="1995.959961" stroke="red" stroke-width="6.660000" />
<circle cx="1544.959961" cy="1913.959961" r="19.980000" fill="red">
  <title>Delhi</title>
</circle><line x1="2011.959961" y1="1995.959961" x2="1544.959961" y2="1913.959961" stroke="red" stroke-width="6.660000" />
<circle cx="1213.959961" cy="1587.959961" r="19.980000" fill="red">
  <title>Cairo</title>
</circle><line x1="1544.959961" y1="1913.959961" x2="1213.959961" y2="1587.959961" stroke="red" stroke-width="6.660000" />
<circle cx="775.960022" cy="1940.959961" r="19.980000" fill="red">
  <title>Dhaka</title>
</circle><line x1="1213.959961" y1="1587.959961" x2="775.960022" y2="1940.959961" stroke="red" stroke-width="6.660000" />
<circle cx="143.959991" cy="1474.959961" r="19.980000" fill="red">
  <title>Beijing</title>
</circle><line x1="775.960022" y1="1940.959961" x2="143.959991" y2="1474.959961" stroke="red" stroke-width="6.660000" />
<circle cx="517.960022" cy="1180.959961" r="19.980000" fill="red">
  <title>Manila</title>
</circle><line x1="143.959991" y1="1474.959961" x2="517.960022" y2="1180.959961" stroke="red" stroke-width="6.660000" />
<circle cx="760.960022" cy="512.960022" r="19.980000" fill="red">
  <title>Osaka</title>
</circle><line x1="517.960022" y1="1180.959961" x2="760.960022" y2="512.960022" stroke="red" stroke-width="6.660000" />
<circle cx="1034.959961" cy="487.959991" r="19.980000" fill="red">
  <title>New York</title>
</circle><line x1="760.960022" y1="512.960022" x2="1034.959961" y2="487.959991" stroke="red" stroke-width="6.660000" />
<circle cx="1134.959961" cy="463.959991" r="19.980000" fill="red">
  <title>São Paulo</title>
</circle><line x1="1034.959961" y1="487.959991" x2="1134.959961" y2="463.959991" stroke="red" stroke-width="6.660000" />
<circle cx="1092.959961" cy="393.959991" r="19.980000" fill="red">
  <title>Istanbul</title>
</circle><line x1="1134.959961" y1="463.959991" x2="1092.959961" y2="393.959991" stroke="red" stroke-width="6.660000" />
<circle cx="1013.960022" cy="104.959999" r="19.980000" fill="red">
  <title>Chongqing</title>
</circle><line x1="1092.959961" y1="393.959991" x2="1013.960022" y2="104.959999" stroke="red" stroke-width="6.660000" />
</svg>
