<?xml version="1.0" encoding="UTF-8" standalone="no"?>
<svg width="500" height="500" viewBox="0 0 2074.000000 2074.000000" xmlns="http://www.w3.org/2000/svg">
<rect x="19.000000" y="19.000000" width="2036.000000" height="2036.000000" fill="black" />
<circle cx="300.959991" cy="885.960022" r="19.980000" fill="red">
  <title>Tokyo</title>
</circle><line x1="875.960022" y1="981.960022" x2="300.959991" y2="885.960022" stroke="red" stroke-width="6.660000" />
<circle cx="836.960022" cy="836.960022" r="19.980000" fill="red">
  <title>São Paulo</title>
</circle><line x1="300.959991" y1="885.960022" x2="836.960022" y2="836.960022" stroke="red" stroke-width="6.660000" />
<circle cx="1163.959961" cy="389.959991" r="19.980000" fill="red">
  <title>Mexico City</title>
</circle><line x1="836.960022" y1="836.960022" x2="1163.959961" y2="389.959991" stroke="red" stroke-width="6.660000" />
<circle cx="1413.959961" cy="734.960022" r="19.980000" fill="red">
  <title>Shanghai</title>
</circle><line x1="1163.959961" y1="389.959991" x2="1413.959961" y2="734.960022" stroke="red" stroke-width="6.660000" />
<circle cx="1854.959961" cy="1472.959961" r="19.980000" fill="red">
  <title>Delhi</title>
</circle><line x1="1413.959961" y1="734.960022" x2="1854.959961" y2="1472.959961" stroke="red" stroke-width="6.660000" />
<circle cx="875.960022" cy="981.960022" r="19.980000" fill="red">
  <title>Cairo</title>
</circle><line x1="1854.959961" y1="1472.959961" x2="875.960022" y2="981.960022" stroke="red" stroke-width="6.660000" />
</svg>
