<?xml version="1.0" encoding="UTF-8" standalone="no"?>
<svg width="500" height="500" viewBox="0 0 2074.000000 2074.000000" xmlns="http://www.w3.org/2000/svg">
<rect x="19.000000" y="19.000000" width="2036.000000" height="2036.000000" fill="black" />
<circle cx="402.959991" cy="430.959991" r="19.980000" fill="red">
  <title>Tokyo</title>
</circle><line x1="581.960022" y1="123.959999" x2="402.959991" y2="430.959991" stroke="red" stroke-width="6.660000" />
<circle cx="314.959991" cy="331.959991" r="19.980000" fill="red">
  <title>Delhi</title>
</circle><line x1="402.959991" y1="430.959991" x2="314.959991" y2="331.959991" stroke="red" stroke-width="6.660000" />
<circle cx="124.959999" cy="289.959991" r="19.980000" fill="red">
  <title>Kolkata</title>
</circle><line x1="314.959991" y1="331.959991" x2="124.959999" y2="289.959991" stroke="red" stroke-width="6.660000" />
<circle cx="288.959991" cy="409.959991" r="19.980000" fill="red">
  <title>Mumbai</title>
</circle><line x1="124.959999" y1="289.959991" x2="288.959991" y2="409.959991" stroke="red" stroke-width="6.660000" />
<circle cx="45.959999" cy="1500.959961" r="19.980000" fill="red">
  <title>New York</title>
</circle><line x1="288.959991" y1="409.959991" x2="45.959999" y2="1500.959961" stroke="red" stroke-width="6.660000" />
<circle cx="593.960022" cy="1529.959961" r="19.980000" fill="red">
  <title>Mexico City</title>
</circle><line x1="45.959999" y1="1500.959961" x2="593.960022" y2="1529.959961" stroke="red" stroke-width="6.660000" />
<circle cx="1016.960022" cy="1592.959961" r="19.980000" fill="red">
  <title>Shanghai</title>
</circle><line x1="593.960022" y1="1529.959961" x2="1016.960022" y2="1592.959961" stroke="red" stroke-width="6.660000" />
<circle cx="1042.959961" cy="1154.959961" r="19.980000" fill="red">
  <title>Beijing</title>
</circle><line x1="1016.960022" y1="1592.959961" x2="1042.959961" y2="1154.959961" stroke="red" stroke-width="6.660000" />
<circle cx="1551.959961" cy="1373.959961" r="19.980000" fill="red">
  <title>Cairo</title>
</circle><line x1="1042.959961" y1="1154.959961" x2="1551.959961" y2="1373.959961" stroke="red" stroke-width="6.660000" />
<circle cx="2010.959961" cy="1887.959961" r="19.980000" fill="red">
  <title>Karachi</title>
</circle><line x1="1551.959961" y1="1373.959961" x2="2010.959961" y2="1887.959961" stroke="red" stroke-width="6.660000" />
<circle cx="1581.959961" cy="1026.959961" r="19.980000" fill="red">
  <title>Osaka</title>
</circle><line x1="2010.959961" y1="1887.959961" x2="1581.959961" y2="1026.959961" stroke="red" stroke-width="6.660000" />
<circle cx="1925.959961" cy="754.960022" r="19.980000" fill="red">
  <title>Istanbul</title>
</circle><line x1="1581.959961" y1="1026.959961" x2="1925.959961" y2="754.960022" stroke="red" stroke-width="6.660000" />
<circle cx="1892.959961" cy="353.959991" r="19.980000" fill="red">
  <title>Dhaka</title>
</circle><line x1="1925.959961" y1="754.960022" x2="1892.959961" y2="353.959991" stroke="red" stroke-width="6.660000" />
<circle cx="1953.959961" cy="176.959991" r="19.980000" fill="red">
  <title>Rio de Janeiro</title>
</circle><line x1="1892.959961" y1="353.959991" x2="1953.959961" y2="176.959991" stroke="red" stroke-width="6.660000" />
<circle cx="1746.959961" cy="138.959991" r="19.980000" fill="red">
  <title>Buenos Aires</title>
</circle><line x1="1953.959961" y1="176.959991" x2="1746.959961" y2="138.959991" stroke="red" stroke-width="6.660000" />
<circle cx="1633.959961" cy="84.959999" r="19.980000" fill="red">
  <title>São Paulo</title>
</circle><line x1="1746.959961" y1="138.959991" x2="1633.959961" y2="84.959999" stroke="red" stroke-width="6.660000" />
<circle cx="1234.959961" cy="336.959991" r="19.980000" fill="red">
  <title>Chongqing</title>
</circle><line x1="1633.959961" y1="84.959999" x2="1234.959961" y2="336.959991" stroke="red" stroke-width="6.660000" />
<circle cx="1145.959961" cy="399.959991" r="19.980000" fill="red">
  <title>Manila</title>
</circle><line x1="1234.959961" y1="336.959991" x2="1145.959961" y2="399.959991" stroke="red" stroke-width="6.660000" />
<circle cx="581.960022" cy="123.959999" r="19.980000" fill="red">
  <title>Lagos</title>
</circle><line x1="1145.959961" y1="399.959991" x2="581.960022" y2="123.959999" stroke="red" stroke-width="6.660000" />
</svg>
