<?xml version="1.0" encoding="UTF-8" standalone="no"?>
<svg width="500" height="500" viewBox="0 0 2074.000000 2074.000000" xmlns="http://www.w3.org/2000/svg">
<rect x="19.000000" y="19.000000" width="2036.000000" height="2036.000000" fill="black" />
<circle cx="525.960022" cy="1455.959961" r="19.980000" fill="red">
  <title>Tokyo</title>
</circle><line x1="155.959991" y1="1799.959961" x2="525.960022" y2="1455.959961" stroke="red" stroke-width="6.660000" />
<circle cx="1379.959961" cy="691.960022" r="19.980000" fill="red">
  <title>Delhi</title>
</circle><line x1="525.960022" y1="1455.959961" x2="1379.959961" y2="691.960022" stroke="red" stroke-width="6.660000" />
<circle cx="1328.959961" cy="620.960022" r="19.980000" fill="red">
  <title>Mexico City</title>
</circle><line x1="1379.959961" y1="691.960022" x2="1328.959961" y2="620.960022" stroke="red" stroke-width="6.660000" />
<circle cx="1357.959961" cy="346.959991" r="19.980000" fill="red">
  <title>Beijing</title>
</circle><line x1="1328.959961" y1="620.960022" x2="1357.959961" y2="346.959991" stroke="red" stroke-width="6.660000" />
<circle cx="1442.959961" cy="324.959991" r="19.980000" fill="red">
  <title>Dhaka</title>
</circle><line x1="1357.959961" y1="346.959991" x2="1442.959961" y2="324.959991" stroke="red" stroke-width="6.660000" />
<circle cx="1750.959961" cy="735.960022" r="19.980000" fill="red">
  <title>Cairo</title>
</circle><line x1="1442.959961" y1="324.959991" x2="1750.959961" y2="735.960022" stroke="red" stroke-width="6.660000" />
<circle cx="1517.959961" cy="897.960022" r="19.980000" fill="red">
  <title>São Paulo</title>
</circle><line x1="1750.959961" y1="735.960022" x2="1517.959961" y2="897.960022" stroke="red" stroke-width="6.660000" />
<circle cx="1935.959961" cy="1982.959961" r="19.980000" fill="red">
  <title>Shanghai</title>
</circle><line x1="1517.959961" y1="897.960022" x2="1935.959961" y2="1982.959961" stroke="red" stroke-width="6.660000" />
<circle cx="302.959991" cy="2035.959961" r="19.980000" fill="red">
  <title>Mumbai</title>
</circle><line x1="1935.959961" y1="1982.959961" x2="302.959991" y2="2035.959961" stroke="red" stroke-width="6.660000" />
<circle cx="155.959991" cy="1799.959961" r="19.980000" fill="red">
  <title>Osaka</title>
</circle><line x1="302.959991" y1="2035.959961" x2="155.959991" y2="1799.959961" stroke="red" stroke-width="6.660000" />
</svg>
