<?xml version="1.0" encoding="UTF-8" standalone="no"?>
<svg width="500" height="500" viewBox="0 0 2074.000000 2074.000000" xmlns="http://www.w3.org/2000/svg">
<rect x="19.000000" y="19.000000" width="2036.000000" height="2036.000000" fill="black" />
<circle cx="716.960022" cy="1008.960022" r="19.980000" fill="red">
  <title>Tokyo</title>
</circle><line x1="321.959991" y1="1213.959961" x2="716.960022" y2="1008.960022" stroke="red" stroke-width="6.660000" />
<circle cx="938.960022" cy="1270.959961" r="19.980000" fill="red">
  <title>Delhi</title>
</circle><line x1="716.960022" y1="1008.960022" x2="938.960022" y2="1270.959961" stroke="red" stroke-width="6.660000" />
<circle cx="918.960022" cy="1493.959961" r="19.980000" fill="red">
  <title>Mexico City</title>
</circle><line x1="938.960022" y1="1270.959961" x2="918.960022" y2="1493.959961" stroke="red" stroke-width="6.660000" />
<circle cx="1223.959961" cy="1077.959961" r="19.980000" fill="red">
  <title>Beijing</title>
</circle><line x1="918.960022" y1="1493.959961" x2="1223.959961" y2="1077.959961" stroke="red" stroke-width="6.660000" />
<circle cx="1523.959961" cy="1039.959961" r="19.980000" fill="red">
  <title>Karachi</title>
</circle><line x1="1223.959961" y1="1077.959961" x2="1523.959961" y2="1039.959961" stroke="red" stroke-width="6.660000" />
<circle cx="1789.959961" cy="1419.959961" r="19.980000" fill="red">
  <title>New York</title>
</circle><line x1="1523.959961" y1="1039.959961" x2="1789.959961" y2="1419.959961" stroke="red" stroke-width="6.660000" />
<circle cx="1786.959961" cy="1154.959961" r="19.980000" fill="red">
  <title>Istanbul</title>
</circle><line x1="1789.959961" y1="1419.959961" x2="1786.959961" y2="1154.959961" stroke="red" stroke-width="6.660000" />
<circle cx="1859.959961" cy="959.960022" r="19.980000" fill="red">
  <title>Chongqing</title>
</circle><line x1="1786.959961" y1="1154.959961" x2="1859.959961" y2="959.960022" stroke="red" stroke-width="6.660000" />
<circle cx="1390.959961" cy="812.960022" r="19.980000" fill="red">
  <title>Dhaka</title>
</circle><line x1="1859.959961" y1="959.960022" x2="1390.959961" y2="812.960022" stroke="red" stroke-width="6.660000" />
<circle cx="1461.959961" cy="273.959991" r="19.980000" fill="red">
  <title>Buenos Aires</title>
</circle><line x1="1390.959961" y1="812.960022" x2="1461.959961" y2="273.959991" stroke="red" stroke-width="6.660000" />
<circle cx="1082.959961" cy="767.960022" r="19.980000" fill="red">
  <title>Cairo</title>
</circle><line x1="1461.959961" y1="273.959991" x2="1082.959961" y2="767.960022" stroke="red" stroke-width="6.660000" />
<circle cx="742.960022" cy="572.960022" r="19.980000" fill="red">
  <title>São Paulo</title>
</circle><line x1="1082.959961" y1="767.960022" x2="742.960022" y2="572.960022" stroke="red" stroke-width="6.660000" />
<circle cx="467.959991" cy="464.959991" r="19.980000" fill="red">
  <title>Kolkata</title>
</circle><line x1="742.960022" y1="572.960022" x2="467.959991" y2="464.959991" stroke="red" stroke-width="6.660000" />
<circle cx="444.959991" cy="948.960022" r="19.980000" fill="red">
  <title>Osaka</title>
</circle><line x1="467.959991" y1="464.959991" x2="444.959991" y2="948.960022" stroke="red" stroke-width="6.660000" />
<circle cx="107.959999" cy="1062.959961" r="19.980000" fill="red">
  <title>Mumbai</title>
</circle><line x1="444.959991" y1="948.960022" x2="107.959999" y2="1062.959961" stroke="red" stroke-width="6.660000" />
<circle cx="321.959991" cy="1213.959961" r="19.980000" fill="red">
  <title>Shanghai</title>
</circle><line x1="107.959999" y1="1062.959961" x2="321.959991" y2="1213.959961" stroke="red" stroke-width="6.660000" />
</svg>
