<?xml version="1.0" encoding="UTF-8" standalone="no"?>
<svg width="500" height="500" viewBox="0 0 2074.000000 2074.000000" xmlns="http://www.w3.org/2000/svg">
<rect x="19.000000" y="19.000000" width="2036.000000" height="2036.000000" fill="black" />
<circle cx="1084.959961" cy="1688.959961" r="19.980000" fill="red">
  <title>Tokyo</title>
</circle><line x1="1095.959961" y1="1366.959961" x2="1084.959961" y2="1688.959961" stroke="red" stroke-width="6.660000" />
<circle cx="1001.960022" cy="1484.959961" r="19.980000" fill="red">
  <title>Delhi</title>
</circle><line x1="1084.959961" y1="1688.959961" x2="1001.960022" y2="1484.959961" stroke="red" stroke-width="6.660000" />
<circle cx="604.960022" cy="775.960022" r="19.980000" fill="red">
  <title>Mexico City</title>
</circle><line x1="1001.960022" y1="1484.959961" x2="604.960022" y2="775.960022" stroke="red" stroke-width="6.660000" />
<circle cx="431.959991" cy="199.959991" r="19.980000" fill="red">
  <title>São Paulo</title>
</circle><line x1="604.960022" y1="775.960022" x2="431.959991" y2="199.959991" stroke="red" stroke-width="6.660000" />
<circle cx="978.960022" cy="537.960022" r="19.980000" fill="red">
  <title>Shanghai</title>
</circle><line x1="431.959991" y1="199.959991" x2="978.960022" y2="537.960022" stroke="red" stroke-width="6.660000" />
<circle cx="1095.959961" cy="1366.959961" r="19.980000" fill="red">
  <title>Cairo</title>
</circle><line x1="978.960022" y1="537.960022" x2="1095.959961" y2="1366.959961" stroke="red" stroke-width="6.660000" />
</svg>
