<?xml version="1.0" encoding="UTF-8" standalone="no"?>
<svg width="500" height="500" viewBox="0 0 2074.000000 2074.000000" xmlns="http://www.w3.org/2000/svg">
<rect x="19.000000" y="19.000000" width="2036.000000" height="2036.000000" fill="black" />
<circle cx="256.959991" cy="640.960022" r="19.980000" fill="red">
  <title>Tokyo</title>
</circle><line x1="761.960022" y1="684.960022" x2="256.959991" y2="640.960022" stroke="red" stroke-width="6.660000" />
<circle cx="408.959991" cy="691.960022" r="19.980000" fill="red">
  <title>Mexico City</title>
</circle><line x1="256.959991" y1="640.960022" x2="408.959991" y2="691.960022" stroke="red" stroke-width="6.660000" />
<circle cx="992.960022" cy="663.960022" r="19.980000" fill="red">
  <title>Delhi</title>
</circle><line x1="408.959991" y1="691.960022" x2="992.960022" y2="663.960022" stroke="red" stroke-width="6.660000" />
<circle cx="1974.959961" cy="338.959991" r="19.980000" fill="red">
  <title>Mumbai</title>
</circle><line x1="992.960022" y1="663.960022" x2="1974.959961" y2="338.959991" stroke="red" stroke-width="6.660000" />
<circle cx="1808.959961" cy="1054.959961" r="19.980000" fill="red">
  <title>Shanghai</title>
</circle><line x1="1974.959961" y1="338.959991" x2="1808.959961" y2="1054.959961" stroke="red" stroke-width="6.660000" />
<circle cx="1458.959961" cy="1091.959961" r="19.980000" fill="red">
  <title>Beijing</title>
</circle><line x1="1808.959961" y1="1054.959961" x2="1458.959961" y2="1091.959961" stroke="red" stroke-width="6.660000" />
<circle cx="1109.959961" cy="1128.959961" r="19.980000" fill="red">
  <title>São Paulo</title>
</circle><line x1="1458.959961" y1="1091.959961" x2="1109.959961" y2="1128.959961" stroke="red" stroke-width="6.660000" />
<circle cx="761.960022" cy="684.960022" r="19.980000" fill="red">
  <title>Cairo</title>
</circle><line x1="1109.959961" y1="1128.959961" x2="761.960022" y2="684.960022" stroke="red" stroke-width="6.660000" />
</svg>
