<?xml version="1.0" encoding="UTF-8" standalone="no"?>
<svg width="500" height="500" viewBox="0 0 2074.000000 2074.000000" xmlns="http://www.w3.org/2000/svg">
<rect x="19.000000" y="19.000000" width="2036.000000" height="2036.000000" fill="black" />
<circle cx="1265.959961" cy="1896.959961" r="19.980000" fill="red">
  <title>Tokyo</title>
</circle><line x1="743.960022" y1="1857.959961" x2="1265.959961" y2="1896.959961" stroke="red" stroke-width="6.660000" />
<circle cx="1047.959961" cy="1990.959961" r="19.980000" fill="red">
  <title>Dhaka</title>
</circle><line x1="1265.959961" y1="1896.959961" x2="1047.959961" y2="1990.959961" stroke="red" stroke-width="6.660000" />
<circle cx="679.960022" cy="1984.959961" r="19.980000" fill="red">
  <title>Mexico City</title>
</circle><line x1="1047.959961" y1="1990.959961" x2="679.960022" y2="1984.959961" stroke="red" stroke-width="6.660000" />
<circle cx="515.960022" cy="1930.959961" r="19.980000" fill="red">
  <title>Mumbai</title>
</circle><line x1="679.960022" y1="1984.959961" x2="515.960022" y2="1930.959961" stroke="red" stroke-width="6.660000" />
<circle cx="314.959991" cy="1843.959961" r="19.980000" fill="red">
  <title>Karachi</title>
</circle><line x1="515.960022" y1="1930.959961" x2="314.959991" y2="1843.959961" stroke="red" stroke-width="6.660000" />
<circle cx="363.959991" cy="1504.959961" r="19.980000" fill="red">
  <title>Cairo</title>
</circle><line x1="314.959991" y1="1843.959961" x2="363.959991" y2="1504.959961" stroke="red" stroke-width="6.660000" />
<circle cx="135.959991" cy="1045.959961" r="19.980000" fill="red">
  <title>Chongqing</title>
</circle><line x1="363.959991" y1="1504.959961" x2="135.959991" y2="1045.959961" stroke="red" stroke-width="6.660000" />
<circle cx="223.959991" cy="966.960022" r="19.980000" fill="red">
  <title>Shanghai</title>
</circle><line x1="135.959991" y1="1045.959961" x2="223.959991" y2="966.960022" stroke="red" stroke-width="6.660000" />
<circle cx="587.960022" cy="700.960022" r="19.980000" fill="red">
  <title>Kolkata</title>
</circle><line x1="223.959991" y1="966.960022" x2="587.960022" y2="700.960022" stroke="red" stroke-width="6.660000" />
<circle cx="806.960022" cy="574.960022" r="19.980000" fill="red">
  <title>Osaka</title>
</circle><line x1="587.960022" y1="700.960022" x2="806.960022" y2="574.960022" stroke="red" stroke-width="6.660000" />
<circle cx="1072.959961" cy="571.960022" r="19.980000" fill="red">
  <title>New York</title>
</circle><line x1="806.960022" y1="574.960022" x2="1072.959961" y2="571.960022" stroke="red" stroke-width="6.660000" />
<circle cx="1472.959961" cy="480.959991" r="19.980000" fill="red">
  <title>Istanbul</title>
</circle><line x1="1072.959961" y1="571.960022" x2="1472.959961" y2="480.959991" stroke="red" stroke-width="6.660000" />
<circle cx="1212.959961" cy="693.960022" r="19.980000" fill="red">
  <title>Buenos Aires</title>
</circle><line x1="1472.959961" y1="480.959991" x2="1212.959961" y2="693.960022" stroke="red" stroke-width="6.660000" />
<circle cx="820.960022" cy="1247.959961" r="19.980000" fill="red">
  <title>São Paulo</title>
</circle><line x1="1212.959961" y1="693.960022" x2="820.960022" y2="1247.959961" stroke="red" stroke-width="6.660000" />
<circle cx="724.960022" cy="1352.959961" r="19.980000" fill="red">
  <title>Delhi</title>
</circle><line x1="820.960022" y1="1247.959961" x2="724.960022" y2="1352.959961" stroke="red" stroke-width="6.660000" />
<circle cx="743.960022" cy="1857.959961" r="19.980000" fill="red">
  <title>Beijing</title>
</circle><line x1="724.960022" y1="1352.959961" x2="743.960022" y2="1857.959961" stroke="red" stroke-width="6.660000" />
</svg>
