<?xml version="1.0" encoding="UTF-8" standalone="no"?>
<svg width="500" height="500" viewBox="0 0 2074.000000 2074.000000" xmlns="http://www.w3.org/2000/svg">
<rect x="19.000000" y="19.000000" width="2036.000000" height="2036.000000" fill="black" />
<circle cx="539.960022" cy="50.959999" r="19.980000" fill="red">
  <title>Tokyo</title>
</circle><line x1="553.960022" y1="402.959991" x2="539.960022" y2="50.959999" stroke="red" stroke-width="6.660000" />
<circle cx="672.960022" cy="512.960022" r="19.980000" fill="red">
  <title>Beijing</title>
</circle><line x1="539.960022" y1="50.959999" x2="672.960022" y2="512.960022" stroke="red" stroke-width="6.660000" />
<circle cx="1358.959961" cy="564.960022" r="19.980000" fill="red">
  <title>Delhi</title>
</circle><line x1="672.960022" y1="512.960022" x2="1358.959961" y2="564.960022" stroke="red" stroke-width="6.660000" />
<circle cx="2004.959961" cy="569.960022" r="19.980000" fill="red">
  <title>Mumbai</title>
</circle><line x1="1358.959961" y1="564.960022" x2="2004.959961" y2="569.960022" stroke="red" stroke-width="6.660000" />
<circle cx="1752.959961" cy="1781.959961" r="19.980000" fill="red">
  <title>New York</title>
</circle><line x1="2004.959961" y1="569.960022" x2="1752.959961" y2="1781.959961" stroke="red" stroke-width="6.660000" />
<circle cx="1408.959961" cy="1820.959961" r="19.980000" fill="red">
  <title>Cairo</title>
</circle><line x1="1752.959961" y1="1781.959961" x2="1408.959961" y2="1820.959961" stroke="red" stroke-width="6.660000" />
<circle cx="1266.959961" cy="1747.959961" r="19.980000" fill="red">
  <title>Dhaka</title>
</circle><line x1="1408.959961" y1="1820.959961" x2="1266.959961" y2="1747.959961" stroke="red" stroke-width="6.660000" />
<circle cx="826.960022" cy="1298.959961" r="19.980000" fill="red">
  <title>Shanghai</title>
</circle><line x1="1266.959961" y1="1747.959961" x2="826.960022" y2="1298.959961" stroke="red" stroke-width="6.660000" />
<circle cx="611.960022" cy="1358.959961" r="19.980000" fill="red">
  <title>Mexico City</title>
</circle><line x1="826.960022" y1="1298.959961" x2="611.960022" y2="1358.959961" stroke="red" stroke-width="6.660000" />
<circle cx="631.960022" cy="814.960022" r="19.980000" fill="red">
  <title>São Paulo</title>
</circle><line x1="611.960022" y1="1358.959961" x2="631.960022" y2="814.960022" stroke="red" stroke-width="6.660000" />
<circle cx="553.960022" cy="402.959991" r="19.980000" fill="red">
  <title>Osaka</title>
</circle><line x1="631.960022" y1="814.960022" x2="553.960022" y2="402.959991" stroke="red" stroke-width="6.660000" />
</svg>
