<?xml version="1.0" encoding="UTF-8" standalone="no"?>
<svg width="500" height="500" viewBox="0 0 2074.000000 2074.000000" xmlns="http://www.w3.org/2000/svg">
<rect x="19.000000" y="19.000000" width="2036.000000" height="2036.000000" fill="black" />
<circle cx="526.960022" cy="1414.959961" r="19.980000" fill="red">
  <title>Tokyo</title>
</circle><line x1="1619.959961" y1="350.959991" x2="526.960022" y2="1414.959961" stroke="red" stroke-width="6.660000" />
<circle cx="495.959991" cy="1530.959961" r="19.980000" fill="red">
  <title>Delhi</title>
</circle><line x1="526.960022" y1="1414.959961" x2="495.959991" y2="1530.959961" stroke="red" stroke-width="6.660000" />
<circle cx="684.960022" cy="2004.959961" r="19.980000" fill="red">
  <title>Shanghai</title>
</circle><line x1="495.959991" y1="1530.959961" x2="684.960022" y2="2004.959961" stroke="red" stroke-width="6.660000" />
<circle cx="730.960022" cy="1600.959961" r="19.980000" fill="red">
  <title>Mexico City</title>
</circle><line x1="684.960022" y1="2004.959961" x2="730.960022" y2="1600.959961" stroke="red" stroke-width="6.660000" />
<circle cx="1619.959961" cy="350.959991" r="19.980000" fill="red">
  <title>São Paulo</title>
</circle><line x1="730.960022" y1="1600.959961" x2="1619.959961" y2="350.959991" stroke="red" stroke-width="6.660000" />
</svg>
