<?xml version="1.0" encoding="UTF-8" standalone="no"?>
<svg width="500" height="500" viewBox="0 0 2074.000000 2074.000000" xmlns="http://www.w3.org/2000/svg">
<rect x="19.000000" y="19.000000" width="2036.000000" height="2036.000000" fill="black" />
<circle cx="984.960022" cy="1761.959961" r="19.980000" fill="red">
  <title>Tokyo</title>
</circle><line x1="1289.959961" y1="1994.959961" x2="984.960022" y2="1761.959961" stroke="red" stroke-width="6.660000" />
<circle cx="602.960022" cy="1435.959961" r="19.980000" fill="red">
  <title>Delhi</title>
</circle><line x1="984.960022" y1="1761.959961" x2="602.960022" y2="1435.959961" stroke="red" stroke-width="6.660000" />
<circle cx="477.959991" cy="1332.959961" r="19.980000" fill="red">
  <title>Mexico City</title>
</circle><line x1="602.960022" y1="1435.959961" x2="477.959991" y2="1332.959961" stroke="red" stroke-width="6.660000" />
<circle cx="156.959991" cy="853.960022" r="19.980000" fill="red">
  <title>Shanghai</title>
</circle><line x1="477.959991" y1="1332.959961" x2="156.959991" y2="853.960022" stroke="red" stroke-width="6.660000" />
<circle cx="685.960022" cy="131.959991" r="19.980000" fill="red">
  <title>Osaka</title>
</circle><line x1="156.959991" y1="853.960022" x2="685.960022" y2="131.959991" stroke="red" stroke-width="6.660000" />
<circle cx="1207.959961" cy="329.959991" r="19.980000" fill="red">
  <title>New York</title>
</circle><line x1="685.960022" y1="131.959991" x2="1207.959961" y2="329.959991" stroke="red" stroke-width="6.660000" />
<circle cx="1167.959961" cy="576.960022" r="19.980000" fill="red">
  <title>Beijing</title>
</circle><line x1="1207.959961" y1="329.959991" x2="1167.959961" y2="576.960022" stroke="red" stroke-width="6.660000" />
<circle cx="1713.959961" cy="382.959991" r="19.980000" fill="red">
  <title>Dhaka</title>
</circle><line x1="1167.959961" y1="576.960022" x2="1713.959961" y2="382.959991" stroke="red" stroke-width="6.660000" />
<circle cx="1892.959961" cy="695.960022" r="19.980000" fill="red">
  <title>Cairo</title>
</circle><line x1="1713.959961" y1="382.959991" x2="1892.959961" y2="695.960022" stroke="red" stroke-width="6.660000" />
<circle cx="1847.959961" cy="1697.959961" r="19.980000" fill="red">
  <title>São Paulo</title>
</circle><line x1="1892.959961" y1="695.960022" x2="1847.959961" y2="1697.959961" stroke="red" stroke-width="6.660000" />
<circle cx="1289.959961" cy="1994.959961" r="19.980000" fill="red">
  <title>Mumbai</title>
</circle><line x1="1847.959961" y1="1697.959961" x2="1289.959961" y2="1994.959961" stroke="red" stroke-width="6.660000" />
</svg>
