<?xml version="1.0" encoding="UTF-8" standalone="no"?>
<svg width="500" height="500" viewBox="0 0 2074.000000 2074.000000" xmlns="http://www.w3.org/2000/svg">
<rect x="19.000000" y="19.000000" width="2036.000000" height="2036.000000" fill="black" />
<circle cx="1227.959961" cy="721.960022" r="19.980000" fill="red">
  <title>Tokyo</title>
</circle><line x1="1431.959961" y1="1054.959961" x2="1227.959961" y2="721.960022" stroke="red" stroke-width="6.660000" />
<circle cx="1427.959961" cy="468.959991" r="19.980000" fill="red">
  <title>Beijing</title>
</circle><line x1="1227.959961" y1="721.960022" x2="1427.959961" y2="468.959991" stroke="red" stroke-width="6.660000" />
<circle cx="1300.959961" cy="398.959991" r="19.980000" fill="red">
  <title>Istanbul</title>
</circle><line x1="1427.959961" y1="468.959991" x2="1300.959961" y2="398.959991" stroke="red" stroke-width="6.660000" />
<circle cx="711.960022" cy="465.959991" r="19.980000" fill="red">
  <title>São Paulo</title>
</circle><line x1="1300.959961" y1="398.959991" x2="711.960022" y2="465.959991" stroke="red" stroke-width="6.660000" />
<circle cx="444.959991" cy="121.959999" r="19.980000" fill="red">
  <title>Dhaka</title>
</circle><line x1="711.960022" y1="465.959991" x2="444.959991" y2="121.959999" stroke="red" stroke-width="6.660000" />
<circle cx="272.959991" cy="72.959999" r="19.980000" fill="red">
  <title>Cairo</title>
</circle><line x1="444.959991" y1="121.959999" x2="272.959991" y2="72.959999" stroke="red" stroke-width="6.660000" />
<circle cx="265.959991" cy="550.960022" r="19.980000" fill="red">
  <title>Shanghai</title>
</circle><line x1="272.959991" y1="72.959999" x2="265.959991" y2="550.960022" stroke="red" stroke-width="6.660000" />
<circle cx="310.959991" cy="617.960022" r="19.980000" fill="red">
  <title>Buenos Aires</title>
</circle><line x1="265.959991" y1="550.960022" x2="310.959991" y2="617.960022" stroke="red" stroke-width="6.660000" />
<circle cx="158.959991" cy="1186.959961" r="19.980000" fill="red">
  <title>Mumbai</title>
</circle><line x1="310.959991" y1="617.960022" x2="158.959991" y2="1186.959961" stroke="red" stroke-width="6.660000" />
<circle cx="191.959991" cy="1300.959961" r="19.980000" fill="red">
  <title>Delhi</title>
</circle><line x1="158.959991" y1="1186.959961" x2="191.959991" y2="1300.959961" stroke="red" stroke-width="6.660000" />
<circle cx="402.959991" cy="1411.959961" r="19.980000" fill="red">
  <title>Mexico City</title>
</circle><line x1="191.959991" y1="1300.959961" x2="402.959991" y2="1411.959961" stroke="red" stroke-width="6.660000" />
<circle cx="1115.959961" cy="1520.959961" r="19.980000" fill="red">
  <title>Chongqing</title>
</circle><line x1="402.959991" y1="1411.959961" x2="1115.959961" y2="1520.959961" stroke="red" stroke-width="6.660000" />
<circle cx="1074.959961" cy="1947.959961" r="19.980000" fill="red">
  <title>New York</title>
</circle><line x1="1115.959961" y1="1520.959961" x2="1074.959961" y2="1947.959961" stroke="red" stroke-width="6.660000" />
<circle cx="1313.959961" cy="1529.959961" r="19.980000" fill="red">
  <title>Osaka</title>
</circle><line x1="1074.959961" y1="1947.959961" x2="1313.959961" y2="1529.959961" stroke="red" stroke-width="6.660000" />
<circle cx="1431.959961" cy="1054.959961" r="19.980000" fill="red">
  <title>Karachi</title>
</circle><line x1="1313.959961" y1="1529.959961" x2="1431.959961" y2="1054.959961" stroke="red" stroke-width="6.660000" />
</svg>
