<?xml version="1.0" encoding="UTF-8" standalone="no"?>
<svg width="500" height="500" viewBox="0 0 2074.000000 2074.000000" xmlns="http://www.w3.org/2000/svg">
<rect x="19.000000" y="19.000000" width="2036.000000" height="2036.000000" fill="black" />
<circle cx="837.960022" cy="1133.959961" r="19.980000" fill="red">
  <title>Tokyo</title>
</circle><line x1="476.959991" y1="1250.959961" x2="837.960022" y2="1133.959961" stroke="red" stroke-width="6.660000" />
<circle cx="1151.959961" cy="1671.959961" r="19.980000" fill="red">
  <title>New York</title>
</circle><line x1="837.960022" y1="1133.959961" x2="1151.959961" y2="1671.959961" stroke="red" stroke-width="6.660000" />
<circle cx="1388.959961" cy="1760.959961" r="19.980000" fill="red">
  <title>Mumbai</title>
</circle><line x1="1151.959961" y1="1671.959961" x2="1388.959961" y2="1760.959961" stroke="red" stroke-width="6.660000" />
<circle cx="1731.959961" cy="1599.959961" r="19.980000" fill="red">
  <title>Osaka</title>
</circle><line x1="1388.959961" y1="1760.959961" x2="1731.959961" y2="1599.959961" stroke="red" stroke-width="6.660000" />
<circle cx="1731.959961" cy="1161.959961" r="19.980000" fill="red">
  <title>Dhaka</title>
</circle><line x1="1731.959961" y1="1599.959961" x2="1731.959961" y2="1161.959961" stroke="red" stroke-width="6.660000" />
<circle cx="1518.959961" cy="1020.960022" r="19.980000" fill="red">
  <title>Shanghai</title>
</circle><line x1="1731.959961" y1="1161.959961" x2="1518.959961" y2="1020.960022" stroke="red" stroke-width="6.660000" />
<circle cx="2037.959961" cy="715.960022" r="19.980000" fill="red">
  <title>Beijing</title>
</circle><line x1="1518.959961" y1="1020.960022" x2="2037.959961" y2="715.960022" stroke="red" stroke-width="6.660000" />
<circle cx="1583.959961" cy="465.959991" r="19.980000" fill="red">
  <title>Cairo</title>
</circle><line x1="2037.959961" y1="715.960022" x2="1583.959961" y2="465.959991" stroke="red" stroke-width="6.660000" />
<circle cx="1131.959961" cy="484.959991" r="19.980000" fill="red">
  <title>Karachi</title>
</circle><line x1="1583.959961" y1="465.959991" x2="1131.959961" y2="484.959991" stroke="red" stroke-width="6.660000" />
<circle cx="1033.959961" cy="467.959991" r="19.980000" fill="red">
  <title>Buenos Aires</title>
</circle><line x1="1131.959961" y1="484.959991" x2="1033.959961" y2="467.959991" stroke="red" stroke-width="6.660000" />
<circle cx="675.960022" cy="217.959991" r="19.980000" fill="red">
  <title>Mexico City</title>
</circle><line x1="1033.959961" y1="467.959991" x2="675.960022" y2="217.959991" stroke="red" stroke-width="6.660000" />
<circle cx="439.959991" cy="46.959999" r="19.980000" fill="red">
  <title>Delhi</title>
</circle><line x1="675.960022" y1="217.959991" x2="439.959991" y2="46.959999" stroke="red" stroke-width="6.660000" />
<circle cx="158.959991" cy="810.960022" r="19.980000" fill="red">
  <title>Chongqing</title>
</circle><line x1="439.959991" y1="46.959999" x2="158.959991" y2="810.960022" stroke="red" stroke-width="6.660000" />
<circle cx="306.959991" cy="1275.959961" r="19.980000" fill="red">
  <title>Kolkata</title>
</circle><line x1="158.959991" y1="810.960022" x2="306.959991" y2="1275.959961" stroke="red" stroke-width="6.660000" />
<circle cx="346.959991" cy="1695.959961" r="19.980000" fill="red">
  <title>São Paulo</title>
</circle><line x1="306.959991" y1="1275.959961" x2="346.959991" y2="1695.959961" stroke="red" stroke-width="6.660000" />
<circle cx="476.959991" cy="1250.959961" r="19.980000" fill="red">
  <title>Istanbul</title>
</circle><line x1="346.959991" y1="1695.959961" x2="476.959991" y2="1250.959961" stroke="red" stroke-width="6.660000" />
</svg>
