<?xml version="1.0" encoding="UTF-8" standalone="no"?>
<svg width="500" height="500" viewBox="0 0 2074.000000 2074.000000" xmlns="http://www.w3.org/2000/svg">
<rect x="19.000000" y="19.000000" width="2036.000000" height="2036.000000" fill="black" />
<circle cx="542.960022" cy="418.959991" r="19.980000" fill="red">
  <title>Tokyo</title>
</circle><line x1="569.960022" y1="769.960022" x2="542.960022" y2="418.959991" stroke="red" stroke-width="6.660000" />
<circle cx="616.960022" cy="531.960022" r="19.980000" fill="red">
  <title>Shanghai</title>
</circle><line x1="542.960022" y1="418.959991" x2="616.960022" y2="531.960022" stroke="red" stroke-width="6.660000" />
<circle cx="91.959999" cy="1105.959961" r="19.980000" fill="red">
  <title>Delhi</title>
</circle><line x1="616.960022" y1="531.960022" x2="91.959999" y2="1105.959961" stroke="red" stroke-width="6.660000" />
<circle cx="132.959991" cy="1663.959961" r="19.980000" fill="red">
  <title>Cairo</title>
</circle><line x1="91.959999" y1="1105.959961" x2="132.959991" y2="1663.959961" stroke="red" stroke-width="6.660000" />
<circle cx="1205.959961" cy="1449.959961" r="19.980000" fill="red">
  <title>Mexico City</title>
</circle><line x1="132.959991" y1="1663.959961" x2="1205.959961" y2="1449.959961" stroke="red" stroke-width="6.660000" />
<circle cx="569.960022" cy="769.960022" r="19.980000" fill="red">
  <title>São Paulo</title>
</circle><line x1="1205.959961" y1="1449.959961" x2="569.960022" y2="769.960022" stroke="red" stroke-width="6.660000" />
</svg>
