<?xml version="1.0" encoding="UTF-8" standalone="no"?>
<svg width="500" height="500" viewBox="0 0 2074.000000 2074.000000" xmlns="http://www.w3.org/2000/svg">
<rect x="19.000000" y="19.000000" width="2036.000000" height="2036.000000" fill="black" />
<circle cx="166.959991" cy="608.960022" r="19.980000" fill="red">
  <title>Tokyo</title>
</circle><line x1="557.960022" y1="936.960022" x2="166.959991" y2="608.960022" stroke="red" stroke-width="6.660000" />
<circle cx="260.959991" cy="342.959991" r="19.980000" fill="red">
  <title>São Paulo</title>
</circle><line x1="166.959991" y1="608.960022" x2="260.959991" y2="342.959991" stroke="red" stroke-width="6.660000" />
<circle cx="274.959991" cy="635.960022" r="19.980000" fill="red">
  <title>Osaka</title>
</circle><line x1="260.959991" y1="342.959991" x2="274.959991" y2="635.960022" stroke="red" stroke-width="6.660000" />
<circle cx="783.960022" cy="781.960022" r="19.980000" fill="red">
  <title>Mumbai</title>
</circle><line x1="274.959991" y1="635.960022" x2="783.960022" y2="781.960022" stroke="red" stroke-width="6.660000" />
<circle cx="1215.959961" cy="774.960022" r="19.980000" fill="red">
  <title>Chongqing</title>
</circle><line x1="783.960022" y1="781.960022" x2="1215.959961" y2="774.960022" stroke="red" stroke-width="6.660000" />
<circle cx="1531.959961" cy="344.959991" r="19.980000" fill="red">
  <title>New York</title>
</circle><line x1="1215.959961" y1="774.960022" x2="1531.959961" y2="344.959991" stroke="red" stroke-width="6.660000" />
<circle cx="1683.959961" cy="61.959999" r="19.980000" fill="red">
  <title>Delhi</title>
</circle><line x1="1531.959961" y1="344.959991" x2="1683.959961" y2="61.959999" stroke="red" stroke-width="6.660000" />
<circle cx="1632.959961" cy="907.960022" r="19.980000" fill="red">
  <title>Karachi</title>
</circle><line x1="1683.959961" y1="61.959999" x2="1632.959961" y2="907.960022" stroke="red" stroke-width="6.660000" />
<circle cx="1280.959961" cy="1172.959961" r="19.980000" fill="red">
  <title>Mexico City</title>
</circle><line x1="1632.959961" y1="907.960022" x2="1280.959961" y2="1172.959961" stroke="red" stroke-width="6.660000" />
<circle cx="1250.959961" cy="1607.959961" r="19.980000" fill="red">
  <title>Dhaka</title>
</circle><line x1="1280.959961" y1="1172.959961" x2="1250.959961" y2="1607.959961" stroke="red" stroke-width="6.660000" />
<circle cx="1631.959961" cy="2033.959961" r="19.980000" fill="red">
  <title>Shanghai</title>
</circle><line x1="1250.959961" y1="1607.959961" x2="1631.959961" y2="2033.959961" stroke="red" stroke-width="6.660000" />
<circle cx="1452.959961" cy="1874.959961" r="19.980000" fill="red">
  <title>Cairo</title>
</circle><line x1="1631.959961" y1="2033.959961" x2="1452.959961" y2="1874.959961" stroke="red" stroke-width="6.660000" />
<circle cx="1216.959961" cy="1645.959961" r="19.980000" fill="red">
  <title>Beijing</title>
</circle><line x1="1452.959961" y1="1874.959961" x2="1216.959961" y2="1645.959961" stroke="red" stroke-width="6.660000" />
<circle cx="533.960022" cy="1936.959961" r="19.980000" fill="red">
  <title>Istanbul</title>
</circle><line x1="1216.959961" y1="1645.959961" x2="533.960022" y2="1936.959961" stroke="red" stroke-width="6.660000" />
<circle cx="557.960022" cy="936.960022" r="19.980000" fill="red">
  <title>Buenos Aires</title>
</circle><line x1="533.960022" y1="1936.959961" x2="557.960022" y2="936.960022" stroke="red" stroke-width="6.660000" />
</svg>
