<?xml version="1.0" encoding="UTF-8" standalone="no"?>
<svg width="500" height="500" viewBox="0 0 2074.000000 2074.000000" xmlns="http://www.w3.org/2000/svg">
<rect x="19.000000" y="19.000000" width="2036.000000" height="2036.000000" fill="black" />
<circle cx="376.959991" cy="1048.959961" r="19.980000" fill="red">
  <title>Tokyo</title>
</circle><line x1="698.960022" y1="1283.959961" x2="376.959991" y2="1048.959961" stroke="red" stroke-width="6.660000" />
<circle cx="374.959991" cy="874.960022" r="19.980000" fill="red">
  <title>Delhi</title>
</circle><line x1="376.959991" y1="1048.959961" x2="374.959991" y2="874.960022" stroke="red" stroke-width="6.660000" />
<circle cx="87.959999" cy="419.959991" r="19.980000" fill="red">
  <title>Beijing</title>
</circle><line x1="374.959991" y1="874.960022" x2="87.959999" y2="419.959991" stroke="red" stroke-width="6.660000" />
<circle cx="328.959991" cy="72.959999" r="19.980000" fill="red">
  <title>Karachi</title>
</circle><line x1="87.959999" y1="419.959991" x2="328.959991" y2="72.959999" stroke="red" stroke-width="6.660000" />
<circle cx="753.960022" cy="289.959991" r="19.980000" fill="red">
  <title>São Paulo</title>
</circle><line x1="328.959991" y1="72.959999" x2="753.960022" y2="289.959991" stroke="red" stroke-width="6.660000" />
<circle cx="882.960022" cy="183.959991" r="19.980000" fill="red">
  <title>Dhaka</title>
</circle><line x1="753.960022" y1="289.959991" x2="882.960022" y2="183.959991" stroke="red" stroke-width="6.660000" />
<circle cx="910.960022" cy="541.960022" r="19.980000" fill="red">
  <title>Istanbul</title>
</circle><line x1="882.960022" y1="183.959991" x2="910.960022" y2="541.960022" stroke="red" stroke-width="6.660000" />
<circle cx="1020.960022" cy="494.959991" r="19.980000" fill="red">
  <title>Shanghai</title>
</circle><line x1="910.960022" y1="541.960022" x2="1020.960022" y2="494.959991" stroke="red" stroke-width="6.660000" />
<circle cx="1315.959961" cy="361.959991" r="19.980000" fill="red">
  <title>Chongqing</title>
</circle><line x1="1020.960022" y1="494.959991" x2="1315.959961" y2="361.959991" stroke="red" stroke-width="6.660000" />
<circle cx="1576.959961" cy="811.960022" r="19.980000" fill="red">
  <title>Mumbai</title>
</circle><line x1="1315.959961" y1="361.959991" x2="1576.959961" y2="811.960022" stroke="red" stroke-width="6.660000" />
<circle cx="1320.959961" cy="1440.959961" r="19.980000" fill="red">
  <title>Mexico City</title>
</circle><line x1="1576.959961" y1="811.960022" x2="1320.959961" y2="1440.959961" stroke="red" stroke-width="6.660000" />
<circle cx="1883.959961" cy="1952.959961" r="19.980000" fill="red">
  <title>Buenos Aires</title>
</circle><line x1="1320.959961" y1="1440.959961" x2="1883.959961" y2="1952.959961" stroke="red" stroke-width="6.660000" />
<circle cx="1576.959961" cy="1757.959961" r="19.980000" fill="red">
  <title>Cairo</title>
</circle><line x1="1883.959961" y1="1952.959961" x2="1576.959961" y2="1757.959961" stroke="red" stroke-width="6.660000" />
<circle cx="947.960022" cy="1570.959961" r="19.980000" fill="red">
  <title>New York</title>
</circle><line x1="1576.959961" y1="1757.959961" x2="947.960022" y2="1570.959961" stroke="red" stroke-width="6.660000" />
<circle cx="698.960022" cy="1283.959961" r="19.980000" fill="red">
  <title>Osaka</title>
</circle><line x1="947.960022" y1="1570.959961" x2="698.960022" y2="1283.959961" stroke="red" stroke-width="6.660000" />
</svg>
