<?xml version="1.0" encoding="UTF-8" standalone="no"?>
<svg width="500" height="500" viewBox="0 0 2074.000000 2074.000000" xmlns="http://www.w3.org/2000/svg">
<rect x="19.000000" y="19.000000" width="2036.000000" height="2036.000000" fill="black" />
<circle cx="1862.959961" cy="294.959991" r="19.980000" fill="red">
  <title>Tokyo</title>
</circle><line x1="1787.959961" y1="312.959991" x2="1862.959961" y2="294.959991" stroke="red" stroke-width="6.660000" />
<circle cx="1812.959961" cy="724.960022" r="19.980000" fill="red">
  <title>Beijing</title>
</circle><line x1="1862.959961" y1="294.959991" x2="1812.959961" y2="724.960022" stroke="red" stroke-width="6.660000" />
<circle cx="1596.959961" cy="1612.959961" r="19.980000" fill="red">
  <title>Kolkata</title>
</circle><line x1="1812.959961" y1="724.960022" x2="1596.959961" y2="1612.959961" stroke="red" stroke-width="6.660000" />
<circle cx="1939.959961" cy="1749.959961" r="19.980000" fill="red">
  <title>Mexico City</title>
</circle><line x1="1596.959961" y1="1612.959961" x2="1939.959961" y2="1749.959961" stroke="red" stroke-width="6.660000" />
<circle cx="1968.959961" cy="1910.959961" r="19.980000" fill="red">
  <title>Chongqing</title>
</circle><line x1="1939.959961" y1="1749.959961" x2="1968.959961" y2="1910.959961" stroke="red" stroke-width="6.660000" />
<circle cx="1581.959961" cy="1886.959961" r="19.980000" fill="red">
  <title>Dhaka</title>
</circle><line x1="1968.959961" y1="1910.959961" x2="1581.959961" y2="1886.959961" stroke="red" stroke-width="6.660000" />
<circle cx="672.960022" cy="1517.959961" r="19.980000" fill="red">
  <title>Mumbai</title>
</circle><line x1="1581.959961" y1="1886.959961" x2="672.960022" y2="1517.959961" stroke="red" stroke-width="6.660000" />
<circle cx="115.959999" cy="1331.959961" r="19.980000" fill="red">
  <title>New York</title>
</circle><line x1="672.960022" y1="1517.959961" x2="115.959999" y2="1331.959961" stroke="red" stroke-width="6.660000" />
<circle cx="192.959991" cy="1349.959961" r="19.980000" fill="red">
  <title>Shanghai</title>
</circle><line x1="115.959999" y1="1331.959961" x2="192.959991" y2="1349.959961" stroke="red" stroke-width="6.660000" />
<circle cx="919.960022" cy="979.960022" r="19.980000" fill="red">
  <title>Delhi</title>
</circle><line x1="192.959991" y1="1349.959961" x2="919.960022" y2="979.960022" stroke="red" stroke-width="6.660000" />
<circle cx="949.960022" cy="981.960022" r="19.980000" fill="red">
  <title>São Paulo</title>
</circle><line x1="919.960022" y1="979.960022" x2="949.960022" y2="981.960022" stroke="red" stroke-width="6.660000" />
<circle cx="951.960022" cy="931.960022" r="19.980000" fill="red">
  <title>Cairo</title>
</circle><line x1="949.960022" y1="981.960022" x2="951.960022" y2="931.960022" stroke="red" stroke-width="6.660000" />
<circle cx="742.960022" cy="775.960022" r="19.980000" fill="red">
  <title>Buenos Aires</title>
</circle><line x1="951.960022" y1="931.960022" x2="742.960022" y2="775.960022" stroke="red" stroke-width="6.660000" />
<circle cx="554.960022" cy="721.960022" r="19.980000" fill="red">
  <title>Lagos</title>
</circle><line x1="742.960022" y1="775.960022" x2="554.960022" y2="721.960022" stroke="red" stroke-width="6.660000" />
<circle cx="568.960022" cy="478.959991" r="19.980000" fill="red">
  <title>Manila</title>
</circle><line x1="554.960022" y1="721.960022" x2="568.960022" y2="478.959991" stroke="red" stroke-width="6.660000" />
<circle cx="876.960022" cy="236.959991" r="19.980000" fill="red">
  <title>Osaka</title>
</circle><line x1="568.960022" y1="478.959991" x2="876.960022" y2="236.959991" stroke="red" stroke-width="6.660000" />
<circle cx="1334.959961" cy="393.959991" r="19.980000" fill="red">
  <title>Karachi</title>
</circle><line x1="876.960022" y1="236.959991" x2="1334.959961" y2="393.959991" stroke="red" stroke-width="6.660000" />
<circle cx="1787.959961" cy="312.959991" r="19.980000" fill="red">
  <title>Istanbul</title>
</circle><line x1="1334.959961" y1="393.959991" x2="1787.959961" y2="312.959991" stroke="red" stroke-width="6.660000" />
</svg>
