<?xml version="1.0" encoding="UTF-8" standalone="no"?>
<svg width="500" height="500" viewBox="0 0 2074.000000 2074.000000" xmlns="http://www.w3.org/2000/svg">
<rect x="19.000000" y="19.000000" width="2036.000000" height="2036.000000" fill="black" />
<circle cx="1995.959961" cy="955.960022" r="19.980000" fill="red">
  <title>Tokyo</title>
</circle><line x1="1317.959961" y1="295.959991" x2="1995.959961" y2="955.960022" stroke="red" stroke-width="6.660000" />
<circle cx="1833.959961" cy="1477.959961" r="19.980000" fill="red">
  <title>Shanghai</title>
</circle><line x1="1995.959961" y1="955.960022" x2="1833.959961" y2="1477.959961" stroke="red" stroke-width="6.660000" />
<circle cx="1543.959961" cy="1902.959961" r="19.980000" fill="red">
  <title>Mexico City</title>
</circle><line x1="1833.959961" y1="1477.959961" x2="1543.959961" y2="1902.959961" stroke="red" stroke-width="6.660000" />
<circle cx="929.960022" cy="1607.959961" r="19.980000" fill="red">
  <title>Beijing</title>
</circle><line x1="1543.959961" y1="1902.959961" x2="929.960022" y2="1607.959961" stroke="red" stroke-width="6.660000" />
<circle cx="823.960022" cy="1532.959961" r="19.980000" fill="red">
  <title>Osaka</title>
</circle><line x1="929.960022" y1="1607.959961" x2="823.960022" y2="1532.959961" stroke="red" stroke-width="6.660000" />
<circle cx="265.959991" cy="1533.959961" r="19.980000" fill="red">
  <title>São Paulo</title>
</circle><line x1="823.960022" y1="1532.959961" x2="265.959991" y2="1533.959961" stroke="red" stroke-width="6.660000" />
<circle cx="99.959999" cy="1027.959961" r="19.980000" fill="red">
  <title>Dhaka</title>
</circle><line x1="265.959991" y1="1533.959961" x2="99.959999" y2="1027.959961" stroke="red" stroke-width="6.660000" />
<circle cx="339.959991" cy="1113.959961" r="19.980000" fill="red">
  <title>Cairo</title>
</circle><line x1="99.959999" y1="1027.959961" x2="339.959991" y2="1113.959961" stroke="red" stroke-width="6.660000" />
<circle cx="831.960022" cy="386.959991" r="19.980000" fill="red">
  <title>Mumbai</title>
</circle><line x1="339.959991" y1="1113.959961" x2="831.960022" y2="386.959991" stroke="red" stroke-width="6.660000" />
<circle cx="1317.959961" cy="295.959991" r="19.980000" fill="red">
  <title>Delhi</title>
</circle><line x1="831.960022" y1="386.959991" x2="1317.959961" y2="295.959991" stroke="red" stroke-width="6.660000" />
</svg>
