<?xml version="1.0" encoding="UTF-8" standalone="no"?>
<svg width="500" height="500" viewBox="0 0 2074.000000 2074.000000" xmlns="http://www.w3.org/2000/svg">
<rect x="19.000000" y="19.000000" width="2036.000000" height="2036.000000" fill="black" />
<circle cx="2007.959961" cy="583.960022" r="19.980000" fill="red">
  <title>Tokyo</title>
</circle><line x1="1314.959961" y1="1668.959961" x2="2007.959961" y2="583.960022" stroke="red" stroke-width="6.660000" />
<circle cx="2015.959961" cy="98.959999" r="19.980000" fill="red">
  <title>Cairo</title>
</circle><line x1="2007.959961" y1="583.960022" x2="2015.959961" y2="98.959999" stroke="red" stroke-width="6.660000" />
<circle cx="1601.959961" cy="402.959991" r="19.980000" fill="red">
  <title>Dhaka</title>
</circle><line x1="2015.959961" y1="98.959999" x2="1601.959961" y2="402.959991" stroke="red" stroke-width="6.660000" />
<circle cx="1481.959961" cy="450.959991" r="19.980000" fill="red">
  <title>Osaka</title>
</circle><line x1="1601.959961" y1="402.959991" x2="1481.959961" y2="450.959991" stroke="red" stroke-width="6.660000" />
<circle cx="822.960022" cy="1121.959961" r="19.980000" fill="red">
  <title>Mexico City</title>
</circle><line x1="1481.959961" y1="450.959991" x2="822.960022" y2="1121.959961" stroke="red" stroke-width="6.660000" />
<circle cx="176.959991" cy="1134.959961" r="19.980000" fill="red">
  <title>Mumbai</title>
</circle><line x1="822.960022" y1="1121.959961" x2="176.959991" y2="1134.959961" stroke="red" stroke-width="6.660000" />
<circle cx="962.960022" cy="1536.959961" r="19.980000" fill="red">
  <title>New York</title>
</circle><line x1="176.959991" y1="1134.959961" x2="962.960022" y2="1536.959961" stroke="red" stroke-width="6.660000" />
<circle cx="875.960022" cy="1721.959961" r="19.980000" fill="red">
  <title>Shanghai</title>
</circle><line x1="962.960022" y1="1536.959961" x2="875.960022" y2="1721.959961" stroke="red" stroke-width="6.660000" />
<circle cx="1049.959961" cy="1950.959961" r="19.980000" fill="red">
  <title>Beijing</title>
</circle><line x1="875.960022" y1="1721.959961" x2="1049.959961" y2="1950.959961" stroke="red" stroke-width="6.660000" />
<circle cx="1807.959961" cy="2028.959961" r="19.980000" fill="red">
  <title>Delhi</title>
</circle><line x1="1049.959961" y1="1950.959961" x2="1807.959961" y2="2028.959961" stroke="red" stroke-width="6.660000" />
<circle cx="1314.959961" cy="1668.959961" r="19.980000" fill="red">
  <title>São Paulo</title>
</circle><line x1="1807.959961" y1="2028.959961" x2="1314.959961" y2="1668.959961" stroke="red" stroke-width="6.660000" />
</svg>
