<?xml version="1.0" encoding="UTF-8" standalone="no"?>
<svg width="500" height="500" viewBox="0 0 2074.000000 2074.000000" xmlns="http://www.w3.org/2000/svg">
<rect x="19.000000" y="19.000000" width="2036.000000" height="2036.000000" fill="black" />
<circle cx="1370.959961" cy="786.960022" r="19.980000" fill="red">
  <title>Tokyo</title>
</circle><line x1="1421.959961" y1="574.960022" x2="1370.959961" y2="786.960022" stroke="red" stroke-width="6.660000" />
<circle cx="1034.959961" cy="999.960022" r="19.980000" fill="red">
  <title>São Paulo</title>
</circle><line x1="1370.959961" y1="786.960022" x2="1034.959961" y2="999.960022" stroke="red" stroke-width="6.660000" />
<circle cx="801.960022" cy="1413.959961" r="19.980000" fill="red">
  <title>Osaka</title>
</circle><line x1="1034.959961" y1="999.960022" x2="801.960022" y2="1413.959961" stroke="red" stroke-width="6.660000" />
<circle cx="266.959991" cy="1355.959961" r="19.980000" fill="red">
  <title>Kolkata</title>
</circle><line x1="801.960022" y1="1413.959961" x2="266.959991" y2="1355.959961" stroke="red" stroke-width="6.660000" />
<circle cx="387.959991" cy="1953.959961" r="19.980000" fill="red">
  <title>Buenos Aires</title>
</circle><line x1="266.959991" y1="1355.959961" x2="387.959991" y2="1953.959961" stroke="red" stroke-width="6.660000" />
<circle cx="510.959991" cy="1867.959961" r="19.980000" fill="red">
  <title>Cairo</title>
</circle><line x1="387.959991" y1="1953.959961" x2="510.959991" y2="1867.959961" stroke="red" stroke-width="6.660000" />
<circle cx="715.960022" cy="1916.959961" r="19.980000" fill="red">
  <title>Shanghai</title>
</circle><line x1="510.959991" y1="1867.959961" x2="715.960022" y2="1916.959961" stroke="red" stroke-width="6.660000" />
<circle cx="1010.960022" cy="1543.959961" r="19.980000" fill="red">
  <title>Manila</title>
</circle><line x1="715.960022" y1="1916.959961" x2="1010.960022" y2="1543.959961" stroke="red" stroke-width="6.660000" />
<circle cx="1348.959961" cy="1332.959961" r="19.980000" fill="red">
  <title>Mexico City</title>
</circle><line x1="1010.960022" y1="1543.959961" x2="1348.959961" y2="1332.959961" stroke="red" stroke-width="6.660000" />
<circle cx="1341.959961" cy="1409.959961" r="19.980000" fill="red">
  <title>New York</title>
</circle><line x1="1348.959961" y1="1332.959961" x2="1341.959961" y2="1409.959961" stroke="red" stroke-width="6.660000" />
<circle cx="1610.959961" cy="1687.959961" r="19.980000" fill="red">
  <title>Lagos</title>
</circle><line x1="1341.959961" y1="1409.959961" x2="1610.959961" y2="1687.959961" stroke="red" stroke-width="6.660000" />
<circle cx="1784.959961" cy="1402.959961" r="19.980000" fill="red">
  <title>Karachi</title>
</circle><line x1="1610.959961" y1="1687.959961" x2="1784.959961" y2="1402.959961" stroke="red" stroke-width="6.660000" />
<circle cx="1996.959961" cy="1202.959961" r="19.980000" fill="red">
  <title>Dhaka</title>
</circle><line x1="1784.959961" y1="1402.959961" x2="1996.959961" y2="1202.959961" stroke="red" stroke-width="6.660000" />
<circle cx="1859.959961" cy="756.960022" r="19.980000" fill="red">
  <title>Beijing</title>
</circle><line x1="1996.959961" y1="1202.959961" x2="1859.959961" y2="756.960022" stroke="red" stroke-width="6.660000" />
<circle cx="2023.959961" cy="263.959991" r="19.980000" fill="red">
  <title>Istanbul</title>
</circle><line x1="1859.959961" y1="756.960022" x2="2023.959961" y2="263.959991" stroke="red" stroke-width="6.660000" />
<circle cx="1315.959961" cy="293.959991" r="19.980000" fill="red">
  <title>Delhi</title>
</circle><line x1="2023.959961" y1="263.959991" x2="1315.959961" y2="293.959991" stroke="red" stroke-width="6.660000" />
<circle cx="1202.959961" cy="593.960022" r="19.980000" fill="red">
  <title>Mumbai</title>
</circle><line x1="1315.959961" y1="293.959991" x2="1202.959961" y2="593.960022" stroke="red" stroke-width="6.660000" />
<circle cx="1421.959961" cy="574.960022" r="19.980000" fill="red">
  <title>Chongqing</title>
</circle><line x1="1202.959961" y1="593.960022" x2="1421.959961" y2="574.960022" stroke="red" stroke-width="6.660000" />
</svg>
