<?xml version="1.0" encoding="UTF-8" standalone="no"?>
<svg width="500" height="500" viewBox="0 0 2074.000000 2074.000000" xmlns="http://www.w3.org/2000/svg">
<rect x="19.000000" y="19.000000" width="2036.000000" height="2036.000000" fill="black" />
<circle cx="909.960022" cy="1915.959961" r="19.980000" fill="red">
  <title>Tokyo</title>
</circle><line x1="59.959999" y1="1459.959961" x2="909.960022" y2="1915.959961" stroke="red" stroke-width="6.660000" />
<circle cx="898.960022" cy="1963.959961" r="19.980000" fill="red">
  <title>Beijing</title>
</circle><line x1="909.960022" y1="1915.959961" x2="898.960022" y2="1963.959961" stroke="red" stroke-width="6.660000" />
<circle cx="1003.960022" cy="1796.959961" r="19.980000" fill="red">
  <title>Osaka</title>
</circle><line x1="898.960022" y1="1963.959961" x2="1003.960022" y2="1796.959961" stroke="red" stroke-width="6.660000" />
<circle cx="1518.959961" cy="1701.959961" r="19.980000" fill="red">
  <title>Istanbul</title>
</circle><line x1="1003.960022" y1="1796.959961" x2="1518.959961" y2="1701.959961" stroke="red" stroke-width="6.660000" />
<circle cx="1792.959961" cy="1758.959961" r="19.980000" fill="red">
  <title>Buenos Aires</title>
</circle><line x1="1518.959961" y1="1701.959961" x2="1792.959961" y2="1758.959961" stroke="red" stroke-width="6.660000" />
<circle cx="1892.959961" cy="1948.959961" r="19.980000" fill="red">
  <title>Delhi</title>
</circle><line x1="1792.959961" y1="1758.959961" x2="1892.959961" y2="1948.959961" stroke="red" stroke-width="6.660000" />
<circle cx="2007.959961" cy="1667.959961" r="19.980000" fill="red">
  <title>New York</title>
</circle><line x1="1892.959961" y1="1948.959961" x2="2007.959961" y2="1667.959961" stroke="red" stroke-width="6.660000" />
<circle cx="1765.959961" cy="601.960022" r="19.980000" fill="red">
  <title>Mexico City</title>
</circle><line x1="2007.959961" y1="1667.959961" x2="1765.959961" y2="601.960022" stroke="red" stroke-width="6.660000" />
<circle cx="1200.959961" cy="778.960022" r="19.980000" fill="red">
  <title>Shanghai</title>
</circle><line x1="1765.959961" y1="601.960022" x2="1200.959961" y2="778.960022" stroke="red" stroke-width="6.660000" />
<circle cx="996.960022" cy="389.959991" r="19.980000" fill="red">
  <title>Kolkata</title>
</circle><line x1="1200.959961" y1="778.960022" x2="996.960022" y2="389.959991" stroke="red" stroke-width="6.660000" />
<circle cx="686.960022" cy="275.959991" r="19.980000" fill="red">
  <title>Karachi</title>
</circle><line x1="996.960022" y1="389.959991" x2="686.960022" y2="275.959991" stroke="red" stroke-width="6.660000" />
<circle cx="1043.959961" cy="771.960022" r="19.980000" fill="red">
  <title>Cairo</title>
</circle><line x1="686.960022" y1="275.959991" x2="1043.959961" y2="771.960022" stroke="red" stroke-width="6.660000" />
<circle cx="1235.959961" cy="949.960022" r="19.980000" fill="red">
  <title>Dhaka</title>
</circle><line x1="1043.959961" y1="771.960022" x2="1235.959961" y2="949.960022" stroke="red" stroke-width="6.660000" />
<circle cx="1005.960022" cy="1284.959961" r="19.980000" fill="red">
  <title>São Paulo</title>
</circle><line x1="1235.959961" y1="949.960022" x2="1005.960022" y2="1284.959961" stroke="red" stroke-width="6.660000" />
<circle cx="743.960022" cy="1351.959961" r="19.980000" fill="red">
  <title>Mumbai</title>
</circle><line x1="1005.960022" y1="1284.959961" x2="743.960022" y2="1351.959961" stroke="red" stroke-width="6.660000" />
<circle cx="59.959999" cy="1459.959961" r="19.980000" fill="red">
  <title>Chongqing</title>
</circle><line x1="743.960022" y1="1351.959961" x2="59.959999" y2="1459.959961" stroke="red" stroke-width="6.660000" />
</svg>
