<?xml version="1.0" encoding="UTF-8" standalone="no"?>
<svg width="500" height="500" viewBox="0 0 2074.000000 2074.000000" xmlns="http://www.w3.org/2000/svg">
<rect x="19.000000" y="19.000000" width="2036.000000" height="2036.000000" fill="black" />
<circle cx="593.960022" cy="1969.959961" r="19.980000" fill="red">
  <title>Tokyo</title>
</circle><line x1="102.959999" y1="1643.959961" x2="593.960022" y2="1969.959961" stroke="red" stroke-width="6.660000" />
<circle cx="1287.959961" cy="356.959991" r="19.980000" fill="red">
  <title>Delhi</title>
</circle><line x1="593.960022" y1="1969.959961" x2="1287.959961" y2="356.959991" stroke="red" stroke-width="6.660000" />
<circle cx="102.959999" cy="1643.959961" r="19.980000" fill="red">
  <title>Shanghai</title>
</circle><line x1="1287.959961" y1="356.959991" x2="102.959999" y2="1643.959961" stroke="red" stroke-width="6.660000" />
</svg>
