<?xml version="1.0" encoding="UTF-8" standalone="no"?>
<svg width="500" height="500" viewBox="0 0 2074.000000 2074.000000" xmlns="http://www.w3.org/2000/svg">
<rect x="19.000000" y="19.000000" width="2036.000000" height="2036.000000" fill="black" />
<circle cx="1764.959961" cy="2019.959961" r="19.980000" fill="red">
  <title>Tokyo</title>
</circle><line x1="1742.959961" y1="2008.959961" x2="1764.959961" y2="2019.959961" stroke="red" stroke-width="6.660000" />
<circle cx="1295.959961" cy="1714.959961" r="19.980000" fill="red">
  <title>Beijing</title>
</circle><line x1="1764.959961" y1="2019.959961" x2="1295.959961" y2="1714.959961" stroke="red" stroke-width="6.660000" />
<circle cx="1319.959961" cy="1531.959961" r="19.980000" fill="red">
  <title>Delhi</title>
</circle><line x1="1295.959961" y1="1714.959961" x2="1319.959961" y2="1531.959961" stroke="red" stroke-width="6.660000" />
<circle cx="1193.959961" cy="1160.959961" r="19.980000" fill="red">
  <title>New York</title>
</circle><line x1="1319.959961" y1="1531.959961" x2="1193.959961" y2="1160.959961" stroke="red" stroke-width="6.660000" />
<circle cx="1256.959961" cy="1088.959961" r="19.980000" fill="red">
  <title>Mumbai</title>
</circle><line x1="1193.959961" y1="1160.959961" x2="1256.959961" y2="1088.959961" stroke="red" stroke-width="6.660000" />
<circle cx="1408.959961" cy="847.960022" r="19.980000" fill="red">
  <title>Buenos Aires</title>
</circle><line x1="1256.959961" y1="1088.959961" x2="1408.959961" y2="847.960022" stroke="red" stroke-width="6.660000" />
<circle cx="1317.959961" cy="463.959991" r="19.980000" fill="red">
  <title>Kolkata</title>
</circle><line x1="1408.959961" y1="847.960022" x2="1317.959961" y2="463.959991" stroke="red" stroke-width="6.660000" />
<circle cx="1080.959961" cy="583.960022" r="19.980000" fill="red">
  <title>São Paulo</title>
</circle><line x1="1317.959961" y1="463.959991" x2="1080.959961" y2="583.960022" stroke="red" stroke-width="6.660000" />
<circle cx="829.960022" cy="95.959999" r="19.980000" fill="red">
  <title>Cairo</title>
</circle><line x1="1080.959961" y1="583.960022" x2="829.960022" y2="95.959999" stroke="red" stroke-width="6.660000" />
<circle cx="737.960022" cy="469.959991" r="19.980000" fill="red">
  <title>Istanbul</title>
</circle><line x1="829.960022" y1="95.959999" x2="737.960022" y2="469.959991" stroke="red" stroke-width="6.660000" />
<circle cx="155.959991" cy="1151.959961" r="19.980000" fill="red">
  <title>Shanghai</title>
</circle><line x1="737.960022" y1="469.959991" x2="155.959991" y2="1151.959961" stroke="red" stroke-width="6.660000" />
<circle cx="600.960022" cy="1564.959961" r="19.980000" fill="red">
  <title>Dhaka</title>
</circle><line x1="155.959991" y1="1151.959961" x2="600.960022" y2="1564.959961" stroke="red" stroke-width="6.660000" />
<circle cx="460.959991" cy="1738.959961" r="19.980000" fill="red">
  <title>Osaka</title>
</circle><line x1="600.960022" y1="1564.959961" x2="460.959991" y2="1738.959961" stroke="red" stroke-width="6.660000" />
<circle cx="544.960022" cy="1705.959961" r="19.980000" fill="red">
  <title>Mexico City</title>
</circle><line x1="460.959991" y1="1738.959961" x2="544.960022" y2="1705.959961" stroke="red" stroke-width="6.660000" />
<circle cx="1168.959961" cy="1830.959961" r="19.980000" fill="red">
  <title>Chongqing</title>
</circle><line x1="544.960022" y1="1705.959961" x2="1168.959961" y2="1830.959961" stroke="red" stroke-width="6.660000" />
<circle cx="1742.959961" cy="2008.959961" r="19.980000" fill="red">
  <title>Karachi</title>
</circle><line x1="1168.959961" y1="1830.959961" x2="1742.959961" y2="2008.959961" stroke="red" stroke-width="6.660000" />
</svg>
