<?xml version="1.0" encoding="UTF-8" standalone="no"?>
<svg width="500" height="500" viewBox="0 0 2074.000000 2074.000000" xmlns="http://www.w3.org/2000/svg">
<rect x="19.000000" y="19.000000" width="2036.000000" height="2036.000000" fill="black" />
<circle cx="794.960022" cy="110.959999" r="19.980000" fill="red">
  <title>Tokyo</title>
</circle><line x1="856.960022" y1="384.959991" x2="794.960022" y2="110.959999" stroke="red" stroke-width="6.660000" />
<circle cx="1296.959961" cy="159.959991" r="19.980000" fill="red">
  <title>Delhi</title>
</circle><line x1="794.960022" y1="110.959999" x2="1296.959961" y2="159.959991" stroke="red" stroke-width="6.660000" />
<circle cx="1731.959961" cy="312.959991" r="19.980000" fill="red">
  <title>Shanghai</title>
</circle><line x1="1296.959961" y1="159.959991" x2="1731.959961" y2="312.959991" stroke="red" stroke-width="6.660000" />
<circle cx="1911.959961" cy="362.959991" r="19.980000" fill="red">
  <title>Dhaka</title>
</circle><line x1="1731.959961" y1="312.959991" x2="1911.959961" y2="362.959991" stroke="red" stroke-width="6.660000" />
<circle cx="1463.959961" cy="1498.959961" r="19.980000" fill="red">
  <title>Cairo</title>
</circle><line x1="1911.959961" y1="362.959991" x2="1463.959961" y2="1498.959961" stroke="red" stroke-width="6.660000" />
<circle cx="1656.959961" cy="1927.959961" r="19.980000" fill="red">
  <title>Mumbai</title>
</circle><line x1="1463.959961" y1="1498.959961" x2="1656.959961" y2="1927.959961" stroke="red" stroke-width="6.660000" />
<circle cx="1208.959961" cy="1756.959961" r="19.980000" fill="red">
  <title>Mexico City</title>
</circle><line x1="1656.959961" y1="1927.959961" x2="1208.959961" y2="1756.959961" stroke="red" stroke-width="6.660000" />
<circle cx="1007.960022" cy="1205.959961" r="19.980000" fill="red">
  <title>Beijing</title>
</circle><line x1="1208.959961" y1="1756.959961" x2="1007.960022" y2="1205.959961" stroke="red" stroke-width="6.660000" />
<circle cx="125.959999" cy="1482.959961" r="19.980000" fill="red">
  <title>Karachi</title>
</circle><line x1="1007.960022" y1="1205.959961" x2="125.959999" y2="1482.959961" stroke="red" stroke-width="6.660000" />
<circle cx="95.959999" cy="1315.959961" r="19.980000" fill="red">
  <title>Buenos Aires</title>
</circle><line x1="125.959999" y1="1482.959961" x2="95.959999" y2="1315.959961" stroke="red" stroke-width="6.660000" />
<circle cx="535.960022" cy="875.960022" r="19.980000" fill="red">
  <title>São Paulo</title>
</circle><line x1="95.959999" y1="1315.959961" x2="535.960022" y2="875.960022" stroke="red" stroke-width="6.660000" />
<circle cx="192.959991" cy="329.959991" r="19.980000" fill="red">
  <title>New York</title>
</circle><line x1="535.960022" y1="875.960022" x2="192.959991" y2="329.959991" stroke="red" stroke-width="6.660000" />
<circle cx="856.960022" cy="384.959991" r="19.980000" fill="red">
  <title>Osaka</title>
</circle><line x1="192.959991" y1="329.959991" x2="856.960022" y2="384.959991" stroke="red" stroke-width="6.660000" />
</svg>
