<?xml version="1.0" encoding="UTF-8" standalone="no"?>
<svg width="500" height="500" viewBox="0 0 2074.000000 2074.000000" xmlns="http://www.w3.org/2000/svg">
<rect x="19.000000" y="19.000000" width="2036.000000" height="2036.000000" fill="black" />
<circle cx="1273.959961" cy="205.959991" r="19.980000" fill="red">
  <title>Tokyo</title>
</circle><line x1="1954.959961" y1="752.960022" x2="1273.959961" y2="205.959991" stroke="red" stroke-width="6.660000" />
<circle cx="1164.959961" cy="501.959991" r="19.980000" fill="red">
  <title>São Paulo</title>
</circle><line x1="1273.959961" y1="205.959991" x2="1164.959961" y2="501.959991" stroke="red" stroke-width="6.660000" />
<circle cx="466.959991" cy="653.960022" r="19.980000" fill="red">
  <title>Mumbai</title>
</circle><line x1="1164.959961" y1="501.959991" x2="466.959991" y2="653.960022" stroke="red" stroke-width="6.660000" />
<circle cx="478.959991" cy="812.960022" r="19.980000" fill="red">
  <title>Dhaka</title>
</circle><line x1="466.959991" y1="653.960022" x2="478.959991" y2="812.960022" stroke="red" stroke-width="6.660000" />
<circle cx="417.959991" cy="899.960022" r="19.980000" fill="red">
  <title>Delhi</title>
</circle><line x1="478.959991" y1="812.960022" x2="417.959991" y2="899.960022" stroke="red" stroke-width="6.660000" />
<circle cx="904.960022" cy="1568.959961" r="19.980000" fill="red">
  <title>Cairo</title>
</circle><line x1="417.959991" y1="899.960022" x2="904.960022" y2="1568.959961" stroke="red" stroke-width="6.660000" />
<circle cx="1552.959961" cy="1684.959961" r="19.980000" fill="red">
  <title>Shanghai</title>
</circle><line x1="904.960022" y1="1568.959961" x2="1552.959961" y2="1684.959961" stroke="red" stroke-width="6.660000" />
<circle cx="1431.959961" cy="1443.959961" r="19.980000" fill="red">
  <title>Mexico City</title>
</circle><line x1="1552.959961" y1="1684.959961" x2="1431.959961" y2="1443.959961" stroke="red" stroke-width="6.660000" />
<circle cx="1954.959961" cy="752.960022" r="19.980000" fill="red">
  <title>Beijing</title>
</circle><line x1="1431.959961" y1="1443.959961" x2="1954.959961" y2="752.960022" stroke="red" stroke-width="6.660000" />
</svg>
