<?xml version="1.0" encoding="UTF-8" standalone="no"?>
<svg width="500" height="500" viewBox="0 0 2074.000000 2074.000000" xmlns="http://www.w3.org/2000/svg">
<rect x="19.000000" y="19.000000" width="2036.000000" height="2036.000000" fill="black" />
<circle cx="1210.959961" cy="1757.959961" r="19.980000" fill="red">
  <title>Tokyo</title>
</circle><line x1="230.959991" y1="1227.959961" x2="1210.959961" y2="1757.959961" stroke="red" stroke-width="6.660000" />
<circle cx="1734.959961" cy="1452.959961" r="19.980000" fill="red">
  <title>Mexico City</title>
</circle><line x1="1210.959961" y1="1757.959961" x2="1734.959961" y2="1452.959961" stroke="red" stroke-width="6.660000" />
<circle cx="1507.959961" cy="1335.959961" r="19.980000" fill="red">
  <title>Shanghai</title>
</circle><line x1="1734.959961" y1="1452.959961" x2="1507.959961" y2="1335.959961" stroke="red" stroke-width="6.660000" />
<circle cx="1968.959961" cy="136.959991" r="19.980000" fill="red">
  <title>Delhi</title>
</circle><line x1="1507.959961" y1="1335.959961" x2="1968.959961" y2="136.959991" stroke="red" stroke-width="6.660000" />
<circle cx="1111.959961" cy="671.960022" r="19.980000" fill="red">
  <title>São Paulo</title>
</circle><line x1="1968.959961" y1="136.959991" x2="1111.959961" y2="671.960022" stroke="red" stroke-width="6.660000" />
<circle cx="230.959991" cy="1227.959961" r="19.980000" fill="red">
  <title>Cairo</title>
</circle><line x1="1111.959961" y1="671.960022" x2="230.959991" y2="1227.959961" stroke="red" stroke-width="6.660000" />
</svg>
