<?xml version="1.0" encoding="UTF-8" standalone="no"?>
<svg width="500" height="500" viewBox="0 0 2074.000000 2074.000000" xmlns="http://www.w3.org/2000/svg">
<rect x="19.000000" y="19.000000" width="2036.000000" height="2036.000000" fill="black" />
<circle cx="1403.959961" cy="216.959991" r="19.980000" fill="red">
  <title>Tokyo</title>
</circle><line x1="1040.959961" y1="590.960022" x2="1403.959961" y2="216.959991" stroke="red" stroke-width="6.660000" />
<circle cx="1549.959961" cy="179.959991" r="19.980000" fill="red">
  <title>Buenos Aires</title>
</circle><line x1="1403.959961" y1="216.959991" x2="1549.959961" y2="179.959991" stroke="red" stroke-width="6.660000" />
<circle cx="1831.959961" cy="579.960022" r="19.980000" fill="red">
  <title>Lagos</title>
</circle><line x1="1549.959961" y1="179.959991" x2="1831.959961" y2="579.960022" stroke="red" stroke-width="6.660000" />
<circle cx="2014.959961" cy="1163.959961" r="19.980000" fill="red">
  <title>Mumbai</title>
</circle><line x1="1831.959961" y1="579.960022" x2="2014.959961" y2="1163.959961" stroke="red" stroke-width="6.660000" />
<circle cx="1942.959961" cy="1280.959961" r="19.980000" fill="red">
  <title>Delhi</title>
</circle><line x1="2014.959961" y1="1163.959961" x2="1942.959961" y2="1280.959961" stroke="red" stroke-width="6.660000" />
<circle cx="1885.959961" cy="1272.959961" r="19.980000" fill="red">
  <title>Chongqing</title>
</circle><line x1="1942.959961" y1="1280.959961" x2="1885.959961" y2="1272.959961" stroke="red" stroke-width="6.660000" />
<circle cx="1579.959961" cy="1020.960022" r="19.980000" fill="red">
  <title>Beijing</title>
</circle><line x1="1885.959961" y1="1272.959961" x2="1579.959961" y2="1020.960022" stroke="red" stroke-width="6.660000" />
<circle cx="1398.959961" cy="945.960022" r="19.980000" fill="red">
  <title>Cairo</title>
</circle><line x1="1579.959961" y1="1020.960022" x2="1398.959961" y2="945.960022" stroke="red" stroke-width="6.660000" />
<circle cx="1569.959961" cy="1180.959961" r="19.980000" fill="red">
  <title>São Paulo</title>
</circle><line x1="1398.959961" y1="945.960022" x2="1569.959961" y2="1180.959961" stroke="red" stroke-width="6.660000" />
<circle cx="1531.959961" cy="1288.959961" r="19.980000" fill="red">
  <title>Mexico City</title>
</circle><line x1="1569.959961" y1="1180.959961" x2="1531.959961" y2="1288.959961" stroke="red" stroke-width="6.660000" />
<circle cx="1552.959961" cy="1516.959961" r="19.980000" fill="red">
  <title>Dhaka</title>
</circle><line x1="1531.959961" y1="1288.959961" x2="1552.959961" y2="1516.959961" stroke="red" stroke-width="6.660000" />
<circle cx="1225.959961" cy="1949.959961" r="19.980000" fill="red">
  <title>Istanbul</title>
</circle><line x1="1552.959961" y1="1516.959961" x2="1225.959961" y2="1949.959961" stroke="red" stroke-width="6.660000" />
<circle cx="1203.959961" cy="1884.959961" r="19.980000" fill="red">
  <title>Karachi</title>
</circle><line x1="1225.959961" y1="1949.959961" x2="1203.959961" y2="1884.959961" stroke="red" stroke-width="6.660000" />
<circle cx="490.959991" cy="1389.959961" r="19.980000" fill="red">
  <title>Shanghai</title>
</circle><line x1="1203.959961" y1="1884.959961" x2="490.959991" y2="1389.959961" stroke="red" stroke-width="6.660000" />
<circle cx="427.959991" cy="1298.959961" r="19.980000" fill="red">
  <title>New York</title>
</circle><line x1="490.959991" y1="1389.959961" x2="427.959991" y2="1298.959961" stroke="red" stroke-width="6.660000" />
<circle cx="127.959999" cy="944.960022" r="19.980000" fill="red">
  <title>Manila</title>
</circle><line x1="427.959991" y1="1298.959961" x2="127.959999" y2="944.960022" stroke="red" stroke-width="6.660000" />
<circle cx="945.960022" cy="847.960022" r="19.980000" fill="red">
  <title>Osaka</title>
</circle><line x1="127.959999" y1="944.960022" x2="945.960022" y2="847.960022" stroke="red" stroke-width="6.660000" />
<circle cx="1040.959961" cy="590.960022" r="19.980000" fill="red">
  <title>Kolkata</title>
</circle><line x1="945.960022" y1="847.960022" x2="1040.959961" y2="590.960022" stroke="red" stroke-width="6.660000" />
</svg>
