<?xml version="1.0" encoding="UTF-8" standalone="no"?>
<svg width="500" height="500" viewBox="0 0 2074.000000 2074.000000" xmlns="http://www.w3.org/2000/svg">
<rect x="19.000000" y="19.000000" width="2036.000000" height="2036.000000" fill="black" />
<circle cx="1695.959961" cy="1493.959961" r="19.980000" fill="red">
  <title>Tokyo</title>
</circle><line x1="1232.959961" y1="929.960022" x2="1695.959961" y2="1493.959961" stroke="red" stroke-width="6.660000" />
<circle cx="1411.959961" cy="1632.959961" r="19.980000" fill="red">
  <title>São Paulo</title>
</circle><line x1="1695.959961" y1="1493.959961" x2="1411.959961" y2="1632.959961" stroke="red" stroke-width="6.660000" />
<circle cx="1118.959961" cy="977.960022" r="19.980000" fill="red">
  <title>Delhi</title>
</circle><line x1="1411.959961" y1="1632.959961" x2="1118.959961" y2="977.960022" stroke="red" stroke-width="6.660000" />
<circle cx="467.959991" cy="533.960022" r="19.980000" fill="red">
  <title>Shanghai</title>
</circle><line x1="1118.959961" y1="977.960022" x2="467.959991" y2="533.960022" stroke="red" stroke-width="6.660000" />
<circle cx="187.959991" cy="782.960022" r="19.980000" fill="red">
  <title>Beijing</title>
</circle><line x1="467.959991" y1="533.960022" x2="187.959991" y2="782.960022" stroke="red" stroke-width="6.660000" />
<circle cx="209.959991" cy="73.959999" r="19.980000" fill="red">
  <title>Mumbai</title>
</circle><line x1="187.959991" y1="782.960022" x2="209.959991" y2="73.959999" stroke="red" stroke-width="6.660000" />
<circle cx="1141.959961" cy="163.959991" r="19.980000" fill="red">
  <title>Mexico City</title>
</circle><line x1="209.959991" y1="73.959999" x2="1141.959961" y2="163.959991" stroke="red" stroke-width="6.660000" />
<circle cx="1232.959961" cy="929.960022" r="19.980000" fill="red">
  <title>Cairo</title>
</circle><line x1="1141.959961" y1="163.959991" x2="1232.959961" y2="929.960022" stroke="red" stroke-width="6.660000" />
</svg>
