<?xml version="1.0" encoding="UTF-8" standalone="no"?>
<svg width="500" height="500" viewBox="0 0 2074.000000 2074.000000" xmlns="http://www.w3.org/2000/svg">
<rect x="19.000000" y="19.000000" width="2036.000000" height="2036.000000" fill="black" />
<circle cx="191.959991" cy="1053.959961" r="19.980000" fill="red">
  <title>Tokyo</title>
</circle><line x1="768.960022" y1="1403.959961" x2="191.959991" y2="1053.959961" stroke="red" stroke-width="6.660000" />
<circle cx="203.959991" cy="1043.959961" r="19.980000" fill="red">
  <title>Istanbul</title>
</circle><line x1="191.959991" y1="1053.959961" x2="203.959991" y2="1043.959961" stroke="red" stroke-width="6.660000" />
<circle cx="281.959991" cy="712.960022" r="19.980000" fill="red">
  <title>Osaka</title>
</circle><line x1="203.959991" y1="1043.959961" x2="281.959991" y2="712.960022" stroke="red" stroke-width="6.660000" />
<circle cx="748.960022" cy="719.960022" r="19.980000" fill="red">
  <title>Mexico City</title>
</circle><line x1="281.959991" y1="712.960022" x2="748.960022" y2="719.960022" stroke="red" stroke-width="6.660000" />
<circle cx="893.960022" cy="604.960022" r="19.980000" fill="red">
  <title>Mumbai</title>
</circle><line x1="748.960022" y1="719.960022" x2="893.960022" y2="604.960022" stroke="red" stroke-width="6.660000" />
<circle cx="1153.959961" cy="477.959991" r="19.980000" fill="red">
  <title>Shanghai</title>
</circle><line x1="893.960022" y1="604.960022" x2="1153.959961" y2="477.959991" stroke="red" stroke-width="6.660000" />
<circle cx="1204.959961" cy="355.959991" r="19.980000" fill="red">
  <title>Kolkata</title>
</circle><line x1="1153.959961" y1="477.959991" x2="1204.959961" y2="355.959991" stroke="red" stroke-width="6.660000" />
<circle cx="1814.959961" cy="105.959999" r="19.980000" fill="red">
  <title>Cairo</title>
</circle><line x1="1204.959961" y1="355.959991" x2="1814.959961" y2="105.959999" stroke="red" stroke-width="6.660000" />
<circle cx="1600.959961" cy="909.960022" r="19.980000" fill="red">
  <title>Karachi</title>
</circle><line x1="1814.959961" y1="105.959999" x2="1600.959961" y2="909.960022" stroke="red" stroke-width="6.660000" />
<circle cx="1902.959961" cy="1155.959961" r="19.980000" fill="red">
  <title>Beijing</title>
</circle><line x1="1600.959961" y1="909.960022" x2="1902.959961" y2="1155.959961" stroke="red" stroke-width="6.660000" />
<circle cx="1988.959961" cy="1341.959961" r="19.980000" fill="red">
  <title>Delhi</title>
</circle><line x1="1902.959961" y1="1155.959961" x2="1988.959961" y2="1341.959961" stroke="red" stroke-width="6.660000" />
<circle cx="1197.959961" cy="1513.959961" r="19.980000" fill="red">
  <title>São Paulo</title>
</circle><line x1="1988.959961" y1="1341.959961" x2="1197.959961" y2="1513.959961" stroke="red" stroke-width="6.660000" />
<circle cx="1239.959961" cy="1797.959961" r="19.980000" fill="red">
  <title>Dhaka</title>
</circle><line x1="1197.959961" y1="1513.959961" x2="1239.959961" y2="1797.959961" stroke="red" stroke-width="6.660000" />
<circle cx="801.960022" cy="1748.959961" r="19.980000" fill="red">
  <title>Buenos Aires</title>
</circle><line x1="1239.959961" y1="1797.959961" x2="801.960022" y2="1748.959961" stroke="red" stroke-width="6.660000" />
<circle cx="778.960022" cy="1726.959961" r="19.980000" fill="red">
  <title>Chongqing</title>
</circle><line x1="801.960022" y1="1748.959961" x2="778.960022" y2="1726.959961" stroke="red" stroke-width="6.660000" />
<circle cx="768.960022" cy="1403.959961" r="19.980000" fill="red">
  <title>New York</title>
</circle><line x1="778.960022" y1="1726.959961" x2="768.960022" y2="1403.959961" stroke="red" stroke-width="6.660000" />
</svg>
