<?xml version="1.0" encoding="UTF-8" standalone="no"?>
<svg width="500" height="500" viewBox="0 0 2074.000000 2074.000000" xmlns="http://www.w3.org/2000/svg">
<rect x="19.000000" y="19.000000" width="2036.000000" height="2036.000000" fill="black" />
<circle cx="1237.959961" cy="1582.959961" r="19.980000" fill="red">
  <title>Tokyo</title>
</circle><line x1="637.960022" y1="1751.959961" x2="1237.959961" y2="1582.959961" stroke="red" stroke-width="6.660000" />
<circle cx="1309.959961" cy="1403.959961" r="19.980000" fill="red">
  <title>New York</title>
</circle><line x1="1237.959961" y1="1582.959961" x2="1309.959961" y2="1403.959961" stroke="red" stroke-width="6.660000" />
<circle cx="1283.959961" cy="1324.959961" r="19.980000" fill="red">
  <title>Beijing</title>
</circle><line x1="1309.959961" y1="1403.959961" x2="1283.959961" y2="1324.959961" stroke="red" stroke-width="6.660000" />
<circle cx="1157.959961" cy="1205.959961" r="19.980000" fill="red">
  <title>Dhaka</title>
</circle><line x1="1283.959961" y1="1324.959961" x2="1157.959961" y2="1205.959961" stroke="red" stroke-width="6.660000" />
<circle cx="775.960022" cy="244.959991" r="19.980000" fill="red">
  <title>Cairo</title>
</circle><line x1="1157.959961" y1="1205.959961" x2="775.960022" y2="244.959991" stroke="red" stroke-width="6.660000" />
<circle cx="519.960022" cy="72.959999" r="19.980000" fill="red">
  <title>Mexico City</title>
</circle><line x1="775.960022" y1="244.959991" x2="519.960022" y2="72.959999" stroke="red" stroke-width="6.660000" />
<circle cx="689.960022" cy="146.959991" r="19.980000" fill="red">
  <title>Istanbul</title>
</circle><line x1="519.960022" y1="72.959999" x2="689.960022" y2="146.959991" stroke="red" stroke-width="6.660000" />
<circle cx="1876.959961" cy="191.959991" r="19.980000" fill="red">
  <title>Mumbai</title>
</circle><line x1="689.960022" y1="146.959991" x2="1876.959961" y2="191.959991" stroke="red" stroke-width="6.660000" />
<circle cx="2020.959961" cy="1407.959961" r="19.980000" fill="red">
  <title>São Paulo</title>
</circle><line x1="1876.959961" y1="191.959991" x2="2020.959961" y2="1407.959961" stroke="red" stroke-width="6.660000" />
<circle cx="1949.959961" cy="1517.959961" r="19.980000" fill="red">
  <title>Osaka</title>
</circle><line x1="2020.959961" y1="1407.959961" x2="1949.959961" y2="1517.959961" stroke="red" stroke-width="6.660000" />
<circle cx="1525.959961" cy="1875.959961" r="19.980000" fill="red">
  <title>Chongqing</title>
</circle><line x1="1949.959961" y1="1517.959961" x2="1525.959961" y2="1875.959961" stroke="red" stroke-width="6.660000" />
<circle cx="1181.959961" cy="1836.959961" r="19.980000" fill="red">
  <title>Buenos Aires</title>
</circle><line x1="1525.959961" y1="1875.959961" x2="1181.959961" y2="1836.959961" stroke="red" stroke-width="6.660000" />
<circle cx="577.960022" cy="2022.959961" r="19.980000" fill="red">
  <title>Delhi</title>
</circle><line x1="1181.959961" y1="1836.959961" x2="577.960022" y2="2022.959961" stroke="red" stroke-width="6.660000" />
<circle cx="370.959991" cy="1825.959961" r="19.980000" fill="red">
  <title>Shanghai</title>
</circle><line x1="577.960022" y1="2022.959961" x2="370.959991" y2="1825.959961" stroke="red" stroke-width="6.660000" />
<circle cx="637.960022" cy="1751.959961" r="19.980000" fill="red">
  <title>Karachi</title>
</circle><line x1="370.959991" y1="1825.959961" x2="637.960022" y2="1751.959961" stroke="red" stroke-width="6.660000" />
</svg>
