<?xml version="1.0" encoding="UTF-8" standalone="no"?>
<svg width="500" height="500" viewBox="0 0 2074.000000 2074.000000" xmlns="http://www.w3.org/2000/svg">
<rect x="19.000000" y="19.000000" width="2036.000000" height="2036.000000" fill="black" />
<circle cx="881.960022" cy="1092.959961" r="19.980000" fill="red">
  <title>Tokyo</title>
</circle><line x1="939.960022" y1="1172.959961" x2="881.960022" y2="1092.959961" stroke="red" stroke-width="6.660000" />
<circle cx="537.960022" cy="1771.959961" r="19.980000" fill="red">
  <title>Mumbai</title>
</circle><line x1="881.960022" y1="1092.959961" x2="537.960022" y2="1771.959961" stroke="red" stroke-width="6.660000" />
<circle cx="597.960022" cy="1916.959961" r="19.980000" fill="red">
  <title>Beijing</title>
</circle><line x1="537.960022" y1="1771.959961" x2="597.960022" y2="1916.959961" stroke="red" stroke-width="6.660000" />
<circle cx="355.959991" cy="1416.959961" r="19.980000" fill="red">
  <title>Delhi</title>
</circle><line x1="597.960022" y1="1916.959961" x2="355.959991" y2="1416.959961" stroke="red" stroke-width="6.660000" />
<circle cx="40.959999" cy="788.960022" r="19.980000" fill="red">
  <title>São Paulo</title>
</circle><line x1="355.959991" y1="1416.959961" x2="40.959999" y2="788.960022" stroke="red" stroke-width="6.660000" />
<circle cx="192.959991" cy="739.960022" r="19.980000" fill="red">
  <title>Osaka</title>
</circle><line x1="40.959999" y1="788.960022" x2="192.959991" y2="739.960022" stroke="red" stroke-width="6.660000" />
<circle cx="744.960022" cy="460.959991" r="19.980000" fill="red">
  <title>Mexico City</title>
</circle><line x1="192.959991" y1="739.960022" x2="744.960022" y2="460.959991" stroke="red" stroke-width="6.660000" />
<circle cx="941.960022" cy="356.959991" r="19.980000" fill="red">
  <title>Cairo</title>
</circle><line x1="744.960022" y1="460.959991" x2="941.960022" y2="356.959991" stroke="red" stroke-width="6.660000" />
<circle cx="1979.959961" cy="784.960022" r="19.980000" fill="red">
  <title>Shanghai</title>
</circle><line x1="941.960022" y1="356.959991" x2="1979.959961" y2="784.960022" stroke="red" stroke-width="6.660000" />
<circle cx="939.960022" cy="1172.959961" r="19.980000" fill="red">
  <title>Dhaka</title>
</circle><line x1="1979.959961" y1="784.960022" x2="939.960022" y2="1172.959961" stroke="red" stroke-width="6.660000" />
</svg>
