<?xml version="1.0" encoding="UTF-8" standalone="no"?>
<svg width="500" height="500" viewBox="0 0 2074.000000 2074.000000" xmlns="http://www.w3.org/2000/svg">
<rect x="19.000000" y="19.000000" width="2036.000000" height="2036.000000" fill="black" />
<circle cx="741.960022" cy="829.960022" r="19.980000" fill="red">
  <title>Tokyo</title>
</circle><line x1="1859.959961" y1="341.959991" x2="741.960022" y2="829.960022" stroke="red" stroke-width="6.660000" />
<circle cx="195.959991" cy="421.959991" r="19.980000" fill="red">
  <title>New York</title>
</circle><line x1="741.960022" y1="829.960022" x2="195.959991" y2="421.959991" stroke="red" stroke-width="6.660000" />
<circle cx="105.959999" cy="918.960022" r="19.980000" fill="red">
  <title>São Paulo</title>
</circle><line x1="195.959991" y1="421.959991" x2="105.959999" y2="918.960022" stroke="red" stroke-width="6.660000" />
<circle cx="350.959991" cy="989.960022" r="19.980000" fill="red">
  <title>Mumbai</title>
</circle><line x1="105.959999" y1="918.960022" x2="350.959991" y2="989.960022" stroke="red" stroke-width="6.660000" />
<circle cx="503.959991" cy="1261.959961" r="19.980000" fill="red">
  <title>Cairo</title>
</circle><line x1="350.959991" y1="989.960022" x2="503.959991" y2="1261.959961" stroke="red" stroke-width="6.660000" />
<circle cx="779.960022" cy="1411.959961" r="19.980000" fill="red">
  <title>Shanghai</title>
</circle><line x1="503.959991" y1="1261.959961" x2="779.960022" y2="1411.959961" stroke="red" stroke-width="6.660000" />
<circle cx="908.960022" cy="1421.959961" r="19.980000" fill="red">
  <title>Mexico City</title>
</circle><line x1="779.960022" y1="1411.959961" x2="908.960022" y2="1421.959961" stroke="red" stroke-width="6.660000" />
<circle cx="1265.959961" cy="1417.959961" r="19.980000" fill="red">
  <title>Dhaka</title>
</circle><line x1="908.960022" y1="1421.959961" x2="1265.959961" y2="1417.959961" stroke="red" stroke-width="6.660000" />
<circle cx="1242.959961" cy="1549.959961" r="19.980000" fill="red">
  <title>Beijing</title>
</circle><line x1="1265.959961" y1="1417.959961" x2="1242.959961" y2="1549.959961" stroke="red" stroke-width="6.660000" />
<circle cx="1659.959961" cy="1729.959961" r="19.980000" fill="red">
  <title>Osaka</title>
</circle><line x1="1242.959961" y1="1549.959961" x2="1659.959961" y2="1729.959961" stroke="red" stroke-width="6.660000" />
<circle cx="1518.959961" cy="1504.959961" r="19.980000" fill="red">
  <title>Delhi</title>
</circle><line x1="1659.959961" y1="1729.959961" x2="1518.959961" y2="1504.959961" stroke="red" stroke-width="6.660000" />
<circle cx="1859.959961" cy="341.959991" r="19.980000" fill="red">
  <title>Karachi</title>
</circle><line x1="1518.959961" y1="1504.959961" x2="1859.959961" y2="341.959991" stroke="red" stroke-width="6.660000" />
</svg>
