<?xml version="1.0" encoding="UTF-8" standalone="no"?>
<svg width="500" height="500" viewBox="0 0 2074.000000 2074.000000" xmlns="http://www.w3.org/2000/svg">
<rect x="19.000000" y="19.000000" width="2036.000000" height="2036.000000" fill="black" />
<circle cx="1864.959961" cy="917.960022" r="19.980000" fill="red">
  <title>Tokyo</title>
</circle><line x1="1689.959961" y1="1835.959961" x2="1864.959961" y2="917.960022" stroke="red" stroke-width="6.660000" />
<circle cx="1759.959961" cy="425.959991" r="19.980000" fill="red">
  <title>São Paulo</title>
</circle><line x1="1864.959961" y1="917.960022" x2="1759.959961" y2="425.959991" stroke="red" stroke-width="6.660000" />
<circle cx="1652.959961" cy="400.959991" r="19.980000" fill="red">
  <title>Dhaka</title>
</circle><line x1="1759.959961" y1="425.959991" x2="1652.959961" y2="400.959991" stroke="red" stroke-width="6.660000" />
<circle cx="1301.959961" cy="555.960022" r="19.980000" fill="red">
  <title>Osaka</title>
</circle><line x1="1652.959961" y1="400.959991" x2="1301.959961" y2="555.960022" stroke="red" stroke-width="6.660000" />
<circle cx="1126.959961" cy="739.960022" r="19.980000" fill="red">
  <title>Karachi</title>
</circle><line x1="1301.959961" y1="555.960022" x2="1126.959961" y2="739.960022" stroke="red" stroke-width="6.660000" />
<circle cx="836.960022" cy="647.960022" r="19.980000" fill="red">
  <title>Beijing</title>
</circle><line x1="1126.959961" y1="739.960022" x2="836.960022" y2="647.960022" stroke="red" stroke-width="6.660000" />
<circle cx="684.960022" cy="270.959991" r="19.980000" fill="red">
  <title>Shanghai</title>
</circle><line x1="836.960022" y1="647.960022" x2="684.960022" y2="270.959991" stroke="red" stroke-width="6.660000" />
<circle cx="177.959991" cy="652.960022" r="19.980000" fill="red">
  <title>Cairo</title>
</circle><line x1="684.960022" y1="270.959991" x2="177.959991" y2="652.960022" stroke="red" stroke-width="6.660000" />
<circle cx="109.959999" cy="1313.959961" r="19.980000" fill="red">
  <title>Mumbai</title>
</circle><line x1="177.959991" y1="652.960022" x2="109.959999" y2="1313.959961" stroke="red" stroke-width="6.660000" />
<circle cx="544.960022" cy="1783.959961" r="19.980000" fill="red">
  <title>Mexico City</title>
</circle><line x1="109.959999" y1="1313.959961" x2="544.960022" y2="1783.959961" stroke="red" stroke-width="6.660000" />
<circle cx="912.960022" cy="2011.959961" r="19.980000" fill="red">
  <title>Delhi</title>
</circle><line x1="544.960022" y1="1783.959961" x2="912.960022" y2="2011.959961" stroke="red" stroke-width="6.660000" />
<circle cx="1689.959961" cy="1835.959961" r="19.980000" fill="red">
  <title>New York</title>
</circle><line x1="912.960022" y1="2011.959961" x2="1689.959961" y2="1835.959961" stroke="red" stroke-width="6.660000" />
</svg>
