<?xml version="1.0" encoding="UTF-8" standalone="no"?>
<svg width="500" height="500" viewBox="0 0 2074.000000 2074.000000" xmlns="http://www.w3.org/2000/svg">
<rect x="19.000000" y="19.000000" width="2036.000000" height="2036.000000" fill="black" />
<circle cx="285.959991" cy="1295.959961" r="19.980000" fill="red">
  <title>Tokyo</title>
</circle><line x1="276.959991" y1="752.960022" x2="285.959991" y2="1295.959961" stroke="red" stroke-width="6.660000" />
<circle cx="126.959999" cy="1705.959961" r="19.980000" fill="red">
  <title>Shanghai</title>
</circle><line x1="285.959991" y1="1295.959961" x2="126.959999" y2="1705.959961" stroke="red" stroke-width="6.660000" />
<circle cx="344.959991" cy="1619.959961" r="19.980000" fill="red">
  <title>São Paulo</title>
</circle><line x1="126.959999" y1="1705.959961" x2="344.959991" y2="1619.959961" stroke="red" stroke-width="6.660000" />
<circle cx="526.960022" cy="994.960022" r="19.980000" fill="red">
  <title>Beijing</title>
</circle><line x1="344.959991" y1="1619.959961" x2="526.960022" y2="994.960022" stroke="red" stroke-width="6.660000" />
<circle cx="1071.959961" cy="741.960022" r="19.980000" fill="red">
  <title>Buenos Aires</title>
</circle><line x1="526.960022" y1="994.960022" x2="1071.959961" y2="741.960022" stroke="red" stroke-width="6.660000" />
<circle cx="1239.959961" cy="880.960022" r="19.980000" fill="red">
  <title>Dhaka</title>
</circle><line x1="1071.959961" y1="741.960022" x2="1239.959961" y2="880.960022" stroke="red" stroke-width="6.660000" />
<circle cx="1435.959961" cy="680.960022" r="19.980000" fill="red">
  <title>Cairo</title>
</circle><line x1="1239.959961" y1="880.960022" x2="1435.959961" y2="680.960022" stroke="red" stroke-width="6.660000" />
<circle cx="1422.959961" cy="813.960022" r="19.980000" fill="red">
  <title>Osaka</title>
</circle><line x1="1435.959961" y1="680.960022" x2="1422.959961" y2="813.960022" stroke="red" stroke-width="6.660000" />
<circle cx="1955.959961" cy="1998.959961" r="19.980000" fill="red">
  <title>Delhi</title>
</circle><line x1="1422.959961" y1="813.960022" x2="1955.959961" y2="1998.959961" stroke="red" stroke-width="6.660000" />
<circle cx="1810.959961" cy="938.960022" r="19.980000" fill="red">
  <title>Kolkata</title>
</circle><line x1="1955.959961" y1="1998.959961" x2="1810.959961" y2="938.960022" stroke="red" stroke-width="6.660000" />
<circle cx="1907.959961" cy="620.960022" r="19.980000" fill="red">
  <title>Mumbai</title>
</circle><line x1="1810.959961" y1="938.960022" x2="1907.959961" y2="620.960022" stroke="red" stroke-width="6.660000" />
<circle cx="1938.959961" cy="311.959991" r="19.980000" fill="red">
  <title>Chongqing</title>
</circle><line x1="1907.959961" y1="620.960022" x2="1938.959961" y2="311.959991" stroke="red" stroke-width="6.660000" />
<circle cx="1404.959961" cy="325.959991" r="19.980000" fill="red">
  <title>Mexico City</title>
</circle><line x1="1938.959961" y1="311.959991" x2="1404.959961" y2="325.959991" stroke="red" stroke-width="6.660000" />
<circle cx="691.960022" cy="388.959991" r="19.980000" fill="red">
  <title>Istanbul</title>
</circle><line x1="1404.959961" y1="325.959991" x2="691.960022" y2="388.959991" stroke="red" stroke-width="6.660000" />
<circle cx="70.959999" cy="58.959999" r="19.980000" fill="red">
  <title>Karachi</title>
</circle><line x1="691.960022" y1="388.959991" x2="70.959999" y2="58.959999" stroke="red" stroke-width="6.660000" />
<circle cx="276.959991" cy="752.960022" r="19.980000" fill="red">
  <title>New York</title>
</circle><line x1="70.959999" y1="58.959999" x2="276.959991" y2="752.960022" stroke="red" stroke-width="6.660000" />
</svg>
