<?xml version="1.0" encoding="UTF-8" standalone="no"?>
<svg width="500" height="500" viewBox="0 0 2074.000000 2074.000000" xmlns="http://www.w3.org/2000/svg">
<rect x="19.000000" y="19.000000" width="2036.000000" height="2036.000000" fill="black" />
<circle cx="788.960022" cy="1436.959961" r="19.980000" fill="red">
  <title>Tokyo</title>
</circle><line x1="318.959991" y1="70.959999" x2="788.960022" y2="1436.959961" stroke="red" stroke-width="6.660000" />
<circle cx="1136.959961" cy="1804.959961" r="19.980000" fill="red">
  <title>Shanghai</title>
</circle><line x1="788.960022" y1="1436.959961" x2="1136.959961" y2="1804.959961" stroke="red" stroke-width="6.660000" />
<circle cx="1158.959961" cy="1439.959961" r="19.980000" fill="red">
  <title>Delhi</title>
</circle><line x1="1136.959961" y1="1804.959961" x2="1158.959961" y2="1439.959961" stroke="red" stroke-width="6.660000" />
<circle cx="318.959991" cy="70.959999" r="19.980000" fill="red">
  <title>São Paulo</title>
</circle><line x1="1158.959961" y1="1439.959961" x2="318.959991" y2="70.959999" stroke="red" stroke-width="6.660000" />
</svg>
