<?xml version="1.0" encoding="UTF-8" standalone="no"?>
<svg width="500" height="500" viewBox="0 0 2074.000000 2074.000000" xmlns="http://www.w3.org/2000/svg">
<rect x="19.000000" y="19.000000" width="2036.000000" height="2036.000000" fill="black" />
<circle cx="1210.959961" cy="1299.959961" r="19.980000" fill="red">
  <title>Tokyo</title>
</circle><line x1="768.960022" y1="1325.959961" x2="1210.959961" y2="1299.959961" stroke="red" stroke-width="6.660000" />
<circle cx="1612.959961" cy="1617.959961" r="19.980000" fill="red">
  <title>São Paulo</title>
</circle><line x1="1210.959961" y1="1299.959961" x2="1612.959961" y2="1617.959961" stroke="red" stroke-width="6.660000" />
<circle cx="2037.959961" cy="1282.959961" r="19.980000" fill="red">
  <title>Shanghai</title>
</circle><line x1="1612.959961" y1="1617.959961" x2="2037.959961" y2="1282.959961" stroke="red" stroke-width="6.660000" />
<circle cx="1319.959961" cy="1212.959961" r="19.980000" fill="red">
  <title>Cairo</title>
</circle><line x1="2037.959961" y1="1282.959961" x2="1319.959961" y2="1212.959961" stroke="red" stroke-width="6.660000" />
<circle cx="1281.959961" cy="944.960022" r="19.980000" fill="red">
  <title>Delhi</title>
</circle><line x1="1319.959961" y1="1212.959961" x2="1281.959961" y2="944.960022" stroke="red" stroke-width="6.660000" />
<circle cx="848.960022" cy="299.959991" r="19.980000" fill="red">
  <title>New York</title>
</circle><line x1="1281.959961" y1="944.960022" x2="848.960022" y2="299.959991" stroke="red" stroke-width="6.660000" />
<circle cx="264.959991" cy="120.959999" r="19.980000" fill="red">
  <title>Mumbai</title>
</circle><line x1="848.960022" y1="299.959991" x2="264.959991" y2="120.959999" stroke="red" stroke-width="6.660000" />
<circle cx="45.959999" cy="202.959991" r="19.980000" fill="red">
  <title>Osaka</title>
</circle><line x1="264.959991" y1="120.959999" x2="45.959999" y2="202.959991" stroke="red" stroke-width="6.660000" />
<circle cx="786.960022" cy="595.960022" r="19.980000" fill="red">
  <title>Dhaka</title>
</circle><line x1="45.959999" y1="202.959991" x2="786.960022" y2="595.960022" stroke="red" stroke-width="6.660000" />
<circle cx="769.960022" cy="982.960022" r="19.980000" fill="red">
  <title>Mexico City</title>
</circle><line x1="786.960022" y1="595.960022" x2="769.960022" y2="982.960022" stroke="red" stroke-width="6.660000" />
<circle cx="768.960022" cy="1325.959961" r="19.980000" fill="red">
  <title>Beijing</title>
</circle><line x1="769.960022" y1="982.960022" x2="768.960022" y2="1325.959961" stroke="red" stroke-width="6.660000" />
</svg>
