<?xml version="1.0" encoding="UTF-8" standalone="no"?>
<svg width="500" height="500" viewBox="0 0 2074.000000 2074.000000" xmlns="http://www.w3.org/2000/svg">
<rect x="19.000000" y="19.000000" width="2036.000000" height="2036.000000" fill="black" />
<circle cx="1774.959961" cy="692.960022" r="19.980000" fill="red">
  <title>Tokyo</title>
</circle><line x1="1562.959961" y1="1155.959961" x2="1774.959961" y2="692.960022" stroke="red" stroke-width="6.660000" />
<circle cx="1655.959961" cy="197.959991" r="19.980000" fill="red">
  <title>São Paulo</title>
</circle><line x1="1774.959961" y1="692.960022" x2="1655.959961" y2="197.959991" stroke="red" stroke-width="6.660000" />
<circle cx="1480.959961" cy="87.959999" r="19.980000" fill="red">
  <title>Shanghai</title>
</circle><line x1="1655.959961" y1="197.959991" x2="1480.959961" y2="87.959999" stroke="red" stroke-width="6.660000" />
<circle cx="1052.959961" cy="80.959999" r="19.980000" fill="red">
  <title>Dhaka</title>
</circle><line x1="1480.959961" y1="87.959999" x2="1052.959961" y2="80.959999" stroke="red" stroke-width="6.660000" />
<circle cx="837.960022" cy="83.959999" r="19.980000" fill="red">
  <title>Kolkata</title>
</circle><line x1="1052.959961" y1="80.959999" x2="837.960022" y2="83.959999" stroke="red" stroke-width="6.660000" />
<circle cx="842.960022" cy="661.960022" r="19.980000" fill="red">
  <title>Delhi</title>
</circle><line x1="837.960022" y1="83.959999" x2="842.960022" y2="661.960022" stroke="red" stroke-width="6.660000" />
<circle cx="381.959991" cy="1083.959961" r="19.980000" fill="red">
  <title>Karachi</title>
</circle><line x1="842.960022" y1="661.960022" x2="381.959991" y2="1083.959961" stroke="red" stroke-width="6.660000" />
<circle cx="101.959999" cy="1255.959961" r="19.980000" fill="red">
  <title>Buenos Aires</title>
</circle><line x1="381.959991" y1="1083.959961" x2="101.959999" y2="1255.959961" stroke="red" stroke-width="6.660000" />
<circle cx="137.959991" cy="1332.959961" r="19.980000" fill="red">
  <title>Chongqing</title>
</circle><line x1="101.959999" y1="1255.959961" x2="137.959991" y2="1332.959961" stroke="red" stroke-width="6.660000" />
<circle cx="124.959999" cy="1961.959961" r="19.980000" fill="red">
  <title>Beijing</title>
</circle><line x1="137.959991" y1="1332.959961" x2="124.959999" y2="1961.959961" stroke="red" stroke-width="6.660000" />
<circle cx="346.959991" cy="1876.959961" r="19.980000" fill="red">
  <title>Istanbul</title>
</circle><line x1="124.959999" y1="1961.959961" x2="346.959991" y2="1876.959961" stroke="red" stroke-width="6.660000" />
<circle cx="823.960022" cy="1646.959961" r="19.980000" fill="red">
  <title>Osaka</title>
</circle><line x1="346.959991" y1="1876.959961" x2="823.960022" y2="1646.959961" stroke="red" stroke-width="6.660000" />
<circle cx="1030.959961" cy="1533.959961" r="19.980000" fill="red">
  <title>New York</title>
</circle><line x1="823.960022" y1="1646.959961" x2="1030.959961" y2="1533.959961" stroke="red" stroke-width="6.660000" />
<circle cx="1207.959961" cy="1711.959961" r="19.980000" fill="red">
  <title>Mexico City</title>
</circle><line x1="1030.959961" y1="1533.959961" x2="1207.959961" y2="1711.959961" stroke="red" stroke-width="6.660000" />
<circle cx="1536.959961" cy="1840.959961" r="19.980000" fill="red">
  <title>Cairo</title>
</circle><line x1="1207.959961" y1="1711.959961" x2="1536.959961" y2="1840.959961" stroke="red" stroke-width="6.660000" />
<circle cx="1562.959961" cy="1155.959961" r="19.980000" fill="red">
  <title>Mumbai</title>
</circle><line x1="1536.959961" y1="1840.959961" x2="1562.959961" y2="1155.959961" stroke="red" stroke-width="6.660000" />
</svg>
