<?xml version="1.0" encoding="UTF-8" standalone="no"?>
<svg width="500" height="500" viewBox="0 0 2074.000000 2074.000000" xmlns="http://www.w3.org/2000/svg">
<rect x="19.000000" y="19.000000" width="2036.000000" height="2036.000000" fill="black" />
<circle cx="1694.959961" cy="60.959999" r="19.980000" fill="red">
  <title>Tokyo</title>
</circle><line x1="561.960022" y1="1041.959961" x2="1694.959961" y2="60.959999" stroke="red" stroke-width="6.660000" />
<circle cx="1877.959961" cy="211.959991" r="19.980000" fill="red">
  <title>Shanghai</title>
</circle><line x1="1694.959961" y1="60.959999" x2="1877.959961" y2="211.959991" stroke="red" stroke-width="6.660000" />
<circle cx="1710.959961" cy="172.959991" r="19.980000" fill="red">
  <title>Osaka</title>
</circle><line x1="1877.959961" y1="211.959991" x2="1710.959961" y2="172.959991" stroke="red" stroke-width="6.660000" />
<circle cx="918.960022" cy="1259.959961" r="19.980000" fill="red">
  <title>São Paulo</title>
</circle><line x1="1710.959961" y1="172.959991" x2="918.960022" y2="1259.959961" stroke="red" stroke-width="6.660000" />
<circle cx="1603.959961" cy="1990.959961" r="19.980000" fill="red">
  <title>Beijing</title>
</circle><line x1="918.960022" y1="1259.959961" x2="1603.959961" y2="1990.959961" stroke="red" stroke-width="6.660000" />
<circle cx="1297.959961" cy="1987.959961" r="19.980000" fill="red">
  <title>Cairo</title>
</circle><line x1="1603.959961" y1="1990.959961" x2="1297.959961" y2="1987.959961" stroke="red" stroke-width="6.660000" />
<circle cx="489.959991" cy="1797.959961" r="19.980000" fill="red">
  <title>Mexico City</title>
</circle><line x1="1297.959961" y1="1987.959961" x2="489.959991" y2="1797.959961" stroke="red" stroke-width="6.660000" />
<circle cx="63.959999" cy="1351.959961" r="19.980000" fill="red">
  <title>Delhi</title>
</circle><line x1="489.959991" y1="1797.959961" x2="63.959999" y2="1351.959961" stroke="red" stroke-width="6.660000" />
<circle cx="588.960022" cy="1377.959961" r="19.980000" fill="red">
  <title>Dhaka</title>
</circle><line x1="63.959999" y1="1351.959961" x2="588.960022" y2="1377.959961" stroke="red" stroke-width="6.660000" />
<circle cx="561.960022" cy="1041.959961" r="19.980000" fill="red">
  <title>Mumbai</title>
</circle><line x1="588.960022" y1="1377.959961" x2="561.960022" y2="1041.959961" stroke="red" stroke-width="6.660000" />
</svg>
