<?xml version="1.0" encoding="UTF-8" standalone="no"?>
<svg width="500" height="500" viewBox="0 0 2074.000000 2074.000000" xmlns="http://www.w3.org/2000/svg">
<rect x="19.000000" y="19.000000" width="2036.000000" height="2036.000000" fill="black" />
<circle cx="543.960022" cy="799.960022" r="19.980000" fill="red">
  <title>Tokyo</title>
</circle><line x1="698.960022" y1="1316.959961" x2="543.960022" y2="799.960022" stroke="red" stroke-width="6.660000" />
<circle cx="372.959991" cy="628.960022" r="19.980000" fill="red">
  <title>Delhi</title>
</circle><line x1="543.960022" y1="799.960022" x2="372.959991" y2="628.960022" stroke="red" stroke-width="6.660000" />
<circle cx="545.960022" cy="758.960022" r="19.980000" fill="red">
  <title>Karachi</title>
</circle><line x1="372.959991" y1="628.960022" x2="545.960022" y2="758.960022" stroke="red" stroke-width="6.660000" />
<circle cx="865.960022" cy="457.959991" r="19.980000" fill="red">
  <title>Mexico City</title>
</circle><line x1="545.960022" y1="758.960022" x2="865.960022" y2="457.959991" stroke="red" stroke-width="6.660000" />
<circle cx="1021.960022" cy="653.960022" r="19.980000" fill="red">
  <title>Shanghai</title>
</circle><line x1="865.960022" y1="457.959991" x2="1021.960022" y2="653.960022" stroke="red" stroke-width="6.660000" />
<circle cx="1481.959961" cy="814.960022" r="19.980000" fill="red">
  <title>Dhaka</title>
</circle><line x1="1021.960022" y1="653.960022" x2="1481.959961" y2="814.960022" stroke="red" stroke-width="6.660000" />
<circle cx="1972.959961" cy="300.959991" r="19.980000" fill="red">
  <title>Buenos Aires</title>
</circle><line x1="1481.959961" y1="814.960022" x2="1972.959961" y2="300.959991" stroke="red" stroke-width="6.660000" />
<circle cx="1935.959961" cy="355.959991" r="19.980000" fill="red">
  <title>Mumbai</title>
</circle><line x1="1972.959961" y1="300.959991" x2="1935.959961" y2="355.959991" stroke="red" stroke-width="6.660000" />
<circle cx="1869.959961" cy="1307.959961" r="19.980000" fill="red">
  <title>São Paulo</title>
</circle><line x1="1935.959961" y1="355.959991" x2="1869.959961" y2="1307.959961" stroke="red" stroke-width="6.660000" />
<circle cx="1318.959961" cy="1108.959961" r="19.980000" fill="red">
  <title>Osaka</title>
</circle><line x1="1869.959961" y1="1307.959961" x2="1318.959961" y2="1108.959961" stroke="red" stroke-width="6.660000" />
<circle cx="1287.959961" cy="1291.959961" r="19.980000" fill="red">
  <title>Cairo</title>
</circle><line x1="1318.959961" y1="1108.959961" x2="1287.959961" y2="1291.959961" stroke="red" stroke-width="6.660000" />
<circle cx="803.960022" cy="1533.959961" r="19.980000" fill="red">
  <title>Beijing</title>
</circle><line x1="1287.959961" y1="1291.959961" x2="803.960022" y2="1533.959961" stroke="red" stroke-width="6.660000" />
<circle cx="698.960022" cy="1316.959961" r="19.980000" fill="red">
  <title>New York</title>
</circle><line x1="803.960022" y1="1533.959961" x2="698.960022" y2="1316.959961" stroke="red" stroke-width="6.660000" />
</svg>
