<?xml version="1.0" encoding="UTF-8" standalone="no"?>
<svg width="500" height="500" viewBox="0 0 2074.000000 2074.000000" xmlns="http://www.w3.org/2000/svg">
<rect x="19.000000" y="19.000000" width="2036.000000" height="2036.000000" fill="black" />
<circle cx="1582.959961" cy="197.959991" r="19.980000" fill="red">
  <title>Tokyo</title>
</circle><line x1="1897.959961" y1="414.959991" x2="1582.959961" y2="197.959991" stroke="red" stroke-width="6.660000" />
<circle cx="1271.959961" cy="393.959991" r="19.980000" fill="red">
  <title>Karachi</title>
</circle><line x1="1582.959961" y1="197.959991" x2="1271.959961" y2="393.959991" stroke="red" stroke-width="6.660000" />
<circle cx="1147.959961" cy="1161.959961" r="19.980000" fill="red">
  <title>New York</title>
</circle><line x1="1271.959961" y1="393.959991" x2="1147.959961" y2="1161.959961" stroke="red" stroke-width="6.660000" />
<circle cx="760.960022" cy="1019.960022" r="19.980000" fill="red">
  <title>Rio de Janeiro</title>
</circle><line x1="1147.959961" y1="1161.959961" x2="760.960022" y2="1019.960022" stroke="red" stroke-width="6.660000" />
<circle cx="687.960022" cy="829.960022" r="19.980000" fill="red">
  <title>Delhi</title>
</circle><line x1="760.960022" y1="1019.960022" x2="687.960022" y2="829.960022" stroke="red" stroke-width="6.660000" />
<circle cx="631.960022" cy="766.960022" r="19.980000" fill="red">
  <title>Lagos</title>
</circle><line x1="687.960022" y1="829.960022" x2="631.960022" y2="766.960022" stroke="red" stroke-width="6.660000" />
<circle cx="289.959991" cy="660.960022" r="19.980000" fill="red">
  <title>Dhaka</title>
</circle><line x1="631.960022" y1="766.960022" x2="289.959991" y2="660.960022" stroke="red" stroke-width="6.660000" />
<circle cx="426.959991" cy="947.960022" r="19.980000" fill="red">
  <title>São Paulo</title>
</circle><line x1="289.959991" y1="660.960022" x2="426.959991" y2="947.960022" stroke="red" stroke-width="6.660000" />
<circle cx="617.960022" cy="948.960022" r="19.980000" fill="red">
  <title>Osaka</title>
</circle><line x1="426.959991" y1="947.960022" x2="617.960022" y2="948.960022" stroke="red" stroke-width="6.660000" />
<circle cx="615.960022" cy="1219.959961" r="19.980000" fill="red">
  <title>Buenos Aires</title>
</circle><line x1="617.960022" y1="948.960022" x2="615.960022" y2="1219.959961" stroke="red" stroke-width="6.660000" />
<circle cx="233.959991" cy="1356.959961" r="19.980000" fill="red">
  <title>Cairo</title>
</circle><line x1="615.960022" y1="1219.959961" x2="233.959991" y2="1356.959961" stroke="red" stroke-width="6.660000" />
<circle cx="304.959991" cy="1555.959961" r="19.980000" fill="red">
  <title>Beijing</title>
</circle><line x1="233.959991" y1="1356.959961" x2="304.959991" y2="1555.959961" stroke="red" stroke-width="6.660000" />
<circle cx="296.959991" cy="1859.959961" r="19.980000" fill="red">
  <title>Istanbul</title>
</circle><line x1="304.959991" y1="1555.959961" x2="296.959991" y2="1859.959961" stroke="red" stroke-width="6.660000" />
<circle cx="309.959991" cy="1840.959961" r="19.980000" fill="red">
  <title>Kolkata</title>
</circle><line x1="296.959991" y1="1859.959961" x2="309.959991" y2="1840.959961" stroke="red" stroke-width="6.660000" />
<circle cx="786.960022" cy="1840.959961" r="19.980000" fill="red">
  <title>Shanghai</title>
</circle><line x1="309.959991" y1="1840.959961" x2="786.960022" y2="1840.959961" stroke="red" stroke-width="6.660000" />
<circle cx="1005.960022" cy="1873.959961" r="19.980000" fill="red">
  <title>Mexico City</title>
</circle><line x1="786.960022" y1="1840.959961" x2="1005.960022" y2="1873.959961" stroke="red" stroke-width="6.660000" />
<circle cx="1122.959961" cy="1661.959961" r="19.980000" fill="red">
  <title>Mumbai</title>
</circle><line x1="1005.960022" y1="1873.959961" x2="1122.959961" y2="1661.959961" stroke="red" stroke-width="6.660000" />
<circle cx="1675.959961" cy="1727.959961" r="19.980000" fill="red">
  <title>Tianjin</title>
</circle><line x1="1122.959961" y1="1661.959961" x2="1675.959961" y2="1727.959961" stroke="red" stroke-width="6.660000" />
<circle cx="2018.959961" cy="958.960022" r="19.980000" fill="red">
  <title>Manila</title>
</circle><line x1="1675.959961" y1="1727.959961" x2="2018.959961" y2="958.960022" stroke="red" stroke-width="6.660000" />
<circle cx="1897.959961" cy="414.959991" r="19.980000" fill="red">
  <title>Chongqing</title>
</circle><line x1="2018.959961" y1="958.960022" x2="1897.959961" y2="414.959991" stroke="red" stroke-width="6.660000" />
</svg>
