<?xml version="1.0" encoding="UTF-8" standalone="no"?>
<svg width="500" height="500" viewBox="0 0 2074.000000 2074.000000" xmlns="http://www.w3.org/2000/svg">
<rect x="19.000000" y="19.000000" width="2036.000000" height="2036.000000" fill="black" />
<circle cx="1087.959961" cy="1898.959961" r="19.980000" fill="red">
  <title>Tokyo</title>
</circle><line x1="1041.959961" y1="1235.959961" x2="1087.959961" y2="1898.959961" stroke="red" stroke-width="6.660000" />
<circle cx="1082.959961" cy="1943.959961" r="19.980000" fill="red">
  <title>Mexico City</title>
</circle><line x1="1087.959961" y1="1898.959961" x2="1082.959961" y2="1943.959961" stroke="red" stroke-width="6.660000" />
<circle cx="1780.959961" cy="1772.959961" r="19.980000" fill="red">
  <title>Shanghai</title>
</circle><line x1="1082.959961" y1="1943.959961" x2="1780.959961" y2="1772.959961" stroke="red" stroke-width="6.660000" />
<circle cx="1847.959961" cy="1406.959961" r="19.980000" fill="red">
  <title>Mumbai</title>
</circle><line x1="1780.959961" y1="1772.959961" x2="1847.959961" y2="1406.959961" stroke="red" stroke-width="6.660000" />
<circle cx="1367.959961" cy="804.960022" r="19.980000" fill="red">
  <title>Delhi</title>
</circle><line x1="1847.959961" y1="1406.959961" x2="1367.959961" y2="804.960022" stroke="red" stroke-width="6.660000" />
<circle cx="1300.959961" cy="494.959991" r="19.980000" fill="red">
  <title>Cairo</title>
</circle><line x1="1367.959961" y1="804.960022" x2="1300.959961" y2="494.959991" stroke="red" stroke-width="6.660000" />
<circle cx="1041.959961" cy="1235.959961" r="19.980000" fill="red">
  <title>São Paulo</title>
</circle><line x1="1300.959961" y1="494.959991" x2="1041.959961" y2="1235.959961" stroke="red" stroke-width="6.660000" />
</svg>
