<?xml version="1.0" encoding="UTF-8" standalone="no"?>
<svg width="500" height="500" viewBox="0 0 2074.000000 2074.000000" xmlns="http://www.w3.org/2000/svg">
<rect x="19.000000" y="19.000000" width="2036.000000" height="2036.000000" fill="black" />
<circle cx="326.959991" cy="1033.959961" r="19.980000" fill="red">
  <title>Tokyo</title>
</circle><line x1="439.959991" y1="1062.959961" x2="326.959991" y2="1033.959961" stroke="red" stroke-width="6.660000" />
<circle cx="157.959991" cy="1282.959961" r="19.980000" fill="red">
  <title>Dhaka</title>
</circle><line x1="326.959991" y1="1033.959961" x2="157.959991" y2="1282.959961" stroke="red" stroke-width="6.660000" />
<circle cx="200.959991" cy="1301.959961" r="19.980000" fill="red">
  <title>Mumbai</title>
</circle><line x1="157.959991" y1="1282.959961" x2="200.959991" y2="1301.959961" stroke="red" stroke-width="6.660000" />
<circle cx="316.959991" cy="1898.959961" r="19.980000" fill="red">
  <title>Beijing</title>
</circle><line x1="200.959991" y1="1301.959961" x2="316.959991" y2="1898.959961" stroke="red" stroke-width="6.660000" />
<circle cx="749.960022" cy="1938.959961" r="19.980000" fill="red">
  <title>Mexico City</title>
</circle><line x1="316.959991" y1="1898.959961" x2="749.960022" y2="1938.959961" stroke="red" stroke-width="6.660000" />
<circle cx="1783.959961" cy="1380.959961" r="19.980000" fill="red">
  <title>Osaka</title>
</circle><line x1="749.960022" y1="1938.959961" x2="1783.959961" y2="1380.959961" stroke="red" stroke-width="6.660000" />
<circle cx="1803.959961" cy="286.959991" r="19.980000" fill="red">
  <title>São Paulo</title>
</circle><line x1="1783.959961" y1="1380.959961" x2="1803.959961" y2="286.959991" stroke="red" stroke-width="6.660000" />
<circle cx="1356.959961" cy="283.959991" r="19.980000" fill="red">
  <title>Cairo</title>
</circle><line x1="1803.959961" y1="286.959991" x2="1356.959961" y2="283.959991" stroke="red" stroke-width="6.660000" />
<circle cx="864.960022" cy="153.959991" r="19.980000" fill="red">
  <title>Delhi</title>
</circle><line x1="1356.959961" y1="283.959991" x2="864.960022" y2="153.959991" stroke="red" stroke-width="6.660000" />
<circle cx="1174.959961" cy="570.960022" r="19.980000" fill="red">
  <title>Shanghai</title>
</circle><line x1="864.960022" y1="153.959991" x2="1174.959961" y2="570.960022" stroke="red" stroke-width="6.660000" />
<circle cx="439.959991" cy="1062.959961" r="19.980000" fill="red">
  <title>New York</title>
</circle><line x1="1174.959961" y1="570.960022" x2="439.959991" y2="1062.959961" stroke="red" stroke-width="6.660000" />
</svg>
