<?xml version="1.0" encoding="UTF-8" standalone="no"?>
<svg width="500" height="500" viewBox="0 0 2074.000000 2074.000000" xmlns="http://www.w3.org/2000/svg">
<rect x="19.000000" y="19.000000" width="2036.000000" height="2036.000000" fill="black" />
<circle cx="957.960022" cy="1137.959961" r="19.980000" fill="red">
  <title>Tokyo</title>
</circle><line x1="1113.959961" y1="1938.959961" x2="957.960022" y2="1137.959961" stroke="red" stroke-width="6.660000" />
<circle cx="1111.959961" cy="962.960022" r="19.980000" fill="red">
  <title>Osaka</title>
</circle><line x1="957.960022" y1="1137.959961" x2="1111.959961" y2="962.960022" stroke="red" stroke-width="6.660000" />
<circle cx="1008.960022" cy="794.960022" r="19.980000" fill="red">
  <title>Mumbai</title>
</circle><line x1="1111.959961" y1="962.960022" x2="1008.960022" y2="794.960022" stroke="red" stroke-width="6.660000" />
<circle cx="1440.959961" cy="627.960022" r="19.980000" fill="red">
  <title>Cairo</title>
</circle><line x1="1008.960022" y1="794.960022" x2="1440.959961" y2="627.960022" stroke="red" stroke-width="6.660000" />
<circle cx="1664.959961" cy="179.959991" r="19.980000" fill="red">
  <title>Beijing</title>
</circle><line x1="1440.959961" y1="627.960022" x2="1664.959961" y2="179.959991" stroke="red" stroke-width="6.660000" />
<circle cx="1797.959961" cy="224.959991" r="19.980000" fill="red">
  <title>Shanghai</title>
</circle><line x1="1664.959961" y1="179.959991" x2="1797.959961" y2="224.959991" stroke="red" stroke-width="6.660000" />
<circle cx="1468.959961" cy="998.960022" r="19.980000" fill="red">
  <title>Mexico City</title>
</circle><line x1="1797.959961" y1="224.959991" x2="1468.959961" y2="998.960022" stroke="red" stroke-width="6.660000" />
<circle cx="1349.959961" cy="1055.959961" r="19.980000" fill="red">
  <title>São Paulo</title>
</circle><line x1="1468.959961" y1="998.960022" x2="1349.959961" y2="1055.959961" stroke="red" stroke-width="6.660000" />
<circle cx="1484.959961" cy="1228.959961" r="19.980000" fill="red">
  <title>Dhaka</title>
</circle><line x1="1349.959961" y1="1055.959961" x2="1484.959961" y2="1228.959961" stroke="red" stroke-width="6.660000" />
<circle cx="1113.959961" cy="1938.959961" r="19.980000" fill="red">
  <title>Delhi</title>
</circle><line x1="1484.959961" y1="1228.959961" x2="1113.959961" y2="1938.959961" stroke="red" stroke-width="6.660000" />
</svg>
