<?xml version="1.0" encoding="UTF-8" standalone="no"?>
<svg width="500" height="500" viewBox="0 0 2074.000000 2074.000000" xmlns="http://www.w3.org/2000/svg">
<rect x="19.000000" y="19.000000" width="2036.000000" height="2036.000000" fill="black" />
<circle cx="112.959999" cy="1433.959961" r="19.980000" fill="red">
  <title>Tokyo</title>
</circle><line x1="152.959991" y1="1292.959961" x2="112.959999" y2="1433.959961" stroke="red" stroke-width="6.660000" />
<circle cx="97.959999" cy="1772.959961" r="19.980000" fill="red">
  <title>Shanghai</title>
</circle><line x1="112.959999" y1="1433.959961" x2="97.959999" y2="1772.959961" stroke="red" stroke-width="6.660000" />
<circle cx="151.959991" cy="1833.959961" r="19.980000" fill="red">
  <title>Chongqing</title>
</circle><line x1="97.959999" y1="1772.959961" x2="151.959991" y2="1833.959961" stroke="red" stroke-width="6.660000" />
<circle cx="207.959991" cy="1848.959961" r="19.980000" fill="red">
  <title>Beijing</title>
</circle><line x1="151.959991" y1="1833.959961" x2="207.959991" y2="1848.959961" stroke="red" stroke-width="6.660000" />
<circle cx="295.959991" cy="1753.959961" r="19.980000" fill="red">
  <title>Mumbai</title>
</circle><line x1="207.959991" y1="1848.959961" x2="295.959991" y2="1753.959961" stroke="red" stroke-width="6.660000" />
<circle cx="361.959991" cy="1908.959961" r="19.980000" fill="red">
  <title>Cairo</title>
</circle><line x1="295.959991" y1="1753.959961" x2="361.959991" y2="1908.959961" stroke="red" stroke-width="6.660000" />
<circle cx="843.960022" cy="1685.959961" r="19.980000" fill="red">
  <title>Rio de Janeiro</title>
</circle><line x1="361.959991" y1="1908.959961" x2="843.960022" y2="1685.959961" stroke="red" stroke-width="6.660000" />
<circle cx="1167.959961" cy="1729.959961" r="19.980000" fill="red">
  <title>New York</title>
</circle><line x1="843.960022" y1="1685.959961" x2="1167.959961" y2="1729.959961" stroke="red" stroke-width="6.660000" />
<circle cx="1472.959961" cy="1571.959961" r="19.980000" fill="red">
  <title>Delhi</title>
</circle><line x1="1167.959961" y1="1729.959961" x2="1472.959961" y2="1571.959961" stroke="red" stroke-width="6.660000" />
<circle cx="1674.959961" cy="1903.959961" r="19.980000" fill="red">
  <title>Kolkata</title>
</circle><line x1="1472.959961" y1="1571.959961" x2="1674.959961" y2="1903.959961" stroke="red" stroke-width="6.660000" />
<circle cx="1829.959961" cy="1415.959961" r="19.980000" fill="red">
  <title>Istanbul</title>
</circle><line x1="1674.959961" y1="1903.959961" x2="1829.959961" y2="1415.959961" stroke="red" stroke-width="6.660000" />
<circle cx="1652.959961" cy="1290.959961" r="19.980000" fill="red">
  <title>Osaka</title>
</circle><line x1="1829.959961" y1="1415.959961" x2="1652.959961" y2="1290.959961" stroke="red" stroke-width="6.660000" />
<circle cx="1436.959961" cy="869.960022" r="19.980000" fill="red">
  <title>Lagos</title>
</circle><line x1="1652.959961" y1="1290.959961" x2="1436.959961" y2="869.960022" stroke="red" stroke-width="6.660000" />
<circle cx="1994.959961" cy="598.960022" r="19.980000" fill="red">
  <title>Karachi</title>
</circle><line x1="1436.959961" y1="869.960022" x2="1994.959961" y2="598.960022" stroke="red" stroke-width="6.660000" />
<circle cx="1352.959961" cy="130.959991" r="19.980000" fill="red">
  <title>Buenos Aires</title>
</circle><line x1="1994.959961" y1="598.960022" x2="1352.959961" y2="130.959991" stroke="red" stroke-width="6.660000" />
<circle cx="1036.959961" cy="501.959991" r="19.980000" fill="red">
  <title>Mexico City</title>
</circle><line x1="1352.959961" y1="130.959991" x2="1036.959961" y2="501.959991" stroke="red" stroke-width="6.660000" />
<circle cx="811.960022" cy="1108.959961" r="19.980000" fill="red">
  <title>Manila</title>
</circle><line x1="1036.959961" y1="501.959991" x2="811.960022" y2="1108.959961" stroke="red" stroke-width="6.660000" />
<circle cx="287.959991" cy="590.960022" r="19.980000" fill="red">
  <title>São Paulo</title>
</circle><line x1="811.960022" y1="1108.959961" x2="287.959991" y2="590.960022" stroke="red" stroke-width="6.660000" />
<circle cx="152.959991" cy="1292.959961" r="19.980000" fill="red">
  <title>Dhaka</title>
</circle><line x1="287.959991" y1="590.960022" x2="152.959991" y2="1292.959961" stroke="red" stroke-width="6.660000" />
</svg>
