<?xml version="1.0" encoding="UTF-8" standalone="no"?>
<svg width="500" height="500" viewBox="0 0 2074.000000 2074.000000" xmlns="http://www.w3.org/2000/svg">
<rect x="19.000000" y="19.000000" width="2036.000000" height="2036.000000" fill="black" />
<circle cx="917.960022" cy="69.959999" r="19.980000" fill="red">
  <title>Tokyo</title>
</circle><line x1="952.960022" y1="1145.959961" x2="917.960022" y2="69.959999" stroke="red" stroke-width="6.660000" />
<circle cx="437.959991" cy="772.960022" r="19.980000" fill="red">
  <title>Delhi</title>
</circle><line x1="917.960022" y1="69.959999" x2="437.959991" y2="772.960022" stroke="red" stroke-width="6.660000" />
<circle cx="952.960022" cy="1145.959961" r="19.980000" fill="red">
  <title>Shanghai</title>
</circle><line x1="437.959991" y1="772.960022" x2="952.960022" y2="1145.959961" stroke="red" stroke-width="6.660000" />
</svg>
