<?xml version="1.0" encoding="UTF-8" standalone="no"?>
<svg width="500" height="500" viewBox="0 0 2074.000000 2074.000000" xmlns="http://www.w3.org/2000/svg">
<rect x="19.000000" y="19.000000" width="2036.000000" height="2036.000000" fill="black" />
<circle cx="177.959991" cy="849.960022" r="19.980000" fill="red">
  <title>Tokyo</title>
</circle><line x1="379.959991" y1="1821.959961" x2="177.959991" y2="849.960022" stroke="red" stroke-width="6.660000" />
<circle cx="862.960022" cy="1058.959961" r="19.980000" fill="red">
  <title>São Paulo</title>
</circle><line x1="177.959991" y1="849.960022" x2="862.960022" y2="1058.959961" stroke="red" stroke-width="6.660000" />
<circle cx="1748.959961" cy="243.959991" r="19.980000" fill="red">
  <title>Cairo</title>
</circle><line x1="862.960022" y1="1058.959961" x2="1748.959961" y2="243.959991" stroke="red" stroke-width="6.660000" />
<circle cx="1326.959961" cy="782.960022" r="19.980000" fill="red">
  <title>Delhi</title>
</circle><line x1="1748.959961" y1="243.959991" x2="1326.959961" y2="782.960022" stroke="red" stroke-width="6.660000" />
<circle cx="826.960022" cy="1559.959961" r="19.980000" fill="red">
  <title>Shanghai</title>
</circle><line x1="1326.959961" y1="782.960022" x2="826.960022" y2="1559.959961" stroke="red" stroke-width="6.660000" />
<circle cx="1208.959961" cy="1968.959961" r="19.980000" fill="red">
  <title>Mexico City</title>
</circle><line x1="826.960022" y1="1559.959961" x2="1208.959961" y2="1968.959961" stroke="red" stroke-width="6.660000" />
<circle cx="936.960022" cy="1937.959961" r="19.980000" fill="red">
  <title>Beijing</title>
</circle><line x1="1208.959961" y1="1968.959961" x2="936.960022" y2="1937.959961" stroke="red" stroke-width="6.660000" />
<circle cx="379.959991" cy="1821.959961" r="19.980000" fill="red">
  <title>Mumbai</title>
</circle><line x1="936.960022" y1="1937.959961" x2="379.959991" y2="1821.959961" stroke="red" stroke-width="6.660000" />
</svg>
