<?xml version="1.0" encoding="UTF-8" standalone="no"?>
<svg width="500" height="500" viewBox="0 0 2074.000000 2074.000000" xmlns="http://www.w3.org/2000/svg">
<rect x="19.000000" y="19.000000" width="2036.000000" height="2036.000000" fill="black" />
<circle cx="51.959999" cy="1166.959961" r="19.980000" fill="red">
  <title>Tokyo</title>
</circle><line x1="769.960022" y1="1050.959961" x2="51.959999" y2="1166.959961" stroke="red" stroke-width="6.660000" />
<circle cx="418.959991" cy="1801.959961" r="19.980000" fill="red">
  <title>Mexico City</title>
</circle><line x1="51.959999" y1="1166.959961" x2="418.959991" y2="1801.959961" stroke="red" stroke-width="6.660000" />
<circle cx="640.960022" cy="1837.959961" r="19.980000" fill="red">
  <title>Chongqing</title>
</circle><line x1="418.959991" y1="1801.959961" x2="640.960022" y2="1837.959961" stroke="red" stroke-width="6.660000" />
<circle cx="1584.959961" cy="1563.959961" r="19.980000" fill="red">
  <title>Karachi</title>
</circle><line x1="640.960022" y1="1837.959961" x2="1584.959961" y2="1563.959961" stroke="red" stroke-width="6.660000" />
<circle cx="1584.959961" cy="1264.959961" r="19.980000" fill="red">
  <title>Osaka</title>
</circle><line x1="1584.959961" y1="1563.959961" x2="1584.959961" y2="1264.959961" stroke="red" stroke-width="6.660000" />
<circle cx="2006.959961" cy="1305.959961" r="19.980000" fill="red">
  <title>Beijing</title>
</circle><line x1="1584.959961" y1="1264.959961" x2="2006.959961" y2="1305.959961" stroke="red" stroke-width="6.660000" />
<circle cx="1656.959961" cy="1017.960022" r="19.980000" fill="red">
  <title>São Paulo</title>
</circle><line x1="2006.959961" y1="1305.959961" x2="1656.959961" y2="1017.960022" stroke="red" stroke-width="6.660000" />
<circle cx="1290.959961" cy="856.960022" r="19.980000" fill="red">
  <title>Cairo</title>
</circle><line x1="1656.959961" y1="1017.960022" x2="1290.959961" y2="856.960022" stroke="red" stroke-width="6.660000" />
<circle cx="1650.959961" cy="887.960022" r="19.980000" fill="red">
  <title>Shanghai</title>
</circle><line x1="1290.959961" y1="856.960022" x2="1650.959961" y2="887.960022" stroke="red" stroke-width="6.660000" />
<circle cx="1854.959961" cy="189.959991" r="19.980000" fill="red">
  <title>Mumbai</title>
</circle><line x1="1650.959961" y1="887.960022" x2="1854.959961" y2="189.959991" stroke="red" stroke-width="6.660000" />
<circle cx="1606.959961" cy="288.959991" r="19.980000" fill="red">
  <title>Dhaka</title>
</circle><line x1="1854.959961" y1="189.959991" x2="1606.959961" y2="288.959991" stroke="red" stroke-width="6.660000" />
<circle cx="1069.959961" cy="186.959991" r="19.980000" fill="red">
  <title>New York</title>
</circle><line x1="1606.959961" y1="288.959991" x2="1069.959961" y2="186.959991" stroke="red" stroke-width="6.660000" />
<circle cx="619.960022" cy="80.959999" r="19.980000" fill="red">
  <title>Delhi</title>
</circle><line x1="1069.959961" y1="186.959991" x2="619.960022" y2="80.959999" stroke="red" stroke-width="6.660000" />
<circle cx="769.960022" cy="1050.959961" r="19.980000" fill="red">
  <title>Buenos Aires</title>
</circle><line x1="619.960022" y1="80.959999" x2="769.960022" y2="1050.959961" stroke="red" stroke-width="6.660000" />
</svg>
