<?xml version="1.0" encoding="UTF-8" standalone="no"?>
<svg width="500" height="500" viewBox="0 0 2074.000000 2074.000000" xmlns="http://www.w3.org/2000/svg">
<rect x="19.000000" y="19.000000" width="2036.000000" height="2036.000000" fill="black" />
<circle cx="448.959991" cy="330.959991" r="19.980000" fill="red">
  <title>Tokyo</title>
</circle><line x1="1244.959961" y1="528.960022" x2="448.959991" y2="330.959991" stroke="red" stroke-width="6.660000" />
<circle cx="570.960022" cy="641.960022" r="19.980000" fill="red">
  <title>São Paulo</title>
</circle><line x1="448.959991" y1="330.959991" x2="570.960022" y2="641.960022" stroke="red" stroke-width="6.660000" />
<circle cx="626.960022" cy="1002.960022" r="19.980000" fill="red">
  <title>Delhi</title>
</circle><line x1="570.960022" y1="641.960022" x2="626.960022" y2="1002.960022" stroke="red" stroke-width="6.660000" />
<circle cx="416.959991" cy="1321.959961" r="19.980000" fill="red">
  <title>Karachi</title>
</circle><line x1="626.960022" y1="1002.960022" x2="416.959991" y2="1321.959961" stroke="red" stroke-width="6.660000" />
<circle cx="884.960022" cy="1382.959961" r="19.980000" fill="red">
  <title>Lagos</title>
</circle><line x1="416.959991" y1="1321.959961" x2="884.960022" y2="1382.959961" stroke="red" stroke-width="6.660000" />
<circle cx="1259.959961" cy="1506.959961" r="19.980000" fill="red">
  <title>Mexico City</title>
</circle><line x1="884.960022" y1="1382.959961" x2="1259.959961" y2="1506.959961" stroke="red" stroke-width="6.660000" />
<circle cx="1323.959961" cy="1559.959961" r="19.980000" fill="red">
  <title>Osaka</title>
</circle><line x1="1259.959961" y1="1506.959961" x2="1323.959961" y2="1559.959961" stroke="red" stroke-width="6.660000" />
<circle cx="1284.959961" cy="1919.959961" r="19.980000" fill="red">
  <title>Kolkata</title>
</circle><line x1="1323.959961" y1="1559.959961" x2="1284.959961" y2="1919.959961" stroke="red" stroke-width="6.660000" />
<circle cx="1598.959961" cy="1885.959961" r="19.980000" fill="red">
  <title>Dhaka</title>
</circle><line x1="1284.959961" y1="1919.959961" x2="1598.959961" y2="1885.959961" stroke="red" stroke-width="6.660000" />
<circle cx="1890.959961" cy="1871.959961" r="19.980000" fill="red">
  <title>Manila</title>
</circle><line x1="1598.959961" y1="1885.959961" x2="1890.959961" y2="1871.959961" stroke="red" stroke-width="6.660000" />
<circle cx="1529.959961" cy="1786.959961" r="19.980000" fill="red">
  <title>Shanghai</title>
</circle><line x1="1890.959961" y1="1871.959961" x2="1529.959961" y2="1786.959961" stroke="red" stroke-width="6.660000" />
<circle cx="1510.959961" cy="1599.959961" r="19.980000" fill="red">
  <title>Istanbul</title>
</circle><line x1="1529.959961" y1="1786.959961" x2="1510.959961" y2="1599.959961" stroke="red" stroke-width="6.660000" />
<circle cx="1620.959961" cy="1416.959961" r="19.980000" fill="red">
  <title>Rio de Janeiro</title>
</circle><line x1="1510.959961" y1="1599.959961" x2="1620.959961" y2="1416.959961" stroke="red" stroke-width="6.660000" />
<circle cx="1680.959961" cy="1362.959961" r="19.980000" fill="red">
  <title>Chongqing</title>
</circle><line x1="1620.959961" y1="1416.959961" x2="1680.959961" y2="1362.959961" stroke="red" stroke-width="6.660000" />
<circle cx="2030.959961" cy="973.960022" r="19.980000" fill="red">
  <title>Buenos Aires</title>
</circle><line x1="1680.959961" y1="1362.959961" x2="2030.959961" y2="973.960022" stroke="red" stroke-width="6.660000" />
<circle cx="1985.959961" cy="842.960022" r="19.980000" fill="red">
  <title>Tianjin</title>
</circle><line x1="2030.959961" y1="973.960022" x2="1985.959961" y2="842.960022" stroke="red" stroke-width="6.660000" />
<circle cx="1855.959961" cy="176.959991" r="19.980000" fill="red">
  <title>Cairo</title>
</circle><line x1="1985.959961" y1="842.960022" x2="1855.959961" y2="176.959991" stroke="red" stroke-width="6.660000" />
<circle cx="1305.959961" cy="114.959999" r="19.980000" fill="red">
  <title>Mumbai</title>
</circle><line x1="1855.959961" y1="176.959991" x2="1305.959961" y2="114.959999" stroke="red" stroke-width="6.660000" />
<circle cx="1206.959961" cy="224.959991" r="19.980000" fill="red">
  <title>New York</title>
</circle><line x1="1305.959961" y1="114.959999" x2="1206.959961" y2="224.959991" stroke="red" stroke-width="6.660000" />
<circle cx="1244.959961" cy="528.960022" r="19.980000" fill="red">
  <title>Beijing</title>
</circle><line x1="1206.959961" y1="224.959991" x2="1244.959961" y2="528.960022" stroke="red" stroke-width="6.660000" />
</svg>
