<?xml version="1.0" encoding="UTF-8" standalone="no"?>
<svg width="500" height="500" viewBox="0 0 2074.000000 2074.000000" xmlns="http://www.w3.org/2000/svg">
<rect x="19.000000" y="19.000000" width="2036.000000" height="2036.000000" fill="black" />
<circle cx="546.960022" cy="1635.959961" r="19.980000" fill="red">
  <title>Tokyo</title>
</circle><line x1="326.959991" y1="1016.960022" x2="546.960022" y2="1635.959961" stroke="red" stroke-width="6.660000" />
<circle cx="401.959991" cy="2032.959961" r="19.980000" fill="red">
  <title>Mumbai</title>
</circle><line x1="546.960022" y1="1635.959961" x2="401.959991" y2="2032.959961" stroke="red" stroke-width="6.660000" />
<circle cx="503.959991" cy="1881.959961" r="19.980000" fill="red">
  <title>São Paulo</title>
</circle><line x1="401.959991" y1="2032.959961" x2="503.959991" y2="1881.959961" stroke="red" stroke-width="6.660000" />
<circle cx="1163.959961" cy="1941.959961" r="19.980000" fill="red">
  <title>Buenos Aires</title>
</circle><line x1="503.959991" y1="1881.959961" x2="1163.959961" y2="1941.959961" stroke="red" stroke-width="6.660000" />
<circle cx="1149.959961" cy="1650.959961" r="19.980000" fill="red">
  <title>Manila</title>
</circle><line x1="1163.959961" y1="1941.959961" x2="1149.959961" y2="1650.959961" stroke="red" stroke-width="6.660000" />
<circle cx="1526.959961" cy="1773.959961" r="19.980000" fill="red">
  <title>New York</title>
</circle><line x1="1149.959961" y1="1650.959961" x2="1526.959961" y2="1773.959961" stroke="red" stroke-width="6.660000" />
<circle cx="1513.959961" cy="1472.959961" r="19.980000" fill="red">
  <title>Chongqing</title>
</circle><line x1="1526.959961" y1="1773.959961" x2="1513.959961" y2="1472.959961" stroke="red" stroke-width="6.660000" />
<circle cx="1730.959961" cy="1552.959961" r="19.980000" fill="red">
  <title>Istanbul</title>
</circle><line x1="1513.959961" y1="1472.959961" x2="1730.959961" y2="1552.959961" stroke="red" stroke-width="6.660000" />
<circle cx="1806.959961" cy="1445.959961" r="19.980000" fill="red">
  <title>Cairo</title>
</circle><line x1="1730.959961" y1="1552.959961" x2="1806.959961" y2="1445.959961" stroke="red" stroke-width="6.660000" />
<circle cx="1656.959961" cy="1110.959961" r="19.980000" fill="red">
  <title>Rio de Janeiro</title>
</circle><line x1="1806.959961" y1="1445.959961" x2="1656.959961" y2="1110.959961" stroke="red" stroke-width="6.660000" />
<circle cx="1583.959961" cy="962.960022" r="19.980000" fill="red">
  <title>Osaka</title>
</circle><line x1="1656.959961" y1="1110.959961" x2="1583.959961" y2="962.960022" stroke="red" stroke-width="6.660000" />
<circle cx="1397.959961" cy="922.960022" r="19.980000" fill="red">
  <title>Mexico City</title>
</circle><line x1="1583.959961" y1="962.960022" x2="1397.959961" y2="922.960022" stroke="red" stroke-width="6.660000" />
<circle cx="1273.959961" cy="1017.960022" r="19.980000" fill="red">
  <title>Beijing</title>
</circle><line x1="1397.959961" y1="922.960022" x2="1273.959961" y2="1017.960022" stroke="red" stroke-width="6.660000" />
<circle cx="1393.959961" cy="828.960022" r="19.980000" fill="red">
  <title>Karachi</title>
</circle><line x1="1273.959961" y1="1017.960022" x2="1393.959961" y2="828.960022" stroke="red" stroke-width="6.660000" />
<circle cx="1589.959961" cy="718.960022" r="19.980000" fill="red">
  <title>Dhaka</title>
</circle><line x1="1393.959961" y1="828.960022" x2="1589.959961" y2="718.960022" stroke="red" stroke-width="6.660000" />
<circle cx="1418.959961" cy="239.959991" r="19.980000" fill="red">
  <title>Kolkata</title>
</circle><line x1="1589.959961" y1="718.960022" x2="1418.959961" y2="239.959991" stroke="red" stroke-width="6.660000" />
<circle cx="1371.959961" cy="45.959999" r="19.980000" fill="red">
  <title>Shanghai</title>
</circle><line x1="1418.959961" y1="239.959991" x2="1371.959961" y2="45.959999" stroke="red" stroke-width="6.660000" />
<circle cx="646.960022" cy="483.959991" r="19.980000" fill="red">
  <title>Lagos</title>
</circle><line x1="1371.959961" y1="45.959999" x2="646.960022" y2="483.959991" stroke="red" stroke-width="6.660000" />
<circle cx="270.959991" cy="445.959991" r="19.980000" fill="red">
  <title>Delhi</title>
</circle><line x1="646.960022" y1="483.959991" x2="270.959991" y2="445.959991" stroke="red" stroke-width="6.660000" />
<circle cx="326.959991" cy="1016.960022" r="19.980000" fill="red">
  <title>Tianjin</title>
</circle><line x1="270.959991" y1="445.959991" x2="326.959991" y2="1016.960022" stroke="red" stroke-width="6.660000" />
</svg>
