<?xml version="1.0" encoding="UTF-8" standalone="no"?>
<svg width="500" height="500" viewBox="0 0 2074.000000 2074.000000" xmlns="http://www.w3.org/2000/svg">
<rect x="19.000000" y="19.000000" width="2036.000000" height="2036.000000" fill="black" />
<circle cx="797.960022" cy="1665.959961" r="19.980000" fill="red">
  <title>Tokyo</title>
</circle><line x1="1856.959961" y1="1279.959961" x2="797.960022" y2="1665.959961" stroke="red" stroke-width="6.660000" />
<circle cx="435.959991" cy="1836.959961" r="19.980000" fill="red">
  <title>São Paulo</title>
</circle><line x1="797.960022" y1="1665.959961" x2="435.959991" y2="1836.959961" stroke="red" stroke-width="6.660000" />
<circle cx="678.960022" cy="1541.959961" r="19.980000" fill="red">
  <title>Shanghai</title>
</circle><line x1="435.959991" y1="1836.959961" x2="678.960022" y2="1541.959961" stroke="red" stroke-width="6.660000" />
<circle cx="100.959999" cy="173.959991" r="19.980000" fill="red">
  <title>Delhi</title>
</circle><line x1="678.960022" y1="1541.959961" x2="100.959999" y2="173.959991" stroke="red" stroke-width="6.660000" />
<circle cx="1638.959961" cy="434.959991" r="19.980000" fill="red">
  <title>Cairo</title>
</circle><line x1="100.959999" y1="173.959991" x2="1638.959961" y2="434.959991" stroke="red" stroke-width="6.660000" />
<circle cx="1856.959961" cy="1279.959961" r="19.980000" fill="red">
  <title>Mexico City</title>
</circle><line x1="1638.959961" y1="434.959991" x2="1856.959961" y2="1279.959961" stroke="red" stroke-width="6.660000" />
</svg>
