<?xml version="1.0" encoding="UTF-8" standalone="no"?>
<svg width="500" height="500" viewBox="0 0 2074.000000 2074.000000" xmlns="http://www.w3.org/2000/svg">
<rect x="19.000000" y="19.000000" width="2036.000000" height="2036.000000" fill="black" />
<circle cx="1387.959961" cy="473.959991" r="19.980000" fill="red">
  <title>Tokyo</title>
</circle><line x1="1410.959961" y1="581.960022" x2="1387.959961" y2="473.959991" stroke="red" stroke-width="6.660000" />
<circle cx="1504.959961" cy="1243.959961" r="19.980000" fill="red">
  <title>Delhi</title>
</circle><line x1="1387.959961" y1="473.959991" x2="1504.959961" y2="1243.959961" stroke="red" stroke-width="6.660000" />
<circle cx="2003.959961" cy="1377.959961" r="19.980000" fill="red">
  <title>Beijing</title>
</circle><line x1="1504.959961" y1="1243.959961" x2="2003.959961" y2="1377.959961" stroke="red" stroke-width="6.660000" />
<circle cx="1139.959961" cy="2002.959961" r="19.980000" fill="red">
  <title>Osaka</title>
</circle><line x1="2003.959961" y1="1377.959961" x2="1139.959961" y2="2002.959961" stroke="red" stroke-width="6.660000" />
<circle cx="1047.959961" cy="1820.959961" r="19.980000" fill="red">
  <title>São Paulo</title>
</circle><line x1="1139.959961" y1="2002.959961" x2="1047.959961" y2="1820.959961" stroke="red" stroke-width="6.660000" />
<circle cx="945.960022" cy="1896.959961" r="19.980000" fill="red">
  <title>New York</title>
</circle><line x1="1047.959961" y1="1820.959961" x2="945.960022" y2="1896.959961" stroke="red" stroke-width="6.660000" />
<circle cx="570.960022" cy="2005.959961" r="19.980000" fill="red">
  <title>Cairo</title>
</circle><line x1="945.960022" y1="1896.959961" x2="570.960022" y2="2005.959961" stroke="red" stroke-width="6.660000" />
<circle cx="191.959991" cy="1673.959961" r="19.980000" fill="red">
  <title>Dhaka</title>
</circle><line x1="570.960022" y1="2005.959961" x2="191.959991" y2="1673.959961" stroke="red" stroke-width="6.660000" />
<circle cx="342.959991" cy="1326.959961" r="19.980000" fill="red">
  <title>Mumbai</title>
</circle><line x1="191.959991" y1="1673.959961" x2="342.959991" y2="1326.959961" stroke="red" stroke-width="6.660000" />
<circle cx="619.960022" cy="1647.959961" r="19.980000" fill="red">
  <title>Karachi</title>
</circle><line x1="342.959991" y1="1326.959961" x2="619.960022" y2="1647.959961" stroke="red" stroke-width="6.660000" />
<circle cx="821.960022" cy="1525.959961" r="19.980000" fill="red">
  <title>Shanghai</title>
</circle><line x1="619.960022" y1="1647.959961" x2="821.960022" y2="1525.959961" stroke="red" stroke-width="6.660000" />
<circle cx="1410.959961" cy="581.960022" r="19.980000" fill="red">
  <title>Mexico City</title>
</circle><line x1="821.960022" y1="1525.959961" x2="1410.959961" y2="581.960022" stroke="red" stroke-width="6.660000" />
</svg>
