<?xml version="1.0" encoding="UTF-8" standalone="no"?>
<svg width="500" height="500" viewBox="0 0 2074.000000 2074.000000" xmlns="http://www.w3.org/2000/svg">
<rect x="19.000000" y="19.000000" width="2036.000000" height="2036.000000" fill="black" />
<circle cx="766.960022" cy="1638.959961" r="19.980000" fill="red">
  <title>Tokyo</title>
</circle><line x1="1006.960022" y1="1435.959961" x2="766.960022" y2="1638.959961" stroke="red" stroke-width="6.660000" />
<circle cx="503.959991" cy="1474.959961" r="19.980000" fill="red">
  <title>Buenos Aires</title>
</circle><line x1="766.960022" y1="1638.959961" x2="503.959991" y2="1474.959961" stroke="red" stroke-width="6.660000" />
<circle cx="95.959999" cy="1457.959961" r="19.980000" fill="red">
  <title>Manila</title>
</circle><line x1="503.959991" y1="1474.959961" x2="95.959999" y2="1457.959961" stroke="red" stroke-width="6.660000" />
<circle cx="613.960022" cy="1009.960022" r="19.980000" fill="red">
  <title>Cairo</title>
</circle><line x1="95.959999" y1="1457.959961" x2="613.960022" y2="1009.960022" stroke="red" stroke-width="6.660000" />
<circle cx="183.959991" cy="800.960022" r="19.980000" fill="red">
  <title>Kolkata</title>
</circle><line x1="613.960022" y1="1009.960022" x2="183.959991" y2="800.960022" stroke="red" stroke-width="6.660000" />
<circle cx="73.959999" cy="495.959991" r="19.980000" fill="red">
  <title>Istanbul</title>
</circle><line x1="183.959991" y1="800.960022" x2="73.959999" y2="495.959991" stroke="red" stroke-width="6.660000" />
<circle cx="578.960022" cy="442.959991" r="19.980000" fill="red">
  <title>Beijing</title>
</circle><line x1="73.959999" y1="495.959991" x2="578.960022" y2="442.959991" stroke="red" stroke-width="6.660000" />
<circle cx="693.960022" cy="188.959991" r="19.980000" fill="red">
  <title>Karachi</title>
</circle><line x1="578.960022" y1="442.959991" x2="693.960022" y2="188.959991" stroke="red" stroke-width="6.660000" />
<circle cx="856.960022" cy="225.959991" r="19.980000" fill="red">
  <title>Mumbai</title>
</circle><line x1="693.960022" y1="188.959991" x2="856.960022" y2="225.959991" stroke="red" stroke-width="6.660000" />
<circle cx="1348.959961" cy="47.959999" r="19.980000" fill="red">
  <title>Mexico City</title>
</circle><line x1="856.960022" y1="225.959991" x2="1348.959961" y2="47.959999" stroke="red" stroke-width="6.660000" />
<circle cx="1243.959961" cy="349.959991" r="19.980000" fill="red">
  <title>Chongqing</title>
</circle><line x1="1348.959961" y1="47.959999" x2="1243.959961" y2="349.959991" stroke="red" stroke-width="6.660000" />
<circle cx="1500.959961" cy="557.960022" r="19.980000" fill="red">
  <title>New York</title>
</circle><line x1="1243.959961" y1="349.959991" x2="1500.959961" y2="557.960022" stroke="red" stroke-width="6.660000" />
<circle cx="1994.959961" cy="746.960022" r="19.980000" fill="red">
  <title>Dhaka</title>
</circle><line x1="1500.959961" y1="557.960022" x2="1994.959961" y2="746.960022" stroke="red" stroke-width="6.660000" />
<circle cx="1312.959961" cy="896.960022" r="19.980000" fill="red">
  <title>Delhi</title>
</circle><line x1="1994.959961" y1="746.960022" x2="1312.959961" y2="896.960022" stroke="red" stroke-width="6.660000" />
<circle cx="1511.959961" cy="1537.959961" r="19.980000" fill="red">
  <title>Osaka</title>
</circle><line x1="1312.959961" y1="896.960022" x2="1511.959961" y2="1537.959961" stroke="red" stroke-width="6.660000" />
<circle cx="1657.959961" cy="1632.959961" r="19.980000" fill="red">
  <title>Lagos</title>
</circle><line x1="1511.959961" y1="1537.959961" x2="1657.959961" y2="1632.959961" stroke="red" stroke-width="6.660000" />
<circle cx="1815.959961" cy="1859.959961" r="19.980000" fill="red">
  <title>São Paulo</title>
</circle><line x1="1657.959961" y1="1632.959961" x2="1815.959961" y2="1859.959961" stroke="red" stroke-width="6.660000" />
<circle cx="1576.959961" cy="1587.959961" r="19.980000" fill="red">
  <title>Shanghai</title>
</circle><line x1="1815.959961" y1="1859.959961" x2="1576.959961" y2="1587.959961" stroke="red" stroke-width="6.660000" />
<circle cx="1006.960022" cy="1435.959961" r="19.980000" fill="red">
  <title>Rio de Janeiro</title>
</circle><line x1="1576.959961" y1="1587.959961" x2="1006.960022" y2="1435.959961" stroke="red" stroke-width="6.660000" />
</svg>
