<?xml version="1.0" encoding="UTF-8" standalone="no"?>
<svg width="500" height="500" viewBox="0 0 2074.000000 2074.000000" xmlns="http://www.w3.org/2000/svg">
<rect x="19.000000" y="19.000000" width="2036.000000" height="2036.000000" fill="black" />
<circle cx="982.960022" cy="744.960022" r="19.980000" fill="red">
  <title>Tokyo</title>
</circle><line x1="485.959991" y1="1413.959961" x2="982.960022" y2="744.960022" stroke="red" stroke-width="6.660000" />
<circle cx="1871.959961" cy="609.960022" r="19.980000" fill="red">
  <title>Delhi</title>
</circle><line x1="982.960022" y1="744.960022" x2="1871.959961" y2="609.960022" stroke="red" stroke-width="6.660000" />
<circle cx="1396.959961" cy="1231.959961" r="19.980000" fill="red">
  <title>Mexico City</title>
</circle><line x1="1871.959961" y1="609.960022" x2="1396.959961" y2="1231.959961" stroke="red" stroke-width="6.660000" />
<circle cx="605.960022" cy="1931.959961" r="19.980000" fill="red">
  <title>São Paulo</title>
</circle><line x1="1396.959961" y1="1231.959961" x2="605.960022" y2="1931.959961" stroke="red" stroke-width="6.660000" />
<circle cx="485.959991" cy="1413.959961" r="19.980000" fill="red">
  <title>Shanghai</title>
</circle><line x1="605.960022" y1="1931.959961" x2="485.959991" y2="1413.959961" stroke="red" stroke-width="6.660000" />
</svg>
