<?xml version="1.0" encoding="UTF-8" standalone="no"?>
<svg width="500" height="500" viewBox="0 0 2074.000000 2074.000000" xmlns="http://www.w3.org/2000/svg">
<rect x="19.000000" y="19.000000" width="2036.000000" height="2036.000000" fill="black" />
<circle cx="1972.959961" cy="1490.959961" r="19.980000" fill="red">
  <title>Tokyo</title>
</circle><line x1="1655.959961" y1="722.960022" x2="1972.959961" y2="1490.959961" stroke="red" stroke-width="6.660000" />
<circle cx="1387.959961" cy="1754.959961" r="19.980000" fill="red">
  <title>Mumbai</title>
</circle><line x1="1972.959961" y1="1490.959961" x2="1387.959961" y2="1754.959961" stroke="red" stroke-width="6.660000" />
<circle cx="1367.959961" cy="1475.959961" r="19.980000" fill="red">
  <title>Shanghai</title>
</circle><line x1="1387.959961" y1="1754.959961" x2="1367.959961" y2="1475.959961" stroke="red" stroke-width="6.660000" />
<circle cx="1431.959961" cy="1311.959961" r="19.980000" fill="red">
  <title>Delhi</title>
</circle><line x1="1367.959961" y1="1475.959961" x2="1431.959961" y2="1311.959961" stroke="red" stroke-width="6.660000" />
<circle cx="438.959991" cy="752.960022" r="19.980000" fill="red">
  <title>Mexico City</title>
</circle><line x1="1431.959961" y1="1311.959961" x2="438.959991" y2="752.960022" stroke="red" stroke-width="6.660000" />
<circle cx="654.960022" cy="380.959991" r="19.980000" fill="red">
  <title>Dhaka</title>
</circle><line x1="438.959991" y1="752.960022" x2="654.960022" y2="380.959991" stroke="red" stroke-width="6.660000" />
<circle cx="1602.959961" cy="413.959991" r="19.980000" fill="red">
  <title>Cairo</title>
</circle><line x1="654.960022" y1="380.959991" x2="1602.959961" y2="413.959991" stroke="red" stroke-width="6.660000" />
<circle cx="1560.959961" cy="548.960022" r="19.980000" fill="red">
  <title>São Paulo</title>
</circle><line x1="1602.959961" y1="413.959991" x2="1560.959961" y2="548.960022" stroke="red" stroke-width="6.660000" />
<circle cx="1655.959961" cy="722.960022" r="19.980000" fill="red">
  <title>Beijing</title>
</circle><line x1="1560.959961" y1="548.960022" x2="1655.959961" y2="722.960022" stroke="red" stroke-width="6.660000" />
</svg>
