<?xml version="1.0" encoding="UTF-8" standalone="no"?>
<svg width="500" height="500" viewBox="0 0 2074.000000 2074.000000" xmlns="http://www.w3.org/2000/svg">
<rect x="19.000000" y="19.000000" width="2036.000000" height="2036.000000" fill="black" />
<circle cx="1421.959961" cy="1340.959961" r="19.980000" fill="red">
  <title>Tokyo</title>
</circle><line x1="1554.959961" y1="1171.959961" x2="1421.959961" y2="1340.959961" stroke="red" stroke-width="6.660000" />
<circle cx="1665.959961" cy="1674.959961" r="19.980000" fill="red">
  <title>Delhi</title>
</circle><line x1="1421.959961" y1="1340.959961" x2="1665.959961" y2="1674.959961" stroke="red" stroke-width="6.660000" />
<circle cx="1815.959961" cy="1839.959961" r="19.980000" fill="red">
  <title>Buenos Aires</title>
</circle><line x1="1665.959961" y1="1674.959961" x2="1815.959961" y2="1839.959961" stroke="red" stroke-width="6.660000" />
<circle cx="1609.959961" cy="1774.959961" r="19.980000" fill="red">
  <title>Beijing</title>
</circle><line x1="1815.959961" y1="1839.959961" x2="1609.959961" y2="1774.959961" stroke="red" stroke-width="6.660000" />
<circle cx="1099.959961" cy="1903.959961" r="19.980000" fill="red">
  <title>Mexico City</title>
</circle><line x1="1609.959961" y1="1774.959961" x2="1099.959961" y2="1903.959961" stroke="red" stroke-width="6.660000" />
<circle cx="685.960022" cy="1309.959961" r="19.980000" fill="red">
  <title>New York</title>
</circle><line x1="1099.959961" y1="1903.959961" x2="685.960022" y2="1309.959961" stroke="red" stroke-width="6.660000" />
<circle cx="94.959999" cy="1200.959961" r="19.980000" fill="red">
  <title>São Paulo</title>
</circle><line x1="685.960022" y1="1309.959961" x2="94.959999" y2="1200.959961" stroke="red" stroke-width="6.660000" />
<circle cx="113.959999" cy="977.960022" r="19.980000" fill="red">
  <title>Mumbai</title>
</circle><line x1="94.959999" y1="1200.959961" x2="113.959999" y2="977.960022" stroke="red" stroke-width="6.660000" />
<circle cx="162.959991" cy="680.960022" r="19.980000" fill="red">
  <title>Cairo</title>
</circle><line x1="113.959999" y1="977.960022" x2="162.959991" y2="680.960022" stroke="red" stroke-width="6.660000" />
<circle cx="660.960022" cy="202.959991" r="19.980000" fill="red">
  <title>Osaka</title>
</circle><line x1="162.959991" y1="680.960022" x2="660.960022" y2="202.959991" stroke="red" stroke-width="6.660000" />
<circle cx="990.960022" cy="515.960022" r="19.980000" fill="red">
  <title>Karachi</title>
</circle><line x1="660.960022" y1="202.959991" x2="990.960022" y2="515.960022" stroke="red" stroke-width="6.660000" />
<circle cx="1549.959961" cy="897.960022" r="19.980000" fill="red">
  <title>Shanghai</title>
</circle><line x1="990.960022" y1="515.960022" x2="1549.959961" y2="897.960022" stroke="red" stroke-width="6.660000" />
<circle cx="1554.959961" cy="1171.959961" r="19.980000" fill="red">
  <title>Dhaka</title>
</circle><line x1="1549.959961" y1="897.960022" x2="1554.959961" y2="1171.959961" stroke="red" stroke-width="6.660000" />
</svg>
