<?xml version="1.0" encoding="UTF-8" standalone="no"?>
<svg width="500" height="500" viewBox="0 0 2074.000000 2074.000000" xmlns="http://www.w3.org/2000/svg">
<rect x="19.000000" y="19.000000" width="2036.000000" height="2036.000000" fill="black" />
<circle cx="655.960022" cy="1194.959961" r="19.980000" fill="red">
  <title>Tokyo</title>
</circle><line x1="1248.959961" y1="951.960022" x2="655.960022" y2="1194.959961" stroke="red" stroke-width="6.660000" />
<circle cx="301.959991" cy="1181.959961" r="19.980000" fill="red">
  <title>Mumbai</title>
</circle><line x1="655.960022" y1="1194.959961" x2="301.959991" y2="1181.959961" stroke="red" stroke-width="6.660000" />
<circle cx="616.960022" cy="1294.959961" r="19.980000" fill="red">
  <title>Osaka</title>
</circle><line x1="301.959991" y1="1181.959961" x2="616.960022" y2="1294.959961" stroke="red" stroke-width="6.660000" />
<circle cx="1604.959961" cy="1655.959961" r="19.980000" fill="red">
  <title>Cairo</title>
</circle><line x1="616.960022" y1="1294.959961" x2="1604.959961" y2="1655.959961" stroke="red" stroke-width="6.660000" />
<circle cx="1784.959961" cy="1793.959961" r="19.980000" fill="red">
  <title>Beijing</title>
</circle><line x1="1604.959961" y1="1655.959961" x2="1784.959961" y2="1793.959961" stroke="red" stroke-width="6.660000" />
<circle cx="1545.959961" cy="1485.959961" r="19.980000" fill="red">
  <title>New York</title>
</circle><line x1="1784.959961" y1="1793.959961" x2="1545.959961" y2="1485.959961" stroke="red" stroke-width="6.660000" />
<circle cx="1943.959961" cy="564.960022" r="19.980000" fill="red">
  <title>Mexico City</title>
</circle><line x1="1545.959961" y1="1485.959961" x2="1943.959961" y2="564.960022" stroke="red" stroke-width="6.660000" />
<circle cx="1579.959961" cy="112.959999" r="19.980000" fill="red">
  <title>São Paulo</title>
</circle><line x1="1943.959961" y1="564.960022" x2="1579.959961" y2="112.959999" stroke="red" stroke-width="6.660000" />
<circle cx="1536.959961" cy="164.959991" r="19.980000" fill="red">
  <title>Delhi</title>
</circle><line x1="1579.959961" y1="112.959999" x2="1536.959961" y2="164.959991" stroke="red" stroke-width="6.660000" />
<circle cx="1134.959961" cy="539.960022" r="19.980000" fill="red">
  <title>Shanghai</title>
</circle><line x1="1536.959961" y1="164.959991" x2="1134.959961" y2="539.960022" stroke="red" stroke-width="6.660000" />
<circle cx="1248.959961" cy="951.960022" r="19.980000" fill="red">
  <title>Dhaka</title>
</circle><line x1="1134.959961" y1="539.960022" x2="1248.959961" y2="951.960022" stroke="red" stroke-width="6.660000" />
</svg>
