<?xml version="1.0" encoding="UTF-8" standalone="no"?>
<svg width="500" height="500" viewBox="0 0 2074.000000 2074.000000" xmlns="http://www.w3.org/2000/svg">
<rect x="19.000000" y="19.000000" width="2036.000000" height="2036.000000" fill="black" />
<circle cx="1454.959961" cy="1153.959961" r="19.980000" fill="red">
  <title>Tokyo</title>
</circle><line x1="1617.959961" y1="1777.959961" x2="1454.959961" y2="1153.959961" stroke="red" stroke-width="6.660000" />
<circle cx="1670.959961" cy="825.960022" r="19.980000" fill="red">
  <title>São Paulo</title>
</circle><line x1="1454.959961" y1="1153.959961" x2="1670.959961" y2="825.960022" stroke="red" stroke-width="6.660000" />
<circle cx="1529.959961" cy="362.959991" r="19.980000" fill="red">
  <title>Osaka</title>
</circle><line x1="1670.959961" y1="825.960022" x2="1529.959961" y2="362.959991" stroke="red" stroke-width="6.660000" />
<circle cx="657.960022" cy="681.960022" r="19.980000" fill="red">
  <title>Mexico City</title>
</circle><line x1="1529.959961" y1="362.959991" x2="657.960022" y2="681.960022" stroke="red" stroke-width="6.660000" />
<circle cx="113.959999" cy="56.959999" r="19.980000" fill="red">
  <title>Beijing</title>
</circle><line x1="657.960022" y1="681.960022" x2="113.959999" y2="56.959999" stroke="red" stroke-width="6.660000" />
<circle cx="894.960022" cy="891.960022" r="19.980000" fill="red">
  <title>Shanghai</title>
</circle><line x1="113.959999" y1="56.959999" x2="894.960022" y2="891.960022" stroke="red" stroke-width="6.660000" />
<circle cx="1142.959961" cy="1057.959961" r="19.980000" fill="red">
  <title>Cairo</title>
</circle><line x1="894.960022" y1="891.960022" x2="1142.959961" y2="1057.959961" stroke="red" stroke-width="6.660000" />
<circle cx="1142.959961" cy="1127.959961" r="19.980000" fill="red">
  <title>Delhi</title>
</circle><line x1="1142.959961" y1="1057.959961" x2="1142.959961" y2="1127.959961" stroke="red" stroke-width="6.660000" />
<circle cx="1006.960022" cy="1797.959961" r="19.980000" fill="red">
  <title>Mumbai</title>
</circle><line x1="1142.959961" y1="1127.959961" x2="1006.960022" y2="1797.959961" stroke="red" stroke-width="6.660000" />
<circle cx="1617.959961" cy="1777.959961" r="19.980000" fill="red">
  <title>Dhaka</title>
</circle><line x1="1006.960022" y1="1797.959961" x2="1617.959961" y2="1777.959961" stroke="red" stroke-width="6.660000" />
</svg>
