<?xml version="1.0" encoding="UTF-8" standalone="no"?>
<svg width="500" height="500" viewBox="0 0 2074.000000 2074.000000" xmlns="http://www.w3.org/2000/svg">
<rect x="19.000000" y="19.000000" width="2036.000000" height="2036.000000" fill="black" />
<circle cx="1679.959961" cy="724.960022" r="19.980000" fill="red">
  <title>Tokyo</title>
</circle><line x1="953.960022" y1="568.960022" x2="1679.959961" y2="724.960022" stroke="red" stroke-width="6.660000" />
<circle cx="1083.959961" cy="1430.959961" r="19.980000" fill="red">
  <title>Delhi</title>
</circle><line x1="1679.959961" y1="724.960022" x2="1083.959961" y2="1430.959961" stroke="red" stroke-width="6.660000" />
<circle cx="204.959991" cy="1250.959961" r="19.980000" fill="red">
  <title>São Paulo</title>
</circle><line x1="1083.959961" y1="1430.959961" x2="204.959991" y2="1250.959961" stroke="red" stroke-width="6.660000" />
<circle cx="953.960022" cy="568.960022" r="19.980000" fill="red">
  <title>Shanghai</title>
</circle><line x1="204.959991" y1="1250.959961" x2="953.960022" y2="568.960022" stroke="red" stroke-width="6.660000" />
</svg>
