<?xml version="1.0" encoding="UTF-8" standalone="no"?>
<svg width="500" height="500" viewBox="0 0 2074.000000 2074.000000" xmlns="http://www.w3.org/2000/svg">
<rect x="19.000000" y="19.000000" width="2036.000000" height="2036.000000" fill="black" />
<circle cx="840.960022" cy="1984.959961" r="19.980000" fill="red">
  <title>Tokyo</title>
</circle><line x1="1413.959961" y1="1889.959961" x2="840.960022" y2="1984.959961" stroke="red" stroke-width="6.660000" />
<circle cx="583.960022" cy="1172.959961" r="19.980000" fill="red">
  <title>Shanghai</title>
</circle><line x1="840.960022" y1="1984.959961" x2="583.960022" y2="1172.959961" stroke="red" stroke-width="6.660000" />
<circle cx="197.959991" cy="660.960022" r="19.980000" fill="red">
  <title>Delhi</title>
</circle><line x1="583.960022" y1="1172.959961" x2="197.959991" y2="660.960022" stroke="red" stroke-width="6.660000" />
<circle cx="367.959991" cy="144.959991" r="19.980000" fill="red">
  <title>Mumbai</title>
</circle><line x1="197.959991" y1="660.960022" x2="367.959991" y2="144.959991" stroke="red" stroke-width="6.660000" />
<circle cx="1211.959961" cy="1092.959961" r="19.980000" fill="red">
  <title>Beijing</title>
</circle><line x1="367.959991" y1="144.959991" x2="1211.959961" y2="1092.959961" stroke="red" stroke-width="6.660000" />
<circle cx="1109.959961" cy="1168.959961" r="19.980000" fill="red">
  <title>Dhaka</title>
</circle><line x1="1211.959961" y1="1092.959961" x2="1109.959961" y2="1168.959961" stroke="red" stroke-width="6.660000" />
<circle cx="1530.959961" cy="1228.959961" r="19.980000" fill="red">
  <title>Cairo</title>
</circle><line x1="1109.959961" y1="1168.959961" x2="1530.959961" y2="1228.959961" stroke="red" stroke-width="6.660000" />
<circle cx="1724.959961" cy="1423.959961" r="19.980000" fill="red">
  <title>São Paulo</title>
</circle><line x1="1530.959961" y1="1228.959961" x2="1724.959961" y2="1423.959961" stroke="red" stroke-width="6.660000" />
<circle cx="1413.959961" cy="1889.959961" r="19.980000" fill="red">
  <title>Mexico City</title>
</circle><line x1="1724.959961" y1="1423.959961" x2="1413.959961" y2="1889.959961" stroke="red" stroke-width="6.660000" />
</svg>
