<?xml version="1.0" encoding="UTF-8" standalone="no"?>
<svg width="500" height="500" viewBox="0 0 2074.000000 2074.000000" xmlns="http://www.w3.org/2000/svg">
<rect x="19.000000" y="19.000000" width="2036.000000" height="2036.000000" fill="black" />
<circle cx="1116.959961" cy="1129.959961" r="19.980000" fill="red">
  <title>Tokyo</title>
</circle><line x1="1312.959961" y1="1157.959961" x2="1116.959961" y2="1129.959961" stroke="red" stroke-width="6.660000" />
<circle cx="1031.959961" cy="163.959991" r="19.980000" fill="red">
  <title>Cairo</title>
</circle><line x1="1116.959961" y1="1129.959961" x2="1031.959961" y2="163.959991" stroke="red" stroke-width="6.660000" />
<circle cx="979.960022" cy="147.959991" r="19.980000" fill="red">
  <title>Istanbul</title>
</circle><line x1="1031.959961" y1="163.959991" x2="979.960022" y2="147.959991" stroke="red" stroke-width="6.660000" />
<circle cx="597.960022" cy="958.960022" r="19.980000" fill="red">
  <title>New York</title>
</circle><line x1="979.960022" y1="147.959991" x2="597.960022" y2="958.960022" stroke="red" stroke-width="6.660000" />
<circle cx="436.959991" cy="1069.959961" r="19.980000" fill="red">
  <title>Osaka</title>
</circle><line x1="597.960022" y1="958.960022" x2="436.959991" y2="1069.959961" stroke="red" stroke-width="6.660000" />
<circle cx="188.959991" cy="1695.959961" r="19.980000" fill="red">
  <title>Shanghai</title>
</circle><line x1="436.959991" y1="1069.959961" x2="188.959991" y2="1695.959961" stroke="red" stroke-width="6.660000" />
<circle cx="724.960022" cy="1974.959961" r="19.980000" fill="red">
  <title>São Paulo</title>
</circle><line x1="188.959991" y1="1695.959961" x2="724.960022" y2="1974.959961" stroke="red" stroke-width="6.660000" />
<circle cx="875.960022" cy="1688.959961" r="19.980000" fill="red">
  <title>Chongqing</title>
</circle><line x1="724.960022" y1="1974.959961" x2="875.960022" y2="1688.959961" stroke="red" stroke-width="6.660000" />
<circle cx="917.960022" cy="1298.959961" r="19.980000" fill="red">
  <title>Mumbai</title>
</circle><line x1="875.960022" y1="1688.959961" x2="917.960022" y2="1298.959961" stroke="red" stroke-width="6.660000" />
<circle cx="1076.959961" cy="1389.959961" r="19.980000" fill="red">
  <title>Delhi</title>
</circle><line x1="917.960022" y1="1298.959961" x2="1076.959961" y2="1389.959961" stroke="red" stroke-width="6.660000" />
<circle cx="1560.959961" cy="1877.959961" r="19.980000" fill="red">
  <title>Karachi</title>
</circle><line x1="1076.959961" y1="1389.959961" x2="1560.959961" y2="1877.959961" stroke="red" stroke-width="6.660000" />
<circle cx="1808.959961" cy="1701.959961" r="19.980000" fill="red">
  <title>Dhaka</title>
</circle><line x1="1560.959961" y1="1877.959961" x2="1808.959961" y2="1701.959961" stroke="red" stroke-width="6.660000" />
<circle cx="1469.959961" cy="1573.959961" r="19.980000" fill="red">
  <title>Beijing</title>
</circle><line x1="1808.959961" y1="1701.959961" x2="1469.959961" y2="1573.959961" stroke="red" stroke-width="6.660000" />
<circle cx="1249.959961" cy="1335.959961" r="19.980000" fill="red">
  <title>Mexico City</title>
</circle><line x1="1469.959961" y1="1573.959961" x2="1249.959961" y2="1335.959961" stroke="red" stroke-width="6.660000" />
<circle cx="1312.959961" cy="1157.959961" r="19.980000" fill="red">
  <title>Buenos Aires</title>
</circle><line x1="1249.959961" y1="1335.959961" x2="1312.959961" y2="1157.959961" stroke="red" stroke-width="6.660000" />
</svg>
