<?xml version="1.0" encoding="UTF-8" standalone="no"?>
<svg width="500" height="500" viewBox="0 0 2074.000000 2074.000000" xmlns="http://www.w3.org/2000/svg">
<rect x="19.000000" y="19.000000" width="2036.000000" height="2036.000000" fill="black" />
<circle cx="1106.959961" cy="1811.959961" r="19.980000" fill="red">
  <title>Tokyo</title>
</circle><line x1="2005.959961" y1="1294.959961" x2="1106.959961" y2="1811.959961" stroke="red" stroke-width="6.660000" />
<circle cx="694.960022" cy="1325.959961" r="19.980000" fill="red">
  <title>New York</title>
</circle><line x1="1106.959961" y1="1811.959961" x2="694.960022" y2="1325.959961" stroke="red" stroke-width="6.660000" />
<circle cx="853.960022" cy="792.960022" r="19.980000" fill="red">
  <title>Dhaka</title>
</circle><line x1="694.960022" y1="1325.959961" x2="853.960022" y2="792.960022" stroke="red" stroke-width="6.660000" />
<circle cx="789.960022" cy="437.959991" r="19.980000" fill="red">
  <title>Cairo</title>
</circle><line x1="853.960022" y1="792.960022" x2="789.960022" y2="437.959991" stroke="red" stroke-width="6.660000" />
<circle cx="47.959999" cy="544.960022" r="19.980000" fill="red">
  <title>Chongqing</title>
</circle><line x1="789.960022" y1="437.959991" x2="47.959999" y2="544.960022" stroke="red" stroke-width="6.660000" />
<circle cx="155.959991" cy="325.959991" r="19.980000" fill="red">
  <title>Mexico City</title>
</circle><line x1="47.959999" y1="544.960022" x2="155.959991" y2="325.959991" stroke="red" stroke-width="6.660000" />
<circle cx="844.960022" cy="41.959999" r="19.980000" fill="red">
  <title>Osaka</title>
</circle><line x1="155.959991" y1="325.959991" x2="844.960022" y2="41.959999" stroke="red" stroke-width="6.660000" />
<circle cx="997.960022" cy="204.959991" r="19.980000" fill="red">
  <title>Mumbai</title>
</circle><line x1="844.960022" y1="41.959999" x2="997.960022" y2="204.959991" stroke="red" stroke-width="6.660000" />
<circle cx="1186.959961" cy="137.959991" r="19.980000" fill="red">
  <title>São Paulo</title>
</circle><line x1="997.960022" y1="204.959991" x2="1186.959961" y2="137.959991" stroke="red" stroke-width="6.660000" />
<circle cx="1248.959961" cy="285.959991" r="19.980000" fill="red">
  <title>Karachi</title>
</circle><line x1="1186.959961" y1="137.959991" x2="1248.959961" y2="285.959991" stroke="red" stroke-width="6.660000" />
<circle cx="1492.959961" cy="456.959991" r="19.980000" fill="red">
  <title>Shanghai</title>
</circle><line x1="1248.959961" y1="285.959991" x2="1492.959961" y2="456.959991" stroke="red" stroke-width="6.660000" />
<circle cx="1770.959961" cy="599.960022" r="19.980000" fill="red">
  <title>Beijing</title>
</circle><line x1="1492.959961" y1="456.959991" x2="1770.959961" y2="599.960022" stroke="red" stroke-width="6.660000" />
<circle cx="1502.959961" cy="911.960022" r="19.980000" fill="red">
  <title>Buenos Aires</title>
</circle><line x1="1770.959961" y1="599.960022" x2="1502.959961" y2="911.960022" stroke="red" stroke-width="6.660000" />
<circle cx="2005.959961" cy="1294.959961" r="19.980000" fill="red">
  <title>Delhi</title>
</circle><line x1="1502.959961" y1="911.960022" x2="2005.959961" y2="1294.959961" stroke="red" stroke-width="6.660000" />
</svg>
