<?xml version="1.0" encoding="UTF-8" standalone="no"?>
<svg width="500" height="500" viewBox="0 0 2074.000000 2074.000000" xmlns="http://www.w3.org/2000/svg">
<rect x="19.000000" y="19.000000" width="2036.000000" height="2036.000000" fill="black" />
<circle cx="1127.959961" cy="1871.959961" r="19.980000" fill="red">
  <title>Tokyo</title>
</circle><line x1="2016.959961" y1="1989.959961" x2="1127.959961" y2="1871.959961" stroke="red" stroke-width="6.660000" />
<circle cx="1044.959961" cy="1119.959961" r="19.980000" fill="red">
  <title>Delhi</title>
</circle><line x1="1127.959961" y1="1871.959961" x2="1044.959961" y2="1119.959961" stroke="red" stroke-width="6.660000" />
<circle cx="218.959991" cy="538.960022" r="19.980000" fill="red">
  <title>Mexico City</title>
</circle><line x1="1044.959961" y1="1119.959961" x2="218.959991" y2="538.960022" stroke="red" stroke-width="6.660000" />
<circle cx="286.959991" cy="120.959999" r="19.980000" fill="red">
  <title>Mumbai</title>
</circle><line x1="218.959991" y1="538.960022" x2="286.959991" y2="120.959999" stroke="red" stroke-width="6.660000" />
<circle cx="704.960022" cy="149.959991" r="19.980000" fill="red">
  <title>Shanghai</title>
</circle><line x1="286.959991" y1="120.959999" x2="704.960022" y2="149.959991" stroke="red" stroke-width="6.660000" />
<circle cx="2011.959961" cy="231.959991" r="19.980000" fill="red">
  <title>São Paulo</title>
</circle><line x1="704.960022" y1="149.959991" x2="2011.959961" y2="231.959991" stroke="red" stroke-width="6.660000" />
<circle cx="2016.959961" cy="1989.959961" r="19.980000" fill="red">
  <title>Cairo</title>
</circle><line x1="2011.959961" y1="231.959991" x2="2016.959961" y2="1989.959961" stroke="red" stroke-width="6.660000" />
</svg>
