<?xml version="1.0" encoding="UTF-8" standalone="no"?>
<svg width="500" height="500" viewBox="0 0 2074.000000 2074.000000" xmlns="http://www.w3.org/2000/svg">
<rect x="19.000000" y="19.000000" width="2036.000000" height="2036.000000" fill="black" />
<circle cx="683.960022" cy="682.960022" r="19.980000" fill="red">
  <title>Tokyo</title>
</circle><line x1="214.959991" y1="104.959999" x2="683.960022" y2="682.960022" stroke="red" stroke-width="6.660000" />
<circle cx="976.960022" cy="1071.959961" r="19.980000" fill="red">
  <title>São Paulo</title>
</circle><line x1="683.960022" y1="682.960022" x2="976.960022" y2="1071.959961" stroke="red" stroke-width="6.660000" />
<circle cx="1020.960022" cy="1387.959961" r="19.980000" fill="red">
  <title>Shanghai</title>
</circle><line x1="976.960022" y1="1071.959961" x2="1020.960022" y2="1387.959961" stroke="red" stroke-width="6.660000" />
<circle cx="47.959999" cy="1432.959961" r="19.980000" fill="red">
  <title>Chongqing</title>
</circle><line x1="1020.960022" y1="1387.959961" x2="47.959999" y2="1432.959961" stroke="red" stroke-width="6.660000" />
<circle cx="304.959991" cy="1760.959961" r="19.980000" fill="red">
  <title>Delhi</title>
</circle><line x1="47.959999" y1="1432.959961" x2="304.959991" y2="1760.959961" stroke="red" stroke-width="6.660000" />
<circle cx="1217.959961" cy="2005.959961" r="19.980000" fill="red">
  <title>Mumbai</title>
</circle><line x1="304.959991" y1="1760.959961" x2="1217.959961" y2="2005.959961" stroke="red" stroke-width="6.660000" />
<circle cx="1401.959961" cy="1697.959961" r="19.980000" fill="red">
  <title>Beijing</title>
</circle><line x1="1217.959961" y1="2005.959961" x2="1401.959961" y2="1697.959961" stroke="red" stroke-width="6.660000" />
<circle cx="1341.959961" cy="1406.959961" r="19.980000" fill="red">
  <title>Karachi</title>
</circle><line x1="1401.959961" y1="1697.959961" x2="1341.959961" y2="1406.959961" stroke="red" stroke-width="6.660000" />
<circle cx="1583.959961" cy="1155.959961" r="19.980000" fill="red">
  <title>Mexico City</title>
</circle><line x1="1341.959961" y1="1406.959961" x2="1583.959961" y2="1155.959961" stroke="red" stroke-width="6.660000" />
<circle cx="1250.959961" cy="932.960022" r="19.980000" fill="red">
  <title>New York</title>
</circle><line x1="1583.959961" y1="1155.959961" x2="1250.959961" y2="932.960022" stroke="red" stroke-width="6.660000" />
<circle cx="1405.959961" cy="613.960022" r="19.980000" fill="red">
  <title>Osaka</title>
</circle><line x1="1250.959961" y1="932.960022" x2="1405.959961" y2="613.960022" stroke="red" stroke-width="6.660000" />
<circle cx="1522.959961" cy="404.959991" r="19.980000" fill="red">
  <title>Dhaka</title>
</circle><line x1="1405.959961" y1="613.960022" x2="1522.959961" y2="404.959991" stroke="red" stroke-width="6.660000" />
<circle cx="1191.959961" cy="61.959999" r="19.980000" fill="red">
  <title>Buenos Aires</title>
</circle><line x1="1522.959961" y1="404.959991" x2="1191.959961" y2="61.959999" stroke="red" stroke-width="6.660000" />
<circle cx="214.959991" cy="104.959999" r="19.980000" fill="red">
  <title>Cairo</title>
</circle><line x1="1191.959961" y1="61.959999" x2="214.959991" y2="104.959999" stroke="red" stroke-width="6.660000" />
</svg>
