<?xml version="1.0" encoding="UTF-8" standalone="no"?>
<svg width="500" height="500" viewBox="0 0 2074.000000 2074.000000" xmlns="http://www.w3.org/2000/svg">
<rect x="19.000000" y="19.000000" width="2036.000000" height="2036.000000" fill="black" />
<circle cx="1342.959961" cy="978.960022" r="19.980000" fill="red">
  <title>Tokyo</title>
</circle><line x1="503.959991" y1="1226.959961" x2="1342.959961" y2="978.960022" stroke="red" stroke-width="6.660000" />
<circle cx="1948.959961" cy="1409.959961" r="19.980000" fill="red">
  <title>Delhi</title>
</circle><line x1="1342.959961" y1="978.960022" x2="1948.959961" y2="1409.959961" stroke="red" stroke-width="6.660000" />
<circle cx="2015.959961" cy="1389.959961" r="19.980000" fill="red">
  <title>Mexico City</title>
</circle><line x1="1948.959961" y1="1409.959961" x2="2015.959961" y2="1389.959961" stroke="red" stroke-width="6.660000" />
<circle cx="1921.959961" cy="508.959991" r="19.980000" fill="red">
  <title>São Paulo</title>
</circle><line x1="2015.959961" y1="1389.959961" x2="1921.959961" y2="508.959991" stroke="red" stroke-width="6.660000" />
<circle cx="1384.959961" cy="54.959999" r="19.980000" fill="red">
  <title>Cairo</title>
</circle><line x1="1921.959961" y1="508.959991" x2="1384.959961" y2="54.959999" stroke="red" stroke-width="6.660000" />
<circle cx="503.959991" cy="1226.959961" r="19.980000" fill="red">
  <title>Shanghai</title>
</circle><line x1="1384.959961" y1="54.959999" x2="503.959991" y2="1226.959961" stroke="red" stroke-width="6.660000" />
</svg>
