<?xml version="1.0" encoding="UTF-8" standalone="no"?>
<svg width="500" height="500" viewBox="0 0 2074.000000 2074.000000" xmlns="http://www.w3.org/2000/svg">
<rect x="19.000000" y="19.000000" width="2036.000000" height="2036.000000" fill="black" />
<circle cx="289.959991" cy="887.960022" r="19.980000" fill="red">
  <title>Tokyo</title>
</circle><line x1="243.959991" y1="910.960022" x2="289.959991" y2="887.960022" stroke="red" stroke-width="6.660000" />
<circle cx="494.959991" cy="955.960022" r="19.980000" fill="red">
  <title>New York</title>
</circle><line x1="289.959991" y1="887.960022" x2="494.959991" y2="955.960022" stroke="red" stroke-width="6.660000" />
<circle cx="695.960022" cy="734.960022" r="19.980000" fill="red">
  <title>Beijing</title>
</circle><line x1="494.959991" y1="955.960022" x2="695.960022" y2="734.960022" stroke="red" stroke-width="6.660000" />
<circle cx="1183.959961" cy="191.959991" r="19.980000" fill="red">
  <title>São Paulo</title>
</circle><line x1="695.960022" y1="734.960022" x2="1183.959961" y2="191.959991" stroke="red" stroke-width="6.660000" />
<circle cx="1939.959961" cy="819.960022" r="19.980000" fill="red">
  <title>Karachi</title>
</circle><line x1="1183.959961" y1="191.959991" x2="1939.959961" y2="819.960022" stroke="red" stroke-width="6.660000" />
<circle cx="1659.959961" cy="1563.959961" r="19.980000" fill="red">
  <title>Chongqing</title>
</circle><line x1="1939.959961" y1="819.960022" x2="1659.959961" y2="1563.959961" stroke="red" stroke-width="6.660000" />
<circle cx="1591.959961" cy="1795.959961" r="19.980000" fill="red">
  <title>Dhaka</title>
</circle><line x1="1659.959961" y1="1563.959961" x2="1591.959961" y2="1795.959961" stroke="red" stroke-width="6.660000" />
<circle cx="1244.959961" cy="1951.959961" r="19.980000" fill="red">
  <title>Mumbai</title>
</circle><line x1="1591.959961" y1="1795.959961" x2="1244.959961" y2="1951.959961" stroke="red" stroke-width="6.660000" />
<circle cx="1089.959961" cy="1956.959961" r="19.980000" fill="red">
  <title>Osaka</title>
</circle><line x1="1244.959961" y1="1951.959961" x2="1089.959961" y2="1956.959961" stroke="red" stroke-width="6.660000" />
<circle cx="1041.959961" cy="1609.959961" r="19.980000" fill="red">
  <title>Delhi</title>
</circle><line x1="1089.959961" y1="1956.959961" x2="1041.959961" y2="1609.959961" stroke="red" stroke-width="6.660000" />
<circle cx="1047.959961" cy="1552.959961" r="19.980000" fill="red">
  <title>Cairo</title>
</circle><line x1="1041.959961" y1="1609.959961" x2="1047.959961" y2="1552.959961" stroke="red" stroke-width="6.660000" />
<circle cx="508.959991" cy="1643.959961" r="19.980000" fill="red">
  <title>Shanghai</title>
</circle><line x1="1047.959961" y1="1552.959961" x2="508.959991" y2="1643.959961" stroke="red" stroke-width="6.660000" />
<circle cx="115.959999" cy="1698.959961" r="19.980000" fill="red">
  <title>Mexico City</title>
</circle><line x1="508.959991" y1="1643.959961" x2="115.959999" y2="1698.959961" stroke="red" stroke-width="6.660000" />
<circle cx="243.959991" cy="910.960022" r="19.980000" fill="red">
  <title>Buenos Aires</title>
</circle><line x1="115.959999" y1="1698.959961" x2="243.959991" y2="910.960022" stroke="red" stroke-width="6.660000" />
</svg>
