<?xml version="1.0" encoding="UTF-8" standalone="no"?>
<svg width="500" height="500" viewBox="0 0 2074.000000 2074.000000" xmlns="http://www.w3.org/2000/svg">
<rect x="19.000000" y="19.000000" width="2036.000000" height="2036.000000" fill="black" />
<circle cx="1345.959961" cy="469.959991" r="19.980000" fill="red">
  <title>Tokyo</title>
</circle><line x1="2002.959961" y1="1520.959961" x2="1345.959961" y2="469.959991" stroke="red" stroke-width="6.660000" />
<circle cx="107.959999" cy="53.959999" r="19.980000" fill="red">
  <title>Shanghai</title>
</circle><line x1="1345.959961" y1="469.959991" x2="107.959999" y2="53.959999" stroke="red" stroke-width="6.660000" />
<circle cx="151.959991" cy="1009.960022" r="19.980000" fill="red">
  <title>Delhi</title>
</circle><line x1="107.959999" y1="53.959999" x2="151.959991" y2="1009.960022" stroke="red" stroke-width="6.660000" />
<circle cx="423.959991" cy="1514.959961" r="19.980000" fill="red">
  <title>São Paulo</title>
</circle><line x1="151.959991" y1="1009.960022" x2="423.959991" y2="1514.959961" stroke="red" stroke-width="6.660000" />
<circle cx="2002.959961" cy="1520.959961" r="19.980000" fill="red">
  <title>Mexico City</title>
</circle><line x1="423.959991" y1="1514.959961" x2="2002.959961" y2="1520.959961" stroke="red" stroke-width="6.660000" />
</svg>
