<?xml version="1.0" encoding="UTF-8" standalone="no"?>
<svg width="500" height="500" viewBox="0 0 2074.000000 2074.000000" xmlns="http://www.w3.org/2000/svg">
<rect x="19.000000" y="19.000000" width="2036.000000" height="2036.000000" fill="black" />
<circle cx="465.959991" cy="435.959991" r="19.980000" fill="red">
  <title>Tokyo</title>
</circle><line x1="93.959999" y1="1185.959961" x2="465.959991" y2="435.959991" stroke="red" stroke-width="6.660000" />
<circle cx="664.960022" cy="129.959991" r="19.980000" fill="red">
  <title>Cairo</title>
</circle><line x1="465.959991" y1="435.959991" x2="664.960022" y2="129.959991" stroke="red" stroke-width="6.660000" />
<circle cx="1185.959961" cy="356.959991" r="19.980000" fill="red">
  <title>Shanghai</title>
</circle><line x1="664.960022" y1="129.959991" x2="1185.959961" y2="356.959991" stroke="red" stroke-width="6.660000" />
<circle cx="964.960022" cy="738.960022" r="19.980000" fill="red">
  <title>Delhi</title>
</circle><line x1="1185.959961" y1="356.959991" x2="964.960022" y2="738.960022" stroke="red" stroke-width="6.660000" />
<circle cx="1214.959961" cy="1253.959961" r="19.980000" fill="red">
  <title>Mexico City</title>
</circle><line x1="964.960022" y1="738.960022" x2="1214.959961" y2="1253.959961" stroke="red" stroke-width="6.660000" />
<circle cx="1599.959961" cy="1195.959961" r="19.980000" fill="red">
  <title>Mumbai</title>
</circle><line x1="1214.959961" y1="1253.959961" x2="1599.959961" y2="1195.959961" stroke="red" stroke-width="6.660000" />
<circle cx="1934.959961" cy="1594.959961" r="19.980000" fill="red">
  <title>Beijing</title>
</circle><line x1="1599.959961" y1="1195.959961" x2="1934.959961" y2="1594.959961" stroke="red" stroke-width="6.660000" />
<circle cx="1670.959961" cy="1901.959961" r="19.980000" fill="red">
  <title>Osaka</title>
</circle><line x1="1934.959961" y1="1594.959961" x2="1670.959961" y2="1901.959961" stroke="red" stroke-width="6.660000" />
<circle cx="478.959991" cy="1953.959961" r="19.980000" fill="red">
  <title>São Paulo</title>
</circle><line x1="1670.959961" y1="1901.959961" x2="478.959991" y2="1953.959961" stroke="red" stroke-width="6.660000" />
<circle cx="93.959999" cy="1185.959961" r="19.980000" fill="red">
  <title>Dhaka</title>
</circle><line x1="478.959991" y1="1953.959961" x2="93.959999" y2="1185.959961" stroke="red" stroke-width="6.660000" />
</svg>
