<?xml version="1.0" encoding="UTF-8" standalone="no"?>
<svg width="500" height="500" viewBox="0 0 2074.000000 2074.000000" xmlns="http://www.w3.org/2000/svg">
<rect x="19.000000" y="19.000000" width="2036.000000" height="2036.000000" fill="black" />
<circle cx="1141.959961" cy="1946.959961" r="19.980000" fill="red">
  <title>Tokyo</title>
</circle><line x1="1571.959961" y1="1734.959961" x2="1141.959961" y2="1946.959961" stroke="red" stroke-width="6.660000" />
<circle cx="474.959991" cy="1272.959961" r="19.980000" fill="red">
  <title>Shanghai</title>
</circle><line x1="1141.959961" y1="1946.959961" x2="474.959991" y2="1272.959961" stroke="red" stroke-width="6.660000" />
<circle cx="262.959991" cy="1365.959961" r="19.980000" fill="red">
  <title>Mumbai</title>
</circle><line x1="474.959991" y1="1272.959961" x2="262.959991" y2="1365.959961" stroke="red" stroke-width="6.660000" />
<circle cx="285.959991" cy="740.960022" r="19.980000" fill="red">
  <title>Cairo</title>
</circle><line x1="262.959991" y1="1365.959961" x2="285.959991" y2="740.960022" stroke="red" stroke-width="6.660000" />
<circle cx="1086.959961" cy="562.960022" r="19.980000" fill="red">
  <title>Delhi</title>
</circle><line x1="285.959991" y1="740.960022" x2="1086.959961" y2="562.960022" stroke="red" stroke-width="6.660000" />
<circle cx="875.960022" cy="944.960022" r="19.980000" fill="red">
  <title>Mexico City</title>
</circle><line x1="1086.959961" y1="562.960022" x2="875.960022" y2="944.960022" stroke="red" stroke-width="6.660000" />
<circle cx="1571.959961" cy="1734.959961" r="19.980000" fill="red">
  <title>São Paulo</title>
</circle><line x1="875.960022" y1="944.960022" x2="1571.959961" y2="1734.959961" stroke="red" stroke-width="6.660000" />
</svg>
