<?xml version="1.0" encoding="UTF-8" standalone="no"?>
<svg width="500" height="500" viewBox="0 0 2074.000000 2074.000000" xmlns="http://www.w3.org/2000/svg">
<rect x="19.000000" y="19.000000" width="2036.000000" height="2036.000000" fill="black" />
<circle cx="1737.959961" cy="706.960022" r="19.980000" fill="red">
  <title>Tokyo</title>
</circle><line x1="1183.959961" y1="513.960022" x2="1737.959961" y2="706.960022" stroke="red" stroke-width="6.660000" />
<circle cx="1319.959961" cy="700.960022" r="19.980000" fill="red">
  <title>Delhi</title>
</circle><line x1="1737.959961" y1="706.960022" x2="1319.959961" y2="700.960022" stroke="red" stroke-width="6.660000" />
<circle cx="144.959991" cy="1259.959961" r="19.980000" fill="red">
  <title>Shanghai</title>
</circle><line x1="1319.959961" y1="700.960022" x2="144.959991" y2="1259.959961" stroke="red" stroke-width="6.660000" />
<circle cx="111.959999" cy="264.959991" r="19.980000" fill="red">
  <title>São Paulo</title>
</circle><line x1="144.959991" y1="1259.959961" x2="111.959999" y2="264.959991" stroke="red" stroke-width="6.660000" />
<circle cx="650.960022" cy="529.960022" r="19.980000" fill="red">
  <title>Mexico City</title>
</circle><line x1="111.959999" y1="264.959991" x2="650.960022" y2="529.960022" stroke="red" stroke-width="6.660000" />
<circle cx="1183.959961" cy="513.960022" r="19.980000" fill="red">
  <title>Cairo</title>
</circle><line x1="650.960022" y1="529.960022" x2="1183.959961" y2="513.960022" stroke="red" stroke-width="6.660000" />
</svg>
