<?xml version="1.0" encoding="UTF-8" standalone="no"?>
<svg width="500" height="500" viewBox="0 0 2074.000000 2074.000000" xmlns="http://www.w3.org/2000/svg">
<rect x="19.000000" y="19.000000" width="2036.000000" height="2036.000000" fill="black" />
<circle cx="1824.959961" cy="1789.959961" r="19.980000" fill="red">
  <title>Tokyo</title>
</circle><line x1="832.960022" y1="1611.959961" x2="1824.959961" y2="1789.959961" stroke="red" stroke-width="6.660000" />
<circle cx="337.959991" cy="2034.959961" r="19.980000" fill="red">
  <title>Delhi</title>
</circle><line x1="1824.959961" y1="1789.959961" x2="337.959991" y2="2034.959961" stroke="red" stroke-width="6.660000" />
<circle cx="154.959991" cy="1574.959961" r="19.980000" fill="red">
  <title>São Paulo</title>
</circle><line x1="337.959991" y1="2034.959961" x2="154.959991" y2="1574.959961" stroke="red" stroke-width="6.660000" />
<circle cx="832.960022" cy="1611.959961" r="19.980000" fill="red">
  <title>Shanghai</title>
</circle><line x1="154.959991" y1="1574.959961" x2="832.960022" y2="1611.959961" stroke="red" stroke-width="6.660000" />
</svg>
