<?xml version="1.0" encoding="UTF-8" standalone="no"?>
<svg width="500" height="500" viewBox="0 0 2074.000000 2074.000000" xmlns="http://www.w3.org/2000/svg">
<rect x="19.000000" y="19.000000" width="2036.000000" height="2036.000000" fill="black" />
<circle cx="1405.959961" cy="1091.959961" r="19.980000" fill="red">
  <title>Tokyo</title>
</circle><line x1="1658.959961" y1="877.960022" x2="1405.959961" y2="1091.959961" stroke="red" stroke-width="6.660000" />
<circle cx="974.960022" cy="2006.959961" r="19.980000" fill="red">
  <title>Mexico City</title>
</circle><line x1="1405.959961" y1="1091.959961" x2="974.960022" y2="2006.959961" stroke="red" stroke-width="6.660000" />
<circle cx="892.960022" cy="2020.959961" r="19.980000" fill="red">
  <title>Delhi</title>
</circle><line x1="974.960022" y1="2006.959961" x2="892.960022" y2="2020.959961" stroke="red" stroke-width="6.660000" />
<circle cx="859.960022" cy="1156.959961" r="19.980000" fill="red">
  <title>Beijing</title>
</circle><line x1="892.960022" y1="2020.959961" x2="859.960022" y2="1156.959961" stroke="red" stroke-width="6.660000" />
<circle cx="345.959991" cy="800.960022" r="19.980000" fill="red">
  <title>Osaka</title>
</circle><line x1="859.960022" y1="1156.959961" x2="345.959991" y2="800.960022" stroke="red" stroke-width="6.660000" />
<circle cx="420.959991" cy="351.959991" r="19.980000" fill="red">
  <title>New York</title>
</circle><line x1="345.959991" y1="800.960022" x2="420.959991" y2="351.959991" stroke="red" stroke-width="6.660000" />
<circle cx="617.960022" cy="649.960022" r="19.980000" fill="red">
  <title>Dhaka</title>
</circle><line x1="420.959991" y1="351.959991" x2="617.960022" y2="649.960022" stroke="red" stroke-width="6.660000" />
<circle cx="1140.959961" cy="720.960022" r="19.980000" fill="red">
  <title>Shanghai</title>
</circle><line x1="617.960022" y1="649.960022" x2="1140.959961" y2="720.960022" stroke="red" stroke-width="6.660000" />
<circle cx="1525.959961" cy="49.959999" r="19.980000" fill="red">
  <title>Mumbai</title>
</circle><line x1="1140.959961" y1="720.960022" x2="1525.959961" y2="49.959999" stroke="red" stroke-width="6.660000" />
<circle cx="1848.959961" cy="722.960022" r="19.980000" fill="red">
  <title>São Paulo</title>
</circle><line x1="1525.959961" y1="49.959999" x2="1848.959961" y2="722.960022" stroke="red" stroke-width="6.660000" />
<circle cx="1658.959961" cy="877.960022" r="19.980000" fill="red">
  <title>Cairo</title>
</circle><line x1="1848.959961" y1="722.960022" x2="1658.959961" y2="877.960022" stroke="red" stroke-width="6.660000" />
</svg>
