<?xml version="1.0" encoding="UTF-8" standalone="no"?>
<svg width="500" height="500" viewBox="0 0 2074.000000 2074.000000" xmlns="http://www.w3.org/2000/svg">
<rect x="19.000000" y="19.000000" width="2036.000000" height="2036.000000" fill="black" />
<circle cx="124.959999" cy="391.959991" r="19.980000" fill="red">
  <title>Tokyo</title>
</circle><line x1="700.960022" y1="297.959991" x2="124.959999" y2="391.959991" stroke="red" stroke-width="6.660000" />
<circle cx="409.959991" cy="964.960022" r="19.980000" fill="red">
  <title>São Paulo</title>
</circle><line x1="124.959999" y1="391.959991" x2="409.959991" y2="964.960022" stroke="red" stroke-width="6.660000" />
<circle cx="628.960022" cy="1039.959961" r="19.980000" fill="red">
  <title>Beijing</title>
</circle><line x1="409.959991" y1="964.960022" x2="628.960022" y2="1039.959961" stroke="red" stroke-width="6.660000" />
<circle cx="769.960022" cy="1758.959961" r="19.980000" fill="red">
  <title>Mexico City</title>
</circle><line x1="628.960022" y1="1039.959961" x2="769.960022" y2="1758.959961" stroke="red" stroke-width="6.660000" />
<circle cx="1177.959961" cy="1952.959961" r="19.980000" fill="red">
  <title>Delhi</title>
</circle><line x1="769.960022" y1="1758.959961" x2="1177.959961" y2="1952.959961" stroke="red" stroke-width="6.660000" />
<circle cx="1243.959961" cy="1824.959961" r="19.980000" fill="red">
  <title>Shanghai</title>
</circle><line x1="1177.959961" y1="1952.959961" x2="1243.959961" y2="1824.959961" stroke="red" stroke-width="6.660000" />
<circle cx="1756.959961" cy="1342.959961" r="19.980000" fill="red">
  <title>Cairo</title>
</circle><line x1="1243.959961" y1="1824.959961" x2="1756.959961" y2="1342.959961" stroke="red" stroke-width="6.660000" />
<circle cx="1784.959961" cy="680.960022" r="19.980000" fill="red">
  <title>Dhaka</title>
</circle><line x1="1756.959961" y1="1342.959961" x2="1784.959961" y2="680.960022" stroke="red" stroke-width="6.660000" />
<circle cx="1550.959961" cy="206.959991" r="19.980000" fill="red">
  <title>Osaka</title>
</circle><line x1="1784.959961" y1="680.960022" x2="1550.959961" y2="206.959991" stroke="red" stroke-width="6.660000" />
<circle cx="700.960022" cy="297.959991" r="19.980000" fill="red">
  <title>Mumbai</title>
</circle><line x1="1550.959961" y1="206.959991" x2="700.960022" y2="297.959991" stroke="red" stroke-width="6.660000" />
</svg>
