<?xml version="1.0" encoding="UTF-8" standalone="no"?>
<svg width="500" height="500" viewBox="0 0 2074.000000 2074.000000" xmlns="http://www.w3.org/2000/svg">
<rect x="19.000000" y="19.000000" width="2036.000000" height="2036.000000" fill="black" />
<circle cx="1908.959961" cy="1790.959961" r="19.980000" fill="red">
  <title>Tokyo</title>
</circle><line x1="2003.959961" y1="1628.959961" x2="1908.959961" y2="1790.959961" stroke="red" stroke-width="6.660000" />
<circle cx="1537.959961" cy="1721.959961" r="19.980000" fill="red">
  <title>Shanghai</title>
</circle><line x1="1908.959961" y1="1790.959961" x2="1537.959961" y2="1721.959961" stroke="red" stroke-width="6.660000" />
<circle cx="1161.959961" cy="1509.959961" r="19.980000" fill="red">
  <title>Karachi</title>
</circle><line x1="1537.959961" y1="1721.959961" x2="1161.959961" y2="1509.959961" stroke="red" stroke-width="6.660000" />
<circle cx="924.960022" cy="1718.959961" r="19.980000" fill="red">
  <title>Istanbul</title>
</circle><line x1="1161.959961" y1="1509.959961" x2="924.960022" y2="1718.959961" stroke="red" stroke-width="6.660000" />
<circle cx="121.959999" cy="2013.959961" r="19.980000" fill="red">
  <title>Mexico City</title>
</circle><line x1="924.960022" y1="1718.959961" x2="121.959999" y2="2013.959961" stroke="red" stroke-width="6.660000" />
<circle cx="245.959991" cy="1278.959961" r="19.980000" fill="red">
  <title>Mumbai</title>
</circle><line x1="121.959999" y1="2013.959961" x2="245.959991" y2="1278.959961" stroke="red" stroke-width="6.660000" />
<circle cx="484.959991" cy="577.960022" r="19.980000" fill="red">
  <title>Beijing</title>
</circle><line x1="245.959991" y1="1278.959961" x2="484.959991" y2="577.960022" stroke="red" stroke-width="6.660000" />
<circle cx="433.959991" cy="505.959991" r="19.980000" fill="red">
  <title>São Paulo</title>
</circle><line x1="484.959991" y1="577.960022" x2="433.959991" y2="505.959991" stroke="red" stroke-width="6.660000" />
<circle cx="579.960022" cy="428.959991" r="19.980000" fill="red">
  <title>Buenos Aires</title>
</circle><line x1="433.959991" y1="505.959991" x2="579.960022" y2="428.959991" stroke="red" stroke-width="6.660000" />
<circle cx="851.960022" cy="674.960022" r="19.980000" fill="red">
  <title>New York</title>
</circle><line x1="579.960022" y1="428.959991" x2="851.960022" y2="674.960022" stroke="red" stroke-width="6.660000" />
<circle cx="1307.959961" cy="71.959999" r="19.980000" fill="red">
  <title>Dhaka</title>
</circle><line x1="851.960022" y1="674.960022" x2="1307.959961" y2="71.959999" stroke="red" stroke-width="6.660000" />
<circle cx="1270.959961" cy="794.960022" r="19.980000" fill="red">
  <title>Kolkata</title>
</circle><line x1="1307.959961" y1="71.959999" x2="1270.959961" y2="794.960022" stroke="red" stroke-width="6.660000" />
<circle cx="956.960022" cy="1120.959961" r="19.980000" fill="red">
  <title>Cairo</title>
</circle><line x1="1270.959961" y1="794.960022" x2="956.960022" y2="1120.959961" stroke="red" stroke-width="6.660000" />
<circle cx="1471.959961" cy="1200.959961" r="19.980000" fill="red">
  <title>Manila</title>
</circle><line x1="956.960022" y1="1120.959961" x2="1471.959961" y2="1200.959961" stroke="red" stroke-width="6.660000" />
<circle cx="1967.959961" cy="962.960022" r="19.980000" fill="red">
  <title>Delhi</title>
</circle><line x1="1471.959961" y1="1200.959961" x2="1967.959961" y2="962.960022" stroke="red" stroke-width="6.660000" />
<circle cx="1980.959961" cy="1462.959961" r="19.980000" fill="red">
  <title>Osaka</title>
</circle><line x1="1967.959961" y1="962.960022" x2="1980.959961" y2="1462.959961" stroke="red" stroke-width="6.660000" />
<circle cx="2003.959961" cy="1628.959961" r="19.980000" fill="red">
  <title>Chongqing</title>
</circle><line x1="1980.959961" y1="1462.959961" x2="2003.959961" y2="1628.959961" stroke="red" stroke-width="6.660000" />
</svg>
