<?xml version="1.0" encoding="UTF-8" standalone="no"?>
<svg width="500" height="500" viewBox="0 0 2074.000000 2074.000000" xmlns="http://www.w3.org/2000/svg">
<rect x="19.000000" y="19.000000" width="2036.000000" height="2036.000000" fill="black" />
<circle cx="803.960022" cy="802.960022" r="19.980000" fill="red">
  <title>Tokyo</title>
</circle><line x1="1493.959961" y1="297.959991" x2="803.960022" y2="802.960022" stroke="red" stroke-width="6.660000" />
<circle cx="357.959991" cy="361.959991" r="19.980000" fill="red">
  <title>Shanghai</title>
</circle><line x1="803.960022" y1="802.960022" x2="357.959991" y2="361.959991" stroke="red" stroke-width="6.660000" />
<circle cx="167.959991" cy="1320.959961" r="19.980000" fill="red">
  <title>Mumbai</title>
</circle><line x1="357.959991" y1="361.959991" x2="167.959991" y2="1320.959961" stroke="red" stroke-width="6.660000" />
<circle cx="252.959991" cy="1503.959961" r="19.980000" fill="red">
  <title>Mexico City</title>
</circle><line x1="167.959991" y1="1320.959961" x2="252.959991" y2="1503.959961" stroke="red" stroke-width="6.660000" />
<circle cx="959.960022" cy="1877.959961" r="19.980000" fill="red">
  <title>São Paulo</title>
</circle><line x1="252.959991" y1="1503.959961" x2="959.960022" y2="1877.959961" stroke="red" stroke-width="6.660000" />
<circle cx="882.960022" cy="1240.959961" r="19.980000" fill="red">
  <title>Osaka</title>
</circle><line x1="959.960022" y1="1877.959961" x2="882.960022" y2="1240.959961" stroke="red" stroke-width="6.660000" />
<circle cx="942.960022" cy="1121.959961" r="19.980000" fill="red">
  <title>Beijing</title>
</circle><line x1="882.960022" y1="1240.959961" x2="942.960022" y2="1121.959961" stroke="red" stroke-width="6.660000" />
<circle cx="1164.959961" cy="1369.959961" r="19.980000" fill="red">
  <title>Delhi</title>
</circle><line x1="942.960022" y1="1121.959961" x2="1164.959961" y2="1369.959961" stroke="red" stroke-width="6.660000" />
<circle cx="2001.959961" cy="1019.960022" r="19.980000" fill="red">
  <title>Cairo</title>
</circle><line x1="1164.959961" y1="1369.959961" x2="2001.959961" y2="1019.960022" stroke="red" stroke-width="6.660000" />
<circle cx="1493.959961" cy="297.959991" r="19.980000" fill="red">
  <title>Dhaka</title>
</circle><line x1="2001.959961" y1="1019.960022" x2="1493.959961" y2="297.959991" stroke="red" stroke-width="6.660000" />
</svg>
