<?xml version="1.0" encoding="UTF-8" standalone="no"?>
<svg width="500" height="500" viewBox="0 0 2074.000000 2074.000000" xmlns="http://www.w3.org/2000/svg">
<rect x="19.000000" y="19.000000" width="2036.000000" height="2036.000000" fill="black" />
<circle cx="304.959991" cy="1762.959961" r="19.980000" fill="red">
  <title>Tokyo</title>
</circle><line x1="795.960022" y1="1834.959961" x2="304.959991" y2="1762.959961" stroke="red" stroke-width="6.660000" />
<circle cx="145.959991" cy="1274.959961" r="19.980000" fill="red">
  <title>São Paulo</title>
</circle><line x1="304.959991" y1="1762.959961" x2="145.959991" y2="1274.959961" stroke="red" stroke-width="6.660000" />
<circle cx="381.959991" cy="1000.960022" r="19.980000" fill="red">
  <title>Delhi</title>
</circle><line x1="145.959991" y1="1274.959961" x2="381.959991" y2="1000.960022" stroke="red" stroke-width="6.660000" />
<circle cx="1047.959961" cy="682.960022" r="19.980000" fill="red">
  <title>Shanghai</title>
</circle><line x1="381.959991" y1="1000.960022" x2="1047.959961" y2="682.960022" stroke="red" stroke-width="6.660000" />
<circle cx="795.960022" cy="1834.959961" r="19.980000" fill="red">
  <title>Mexico City</title>
</circle><line x1="1047.959961" y1="682.960022" x2="795.960022" y2="1834.959961" stroke="red" stroke-width="6.660000" />
</svg>
