<?xml version="1.0" encoding="UTF-8" standalone="no"?>
<svg width="500" height="500" viewBox="0 0 2074.000000 2074.000000" xmlns="http://www.w3.org/2000/svg">
<rect x="19.000000" y="19.000000" width="2036.000000" height="2036.000000" fill="black" />
<circle cx="329.959991" cy="1319.959961" r="19.980000" fill="red">
  <title>Tokyo</title>
</circle><line x1="83.959999" y1="1313.959961" x2="329.959991" y2="1319.959961" stroke="red" stroke-width="6.660000" />
<circle cx="376.959991" cy="1325.959961" r="19.980000" fill="red">
  <title>Delhi</title>
</circle><line x1="329.959991" y1="1319.959961" x2="376.959991" y2="1325.959961" stroke="red" stroke-width="6.660000" />
<circle cx="288.959991" cy="1451.959961" r="19.980000" fill="red">
  <title>Shanghai</title>
</circle><line x1="376.959991" y1="1325.959961" x2="288.959991" y2="1451.959961" stroke="red" stroke-width="6.660000" />
<circle cx="209.959991" cy="1904.959961" r="19.980000" fill="red">
  <title>Beijing</title>
</circle><line x1="288.959991" y1="1451.959961" x2="209.959991" y2="1904.959961" stroke="red" stroke-width="6.660000" />
<circle cx="362.959991" cy="1972.959961" r="19.980000" fill="red">
  <title>Chongqing</title>
</circle><line x1="209.959991" y1="1904.959961" x2="362.959991" y2="1972.959961" stroke="red" stroke-width="6.660000" />
<circle cx="851.960022" cy="1535.959961" r="19.980000" fill="red">
  <title>Cairo</title>
</circle><line x1="362.959991" y1="1972.959961" x2="851.960022" y2="1535.959961" stroke="red" stroke-width="6.660000" />
<circle cx="1300.959961" cy="1970.959961" r="19.980000" fill="red">
  <title>Osaka</title>
</circle><line x1="851.960022" y1="1535.959961" x2="1300.959961" y2="1970.959961" stroke="red" stroke-width="6.660000" />
<circle cx="1635.959961" cy="1515.959961" r="19.980000" fill="red">
  <title>Rio de Janeiro</title>
</circle><line x1="1300.959961" y1="1970.959961" x2="1635.959961" y2="1515.959961" stroke="red" stroke-width="6.660000" />
<circle cx="2008.959961" cy="1696.959961" r="19.980000" fill="red">
  <title>Buenos Aires</title>
</circle><line x1="1635.959961" y1="1515.959961" x2="2008.959961" y2="1696.959961" stroke="red" stroke-width="6.660000" />
<circle cx="1884.959961" cy="1547.959961" r="19.980000" fill="red">
  <title>Kolkata</title>
</circle><line x1="2008.959961" y1="1696.959961" x2="1884.959961" y2="1547.959961" stroke="red" stroke-width="6.660000" />
<circle cx="1494.959961" cy="1438.959961" r="19.980000" fill="red">
  <title>Mexico City</title>
</circle><line x1="1884.959961" y1="1547.959961" x2="1494.959961" y2="1438.959961" stroke="red" stroke-width="6.660000" />
<circle cx="1333.959961" cy="1091.959961" r="19.980000" fill="red">
  <title>Tianjin</title>
</circle><line x1="1494.959961" y1="1438.959961" x2="1333.959961" y2="1091.959961" stroke="red" stroke-width="6.660000" />
<circle cx="1256.959961" cy="1040.959961" r="19.980000" fill="red">
  <title>Istanbul</title>
</circle><line x1="1333.959961" y1="1091.959961" x2="1256.959961" y2="1040.959961" stroke="red" stroke-width="6.660000" />
<circle cx="718.960022" cy="800.960022" r="19.980000" fill="red">
  <title>São Paulo</title>
</circle><line x1="1256.959961" y1="1040.959961" x2="718.960022" y2="800.960022" stroke="red" stroke-width="6.660000" />
<circle cx="835.960022" cy="572.960022" r="19.980000" fill="red">
  <title>Lagos</title>
</circle><line x1="718.960022" y1="800.960022" x2="835.960022" y2="572.960022" stroke="red" stroke-width="6.660000" />
<circle cx="829.960022" cy="532.960022" r="19.980000" fill="red">
  <title>Dhaka</title>
</circle><line x1="835.960022" y1="572.960022" x2="829.960022" y2="532.960022" stroke="red" stroke-width="6.660000" />
<circle cx="322.959991" cy="223.959991" r="19.980000" fill="red">
  <title>Manila</title>
</circle><line x1="829.960022" y1="532.960022" x2="322.959991" y2="223.959991" stroke="red" stroke-width="6.660000" />
<circle cx="364.959991" cy="501.959991" r="19.980000" fill="red">
  <title>New York</title>
</circle><line x1="322.959991" y1="223.959991" x2="364.959991" y2="501.959991" stroke="red" stroke-width="6.660000" />
<circle cx="158.959991" cy="774.960022" r="19.980000" fill="red">
  <title>Mumbai</title>
</circle><line x1="364.959991" y1="501.959991" x2="158.959991" y2="774.960022" stroke="red" stroke-width="6.660000" />
<circle cx="83.959999" cy="1313.959961" r="19.980000" fill="red">
  <title>Karachi</title>
</circle><line x1="158.959991" y1="774.960022" x2="83.959999" y2="1313.959961" stroke="red" stroke-width="6.660000" />
</svg>
