<?xml version="1.0" encoding="UTF-8" standalone="no"?>
<svg width="500" height="500" viewBox="0 0 2074.000000 2074.000000" xmlns="http://www.w3.org/2000/svg">
<rect x="19.000000" y="19.000000" width="2036.000000" height="2036.000000" fill="black" />
<circle cx="847.960022" cy="761.960022" r="19.980000" fill="red">
  <title>Tokyo</title>
</circle><line x1="1762.959961" y1="956.960022" x2="847.960022" y2="761.960022" stroke="red" stroke-width="6.660000" />
<circle cx="374.959991" cy="893.960022" r="19.980000" fill="red">
  <title>Delhi</title>
</circle><line x1="847.960022" y1="761.960022" x2="374.959991" y2="893.960022" stroke="red" stroke-width="6.660000" />
<circle cx="575.960022" cy="1282.959961" r="19.980000" fill="red">
  <title>São Paulo</title>
</circle><line x1="374.959991" y1="893.960022" x2="575.960022" y2="1282.959961" stroke="red" stroke-width="6.660000" />
<circle cx="1487.959961" cy="957.960022" r="19.980000" fill="red">
  <title>Shanghai</title>
</circle><line x1="575.960022" y1="1282.959961" x2="1487.959961" y2="957.960022" stroke="red" stroke-width="6.660000" />
<circle cx="1762.959961" cy="956.960022" r="19.980000" fill="red">
  <title>Mexico City</title>
</circle><line x1="1487.959961" y1="957.960022" x2="1762.959961" y2="956.960022" stroke="red" stroke-width="6.660000" />
</svg>
