<?xml version="1.0" encoding="UTF-8" standalone="no"?>
<svg width="500" height="500" viewBox="0 0 2074.000000 2074.000000" xmlns="http://www.w3.org/2000/svg">
<rect x="19.000000" y="19.000000" width="2036.000000" height="2036.000000" fill="black" />
<circle cx="723.960022" cy="1271.959961" r="19.980000" fill="red">
  <title>Tokyo</title>
</circle><line x1="1415.959961" y1="1083.959961" x2="723.960022" y2="1271.959961" stroke="red" stroke-width="6.660000" />
<circle cx="552.960022" cy="1543.959961" r="19.980000" fill="red">
  <title>Beijing</title>
</circle><line x1="723.960022" y1="1271.959961" x2="552.960022" y2="1543.959961" stroke="red" stroke-width="6.660000" />
<circle cx="293.959991" cy="1157.959961" r="19.980000" fill="red">
  <title>Istanbul</title>
</circle><line x1="552.960022" y1="1543.959961" x2="293.959991" y2="1157.959961" stroke="red" stroke-width="6.660000" />
<circle cx="644.960022" cy="1019.960022" r="19.980000" fill="red">
  <title>Osaka</title>
</circle><line x1="293.959991" y1="1157.959961" x2="644.960022" y2="1019.960022" stroke="red" stroke-width="6.660000" />
<circle cx="443.959991" cy="1019.960022" r="19.980000" fill="red">
  <title>Mumbai</title>
</circle><line x1="644.960022" y1="1019.960022" x2="443.959991" y2="1019.960022" stroke="red" stroke-width="6.660000" />
<circle cx="167.959991" cy="697.960022" r="19.980000" fill="red">
  <title>São Paulo</title>
</circle><line x1="443.959991" y1="1019.960022" x2="167.959991" y2="697.960022" stroke="red" stroke-width="6.660000" />
<circle cx="181.959991" cy="516.960022" r="19.980000" fill="red">
  <title>New York</title>
</circle><line x1="167.959991" y1="697.960022" x2="181.959991" y2="516.960022" stroke="red" stroke-width="6.660000" />
<circle cx="794.960022" cy="93.959999" r="19.980000" fill="red">
  <title>Mexico City</title>
</circle><line x1="181.959991" y1="516.960022" x2="794.960022" y2="93.959999" stroke="red" stroke-width="6.660000" />
<circle cx="1094.959961" cy="307.959991" r="19.980000" fill="red">
  <title>Delhi</title>
</circle><line x1="794.960022" y1="93.959999" x2="1094.959961" y2="307.959991" stroke="red" stroke-width="6.660000" />
<circle cx="1432.959961" cy="423.959991" r="19.980000" fill="red">
  <title>Chongqing</title>
</circle><line x1="1094.959961" y1="307.959991" x2="1432.959961" y2="423.959991" stroke="red" stroke-width="6.660000" />
<circle cx="1826.959961" cy="68.959999" r="19.980000" fill="red">
  <title>Cairo</title>
</circle><line x1="1432.959961" y1="423.959991" x2="1826.959961" y2="68.959999" stroke="red" stroke-width="6.660000" />
<circle cx="1847.959961" cy="226.959991" r="19.980000" fill="red">
  <title>Dhaka</title>
</circle><line x1="1826.959961" y1="68.959999" x2="1847.959961" y2="226.959991" stroke="red" stroke-width="6.660000" />
<circle cx="1948.959961" cy="898.960022" r="19.980000" fill="red">
  <title>Buenos Aires</title>
</circle><line x1="1847.959961" y1="226.959991" x2="1948.959961" y2="898.960022" stroke="red" stroke-width="6.660000" />
<circle cx="1932.959961" cy="977.960022" r="19.980000" fill="red">
  <title>Kolkata</title>
</circle><line x1="1948.959961" y1="898.960022" x2="1932.959961" y2="977.960022" stroke="red" stroke-width="6.660000" />
<circle cx="1898.959961" cy="1022.960022" r="19.980000" fill="red">
  <title>Shanghai</title>
</circle><line x1="1932.959961" y1="977.960022" x2="1898.959961" y2="1022.960022" stroke="red" stroke-width="6.660000" />
<circle cx="1415.959961" cy="1083.959961" r="19.980000" fill="red">
  <title>Karachi</title>
</circle><line x1="1898.959961" y1="1022.960022" x2="1415.959961" y2="1083.959961" stroke="red" stroke-width="6.660000" />
</svg>
