<?xml version="1.0" encoding="UTF-8" standalone="no"?>
<svg width="500" height="500" viewBox="0 0 2074.000000 2074.000000" xmlns="http://www.w3.org/2000/svg">
<rect x="19.000000" y="19.000000" width="2036.000000" height="2036.000000" fill="black" />
<circle cx="450.959991" cy="427.959991" r="19.980000" fill="red">
  <title>Tokyo</title>
</circle><line x1="833.960022" y1="1243.959961" x2="450.959991" y2="427.959991" stroke="red" stroke-width="6.660000" />
<circle cx="930.960022" cy="285.959991" r="19.980000" fill="red">
  <title>Shanghai</title>
</circle><line x1="450.959991" y1="427.959991" x2="930.960022" y2="285.959991" stroke="red" stroke-width="6.660000" />
<circle cx="909.960022" cy="449.959991" r="19.980000" fill="red">
  <title>Mexico City</title>
</circle><line x1="930.960022" y1="285.959991" x2="909.960022" y2="449.959991" stroke="red" stroke-width="6.660000" />
<circle cx="1694.959961" cy="614.960022" r="19.980000" fill="red">
  <title>Cairo</title>
</circle><line x1="909.960022" y1="449.959991" x2="1694.959961" y2="614.960022" stroke="red" stroke-width="6.660000" />
<circle cx="1935.959961" cy="953.960022" r="19.980000" fill="red">
  <title>Mumbai</title>
</circle><line x1="1694.959961" y1="614.960022" x2="1935.959961" y2="953.960022" stroke="red" stroke-width="6.660000" />
<circle cx="1407.959961" cy="1872.959961" r="19.980000" fill="red">
  <title>Delhi</title>
</circle><line x1="1935.959961" y1="953.960022" x2="1407.959961" y2="1872.959961" stroke="red" stroke-width="6.660000" />
<circle cx="833.960022" cy="1243.959961" r="19.980000" fill="red">
  <title>São Paulo</title>
</circle><line x1="1407.959961" y1="1872.959961" x2="833.960022" y2="1243.959961" stroke="red" stroke-width="6.660000" />
</svg>
