<?xml version="1.0" encoding="UTF-8" standalone="no"?>
<svg width="500" height="500" viewBox="0 0 2074.000000 2074.000000" xmlns="http://www.w3.org/2000/svg">
<rect x="19.000000" y="19.000000" width="2036.000000" height="2036.000000" fill="black" />
<circle cx="690.960022" cy="1375.959961" r="19.980000" fill="red">
  <title>Tokyo</title>
</circle><line x1="447.959991" y1="1296.959961" x2="690.960022" y2="1375.959961" stroke="red" stroke-width="6.660000" />
<circle cx="627.960022" cy="1616.959961" r="19.980000" fill="red">
  <title>Cairo</title>
</circle><line x1="690.960022" y1="1375.959961" x2="627.960022" y2="1616.959961" stroke="red" stroke-width="6.660000" />
<circle cx="521.960022" cy="2003.959961" r="19.980000" fill="red">
  <title>Delhi</title>
</circle><line x1="627.960022" y1="1616.959961" x2="521.960022" y2="2003.959961" stroke="red" stroke-width="6.660000" />
<circle cx="593.960022" cy="1757.959961" r="19.980000" fill="red">
  <title>Dhaka</title>
</circle><line x1="521.960022" y1="2003.959961" x2="593.960022" y2="1757.959961" stroke="red" stroke-width="6.660000" />
<circle cx="1558.959961" cy="1862.959961" r="19.980000" fill="red">
  <title>Shanghai</title>
</circle><line x1="593.960022" y1="1757.959961" x2="1558.959961" y2="1862.959961" stroke="red" stroke-width="6.660000" />
<circle cx="1343.959961" cy="1168.959961" r="19.980000" fill="red">
  <title>New York</title>
</circle><line x1="1558.959961" y1="1862.959961" x2="1343.959961" y2="1168.959961" stroke="red" stroke-width="6.660000" />
<circle cx="1315.959961" cy="851.960022" r="19.980000" fill="red">
  <title>Chongqing</title>
</circle><line x1="1343.959961" y1="1168.959961" x2="1315.959961" y2="851.960022" stroke="red" stroke-width="6.660000" />
<circle cx="1822.959961" cy="933.960022" r="19.980000" fill="red">
  <title>Mumbai</title>
</circle><line x1="1315.959961" y1="851.960022" x2="1822.959961" y2="933.960022" stroke="red" stroke-width="6.660000" />
<circle cx="2005.959961" cy="403.959991" r="19.980000" fill="red">
  <title>Mexico City</title>
</circle><line x1="1822.959961" y1="933.960022" x2="2005.959961" y2="403.959991" stroke="red" stroke-width="6.660000" />
<circle cx="1651.959961" cy="274.959991" r="19.980000" fill="red">
  <title>Buenos Aires</title>
</circle><line x1="2005.959961" y1="403.959991" x2="1651.959961" y2="274.959991" stroke="red" stroke-width="6.660000" />
<circle cx="1153.959961" cy="252.959991" r="19.980000" fill="red">
  <title>Beijing</title>
</circle><line x1="1651.959961" y1="274.959991" x2="1153.959961" y2="252.959991" stroke="red" stroke-width="6.660000" />
<circle cx="629.960022" cy="119.959999" r="19.980000" fill="red">
  <title>Osaka</title>
</circle><line x1="1153.959961" y1="252.959991" x2="629.960022" y2="119.959999" stroke="red" stroke-width="6.660000" />
<circle cx="491.959991" cy="183.959991" r="19.980000" fill="red">
  <title>São Paulo</title>
</circle><line x1="629.960022" y1="119.959999" x2="491.959991" y2="183.959991" stroke="red" stroke-width="6.660000" />
<circle cx="515.960022" cy="398.959991" r="19.980000" fill="red">
  <title>Istanbul</title>
</circle><line x1="491.959991" y1="183.959991" x2="515.960022" y2="398.959991" stroke="red" stroke-width="6.660000" />
<circle cx="447.959991" cy="1296.959961" r="19.980000" fill="red">
  <title>Karachi</title>
</circle><line x1="515.960022" y1="398.959991" x2="447.959991" y2="1296.959961" stroke="red" stroke-width="6.660000" />
</svg>
