<?xml version="1.0" encoding="UTF-8" standalone="no"?>
<svg width="500" height="500" viewBox="0 0 2074.000000 2074.000000" xmlns="http://www.w3.org/2000/svg">
<rect x="19.000000" y="19.000000" width="2036.000000" height="2036.000000" fill="black" />
<circle cx="1503.959961" cy="1255.959961" r="19.980000" fill="red">
  <title>Tokyo</title>
</circle><line x1="1489.959961" y1="945.960022" x2="1503.959961" y2="1255.959961" stroke="red" stroke-width="6.660000" />
<circle cx="1789.959961" cy="1864.959961" r="19.980000" fill="red">
  <title>Delhi</title>
</circle><line x1="1503.959961" y1="1255.959961" x2="1789.959961" y2="1864.959961" stroke="red" stroke-width="6.660000" />
<circle cx="796.960022" cy="1780.959961" r="19.980000" fill="red">
  <title>Mexico City</title>
</circle><line x1="1789.959961" y1="1864.959961" x2="796.960022" y2="1780.959961" stroke="red" stroke-width="6.660000" />
<circle cx="838.960022" cy="1650.959961" r="19.980000" fill="red">
  <title>Cairo</title>
</circle><line x1="796.960022" y1="1780.959961" x2="838.960022" y2="1650.959961" stroke="red" stroke-width="6.660000" />
<circle cx="128.959991" cy="747.960022" r="19.980000" fill="red">
  <title>Mumbai</title>
</circle><line x1="838.960022" y1="1650.959961" x2="128.959991" y2="747.960022" stroke="red" stroke-width="6.660000" />
<circle cx="182.959991" cy="348.959991" r="19.980000" fill="red">
  <title>São Paulo</title>
</circle><line x1="128.959991" y1="747.960022" x2="182.959991" y2="348.959991" stroke="red" stroke-width="6.660000" />
<circle cx="1489.959961" cy="945.960022" r="19.980000" fill="red">
  <title>Shanghai</title>
</circle><line x1="182.959991" y1="348.959991" x2="1489.959961" y2="945.960022" stroke="red" stroke-width="6.660000" />
</svg>
