<?xml version="1.0" encoding="UTF-8" standalone="no"?>
<svg width="500" height="500" viewBox="0 0 2074.000000 2074.000000" xmlns="http://www.w3.org/2000/svg">
<rect x="19.000000" y="19.000000" width="2036.000000" height="2036.000000" fill="black" />
<circle cx="357.959991" cy="188.959991" r="19.980000" fill="red">
  <title>Tokyo</title>
</circle><line x1="172.959991" y1="43.959999" x2="357.959991" y2="188.959991" stroke="red" stroke-width="6.660000" />
<circle cx="765.960022" cy="233.959991" r="19.980000" fill="red">
  <title>Cairo</title>
</circle><line x1="357.959991" y1="188.959991" x2="765.960022" y2="233.959991" stroke="red" stroke-width="6.660000" />
<circle cx="747.960022" cy="454.959991" r="19.980000" fill="red">
  <title>Mumbai</title>
</circle><line x1="765.960022" y1="233.959991" x2="747.960022" y2="454.959991" stroke="red" stroke-width="6.660000" />
<circle cx="908.960022" cy="382.959991" r="19.980000" fill="red">
  <title>New York</title>
</circle><line x1="747.960022" y1="454.959991" x2="908.960022" y2="382.959991" stroke="red" stroke-width="6.660000" />
<circle cx="1435.959961" cy="351.959991" r="19.980000" fill="red">
  <title>São Paulo</title>
</circle><line x1="908.960022" y1="382.959991" x2="1435.959961" y2="351.959991" stroke="red" stroke-width="6.660000" />
<circle cx="1974.959961" cy="305.959991" r="19.980000" fill="red">
  <title>Istanbul</title>
</circle><line x1="1435.959961" y1="351.959991" x2="1974.959961" y2="305.959991" stroke="red" stroke-width="6.660000" />
<circle cx="1608.959961" cy="1086.959961" r="19.980000" fill="red">
  <title>Dhaka</title>
</circle><line x1="1974.959961" y1="305.959991" x2="1608.959961" y2="1086.959961" stroke="red" stroke-width="6.660000" />
<circle cx="2021.959961" cy="1823.959961" r="19.980000" fill="red">
  <title>Mexico City</title>
</circle><line x1="1608.959961" y1="1086.959961" x2="2021.959961" y2="1823.959961" stroke="red" stroke-width="6.660000" />
<circle cx="1221.959961" cy="1327.959961" r="19.980000" fill="red">
  <title>Osaka</title>
</circle><line x1="2021.959961" y1="1823.959961" x2="1221.959961" y2="1327.959961" stroke="red" stroke-width="6.660000" />
<circle cx="1021.960022" cy="1850.959961" r="19.980000" fill="red">
  <title>Shanghai</title>
</circle><line x1="1221.959961" y1="1327.959961" x2="1021.960022" y2="1850.959961" stroke="red" stroke-width="6.660000" />
<circle cx="270.959991" cy="1868.959961" r="19.980000" fill="red">
  <title>Karachi</title>
</circle><line x1="1021.960022" y1="1850.959961" x2="270.959991" y2="1868.959961" stroke="red" stroke-width="6.660000" />
<circle cx="905.960022" cy="1161.959961" r="19.980000" fill="red">
  <title>Beijing</title>
</circle><line x1="270.959991" y1="1868.959961" x2="905.960022" y2="1161.959961" stroke="red" stroke-width="6.660000" />
<circle cx="602.960022" cy="924.960022" r="19.980000" fill="red">
  <title>Delhi</title>
</circle><line x1="905.960022" y1="1161.959961" x2="602.960022" y2="924.960022" stroke="red" stroke-width="6.660000" />
<circle cx="455.959991" cy="965.960022" r="19.980000" fill="red">
  <title>Manila</title>
</circle><line x1="602.960022" y1="924.960022" x2="455.959991" y2="965.960022" stroke="red" stroke-width="6.660000" />
<circle cx="479.959991" cy="752.960022" r="19.980000" fill="red">
  <title>Chongqing</title>
</circle><line x1="455.959991" y1="965.960022" x2="479.959991" y2="752.960022" stroke="red" stroke-width="6.660000" />
<circle cx="401.959991" cy="294.959991" r="19.980000" fill="red">
  <title>Kolkata</title>
</circle><line x1="479.959991" y1="752.960022" x2="401.959991" y2="294.959991" stroke="red" stroke-width="6.660000" />
<circle cx="172.959991" cy="43.959999" r="19.980000" fill="red">
  <title>Buenos Aires</title>
</circle><line x1="401.959991" y1="294.959991" x2="172.959991" y2="43.959999" stroke="red" stroke-width="6.660000" />
</svg>
