<?xml version="1.0" encoding="UTF-8" standalone="no"?>
<svg width="500" height="500" viewBox="0 0 2074.000000 2074.000000" xmlns="http://www.w3.org/2000/svg">
<rect x="19.000000" y="19.000000" width="2036.000000" height="2036.000000" fill="black" />
<circle cx="1376.959961" cy="943.960022" r="19.980000" fill="red">
  <title>Tokyo</title>
</circle><line x1="1952.959961" y1="611.960022" x2="1376.959961" y2="943.960022" stroke="red" stroke-width="6.660000" />
<circle cx="109.959999" cy="1430.959961" r="19.980000" fill="red">
  <title>Delhi</title>
</circle><line x1="1376.959961" y1="943.960022" x2="109.959999" y2="1430.959961" stroke="red" stroke-width="6.660000" />
<circle cx="1599.959961" cy="171.959991" r="19.980000" fill="red">
  <title>São Paulo</title>
</circle><line x1="109.959999" y1="1430.959961" x2="1599.959961" y2="171.959991" stroke="red" stroke-width="6.660000" />
<circle cx="1952.959961" cy="611.960022" r="19.980000" fill="red">
  <title>Shanghai</title>
</circle><line x1="1599.959961" y1="171.959991" x2="1952.959961" y2="611.960022" stroke="red" stroke-width="6.660000" />
</svg>
