<?xml version="1.0" encoding="UTF-8" standalone="no"?>
<svg width="500" height="500" viewBox="0 0 2074.000000 2074.000000" xmlns="http://www.w3.org/2000/svg">
<rect x="19.000000" y="19.000000" width="2036.000000" height="2036.000000" fill="black" />
<circle cx="1890.959961" cy="1169.959961" r="19.980000" fill="red">
  <title>Tokyo</title>
</circle><line x1="928.960022" y1="161.959991" x2="1890.959961" y2="1169.959961" stroke="red" stroke-width="6.660000" />
<circle cx="1981.959961" cy="1244.959961" r="19.980000" fill="red">
  <title>Delhi</title>
</circle><line x1="1890.959961" y1="1169.959961" x2="1981.959961" y2="1244.959961" stroke="red" stroke-width="6.660000" />
<circle cx="1895.959961" cy="1620.959961" r="19.980000" fill="red">
  <title>São Paulo</title>
</circle><line x1="1981.959961" y1="1244.959961" x2="1895.959961" y2="1620.959961" stroke="red" stroke-width="6.660000" />
<circle cx="1787.959961" cy="1379.959961" r="19.980000" fill="red">
  <title>Cairo</title>
</circle><line x1="1895.959961" y1="1620.959961" x2="1787.959961" y2="1379.959961" stroke="red" stroke-width="6.660000" />
<circle cx="1445.959961" cy="1198.959961" r="19.980000" fill="red">
  <title>Beijing</title>
</circle><line x1="1787.959961" y1="1379.959961" x2="1445.959961" y2="1198.959961" stroke="red" stroke-width="6.660000" />
<circle cx="344.959991" cy="1609.959961" r="19.980000" fill="red">
  <title>Shanghai</title>
</circle><line x1="1445.959961" y1="1198.959961" x2="344.959991" y2="1609.959961" stroke="red" stroke-width="6.660000" />
<circle cx="278.959991" cy="1046.959961" r="19.980000" fill="red">
  <title>Mexico City</title>
</circle><line x1="344.959991" y1="1609.959961" x2="278.959991" y2="1046.959961" stroke="red" stroke-width="6.660000" />
<circle cx="110.959999" cy="735.960022" r="19.980000" fill="red">
  <title>Dhaka</title>
</circle><line x1="278.959991" y1="1046.959961" x2="110.959999" y2="735.960022" stroke="red" stroke-width="6.660000" />
<circle cx="928.960022" cy="161.959991" r="19.980000" fill="red">
  <title>Mumbai</title>
</circle><line x1="110.959999" y1="735.960022" x2="928.960022" y2="161.959991" stroke="red" stroke-width="6.660000" />
</svg>
