<?xml version="1.0" encoding="UTF-8" standalone="no"?>
<svg width="500" height="500" viewBox="0 0 2074.000000 2074.000000" xmlns="http://www.w3.org/2000/svg">
<rect x="19.000000" y="19.000000" width="2036.000000" height="2036.000000" fill="black" />
<circle cx="883.960022" cy="583.960022" r="19.980000" fill="red">
  <title>Tokyo</title>
</circle><line x1="1040.959961" y1="167.959991" x2="883.960022" y2="583.960022" stroke="red" stroke-width="6.660000" />
<circle cx="1138.959961" cy="802.960022" r="19.980000" fill="red">
  <title>Karachi</title>
</circle><line x1="883.960022" y1="583.960022" x2="1138.959961" y2="802.960022" stroke="red" stroke-width="6.660000" />
<circle cx="1307.959961" cy="737.960022" r="19.980000" fill="red">
  <title>Buenos Aires</title>
</circle><line x1="1138.959961" y1="802.960022" x2="1307.959961" y2="737.960022" stroke="red" stroke-width="6.660000" />
<circle cx="1684.959961" cy="690.960022" r="19.980000" fill="red">
  <title>Rio de Janeiro</title>
</circle><line x1="1307.959961" y1="737.960022" x2="1684.959961" y2="690.960022" stroke="red" stroke-width="6.660000" />
<circle cx="1904.959961" cy="521.960022" r="19.980000" fill="red">
  <title>Mexico City</title>
</circle><line x1="1684.959961" y1="690.960022" x2="1904.959961" y2="521.960022" stroke="red" stroke-width="6.660000" />
<circle cx="1878.959961" cy="259.959991" r="19.980000" fill="red">
  <title>New York</title>
</circle><line x1="1904.959961" y1="521.960022" x2="1878.959961" y2="259.959991" stroke="red" stroke-width="6.660000" />
<circle cx="1998.959961" cy="649.960022" r="19.980000" fill="red">
  <title>Manila</title>
</circle><line x1="1878.959961" y1="259.959991" x2="1998.959961" y2="649.960022" stroke="red" stroke-width="6.660000" />
<circle cx="1967.959961" cy="1160.959961" r="19.980000" fill="red">
  <title>Beijing</title>
</circle><line x1="1998.959961" y1="649.960022" x2="1967.959961" y2="1160.959961" stroke="red" stroke-width="6.660000" />
<circle cx="1699.959961" cy="1181.959961" r="19.980000" fill="red">
  <title>Mumbai</title>
</circle><line x1="1967.959961" y1="1160.959961" x2="1699.959961" y2="1181.959961" stroke="red" stroke-width="6.660000" />
<circle cx="1698.959961" cy="1511.959961" r="19.980000" fill="red">
  <title>Osaka</title>
</circle><line x1="1699.959961" y1="1181.959961" x2="1698.959961" y2="1511.959961" stroke="red" stroke-width="6.660000" />
<circle cx="2001.959961" cy="1999.959961" r="19.980000" fill="red">
  <title>Lagos</title>
</circle><line x1="1698.959961" y1="1511.959961" x2="2001.959961" y2="1999.959961" stroke="red" stroke-width="6.660000" />
<circle cx="1600.959961" cy="1454.959961" r="19.980000" fill="red">
  <title>Istanbul</title>
</circle><line x1="2001.959961" y1="1999.959961" x2="1600.959961" y2="1454.959961" stroke="red" stroke-width="6.660000" />
<circle cx="1059.959961" cy="1551.959961" r="19.980000" fill="red">
  <title>Tianjin</title>
</circle><line x1="1600.959961" y1="1454.959961" x2="1059.959961" y2="1551.959961" stroke="red" stroke-width="6.660000" />
<circle cx="726.960022" cy="1098.959961" r="19.980000" fill="red">
  <title>São Paulo</title>
</circle><line x1="1059.959961" y1="1551.959961" x2="726.960022" y2="1098.959961" stroke="red" stroke-width="6.660000" />
<circle cx="511.959991" cy="1217.959961" r="19.980000" fill="red">
  <title>Dhaka</title>
</circle><line x1="726.960022" y1="1098.959961" x2="511.959991" y2="1217.959961" stroke="red" stroke-width="6.660000" />
<circle cx="409.959991" cy="1594.959961" r="19.980000" fill="red">
  <title>Delhi</title>
</circle><line x1="511.959991" y1="1217.959961" x2="409.959991" y2="1594.959961" stroke="red" stroke-width="6.660000" />
<circle cx="39.959999" cy="1073.959961" r="19.980000" fill="red">
  <title>Shanghai</title>
</circle><line x1="409.959991" y1="1594.959961" x2="39.959999" y2="1073.959961" stroke="red" stroke-width="6.660000" />
<circle cx="218.959991" cy="386.959991" r="19.980000" fill="red">
  <title>Chongqing</title>
</circle><line x1="39.959999" y1="1073.959961" x2="218.959991" y2="386.959991" stroke="red" stroke-width="6.660000" />
<circle cx="278.959991" cy="446.959991" r="19.980000" fill="red">
  <title>Kolkata</title>
</circle><line x1="218.959991" y1="386.959991" x2="278.959991" y2="446.959991" stroke="red" stroke-width="6.660000" />
<circle cx="1040.959961" cy="167.959991" r="19.980000" fill="red">
  <title>Cairo</title>
</circle><line x1="278.959991" y1="446.959991" x2="1040.959961" y2="167.959991" stroke="red" stroke-width="6.660000" />
</svg>
