<?xml version="1.0" encoding="UTF-8" standalone="no"?>
<svg width="500" height="500" viewBox="0 0 2074.000000 2074.000000" xmlns="http://www.w3.org/2000/svg">
<rect x="19.000000" y="19.000000" width="2036.000000" height="2036.000000" fill="black" />
<circle cx="482.959991" cy="1756.959961" r="19.980000" fill="red">
  <title>Tokyo</title>
</circle><line x1="1240.959961" y1="1942.959961" x2="482.959991" y2="1756.959961" stroke="red" stroke-width="6.660000" />
<circle cx="159.959991" cy="588.960022" r="19.980000" fill="red">
  <title>Mexico City</title>
</circle><line x1="482.959991" y1="1756.959961" x2="159.959991" y2="588.960022" stroke="red" stroke-width="6.660000" />
<circle cx="970.960022" cy="619.960022" r="19.980000" fill="red">
  <title>Cairo</title>
</circle><line x1="159.959991" y1="588.960022" x2="970.960022" y2="619.960022" stroke="red" stroke-width="6.660000" />
<circle cx="1711.959961" cy="862.960022" r="19.980000" fill="red">
  <title>Delhi</title>
</circle><line x1="970.960022" y1="619.960022" x2="1711.959961" y2="862.960022" stroke="red" stroke-width="6.660000" />
<circle cx="1284.959961" cy="1448.959961" r="19.980000" fill="red">
  <title>Shanghai</title>
</circle><line x1="1711.959961" y1="862.960022" x2="1284.959961" y2="1448.959961" stroke="red" stroke-width="6.660000" />
<circle cx="1741.959961" cy="1711.959961" r="19.980000" fill="red">
  <title>São Paulo</title>
</circle><line x1="1284.959961" y1="1448.959961" x2="1741.959961" y2="1711.959961" stroke="red" stroke-width="6.660000" />
<circle cx="1240.959961" cy="1942.959961" r="19.980000" fill="red">
  <title>Mumbai</title>
</circle><line x1="1741.959961" y1="1711.959961" x2="1240.959961" y2="1942.959961" stroke="red" stroke-width="6.660000" />
</svg>
