<?xml version="1.0" encoding="UTF-8" standalone="no"?>
<svg width="500" height="500" viewBox="0 0 2074.000000 2074.000000" xmlns="http://www.w3.org/2000/svg">
<rect x="19.000000" y="19.000000" width="2036.000000" height="2036.000000" fill="black" />
<circle cx="581.960022" cy="329.959991" r="19.980000" fill="red">
  <title>Tokyo</title>
</circle><line x1="678.960022" y1="283.959991" x2="581.960022" y2="329.959991" stroke="red" stroke-width="6.660000" />
<circle cx="144.959991" cy="331.959991" r="19.980000" fill="red">
  <title>New York</title>
</circle><line x1="581.960022" y1="329.959991" x2="144.959991" y2="331.959991" stroke="red" stroke-width="6.660000" />
<circle cx="498.959991" cy="445.959991" r="19.980000" fill="red">
  <title>Beijing</title>
</circle><line x1="144.959991" y1="331.959991" x2="498.959991" y2="445.959991" stroke="red" stroke-width="6.660000" />
<circle cx="626.960022" cy="970.960022" r="19.980000" fill="red">
  <title>Delhi</title>
</circle><line x1="498.959991" y1="445.959991" x2="626.960022" y2="970.960022" stroke="red" stroke-width="6.660000" />
<circle cx="550.960022" cy="1082.959961" r="19.980000" fill="red">
  <title>Dhaka</title>
</circle><line x1="626.960022" y1="970.960022" x2="550.960022" y2="1082.959961" stroke="red" stroke-width="6.660000" />
<circle cx="48.959999" cy="1246.959961" r="19.980000" fill="red">
  <title>Buenos Aires</title>
</circle><line x1="550.960022" y1="1082.959961" x2="48.959999" y2="1246.959961" stroke="red" stroke-width="6.660000" />
<circle cx="273.959991" cy="1889.959961" r="19.980000" fill="red">
  <title>Shanghai</title>
</circle><line x1="48.959999" y1="1246.959961" x2="273.959991" y2="1889.959961" stroke="red" stroke-width="6.660000" />
<circle cx="397.959991" cy="1970.959961" r="19.980000" fill="red">
  <title>Mexico City</title>
</circle><line x1="273.959991" y1="1889.959961" x2="397.959991" y2="1970.959961" stroke="red" stroke-width="6.660000" />
<circle cx="601.960022" cy="1570.959961" r="19.980000" fill="red">
  <title>Karachi</title>
</circle><line x1="397.959991" y1="1970.959961" x2="601.960022" y2="1570.959961" stroke="red" stroke-width="6.660000" />
<circle cx="810.960022" cy="1550.959961" r="19.980000" fill="red">
  <title>Chongqing</title>
</circle><line x1="601.960022" y1="1570.959961" x2="810.960022" y2="1550.959961" stroke="red" stroke-width="6.660000" />
<circle cx="810.960022" cy="1530.959961" r="19.980000" fill="red">
  <title>São Paulo</title>
</circle><line x1="810.960022" y1="1550.959961" x2="810.960022" y2="1530.959961" stroke="red" stroke-width="6.660000" />
<circle cx="1487.959961" cy="1186.959961" r="19.980000" fill="red">
  <title>Lagos</title>
</circle><line x1="810.960022" y1="1530.959961" x2="1487.959961" y2="1186.959961" stroke="red" stroke-width="6.660000" />
<circle cx="1957.959961" cy="1636.959961" r="19.980000" fill="red">
  <title>Mumbai</title>
</circle><line x1="1487.959961" y1="1186.959961" x2="1957.959961" y2="1636.959961" stroke="red" stroke-width="6.660000" />
<circle cx="2012.959961" cy="661.960022" r="19.980000" fill="red">
  <title>Istanbul</title>
</circle><line x1="1957.959961" y1="1636.959961" x2="2012.959961" y2="661.960022" stroke="red" stroke-width="6.660000" />
<circle cx="1924.959961" cy="259.959991" r="19.980000" fill="red">
  <title>Rio de Janeiro</title>
</circle><line x1="2012.959961" y1="661.960022" x2="1924.959961" y2="259.959991" stroke="red" stroke-width="6.660000" />
<circle cx="1680.959961" cy="704.960022" r="19.980000" fill="red">
  <title>Osaka</title>
</circle><line x1="1924.959961" y1="259.959991" x2="1680.959961" y2="704.960022" stroke="red" stroke-width="6.660000" />
<circle cx="1485.959961" cy="555.960022" r="19.980000" fill="red">
  <title>Kolkata</title>
</circle><line x1="1680.959961" y1="704.960022" x2="1485.959961" y2="555.960022" stroke="red" stroke-width="6.660000" />
<circle cx="1257.959961" cy="238.959991" r="19.980000" fill="red">
  <title>Cairo</title>
</circle><line x1="1485.959961" y1="555.960022" x2="1257.959961" y2="238.959991" stroke="red" stroke-width="6.660000" />
<circle cx="952.960022" cy="73.959999" r="19.980000" fill="red">
  <title>Manila</title>
</circle><line x1="1257.959961" y1="238.959991" x2="952.960022" y2="73.959999" stroke="red" stroke-width="6.660000" />
<circle cx="678.960022" cy="283.959991" r="19.980000" fill="red">
  <title>Tianjin</title>
</circle><line x1="952.960022" y1="73.959999" x2="678.960022" y2="283.959991" stroke="red" stroke-width="6.660000" />
</svg>
