<?xml version="1.0" encoding="UTF-8" standalone="no"?>
<svg width="500" height="500" viewBox="0 0 2074.000000 2074.000000" xmlns="http://www.w3.org/2000/svg">
<rect x="19.000000" y="19.000000" width="2036.000000" height="2036.000000" fill="black" />
<circle cx="922.960022" cy="595.960022" r="19.980000" fill="red">
  <title>Tokyo</title>
</circle><line x1="841.960022" y1="621.960022" x2="922.960022" y2="595.960022" stroke="red" stroke-width="6.660000" />
<circle cx="789.960022" cy="286.959991" r="19.980000" fill="red">
  <title>Mexico City</title>
</circle><line x1="922.960022" y1="595.960022" x2="789.960022" y2="286.959991" stroke="red" stroke-width="6.660000" />
<circle cx="1009.960022" cy="269.959991" r="19.980000" fill="red">
  <title>Dhaka</title>
</circle><line x1="789.960022" y1="286.959991" x2="1009.960022" y2="269.959991" stroke="red" stroke-width="6.660000" />
<circle cx="1352.959961" cy="512.960022" r="19.980000" fill="red">
  <title>Delhi</title>
</circle><line x1="1009.960022" y1="269.959991" x2="1352.959961" y2="512.960022" stroke="red" stroke-width="6.660000" />
<circle cx="1619.959961" cy="992.960022" r="19.980000" fill="red">
  <title>Karachi</title>
</circle><line x1="1352.959961" y1="512.960022" x2="1619.959961" y2="992.960022" stroke="red" stroke-width="6.660000" />
<circle cx="1838.959961" cy="1067.959961" r="19.980000" fill="red">
  <title>Osaka</title>
</circle><line x1="1619.959961" y1="992.960022" x2="1838.959961" y2="1067.959961" stroke="red" stroke-width="6.660000" />
<circle cx="1990.959961" cy="1613.959961" r="19.980000" fill="red">
  <title>Beijing</title>
</circle><line x1="1838.959961" y1="1067.959961" x2="1990.959961" y2="1613.959961" stroke="red" stroke-width="6.660000" />
<circle cx="1670.959961" cy="1729.959961" r="19.980000" fill="red">
  <title>São Paulo</title>
</circle><line x1="1990.959961" y1="1613.959961" x2="1670.959961" y2="1729.959961" stroke="red" stroke-width="6.660000" />
<circle cx="1231.959961" cy="1561.959961" r="19.980000" fill="red">
  <title>Mumbai</title>
</circle><line x1="1670.959961" y1="1729.959961" x2="1231.959961" y2="1561.959961" stroke="red" stroke-width="6.660000" />
<circle cx="1138.959961" cy="1526.959961" r="19.980000" fill="red">
  <title>Shanghai</title>
</circle><line x1="1231.959961" y1="1561.959961" x2="1138.959961" y2="1526.959961" stroke="red" stroke-width="6.660000" />
<circle cx="755.960022" cy="1618.959961" r="19.980000" fill="red">
  <title>Cairo</title>
</circle><line x1="1138.959961" y1="1526.959961" x2="755.960022" y2="1618.959961" stroke="red" stroke-width="6.660000" />
<circle cx="457.959991" cy="1112.959961" r="19.980000" fill="red">
  <title>Buenos Aires</title>
</circle><line x1="755.960022" y1="1618.959961" x2="457.959991" y2="1112.959961" stroke="red" stroke-width="6.660000" />
<circle cx="841.960022" cy="621.960022" r="19.980000" fill="red">
  <title>New York</title>
</circle><line x1="457.959991" y1="1112.959961" x2="841.960022" y2="621.960022" stroke="red" stroke-width="6.660000" />
</svg>
