<?xml version="1.0" encoding="UTF-8" standalone="no"?>
<svg width="500" height="500" viewBox="0 0 2074.000000 2074.000000" xmlns="http://www.w3.org/2000/svg">
<rect x="19.000000" y="19.000000" width="2036.000000" height="2036.000000" fill="black" />
<circle cx="366.959991" cy="496.959991" r="19.980000" fill="red">
  <title>Tokyo</title>
</circle><line x1="182.959991" y1="610.960022" x2="366.959991" y2="496.959991" stroke="red" stroke-width="6.660000" />
<circle cx="474.959991" cy="58.959999" r="19.980000" fill="red">
  <title>Mumbai</title>
</circle><line x1="366.959991" y1="496.959991" x2="474.959991" y2="58.959999" stroke="red" stroke-width="6.660000" />
<circle cx="1093.959961" cy="536.960022" r="19.980000" fill="red">
  <title>Shanghai</title>
</circle><line x1="474.959991" y1="58.959999" x2="1093.959961" y2="536.960022" stroke="red" stroke-width="6.660000" />
<circle cx="1578.959961" cy="193.959991" r="19.980000" fill="red">
  <title>São Paulo</title>
</circle><line x1="1093.959961" y1="536.960022" x2="1578.959961" y2="193.959991" stroke="red" stroke-width="6.660000" />
<circle cx="1968.959961" cy="302.959991" r="19.980000" fill="red">
  <title>Chongqing</title>
</circle><line x1="1578.959961" y1="193.959991" x2="1968.959961" y2="302.959991" stroke="red" stroke-width="6.660000" />
<circle cx="1957.959961" cy="373.959991" r="19.980000" fill="red">
  <title>Cairo</title>
</circle><line x1="1968.959961" y1="302.959991" x2="1957.959961" y2="373.959991" stroke="red" stroke-width="6.660000" />
<circle cx="1597.959961" cy="516.960022" r="19.980000" fill="red">
  <title>Delhi</title>
</circle><line x1="1957.959961" y1="373.959991" x2="1597.959961" y2="516.960022" stroke="red" stroke-width="6.660000" />
<circle cx="1576.959961" cy="622.960022" r="19.980000" fill="red">
  <title>New York</title>
</circle><line x1="1597.959961" y1="516.960022" x2="1576.959961" y2="622.960022" stroke="red" stroke-width="6.660000" />
<circle cx="1115.959961" cy="852.960022" r="19.980000" fill="red">
  <title>Buenos Aires</title>
</circle><line x1="1576.959961" y1="622.960022" x2="1115.959961" y2="852.960022" stroke="red" stroke-width="6.660000" />
<circle cx="1165.959961" cy="916.960022" r="19.980000" fill="red">
  <title>Mexico City</title>
</circle><line x1="1115.959961" y1="852.960022" x2="1165.959961" y2="916.960022" stroke="red" stroke-width="6.660000" />
<circle cx="1611.959961" cy="1889.959961" r="19.980000" fill="red">
  <title>Istanbul</title>
</circle><line x1="1165.959961" y1="916.960022" x2="1611.959961" y2="1889.959961" stroke="red" stroke-width="6.660000" />
<circle cx="1178.959961" cy="1834.959961" r="19.980000" fill="red">
  <title>Beijing</title>
</circle><line x1="1611.959961" y1="1889.959961" x2="1178.959961" y2="1834.959961" stroke="red" stroke-width="6.660000" />
<circle cx="348.959991" cy="1638.959961" r="19.980000" fill="red">
  <title>Manila</title>
</circle><line x1="1178.959961" y1="1834.959961" x2="348.959991" y2="1638.959961" stroke="red" stroke-width="6.660000" />
<circle cx="79.959999" cy="1939.959961" r="19.980000" fill="red">
  <title>Kolkata</title>
</circle><line x1="348.959991" y1="1638.959961" x2="79.959999" y2="1939.959961" stroke="red" stroke-width="6.660000" />
<circle cx="118.959999" cy="1590.959961" r="19.980000" fill="red">
  <title>Dhaka</title>
</circle><line x1="79.959999" y1="1939.959961" x2="118.959999" y2="1590.959961" stroke="red" stroke-width="6.660000" />
<circle cx="417.959991" cy="1402.959961" r="19.980000" fill="red">
  <title>Lagos</title>
</circle><line x1="118.959999" y1="1590.959961" x2="417.959991" y2="1402.959961" stroke="red" stroke-width="6.660000" />
<circle cx="250.959991" cy="833.960022" r="19.980000" fill="red">
  <title>Osaka</title>
</circle><line x1="417.959991" y1="1402.959961" x2="250.959991" y2="833.960022" stroke="red" stroke-width="6.660000" />
<circle cx="182.959991" cy="610.960022" r="19.980000" fill="red">
  <title>Karachi</title>
</circle><line x1="250.959991" y1="833.960022" x2="182.959991" y2="610.960022" stroke="red" stroke-width="6.660000" />
</svg>
