<?xml version="1.0" encoding="UTF-8" standalone="no"?>
<svg width="500" height="500" viewBox="0 0 2074.000000 2074.000000" xmlns="http://www.w3.org/2000/svg">
<rect x="19.000000" y="19.000000" width="2036.000000" height="2036.000000" fill="black" />
<circle cx="977.960022" cy="102.959999" r="19.980000" fill="red">
  <title>Tokyo</title>
</circle><line x1="1958.959961" y1="534.960022" x2="977.960022" y2="102.959999" stroke="red" stroke-width="6.660000" />
<circle cx="285.959991" cy="313.959991" r="19.980000" fill="red">
  <title>Beijing</title>
</circle><line x1="977.960022" y1="102.959999" x2="285.959991" y2="313.959991" stroke="red" stroke-width="6.660000" />
<circle cx="953.960022" cy="775.960022" r="19.980000" fill="red">
  <title>São Paulo</title>
</circle><line x1="285.959991" y1="313.959991" x2="953.960022" y2="775.960022" stroke="red" stroke-width="6.660000" />
<circle cx="1134.959961" cy="936.960022" r="19.980000" fill="red">
  <title>New York</title>
</circle><line x1="953.960022" y1="775.960022" x2="1134.959961" y2="936.960022" stroke="red" stroke-width="6.660000" />
<circle cx="940.960022" cy="1694.959961" r="19.980000" fill="red">
  <title>Shanghai</title>
</circle><line x1="1134.959961" y1="936.960022" x2="940.960022" y2="1694.959961" stroke="red" stroke-width="6.660000" />
<circle cx="610.960022" cy="2007.959961" r="19.980000" fill="red">
  <title>Osaka</title>
</circle><line x1="940.960022" y1="1694.959961" x2="610.960022" y2="2007.959961" stroke="red" stroke-width="6.660000" />
<circle cx="1412.959961" cy="2017.959961" r="19.980000" fill="red">
  <title>Cairo</title>
</circle><line x1="610.960022" y1="2007.959961" x2="1412.959961" y2="2017.959961" stroke="red" stroke-width="6.660000" />
<circle cx="1350.959961" cy="1702.959961" r="19.980000" fill="red">
  <title>Delhi</title>
</circle><line x1="1412.959961" y1="2017.959961" x2="1350.959961" y2="1702.959961" stroke="red" stroke-width="6.660000" />
<circle cx="1752.959961" cy="1414.959961" r="19.980000" fill="red">
  <title>Mumbai</title>
</circle><line x1="1350.959961" y1="1702.959961" x2="1752.959961" y2="1414.959961" stroke="red" stroke-width="6.660000" />
<circle cx="2025.959961" cy="642.960022" r="19.980000" fill="red">
  <title>Mexico City</title>
</circle><line x1="1752.959961" y1="1414.959961" x2="2025.959961" y2="642.960022" stroke="red" stroke-width="6.660000" />
<circle cx="1958.959961" cy="534.960022" r="19.980000" fill="red">
  <title>Dhaka</title>
</circle><line x1="2025.959961" y1="642.960022" x2="1958.959961" y2="534.960022" stroke="red" stroke-width="6.660000" />
</svg>
