<?xml version="1.0" encoding="UTF-8" standalone="no"?>
<svg width="500" height="500" viewBox="0 0 2074.000000 2074.000000" xmlns="http://www.w3.org/2000/svg">
<rect x="19.000000" y="19.000000" width="2036.000000" height="2036.000000" fill="black" />
<circle cx="1399.959961" cy="689.960022" r="19.980000" fill="red">
  <title>Tokyo</title>
</circle><line x1="1280.959961" y1="927.960022" x2="1399.959961" y2="689.960022" stroke="red" stroke-width="6.660000" />
<circle cx="855.960022" cy="361.959991" r="19.980000" fill="red">
  <title>Shanghai</title>
</circle><line x1="1399.959961" y1="689.960022" x2="855.960022" y2="361.959991" stroke="red" stroke-width="6.660000" />
<circle cx="587.960022" cy="1102.959961" r="19.980000" fill="red">
  <title>São Paulo</title>
</circle><line x1="855.960022" y1="361.959991" x2="587.960022" y2="1102.959961" stroke="red" stroke-width="6.660000" />
<circle cx="756.960022" cy="1170.959961" r="19.980000" fill="red">
  <title>Delhi</title>
</circle><line x1="587.960022" y1="1102.959961" x2="756.960022" y2="1170.959961" stroke="red" stroke-width="6.660000" />
<circle cx="1280.959961" cy="927.960022" r="19.980000" fill="red">
  <title>Mexico City</title>
</circle><line x1="756.960022" y1="1170.959961" x2="1280.959961" y2="927.960022" stroke="red" stroke-width="6.660000" />
</svg>
