<?xml version="1.0" encoding="UTF-8" standalone="no"?>
<svg width="500" height="500" viewBox="0 0 2074.000000 2074.000000" xmlns="http://www.w3.org/2000/svg">
<rect x="19.000000" y="19.000000" width="2036.000000" height="2036.000000" fill="black" />
<circle cx="1449.959961" cy="1126.959961" r="19.980000" fill="red">
  <title>Tokyo</title>
</circle><line x1="831.960022" y1="994.960022" x2="1449.959961" y2="1126.959961" stroke="red" stroke-width="6.660000" />
<circle cx="1690.959961" cy="488.959991" r="19.980000" fill="red">
  <title>Mexico City</title>
</circle><line x1="1449.959961" y1="1126.959961" x2="1690.959961" y2="488.959991" stroke="red" stroke-width="6.660000" />
<circle cx="1458.959961" cy="507.959991" r="19.980000" fill="red">
  <title>São Paulo</title>
</circle><line x1="1690.959961" y1="488.959991" x2="1458.959961" y2="507.959991" stroke="red" stroke-width="6.660000" />
<circle cx="528.960022" cy="596.960022" r="19.980000" fill="red">
  <title>Mumbai</title>
</circle><line x1="1458.959961" y1="507.959991" x2="528.960022" y2="596.960022" stroke="red" stroke-width="6.660000" />
<circle cx="186.959991" cy="1049.959961" r="19.980000" fill="red">
  <title>Delhi</title>
</circle><line x1="528.960022" y1="596.960022" x2="186.959991" y2="1049.959961" stroke="red" stroke-width="6.660000" />
<circle cx="364.959991" cy="1395.959961" r="19.980000" fill="red">
  <title>Shanghai</title>
</circle><line x1="186.959991" y1="1049.959961" x2="364.959991" y2="1395.959961" stroke="red" stroke-width="6.660000" />
<circle cx="831.960022" cy="994.960022" r="19.980000" fill="red">
  <title>Cairo</title>
</circle><line x1="364.959991" y1="1395.959961" x2="831.960022" y2="994.960022" stroke="red" stroke-width="6.660000" />
</svg>
