<?xml version="1.0" encoding="UTF-8" standalone="no"?>
<svg width="500" height="500" viewBox="0 0 2074.000000 2074.000000" xmlns="http://www.w3.org/2000/svg">
<rect x="19.000000" y="19.000000" width="2036.000000" height="2036.000000" fill="black" />
<circle cx="855.960022" cy="634.960022" r="19.980000" fill="red">
  <title>Tokyo</title>
</circle><line x1="183.959991" y1="386.959991" x2="855.960022" y2="634.960022" stroke="red" stroke-width="6.660000" />
<circle cx="1087.959961" cy="684.960022" r="19.980000" fill="red">
  <title>Shanghai</title>
</circle><line x1="855.960022" y1="634.960022" x2="1087.959961" y2="684.960022" stroke="red" stroke-width="6.660000" />
<circle cx="1723.959961" cy="219.959991" r="19.980000" fill="red">
  <title>Osaka</title>
</circle><line x1="1087.959961" y1="684.960022" x2="1723.959961" y2="219.959991" stroke="red" stroke-width="6.660000" />
<circle cx="1807.959961" cy="782.960022" r="19.980000" fill="red">
  <title>Delhi</title>
</circle><line x1="1723.959961" y1="219.959991" x2="1807.959961" y2="782.960022" stroke="red" stroke-width="6.660000" />
<circle cx="1952.959961" cy="1782.959961" r="19.980000" fill="red">
  <title>Karachi</title>
</circle><line x1="1807.959961" y1="782.960022" x2="1952.959961" y2="1782.959961" stroke="red" stroke-width="6.660000" />
<circle cx="1737.959961" cy="1576.959961" r="19.980000" fill="red">
  <title>São Paulo</title>
</circle><line x1="1952.959961" y1="1782.959961" x2="1737.959961" y2="1576.959961" stroke="red" stroke-width="6.660000" />
<circle cx="1243.959961" cy="1015.960022" r="19.980000" fill="red">
  <title>Beijing</title>
</circle><line x1="1737.959961" y1="1576.959961" x2="1243.959961" y2="1015.960022" stroke="red" stroke-width="6.660000" />
<circle cx="743.960022" cy="1376.959961" r="19.980000" fill="red">
  <title>Mexico City</title>
</circle><line x1="1243.959961" y1="1015.960022" x2="743.960022" y2="1376.959961" stroke="red" stroke-width="6.660000" />
<circle cx="406.959991" cy="2001.959961" r="19.980000" fill="red">
  <title>Mumbai</title>
</circle><line x1="743.960022" y1="1376.959961" x2="406.959991" y2="2001.959961" stroke="red" stroke-width="6.660000" />
<circle cx="46.959999" cy="1681.959961" r="19.980000" fill="red">
  <title>Buenos Aires</title>
</circle><line x1="406.959991" y1="2001.959961" x2="46.959999" y2="1681.959961" stroke="red" stroke-width="6.660000" />
<circle cx="81.959999" cy="1522.959961" r="19.980000" fill="red">
  <title>New York</title>
</circle><line x1="46.959999" y1="1681.959961" x2="81.959999" y2="1522.959961" stroke="red" stroke-width="6.660000" />
<circle cx="275.959991" cy="479.959991" r="19.980000" fill="red">
  <title>Cairo</title>
</circle><line x1="81.959999" y1="1522.959961" x2="275.959991" y2="479.959991" stroke="red" stroke-width="6.660000" />
<circle cx="183.959991" cy="386.959991" r="19.980000" fill="red">
  <title>Dhaka</title>
</circle><line x1="275.959991" y1="479.959991" x2="183.959991" y2="386.959991" stroke="red" stroke-width="6.660000" />
</svg>
