<?xml version="1.0" encoding="UTF-8" standalone="no"?>
<svg width="500" height="500" viewBox="0 0 2074.000000 2074.000000" xmlns="http://www.w3.org/2000/svg">
<rect x="19.000000" y="19.000000" width="2036.000000" height="2036.000000" fill="black" />
<circle cx="914.960022" cy="1400.959961" r="19.980000" fill="red">
  <title>Tokyo</title>
</circle><line x1="985.960022" y1="1986.959961" x2="914.960022" y2="1400.959961" stroke="red" stroke-width="6.660000" />
<circle cx="1264.959961" cy="1397.959961" r="19.980000" fill="red">
  <title>Beijing</title>
</circle><line x1="914.960022" y1="1400.959961" x2="1264.959961" y2="1397.959961" stroke="red" stroke-width="6.660000" />
<circle cx="1486.959961" cy="1480.959961" r="19.980000" fill="red">
  <title>Mumbai</title>
</circle><line x1="1264.959961" y1="1397.959961" x2="1486.959961" y2="1480.959961" stroke="red" stroke-width="6.660000" />
<circle cx="1276.959961" cy="1383.959961" r="19.980000" fill="red">
  <title>Cairo</title>
</circle><line x1="1486.959961" y1="1480.959961" x2="1276.959961" y2="1383.959961" stroke="red" stroke-width="6.660000" />
<circle cx="1224.959961" cy="880.960022" r="19.980000" fill="red">
  <title>Delhi</title>
</circle><line x1="1276.959961" y1="1383.959961" x2="1224.959961" y2="880.960022" stroke="red" stroke-width="6.660000" />
<circle cx="1024.959961" cy="858.960022" r="19.980000" fill="red">
  <title>Karachi</title>
</circle><line x1="1224.959961" y1="880.960022" x2="1024.959961" y2="858.960022" stroke="red" stroke-width="6.660000" />
<circle cx="598.960022" cy="780.960022" r="19.980000" fill="red">
  <title>Shanghai</title>
</circle><line x1="1024.959961" y1="858.960022" x2="598.960022" y2="780.960022" stroke="red" stroke-width="6.660000" />
<circle cx="509.959991" cy="766.960022" r="19.980000" fill="red">
  <title>São Paulo</title>
</circle><line x1="598.960022" y1="780.960022" x2="509.959991" y2="766.960022" stroke="red" stroke-width="6.660000" />
<circle cx="61.959999" cy="120.959999" r="19.980000" fill="red">
  <title>Dhaka</title>
</circle><line x1="509.959991" y1="766.960022" x2="61.959999" y2="120.959999" stroke="red" stroke-width="6.660000" />
<circle cx="852.960022" cy="443.959991" r="19.980000" fill="red">
  <title>Lagos</title>
</circle><line x1="61.959999" y1="120.959999" x2="852.960022" y2="443.959991" stroke="red" stroke-width="6.660000" />
<circle cx="1133.959961" cy="521.960022" r="19.980000" fill="red">
  <title>Istanbul</title>
</circle><line x1="852.960022" y1="443.959991" x2="1133.959961" y2="521.960022" stroke="red" stroke-width="6.660000" />
<circle cx="1979.959961" cy="440.959991" r="19.980000" fill="red">
  <title>Mexico City</title>
</circle><line x1="1133.959961" y1="521.960022" x2="1979.959961" y2="440.959991" stroke="red" stroke-width="6.660000" />
<circle cx="1882.959961" cy="921.960022" r="19.980000" fill="red">
  <title>Manila</title>
</circle><line x1="1979.959961" y1="440.959991" x2="1882.959961" y2="921.960022" stroke="red" stroke-width="6.660000" />
<circle cx="1918.959961" cy="1011.960022" r="19.980000" fill="red">
  <title>New York</title>
</circle><line x1="1882.959961" y1="921.960022" x2="1918.959961" y2="1011.960022" stroke="red" stroke-width="6.660000" />
<circle cx="1722.959961" cy="1503.959961" r="19.980000" fill="red">
  <title>Osaka</title>
</circle><line x1="1918.959961" y1="1011.960022" x2="1722.959961" y2="1503.959961" stroke="red" stroke-width="6.660000" />
<circle cx="1926.959961" cy="1633.959961" r="19.980000" fill="red">
  <title>Buenos Aires</title>
</circle><line x1="1722.959961" y1="1503.959961" x2="1926.959961" y2="1633.959961" stroke="red" stroke-width="6.660000" />
<circle cx="1734.959961" cy="2009.959961" r="19.980000" fill="red">
  <title>Kolkata</title>
</circle><line x1="1926.959961" y1="1633.959961" x2="1734.959961" y2="2009.959961" stroke="red" stroke-width="6.660000" />
<circle cx="985.960022" cy="1986.959961" r="19.980000" fill="red">
  <title>Chongqing</title>
</circle><line x1="1734.959961" y1="2009.959961" x2="985.960022" y2="1986.959961" stroke="red" stroke-width="6.660000" />
</svg>
