<?xml version="1.0" encoding="UTF-8" standalone="no"?>
<svg width="500" height="500" viewBox="0 0 2074.000000 2074.000000" xmlns="http://www.w3.org/2000/svg">
<rect x="19.000000" y="19.000000" width="2036.000000" height="2036.000000" fill="black" />
<circle cx="1750.959961" cy="1940.959961" r="19.980000" fill="red">
  <title>Tokyo</title>
</circle><line x1="1882.959961" y1="1956.959961" x2="1750.959961" y2="1940.959961" stroke="red" stroke-width="6.660000" />
<circle cx="1453.959961" cy="1340.959961" r="19.980000" fill="red">
  <title>Delhi</title>
</circle><line x1="1750.959961" y1="1940.959961" x2="1453.959961" y2="1340.959961" stroke="red" stroke-width="6.660000" />
<circle cx="1331.959961" cy="1250.959961" r="19.980000" fill="red">
  <title>Karachi</title>
</circle><line x1="1453.959961" y1="1340.959961" x2="1331.959961" y2="1250.959961" stroke="red" stroke-width="6.660000" />
<circle cx="268.959991" cy="1904.959961" r="19.980000" fill="red">
  <title>Beijing</title>
</circle><line x1="1331.959961" y1="1250.959961" x2="268.959991" y2="1904.959961" stroke="red" stroke-width="6.660000" />
<circle cx="538.960022" cy="1213.959961" r="19.980000" fill="red">
  <title>Dhaka</title>
</circle><line x1="268.959991" y1="1904.959961" x2="538.960022" y2="1213.959961" stroke="red" stroke-width="6.660000" />
<circle cx="961.960022" cy="556.960022" r="19.980000" fill="red">
  <title>Shanghai</title>
</circle><line x1="538.960022" y1="1213.959961" x2="961.960022" y2="556.960022" stroke="red" stroke-width="6.660000" />
<circle cx="1415.959961" cy="359.959991" r="19.980000" fill="red">
  <title>Cairo</title>
</circle><line x1="961.960022" y1="556.960022" x2="1415.959961" y2="359.959991" stroke="red" stroke-width="6.660000" />
<circle cx="1760.959961" cy="263.959991" r="19.980000" fill="red">
  <title>Osaka</title>
</circle><line x1="1415.959961" y1="359.959991" x2="1760.959961" y2="263.959991" stroke="red" stroke-width="6.660000" />
<circle cx="1489.959961" cy="563.960022" r="19.980000" fill="red">
  <title>New York</title>
</circle><line x1="1760.959961" y1="263.959991" x2="1489.959961" y2="563.960022" stroke="red" stroke-width="6.660000" />
<circle cx="1527.959961" cy="1101.959961" r="19.980000" fill="red">
  <title>Mumbai</title>
</circle><line x1="1489.959961" y1="563.960022" x2="1527.959961" y2="1101.959961" stroke="red" stroke-width="6.660000" />
<circle cx="1905.959961" cy="1193.959961" r="19.980000" fill="red">
  <title>Mexico City</title>
</circle><line x1="1527.959961" y1="1101.959961" x2="1905.959961" y2="1193.959961" stroke="red" stroke-width="6.660000" />
<circle cx="1882.959961" cy="1956.959961" r="19.980000" fill="red">
  <title>São Paulo</title>
</circle><line x1="1905.959961" y1="1193.959961" x2="1882.959961" y2="1956.959961" stroke="red" stroke-width="6.660000" />
</svg>
