<?xml version="1.0" encoding="UTF-8" standalone="no"?>
<svg width="500" height="500" viewBox="0 0 2074.000000 2074.000000" xmlns="http://www.w3.org/2000/svg">
<rect x="19.000000" y="19.000000" width="2036.000000" height="2036.000000" fill="black" />
<circle cx="1412.959961" cy="1195.959961" r="19.980000" fill="red">
  <title>Tokyo</title>
</circle><line x1="535.960022" y1="1516.959961" x2="1412.959961" y2="1195.959961" stroke="red" stroke-width="6.660000" />
<circle cx="1762.959961" cy="721.960022" r="19.980000" fill="red">
  <title>Delhi</title>
</circle><line x1="1412.959961" y1="1195.959961" x2="1762.959961" y2="721.960022" stroke="red" stroke-width="6.660000" />
<circle cx="1852.959961" cy="81.959999" r="19.980000" fill="red">
  <title>São Paulo</title>
</circle><line x1="1762.959961" y1="721.960022" x2="1852.959961" y2="81.959999" stroke="red" stroke-width="6.660000" />
<circle cx="1237.959961" cy="299.959991" r="19.980000" fill="red">
  <title>Mumbai</title>
</circle><line x1="1852.959961" y1="81.959999" x2="1237.959961" y2="299.959991" stroke="red" stroke-width="6.660000" />
<circle cx="1135.959961" cy="163.959991" r="19.980000" fill="red">
  <title>Mexico City</title>
</circle><line x1="1237.959961" y1="299.959991" x2="1135.959961" y2="163.959991" stroke="red" stroke-width="6.660000" />
<circle cx="141.959991" cy="1163.959961" r="19.980000" fill="red">
  <title>Beijing</title>
</circle><line x1="1135.959961" y1="163.959991" x2="141.959991" y2="1163.959961" stroke="red" stroke-width="6.660000" />
<circle cx="104.959999" cy="1655.959961" r="19.980000" fill="red">
  <title>Cairo</title>
</circle><line x1="141.959991" y1="1163.959961" x2="104.959999" y2="1655.959961" stroke="red" stroke-width="6.660000" />
<circle cx="535.960022" cy="1516.959961" r="19.980000" fill="red">
  <title>Shanghai</title>
</circle><line x1="104.959999" y1="1655.959961" x2="535.960022" y2="1516.959961" stroke="red" stroke-width="6.660000" />
</svg>
