<?xml version="1.0" encoding="UTF-8" standalone="no"?>
<svg width="500" height="500" viewBox="0 0 2074.000000 2074.000000" xmlns="http://www.w3.org/2000/svg">
<rect x="19.000000" y="19.000000" width="2036.000000" height="2036.000000" fill="black" />
<circle cx="1600.959961" cy="1369.959961" r="19.980000" fill="red">
  <title>Tokyo</title>
</circle><line x1="1373.959961" y1="1306.959961" x2="1600.959961" y2="1369.959961" stroke="red" stroke-width="6.660000" />
<circle cx="1929.959961" cy="1922.959961" r="19.980000" fill="red">
  <title>Shanghai</title>
</circle><line x1="1600.959961" y1="1369.959961" x2="1929.959961" y2="1922.959961" stroke="red" stroke-width="6.660000" />
<circle cx="2016.959961" cy="1419.959961" r="19.980000" fill="red">
  <title>Kolkata</title>
</circle><line x1="1929.959961" y1="1922.959961" x2="2016.959961" y2="1419.959961" stroke="red" stroke-width="6.660000" />
<circle cx="1856.959961" cy="730.960022" r="19.980000" fill="red">
  <title>Istanbul</title>
</circle><line x1="2016.959961" y1="1419.959961" x2="1856.959961" y2="730.960022" stroke="red" stroke-width="6.660000" />
<circle cx="1645.959961" cy="382.959991" r="19.980000" fill="red">
  <title>Cairo</title>
</circle><line x1="1856.959961" y1="730.960022" x2="1645.959961" y2="382.959991" stroke="red" stroke-width="6.660000" />
<circle cx="1576.959961" cy="107.959999" r="19.980000" fill="red">
  <title>São Paulo</title>
</circle><line x1="1645.959961" y1="382.959991" x2="1576.959961" y2="107.959999" stroke="red" stroke-width="6.660000" />
<circle cx="1209.959961" cy="766.960022" r="19.980000" fill="red">
  <title>Karachi</title>
</circle><line x1="1576.959961" y1="107.959999" x2="1209.959961" y2="766.960022" stroke="red" stroke-width="6.660000" />
<circle cx="880.960022" cy="938.960022" r="19.980000" fill="red">
  <title>Delhi</title>
</circle><line x1="1209.959961" y1="766.960022" x2="880.960022" y2="938.960022" stroke="red" stroke-width="6.660000" />
<circle cx="200.959991" cy="300.959991" r="19.980000" fill="red">
  <title>Chongqing</title>
</circle><line x1="880.960022" y1="938.960022" x2="200.959991" y2="300.959991" stroke="red" stroke-width="6.660000" />
<circle cx="62.959999" cy="859.960022" r="19.980000" fill="red">
  <title>Manila</title>
</circle><line x1="200.959991" y1="300.959991" x2="62.959999" y2="859.960022" stroke="red" stroke-width="6.660000" />
<circle cx="289.959991" cy="1285.959961" r="19.980000" fill="red">
  <title>Beijing</title>
</circle><line x1="62.959999" y1="859.960022" x2="289.959991" y2="1285.959961" stroke="red" stroke-width="6.660000" />
<circle cx="319.959991" cy="1952.959961" r="19.980000" fill="red">
  <title>Lagos</title>
</circle><line x1="289.959991" y1="1285.959961" x2="319.959991" y2="1952.959961" stroke="red" stroke-width="6.660000" />
<circle cx="479.959991" cy="2020.959961" r="19.980000" fill="red">
  <title>Dhaka</title>
</circle><line x1="319.959991" y1="1952.959961" x2="479.959991" y2="2020.959961" stroke="red" stroke-width="6.660000" />
<circle cx="695.960022" cy="1727.959961" r="19.980000" fill="red">
  <title>New York</title>
</circle><line x1="479.959991" y1="2020.959961" x2="695.960022" y2="1727.959961" stroke="red" stroke-width="6.660000" />
<circle cx="940.960022" cy="1959.959961" r="19.980000" fill="red">
  <title>Mumbai</title>
</circle><line x1="695.960022" y1="1727.959961" x2="940.960022" y2="1959.959961" stroke="red" stroke-width="6.660000" />
<circle cx="1055.959961" cy="1636.959961" r="19.980000" fill="red">
  <title>Mexico City</title>
</circle><line x1="940.960022" y1="1959.959961" x2="1055.959961" y2="1636.959961" stroke="red" stroke-width="6.660000" />
<circle cx="1331.959961" cy="1437.959961" r="19.980000" fill="red">
  <title>Buenos Aires</title>
</circle><line x1="1055.959961" y1="1636.959961" x2="1331.959961" y2="1437.959961" stroke="red" stroke-width="6.660000" />
<circle cx="1373.959961" cy="1306.959961" r="19.980000" fill="red">
  <title>Osaka</title>
</circle><line x1="1331.959961" y1="1437.959961" x2="1373.959961" y2="1306.959961" stroke="red" stroke-width="6.660000" />
</svg>
