<?xml version="1.0" encoding="UTF-8" standalone="no"?>
<svg width="500" height="500" viewBox="0 0 2074.000000 2074.000000" xmlns="http://www.w3.org/2000/svg">
<rect x="19.000000" y="19.000000" width="2036.000000" height="2036.000000" fill="black" />
<circle cx="758.960022" cy="575.960022" r="19.980000" fill="red">
  <title>Tokyo</title>
</circle><line x1="1164.959961" y1="1236.959961" x2="758.960022" y2="575.960022" stroke="red" stroke-width="6.660000" />
<circle cx="1126.959961" cy="109.959999" r="19.980000" fill="red">
  <title>Delhi</title>
</circle><line x1="758.960022" y1="575.960022" x2="1126.959961" y2="109.959999" stroke="red" stroke-width="6.660000" />
<circle cx="1929.959961" cy="174.959991" r="19.980000" fill="red">
  <title>Shanghai</title>
</circle><line x1="1126.959961" y1="109.959999" x2="1929.959961" y2="174.959991" stroke="red" stroke-width="6.660000" />
<circle cx="1099.959961" cy="643.960022" r="19.980000" fill="red">
  <title>São Paulo</title>
</circle><line x1="1929.959961" y1="174.959991" x2="1099.959961" y2="643.960022" stroke="red" stroke-width="6.660000" />
<circle cx="1250.959961" cy="1831.959961" r="19.980000" fill="red">
  <title>Cairo</title>
</circle><line x1="1099.959961" y1="643.960022" x2="1250.959961" y2="1831.959961" stroke="red" stroke-width="6.660000" />
<circle cx="1164.959961" cy="1236.959961" r="19.980000" fill="red">
  <title>Mexico City</title>
</circle><line x1="1250.959961" y1="1831.959961" x2="1164.959961" y2="1236.959961" stroke="red" stroke-width="6.660000" />
</svg>
