<?xml version="1.0" encoding="UTF-8" standalone="no"?>
<svg width="500" height="500" viewBox="0 0 2074.000000 2074.000000" xmlns="http://www.w3.org/2000/svg">
<rect x="19.000000" y="19.000000" width="2036.000000" height="2036.000000" fill="black" />
<circle cx="1652.959961" cy="157.959991" r="19.980000" fill="red">
  <title>Tokyo</title>
</circle><line x1="1746.959961" y1="393.959991" x2="1652.959961" y2="157.959991" stroke="red" stroke-width="6.660000" />
<circle cx="1535.959961" cy="248.959991" r="19.980000" fill="red">
  <title>Mexico City</title>
</circle><line x1="1652.959961" y1="157.959991" x2="1535.959961" y2="248.959991" stroke="red" stroke-width="6.660000" />
<circle cx="776.960022" cy="256.959991" r="19.980000" fill="red">
  <title>Osaka</title>
</circle><line x1="1535.959961" y1="248.959991" x2="776.960022" y2="256.959991" stroke="red" stroke-width="6.660000" />
<circle cx="1211.959961" cy="854.960022" r="19.980000" fill="red">
  <title>Delhi</title>
</circle><line x1="776.960022" y1="256.959991" x2="1211.959961" y2="854.960022" stroke="red" stroke-width="6.660000" />
<circle cx="1045.959961" cy="1510.959961" r="19.980000" fill="red">
  <title>Karachi</title>
</circle><line x1="1211.959961" y1="854.960022" x2="1045.959961" y2="1510.959961" stroke="red" stroke-width="6.660000" />
<circle cx="1490.959961" cy="1548.959961" r="19.980000" fill="red">
  <title>São Paulo</title>
</circle><line x1="1045.959961" y1="1510.959961" x2="1490.959961" y2="1548.959961" stroke="red" stroke-width="6.660000" />
<circle cx="1817.959961" cy="1535.959961" r="19.980000" fill="red">
  <title>Shanghai</title>
</circle><line x1="1490.959961" y1="1548.959961" x2="1817.959961" y2="1535.959961" stroke="red" stroke-width="6.660000" />
<circle cx="1821.959961" cy="1623.959961" r="19.980000" fill="red">
  <title>Cairo</title>
</circle><line x1="1817.959961" y1="1535.959961" x2="1821.959961" y2="1623.959961" stroke="red" stroke-width="6.660000" />
<circle cx="1976.959961" cy="1538.959961" r="19.980000" fill="red">
  <title>New York</title>
</circle><line x1="1821.959961" y1="1623.959961" x2="1976.959961" y2="1538.959961" stroke="red" stroke-width="6.660000" />
<circle cx="2031.959961" cy="1327.959961" r="19.980000" fill="red">
  <title>Mumbai</title>
</circle><line x1="1976.959961" y1="1538.959961" x2="2031.959961" y2="1327.959961" stroke="red" stroke-width="6.660000" />
<circle cx="1409.959961" cy="724.960022" r="19.980000" fill="red">
  <title>Dhaka</title>
</circle><line x1="2031.959961" y1="1327.959961" x2="1409.959961" y2="724.960022" stroke="red" stroke-width="6.660000" />
<circle cx="1746.959961" cy="393.959991" r="19.980000" fill="red">
  <title>Beijing</title>
</circle><line x1="1409.959961" y1="724.960022" x2="1746.959961" y2="393.959991" stroke="red" stroke-width="6.660000" />
</svg>
