<?xml version="1.0" encoding="UTF-8" standalone="no"?>
<svg width="500" height="500" viewBox="0 0 2074.000000 2074.000000" xmlns="http://www.w3.org/2000/svg">
<rect x="19.000000" y="19.000000" width="2036.000000" height="2036.000000" fill="black" />
<circle cx="367.959991" cy="1986.959961" r="19.980000" fill="red">
  <title>Tokyo</title>
</circle><line x1="721.960022" y1="2012.959961" x2="367.959991" y2="1986.959961" stroke="red" stroke-width="6.660000" />
<circle cx="68.959999" cy="1741.959961" r="19.980000" fill="red">
  <title>Chongqing</title>
</circle><line x1="367.959991" y1="1986.959961" x2="68.959999" y2="1741.959961" stroke="red" stroke-width="6.660000" />
<circle cx="270.959991" cy="1540.959961" r="19.980000" fill="red">
  <title>Osaka</title>
</circle><line x1="68.959999" y1="1741.959961" x2="270.959991" y2="1540.959961" stroke="red" stroke-width="6.660000" />
<circle cx="416.959991" cy="1567.959961" r="19.980000" fill="red">
  <title>Mumbai</title>
</circle><line x1="270.959991" y1="1540.959961" x2="416.959991" y2="1567.959961" stroke="red" stroke-width="6.660000" />
<circle cx="505.959991" cy="1470.959961" r="19.980000" fill="red">
  <title>São Paulo</title>
</circle><line x1="416.959991" y1="1567.959961" x2="505.959991" y2="1470.959961" stroke="red" stroke-width="6.660000" />
<circle cx="241.959991" cy="1159.959961" r="19.980000" fill="red">
  <title>Buenos Aires</title>
</circle><line x1="505.959991" y1="1470.959961" x2="241.959991" y2="1159.959961" stroke="red" stroke-width="6.660000" />
<circle cx="84.959999" cy="772.960022" r="19.980000" fill="red">
  <title>Istanbul</title>
</circle><line x1="241.959991" y1="1159.959961" x2="84.959999" y2="772.960022" stroke="red" stroke-width="6.660000" />
<circle cx="118.959999" cy="564.960022" r="19.980000" fill="red">
  <title>Beijing</title>
</circle><line x1="84.959999" y1="772.960022" x2="118.959999" y2="564.960022" stroke="red" stroke-width="6.660000" />
<circle cx="353.959991" cy="726.960022" r="19.980000" fill="red">
  <title>Cairo</title>
</circle><line x1="118.959999" y1="564.960022" x2="353.959991" y2="726.960022" stroke="red" stroke-width="6.660000" />
<circle cx="708.960022" cy="487.959991" r="19.980000" fill="red">
  <title>Shanghai</title>
</circle><line x1="353.959991" y1="726.960022" x2="708.960022" y2="487.959991" stroke="red" stroke-width="6.660000" />
<circle cx="1309.959961" cy="412.959991" r="19.980000" fill="red">
  <title>Kolkata</title>
</circle><line x1="708.960022" y1="487.959991" x2="1309.959961" y2="412.959991" stroke="red" stroke-width="6.660000" />
<circle cx="1675.959961" cy="1693.959961" r="19.980000" fill="red">
  <title>New York</title>
</circle><line x1="1309.959961" y1="412.959991" x2="1675.959961" y2="1693.959961" stroke="red" stroke-width="6.660000" />
<circle cx="1733.959961" cy="1838.959961" r="19.980000" fill="red">
  <title>Karachi</title>
</circle><line x1="1675.959961" y1="1693.959961" x2="1733.959961" y2="1838.959961" stroke="red" stroke-width="6.660000" />
<circle cx="1585.959961" cy="1873.959961" r="19.980000" fill="red">
  <title>Mexico City</title>
</circle><line x1="1733.959961" y1="1838.959961" x2="1585.959961" y2="1873.959961" stroke="red" stroke-width="6.660000" />
<circle cx="1014.960022" cy="1740.959961" r="19.980000" fill="red">
  <title>Dhaka</title>
</circle><line x1="1585.959961" y1="1873.959961" x2="1014.960022" y2="1740.959961" stroke="red" stroke-width="6.660000" />
<circle cx="741.960022" cy="1604.959961" r="19.980000" fill="red">
  <title>Delhi</title>
</circle><line x1="1014.960022" y1="1740.959961" x2="741.960022" y2="1604.959961" stroke="red" stroke-width="6.660000" />
<circle cx="721.960022" cy="2012.959961" r="19.980000" fill="red">
  <title>Manila</title>
</circle><line x1="741.960022" y1="1604.959961" x2="721.960022" y2="2012.959961" stroke="red" stroke-width="6.660000" />
</svg>
