<?xml version="1.0" encoding="UTF-8" standalone="no"?>
<svg width="500" height="500" viewBox="0 0 2074.000000 2074.000000" xmlns="http://www.w3.org/2000/svg">
<rect x="19.000000" y="19.000000" width="2036.000000" height="2036.000000" fill="black" />
<circle cx="1859.959961" cy="749.960022" r="19.980000" fill="red">
  <title>Tokyo</title>
</circle><line x1="1054.959961" y1="347.959991" x2="1859.959961" y2="749.960022" stroke="red" stroke-width="6.660000" />
<circle cx="1875.959961" cy="1141.959961" r="19.980000" fill="red">
  <title>São Paulo</title>
</circle><line x1="1859.959961" y1="749.960022" x2="1875.959961" y2="1141.959961" stroke="red" stroke-width="6.660000" />
<circle cx="1821.959961" cy="1479.959961" r="19.980000" fill="red">
  <title>New York</title>
</circle><line x1="1875.959961" y1="1141.959961" x2="1821.959961" y2="1479.959961" stroke="red" stroke-width="6.660000" />
<circle cx="1913.959961" cy="1836.959961" r="19.980000" fill="red">
  <title>Osaka</title>
</circle><line x1="1821.959961" y1="1479.959961" x2="1913.959961" y2="1836.959961" stroke="red" stroke-width="6.660000" />
<circle cx="1007.960022" cy="1851.959961" r="19.980000" fill="red">
  <title>Dhaka</title>
</circle><line x1="1913.959961" y1="1836.959961" x2="1007.960022" y2="1851.959961" stroke="red" stroke-width="6.660000" />
<circle cx="1007.960022" cy="867.960022" r="19.980000" fill="red">
  <title>Delhi</title>
</circle><line x1="1007.960022" y1="1851.959961" x2="1007.960022" y2="867.960022" stroke="red" stroke-width="6.660000" />
<circle cx="589.960022" cy="599.960022" r="19.980000" fill="red">
  <title>Cairo</title>
</circle><line x1="1007.960022" y1="867.960022" x2="589.960022" y2="599.960022" stroke="red" stroke-width="6.660000" />
<circle cx="512.960022" cy="325.959991" r="19.980000" fill="red">
  <title>Beijing</title>
</circle><line x1="589.960022" y1="599.960022" x2="512.960022" y2="325.959991" stroke="red" stroke-width="6.660000" />
<circle cx="592.960022" cy="393.959991" r="19.980000" fill="red">
  <title>Mumbai</title>
</circle><line x1="512.960022" y1="325.959991" x2="592.960022" y2="393.959991" stroke="red" stroke-width="6.660000" />
<circle cx="813.960022" cy="480.959991" r="19.980000" fill="red">
  <title>Mexico City</title>
</circle><line x1="592.960022" y1="393.959991" x2="813.960022" y2="480.959991" stroke="red" stroke-width="6.660000" />
<circle cx="1054.959961" cy="347.959991" r="19.980000" fill="red">
  <title>Shanghai</title>
</circle><line x1="813.960022" y1="480.959991" x2="1054.959961" y2="347.959991" stroke="red" stroke-width="6.660000" />
</svg>
