<?xml version="1.0" encoding="UTF-8" standalone="no"?>
<svg width="500" height="500" viewBox="0 0 2074.000000 2074.000000" xmlns="http://www.w3.org/2000/svg">
<rect x="19.000000" y="19.000000" width="2036.000000" height="2036.000000" fill="black" />
<circle cx="923.960022" cy="1583.959961" r="19.980000" fill="red">
  <title>Tokyo</title>
</circle><line x1="1720.959961" y1="1896.959961" x2="923.960022" y2="1583.959961" stroke="red" stroke-width="6.660000" />
<circle cx="1182.959961" cy="1469.959961" r="19.980000" fill="red">
  <title>Shanghai</title>
</circle><line x1="923.960022" y1="1583.959961" x2="1182.959961" y2="1469.959961" stroke="red" stroke-width="6.660000" />
<circle cx="1641.959961" cy="246.959991" r="19.980000" fill="red">
  <title>Mexico City</title>
</circle><line x1="1182.959961" y1="1469.959961" x2="1641.959961" y2="246.959991" stroke="red" stroke-width="6.660000" />
<circle cx="1727.959961" cy="333.959991" r="19.980000" fill="red">
  <title>São Paulo</title>
</circle><line x1="1641.959961" y1="246.959991" x2="1727.959961" y2="333.959991" stroke="red" stroke-width="6.660000" />
<circle cx="1720.959961" cy="1896.959961" r="19.980000" fill="red">
  <title>Delhi</title>
</circle><line x1="1727.959961" y1="333.959991" x2="1720.959961" y2="1896.959961" stroke="red" stroke-width="6.660000" />
</svg>
