<?xml version="1.0" encoding="UTF-8" standalone="no"?>
<svg width="500" height="500" viewBox="0 0 2074.000000 2074.000000" xmlns="http://www.w3.org/2000/svg">
<rect x="19.000000" y="19.000000" width="2036.000000" height="2036.000000" fill="black" />
<circle cx="1970.959961" cy="124.959999" r="19.980000" fill="red">
  <title>Tokyo</title>
</circle><line x1="1929.959961" y1="426.959991" x2="1970.959961" y2="124.959999" stroke="red" stroke-width="6.660000" />
<circle cx="1910.959961" cy="350.959991" r="19.980000" fill="red">
  <title>Mumbai</title>
</circle><line x1="1970.959961" y1="124.959999" x2="1910.959961" y2="350.959991" stroke="red" stroke-width="6.660000" />
<circle cx="1491.959961" cy="388.959991" r="19.980000" fill="red">
  <title>Cairo</title>
</circle><line x1="1910.959961" y1="350.959991" x2="1491.959961" y2="388.959991" stroke="red" stroke-width="6.660000" />
<circle cx="1421.959961" cy="387.959991" r="19.980000" fill="red">
  <title>Dhaka</title>
</circle><line x1="1491.959961" y1="388.959991" x2="1421.959961" y2="387.959991" stroke="red" stroke-width="6.660000" />
<circle cx="962.960022" cy="348.959991" r="19.980000" fill="red">
  <title>Delhi</title>
</circle><line x1="1421.959961" y1="387.959991" x2="962.960022" y2="348.959991" stroke="red" stroke-width="6.660000" />
<circle cx="522.960022" cy="569.960022" r="19.980000" fill="red">
  <title>Karachi</title>
</circle><line x1="962.960022" y1="348.959991" x2="522.960022" y2="569.960022" stroke="red" stroke-width="6.660000" />
<circle cx="1203.959961" cy="1249.959961" r="19.980000" fill="red">
  <title>Mexico City</title>
</circle><line x1="522.960022" y1="569.960022" x2="1203.959961" y2="1249.959961" stroke="red" stroke-width="6.660000" />
<circle cx="768.960022" cy="1870.959961" r="19.980000" fill="red">
  <title>New York</title>
</circle><line x1="1203.959961" y1="1249.959961" x2="768.960022" y2="1870.959961" stroke="red" stroke-width="6.660000" />
<circle cx="729.960022" cy="1864.959961" r="19.980000" fill="red">
  <title>Shanghai</title>
</circle><line x1="768.960022" y1="1870.959961" x2="729.960022" y2="1864.959961" stroke="red" stroke-width="6.660000" />
<circle cx="1024.959961" cy="1741.959961" r="19.980000" fill="red">
  <title>Beijing</title>
</circle><line x1="729.960022" y1="1864.959961" x2="1024.959961" y2="1741.959961" stroke="red" stroke-width="6.660000" />
<circle cx="1888.959961" cy="1493.959961" r="19.980000" fill="red">
  <title>Osaka</title>
</circle><line x1="1024.959961" y1="1741.959961" x2="1888.959961" y2="1493.959961" stroke="red" stroke-width="6.660000" />
<circle cx="1423.959961" cy="975.960022" r="19.980000" fill="red">
  <title>São Paulo</title>
</circle><line x1="1888.959961" y1="1493.959961" x2="1423.959961" y2="975.960022" stroke="red" stroke-width="6.660000" />
<circle cx="1929.959961" cy="426.959991" r="19.980000" fill="red">
  <title>Buenos Aires</title>
</circle><line x1="1423.959961" y1="975.960022" x2="1929.959961" y2="426.959991" stroke="red" stroke-width="6.660000" />
</svg>
