<?xml version="1.0" encoding="UTF-8" standalone="no"?>
<svg width="500" height="500" viewBox="0 0 2074.000000 2074.000000" xmlns="http://www.w3.org/2000/svg">
<rect x="19.000000" y="19.000000" width="2036.000000" height="2036.000000" fill="black" />
<circle cx="380.959991" cy="1625.959961" r="19.980000" fill="red">
  <title>Tokyo</title>
</circle><line x1="1044.959961" y1="1295.959961" x2="380.959991" y2="1625.959961" stroke="red" stroke-width="6.660000" />
<circle cx="172.959991" cy="1786.959961" r="19.980000" fill="red">
  <title>Cairo</title>
</circle><line x1="380.959991" y1="1625.959961" x2="172.959991" y2="1786.959961" stroke="red" stroke-width="6.660000" />
<circle cx="499.959991" cy="775.960022" r="19.980000" fill="red">
  <title>Shanghai</title>
</circle><line x1="172.959991" y1="1786.959961" x2="499.959991" y2="775.960022" stroke="red" stroke-width="6.660000" />
<circle cx="565.960022" cy="687.960022" r="19.980000" fill="red">
  <title>Mumbai</title>
</circle><line x1="499.959991" y1="775.960022" x2="565.960022" y2="687.960022" stroke="red" stroke-width="6.660000" />
<circle cx="1725.959961" cy="71.959999" r="19.980000" fill="red">
  <title>São Paulo</title>
</circle><line x1="565.960022" y1="687.960022" x2="1725.959961" y2="71.959999" stroke="red" stroke-width="6.660000" />
<circle cx="1430.959961" cy="858.960022" r="19.980000" fill="red">
  <title>Delhi</title>
</circle><line x1="1725.959961" y1="71.959999" x2="1430.959961" y2="858.960022" stroke="red" stroke-width="6.660000" />
<circle cx="1175.959961" cy="1053.959961" r="19.980000" fill="red">
  <title>Dhaka</title>
</circle><line x1="1430.959961" y1="858.960022" x2="1175.959961" y2="1053.959961" stroke="red" stroke-width="6.660000" />
<circle cx="1427.959961" cy="1414.959961" r="19.980000" fill="red">
  <title>Osaka</title>
</circle><line x1="1175.959961" y1="1053.959961" x2="1427.959961" y2="1414.959961" stroke="red" stroke-width="6.660000" />
<circle cx="1540.959961" cy="1483.959961" r="19.980000" fill="red">
  <title>Beijing</title>
</circle><line x1="1427.959961" y1="1414.959961" x2="1540.959961" y2="1483.959961" stroke="red" stroke-width="6.660000" />
<circle cx="1044.959961" cy="1295.959961" r="19.980000" fill="red">
  <title>Mexico City</title>
</circle><line x1="1540.959961" y1="1483.959961" x2="1044.959961" y2="1295.959961" stroke="red" stroke-width="6.660000" />
</svg>
