<?xml version="1.0" encoding="UTF-8" standalone="no"?>
<svg width="500" height="500" viewBox="0 0 2074.000000 2074.000000" xmlns="http://www.w3.org/2000/svg">
<rect x="19.000000" y="19.000000" width="2036.000000" height="2036.000000" fill="black" />
<circle cx="654.960022" cy="973.960022" r="19.980000" fill="red">
  <title>Tokyo</title>
</circle><line x1="870.960022" y1="857.960022" x2="654.960022" y2="973.960022" stroke="red" stroke-width="6.660000" />
<circle cx="966.960022" cy="999.960022" r="19.980000" fill="red">
  <title>Dhaka</title>
</circle><line x1="654.960022" y1="973.960022" x2="966.960022" y2="999.960022" stroke="red" stroke-width="6.660000" />
<circle cx="1447.959961" cy="1142.959961" r="19.980000" fill="red">
  <title>Shanghai</title>
</circle><line x1="966.960022" y1="999.960022" x2="1447.959961" y2="1142.959961" stroke="red" stroke-width="6.660000" />
<circle cx="1605.959961" cy="1929.959961" r="19.980000" fill="red">
  <title>Cairo</title>
</circle><line x1="1447.959961" y1="1142.959961" x2="1605.959961" y2="1929.959961" stroke="red" stroke-width="6.660000" />
<circle cx="1610.959961" cy="1056.959961" r="19.980000" fill="red">
  <title>Mumbai</title>
</circle><line x1="1605.959961" y1="1929.959961" x2="1610.959961" y2="1056.959961" stroke="red" stroke-width="6.660000" />
<circle cx="1894.959961" cy="969.960022" r="19.980000" fill="red">
  <title>Mexico City</title>
</circle><line x1="1610.959961" y1="1056.959961" x2="1894.959961" y2="969.960022" stroke="red" stroke-width="6.660000" />
<circle cx="1792.959961" cy="786.960022" r="19.980000" fill="red">
  <title>Beijing</title>
</circle><line x1="1894.959961" y1="969.960022" x2="1792.959961" y2="786.960022" stroke="red" stroke-width="6.660000" />
<circle cx="1240.959961" cy="730.960022" r="19.980000" fill="red">
  <title>Delhi</title>
</circle><line x1="1792.959961" y1="786.960022" x2="1240.959961" y2="730.960022" stroke="red" stroke-width="6.660000" />
<circle cx="981.960022" cy="880.960022" r="19.980000" fill="red">
  <title>São Paulo</title>
</circle><line x1="1240.959961" y1="730.960022" x2="981.960022" y2="880.960022" stroke="red" stroke-width="6.660000" />
<circle cx="870.960022" cy="857.960022" r="19.980000" fill="red">
  <title>Osaka</title>
</circle><line x1="981.960022" y1="880.960022" x2="870.960022" y2="857.960022" stroke="red" stroke-width="6.660000" />
</svg>
