<?xml version="1.0" encoding="UTF-8" standalone="no"?>
<svg width="500" height="500" viewBox="0 0 2074.000000 2074.000000" xmlns="http://www.w3.org/2000/svg">
<rect x="19.000000" y="19.000000" width="2036.000000" height="2036.000000" fill="black" />
<circle cx="890.960022" cy="874.960022" r="19.980000" fill="red">
  <title>Tokyo</title>
</circle><line x1="1033.959961" y1="893.960022" x2="890.960022" y2="874.960022" stroke="red" stroke-width="6.660000" />
<circle cx="883.960022" cy="628.960022" r="19.980000" fill="red">
  <title>Cairo</title>
</circle><line x1="890.960022" y1="874.960022" x2="883.960022" y2="628.960022" stroke="red" stroke-width="6.660000" />
<circle cx="740.960022" cy="159.959991" r="19.980000" fill="red">
  <title>Beijing</title>
</circle><line x1="883.960022" y1="628.960022" x2="740.960022" y2="159.959991" stroke="red" stroke-width="6.660000" />
<circle cx="484.959991" cy="67.959999" r="19.980000" fill="red">
  <title>Delhi</title>
</circle><line x1="740.960022" y1="159.959991" x2="484.959991" y2="67.959999" stroke="red" stroke-width="6.660000" />
<circle cx="299.959991" cy="112.959999" r="19.980000" fill="red">
  <title>Buenos Aires</title>
</circle><line x1="484.959991" y1="67.959999" x2="299.959991" y2="112.959999" stroke="red" stroke-width="6.660000" />
<circle cx="48.959999" cy="485.959991" r="19.980000" fill="red">
  <title>Shanghai</title>
</circle><line x1="299.959991" y1="112.959999" x2="48.959999" y2="485.959991" stroke="red" stroke-width="6.660000" />
<circle cx="475.959991" cy="1016.960022" r="19.980000" fill="red">
  <title>Osaka</title>
</circle><line x1="48.959999" y1="485.959991" x2="475.959991" y2="1016.960022" stroke="red" stroke-width="6.660000" />
<circle cx="184.959991" cy="1702.959961" r="19.980000" fill="red">
  <title>Karachi</title>
</circle><line x1="475.959991" y1="1016.960022" x2="184.959991" y2="1702.959961" stroke="red" stroke-width="6.660000" />
<circle cx="625.960022" cy="1747.959961" r="19.980000" fill="red">
  <title>New York</title>
</circle><line x1="184.959991" y1="1702.959961" x2="625.960022" y2="1747.959961" stroke="red" stroke-width="6.660000" />
<circle cx="1030.959961" cy="1302.959961" r="19.980000" fill="red">
  <title>Chongqing</title>
</circle><line x1="625.960022" y1="1747.959961" x2="1030.959961" y2="1302.959961" stroke="red" stroke-width="6.660000" />
<circle cx="1941.959961" cy="1698.959961" r="19.980000" fill="red">
  <title>São Paulo</title>
</circle><line x1="1030.959961" y1="1302.959961" x2="1941.959961" y2="1698.959961" stroke="red" stroke-width="6.660000" />
<circle cx="1942.959961" cy="940.960022" r="19.980000" fill="red">
  <title>Mumbai</title>
</circle><line x1="1941.959961" y1="1698.959961" x2="1942.959961" y2="940.960022" stroke="red" stroke-width="6.660000" />
<circle cx="1788.959961" cy="673.960022" r="19.980000" fill="red">
  <title>Mexico City</title>
</circle><line x1="1942.959961" y1="940.960022" x2="1788.959961" y2="673.960022" stroke="red" stroke-width="6.660000" />
<circle cx="1142.959961" cy="571.960022" r="19.980000" fill="red">
  <title>Istanbul</title>
</circle><line x1="1788.959961" y1="673.960022" x2="1142.959961" y2="571.960022" stroke="red" stroke-width="6.660000" />
<circle cx="1033.959961" cy="893.960022" r="19.980000" fill="red">
  <title>Dhaka</title>
</circle><line x1="1142.959961" y1="571.960022" x2="1033.959961" y2="893.960022" stroke="red" stroke-width="6.660000" />
</svg>
