<?xml version="1.0" encoding="UTF-8" standalone="no"?>
<svg width="500" height="500" viewBox="0 0 2074.000000 2074.000000" xmlns="http://www.w3.org/2000/svg">
<rect x="19.000000" y="19.000000" width="2036.000000" height="2036.000000" fill="black" />
<circle cx="1861.959961" cy="408.959991" r="19.980000" fill="red">
  <title>Tokyo</title>
</circle><line x1="1780.959961" y1="313.959991" x2="1861.959961" y2="408.959991" stroke="red" stroke-width="6.660000" />
<circle cx="1941.959961" cy="529.960022" r="19.980000" fill="red">
  <title>Karachi</title>
</circle><line x1="1861.959961" y1="408.959991" x2="1941.959961" y2="529.960022" stroke="red" stroke-width="6.660000" />
<circle cx="1066.959961" cy="958.960022" r="19.980000" fill="red">
  <title>Shanghai</title>
</circle><line x1="1941.959961" y1="529.960022" x2="1066.959961" y2="958.960022" stroke="red" stroke-width="6.660000" />
<circle cx="1244.959961" cy="1653.959961" r="19.980000" fill="red">
  <title>New York</title>
</circle><line x1="1066.959961" y1="958.960022" x2="1244.959961" y2="1653.959961" stroke="red" stroke-width="6.660000" />
<circle cx="1750.959961" cy="2015.959961" r="19.980000" fill="red">
  <title>Mumbai</title>
</circle><line x1="1244.959961" y1="1653.959961" x2="1750.959961" y2="2015.959961" stroke="red" stroke-width="6.660000" />
<circle cx="927.960022" cy="1878.959961" r="19.980000" fill="red">
  <title>Dhaka</title>
</circle><line x1="1750.959961" y1="2015.959961" x2="927.960022" y2="1878.959961" stroke="red" stroke-width="6.660000" />
<circle cx="599.960022" cy="1383.959961" r="19.980000" fill="red">
  <title>Beijing</title>
</circle><line x1="927.960022" y1="1878.959961" x2="599.960022" y2="1383.959961" stroke="red" stroke-width="6.660000" />
<circle cx="311.959991" cy="1313.959961" r="19.980000" fill="red">
  <title>Mexico City</title>
</circle><line x1="599.960022" y1="1383.959961" x2="311.959991" y2="1313.959961" stroke="red" stroke-width="6.660000" />
<circle cx="791.960022" cy="1190.959961" r="19.980000" fill="red">
  <title>Delhi</title>
</circle><line x1="311.959991" y1="1313.959961" x2="791.960022" y2="1190.959961" stroke="red" stroke-width="6.660000" />
<circle cx="760.960022" cy="1156.959961" r="19.980000" fill="red">
  <title>Osaka</title>
</circle><line x1="791.960022" y1="1190.959961" x2="760.960022" y2="1156.959961" stroke="red" stroke-width="6.660000" />
<circle cx="830.960022" cy="80.959999" r="19.980000" fill="red">
  <title>Cairo</title>
</circle><line x1="760.960022" y1="1156.959961" x2="830.960022" y2="80.959999" stroke="red" stroke-width="6.660000" />
<circle cx="921.960022" cy="52.959999" r="19.980000" fill="red">
  <title>São Paulo</title>
</circle><line x1="830.960022" y1="80.959999" x2="921.960022" y2="52.959999" stroke="red" stroke-width="6.660000" />
<circle cx="1780.959961" cy="313.959991" r="19.980000" fill="red">
  <title>Buenos Aires</title>
</circle><line x1="921.960022" y1="52.959999" x2="1780.959961" y2="313.959991" stroke="red" stroke-width="6.660000" />
</svg>
