<?xml version="1.0" encoding="UTF-8" standalone="no"?>
<svg width="500" height="500" viewBox="0 0 2074.000000 2074.000000" xmlns="http://www.w3.org/2000/svg">
<rect x="19.000000" y="19.000000" width="2036.000000" height="2036.000000" fill="black" />
<circle cx="377.959991" cy="197.959991" r="19.980000" fill="red">
  <title>Tokyo</title>
</circle><line x1="642.960022" y1="492.959991" x2="377.959991" y2="197.959991" stroke="red" stroke-width="6.660000" />
<circle cx="264.959991" cy="676.960022" r="19.980000" fill="red">
  <title>Dhaka</title>
</circle><line x1="377.959991" y1="197.959991" x2="264.959991" y2="676.960022" stroke="red" stroke-width="6.660000" />
<circle cx="248.959991" cy="1276.959961" r="19.980000" fill="red">
  <title>Mexico City</title>
</circle><line x1="264.959991" y1="676.960022" x2="248.959991" y2="1276.959961" stroke="red" stroke-width="6.660000" />
<circle cx="605.960022" cy="1472.959961" r="19.980000" fill="red">
  <title>Chongqing</title>
</circle><line x1="248.959991" y1="1276.959961" x2="605.960022" y2="1472.959961" stroke="red" stroke-width="6.660000" />
<circle cx="843.960022" cy="1147.959961" r="19.980000" fill="red">
  <title>Manila</title>
</circle><line x1="605.960022" y1="1472.959961" x2="843.960022" y2="1147.959961" stroke="red" stroke-width="6.660000" />
<circle cx="1313.959961" cy="1558.959961" r="19.980000" fill="red">
  <title>Kolkata</title>
</circle><line x1="843.960022" y1="1147.959961" x2="1313.959961" y2="1558.959961" stroke="red" stroke-width="6.660000" />
<circle cx="1209.959961" cy="1984.959961" r="19.980000" fill="red">
  <title>São Paulo</title>
</circle><line x1="1313.959961" y1="1558.959961" x2="1209.959961" y2="1984.959961" stroke="red" stroke-width="6.660000" />
<circle cx="1872.959961" cy="1799.959961" r="19.980000" fill="red">
  <title>Delhi</title>
</circle><line x1="1209.959961" y1="1984.959961" x2="1872.959961" y2="1799.959961" stroke="red" stroke-width="6.660000" />
<circle cx="1888.959961" cy="1582.959961" r="19.980000" fill="red">
  <title>Beijing</title>
</circle><line x1="1872.959961" y1="1799.959961" x2="1888.959961" y2="1582.959961" stroke="red" stroke-width="6.660000" />
<circle cx="1967.959961" cy="1322.959961" r="19.980000" fill="red">
  <title>Karachi</title>
</circle><line x1="1888.959961" y1="1582.959961" x2="1967.959961" y2="1322.959961" stroke="red" stroke-width="6.660000" />
<circle cx="1870.959961" cy="1412.959961" r="19.980000" fill="red">
  <title>Buenos Aires</title>
</circle><line x1="1967.959961" y1="1322.959961" x2="1870.959961" y2="1412.959961" stroke="red" stroke-width="6.660000" />
<circle cx="1618.959961" cy="1532.959961" r="19.980000" fill="red">
  <title>Shanghai</title>
</circle><line x1="1870.959961" y1="1412.959961" x2="1618.959961" y2="1532.959961" stroke="red" stroke-width="6.660000" />
<circle cx="1232.959961" cy="1296.959961" r="19.980000" fill="red">
  <title>Osaka</title>
</circle><line x1="1618.959961" y1="1532.959961" x2="1232.959961" y2="1296.959961" stroke="red" stroke-width="6.660000" />
<circle cx="1220.959961" cy="685.960022" r="19.980000" fill="red">
  <title>Istanbul</title>
</circle><line x1="1232.959961" y1="1296.959961" x2="1220.959961" y2="685.960022" stroke="red" stroke-width="6.660000" />
<circle cx="1630.959961" cy="134.959991" r="19.980000" fill="red">
  <title>Cairo</title>
</circle><line x1="1220.959961" y1="685.960022" x2="1630.959961" y2="134.959991" stroke="red" stroke-width="6.660000" />
<circle cx="1820.959961" cy="71.959999" r="19.980000" fill="red">
  <title>New York</title>
</circle><line x1="1630.959961" y1="134.959991" x2="1820.959961" y2="71.959999" stroke="red" stroke-width="6.660000" />
<circle cx="1320.959961" cy="424.959991" r="19.980000" fill="red">
  <title>Lagos</title>
</circle><line x1="1820.959961" y1="71.959999" x2="1320.959961" y2="424.959991" stroke="red" stroke-width="6.660000" />
<circle cx="1035.959961" cy="595.960022" r="19.980000" fill="red">
  <title>Mumbai</title>
</circle><line x1="1320.959961" y1="424.959991" x2="1035.959961" y2="595.960022" stroke="red" stroke-width="6.660000" />
<circle cx="642.960022" cy="492.959991" r="19.980000" fill="red">
  <title>Rio de Janeiro</title>
</circle><line x1="1035.959961" y1="595.960022" x2="642.960022" y2="492.959991" stroke="red" stroke-width="6.660000" />
</svg>
