<?xml version="1.0" encoding="UTF-8" standalone="no"?>
<svg width="500" height="500" viewBox="0 0 2074.000000 2074.000000" xmlns="http://www.w3.org/2000/svg">
<rect x="19.000000" y="19.000000" width="2036.000000" height="2036.000000" fill="black" />
<circle cx="1716.959961" cy="851.960022" r="19.980000" fill="red">
  <title>Tokyo</title>
</circle><line x1="1760.959961" y1="1272.959961" x2="1716.959961" y2="851.960022" stroke="red" stroke-width="6.660000" />
<circle cx="1549.959961" cy="522.960022" r="19.980000" fill="red">
  <title>Cairo</title>
</circle><line x1="1716.959961" y1="851.960022" x2="1549.959961" y2="522.960022" stroke="red" stroke-width="6.660000" />
<circle cx="1502.959961" cy="494.959991" r="19.980000" fill="red">
  <title>Buenos Aires</title>
</circle><line x1="1549.959961" y1="522.960022" x2="1502.959961" y2="494.959991" stroke="red" stroke-width="6.660000" />
<circle cx="1584.959961" cy="119.959999" r="19.980000" fill="red">
  <title>Dhaka</title>
</circle><line x1="1502.959961" y1="494.959991" x2="1584.959961" y2="119.959999" stroke="red" stroke-width="6.660000" />
<circle cx="1318.959961" cy="148.959991" r="19.980000" fill="red">
  <title>Osaka</title>
</circle><line x1="1584.959961" y1="119.959999" x2="1318.959961" y2="148.959991" stroke="red" stroke-width="6.660000" />
<circle cx="1001.960022" cy="309.959991" r="19.980000" fill="red">
  <title>Beijing</title>
</circle><line x1="1318.959961" y1="148.959991" x2="1001.960022" y2="309.959991" stroke="red" stroke-width="6.660000" />
<circle cx="361.959991" cy="124.959999" r="19.980000" fill="red">
  <title>New York</title>
</circle><line x1="1001.960022" y1="309.959991" x2="361.959991" y2="124.959999" stroke="red" stroke-width="6.660000" />
<circle cx="276.959991" cy="159.959991" r="19.980000" fill="red">
  <title>Chongqing</title>
</circle><line x1="361.959991" y1="124.959999" x2="276.959991" y2="159.959991" stroke="red" stroke-width="6.660000" />
<circle cx="188.959991" cy="447.959991" r="19.980000" fill="red">
  <title>São Paulo</title>
</circle><line x1="276.959991" y1="159.959991" x2="188.959991" y2="447.959991" stroke="red" stroke-width="6.660000" />
<circle cx="590.960022" cy="900.960022" r="19.980000" fill="red">
  <title>Shanghai</title>
</circle><line x1="188.959991" y1="447.959991" x2="590.960022" y2="900.960022" stroke="red" stroke-width="6.660000" />
<circle cx="247.959991" cy="1808.959961" r="19.980000" fill="red">
  <title>Mumbai</title>
</circle><line x1="590.960022" y1="900.960022" x2="247.959991" y2="1808.959961" stroke="red" stroke-width="6.660000" />
<circle cx="1155.959961" cy="1350.959961" r="19.980000" fill="red">
  <title>Mexico City</title>
</circle><line x1="247.959991" y1="1808.959961" x2="1155.959961" y2="1350.959961" stroke="red" stroke-width="6.660000" />
<circle cx="1135.959961" cy="865.960022" r="19.980000" fill="red">
  <title>Karachi</title>
</circle><line x1="1155.959961" y1="1350.959961" x2="1135.959961" y2="865.960022" stroke="red" stroke-width="6.660000" />
<circle cx="1594.959961" cy="950.960022" r="19.980000" fill="red">
  <title>Istanbul</title>
</circle><line x1="1135.959961" y1="865.960022" x2="1594.959961" y2="950.960022" stroke="red" stroke-width="6.660000" />
<circle cx="1742.959961" cy="1261.959961" r="19.980000" fill="red">
  <title>Delhi</title>
</circle><line x1="1594.959961" y1="950.960022" x2="1742.959961" y2="1261.959961" stroke="red" stroke-width="6.660000" />
<circle cx="1762.959961" cy="1465.959961" r="19.980000" fill="red">
  <title>Manila</title>
</circle><line x1="1742.959961" y1="1261.959961" x2="1762.959961" y2="1465.959961" stroke="red" stroke-width="6.660000" />
<circle cx="1760.959961" cy="1272.959961" r="19.980000" fill="red">
  <title>Kolkata</title>
</circle><line x1="1762.959961" y1="1465.959961" x2="1760.959961" y2="1272.959961" stroke="red" stroke-width="6.660000" />
</svg>
