<?xml version="1.0" encoding="UTF-8" standalone="no"?>
<svg width="500" height="500" viewBox="0 0 2074.000000 2074.000000" xmlns="http://www.w3.org/2000/svg">
<rect x="19.000000" y="19.000000" width="2036.000000" height="2036.000000" fill="black" />
<circle cx="1636.959961" cy="1178.959961" r="19.980000" fill="red">
  <title>Tokyo</title>
</circle><line x1="1013.960022" y1="1235.959961" x2="1636.959961" y2="1178.959961" stroke="red" stroke-width="6.660000" />
<circle cx="1286.959961" cy="1047.959961" r="19.980000" fill="red">
  <title>Shanghai</title>
</circle><line x1="1636.959961" y1="1178.959961" x2="1286.959961" y2="1047.959961" stroke="red" stroke-width="6.660000" />
<circle cx="590.960022" cy="239.959991" r="19.980000" fill="red">
  <title>Delhi</title>
</circle><line x1="1286.959961" y1="1047.959961" x2="590.960022" y2="239.959991" stroke="red" stroke-width="6.660000" />
<circle cx="687.960022" cy="690.960022" r="19.980000" fill="red">
  <title>Mexico City</title>
</circle><line x1="590.960022" y1="239.959991" x2="687.960022" y2="690.960022" stroke="red" stroke-width="6.660000" />
<circle cx="1013.960022" cy="1235.959961" r="19.980000" fill="red">
  <title>São Paulo</title>
</circle><line x1="687.960022" y1="690.960022" x2="1013.960022" y2="1235.959961" stroke="red" stroke-width="6.660000" />
</svg>
