<?xml version="1.0" encoding="UTF-8" standalone="no"?>
<svg width="500" height="500" viewBox="0 0 2074.000000 2074.000000" xmlns="http://www.w3.org/2000/svg">
<rect x="19.000000" y="19.000000" width="2036.000000" height="2036.000000" fill="black" />
<circle cx="455.959991" cy="1312.959961" r="19.980000" fill="red">
  <title>Tokyo</title>
</circle><line x1="193.959991" y1="1403.959961" x2="455.959991" y2="1312.959961" stroke="red" stroke-width="6.660000" />
<circle cx="1001.960022" cy="1249.959961" r="19.980000" fill="red">
  <title>Mumbai</title>
</circle><line x1="455.959991" y1="1312.959961" x2="1001.960022" y2="1249.959961" stroke="red" stroke-width="6.660000" />
<circle cx="1153.959961" cy="1123.959961" r="19.980000" fill="red">
  <title>Cairo</title>
</circle><line x1="1001.960022" y1="1249.959961" x2="1153.959961" y2="1123.959961" stroke="red" stroke-width="6.660000" />
<circle cx="1199.959961" cy="1337.959961" r="19.980000" fill="red">
  <title>São Paulo</title>
</circle><line x1="1153.959961" y1="1123.959961" x2="1199.959961" y2="1337.959961" stroke="red" stroke-width="6.660000" />
<circle cx="1097.959961" cy="1632.959961" r="19.980000" fill="red">
  <title>Delhi</title>
</circle><line x1="1199.959961" y1="1337.959961" x2="1097.959961" y2="1632.959961" stroke="red" stroke-width="6.660000" />
<circle cx="915.960022" cy="1913.959961" r="19.980000" fill="red">
  <title>Shanghai</title>
</circle><line x1="1097.959961" y1="1632.959961" x2="915.960022" y2="1913.959961" stroke="red" stroke-width="6.660000" />
<circle cx="1672.959961" cy="2023.959961" r="19.980000" fill="red">
  <title>Chongqing</title>
</circle><line x1="915.960022" y1="1913.959961" x2="1672.959961" y2="2023.959961" stroke="red" stroke-width="6.660000" />
<circle cx="1820.959961" cy="1653.959961" r="19.980000" fill="red">
  <title>Kolkata</title>
</circle><line x1="1672.959961" y1="2023.959961" x2="1820.959961" y2="1653.959961" stroke="red" stroke-width="6.660000" />
<circle cx="1868.959961" cy="1281.959961" r="19.980000" fill="red">
  <title>Karachi</title>
</circle><line x1="1820.959961" y1="1653.959961" x2="1868.959961" y2="1281.959961" stroke="red" stroke-width="6.660000" />
<circle cx="1782.959961" cy="879.960022" r="19.980000" fill="red">
  <title>Manila</title>
</circle><line x1="1868.959961" y1="1281.959961" x2="1782.959961" y2="879.960022" stroke="red" stroke-width="6.660000" />
<circle cx="1644.959961" cy="238.959991" r="19.980000" fill="red">
  <title>Dhaka</title>
</circle><line x1="1782.959961" y1="879.960022" x2="1644.959961" y2="238.959991" stroke="red" stroke-width="6.660000" />
<circle cx="1566.959961" cy="302.959991" r="19.980000" fill="red">
  <title>Osaka</title>
</circle><line x1="1644.959961" y1="238.959991" x2="1566.959961" y2="302.959991" stroke="red" stroke-width="6.660000" />
<circle cx="1236.959961" cy="508.959991" r="19.980000" fill="red">
  <title>Istanbul</title>
</circle><line x1="1566.959961" y1="302.959991" x2="1236.959961" y2="508.959991" stroke="red" stroke-width="6.660000" />
<circle cx="1229.959961" cy="814.960022" r="19.980000" fill="red">
  <title>Buenos Aires</title>
</circle><line x1="1236.959961" y1="508.959991" x2="1229.959961" y2="814.960022" stroke="red" stroke-width="6.660000" />
<circle cx="1247.959961" cy="660.960022" r="19.980000" fill="red">
  <title>Lagos</title>
</circle><line x1="1229.959961" y1="814.960022" x2="1247.959961" y2="660.960022" stroke="red" stroke-width="6.660000" />
<circle cx="754.960022" cy="409.959991" r="19.980000" fill="red">
  <title>Rio de Janeiro</title>
</circle><line x1="1247.959961" y1="660.960022" x2="754.960022" y2="409.959991" stroke="red" stroke-width="6.660000" />
<circle cx="562.960022" cy="505.959991" r="19.980000" fill="red">
  <title>Mexico City</title>
</circle><line x1="754.960022" y1="409.959991" x2="562.960022" y2="505.959991" stroke="red" stroke-width="6.660000" />
<circle cx="165.959991" cy="308.959991" r="19.980000" fill="red">
  <title>New York</title>
</circle><line x1="562.960022" y1="505.959991" x2="165.959991" y2="308.959991" stroke="red" stroke-width="6.660000" />
<circle cx="193.959991" cy="1403.959961" r="19.980000" fill="red">
  <title>Beijing</title>
</circle><line x1="165.959991" y1="308.959991" x2="193.959991" y2="1403.959961" stroke="red" stroke-width="6.660000" />
</svg>
