<?xml version="1.0" encoding="UTF-8" standalone="no"?>
<svg width="500" height="500" viewBox="0 0 2074.000000 2074.000000" xmlns="http://www.w3.org/2000/svg">
<rect x="19.000000" y="19.000000" width="2036.000000" height="2036.000000" fill="black" />
<circle cx="850.960022" cy="1457.959961" r="19.980000" fill="red">
  <title>Tokyo</title>
</circle><line x1="819.960022" y1="2020.959961" x2="850.960022" y2="1457.959961" stroke="red" stroke-width="6.660000" />
<circle cx="948.960022" cy="1215.959961" r="19.980000" fill="red">
  <title>Mumbai</title>
</circle><line x1="850.960022" y1="1457.959961" x2="948.960022" y2="1215.959961" stroke="red" stroke-width="6.660000" />
<circle cx="759.960022" cy="1328.959961" r="19.980000" fill="red">
  <title>Buenos Aires</title>
</circle><line x1="948.960022" y1="1215.959961" x2="759.960022" y2="1328.959961" stroke="red" stroke-width="6.660000" />
<circle cx="146.959991" cy="1084.959961" r="19.980000" fill="red">
  <title>Delhi</title>
</circle><line x1="759.960022" y1="1328.959961" x2="146.959991" y2="1084.959961" stroke="red" stroke-width="6.660000" />
<circle cx="273.959991" cy="588.960022" r="19.980000" fill="red">
  <title>New York</title>
</circle><line x1="146.959991" y1="1084.959961" x2="273.959991" y2="588.960022" stroke="red" stroke-width="6.660000" />
<circle cx="136.959991" cy="429.959991" r="19.980000" fill="red">
  <title>Istanbul</title>
</circle><line x1="273.959991" y1="588.960022" x2="136.959991" y2="429.959991" stroke="red" stroke-width="6.660000" />
<circle cx="440.959991" cy="491.959991" r="19.980000" fill="red">
  <title>Osaka</title>
</circle><line x1="136.959991" y1="429.959991" x2="440.959991" y2="491.959991" stroke="red" stroke-width="6.660000" />
<circle cx="999.960022" cy="370.959991" r="19.980000" fill="red">
  <title>Karachi</title>
</circle><line x1="440.959991" y1="491.959991" x2="999.960022" y2="370.959991" stroke="red" stroke-width="6.660000" />
<circle cx="1096.959961" cy="211.959991" r="19.980000" fill="red">
  <title>Cairo</title>
</circle><line x1="999.960022" y1="370.959991" x2="1096.959961" y2="211.959991" stroke="red" stroke-width="6.660000" />
<circle cx="1154.959961" cy="486.959991" r="19.980000" fill="red">
  <title>Dhaka</title>
</circle><line x1="1096.959961" y1="211.959991" x2="1154.959961" y2="486.959991" stroke="red" stroke-width="6.660000" />
<circle cx="1300.959961" cy="533.960022" r="19.980000" fill="red">
  <title>Beijing</title>
</circle><line x1="1154.959961" y1="486.959991" x2="1300.959961" y2="533.960022" stroke="red" stroke-width="6.660000" />
<circle cx="1611.959961" cy="947.960022" r="19.980000" fill="red">
  <title>Kolkata</title>
</circle><line x1="1300.959961" y1="533.960022" x2="1611.959961" y2="947.960022" stroke="red" stroke-width="6.660000" />
<circle cx="1662.959961" cy="1244.959961" r="19.980000" fill="red">
  <title>São Paulo</title>
</circle><line x1="1611.959961" y1="947.960022" x2="1662.959961" y2="1244.959961" stroke="red" stroke-width="6.660000" />
<circle cx="1848.959961" cy="1718.959961" r="19.980000" fill="red">
  <title>Manila</title>
</circle><line x1="1662.959961" y1="1244.959961" x2="1848.959961" y2="1718.959961" stroke="red" stroke-width="6.660000" />
<circle cx="1981.959961" cy="1848.959961" r="19.980000" fill="red">
  <title>Mexico City</title>
</circle><line x1="1848.959961" y1="1718.959961" x2="1981.959961" y2="1848.959961" stroke="red" stroke-width="6.660000" />
<circle cx="1535.959961" cy="1809.959961" r="19.980000" fill="red">
  <title>Shanghai</title>
</circle><line x1="1981.959961" y1="1848.959961" x2="1535.959961" y2="1809.959961" stroke="red" stroke-width="6.660000" />
<circle cx="819.960022" cy="2020.959961" r="19.980000" fill="red">
  <title>Chongqing</title>
</circle><line x1="1535.959961" y1="1809.959961" x2="819.960022" y2="2020.959961" stroke="red" stroke-width="6.660000" />
</svg>
