<?xml version="1.0" encoding="UTF-8" standalone="no"?>
<svg width="500" height="500" viewBox="0 0 2074.000000 2074.000000" xmlns="http://www.w3.org/2000/svg">
<rect x="19.000000" y="19.000000" width="2036.000000" height="2036.000000" fill="black" />
<circle cx="1529.959961" cy="1259.959961" r="19.980000" fill="red">
  <title>Tokyo</title>
</circle><line x1="1794.959961" y1="889.960022" x2="1529.959961" y2="1259.959961" stroke="red" stroke-width="6.660000" />
<circle cx="1887.959961" cy="1530.959961" r="19.980000" fill="red">
  <title>Delhi</title>
</circle><line x1="1529.959961" y1="1259.959961" x2="1887.959961" y2="1530.959961" stroke="red" stroke-width="6.660000" />
<circle cx="1531.959961" cy="1663.959961" r="19.980000" fill="red">
  <title>Mexico City</title>
</circle><line x1="1887.959961" y1="1530.959961" x2="1531.959961" y2="1663.959961" stroke="red" stroke-width="6.660000" />
<circle cx="1256.959961" cy="1747.959961" r="19.980000" fill="red">
  <title>Mumbai</title>
</circle><line x1="1531.959961" y1="1663.959961" x2="1256.959961" y2="1747.959961" stroke="red" stroke-width="6.660000" />
<circle cx="973.960022" cy="1255.959961" r="19.980000" fill="red">
  <title>Cairo</title>
</circle><line x1="1256.959961" y1="1747.959961" x2="973.960022" y2="1255.959961" stroke="red" stroke-width="6.660000" />
<circle cx="622.960022" cy="1587.959961" r="19.980000" fill="red">
  <title>Karachi</title>
</circle><line x1="973.960022" y1="1255.959961" x2="622.960022" y2="1587.959961" stroke="red" stroke-width="6.660000" />
<circle cx="301.959991" cy="1720.959961" r="19.980000" fill="red">
  <title>São Paulo</title>
</circle><line x1="622.960022" y1="1587.959961" x2="301.959991" y2="1720.959961" stroke="red" stroke-width="6.660000" />
<circle cx="239.959991" cy="1465.959961" r="19.980000" fill="red">
  <title>New York</title>
</circle><line x1="301.959991" y1="1720.959961" x2="239.959991" y2="1465.959961" stroke="red" stroke-width="6.660000" />
<circle cx="232.959991" cy="1018.960022" r="19.980000" fill="red">
  <title>Beijing</title>
</circle><line x1="239.959991" y1="1465.959961" x2="232.959991" y2="1018.960022" stroke="red" stroke-width="6.660000" />
<circle cx="603.960022" cy="244.959991" r="19.980000" fill="red">
  <title>Shanghai</title>
</circle><line x1="232.959991" y1="1018.960022" x2="603.960022" y2="244.959991" stroke="red" stroke-width="6.660000" />
<circle cx="1135.959961" cy="605.960022" r="19.980000" fill="red">
  <title>Osaka</title>
</circle><line x1="603.960022" y1="244.959991" x2="1135.959961" y2="605.960022" stroke="red" stroke-width="6.660000" />
<circle cx="1665.959961" cy="682.960022" r="19.980000" fill="red">
  <title>Buenos Aires</title>
</circle><line x1="1135.959961" y1="605.960022" x2="1665.959961" y2="682.960022" stroke="red" stroke-width="6.660000" />
<circle cx="1794.959961" cy="889.960022" r="19.980000" fill="red">
  <title>Dhaka</title>
</circle><line x1="1665.959961" y1="682.960022" x2="1794.959961" y2="889.960022" stroke="red" stroke-width="6.660000" />
</svg>
