<?xml version="1.0" encoding="UTF-8" standalone="no"?>
<svg width="500" height="500" viewBox="0 0 2074.000000 2074.000000" xmlns="http://www.w3.org/2000/svg">
<rect x="19.000000" y="19.000000" width="2036.000000" height="2036.000000" fill="black" />
<circle cx="448.959991" cy="209.959991" r="19.980000" fill="red">
  <title>Tokyo</title>
</circle><line x1="1063.959961" y1="487.959991" x2="448.959991" y2="209.959991" stroke="red" stroke-width="6.660000" />
<circle cx="302.959991" cy="55.959999" r="19.980000" fill="red">
  <title>Kolkata</title>
</circle><line x1="448.959991" y1="209.959991" x2="302.959991" y2="55.959999" stroke="red" stroke-width="6.660000" />
<circle cx="197.959991" cy="955.960022" r="19.980000" fill="red">
  <title>Cairo</title>
</circle><line x1="302.959991" y1="55.959999" x2="197.959991" y2="955.960022" stroke="red" stroke-width="6.660000" />
<circle cx="223.959991" cy="993.960022" r="19.980000" fill="red">
  <title>Delhi</title>
</circle><line x1="197.959991" y1="955.960022" x2="223.959991" y2="993.960022" stroke="red" stroke-width="6.660000" />
<circle cx="730.960022" cy="1105.959961" r="19.980000" fill="red">
  <title>Mexico City</title>
</circle><line x1="223.959991" y1="993.960022" x2="730.960022" y2="1105.959961" stroke="red" stroke-width="6.660000" />
<circle cx="865.960022" cy="1204.959961" r="19.980000" fill="red">
  <title>Osaka</title>
</circle><line x1="730.960022" y1="1105.959961" x2="865.960022" y2="1204.959961" stroke="red" stroke-width="6.660000" />
<circle cx="440.959991" cy="1212.959961" r="19.980000" fill="red">
  <title>Karachi</title>
</circle><line x1="865.960022" y1="1204.959961" x2="440.959991" y2="1212.959961" stroke="red" stroke-width="6.660000" />
<circle cx="197.959991" cy="1365.959961" r="19.980000" fill="red">
  <title>São Paulo</title>
</circle><line x1="440.959991" y1="1212.959961" x2="197.959991" y2="1365.959961" stroke="red" stroke-width="6.660000" />
<circle cx="365.959991" cy="1967.959961" r="19.980000" fill="red">
  <title>Beijing</title>
</circle><line x1="197.959991" y1="1365.959961" x2="365.959991" y2="1967.959961" stroke="red" stroke-width="6.660000" />
<circle cx="661.960022" cy="1669.959961" r="19.980000" fill="red">
  <title>Shanghai</title>
</circle><line x1="365.959991" y1="1967.959961" x2="661.960022" y2="1669.959961" stroke="red" stroke-width="6.660000" />
<circle cx="1010.960022" cy="1686.959961" r="19.980000" fill="red">
  <title>Lagos</title>
</circle><line x1="661.960022" y1="1669.959961" x2="1010.960022" y2="1686.959961" stroke="red" stroke-width="6.660000" />
<circle cx="1430.959961" cy="1321.959961" r="19.980000" fill="red">
  <title>Buenos Aires</title>
</circle><line x1="1010.960022" y1="1686.959961" x2="1430.959961" y2="1321.959961" stroke="red" stroke-width="6.660000" />
<circle cx="1453.959961" cy="1078.959961" r="19.980000" fill="red">
  <title>New York</title>
</circle><line x1="1430.959961" y1="1321.959961" x2="1453.959961" y2="1078.959961" stroke="red" stroke-width="6.660000" />
<circle cx="1645.959961" cy="893.960022" r="19.980000" fill="red">
  <title>Istanbul</title>
</circle><line x1="1453.959961" y1="1078.959961" x2="1645.959961" y2="893.960022" stroke="red" stroke-width="6.660000" />
<circle cx="1563.959961" cy="606.960022" r="19.980000" fill="red">
  <title>Chongqing</title>
</circle><line x1="1645.959961" y1="893.960022" x2="1563.959961" y2="606.960022" stroke="red" stroke-width="6.660000" />
<circle cx="1496.959961" cy="347.959991" r="19.980000" fill="red">
  <title>Mumbai</title>
</circle><line x1="1563.959961" y1="606.960022" x2="1496.959961" y2="347.959991" stroke="red" stroke-width="6.660000" />
<circle cx="1260.959961" cy="45.959999" r="19.980000" fill="red">
  <title>Dhaka</title>
</circle><line x1="1496.959961" y1="347.959991" x2="1260.959961" y2="45.959999" stroke="red" stroke-width="6.660000" />
<circle cx="1063.959961" cy="487.959991" r="19.980000" fill="red">
  <title>Manila</title>
</circle><line x1="1260.959961" y1="45.959999" x2="1063.959961" y2="487.959991" stroke="red" stroke-width="6.660000" />
</svg>
