<?xml version="1.0" encoding="UTF-8" standalone="no"?>
<svg width="500" height="500" viewBox="0 0 2074.000000 2074.000000" xmlns="http://www.w3.org/2000/svg">
<rect x="19.000000" y="19.000000" width="2036.000000" height="2036.000000" fill="black" />
<circle cx="1397.959961" cy="280.959991" r="19.980000" fill="red">
  <title>Tokyo</title>
</circle><line x1="1710.959961" y1="978.960022" x2="1397.959961" y2="280.959991" stroke="red" stroke-width="6.660000" />
<circle cx="1658.959961" cy="1090.959961" r="19.980000" fill="red">
  <title>São Paulo</title>
</circle><line x1="1397.959961" y1="280.959991" x2="1658.959961" y2="1090.959961" stroke="red" stroke-width="6.660000" />
<circle cx="1170.959961" cy="1325.959961" r="19.980000" fill="red">
  <title>Beijing</title>
</circle><line x1="1658.959961" y1="1090.959961" x2="1170.959961" y2="1325.959961" stroke="red" stroke-width="6.660000" />
<circle cx="745.960022" cy="1310.959961" r="19.980000" fill="red">
  <title>Shanghai</title>
</circle><line x1="1170.959961" y1="1325.959961" x2="745.960022" y2="1310.959961" stroke="red" stroke-width="6.660000" />
<circle cx="129.959991" cy="1857.959961" r="19.980000" fill="red">
  <title>Dhaka</title>
</circle><line x1="745.960022" y1="1310.959961" x2="129.959991" y2="1857.959961" stroke="red" stroke-width="6.660000" />
<circle cx="1077.959961" cy="1956.959961" r="19.980000" fill="red">
  <title>Mexico City</title>
</circle><line x1="129.959991" y1="1857.959961" x2="1077.959961" y2="1956.959961" stroke="red" stroke-width="6.660000" />
<circle cx="1230.959961" cy="1775.959961" r="19.980000" fill="red">
  <title>Osaka</title>
</circle><line x1="1077.959961" y1="1956.959961" x2="1230.959961" y2="1775.959961" stroke="red" stroke-width="6.660000" />
<circle cx="1629.959961" cy="1268.959961" r="19.980000" fill="red">
  <title>Delhi</title>
</circle><line x1="1230.959961" y1="1775.959961" x2="1629.959961" y2="1268.959961" stroke="red" stroke-width="6.660000" />
<circle cx="1763.959961" cy="1180.959961" r="19.980000" fill="red">
  <title>Cairo</title>
</circle><line x1="1629.959961" y1="1268.959961" x2="1763.959961" y2="1180.959961" stroke="red" stroke-width="6.660000" />
<circle cx="1710.959961" cy="978.960022" r="19.980000" fill="red">
  <title>Mumbai</title>
</circle><line x1="1763.959961" y1="1180.959961" x2="1710.959961" y2="978.960022" stroke="red" stroke-width="6.660000" />
</svg>
