<?xml version="1.0" encoding="UTF-8" standalone="no"?>
<svg width="500" height="500" viewBox="0 0 2074.000000 2074.000000" xmlns="http://www.w3.org/2000/svg">
<rect x="19.000000" y="19.000000" width="2036.000000" height="2036.000000" fill="black" />
<circle cx="559.960022" cy="828.960022" r="19.980000" fill="red">
  <title>Tokyo</title>
</circle><line x1="396.959991" y1="1230.959961" x2="559.960022" y2="828.960022" stroke="red" stroke-width="6.660000" />
<circle cx="710.960022" cy="617.960022" r="19.980000" fill="red">
  <title>Istanbul</title>
</circle><line x1="559.960022" y1="828.960022" x2="710.960022" y2="617.960022" stroke="red" stroke-width="6.660000" />
<circle cx="821.960022" cy="472.959991" r="19.980000" fill="red">
  <title>Dhaka</title>
</circle><line x1="710.960022" y1="617.960022" x2="821.960022" y2="472.959991" stroke="red" stroke-width="6.660000" />
<circle cx="663.960022" cy="161.959991" r="19.980000" fill="red">
  <title>Buenos Aires</title>
</circle><line x1="821.960022" y1="472.959991" x2="663.960022" y2="161.959991" stroke="red" stroke-width="6.660000" />
<circle cx="930.960022" cy="328.959991" r="19.980000" fill="red">
  <title>Karachi</title>
</circle><line x1="663.960022" y1="161.959991" x2="930.960022" y2="328.959991" stroke="red" stroke-width="6.660000" />
<circle cx="1149.959961" cy="293.959991" r="19.980000" fill="red">
  <title>Delhi</title>
</circle><line x1="930.960022" y1="328.959991" x2="1149.959961" y2="293.959991" stroke="red" stroke-width="6.660000" />
<circle cx="1219.959961" cy="255.959991" r="19.980000" fill="red">
  <title>Cairo</title>
</circle><line x1="1149.959961" y1="293.959991" x2="1219.959961" y2="255.959991" stroke="red" stroke-width="6.660000" />
<circle cx="1485.959961" cy="348.959991" r="19.980000" fill="red">
  <title>Lagos</title>
</circle><line x1="1219.959961" y1="255.959991" x2="1485.959961" y2="348.959991" stroke="red" stroke-width="6.660000" />
<circle cx="2030.959961" cy="439.959991" r="19.980000" fill="red">
  <title>Beijing</title>
</circle><line x1="1485.959961" y1="348.959991" x2="2030.959961" y2="439.959991" stroke="red" stroke-width="6.660000" />
<circle cx="2011.959961" cy="967.960022" r="19.980000" fill="red">
  <title>Mexico City</title>
</circle><line x1="2030.959961" y1="439.959991" x2="2011.959961" y2="967.960022" stroke="red" stroke-width="6.660000" />
<circle cx="1741.959961" cy="684.960022" r="19.980000" fill="red">
  <title>Chongqing</title>
</circle><line x1="2011.959961" y1="967.960022" x2="1741.959961" y2="684.960022" stroke="red" stroke-width="6.660000" />
<circle cx="1262.959961" cy="993.960022" r="19.980000" fill="red">
  <title>Mumbai</title>
</circle><line x1="1741.959961" y1="684.960022" x2="1262.959961" y2="993.960022" stroke="red" stroke-width="6.660000" />
<circle cx="1191.959961" cy="1098.959961" r="19.980000" fill="red">
  <title>New York</title>
</circle><line x1="1262.959961" y1="993.960022" x2="1191.959961" y2="1098.959961" stroke="red" stroke-width="6.660000" />
<circle cx="1406.959961" cy="1507.959961" r="19.980000" fill="red">
  <title>Manila</title>
</circle><line x1="1191.959961" y1="1098.959961" x2="1406.959961" y2="1507.959961" stroke="red" stroke-width="6.660000" />
<circle cx="1073.959961" cy="2003.959961" r="19.980000" fill="red">
  <title>Osaka</title>
</circle><line x1="1406.959961" y1="1507.959961" x2="1073.959961" y2="2003.959961" stroke="red" stroke-width="6.660000" />
<circle cx="980.960022" cy="1623.959961" r="19.980000" fill="red">
  <title>Shanghai</title>
</circle><line x1="1073.959961" y1="2003.959961" x2="980.960022" y2="1623.959961" stroke="red" stroke-width="6.660000" />
<circle cx="860.960022" cy="1294.959961" r="19.980000" fill="red">
  <title>São Paulo</title>
</circle><line x1="980.960022" y1="1623.959961" x2="860.960022" y2="1294.959961" stroke="red" stroke-width="6.660000" />
<circle cx="396.959991" cy="1230.959961" r="19.980000" fill="red">
  <title>Kolkata</title>
</circle><line x1="860.960022" y1="1294.959961" x2="396.959991" y2="1230.959961" stroke="red" stroke-width="6.660000" />
</svg>
