<?xml version="1.0" encoding="UTF-8" standalone="no"?>
<svg width="500" height="500" viewBox="0 0 2074.000000 2074.000000" xmlns="http://www.w3.org/2000/svg">
<rect x="19.000000" y="19.000000" width="2036.000000" height="2036.000000" fill="black" />
<circle cx="437.959991" cy="1874.959961" r="19.980000" fill="red">
  <title>Tokyo</title>
</circle><line x1="524.960022" y1="1250.959961" x2="437.959991" y2="1874.959961" stroke="red" stroke-width="6.660000" />
<circle cx="126.959999" cy="1893.959961" r="19.980000" fill="red">
  <title>Shanghai</title>
</circle><line x1="437.959991" y1="1874.959961" x2="126.959999" y2="1893.959961" stroke="red" stroke-width="6.660000" />
<circle cx="108.959999" cy="1371.959961" r="19.980000" fill="red">
  <title>Mumbai</title>
</circle><line x1="126.959999" y1="1893.959961" x2="108.959999" y2="1371.959961" stroke="red" stroke-width="6.660000" />
<circle cx="297.959991" cy="1053.959961" r="19.980000" fill="red">
  <title>Buenos Aires</title>
</circle><line x1="108.959999" y1="1371.959961" x2="297.959991" y2="1053.959961" stroke="red" stroke-width="6.660000" />
<circle cx="167.959991" cy="1044.959961" r="19.980000" fill="red">
  <title>Karachi</title>
</circle><line x1="297.959991" y1="1053.959961" x2="167.959991" y2="1044.959961" stroke="red" stroke-width="6.660000" />
<circle cx="93.959999" cy="552.960022" r="19.980000" fill="red">
  <title>São Paulo</title>
</circle><line x1="167.959991" y1="1044.959961" x2="93.959999" y2="552.960022" stroke="red" stroke-width="6.660000" />
<circle cx="484.959991" cy="793.960022" r="19.980000" fill="red">
  <title>New York</title>
</circle><line x1="93.959999" y1="552.960022" x2="484.959991" y2="793.960022" stroke="red" stroke-width="6.660000" />
<circle cx="561.960022" cy="660.960022" r="19.980000" fill="red">
  <title>Istanbul</title>
</circle><line x1="484.959991" y1="793.960022" x2="561.960022" y2="660.960022" stroke="red" stroke-width="6.660000" />
<circle cx="678.960022" cy="291.959991" r="19.980000" fill="red">
  <title>Beijing</title>
</circle><line x1="561.960022" y1="660.960022" x2="678.960022" y2="291.959991" stroke="red" stroke-width="6.660000" />
<circle cx="1583.959961" cy="449.959991" r="19.980000" fill="red">
  <title>Delhi</title>
</circle><line x1="678.960022" y1="291.959991" x2="1583.959961" y2="449.959991" stroke="red" stroke-width="6.660000" />
<circle cx="1821.959961" cy="145.959991" r="19.980000" fill="red">
  <title>Chongqing</title>
</circle><line x1="1583.959961" y1="449.959991" x2="1821.959961" y2="145.959991" stroke="red" stroke-width="6.660000" />
<circle cx="1549.959961" cy="592.960022" r="19.980000" fill="red">
  <title>Cairo</title>
</circle><line x1="1821.959961" y1="145.959991" x2="1549.959961" y2="592.960022" stroke="red" stroke-width="6.660000" />
<circle cx="1627.959961" cy="960.960022" r="19.980000" fill="red">
  <title>Kolkata</title>
</circle><line x1="1549.959961" y1="592.960022" x2="1627.959961" y2="960.960022" stroke="red" stroke-width="6.660000" />
<circle cx="2015.959961" cy="1297.959961" r="19.980000" fill="red">
  <title>Dhaka</title>
</circle><line x1="1627.959961" y1="960.960022" x2="2015.959961" y2="1297.959961" stroke="red" stroke-width="6.660000" />
<circle cx="1567.959961" cy="1196.959961" r="19.980000" fill="red">
  <title>Osaka</title>
</circle><line x1="2015.959961" y1="1297.959961" x2="1567.959961" y2="1196.959961" stroke="red" stroke-width="6.660000" />
<circle cx="524.960022" cy="1250.959961" r="19.980000" fill="red">
  <title>Mexico City</title>
</circle><line x1="1567.959961" y1="1196.959961" x2="524.960022" y2="1250.959961" stroke="red" stroke-width="6.660000" />
</svg>
