<?xml version="1.0" encoding="UTF-8" standalone="no"?>
<svg width="500" height="500" viewBox="0 0 2074.000000 2074.000000" xmlns="http://www.w3.org/2000/svg">
<rect x="19.000000" y="19.000000" width="2036.000000" height="2036.000000" fill="black" />
<circle cx="1161.959961" cy="206.959991" r="19.980000" fill="red">
  <title>Tokyo</title>
</circle><line x1="1940.959961" y1="554.960022" x2="1161.959961" y2="206.959991" stroke="red" stroke-width="6.660000" />
<circle cx="1009.960022" cy="1076.959961" r="19.980000" fill="red">
  <title>Shanghai</title>
</circle><line x1="1161.959961" y1="206.959991" x2="1009.960022" y2="1076.959961" stroke="red" stroke-width="6.660000" />
<circle cx="1406.959961" cy="1213.959961" r="19.980000" fill="red">
  <title>São Paulo</title>
</circle><line x1="1009.960022" y1="1076.959961" x2="1406.959961" y2="1213.959961" stroke="red" stroke-width="6.660000" />
<circle cx="1312.959961" cy="1931.959961" r="19.980000" fill="red">
  <title>Delhi</title>
</circle><line x1="1406.959961" y1="1213.959961" x2="1312.959961" y2="1931.959961" stroke="red" stroke-width="6.660000" />
<circle cx="1773.959961" cy="1493.959961" r="19.980000" fill="red">
  <title>Cairo</title>
</circle><line x1="1312.959961" y1="1931.959961" x2="1773.959961" y2="1493.959961" stroke="red" stroke-width="6.660000" />
<circle cx="1940.959961" cy="554.960022" r="19.980000" fill="red">
  <title>Mexico City</title>
</circle><line x1="1773.959961" y1="1493.959961" x2="1940.959961" y2="554.960022" stroke="red" stroke-width="6.660000" />
</svg>
