<?xml version="1.0" encoding="UTF-8" standalone="no"?>
<svg width="500" height="500" viewBox="0 0 2074.000000 2074.000000" xmlns="http://www.w3.org/2000/svg">
<rect x="19.000000" y="19.000000" width="2036.000000" height="2036.000000" fill="black" />
<circle cx="1025.959961" cy="403.959991" r="19.980000" fill="red">
  <title>Tokyo</title>
</circle><line x1="1504.959961" y1="271.959991" x2="1025.959961" y2="403.959991" stroke="red" stroke-width="6.660000" />
<circle cx="1290.959961" cy="1374.959961" r="19.980000" fill="red">
  <title>Shanghai</title>
</circle><line x1="1025.959961" y1="403.959991" x2="1290.959961" y2="1374.959961" stroke="red" stroke-width="6.660000" />
<circle cx="804.960022" cy="1765.959961" r="19.980000" fill="red">
  <title>Mexico City</title>
</circle><line x1="1290.959961" y1="1374.959961" x2="804.960022" y2="1765.959961" stroke="red" stroke-width="6.660000" />
<circle cx="1943.959961" cy="1937.959961" r="19.980000" fill="red">
  <title>Delhi</title>
</circle><line x1="804.960022" y1="1765.959961" x2="1943.959961" y2="1937.959961" stroke="red" stroke-width="6.660000" />
<circle cx="1773.959961" cy="855.960022" r="19.980000" fill="red">
  <title>Mumbai</title>
</circle><line x1="1943.959961" y1="1937.959961" x2="1773.959961" y2="855.960022" stroke="red" stroke-width="6.660000" />
<circle cx="1837.959961" cy="701.960022" r="19.980000" fill="red">
  <title>Cairo</title>
</circle><line x1="1773.959961" y1="855.960022" x2="1837.959961" y2="701.960022" stroke="red" stroke-width="6.660000" />
<circle cx="1504.959961" cy="271.959991" r="19.980000" fill="red">
  <title>São Paulo</title>
</circle><line x1="1837.959961" y1="701.960022" x2="1504.959961" y2="271.959991" stroke="red" stroke-width="6.660000" />
</svg>
