<?xml version="1.0" encoding="UTF-8" standalone="no"?>
<svg width="500" height="500" viewBox="0 0 2074.000000 2074.000000" xmlns="http://www.w3.org/2000/svg">
<rect x="19.000000" y="19.000000" width="2036.000000" height="2036.000000" fill="black" />
<circle cx="1417.959961" cy="1402.959961" r="19.980000" fill="red">
  <title>Tokyo</title>
</circle><line x1="75.959999" y1="848.960022" x2="1417.959961" y2="1402.959961" stroke="red" stroke-width="6.660000" />
<circle cx="1132.959961" cy="148.959991" r="19.980000" fill="red">
  <title>Delhi</title>
</circle><line x1="1417.959961" y1="1402.959961" x2="1132.959961" y2="148.959991" stroke="red" stroke-width="6.660000" />
<circle cx="675.960022" cy="125.959999" r="19.980000" fill="red">
  <title>Shanghai</title>
</circle><line x1="1132.959961" y1="148.959991" x2="675.960022" y2="125.959999" stroke="red" stroke-width="6.660000" />
<circle cx="75.959999" cy="848.960022" r="19.980000" fill="red">
  <title>São Paulo</title>
</circle><line x1="675.960022" y1="125.959999" x2="75.959999" y2="848.960022" stroke="red" stroke-width="6.660000" />
</svg>
