<?xml version="1.0" encoding="UTF-8" standalone="no"?>
<svg width="500" height="500" viewBox="0 0 2074.000000 2074.000000" xmlns="http://www.w3.org/2000/svg">
<rect x="19.000000" y="19.000000" width="2036.000000" height="2036.000000" fill="black" />
<circle cx="1955.959961" cy="690.960022" r="19.980000" fill="red">
  <title>Tokyo</title>
</circle><line x1="1847.959961" y1="777.960022" x2="1955.959961" y2="690.960022" stroke="red" stroke-width="6.660000" />
<circle cx="1434.959961" cy="907.960022" r="19.980000" fill="red">
  <title>Shanghai</title>
</circle><line x1="1955.959961" y1="690.960022" x2="1434.959961" y2="907.960022" stroke="red" stroke-width="6.660000" />
<circle cx="104.959999" cy="1295.959961" r="19.980000" fill="red">
  <title>Delhi</title>
</circle><line x1="1434.959961" y1="907.960022" x2="104.959999" y2="1295.959961" stroke="red" stroke-width="6.660000" />
<circle cx="638.960022" cy="1883.959961" r="19.980000" fill="red">
  <title>Cairo</title>
</circle><line x1="104.959999" y1="1295.959961" x2="638.960022" y2="1883.959961" stroke="red" stroke-width="6.660000" />
<circle cx="1557.959961" cy="1872.959961" r="19.980000" fill="red">
  <title>São Paulo</title>
</circle><line x1="638.960022" y1="1883.959961" x2="1557.959961" y2="1872.959961" stroke="red" stroke-width="6.660000" />
<circle cx="1847.959961" cy="777.960022" r="19.980000" fill="red">
  <title>Mexico City</title>
</circle><line x1="1557.959961" y1="1872.959961" x2="1847.959961" y2="777.960022" stroke="red" stroke-width="6.660000" />
</svg>
