<?xml version="1.0" encoding="UTF-8" standalone="no"?>
<svg width="500" height="500" viewBox="0 0 2074.000000 2074.000000" xmlns="http://www.w3.org/2000/svg">
<rect x="19.000000" y="19.000000" width="2036.000000" height="2036.000000" fill="black" />
<circle cx="991.960022" cy="418.959991" r="19.980000" fill="red">
  <title>Tokyo</title>
</circle><line x1="597.960022" y1="615.960022" x2="991.960022" y2="418.959991" stroke="red" stroke-width="6.660000" />
<circle cx="1109.959961" cy="535.960022" r="19.980000" fill="red">
  <title>Shanghai</title>
</circle><line x1="991.960022" y1="418.959991" x2="1109.959961" y2="535.960022" stroke="red" stroke-width="6.660000" />
<circle cx="1445.959961" cy="911.960022" r="19.980000" fill="red">
  <title>Chongqing</title>
</circle><line x1="1109.959961" y1="535.960022" x2="1445.959961" y2="911.960022" stroke="red" stroke-width="6.660000" />
<circle cx="1883.959961" cy="745.960022" r="19.980000" fill="red">
  <title>New York</title>
</circle><line x1="1445.959961" y1="911.960022" x2="1883.959961" y2="745.960022" stroke="red" stroke-width="6.660000" />
<circle cx="1531.959961" cy="1125.959961" r="19.980000" fill="red">
  <title>Mexico City</title>
</circle><line x1="1883.959961" y1="745.960022" x2="1531.959961" y2="1125.959961" stroke="red" stroke-width="6.660000" />
<circle cx="1393.959961" cy="1461.959961" r="19.980000" fill="red">
  <title>Karachi</title>
</circle><line x1="1531.959961" y1="1125.959961" x2="1393.959961" y2="1461.959961" stroke="red" stroke-width="6.660000" />
<circle cx="2010.959961" cy="1768.959961" r="19.980000" fill="red">
  <title>São Paulo</title>
</circle><line x1="1393.959961" y1="1461.959961" x2="2010.959961" y2="1768.959961" stroke="red" stroke-width="6.660000" />
<circle cx="1892.959961" cy="1874.959961" r="19.980000" fill="red">
  <title>Beijing</title>
</circle><line x1="2010.959961" y1="1768.959961" x2="1892.959961" y2="1874.959961" stroke="red" stroke-width="6.660000" />
<circle cx="1256.959961" cy="1695.959961" r="19.980000" fill="red">
  <title>Delhi</title>
</circle><line x1="1892.959961" y1="1874.959961" x2="1256.959961" y2="1695.959961" stroke="red" stroke-width="6.660000" />
<circle cx="523.960022" cy="1850.959961" r="19.980000" fill="red">
  <title>Cairo</title>
</circle><line x1="1256.959961" y1="1695.959961" x2="523.960022" y2="1850.959961" stroke="red" stroke-width="6.660000" />
<circle cx="204.959991" cy="2032.959961" r="19.980000" fill="red">
  <title>Buenos Aires</title>
</circle><line x1="523.960022" y1="1850.959961" x2="204.959991" y2="2032.959961" stroke="red" stroke-width="6.660000" />
<circle cx="609.960022" cy="989.960022" r="19.980000" fill="red">
  <title>Osaka</title>
</circle><line x1="204.959991" y1="2032.959961" x2="609.960022" y2="989.960022" stroke="red" stroke-width="6.660000" />
<circle cx="675.960022" cy="701.960022" r="19.980000" fill="red">
  <title>Dhaka</title>
</circle><line x1="609.960022" y1="989.960022" x2="675.960022" y2="701.960022" stroke="red" stroke-width="6.660000" />
<circle cx="597.960022" cy="615.960022" r="19.980000" fill="red">
  <title>Mumbai</title>
</circle><line x1="675.960022" y1="701.960022" x2="597.960022" y2="615.960022" stroke="red" stroke-width="6.660000" />
</svg>
