<?xml version="1.0" encoding="UTF-8" standalone="no"?>
<svg width="500" height="500" viewBox="0 0 2074.000000 2074.000000" xmlns="http://www.w3.org/2000/svg">
<rect x="19.000000" y="19.000000" width="2036.000000" height="2036.000000" fill="black" />
<circle cx="1098.959961" cy="621.960022" r="19.980000" fill="red">
  <title>Tokyo</title>
</circle><line x1="1241.959961" y1="737.960022" x2="1098.959961" y2="621.960022" stroke="red" stroke-width="6.660000" />
<circle cx="290.959991" cy="316.959991" r="19.980000" fill="red">
  <title>Cairo</title>
</circle><line x1="1098.959961" y1="621.960022" x2="290.959991" y2="316.959991" stroke="red" stroke-width="6.660000" />
<circle cx="856.960022" cy="976.960022" r="19.980000" fill="red">
  <title>São Paulo</title>
</circle><line x1="290.959991" y1="316.959991" x2="856.960022" y2="976.960022" stroke="red" stroke-width="6.660000" />
<circle cx="765.960022" cy="1745.959961" r="19.980000" fill="red">
  <title>Mexico City</title>
</circle><line x1="856.960022" y1="976.960022" x2="765.960022" y2="1745.959961" stroke="red" stroke-width="6.660000" />
<circle cx="885.960022" cy="1810.959961" r="19.980000" fill="red">
  <title>Shanghai</title>
</circle><line x1="765.960022" y1="1745.959961" x2="885.960022" y2="1810.959961" stroke="red" stroke-width="6.660000" />
<circle cx="1216.959961" cy="1974.959961" r="19.980000" fill="red">
  <title>Beijing</title>
</circle><line x1="885.960022" y1="1810.959961" x2="1216.959961" y2="1974.959961" stroke="red" stroke-width="6.660000" />
<circle cx="1730.959961" cy="1828.959961" r="19.980000" fill="red">
  <title>Delhi</title>
</circle><line x1="1216.959961" y1="1974.959961" x2="1730.959961" y2="1828.959961" stroke="red" stroke-width="6.660000" />
<circle cx="1241.959961" cy="737.960022" r="19.980000" fill="red">
  <title>Mumbai</title>
</circle><line x1="1730.959961" y1="1828.959961" x2="1241.959961" y2="737.960022" stroke="red" stroke-width="6.660000" />
</svg>
