<?xml version="1.0" encoding="UTF-8" standalone="no"?>
<svg width="500" height="500" viewBox="0 0 2074.000000 2074.000000" xmlns="http://www.w3.org/2000/svg">
<rect x="19.000000" y="19.000000" width="2036.000000" height="2036.000000" fill="black" />
<circle cx="1274.959961" cy="1313.959961" r="19.980000" fill="red">
  <title>Tokyo</title>
</circle><line x1="941.960022" y1="964.960022" x2="1274.959961" y2="1313.959961" stroke="red" stroke-width="6.660000" />
<circle cx="1368.959961" cy="1191.959961" r="19.980000" fill="red">
  <title>São Paulo</title>
</circle><line x1="1274.959961" y1="1313.959961" x2="1368.959961" y2="1191.959961" stroke="red" stroke-width="6.660000" />
<circle cx="1509.959961" cy="607.960022" r="19.980000" fill="red">
  <title>Istanbul</title>
</circle><line x1="1368.959961" y1="1191.959961" x2="1509.959961" y2="607.960022" stroke="red" stroke-width="6.660000" />
<circle cx="1411.959961" cy="117.959999" r="19.980000" fill="red">
  <title>Buenos Aires</title>
</circle><line x1="1509.959961" y1="607.960022" x2="1411.959961" y2="117.959999" stroke="red" stroke-width="6.660000" />
<circle cx="1495.959961" cy="58.959999" r="19.980000" fill="red">
  <title>Lagos</title>
</circle><line x1="1411.959961" y1="117.959999" x2="1495.959961" y2="58.959999" stroke="red" stroke-width="6.660000" />
<circle cx="1848.959961" cy="56.959999" r="19.980000" fill="red">
  <title>Dhaka</title>
</circle><line x1="1495.959961" y1="58.959999" x2="1848.959961" y2="56.959999" stroke="red" stroke-width="6.660000" />
<circle cx="1881.959961" cy="57.959999" r="19.980000" fill="red">
  <title>Manila</title>
</circle><line x1="1848.959961" y1="56.959999" x2="1881.959961" y2="57.959999" stroke="red" stroke-width="6.660000" />
<circle cx="1653.959961" cy="432.959991" r="19.980000" fill="red">
  <title>Chongqing</title>
</circle><line x1="1881.959961" y1="57.959999" x2="1653.959961" y2="432.959991" stroke="red" stroke-width="6.660000" />
<circle cx="1900.959961" cy="788.960022" r="19.980000" fill="red">
  <title>Delhi</title>
</circle><line x1="1653.959961" y1="432.959991" x2="1900.959961" y2="788.960022" stroke="red" stroke-width="6.660000" />
<circle cx="1905.959961" cy="1273.959961" r="19.980000" fill="red">
  <title>New York</title>
</circle><line x1="1900.959961" y1="788.960022" x2="1905.959961" y2="1273.959961" stroke="red" stroke-width="6.660000" />
<circle cx="1904.959961" cy="1574.959961" r="19.980000" fill="red">
  <title>Mumbai</title>
</circle><line x1="1905.959961" y1="1273.959961" x2="1904.959961" y2="1574.959961" stroke="red" stroke-width="6.660000" />
<circle cx="1588.959961" cy="1960.959961" r="19.980000" fill="red">
  <title>Beijing</title>
</circle><line x1="1904.959961" y1="1574.959961" x2="1588.959961" y2="1960.959961" stroke="red" stroke-width="6.660000" />
<circle cx="1149.959961" cy="1802.959961" r="19.980000" fill="red">
  <title>Karachi</title>
</circle><line x1="1588.959961" y1="1960.959961" x2="1149.959961" y2="1802.959961" stroke="red" stroke-width="6.660000" />
<circle cx="1176.959961" cy="1442.959961" r="19.980000" fill="red">
  <title>Osaka</title>
</circle><line x1="1149.959961" y1="1802.959961" x2="1176.959961" y2="1442.959961" stroke="red" stroke-width="6.660000" />
<circle cx="488.959991" cy="1359.959961" r="19.980000" fill="red">
  <title>Cairo</title>
</circle><line x1="1176.959961" y1="1442.959961" x2="488.959991" y2="1359.959961" stroke="red" stroke-width="6.660000" />
<circle cx="195.959991" cy="745.960022" r="19.980000" fill="red">
  <title>Kolkata</title>
</circle><line x1="488.959991" y1="1359.959961" x2="195.959991" y2="745.960022" stroke="red" stroke-width="6.660000" />
<circle cx="215.959991" cy="660.960022" r="19.980000" fill="red">
  <title>Shanghai</title>
</circle><line x1="195.959991" y1="745.960022" x2="215.959991" y2="660.960022" stroke="red" stroke-width="6.660000" />
<circle cx="941.960022" cy="964.960022" r="19.980000" fill="red">
  <title>Mexico City</title>
</circle><line x1="215.959991" y1="660.960022" x2="941.960022" y2="964.960022" stroke="red" stroke-width="6.660000" />
</svg>
