<?xml version="1.0" encoding="UTF-8" standalone="no"?>
<svg width="500" height="500" viewBox="0 0 2074.000000 2074.000000" xmlns="http://www.w3.org/2000/svg">
<rect x="19.000000" y="19.000000" width="2036.000000" height="2036.000000" fill="black" />
<circle cx="1771.959961" cy="76.959999" r="19.980000" fill="red">
  <title>Tokyo</title>
</circle><line x1="1484.959961" y1="910.960022" x2="1771.959961" y2="76.959999" stroke="red" stroke-width="6.660000" />
<circle cx="251.959991" cy="476.959991" r="19.980000" fill="red">
  <title>Delhi</title>
</circle><line x1="1771.959961" y1="76.959999" x2="251.959991" y2="476.959991" stroke="red" stroke-width="6.660000" />
<circle cx="1367.959961" cy="925.960022" r="19.980000" fill="red">
  <title>Shanghai</title>
</circle><line x1="251.959991" y1="476.959991" x2="1367.959961" y2="925.960022" stroke="red" stroke-width="6.660000" />
<circle cx="1595.959961" cy="2015.959961" r="19.980000" fill="red">
  <title>Mexico City</title>
</circle><line x1="1367.959961" y1="925.960022" x2="1595.959961" y2="2015.959961" stroke="red" stroke-width="6.660000" />
<circle cx="1484.959961" cy="910.960022" r="19.980000" fill="red">
  <title>São Paulo</title>
</circle><line x1="1595.959961" y1="2015.959961" x2="1484.959961" y2="910.960022" stroke="red" stroke-width="6.660000" />
</svg>
