<?xml version="1.0" encoding="UTF-8" standalone="no"?>
<svg width="500" height="500" viewBox="0 0 2074.000000 2074.000000" xmlns="http://www.w3.org/2000/svg">
<rect x="19.000000" y="19.000000" width="2036.000000" height="2036.000000" fill="black" />
<circle cx="1148.959961" cy="1654.959961" r="19.980000" fill="red">
  <title>Tokyo</title>
</circle><line x1="983.960022" y1="293.959991" x2="1148.959961" y2="1654.959961" stroke="red" stroke-width="6.660000" />
<circle cx="1693.959961" cy="1411.959961" r="19.980000" fill="red">
  <title>Delhi</title>
</circle><line x1="1148.959961" y1="1654.959961" x2="1693.959961" y2="1411.959961" stroke="red" stroke-width="6.660000" />
<circle cx="1352.959961" cy="1101.959961" r="19.980000" fill="red">
  <title>Shanghai</title>
</circle><line x1="1693.959961" y1="1411.959961" x2="1352.959961" y2="1101.959961" stroke="red" stroke-width="6.660000" />
<circle cx="983.960022" cy="293.959991" r="19.980000" fill="red">
  <title>São Paulo</title>
</circle><line x1="1352.959961" y1="1101.959961" x2="983.960022" y2="293.959991" stroke="red" stroke-width="6.660000" />
</svg>
