<?xml version="1.0" encoding="UTF-8" standalone="no"?>
<svg width="500" height="500" viewBox="0 0 2074.000000 2074.000000" xmlns="http://www.w3.org/2000/svg">
<rect x="19.000000" y="19.000000" width="2036.000000" height="2036.000000" fill="black" />
<circle cx="603.960022" cy="861.960022" r="19.980000" fill="red">
  <title>Tokyo</title>
</circle><line x1="235.959991" y1="1624.959961" x2="603.960022" y2="861.960022" stroke="red" stroke-width="6.660000" />
<circle cx="440.959991" cy="705.960022" r="19.980000" fill="red">
  <title>Shanghai</title>
</circle><line x1="603.960022" y1="861.960022" x2="440.959991" y2="705.960022" stroke="red" stroke-width="6.660000" />
<circle cx="1000.960022" cy="804.960022" r="19.980000" fill="red">
  <title>Mexico City</title>
</circle><line x1="440.959991" y1="705.960022" x2="1000.960022" y2="804.960022" stroke="red" stroke-width="6.660000" />
<circle cx="1797.959961" cy="1478.959961" r="19.980000" fill="red">
  <title>Cairo</title>
</circle><line x1="1000.960022" y1="804.960022" x2="1797.959961" y2="1478.959961" stroke="red" stroke-width="6.660000" />
<circle cx="501.959991" cy="1874.959961" r="19.980000" fill="red">
  <title>Delhi</title>
</circle><line x1="1797.959961" y1="1478.959961" x2="501.959991" y2="1874.959961" stroke="red" stroke-width="6.660000" />
<circle cx="235.959991" cy="1624.959961" r="19.980000" fill="red">
  <title>São Paulo</title>
</circle><line x1="501.959991" y1="1874.959961" x2="235.959991" y2="1624.959961" stroke="red" stroke-width="6.660000" />
</svg>
