<?xml version="1.0" encoding="UTF-8" standalone="no"?>
<svg width="500" height="500" viewBox="0 0 2074.000000 2074.000000" xmlns="http://www.w3.org/2000/svg">
<rect x="19.000000" y="19.000000" width="2036.000000" height="2036.000000" fill="black" />
<circle cx="967.960022" cy="1952.959961" r="19.980000" fill="red">
  <title>Tokyo</title>
</circle><line x1="760.960022" y1="1866.959961" x2="967.960022" y2="1952.959961" stroke="red" stroke-width="6.660000" />
<circle cx="186.959991" cy="1360.959961" r="19.980000" fill="red">
  <title>Shanghai</title>
</circle><line x1="967.960022" y1="1952.959961" x2="186.959991" y2="1360.959961" stroke="red" stroke-width="6.660000" />
<circle cx="527.960022" cy="229.959991" r="19.980000" fill="red">
  <title>Delhi</title>
</circle><line x1="186.959991" y1="1360.959961" x2="527.960022" y2="229.959991" stroke="red" stroke-width="6.660000" />
<circle cx="760.960022" cy="1866.959961" r="19.980000" fill="red">
  <title>São Paulo</title>
</circle><line x1="527.960022" y1="229.959991" x2="760.960022" y2="1866.959961" stroke="red" stroke-width="6.660000" />
</svg>
