<?xml version="1.0" encoding="UTF-8" standalone="no"?>
<svg width="500" height="500" viewBox="0 0 2074.000000 2074.000000" xmlns="http://www.w3.org/2000/svg">
<rect x="19.000000" y="19.000000" width="2036.000000" height="2036.000000" fill="black" />
<circle cx="1004.960022" cy="676.960022" r="19.980000" fill="red">
  <title>Tokyo</title>
</circle><line x1="1035.959961" y1="886.960022" x2="1004.960022" y2="676.960022" stroke="red" stroke-width="6.660000" />
<circle cx="754.960022" cy="473.959991" r="19.980000" fill="red">
  <title>Manila</title>
</circle><line x1="1004.960022" y1="676.960022" x2="754.960022" y2="473.959991" stroke="red" stroke-width="6.660000" />
<circle cx="551.960022" cy="714.960022" r="19.980000" fill="red">
  <title>Karachi</title>
</circle><line x1="754.960022" y1="473.959991" x2="551.960022" y2="714.960022" stroke="red" stroke-width="6.660000" />
<circle cx="414.959991" cy="620.960022" r="19.980000" fill="red">
  <title>Lagos</title>
</circle><line x1="551.960022" y1="714.960022" x2="414.959991" y2="620.960022" stroke="red" stroke-width="6.660000" />
<circle cx="589.960022" cy="107.959999" r="19.980000" fill="red">
  <title>Delhi</title>
</circle><line x1="414.959991" y1="620.960022" x2="589.960022" y2="107.959999" stroke="red" stroke-width="6.660000" />
<circle cx="833.960022" cy="150.959991" r="19.980000" fill="red">
  <title>São Paulo</title>
</circle><line x1="589.960022" y1="107.959999" x2="833.960022" y2="150.959991" stroke="red" stroke-width="6.660000" />
<circle cx="1382.959961" cy="43.959999" r="19.980000" fill="red">
  <title>Chongqing</title>
</circle><line x1="833.960022" y1="150.959991" x2="1382.959961" y2="43.959999" stroke="red" stroke-width="6.660000" />
<circle cx="1379.959961" cy="117.959999" r="19.980000" fill="red">
  <title>Istanbul</title>
</circle><line x1="1382.959961" y1="43.959999" x2="1379.959961" y2="117.959999" stroke="red" stroke-width="6.660000" />
<circle cx="1922.959961" cy="345.959991" r="19.980000" fill="red">
  <title>Kolkata</title>
</circle><line x1="1379.959961" y1="117.959999" x2="1922.959961" y2="345.959991" stroke="red" stroke-width="6.660000" />
<circle cx="1697.959961" cy="734.960022" r="19.980000" fill="red">
  <title>Mumbai</title>
</circle><line x1="1922.959961" y1="345.959991" x2="1697.959961" y2="734.960022" stroke="red" stroke-width="6.660000" />
<circle cx="1714.959961" cy="1451.959961" r="19.980000" fill="red">
  <title>Mexico City</title>
</circle><line x1="1697.959961" y1="734.960022" x2="1714.959961" y2="1451.959961" stroke="red" stroke-width="6.660000" />
<circle cx="1903.959961" cy="1900.959961" r="19.980000" fill="red">
  <title>Shanghai</title>
</circle><line x1="1714.959961" y1="1451.959961" x2="1903.959961" y2="1900.959961" stroke="red" stroke-width="6.660000" />
<circle cx="1248.959961" cy="1305.959961" r="19.980000" fill="red">
  <title>Beijing</title>
</circle><line x1="1903.959961" y1="1900.959961" x2="1248.959961" y2="1305.959961" stroke="red" stroke-width="6.660000" />
<circle cx="803.960022" cy="1236.959961" r="19.980000" fill="red">
  <title>Osaka</title>
</circle><line x1="1248.959961" y1="1305.959961" x2="803.960022" y2="1236.959961" stroke="red" stroke-width="6.660000" />
<circle cx="535.960022" cy="1089.959961" r="19.980000" fill="red">
  <title>Cairo</title>
</circle><line x1="803.960022" y1="1236.959961" x2="535.960022" y2="1089.959961" stroke="red" stroke-width="6.660000" />
<circle cx="335.959991" cy="1208.959961" r="19.980000" fill="red">
  <title>Rio de Janeiro</title>
</circle><line x1="535.960022" y1="1089.959961" x2="335.959991" y2="1208.959961" stroke="red" stroke-width="6.660000" />
<circle cx="342.959991" cy="1107.959961" r="19.980000" fill="red">
  <title>Buenos Aires</title>
</circle><line x1="335.959991" y1="1208.959961" x2="342.959991" y2="1107.959961" stroke="red" stroke-width="6.660000" />
<circle cx="677.960022" cy="1022.960022" r="19.980000" fill="red">
  <title>Dhaka</title>
</circle><line x1="342.959991" y1="1107.959961" x2="677.960022" y2="1022.960022" stroke="red" stroke-width="6.660000" />
<circle cx="1035.959961" cy="886.960022" r="19.980000" fill="red">
  <title>New York</title>
</circle><line x1="677.960022" y1="1022.960022" x2="1035.959961" y2="886.960022" stroke="red" stroke-width="6.660000" />
</svg>
