<?xml version="1.0" encoding="UTF-8" standalone="no"?>
<svg width="500" height="500" viewBox="0 0 2074.000000 2074.000000" xmlns="http://www.w3.org/2000/svg">
<rect x="19.000000" y="19.000000" width="2036.000000" height="2036.000000" fill="black" />
<circle cx="445.959991" cy="1037.959961" r="19.980000" fill="red">
  <title>Tokyo</title>
</circle><line x1="756.960022" y1="847.960022" x2="445.959991" y2="1037.959961" stroke="red" stroke-width="6.660000" />
<circle cx="226.959991" cy="986.960022" r="19.980000" fill="red">
  <title>Osaka</title>
</circle><line x1="445.959991" y1="1037.959961" x2="226.959991" y2="986.960022" stroke="red" stroke-width="6.660000" />
<circle cx="322.959991" cy="1044.959961" r="19.980000" fill="red">
  <title>Shanghai</title>
</circle><line x1="226.959991" y1="986.960022" x2="322.959991" y2="1044.959961" stroke="red" stroke-width="6.660000" />
<circle cx="624.960022" cy="1291.959961" r="19.980000" fill="red">
  <title>Cairo</title>
</circle><line x1="322.959991" y1="1044.959961" x2="624.960022" y2="1291.959961" stroke="red" stroke-width="6.660000" />
<circle cx="310.959991" cy="1628.959961" r="19.980000" fill="red">
  <title>Kolkata</title>
</circle><line x1="624.960022" y1="1291.959961" x2="310.959991" y2="1628.959961" stroke="red" stroke-width="6.660000" />
<circle cx="216.959991" cy="2015.959961" r="19.980000" fill="red">
  <title>Karachi</title>
</circle><line x1="310.959991" y1="1628.959961" x2="216.959991" y2="2015.959961" stroke="red" stroke-width="6.660000" />
<circle cx="107.959999" cy="2013.959961" r="19.980000" fill="red">
  <title>Mexico City</title>
</circle><line x1="216.959991" y1="2015.959961" x2="107.959999" y2="2013.959961" stroke="red" stroke-width="6.660000" />
<circle cx="303.959991" cy="1957.959961" r="19.980000" fill="red">
  <title>Delhi</title>
</circle><line x1="107.959999" y1="2013.959961" x2="303.959991" y2="1957.959961" stroke="red" stroke-width="6.660000" />
<circle cx="1321.959961" cy="2014.959961" r="19.980000" fill="red">
  <title>New York</title>
</circle><line x1="303.959991" y1="1957.959961" x2="1321.959961" y2="2014.959961" stroke="red" stroke-width="6.660000" />
<circle cx="1795.959961" cy="1762.959961" r="19.980000" fill="red">
  <title>Beijing</title>
</circle><line x1="1321.959961" y1="2014.959961" x2="1795.959961" y2="1762.959961" stroke="red" stroke-width="6.660000" />
<circle cx="1794.959961" cy="1542.959961" r="19.980000" fill="red">
  <title>Buenos Aires</title>
</circle><line x1="1795.959961" y1="1762.959961" x2="1794.959961" y2="1542.959961" stroke="red" stroke-width="6.660000" />
<circle cx="1221.959961" cy="1326.959961" r="19.980000" fill="red">
  <title>Istanbul</title>
</circle><line x1="1794.959961" y1="1542.959961" x2="1221.959961" y2="1326.959961" stroke="red" stroke-width="6.660000" />
<circle cx="1065.959961" cy="805.960022" r="19.980000" fill="red">
  <title>Mumbai</title>
</circle><line x1="1221.959961" y1="1326.959961" x2="1065.959961" y2="805.960022" stroke="red" stroke-width="6.660000" />
<circle cx="951.960022" cy="150.959991" r="19.980000" fill="red">
  <title>Dhaka</title>
</circle><line x1="1065.959961" y1="805.960022" x2="951.960022" y2="150.959991" stroke="red" stroke-width="6.660000" />
<circle cx="470.959991" cy="210.959991" r="19.980000" fill="red">
  <title>São Paulo</title>
</circle><line x1="951.960022" y1="150.959991" x2="470.959991" y2="210.959991" stroke="red" stroke-width="6.660000" />
<circle cx="756.960022" cy="847.960022" r="19.980000" fill="red">
  <title>Chongqing</title>
</circle><line x1="470.959991" y1="210.959991" x2="756.960022" y2="847.960022" stroke="red" stroke-width="6.660000" />
</svg>
