<?xml version="1.0" encoding="UTF-8" standalone="no"?>
<svg width="500" height="500" viewBox="0 0 2074.000000 2074.000000" xmlns="http://www.w3.org/2000/svg">
<rect x="19.000000" y="19.000000" width="2036.000000" height="2036.000000" fill="black" />
<circle cx="1313.959961" cy="1133.959961" r="19.980000" fill="red">
  <title>Tokyo</title>
</circle><line x1="1436.959961" y1="1204.959961" x2="1313.959961" y2="1133.959961" stroke="red" stroke-width="6.660000" />
<circle cx="1109.959961" cy="1129.959961" r="19.980000" fill="red">
  <title>Shanghai</title>
</circle><line x1="1313.959961" y1="1133.959961" x2="1109.959961" y2="1129.959961" stroke="red" stroke-width="6.660000" />
<circle cx="1011.960022" cy="452.959991" r="19.980000" fill="red">
  <title>Delhi</title>
</circle><line x1="1109.959961" y1="1129.959961" x2="1011.960022" y2="452.959991" stroke="red" stroke-width="6.660000" />
<circle cx="981.960022" cy="224.959991" r="19.980000" fill="red">
  <title>Mumbai</title>
</circle><line x1="1011.960022" y1="452.959991" x2="981.960022" y2="224.959991" stroke="red" stroke-width="6.660000" />
<circle cx="1784.959961" cy="752.960022" r="19.980000" fill="red">
  <title>São Paulo</title>
</circle><line x1="981.960022" y1="224.959991" x2="1784.959961" y2="752.960022" stroke="red" stroke-width="6.660000" />
<circle cx="1902.959961" cy="1477.959961" r="19.980000" fill="red">
  <title>Beijing</title>
</circle><line x1="1784.959961" y1="752.960022" x2="1902.959961" y2="1477.959961" stroke="red" stroke-width="6.660000" />
<circle cx="1011.960022" cy="2032.959961" r="19.980000" fill="red">
  <title>Cairo</title>
</circle><line x1="1902.959961" y1="1477.959961" x2="1011.960022" y2="2032.959961" stroke="red" stroke-width="6.660000" />
<circle cx="1436.959961" cy="1204.959961" r="19.980000" fill="red">
  <title>Mexico City</title>
</circle><line x1="1011.960022" y1="2032.959961" x2="1436.959961" y2="1204.959961" stroke="red" stroke-width="6.660000" />
</svg>
