<?xml version="1.0" encoding="UTF-8" standalone="no"?>
<svg width="500" height="500" viewBox="0 0 2074.000000 2074.000000" xmlns="http://www.w3.org/2000/svg">
<rect x="19.000000" y="19.000000" width="2036.000000" height="2036.000000" fill="black" />
<circle cx="1531.959961" cy="339.959991" r="19.980000" fill="red">
  <title>Tokyo</title>
</circle><line x1="422.959991" y1="730.960022" x2="1531.959961" y2="339.959991" stroke="red" stroke-width="6.660000" />
<circle cx="1307.959961" cy="1213.959961" r="19.980000" fill="red">
  <title>Shanghai</title>
</circle><line x1="1531.959961" y1="339.959991" x2="1307.959961" y2="1213.959961" stroke="red" stroke-width="6.660000" />
<circle cx="912.960022" cy="1756.959961" r="19.980000" fill="red">
  <title>Delhi</title>
</circle><line x1="1307.959961" y1="1213.959961" x2="912.960022" y2="1756.959961" stroke="red" stroke-width="6.660000" />
<circle cx="422.959991" cy="730.960022" r="19.980000" fill="red">
  <title>São Paulo</title>
</circle><line x1="912.960022" y1="1756.959961" x2="422.959991" y2="730.960022" stroke="red" stroke-width="6.660000" />
</svg>
