<?xml version="1.0" encoding="UTF-8" standalone="no"?>
<svg width="500" height="500" viewBox="0 0 2074.000000 2074.000000" xmlns="http://www.w3.org/2000/svg">
<rect x="19.000000" y="19.000000" width="2036.000000" height="2036.000000" fill="black" />
<circle cx="357.959991" cy="726.960022" r="19.980000" fill="red">
  <title>Tokyo</title>
</circle><line x1="169.959991" y1="712.960022" x2="357.959991" y2="726.960022" stroke="red" stroke-width="6.660000" />
<circle cx="567.960022" cy="382.959991" r="19.980000" fill="red">
  <title>Osaka</title>
</circle><line x1="357.959991" y1="726.960022" x2="567.960022" y2="382.959991" stroke="red" stroke-width="6.660000" />
<circle cx="849.960022" cy="422.959991" r="19.980000" fill="red">
  <title>Chongqing</title>
</circle><line x1="567.960022" y1="382.959991" x2="849.960022" y2="422.959991" stroke="red" stroke-width="6.660000" />
<circle cx="1039.959961" cy="70.959999" r="19.980000" fill="red">
  <title>Shanghai</title>
</circle><line x1="849.960022" y1="422.959991" x2="1039.959961" y2="70.959999" stroke="red" stroke-width="6.660000" />
<circle cx="1047.959961" cy="393.959991" r="19.980000" fill="red">
  <title>Dhaka</title>
</circle><line x1="1039.959961" y1="70.959999" x2="1047.959961" y2="393.959991" stroke="red" stroke-width="6.660000" />
<circle cx="1080.959961" cy="901.960022" r="19.980000" fill="red">
  <title>Buenos Aires</title>
</circle><line x1="1047.959961" y1="393.959991" x2="1080.959961" y2="901.960022" stroke="red" stroke-width="6.660000" />
<circle cx="1711.959961" cy="1025.959961" r="19.980000" fill="red">
  <title>Manila</title>
</circle><line x1="1080.959961" y1="901.960022" x2="1711.959961" y2="1025.959961" stroke="red" stroke-width="6.660000" />
<circle cx="1983.959961" cy="1332.959961" r="19.980000" fill="red">
  <title>Beijing</title>
</circle><line x1="1711.959961" y1="1025.959961" x2="1983.959961" y2="1332.959961" stroke="red" stroke-width="6.660000" />
<circle cx="1887.959961" cy="1519.959961" r="19.980000" fill="red">
  <title>Karachi</title>
</circle><line x1="1983.959961" y1="1332.959961" x2="1887.959961" y2="1519.959961" stroke="red" stroke-width="6.660000" />
<circle cx="1809.959961" cy="1349.959961" r="19.980000" fill="red">
  <title>Cairo</title>
</circle><line x1="1887.959961" y1="1519.959961" x2="1809.959961" y2="1349.959961" stroke="red" stroke-width="6.660000" />
<circle cx="965.960022" cy="1232.959961" r="19.980000" fill="red">
  <title>Delhi</title>
</circle><line x1="1809.959961" y1="1349.959961" x2="965.960022" y2="1232.959961" stroke="red" stroke-width="6.660000" />
<circle cx="710.960022" cy="1608.959961" r="19.980000" fill="red">
  <title>Mumbai</title>
</circle><line x1="965.960022" y1="1232.959961" x2="710.960022" y2="1608.959961" stroke="red" stroke-width="6.660000" />
<circle cx="455.959991" cy="1710.959961" r="19.980000" fill="red">
  <title>Mexico City</title>
</circle><line x1="710.960022" y1="1608.959961" x2="455.959991" y2="1710.959961" stroke="red" stroke-width="6.660000" />
<circle cx="386.959991" cy="1467.959961" r="19.980000" fill="red">
  <title>São Paulo</title>
</circle><line x1="455.959991" y1="1710.959961" x2="386.959991" y2="1467.959961" stroke="red" stroke-width="6.660000" />
<circle cx="656.960022" cy="1023.960022" r="19.980000" fill="red">
  <title>Istanbul</title>
</circle><line x1="386.959991" y1="1467.959961" x2="656.960022" y2="1023.960022" stroke="red" stroke-width="6.660000" />
<circle cx="407.959991" cy="946.960022" r="19.980000" fill="red">
  <title>New York</title>
</circle><line x1="656.960022" y1="1023.960022" x2="407.959991" y2="946.960022" stroke="red" stroke-width="6.660000" />
<circle cx="99.959999" cy="974.960022" r="19.980000" fill="red">
  <title>Kolkata</title>
</circle><line x1="407.959991" y1="946.960022" x2="99.959999" y2="974.960022" stroke="red" stroke-width="6.660000" />
<circle cx="169.959991" cy="712.960022" r="19.980000" fill="red">
  <title>Lagos</title>
</circle><line x1="99.959999" y1="974.960022" x2="169.959991" y2="712.960022" stroke="red" stroke-width="6.660000" />
</svg>
