<?xml version="1.0" encoding="UTF-8" standalone="no"?>
<svg width="500" height="500" viewBox="0 0 2074.000000 2074.000000" xmlns="http://www.w3.org/2000/svg">
<rect x="19.000000" y="19.000000" width="2036.000000" height="2036.000000" fill="black" />
<circle cx="1866.959961" cy="1897.959961" r="19.980000" fill="red">
  <title>Tokyo</title>
</circle><line x1="1439.959961" y1="730.960022" x2="1866.959961" y2="1897.959961" stroke="red" stroke-width="6.660000" />
<circle cx="1351.959961" cy="1967.959961" r="19.980000" fill="red">
  <title>Delhi</title>
</circle><line x1="1866.959961" y1="1897.959961" x2="1351.959961" y2="1967.959961" stroke="red" stroke-width="6.660000" />
<circle cx="950.960022" cy="1450.959961" r="19.980000" fill="red">
  <title>Cairo</title>
</circle><line x1="1351.959961" y1="1967.959961" x2="950.960022" y2="1450.959961" stroke="red" stroke-width="6.660000" />
<circle cx="680.960022" cy="1540.959961" r="19.980000" fill="red">
  <title>Shanghai</title>
</circle><line x1="950.960022" y1="1450.959961" x2="680.960022" y2="1540.959961" stroke="red" stroke-width="6.660000" />
<circle cx="625.960022" cy="1319.959961" r="19.980000" fill="red">
  <title>Beijing</title>
</circle><line x1="680.960022" y1="1540.959961" x2="625.960022" y2="1319.959961" stroke="red" stroke-width="6.660000" />
<circle cx="229.959991" cy="802.960022" r="19.980000" fill="red">
  <title>São Paulo</title>
</circle><line x1="625.960022" y1="1319.959961" x2="229.959991" y2="802.960022" stroke="red" stroke-width="6.660000" />
<circle cx="610.960022" cy="146.959991" r="19.980000" fill="red">
  <title>Mexico City</title>
</circle><line x1="229.959991" y1="802.960022" x2="610.960022" y2="146.959991" stroke="red" stroke-width="6.660000" />
<circle cx="1679.959961" cy="133.959991" r="19.980000" fill="red">
  <title>Dhaka</title>
</circle><line x1="610.960022" y1="146.959991" x2="1679.959961" y2="133.959991" stroke="red" stroke-width="6.660000" />
<circle cx="1439.959961" cy="730.960022" r="19.980000" fill="red">
  <title>Mumbai</title>
</circle><line x1="1679.959961" y1="133.959991" x2="1439.959961" y2="730.960022" stroke="red" stroke-width="6.660000" />
</svg>
