<?xml version="1.0" encoding="UTF-8" standalone="no"?>
<svg width="500" height="500" viewBox="0 0 2074.000000 2074.000000" xmlns="http://www.w3.org/2000/svg">
<rect x="19.000000" y="19.000000" width="2036.000000" height="2036.000000" fill="black" />
<circle cx="2020.959961" cy="741.960022" r="19.980000" fill="red">
  <title>Tokyo</title>
</circle><line x1="1667.959961" y1="464.959991" x2="2020.959961" y2="741.960022" stroke="red" stroke-width="6.660000" />
<circle cx="1828.959961" cy="711.960022" r="19.980000" fill="red">
  <title>Buenos Aires</title>
</circle><line x1="2020.959961" y1="741.960022" x2="1828.959961" y2="711.960022" stroke="red" stroke-width="6.660000" />
<circle cx="1412.959961" cy="966.960022" r="19.980000" fill="red">
  <title>Delhi</title>
</circle><line x1="1828.959961" y1="711.960022" x2="1412.959961" y2="966.960022" stroke="red" stroke-width="6.660000" />
<circle cx="1712.959961" cy="1126.959961" r="19.980000" fill="red">
  <title>Mexico City</title>
</circle><line x1="1412.959961" y1="966.960022" x2="1712.959961" y2="1126.959961" stroke="red" stroke-width="6.660000" />
<circle cx="1778.959961" cy="1570.959961" r="19.980000" fill="red">
  <title>Cairo</title>
</circle><line x1="1712.959961" y1="1126.959961" x2="1778.959961" y2="1570.959961" stroke="red" stroke-width="6.660000" />
<circle cx="1604.959961" cy="1710.959961" r="19.980000" fill="red">
  <title>New York</title>
</circle><line x1="1778.959961" y1="1570.959961" x2="1604.959961" y2="1710.959961" stroke="red" stroke-width="6.660000" />
<circle cx="1379.959961" cy="1715.959961" r="19.980000" fill="red">
  <title>São Paulo</title>
</circle><line x1="1604.959961" y1="1710.959961" x2="1379.959961" y2="1715.959961" stroke="red" stroke-width="6.660000" />
<circle cx="1280.959961" cy="1582.959961" r="19.980000" fill="red">
  <title>Mumbai</title>
</circle><line x1="1379.959961" y1="1715.959961" x2="1280.959961" y2="1582.959961" stroke="red" stroke-width="6.660000" />
<circle cx="205.959991" cy="1967.959961" r="19.980000" fill="red">
  <title>Beijing</title>
</circle><line x1="1280.959961" y1="1582.959961" x2="205.959991" y2="1967.959961" stroke="red" stroke-width="6.660000" />
<circle cx="461.959991" cy="948.960022" r="19.980000" fill="red">
  <title>Karachi</title>
</circle><line x1="205.959991" y1="1967.959961" x2="461.959991" y2="948.960022" stroke="red" stroke-width="6.660000" />
<circle cx="364.959991" cy="415.959991" r="19.980000" fill="red">
  <title>Dhaka</title>
</circle><line x1="461.959991" y1="948.960022" x2="364.959991" y2="415.959991" stroke="red" stroke-width="6.660000" />
<circle cx="638.960022" cy="54.959999" r="19.980000" fill="red">
  <title>Osaka</title>
</circle><line x1="364.959991" y1="415.959991" x2="638.960022" y2="54.959999" stroke="red" stroke-width="6.660000" />
<circle cx="1515.959961" cy="653.960022" r="19.980000" fill="red">
  <title>Shanghai</title>
</circle><line x1="638.960022" y1="54.959999" x2="1515.959961" y2="653.960022" stroke="red" stroke-width="6.660000" />
<circle cx="1667.959961" cy="464.959991" r="19.980000" fill="red">
  <title>Chongqing</title>
</circle><line x1="1515.959961" y1="653.960022" x2="1667.959961" y2="464.959991" stroke="red" stroke-width="6.660000" />
</svg>
