<?xml version="1.0" encoding="UTF-8" standalone="no"?>
<svg width="500" height="500" viewBox="0 0 2074.000000 2074.000000" xmlns="http://www.w3.org/2000/svg">
<rect x="19.000000" y="19.000000" width="2036.000000" height="2036.000000" fill="black" />
<circle cx="540.960022" cy="1375.959961" r="19.980000" fill="red">
  <title>Tokyo</title>
</circle><line x1="1468.959961" y1="1348.959961" x2="540.960022" y2="1375.959961" stroke="red" stroke-width="6.660000" />
<circle cx="526.960022" cy="767.960022" r="19.980000" fill="red">
  <title>Beijing</title>
</circle><line x1="540.960022" y1="1375.959961" x2="526.960022" y2="767.960022" stroke="red" stroke-width="6.660000" />
<circle cx="819.960022" cy="268.959991" r="19.980000" fill="red">
  <title>São Paulo</title>
</circle><line x1="526.960022" y1="767.960022" x2="819.960022" y2="268.959991" stroke="red" stroke-width="6.660000" />
<circle cx="1953.959961" cy="277.959991" r="19.980000" fill="red">
  <title>Shanghai</title>
</circle><line x1="819.960022" y1="268.959991" x2="1953.959961" y2="277.959991" stroke="red" stroke-width="6.660000" />
<circle cx="1930.959961" cy="547.960022" r="19.980000" fill="red">
  <title>Mumbai</title>
</circle><line x1="1953.959961" y1="277.959991" x2="1930.959961" y2="547.960022" stroke="red" stroke-width="6.660000" />
<circle cx="1878.959961" cy="595.960022" r="19.980000" fill="red">
  <title>Cairo</title>
</circle><line x1="1930.959961" y1="547.960022" x2="1878.959961" y2="595.960022" stroke="red" stroke-width="6.660000" />
<circle cx="1930.959961" cy="667.960022" r="19.980000" fill="red">
  <title>Delhi</title>
</circle><line x1="1878.959961" y1="595.960022" x2="1930.959961" y2="667.960022" stroke="red" stroke-width="6.660000" />
<circle cx="1441.959961" cy="1092.959961" r="19.980000" fill="red">
  <title>Dhaka</title>
</circle><line x1="1930.959961" y1="667.960022" x2="1441.959961" y2="1092.959961" stroke="red" stroke-width="6.660000" />
<circle cx="1893.959961" cy="1742.959961" r="19.980000" fill="red">
  <title>Mexico City</title>
</circle><line x1="1441.959961" y1="1092.959961" x2="1893.959961" y2="1742.959961" stroke="red" stroke-width="6.660000" />
<circle cx="1468.959961" cy="1348.959961" r="19.980000" fill="red">
  <title>Osaka</title>
</circle><line x1="1893.959961" y1="1742.959961" x2="1468.959961" y2="1348.959961" stroke="red" stroke-width="6.660000" />
</svg>
