<?xml version="1.0" encoding="UTF-8" standalone="no"?>
<svg width="500" height="500" viewBox="0 0 2074.000000 2074.000000" xmlns="http://www.w3.org/2000/svg">
<rect x="19.000000" y="19.000000" width="2036.000000" height="2036.000000" fill="black" />
<circle cx="1495.959961" cy="297.959991" r="19.980000" fill="red">
  <title>Tokyo</title>
</circle><line x1="178.959991" y1="511.959991" x2="1495.959961" y2="297.959991" stroke="red" stroke-width="6.660000" />
<circle cx="1299.959961" cy="1044.959961" r="19.980000" fill="red">
  <title>Osaka</title>
</circle><line x1="1495.959961" y1="297.959991" x2="1299.959961" y2="1044.959961" stroke="red" stroke-width="6.660000" />
<circle cx="1296.959961" cy="1414.959961" r="19.980000" fill="red">
  <title>New York</title>
</circle><line x1="1299.959961" y1="1044.959961" x2="1296.959961" y2="1414.959961" stroke="red" stroke-width="6.660000" />
<circle cx="1204.959961" cy="1878.959961" r="19.980000" fill="red">
  <title>Mexico City</title>
</circle><line x1="1296.959961" y1="1414.959961" x2="1204.959961" y2="1878.959961" stroke="red" stroke-width="6.660000" />
<circle cx="965.960022" cy="1836.959961" r="19.980000" fill="red">
  <title>Shanghai</title>
</circle><line x1="1204.959961" y1="1878.959961" x2="965.960022" y2="1836.959961" stroke="red" stroke-width="6.660000" />
<circle cx="997.960022" cy="1697.959961" r="19.980000" fill="red">
  <title>Beijing</title>
</circle><line x1="965.960022" y1="1836.959961" x2="997.960022" y2="1697.959961" stroke="red" stroke-width="6.660000" />
<circle cx="494.959991" cy="1516.959961" r="19.980000" fill="red">
  <title>Delhi</title>
</circle><line x1="997.960022" y1="1697.959961" x2="494.959991" y2="1516.959961" stroke="red" stroke-width="6.660000" />
<circle cx="512.960022" cy="1179.959961" r="19.980000" fill="red">
  <title>Dhaka</title>
</circle><line x1="494.959991" y1="1516.959961" x2="512.960022" y2="1179.959961" stroke="red" stroke-width="6.660000" />
<circle cx="317.959991" cy="1028.959961" r="19.980000" fill="red">
  <title>Mumbai</title>
</circle><line x1="512.960022" y1="1179.959961" x2="317.959991" y2="1028.959961" stroke="red" stroke-width="6.660000" />
<circle cx="201.959991" cy="879.960022" r="19.980000" fill="red">
  <title>São Paulo</title>
</circle><line x1="317.959991" y1="1028.959961" x2="201.959991" y2="879.960022" stroke="red" stroke-width="6.660000" />
<circle cx="178.959991" cy="511.959991" r="19.980000" fill="red">
  <title>Cairo</title>
</circle><line x1="201.959991" y1="879.960022" x2="178.959991" y2="511.959991" stroke="red" stroke-width="6.660000" />
</svg>
