<?xml version="1.0" encoding="UTF-8" standalone="no"?>
<svg width="500" height="500" viewBox="0 0 2074.000000 2074.000000" xmlns="http://www.w3.org/2000/svg">
<rect x="19.000000" y="19.000000" width="2036.000000" height="2036.000000" fill="black" />
<circle cx="1289.959961" cy="546.960022" r="19.980000" fill="red">
  <title>Tokyo</title>
</circle><line x1="921.960022" y1="661.960022" x2="1289.959961" y2="546.960022" stroke="red" stroke-width="6.660000" />
<circle cx="1968.959961" cy="1719.959961" r="19.980000" fill="red">
  <title>Shanghai</title>
</circle><line x1="1289.959961" y1="546.960022" x2="1968.959961" y2="1719.959961" stroke="red" stroke-width="6.660000" />
<circle cx="465.959991" cy="1540.959961" r="19.980000" fill="red">
  <title>Mumbai</title>
</circle><line x1="1968.959961" y1="1719.959961" x2="465.959991" y2="1540.959961" stroke="red" stroke-width="6.660000" />
<circle cx="253.959991" cy="1954.959961" r="19.980000" fill="red">
  <title>Delhi</title>
</circle><line x1="465.959991" y1="1540.959961" x2="253.959991" y2="1954.959961" stroke="red" stroke-width="6.660000" />
<circle cx="307.959991" cy="1189.959961" r="19.980000" fill="red">
  <title>São Paulo</title>
</circle><line x1="253.959991" y1="1954.959961" x2="307.959991" y2="1189.959961" stroke="red" stroke-width="6.660000" />
<circle cx="604.960022" cy="941.960022" r="19.980000" fill="red">
  <title>Cairo</title>
</circle><line x1="307.959991" y1="1189.959961" x2="604.960022" y2="941.960022" stroke="red" stroke-width="6.660000" />
<circle cx="921.960022" cy="661.960022" r="19.980000" fill="red">
  <title>Mexico City</title>
</circle><line x1="604.960022" y1="941.960022" x2="921.960022" y2="661.960022" stroke="red" stroke-width="6.660000" />
</svg>
