<?xml version="1.0" encoding="UTF-8" standalone="no"?>
<svg width="500" height="500" viewBox="0 0 2074.000000 2074.000000" xmlns="http://www.w3.org/2000/svg">
<rect x="19.000000" y="19.000000" width="2036.000000" height="2036.000000" fill="black" />
<circle cx="322.959991" cy="605.960022" r="19.980000" fill="red">
  <title>Tokyo</title>
</circle><line x1="682.960022" y1="758.960022" x2="322.959991" y2="605.960022" stroke="red" stroke-width="6.660000" />
<circle cx="256.959991" cy="236.959991" r="19.980000" fill="red">
  <title>Mumbai</title>
</circle><line x1="322.959991" y1="605.960022" x2="256.959991" y2="236.959991" stroke="red" stroke-width="6.660000" />
<circle cx="485.959991" cy="87.959999" r="19.980000" fill="red">
  <title>Mexico City</title>
</circle><line x1="256.959991" y1="236.959991" x2="485.959991" y2="87.959999" stroke="red" stroke-width="6.660000" />
<circle cx="938.960022" cy="402.959991" r="19.980000" fill="red">
  <title>Chongqing</title>
</circle><line x1="485.959991" y1="87.959999" x2="938.960022" y2="402.959991" stroke="red" stroke-width="6.660000" />
<circle cx="1196.959961" cy="156.959991" r="19.980000" fill="red">
  <title>Karachi</title>
</circle><line x1="938.960022" y1="402.959991" x2="1196.959961" y2="156.959991" stroke="red" stroke-width="6.660000" />
<circle cx="1347.959961" cy="528.960022" r="19.980000" fill="red">
  <title>Cairo</title>
</circle><line x1="1196.959961" y1="156.959991" x2="1347.959961" y2="528.960022" stroke="red" stroke-width="6.660000" />
<circle cx="1633.959961" cy="157.959991" r="19.980000" fill="red">
  <title>Shanghai</title>
</circle><line x1="1347.959961" y1="528.960022" x2="1633.959961" y2="157.959991" stroke="red" stroke-width="6.660000" />
<circle cx="1888.959961" cy="404.959991" r="19.980000" fill="red">
  <title>Dhaka</title>
</circle><line x1="1633.959961" y1="157.959991" x2="1888.959961" y2="404.959991" stroke="red" stroke-width="6.660000" />
<circle cx="1861.959961" cy="697.960022" r="19.980000" fill="red">
  <title>Kolkata</title>
</circle><line x1="1888.959961" y1="404.959991" x2="1861.959961" y2="697.960022" stroke="red" stroke-width="6.660000" />
<circle cx="1724.959961" cy="738.960022" r="19.980000" fill="red">
  <title>Osaka</title>
</circle><line x1="1861.959961" y1="697.960022" x2="1724.959961" y2="738.960022" stroke="red" stroke-width="6.660000" />
<circle cx="1847.959961" cy="893.960022" r="19.980000" fill="red">
  <title>São Paulo</title>
</circle><line x1="1724.959961" y1="738.960022" x2="1847.959961" y2="893.960022" stroke="red" stroke-width="6.660000" />
<circle cx="1237.959961" cy="1349.959961" r="19.980000" fill="red">
  <title>New York</title>
</circle><line x1="1847.959961" y1="893.960022" x2="1237.959961" y2="1349.959961" stroke="red" stroke-width="6.660000" />
<circle cx="413.959991" cy="1825.959961" r="19.980000" fill="red">
  <title>Istanbul</title>
</circle><line x1="1237.959961" y1="1349.959961" x2="413.959991" y2="1825.959961" stroke="red" stroke-width="6.660000" />
<circle cx="395.959991" cy="1802.959961" r="19.980000" fill="red">
  <title>Beijing</title>
</circle><line x1="413.959991" y1="1825.959961" x2="395.959991" y2="1802.959961" stroke="red" stroke-width="6.660000" />
<circle cx="301.959991" cy="879.960022" r="19.980000" fill="red">
  <title>Delhi</title>
</circle><line x1="395.959991" y1="1802.959961" x2="301.959991" y2="879.960022" stroke="red" stroke-width="6.660000" />
<circle cx="682.960022" cy="758.960022" r="19.980000" fill="red">
  <title>Buenos Aires</title>
</circle><line x1="301.959991" y1="879.960022" x2="682.960022" y2="758.960022" stroke="red" stroke-width="6.660000" />
</svg>
