<?xml version="1.0" encoding="UTF-8" standalone="no"?>
<svg width="500" height="500" viewBox="0 0 2074.000000 2074.000000" xmlns="http://www.w3.org/2000/svg">
<rect x="19.000000" y="19.000000" width="2036.000000" height="2036.000000" fill="black" />
<circle cx="847.960022" cy="1010.960022" r="19.980000" fill="red">
  <title>Tokyo</title>
</circle><line x1="1808.959961" y1="1398.959961" x2="847.960022" y2="1010.960022" stroke="red" stroke-width="6.660000" />
<circle cx="627.960022" cy="1392.959961" r="19.980000" fill="red">
  <title>São Paulo</title>
</circle><line x1="847.960022" y1="1010.960022" x2="627.960022" y2="1392.959961" stroke="red" stroke-width="6.660000" />
<circle cx="215.959991" cy="1474.959961" r="19.980000" fill="red">
  <title>Delhi</title>
</circle><line x1="627.960022" y1="1392.959961" x2="215.959991" y2="1474.959961" stroke="red" stroke-width="6.660000" />
<circle cx="274.959991" cy="1230.959961" r="19.980000" fill="red">
  <title>Dhaka</title>
</circle><line x1="215.959991" y1="1474.959961" x2="274.959991" y2="1230.959961" stroke="red" stroke-width="6.660000" />
<circle cx="362.959991" cy="318.959991" r="19.980000" fill="red">
  <title>Cairo</title>
</circle><line x1="274.959991" y1="1230.959961" x2="362.959991" y2="318.959991" stroke="red" stroke-width="6.660000" />
<circle cx="704.960022" cy="806.960022" r="19.980000" fill="red">
  <title>Osaka</title>
</circle><line x1="362.959991" y1="318.959991" x2="704.960022" y2="806.960022" stroke="red" stroke-width="6.660000" />
<circle cx="1299.959961" cy="881.960022" r="19.980000" fill="red">
  <title>Beijing</title>
</circle><line x1="704.960022" y1="806.960022" x2="1299.959961" y2="881.960022" stroke="red" stroke-width="6.660000" />
<circle cx="1684.959961" cy="769.960022" r="19.980000" fill="red">
  <title>Mumbai</title>
</circle><line x1="1299.959961" y1="881.960022" x2="1684.959961" y2="769.960022" stroke="red" stroke-width="6.660000" />
<circle cx="1936.959961" cy="1584.959961" r="19.980000" fill="red">
  <title>Shanghai</title>
</circle><line x1="1684.959961" y1="769.960022" x2="1936.959961" y2="1584.959961" stroke="red" stroke-width="6.660000" />
<circle cx="1808.959961" cy="1398.959961" r="19.980000" fill="red">
  <title>Mexico City</title>
</circle><line x1="1936.959961" y1="1584.959961" x2="1808.959961" y2="1398.959961" stroke="red" stroke-width="6.660000" />
</svg>
