<?xml version="1.0" encoding="UTF-8" standalone="no"?>
<svg width="500" height="500" viewBox="0 0 2074.000000 2074.000000" xmlns="http://www.w3.org/2000/svg">
<rect x="19.000000" y="19.000000" width="2036.000000" height="2036.000000" fill="black" />
<circle cx="627.960022" cy="472.959991" r="19.980000" fill="red">
  <title>Tokyo</title>
</circle><line x1="1121.959961" y1="441.959991" x2="627.960022" y2="472.959991" stroke="red" stroke-width="6.660000" />
<circle cx="460.959991" cy="889.960022" r="19.980000" fill="red">
  <title>Beijing</title>
</circle><line x1="627.960022" y1="472.959991" x2="460.959991" y2="889.960022" stroke="red" stroke-width="6.660000" />
<circle cx="426.959991" cy="1047.959961" r="19.980000" fill="red">
  <title>New York</title>
</circle><line x1="460.959991" y1="889.960022" x2="426.959991" y2="1047.959961" stroke="red" stroke-width="6.660000" />
<circle cx="305.959991" cy="1843.959961" r="19.980000" fill="red">
  <title>Cairo</title>
</circle><line x1="426.959991" y1="1047.959961" x2="305.959991" y2="1843.959961" stroke="red" stroke-width="6.660000" />
<circle cx="824.960022" cy="1387.959961" r="19.980000" fill="red">
  <title>Osaka</title>
</circle><line x1="305.959991" y1="1843.959961" x2="824.960022" y2="1387.959961" stroke="red" stroke-width="6.660000" />
<circle cx="1948.959961" cy="1710.959961" r="19.980000" fill="red">
  <title>Delhi</title>
</circle><line x1="824.960022" y1="1387.959961" x2="1948.959961" y2="1710.959961" stroke="red" stroke-width="6.660000" />
<circle cx="1992.959961" cy="1773.959961" r="19.980000" fill="red">
  <title>Mexico City</title>
</circle><line x1="1948.959961" y1="1710.959961" x2="1992.959961" y2="1773.959961" stroke="red" stroke-width="6.660000" />
<circle cx="1941.959961" cy="1164.959961" r="19.980000" fill="red">
  <title>Shanghai</title>
</circle><line x1="1992.959961" y1="1773.959961" x2="1941.959961" y2="1164.959961" stroke="red" stroke-width="6.660000" />
<circle cx="1622.959961" cy="953.960022" r="19.980000" fill="red">
  <title>Mumbai</title>
</circle><line x1="1941.959961" y1="1164.959961" x2="1622.959961" y2="953.960022" stroke="red" stroke-width="6.660000" />
<circle cx="1679.959961" cy="423.959991" r="19.980000" fill="red">
  <title>São Paulo</title>
</circle><line x1="1622.959961" y1="953.960022" x2="1679.959961" y2="423.959991" stroke="red" stroke-width="6.660000" />
<circle cx="1121.959961" cy="441.959991" r="19.980000" fill="red">
  <title>Dhaka</title>
</circle><line x1="1679.959961" y1="423.959991" x2="1121.959961" y2="441.959991" stroke="red" stroke-width="6.660000" />
</svg>
