<?xml version="1.0" encoding="UTF-8" standalone="no"?>
<svg width="500" height="500" viewBox="0 0 2074.000000 2074.000000" xmlns="http://www.w3.org/2000/svg">
<rect x="19.000000" y="19.000000" width="2036.000000" height="2036.000000" fill="black" />
<circle cx="432.959991" cy="1236.959961" r="19.980000" fill="red">
  <title>Tokyo</title>
</circle><line x1="119.959999" y1="736.960022" x2="432.959991" y2="1236.959961" stroke="red" stroke-width="6.660000" />
<circle cx="145.959991" cy="1741.959961" r="19.980000" fill="red">
  <title>Mexico City</title>
</circle><line x1="432.959991" y1="1236.959961" x2="145.959991" y2="1741.959961" stroke="red" stroke-width="6.660000" />
<circle cx="739.960022" cy="1854.959961" r="19.980000" fill="red">
  <title>Mumbai</title>
</circle><line x1="145.959991" y1="1741.959961" x2="739.960022" y2="1854.959961" stroke="red" stroke-width="6.660000" />
<circle cx="625.960022" cy="1654.959961" r="19.980000" fill="red">
  <title>Delhi</title>
</circle><line x1="739.960022" y1="1854.959961" x2="625.960022" y2="1654.959961" stroke="red" stroke-width="6.660000" />
<circle cx="1618.959961" cy="307.959991" r="19.980000" fill="red">
  <title>Shanghai</title>
</circle><line x1="625.960022" y1="1654.959961" x2="1618.959961" y2="307.959991" stroke="red" stroke-width="6.660000" />
<circle cx="343.959991" cy="238.959991" r="19.980000" fill="red">
  <title>São Paulo</title>
</circle><line x1="1618.959961" y1="307.959991" x2="343.959991" y2="238.959991" stroke="red" stroke-width="6.660000" />
<circle cx="119.959999" cy="736.960022" r="19.980000" fill="red">
  <title>Cairo</title>
</circle><line x1="343.959991" y1="238.959991" x2="119.959999" y2="736.960022" stroke="red" stroke-width="6.660000" />
</svg>
