<?xml version="1.0" encoding="UTF-8" standalone="no"?>
<svg width="500" height="500" viewBox="0 0 2074.000000 2074.000000" xmlns="http://www.w3.org/2000/svg">
<rect x="19.000000" y="19.000000" width="2036.000000" height="2036.000000" fill="black" />
<circle cx="393.959991" cy="1990.959961" r="19.980000" fill="red">
  <title>Tokyo</title>
</circle><line x1="789.960022" y1="1041.959961" x2="393.959991" y2="1990.959961" stroke="red" stroke-width="6.660000" />
<circle cx="691.960022" cy="1672.959961" r="19.980000" fill="red">
  <title>Delhi</title>
</circle><line x1="393.959991" y1="1990.959961" x2="691.960022" y2="1672.959961" stroke="red" stroke-width="6.660000" />
<circle cx="966.960022" cy="1165.959961" r="19.980000" fill="red">
  <title>New York</title>
</circle><line x1="691.960022" y1="1672.959961" x2="966.960022" y2="1165.959961" stroke="red" stroke-width="6.660000" />
<circle cx="1063.959961" cy="1177.959961" r="19.980000" fill="red">
  <title>Mumbai</title>
</circle><line x1="966.960022" y1="1165.959961" x2="1063.959961" y2="1177.959961" stroke="red" stroke-width="6.660000" />
<circle cx="1485.959961" cy="949.960022" r="19.980000" fill="red">
  <title>Osaka</title>
</circle><line x1="1063.959961" y1="1177.959961" x2="1485.959961" y2="949.960022" stroke="red" stroke-width="6.660000" />
<circle cx="1607.959961" cy="1263.959961" r="19.980000" fill="red">
  <title>Cairo</title>
</circle><line x1="1485.959961" y1="949.960022" x2="1607.959961" y2="1263.959961" stroke="red" stroke-width="6.660000" />
<circle cx="1935.959961" cy="917.960022" r="19.980000" fill="red">
  <title>São Paulo</title>
</circle><line x1="1607.959961" y1="1263.959961" x2="1935.959961" y2="917.960022" stroke="red" stroke-width="6.660000" />
<circle cx="1652.959961" cy="223.959991" r="19.980000" fill="red">
  <title>Karachi</title>
</circle><line x1="1935.959961" y1="917.960022" x2="1652.959961" y2="223.959991" stroke="red" stroke-width="6.660000" />
<circle cx="1654.959961" cy="190.959991" r="19.980000" fill="red">
  <title>Dhaka</title>
</circle><line x1="1652.959961" y1="223.959991" x2="1654.959961" y2="190.959991" stroke="red" stroke-width="6.660000" />
<circle cx="1387.959961" cy="653.960022" r="19.980000" fill="red">
  <title>Beijing</title>
</circle><line x1="1654.959961" y1="190.959991" x2="1387.959961" y2="653.960022" stroke="red" stroke-width="6.660000" />
<circle cx="700.960022" cy="785.960022" r="19.980000" fill="red">
  <title>Mexico City</title>
</circle><line x1="1387.959961" y1="653.960022" x2="700.960022" y2="785.960022" stroke="red" stroke-width="6.660000" />
<circle cx="789.960022" cy="1041.959961" r="19.980000" fill="red">
  <title>Shanghai</title>
</circle><line x1="700.960022" y1="785.960022" x2="789.960022" y2="1041.959961" stroke="red" stroke-width="6.660000" />
</svg>
