<?xml version="1.0" encoding="UTF-8" standalone="no"?>
<svg width="500" height="500" viewBox="0 0 2074.000000 2074.000000" xmlns="http://www.w3.org/2000/svg">
<rect x="19.000000" y="19.000000" width="2036.000000" height="2036.000000" fill="black" />
<circle cx="781.960022" cy="1486.959961" r="19.980000" fill="red">
  <title>Tokyo</title>
</circle><line x1="293.959991" y1="1058.959961" x2="781.960022" y2="1486.959961" stroke="red" stroke-width="6.660000" />
<circle cx="597.960022" cy="1962.959961" r="19.980000" fill="red">
  <title>Mexico City</title>
</circle><line x1="781.960022" y1="1486.959961" x2="597.960022" y2="1962.959961" stroke="red" stroke-width="6.660000" />
<circle cx="1512.959961" cy="1853.959961" r="19.980000" fill="red">
  <title>Cairo</title>
</circle><line x1="597.960022" y1="1962.959961" x2="1512.959961" y2="1853.959961" stroke="red" stroke-width="6.660000" />
<circle cx="1454.959961" cy="1291.959961" r="19.980000" fill="red">
  <title>Mumbai</title>
</circle><line x1="1512.959961" y1="1853.959961" x2="1454.959961" y2="1291.959961" stroke="red" stroke-width="6.660000" />
<circle cx="1185.959961" cy="1254.959961" r="19.980000" fill="red">
  <title>Shanghai</title>
</circle><line x1="1454.959961" y1="1291.959961" x2="1185.959961" y2="1254.959961" stroke="red" stroke-width="6.660000" />
<circle cx="389.959991" cy="347.959991" r="19.980000" fill="red">
  <title>Delhi</title>
</circle><line x1="1185.959961" y1="1254.959961" x2="389.959991" y2="347.959991" stroke="red" stroke-width="6.660000" />
<circle cx="208.959991" cy="156.959991" r="19.980000" fill="red">
  <title>Beijing</title>
</circle><line x1="389.959991" y1="347.959991" x2="208.959991" y2="156.959991" stroke="red" stroke-width="6.660000" />
<circle cx="166.959991" cy="211.959991" r="19.980000" fill="red">
  <title>São Paulo</title>
</circle><line x1="208.959991" y1="156.959991" x2="166.959991" y2="211.959991" stroke="red" stroke-width="6.660000" />
<circle cx="293.959991" cy="1058.959961" r="19.980000" fill="red">
  <title>Dhaka</title>
</circle><line x1="166.959991" y1="211.959991" x2="293.959991" y2="1058.959961" stroke="red" stroke-width="6.660000" />
</svg>
