<?xml version="1.0" encoding="UTF-8" standalone="no"?>
<svg width="500" height="500" viewBox="0 0 2074.000000 2074.000000" xmlns="http://www.w3.org/2000/svg">
<rect x="19.000000" y="19.000000" width="2036.000000" height="2036.000000" fill="black" />
<circle cx="1787.959961" cy="195.959991" r="19.980000" fill="red">
  <title>Tokyo</title>
</circle><line x1="1657.959961" y1="1126.959961" x2="1787.959961" y2="195.959991" stroke="red" stroke-width="6.660000" />
<circle cx="1763.959961" cy="92.959999" r="19.980000" fill="red">
  <title>São Paulo</title>
</circle><line x1="1787.959961" y1="195.959991" x2="1763.959961" y2="92.959999" stroke="red" stroke-width="6.660000" />
<circle cx="1514.959961" cy="319.959991" r="19.980000" fill="red">
  <title>Mexico City</title>
</circle><line x1="1763.959961" y1="92.959999" x2="1514.959961" y2="319.959991" stroke="red" stroke-width="6.660000" />
<circle cx="1181.959961" cy="578.960022" r="19.980000" fill="red">
  <title>Beijing</title>
</circle><line x1="1514.959961" y1="319.959991" x2="1181.959961" y2="578.960022" stroke="red" stroke-width="6.660000" />
<circle cx="684.960022" cy="747.960022" r="19.980000" fill="red">
  <title>Shanghai</title>
</circle><line x1="1181.959961" y1="578.960022" x2="684.960022" y2="747.960022" stroke="red" stroke-width="6.660000" />
<circle cx="407.959991" cy="753.960022" r="19.980000" fill="red">
  <title>Dhaka</title>
</circle><line x1="684.960022" y1="747.960022" x2="407.959991" y2="753.960022" stroke="red" stroke-width="6.660000" />
<circle cx="108.959999" cy="1076.959961" r="19.980000" fill="red">
  <title>Osaka</title>
</circle><line x1="407.959991" y1="753.960022" x2="108.959999" y2="1076.959961" stroke="red" stroke-width="6.660000" />
<circle cx="153.959991" cy="1238.959961" r="19.980000" fill="red">
  <title>Mumbai</title>
</circle><line x1="108.959999" y1="1076.959961" x2="153.959991" y2="1238.959961" stroke="red" stroke-width="6.660000" />
<circle cx="414.959991" cy="1261.959961" r="19.980000" fill="red">
  <title>Buenos Aires</title>
</circle><line x1="153.959991" y1="1238.959961" x2="414.959991" y2="1261.959961" stroke="red" stroke-width="6.660000" />
<circle cx="180.959991" cy="1564.959961" r="19.980000" fill="red">
  <title>Istanbul</title>
</circle><line x1="414.959991" y1="1261.959961" x2="180.959991" y2="1564.959961" stroke="red" stroke-width="6.660000" />
<circle cx="288.959991" cy="2013.959961" r="19.980000" fill="red">
  <title>Cairo</title>
</circle><line x1="180.959991" y1="1564.959961" x2="288.959991" y2="2013.959961" stroke="red" stroke-width="6.660000" />
<circle cx="1189.959961" cy="1504.959961" r="19.980000" fill="red">
  <title>Delhi</title>
</circle><line x1="288.959991" y1="2013.959961" x2="1189.959961" y2="1504.959961" stroke="red" stroke-width="6.660000" />
<circle cx="1508.959961" cy="1897.959961" r="19.980000" fill="red">
  <title>Karachi</title>
</circle><line x1="1189.959961" y1="1504.959961" x2="1508.959961" y2="1897.959961" stroke="red" stroke-width="6.660000" />
<circle cx="1911.959961" cy="1989.959961" r="19.980000" fill="red">
  <title>New York</title>
</circle><line x1="1508.959961" y1="1897.959961" x2="1911.959961" y2="1989.959961" stroke="red" stroke-width="6.660000" />
<circle cx="1657.959961" cy="1126.959961" r="19.980000" fill="red">
  <title>Chongqing</title>
</circle><line x1="1911.959961" y1="1989.959961" x2="1657.959961" y2="1126.959961" stroke="red" stroke-width="6.660000" />
</svg>
