<?xml version="1.0" encoding="UTF-8" standalone="no"?>
<svg width="500" height="500" viewBox="0 0 2074.000000 2074.000000" xmlns="http://www.w3.org/2000/svg">
<rect x="19.000000" y="19.000000" width="2036.000000" height="2036.000000" fill="black" />
<circle cx="735.960022" cy="1632.959961" r="19.980000" fill="red">
  <title>Tokyo</title>
</circle><line x1="1980.959961" y1="544.960022" x2="735.960022" y2="1632.959961" stroke="red" stroke-width="6.660000" />
<circle cx="72.959999" cy="1517.959961" r="19.980000" fill="red">
  <title>Shanghai</title>
</circle><line x1="735.960022" y1="1632.959961" x2="72.959999" y2="1517.959961" stroke="red" stroke-width="6.660000" />
<circle cx="452.959991" cy="1345.959961" r="19.980000" fill="red">
  <title>São Paulo</title>
</circle><line x1="72.959999" y1="1517.959961" x2="452.959991" y2="1345.959961" stroke="red" stroke-width="6.660000" />
<circle cx="686.960022" cy="683.960022" r="19.980000" fill="red">
  <title>Mumbai</title>
</circle><line x1="452.959991" y1="1345.959961" x2="686.960022" y2="683.960022" stroke="red" stroke-width="6.660000" />
<circle cx="688.960022" cy="299.959991" r="19.980000" fill="red">
  <title>Delhi</title>
</circle><line x1="686.960022" y1="683.960022" x2="688.960022" y2="299.959991" stroke="red" stroke-width="6.660000" />
<circle cx="1117.959961" cy="397.959991" r="19.980000" fill="red">
  <title>Mexico City</title>
</circle><line x1="688.960022" y1="299.959991" x2="1117.959961" y2="397.959991" stroke="red" stroke-width="6.660000" />
<circle cx="1980.959961" cy="544.960022" r="19.980000" fill="red">
  <title>Cairo</title>
</circle><line x1="1117.959961" y1="397.959991" x2="1980.959961" y2="544.960022" stroke="red" stroke-width="6.660000" />
</svg>
