<?xml version="1.0" encoding="UTF-8" standalone="no"?>
<svg width="500" height="500" viewBox="0 0 2074.000000 2074.000000" xmlns="http://www.w3.org/2000/svg">
<rect x="19.000000" y="19.000000" width="2036.000000" height="2036.000000" fill="black" />
<circle cx="1772.959961" cy="488.959991" r="19.980000" fill="red">
  <title>Tokyo</title>
</circle><line x1="1224.959961" y1="943.960022" x2="1772.959961" y2="488.959991" stroke="red" stroke-width="6.660000" />
<circle cx="1861.959961" cy="542.960022" r="19.980000" fill="red">
  <title>Mexico City</title>
</circle><line x1="1772.959961" y1="488.959991" x2="1861.959961" y2="542.960022" stroke="red" stroke-width="6.660000" />
<circle cx="1257.959961" cy="985.960022" r="19.980000" fill="red">
  <title>São Paulo</title>
</circle><line x1="1861.959961" y1="542.960022" x2="1257.959961" y2="985.960022" stroke="red" stroke-width="6.660000" />
<circle cx="1387.959961" cy="1501.959961" r="19.980000" fill="red">
  <title>Shanghai</title>
</circle><line x1="1257.959961" y1="985.960022" x2="1387.959961" y2="1501.959961" stroke="red" stroke-width="6.660000" />
<circle cx="1160.959961" cy="1596.959961" r="19.980000" fill="red">
  <title>Cairo</title>
</circle><line x1="1387.959961" y1="1501.959961" x2="1160.959961" y2="1596.959961" stroke="red" stroke-width="6.660000" />
<circle cx="42.959999" cy="1819.959961" r="19.980000" fill="red">
  <title>Mumbai</title>
</circle><line x1="1160.959961" y1="1596.959961" x2="42.959999" y2="1819.959961" stroke="red" stroke-width="6.660000" />
<circle cx="1224.959961" cy="943.960022" r="19.980000" fill="red">
  <title>Delhi</title>
</circle><line x1="42.959999" y1="1819.959961" x2="1224.959961" y2="943.960022" stroke="red" stroke-width="6.660000" />
</svg>
