<?xml version="1.0" encoding="UTF-8" standalone="no"?>
<svg width="500" height="500" viewBox="0 0 2074.000000 2074.000000" xmlns="http://www.w3.org/2000/svg">
<rect x="19.000000" y="19.000000" width="2036.000000" height="2036.000000" fill="black" />
<circle cx="1654.959961" cy="1616.959961" r="19.980000" fill="red">
  <title>Tokyo</title>
</circle><line x1="1390.959961" y1="1373.959961" x2="1654.959961" y2="1616.959961" stroke="red" stroke-width="6.660000" />
<circle cx="1203.959961" cy="1904.959961" r="19.980000" fill="red">
  <title>São Paulo</title>
</circle><line x1="1654.959961" y1="1616.959961" x2="1203.959961" y2="1904.959961" stroke="red" stroke-width="6.660000" />
<circle cx="743.960022" cy="1973.959961" r="19.980000" fill="red">
  <title>Shanghai</title>
</circle><line x1="1203.959961" y1="1904.959961" x2="743.960022" y2="1973.959961" stroke="red" stroke-width="6.660000" />
<circle cx="163.959991" cy="1843.959961" r="19.980000" fill="red">
  <title>Dhaka</title>
</circle><line x1="743.960022" y1="1973.959961" x2="163.959991" y2="1843.959961" stroke="red" stroke-width="6.660000" />
<circle cx="594.960022" cy="1227.959961" r="19.980000" fill="red">
  <title>Mexico City</title>
</circle><line x1="163.959991" y1="1843.959961" x2="594.960022" y2="1227.959961" stroke="red" stroke-width="6.660000" />
<circle cx="148.959991" cy="1143.959961" r="19.980000" fill="red">
  <title>Mumbai</title>
</circle><line x1="594.960022" y1="1227.959961" x2="148.959991" y2="1143.959961" stroke="red" stroke-width="6.660000" />
<circle cx="102.959999" cy="152.959991" r="19.980000" fill="red">
  <title>Cairo</title>
</circle><line x1="148.959991" y1="1143.959961" x2="102.959999" y2="152.959991" stroke="red" stroke-width="6.660000" />
<circle cx="1212.959961" cy="387.959991" r="19.980000" fill="red">
  <title>Osaka</title>
</circle><line x1="102.959999" y1="152.959991" x2="1212.959961" y2="387.959991" stroke="red" stroke-width="6.660000" />
<circle cx="1232.959961" cy="420.959991" r="19.980000" fill="red">
  <title>Karachi</title>
</circle><line x1="1212.959961" y1="387.959991" x2="1232.959961" y2="420.959991" stroke="red" stroke-width="6.660000" />
<circle cx="1057.959961" cy="906.960022" r="19.980000" fill="red">
  <title>Delhi</title>
</circle><line x1="1232.959961" y1="420.959991" x2="1057.959961" y2="906.960022" stroke="red" stroke-width="6.660000" />
<circle cx="1228.959961" cy="1354.959961" r="19.980000" fill="red">
  <title>New York</title>
</circle><line x1="1057.959961" y1="906.960022" x2="1228.959961" y2="1354.959961" stroke="red" stroke-width="6.660000" />
<circle cx="1390.959961" cy="1373.959961" r="19.980000" fill="red">
  <title>Beijing</title>
</circle><line x1="1228.959961" y1="1354.959961" x2="1390.959961" y2="1373.959961" stroke="red" stroke-width="6.660000" />
</svg>
