<?xml version="1.0" encoding="UTF-8" standalone="no"?>
<svg width="500" height="500" viewBox="0 0 2074.000000 2074.000000" xmlns="http://www.w3.org/2000/svg">
<rect x="19.000000" y="19.000000" width="2036.000000" height="2036.000000" fill="black" />
<circle cx="1170.959961" cy="373.959991" r="19.980000" fill="red">
  <title>Tokyo</title>
</circle><line x1="1670.959961" y1="877.960022" x2="1170.959961" y2="373.959991" stroke="red" stroke-width="6.660000" />
<circle cx="927.960022" cy="231.959991" r="19.980000" fill="red">
  <title>Shanghai</title>
</circle><line x1="1170.959961" y1="373.959991" x2="927.960022" y2="231.959991" stroke="red" stroke-width="6.660000" />
<circle cx="1034.959961" cy="511.959991" r="19.980000" fill="red">
  <title>Osaka</title>
</circle><line x1="927.960022" y1="231.959991" x2="1034.959961" y2="511.959991" stroke="red" stroke-width="6.660000" />
<circle cx="957.960022" cy="658.960022" r="19.980000" fill="red">
  <title>Karachi</title>
</circle><line x1="1034.959961" y1="511.959991" x2="957.960022" y2="658.960022" stroke="red" stroke-width="6.660000" />
<circle cx="79.959999" cy="529.960022" r="19.980000" fill="red">
  <title>Mumbai</title>
</circle><line x1="957.960022" y1="658.960022" x2="79.959999" y2="529.960022" stroke="red" stroke-width="6.660000" />
<circle cx="498.959991" cy="919.960022" r="19.980000" fill="red">
  <title>Dhaka</title>
</circle><line x1="79.959999" y1="529.960022" x2="498.959991" y2="919.960022" stroke="red" stroke-width="6.660000" />
<circle cx="708.960022" cy="1551.959961" r="19.980000" fill="red">
  <title>New York</title>
</circle><line x1="498.959991" y1="919.960022" x2="708.960022" y2="1551.959961" stroke="red" stroke-width="6.660000" />
<circle cx="298.959991" cy="1671.959961" r="19.980000" fill="red">
  <title>Delhi</title>
</circle><line x1="708.960022" y1="1551.959961" x2="298.959991" y2="1671.959961" stroke="red" stroke-width="6.660000" />
<circle cx="628.960022" cy="1760.959961" r="19.980000" fill="red">
  <title>Beijing</title>
</circle><line x1="298.959991" y1="1671.959961" x2="628.960022" y2="1760.959961" stroke="red" stroke-width="6.660000" />
<circle cx="1292.959961" cy="1971.959961" r="19.980000" fill="red">
  <title>São Paulo</title>
</circle><line x1="628.960022" y1="1760.959961" x2="1292.959961" y2="1971.959961" stroke="red" stroke-width="6.660000" />
<circle cx="1345.959961" cy="1119.959961" r="19.980000" fill="red">
  <title>Mexico City</title>
</circle><line x1="1292.959961" y1="1971.959961" x2="1345.959961" y2="1119.959961" stroke="red" stroke-width="6.660000" />
<circle cx="1670.959961" cy="877.960022" r="19.980000" fill="red">
  <title>Cairo</title>
</circle><line x1="1345.959961" y1="1119.959961" x2="1670.959961" y2="877.960022" stroke="red" stroke-width="6.660000" />
</svg>
