<?xml version="1.0" encoding="UTF-8" standalone="no"?>
<svg width="500" height="500" viewBox="0 0 2074.000000 2074.000000" xmlns="http://www.w3.org/2000/svg">
<rect x="19.000000" y="19.000000" width="2036.000000" height="2036.000000" fill="black" />
<circle cx="633.960022" cy="948.960022" r="19.980000" fill="red">
  <title>Tokyo</title>
</circle><line x1="552.960022" y1="1015.960022" x2="633.960022" y2="948.960022" stroke="red" stroke-width="6.660000" />
<circle cx="656.960022" cy="1165.959961" r="19.980000" fill="red">
  <title>Delhi</title>
</circle><line x1="633.960022" y1="948.960022" x2="656.960022" y2="1165.959961" stroke="red" stroke-width="6.660000" />
<circle cx="412.959991" cy="1550.959961" r="19.980000" fill="red">
  <title>São Paulo</title>
</circle><line x1="656.960022" y1="1165.959961" x2="412.959991" y2="1550.959961" stroke="red" stroke-width="6.660000" />
<circle cx="790.960022" cy="1952.959961" r="19.980000" fill="red">
  <title>Osaka</title>
</circle><line x1="412.959991" y1="1550.959961" x2="790.960022" y2="1952.959961" stroke="red" stroke-width="6.660000" />
<circle cx="895.960022" cy="1117.959961" r="19.980000" fill="red">
  <title>Beijing</title>
</circle><line x1="790.960022" y1="1952.959961" x2="895.960022" y2="1117.959961" stroke="red" stroke-width="6.660000" />
<circle cx="987.960022" cy="1138.959961" r="19.980000" fill="red">
  <title>New York</title>
</circle><line x1="895.960022" y1="1117.959961" x2="987.960022" y2="1138.959961" stroke="red" stroke-width="6.660000" />
<circle cx="1347.959961" cy="309.959991" r="19.980000" fill="red">
  <title>Mumbai</title>
</circle><line x1="987.960022" y1="1138.959961" x2="1347.959961" y2="309.959991" stroke="red" stroke-width="6.660000" />
<circle cx="1410.959961" cy="232.959991" r="19.980000" fill="red">
  <title>Shanghai</title>
</circle><line x1="1347.959961" y1="309.959991" x2="1410.959961" y2="232.959991" stroke="red" stroke-width="6.660000" />
<circle cx="467.959991" cy="212.959991" r="19.980000" fill="red">
  <title>Mexico City</title>
</circle><line x1="1410.959961" y1="232.959991" x2="467.959991" y2="212.959991" stroke="red" stroke-width="6.660000" />
<circle cx="65.959999" cy="910.960022" r="19.980000" fill="red">
  <title>Dhaka</title>
</circle><line x1="467.959991" y1="212.959991" x2="65.959999" y2="910.960022" stroke="red" stroke-width="6.660000" />
<circle cx="552.960022" cy="1015.960022" r="19.980000" fill="red">
  <title>Cairo</title>
</circle><line x1="65.959999" y1="910.960022" x2="552.960022" y2="1015.960022" stroke="red" stroke-width="6.660000" />
</svg>
