<?xml version="1.0" encoding="UTF-8" standalone="no"?>
<svg width="500" height="500" viewBox="0 0 2074.000000 2074.000000" xmlns="http://www.w3.org/2000/svg">
<rect x="19.000000" y="19.000000" width="2036.000000" height="2036.000000" fill="black" />
<circle cx="1314.959961" cy="1060.959961" r="19.980000" fill="red">
  <title>Tokyo</title>
</circle><line x1="1791.959961" y1="491.959991" x2="1314.959961" y2="1060.959961" stroke="red" stroke-width="6.660000" />
<circle cx="967.960022" cy="1259.959961" r="19.980000" fill="red">
  <title>Cairo</title>
</circle><line x1="1314.959961" y1="1060.959961" x2="967.960022" y2="1259.959961" stroke="red" stroke-width="6.660000" />
<circle cx="843.960022" cy="1701.959961" r="19.980000" fill="red">
  <title>Dhaka</title>
</circle><line x1="967.960022" y1="1259.959961" x2="843.960022" y2="1701.959961" stroke="red" stroke-width="6.660000" />
<circle cx="1385.959961" cy="1737.959961" r="19.980000" fill="red">
  <title>Shanghai</title>
</circle><line x1="843.960022" y1="1701.959961" x2="1385.959961" y2="1737.959961" stroke="red" stroke-width="6.660000" />
<circle cx="1595.959961" cy="1899.959961" r="19.980000" fill="red">
  <title>Osaka</title>
</circle><line x1="1385.959961" y1="1737.959961" x2="1595.959961" y2="1899.959961" stroke="red" stroke-width="6.660000" />
<circle cx="1566.959961" cy="1635.959961" r="19.980000" fill="red">
  <title>New York</title>
</circle><line x1="1595.959961" y1="1899.959961" x2="1566.959961" y2="1635.959961" stroke="red" stroke-width="6.660000" />
<circle cx="1258.959961" cy="1196.959961" r="19.980000" fill="red">
  <title>Buenos Aires</title>
</circle><line x1="1566.959961" y1="1635.959961" x2="1258.959961" y2="1196.959961" stroke="red" stroke-width="6.660000" />
<circle cx="1259.959961" cy="596.960022" r="19.980000" fill="red">
  <title>Karachi</title>
</circle><line x1="1258.959961" y1="1196.959961" x2="1259.959961" y2="596.960022" stroke="red" stroke-width="6.660000" />
<circle cx="975.960022" cy="255.959991" r="19.980000" fill="red">
  <title>Mumbai</title>
</circle><line x1="1259.959961" y1="596.960022" x2="975.960022" y2="255.959991" stroke="red" stroke-width="6.660000" />
<circle cx="264.959991" cy="57.959999" r="19.980000" fill="red">
  <title>Mexico City</title>
</circle><line x1="975.960022" y1="255.959991" x2="264.959991" y2="57.959999" stroke="red" stroke-width="6.660000" />
<circle cx="814.960022" cy="183.959991" r="19.980000" fill="red">
  <title>Delhi</title>
</circle><line x1="264.959991" y1="57.959999" x2="814.960022" y2="183.959991" stroke="red" stroke-width="6.660000" />
<circle cx="1381.959961" cy="72.959999" r="19.980000" fill="red">
  <title>Chongqing</title>
</circle><line x1="814.960022" y1="183.959991" x2="1381.959961" y2="72.959999" stroke="red" stroke-width="6.660000" />
<circle cx="1409.959961" cy="355.959991" r="19.980000" fill="red">
  <title>São Paulo</title>
</circle><line x1="1381.959961" y1="72.959999" x2="1409.959961" y2="355.959991" stroke="red" stroke-width="6.660000" />
<circle cx="1791.959961" cy="491.959991" r="19.980000" fill="red">
  <title>Beijing</title>
</circle><line x1="1409.959961" y1="355.959991" x2="1791.959961" y2="491.959991" stroke="red" stroke-width="6.660000" />
</svg>
