<?xml version="1.0" encoding="UTF-8" standalone="no"?>
<svg width="500" height="500" viewBox="0 0 2074.000000 2074.000000" xmlns="http://www.w3.org/2000/svg">
<rect x="19.000000" y="19.000000" width="2036.000000" height="2036.000000" fill="black" />
<circle cx="551.960022" cy="675.960022" r="19.980000" fill="red">
  <title>Tokyo</title>
</circle><line x1="490.959991" y1="1891.959961" x2="551.960022" y2="675.960022" stroke="red" stroke-width="6.660000" />
<circle cx="846.960022" cy="203.959991" r="19.980000" fill="red">
  <title>Shanghai</title>
</circle><line x1="551.960022" y1="675.960022" x2="846.960022" y2="203.959991" stroke="red" stroke-width="6.660000" />
<circle cx="768.960022" cy="475.959991" r="19.980000" fill="red">
  <title>Cairo</title>
</circle><line x1="846.960022" y1="203.959991" x2="768.960022" y2="475.959991" stroke="red" stroke-width="6.660000" />
<circle cx="1299.959961" cy="969.960022" r="19.980000" fill="red">
  <title>Mumbai</title>
</circle><line x1="768.960022" y1="475.959991" x2="1299.959961" y2="969.960022" stroke="red" stroke-width="6.660000" />
<circle cx="1820.959961" cy="914.960022" r="19.980000" fill="red">
  <title>Delhi</title>
</circle><line x1="1299.959961" y1="969.960022" x2="1820.959961" y2="914.960022" stroke="red" stroke-width="6.660000" />
<circle cx="1666.959961" cy="1736.959961" r="19.980000" fill="red">
  <title>Beijing</title>
</circle><line x1="1820.959961" y1="914.960022" x2="1666.959961" y2="1736.959961" stroke="red" stroke-width="6.660000" />
<circle cx="1598.959961" cy="1840.959961" r="19.980000" fill="red">
  <title>São Paulo</title>
</circle><line x1="1666.959961" y1="1736.959961" x2="1598.959961" y2="1840.959961" stroke="red" stroke-width="6.660000" />
<circle cx="490.959991" cy="1891.959961" r="19.980000" fill="red">
  <title>Mexico City</title>
</circle><line x1="1598.959961" y1="1840.959961" x2="490.959991" y2="1891.959961" stroke="red" stroke-width="6.660000" />
</svg>
