<?xml version="1.0" encoding="UTF-8" standalone="no"?>
<svg width="500" height="500" viewBox="0 0 2074.000000 2074.000000" xmlns="http://www.w3.org/2000/svg">
<rect x="19.000000" y="19.000000" width="2036.000000" height="2036.000000" fill="black" />
<circle cx="983.960022" cy="936.960022" r="19.980000" fill="red">
  <title>Tokyo</title>
</circle><line x1="702.960022" y1="1843.959961" x2="983.960022" y2="936.960022" stroke="red" stroke-width="6.660000" />
<circle cx="1906.959961" cy="761.960022" r="19.980000" fill="red">
  <title>Shanghai</title>
</circle><line x1="983.960022" y1="936.960022" x2="1906.959961" y2="761.960022" stroke="red" stroke-width="6.660000" />
<circle cx="1071.959961" cy="229.959991" r="19.980000" fill="red">
  <title>Mumbai</title>
</circle><line x1="1906.959961" y1="761.960022" x2="1071.959961" y2="229.959991" stroke="red" stroke-width="6.660000" />
<circle cx="752.960022" cy="748.960022" r="19.980000" fill="red">
  <title>Osaka</title>
</circle><line x1="1071.959961" y1="229.959991" x2="752.960022" y2="748.960022" stroke="red" stroke-width="6.660000" />
<circle cx="316.959991" cy="1339.959961" r="19.980000" fill="red">
  <title>Cairo</title>
</circle><line x1="752.960022" y1="748.960022" x2="316.959991" y2="1339.959961" stroke="red" stroke-width="6.660000" />
<circle cx="332.959991" cy="1427.959961" r="19.980000" fill="red">
  <title>Mexico City</title>
</circle><line x1="316.959991" y1="1339.959961" x2="332.959991" y2="1427.959961" stroke="red" stroke-width="6.660000" />
<circle cx="134.959991" cy="1446.959961" r="19.980000" fill="red">
  <title>Dhaka</title>
</circle><line x1="332.959991" y1="1427.959961" x2="134.959991" y2="1446.959961" stroke="red" stroke-width="6.660000" />
<circle cx="358.959991" cy="1964.959961" r="19.980000" fill="red">
  <title>Beijing</title>
</circle><line x1="134.959991" y1="1446.959961" x2="358.959991" y2="1964.959961" stroke="red" stroke-width="6.660000" />
<circle cx="489.959991" cy="1998.959961" r="19.980000" fill="red">
  <title>Delhi</title>
</circle><line x1="358.959991" y1="1964.959961" x2="489.959991" y2="1998.959961" stroke="red" stroke-width="6.660000" />
<circle cx="702.960022" cy="1843.959961" r="19.980000" fill="red">
  <title>São Paulo</title>
</circle><line x1="489.959991" y1="1998.959961" x2="702.960022" y2="1843.959961" stroke="red" stroke-width="6.660000" />
</svg>
