<?xml version="1.0" encoding="UTF-8" standalone="no"?>
<svg width="500" height="500" viewBox="0 0 2074.000000 2074.000000" xmlns="http://www.w3.org/2000/svg">
<rect x="19.000000" y="19.000000" width="2036.000000" height="2036.000000" fill="black" />
<circle cx="1619.959961" cy="172.959991" r="19.980000" fill="red">
  <title>Tokyo</title>
</circle><line x1="1310.959961" y1="633.960022" x2="1619.959961" y2="172.959991" stroke="red" stroke-width="6.660000" />
<circle cx="1932.959961" cy="707.960022" r="19.980000" fill="red">
  <title>Karachi</title>
</circle><line x1="1619.959961" y1="172.959991" x2="1932.959961" y2="707.960022" stroke="red" stroke-width="6.660000" />
<circle cx="1823.959961" cy="1516.959961" r="19.980000" fill="red">
  <title>Mexico City</title>
</circle><line x1="1932.959961" y1="707.960022" x2="1823.959961" y2="1516.959961" stroke="red" stroke-width="6.660000" />
<circle cx="1663.959961" cy="1413.959961" r="19.980000" fill="red">
  <title>São Paulo</title>
</circle><line x1="1823.959961" y1="1516.959961" x2="1663.959961" y2="1413.959961" stroke="red" stroke-width="6.660000" />
<circle cx="307.959991" cy="1712.959961" r="19.980000" fill="red">
  <title>Delhi</title>
</circle><line x1="1663.959961" y1="1413.959961" x2="307.959991" y2="1712.959961" stroke="red" stroke-width="6.660000" />
<circle cx="299.959991" cy="2005.959961" r="19.980000" fill="red">
  <title>Beijing</title>
</circle><line x1="307.959991" y1="1712.959961" x2="299.959991" y2="2005.959961" stroke="red" stroke-width="6.660000" />
<circle cx="268.959991" cy="1471.959961" r="19.980000" fill="red">
  <title>Shanghai</title>
</circle><line x1="299.959991" y1="2005.959961" x2="268.959991" y2="1471.959961" stroke="red" stroke-width="6.660000" />
<circle cx="240.959991" cy="1421.959961" r="19.980000" fill="red">
  <title>Mumbai</title>
</circle><line x1="268.959991" y1="1471.959961" x2="240.959991" y2="1421.959961" stroke="red" stroke-width="6.660000" />
<circle cx="81.959999" cy="612.960022" r="19.980000" fill="red">
  <title>Osaka</title>
</circle><line x1="240.959991" y1="1421.959961" x2="81.959999" y2="612.960022" stroke="red" stroke-width="6.660000" />
<circle cx="122.959999" cy="374.959991" r="19.980000" fill="red">
  <title>Dhaka</title>
</circle><line x1="81.959999" y1="612.960022" x2="122.959999" y2="374.959991" stroke="red" stroke-width="6.660000" />
<circle cx="1128.959961" cy="236.959991" r="19.980000" fill="red">
  <title>Cairo</title>
</circle><line x1="122.959999" y1="374.959991" x2="1128.959961" y2="236.959991" stroke="red" stroke-width="6.660000" />
<circle cx="1310.959961" cy="633.960022" r="19.980000" fill="red">
  <title>New York</title>
</circle><line x1="1128.959961" y1="236.959991" x2="1310.959961" y2="633.960022" stroke="red" stroke-width="6.660000" />
</svg>
