<?xml version="1.0" encoding="UTF-8" standalone="no"?>
<svg width="500" height="500" viewBox="0 0 2074.000000 2074.000000" xmlns="http://www.w3.org/2000/svg">
<rect x="19.000000" y="19.000000" width="2036.000000" height="2036.000000" fill="black" />
<circle cx="751.960022" cy="1149.959961" r="19.980000" fill="red">
  <title>Tokyo</title>
</circle><line x1="127.959999" y1="1534.959961" x2="751.960022" y2="1149.959961" stroke="red" stroke-width="6.660000" />
<circle cx="509.959991" cy="631.960022" r="19.980000" fill="red">
  <title>Shanghai</title>
</circle><line x1="751.960022" y1="1149.959961" x2="509.959991" y2="631.960022" stroke="red" stroke-width="6.660000" />
<circle cx="1579.959961" cy="39.959999" r="19.980000" fill="red">
  <title>Delhi</title>
</circle><line x1="509.959991" y1="631.960022" x2="1579.959961" y2="39.959999" stroke="red" stroke-width="6.660000" />
<circle cx="1871.959961" cy="536.960022" r="19.980000" fill="red">
  <title>São Paulo</title>
</circle><line x1="1579.959961" y1="39.959999" x2="1871.959961" y2="536.960022" stroke="red" stroke-width="6.660000" />
<circle cx="1918.959961" cy="1269.959961" r="19.980000" fill="red">
  <title>Mexico City</title>
</circle><line x1="1871.959961" y1="536.960022" x2="1918.959961" y2="1269.959961" stroke="red" stroke-width="6.660000" />
<circle cx="1753.959961" cy="1937.959961" r="19.980000" fill="red">
  <title>Mumbai</title>
</circle><line x1="1918.959961" y1="1269.959961" x2="1753.959961" y2="1937.959961" stroke="red" stroke-width="6.660000" />
<circle cx="426.959991" cy="1819.959961" r="19.980000" fill="red">
  <title>Beijing</title>
</circle><line x1="1753.959961" y1="1937.959961" x2="426.959991" y2="1819.959961" stroke="red" stroke-width="6.660000" />
<circle cx="127.959999" cy="1534.959961" r="19.980000" fill="red">
  <title>Cairo</title>
</circle><line x1="426.959991" y1="1819.959961" x2="127.959999" y2="1534.959961" stroke="red" stroke-width="6.660000" />
</svg>
