<?xml version="1.0" encoding="UTF-8" standalone="no"?>
<svg width="500" height="500" viewBox="0 0 2074.000000 2074.000000" xmlns="http://www.w3.org/2000/svg">
<rect x="19.000000" y="19.000000" width="2036.000000" height="2036.000000" fill="black" />
<circle cx="1636.959961" cy="2031.959961" r="19.980000" fill="red">
  <title>Tokyo</title>
</circle><line x1="1860.959961" y1="1812.959961" x2="1636.959961" y2="2031.959961" stroke="red" stroke-width="6.660000" />
<circle cx="1391.959961" cy="1231.959961" r="19.980000" fill="red">
  <title>Shanghai</title>
</circle><line x1="1636.959961" y1="2031.959961" x2="1391.959961" y2="1231.959961" stroke="red" stroke-width="6.660000" />
<circle cx="64.959999" cy="1031.959961" r="19.980000" fill="red">
  <title>Mexico City</title>
</circle><line x1="1391.959961" y1="1231.959961" x2="64.959999" y2="1031.959961" stroke="red" stroke-width="6.660000" />
<circle cx="1209.959961" cy="477.959991" r="19.980000" fill="red">
  <title>São Paulo</title>
</circle><line x1="64.959999" y1="1031.959961" x2="1209.959961" y2="477.959991" stroke="red" stroke-width="6.660000" />
<circle cx="1862.959961" cy="374.959991" r="19.980000" fill="red">
  <title>Delhi</title>
</circle><line x1="1209.959961" y1="477.959991" x2="1862.959961" y2="374.959991" stroke="red" stroke-width="6.660000" />
<circle cx="1860.959961" cy="1812.959961" r="19.980000" fill="red">
  <title>Cairo</title>
</circle><line x1="1862.959961" y1="374.959991" x2="1860.959961" y2="1812.959961" stroke="red" stroke-width="6.660000" />
</svg>
