<?xml version="1.0" encoding="UTF-8" standalone="no"?>
<svg width="500" height="500" viewBox="0 0 2074.000000 2074.000000" xmlns="http://www.w3.org/2000/svg">
<rect x="19.000000" y="19.000000" width="2036.000000" height="2036.000000" fill="black" />
<circle cx="1325.959961" cy="1513.959961" r="19.980000" fill="red">
  <title>Tokyo</title>
</circle><line x1="678.960022" y1="1273.959961" x2="1325.959961" y2="1513.959961" stroke="red" stroke-width="6.660000" />
<circle cx="1382.959961" cy="1344.959961" r="19.980000" fill="red">
  <title>Mexico City</title>
</circle><line x1="1325.959961" y1="1513.959961" x2="1382.959961" y2="1344.959961" stroke="red" stroke-width="6.660000" />
<circle cx="1957.959961" cy="993.960022" r="19.980000" fill="red">
  <title>Shanghai</title>
</circle><line x1="1382.959961" y1="1344.959961" x2="1957.959961" y2="993.960022" stroke="red" stroke-width="6.660000" />
<circle cx="1330.959961" cy="503.959991" r="19.980000" fill="red">
  <title>Cairo</title>
</circle><line x1="1957.959961" y1="993.960022" x2="1330.959961" y2="503.959991" stroke="red" stroke-width="6.660000" />
<circle cx="55.959999" cy="61.959999" r="19.980000" fill="red">
  <title>Delhi</title>
</circle><line x1="1330.959961" y1="503.959991" x2="55.959999" y2="61.959999" stroke="red" stroke-width="6.660000" />
<circle cx="678.960022" cy="1273.959961" r="19.980000" fill="red">
  <title>São Paulo</title>
</circle><line x1="55.959999" y1="61.959999" x2="678.960022" y2="1273.959961" stroke="red" stroke-width="6.660000" />
</svg>
