<?xml version="1.0" encoding="UTF-8" standalone="no"?>
<svg width="500" height="500" viewBox="0 0 2074.000000 2074.000000" xmlns="http://www.w3.org/2000/svg">
<rect x="19.000000" y="19.000000" width="2036.000000" height="2036.000000" fill="black" />
<circle cx="1683.959961" cy="496.959991" r="19.980000" fill="red">
  <title>Tokyo</title>
</circle><line x1="1920.959961" y1="146.959991" x2="1683.959961" y2="496.959991" stroke="red" stroke-width="6.660000" />
<circle cx="943.960022" cy="299.959991" r="19.980000" fill="red">
  <title>Delhi</title>
</circle><line x1="1683.959961" y1="496.959991" x2="943.960022" y2="299.959991" stroke="red" stroke-width="6.660000" />
<circle cx="1920.959961" cy="146.959991" r="19.980000" fill="red">
  <title>Shanghai</title>
</circle><line x1="943.960022" y1="299.959991" x2="1920.959961" y2="146.959991" stroke="red" stroke-width="6.660000" />
</svg>
