<?xml version="1.0" encoding="UTF-8" standalone="no"?>
<svg width="500" height="500" viewBox="0 0 2074.000000 2074.000000" xmlns="http://www.w3.org/2000/svg">
<rect x="19.000000" y="19.000000" width="2036.000000" height="2036.000000" fill="black" />
<circle cx="1089.959961" cy="1632.959961" r="19.980000" fill="red">
  <title>Tokyo</title>
</circle><line x1="1595.959961" y1="1799.959961" x2="1089.959961" y2="1632.959961" stroke="red" stroke-width="6.660000" />
<circle cx="693.960022" cy="1941.959961" r="19.980000" fill="red">
  <title>Dhaka</title>
</circle><line x1="1089.959961" y1="1632.959961" x2="693.960022" y2="1941.959961" stroke="red" stroke-width="6.660000" />
<circle cx="375.959991" cy="1979.959961" r="19.980000" fill="red">
  <title>Chongqing</title>
</circle><line x1="693.960022" y1="1941.959961" x2="375.959991" y2="1979.959961" stroke="red" stroke-width="6.660000" />
<circle cx="748.960022" cy="1031.959961" r="19.980000" fill="red">
  <title>Istanbul</title>
</circle><line x1="375.959991" y1="1979.959961" x2="748.960022" y2="1031.959961" stroke="red" stroke-width="6.660000" />
<circle cx="779.960022" cy="993.960022" r="19.980000" fill="red">
  <title>Buenos Aires</title>
</circle><line x1="748.960022" y1="1031.959961" x2="779.960022" y2="993.960022" stroke="red" stroke-width="6.660000" />
<circle cx="918.960022" cy="788.960022" r="19.980000" fill="red">
  <title>Mexico City</title>
</circle><line x1="779.960022" y1="993.960022" x2="918.960022" y2="788.960022" stroke="red" stroke-width="6.660000" />
<circle cx="581.960022" cy="588.960022" r="19.980000" fill="red">
  <title>Shanghai</title>
</circle><line x1="918.960022" y1="788.960022" x2="581.960022" y2="588.960022" stroke="red" stroke-width="6.660000" />
<circle cx="62.959999" cy="511.959991" r="19.980000" fill="red">
  <title>New York</title>
</circle><line x1="581.960022" y1="588.960022" x2="62.959999" y2="511.959991" stroke="red" stroke-width="6.660000" />
<circle cx="626.960022" cy="313.959991" r="19.980000" fill="red">
  <title>Manila</title>
</circle><line x1="62.959999" y1="511.959991" x2="626.960022" y2="313.959991" stroke="red" stroke-width="6.660000" />
<circle cx="756.960022" cy="255.959991" r="19.980000" fill="red">
  <title>Delhi</title>
</circle><line x1="626.960022" y1="313.959991" x2="756.960022" y2="255.959991" stroke="red" stroke-width="6.660000" />
<circle cx="952.960022" cy="709.960022" r="19.980000" fill="red">
  <title>São Paulo</title>
</circle><line x1="756.960022" y1="255.959991" x2="952.960022" y2="709.960022" stroke="red" stroke-width="6.660000" />
<circle cx="1171.959961" cy="769.960022" r="19.980000" fill="red">
  <title>Mumbai</title>
</circle><line x1="952.960022" y1="709.960022" x2="1171.959961" y2="769.960022" stroke="red" stroke-width="6.660000" />
<circle cx="1822.959961" cy="186.959991" r="19.980000" fill="red">
  <title>Cairo</title>
</circle><line x1="1171.959961" y1="769.960022" x2="1822.959961" y2="186.959991" stroke="red" stroke-width="6.660000" />
<circle cx="1520.959961" cy="720.960022" r="19.980000" fill="red">
  <title>Osaka</title>
</circle><line x1="1822.959961" y1="186.959991" x2="1520.959961" y2="720.960022" stroke="red" stroke-width="6.660000" />
<circle cx="1189.959961" cy="1277.959961" r="19.980000" fill="red">
  <title>Karachi</title>
</circle><line x1="1520.959961" y1="720.960022" x2="1189.959961" y2="1277.959961" stroke="red" stroke-width="6.660000" />
<circle cx="1277.959961" cy="1514.959961" r="19.980000" fill="red">
  <title>Beijing</title>
</circle><line x1="1189.959961" y1="1277.959961" x2="1277.959961" y2="1514.959961" stroke="red" stroke-width="6.660000" />
<circle cx="1595.959961" cy="1799.959961" r="19.980000" fill="red">
  <title>Kolkata</title>
</circle><line x1="1277.959961" y1="1514.959961" x2="1595.959961" y2="1799.959961" stroke="red" stroke-width="6.660000" />
</svg>
