<?xml version="1.0" encoding="UTF-8" standalone="no"?>
<svg width="500" height="500" viewBox="0 0 2074.000000 2074.000000" xmlns="http://www.w3.org/2000/svg">
<rect x="19.000000" y="19.000000" width="2036.000000" height="2036.000000" fill="black" />
<circle cx="553.960022" cy="1810.959961" r="19.980000" fill="red">
  <title>Tokyo</title>
</circle><line x1="704.960022" y1="1686.959961" x2="553.960022" y2="1810.959961" stroke="red" stroke-width="6.660000" />
<circle cx="536.960022" cy="1754.959961" r="19.980000" fill="red">
  <title>Cairo</title>
</circle><line x1="553.960022" y1="1810.959961" x2="536.960022" y2="1754.959961" stroke="red" stroke-width="6.660000" />
<circle cx="415.959991" cy="1284.959961" r="19.980000" fill="red">
  <title>Beijing</title>
</circle><line x1="536.960022" y1="1754.959961" x2="415.959991" y2="1284.959961" stroke="red" stroke-width="6.660000" />
<circle cx="1004.960022" cy="987.960022" r="19.980000" fill="red">
  <title>Delhi</title>
</circle><line x1="415.959991" y1="1284.959961" x2="1004.960022" y2="987.960022" stroke="red" stroke-width="6.660000" />
<circle cx="730.960022" cy="207.959991" r="19.980000" fill="red">
  <title>Buenos Aires</title>
</circle><line x1="1004.960022" y1="987.960022" x2="730.960022" y2="207.959991" stroke="red" stroke-width="6.660000" />
<circle cx="866.960022" cy="39.959999" r="19.980000" fill="red">
  <title>Shanghai</title>
</circle><line x1="730.960022" y1="207.959991" x2="866.960022" y2="39.959999" stroke="red" stroke-width="6.660000" />
<circle cx="1001.960022" cy="76.959999" r="19.980000" fill="red">
  <title>Mexico City</title>
</circle><line x1="866.960022" y1="39.959999" x2="1001.960022" y2="76.959999" stroke="red" stroke-width="6.660000" />
<circle cx="1417.959961" cy="553.960022" r="19.980000" fill="red">
  <title>Dhaka</title>
</circle><line x1="1001.960022" y1="76.959999" x2="1417.959961" y2="553.960022" stroke="red" stroke-width="6.660000" />
<circle cx="1329.959961" cy="1131.959961" r="19.980000" fill="red">
  <title>New York</title>
</circle><line x1="1417.959961" y1="553.960022" x2="1329.959961" y2="1131.959961" stroke="red" stroke-width="6.660000" />
<circle cx="1422.959961" cy="1150.959961" r="19.980000" fill="red">
  <title>Osaka</title>
</circle><line x1="1329.959961" y1="1131.959961" x2="1422.959961" y2="1150.959961" stroke="red" stroke-width="6.660000" />
<circle cx="1521.959961" cy="1671.959961" r="19.980000" fill="red">
  <title>Chongqing</title>
</circle><line x1="1422.959961" y1="1150.959961" x2="1521.959961" y2="1671.959961" stroke="red" stroke-width="6.660000" />
<circle cx="1762.959961" cy="1987.959961" r="19.980000" fill="red">
  <title>Mumbai</title>
</circle><line x1="1521.959961" y1="1671.959961" x2="1762.959961" y2="1987.959961" stroke="red" stroke-width="6.660000" />
<circle cx="1736.959961" cy="2002.959961" r="19.980000" fill="red">
  <title>São Paulo</title>
</circle><line x1="1762.959961" y1="1987.959961" x2="1736.959961" y2="2002.959961" stroke="red" stroke-width="6.660000" />
<circle cx="1239.959961" cy="1431.959961" r="19.980000" fill="red">
  <title>Karachi</title>
</circle><line x1="1736.959961" y1="2002.959961" x2="1239.959961" y2="1431.959961" stroke="red" stroke-width="6.660000" />
<circle cx="704.960022" cy="1686.959961" r="19.980000" fill="red">
  <title>Istanbul</title>
</circle><line x1="1239.959961" y1="1431.959961" x2="704.960022" y2="1686.959961" stroke="red" stroke-width="6.660000" />
</svg>
