<?xml version="1.0" encoding="UTF-8" standalone="no"?>
<svg width="500" height="500" viewBox="0 0 2074.000000 2074.000000" xmlns="http://www.w3.org/2000/svg">
<rect x="19.000000" y="19.000000" width="2036.000000" height="2036.000000" fill="black" />
<circle cx="355.959991" cy="1291.959961" r="19.980000" fill="red">
  <title>Tokyo</title>
</circle><line x1="210.959991" y1="1167.959961" x2="355.959991" y2="1291.959961" stroke="red" stroke-width="6.660000" />
<circle cx="265.959991" cy="1958.959961" r="19.980000" fill="red">
  <title>Delhi</title>
</circle><line x1="355.959991" y1="1291.959961" x2="265.959991" y2="1958.959961" stroke="red" stroke-width="6.660000" />
<circle cx="1187.959961" cy="1777.959961" r="19.980000" fill="red">
  <title>São Paulo</title>
</circle><line x1="265.959991" y1="1958.959961" x2="1187.959961" y2="1777.959961" stroke="red" stroke-width="6.660000" />
<circle cx="1412.959961" cy="1853.959961" r="19.980000" fill="red">
  <title>Dhaka</title>
</circle><line x1="1187.959961" y1="1777.959961" x2="1412.959961" y2="1853.959961" stroke="red" stroke-width="6.660000" />
<circle cx="1327.959961" cy="1395.959961" r="19.980000" fill="red">
  <title>Cairo</title>
</circle><line x1="1412.959961" y1="1853.959961" x2="1327.959961" y2="1395.959961" stroke="red" stroke-width="6.660000" />
<circle cx="1635.959961" cy="1273.959961" r="19.980000" fill="red">
  <title>Mumbai</title>
</circle><line x1="1327.959961" y1="1395.959961" x2="1635.959961" y2="1273.959961" stroke="red" stroke-width="6.660000" />
<circle cx="1653.959961" cy="95.959999" r="19.980000" fill="red">
  <title>Shanghai</title>
</circle><line x1="1635.959961" y1="1273.959961" x2="1653.959961" y2="95.959999" stroke="red" stroke-width="6.660000" />
<circle cx="202.959991" cy="378.959991" r="19.980000" fill="red">
  <title>Beijing</title>
</circle><line x1="1653.959961" y1="95.959999" x2="202.959991" y2="378.959991" stroke="red" stroke-width="6.660000" />
<circle cx="210.959991" cy="1167.959961" r="19.980000" fill="red">
  <title>Mexico City</title>
</circle><line x1="202.959991" y1="378.959991" x2="210.959991" y2="1167.959961" stroke="red" stroke-width="6.660000" />
</svg>
