<?xml version="1.0" encoding="UTF-8" standalone="no"?>
<svg width="500" height="500" viewBox="0 0 2074.000000 2074.000000" xmlns="http://www.w3.org/2000/svg">
<rect x="19.000000" y="19.000000" width="2036.000000" height="2036.000000" fill="black" />
<circle cx="1998.959961" cy="946.960022" r="19.980000" fill="red">
  <title>Tokyo</title>
</circle><line x1="1709.959961" y1="852.960022" x2="1998.959961" y2="946.960022" stroke="red" stroke-width="6.660000" />
<circle cx="1303.959961" cy="1918.959961" r="19.980000" fill="red">
  <title>Delhi</title>
</circle><line x1="1998.959961" y1="946.960022" x2="1303.959961" y2="1918.959961" stroke="red" stroke-width="6.660000" />
<circle cx="398.959991" cy="1518.959961" r="19.980000" fill="red">
  <title>São Paulo</title>
</circle><line x1="1303.959961" y1="1918.959961" x2="398.959991" y2="1518.959961" stroke="red" stroke-width="6.660000" />
<circle cx="1214.959961" cy="945.960022" r="19.980000" fill="red">
  <title>Mexico City</title>
</circle><line x1="398.959991" y1="1518.959961" x2="1214.959961" y2="945.960022" stroke="red" stroke-width="6.660000" />
<circle cx="1709.959961" cy="852.960022" r="19.980000" fill="red">
  <title>Shanghai</title>
</circle><line x1="1214.959961" y1="945.960022" x2="1709.959961" y2="852.960022" stroke="red" stroke-width="6.660000" />
</svg>
