<?xml version="1.0" encoding="UTF-8" standalone="no"?>
<svg width="500" height="500" viewBox="0 0 2074.000000 2074.000000" xmlns="http://www.w3.org/2000/svg">
<rect x="19.000000" y="19.000000" width="2036.000000" height="2036.000000" fill="black" />
<circle cx="265.959991" cy="1157.959961" r="19.980000" fill="red">
  <title>Tokyo</title>
</circle><line x1="126.959999" y1="1818.959961" x2="265.959991" y2="1157.959961" stroke="red" stroke-width="6.660000" />
<circle cx="436.959991" cy="987.960022" r="19.980000" fill="red">
  <title>Shanghai</title>
</circle><line x1="265.959991" y1="1157.959961" x2="436.959991" y2="987.960022" stroke="red" stroke-width="6.660000" />
<circle cx="776.960022" cy="71.959999" r="19.980000" fill="red">
  <title>São Paulo</title>
</circle><line x1="436.959991" y1="987.960022" x2="776.960022" y2="71.959999" stroke="red" stroke-width="6.660000" />
<circle cx="1992.959961" cy="435.959991" r="19.980000" fill="red">
  <title>Cairo</title>
</circle><line x1="776.960022" y1="71.959999" x2="1992.959961" y2="435.959991" stroke="red" stroke-width="6.660000" />
<circle cx="2030.959961" cy="538.960022" r="19.980000" fill="red">
  <title>Beijing</title>
</circle><line x1="1992.959961" y1="435.959991" x2="2030.959961" y2="538.960022" stroke="red" stroke-width="6.660000" />
<circle cx="1595.959961" cy="1444.959961" r="19.980000" fill="red">
  <title>Dhaka</title>
</circle><line x1="2030.959961" y1="538.960022" x2="1595.959961" y2="1444.959961" stroke="red" stroke-width="6.660000" />
<circle cx="996.960022" cy="1035.959961" r="19.980000" fill="red">
  <title>Mexico City</title>
</circle><line x1="1595.959961" y1="1444.959961" x2="996.960022" y2="1035.959961" stroke="red" stroke-width="6.660000" />
<circle cx="681.960022" cy="1417.959961" r="19.980000" fill="red">
  <title>Delhi</title>
</circle><line x1="996.960022" y1="1035.959961" x2="681.960022" y2="1417.959961" stroke="red" stroke-width="6.660000" />
<circle cx="126.959999" cy="1818.959961" r="19.980000" fill="red">
  <title>Mumbai</title>
</circle><line x1="681.960022" y1="1417.959961" x2="126.959999" y2="1818.959961" stroke="red" stroke-width="6.660000" />
</svg>
