<?xml version="1.0" encoding="UTF-8" standalone="no"?>
<svg width="500" height="500" viewBox="0 0 2074.000000 2074.000000" xmlns="http://www.w3.org/2000/svg">
<rect x="19.000000" y="19.000000" width="2036.000000" height="2036.000000" fill="black" />
<circle cx="548.960022" cy="524.960022" r="19.980000" fill="red">
  <title>Tokyo</title>
</circle><line x1="387.959991" y1="181.959991" x2="548.960022" y2="524.960022" stroke="red" stroke-width="6.660000" />
<circle cx="1161.959961" cy="743.960022" r="19.980000" fill="red">
  <title>São Paulo</title>
</circle><line x1="548.960022" y1="524.960022" x2="1161.959961" y2="743.960022" stroke="red" stroke-width="6.660000" />
<circle cx="1677.959961" cy="316.959991" r="19.980000" fill="red">
  <title>Delhi</title>
</circle><line x1="1161.959961" y1="743.960022" x2="1677.959961" y2="316.959991" stroke="red" stroke-width="6.660000" />
<circle cx="1402.959961" cy="737.960022" r="19.980000" fill="red">
  <title>Mumbai</title>
</circle><line x1="1677.959961" y1="316.959991" x2="1402.959961" y2="737.960022" stroke="red" stroke-width="6.660000" />
<circle cx="1596.959961" cy="1341.959961" r="19.980000" fill="red">
  <title>Beijing</title>
</circle><line x1="1402.959961" y1="737.960022" x2="1596.959961" y2="1341.959961" stroke="red" stroke-width="6.660000" />
<circle cx="1017.960022" cy="1936.959961" r="19.980000" fill="red">
  <title>Shanghai</title>
</circle><line x1="1596.959961" y1="1341.959961" x2="1017.960022" y2="1936.959961" stroke="red" stroke-width="6.660000" />
<circle cx="152.959991" cy="1148.959961" r="19.980000" fill="red">
  <title>Cairo</title>
</circle><line x1="1017.960022" y1="1936.959961" x2="152.959991" y2="1148.959961" stroke="red" stroke-width="6.660000" />
<circle cx="421.959991" cy="1045.959961" r="19.980000" fill="red">
  <title>Mexico City</title>
</circle><line x1="152.959991" y1="1148.959961" x2="421.959991" y2="1045.959961" stroke="red" stroke-width="6.660000" />
<circle cx="387.959991" cy="181.959991" r="19.980000" fill="red">
  <title>Dhaka</title>
</circle><line x1="421.959991" y1="1045.959961" x2="387.959991" y2="181.959991" stroke="red" stroke-width="6.660000" />
</svg>
