<?xml version="1.0" encoding="UTF-8" standalone="no"?>
<svg width="500" height="500" viewBox="0 0 2074.000000 2074.000000" xmlns="http://www.w3.org/2000/svg">
<rect x="19.000000" y="19.000000" width="2036.000000" height="2036.000000" fill="black" />
<circle cx="2017.959961" cy="1890.959961" r="19.980000" fill="red">
  <title>Tokyo</title>
</circle><line x1="1310.959961" y1="2032.959961" x2="2017.959961" y2="1890.959961" stroke="red" stroke-width="6.660000" />
<circle cx="2019.959961" cy="1145.959961" r="19.980000" fill="red">
  <title>Dhaka</title>
</circle><line x1="2017.959961" y1="1890.959961" x2="2019.959961" y2="1145.959961" stroke="red" stroke-width="6.660000" />
<circle cx="1938.959961" cy="952.960022" r="19.980000" fill="red">
  <title>Delhi</title>
</circle><line x1="2019.959961" y1="1145.959961" x2="1938.959961" y2="952.960022" stroke="red" stroke-width="6.660000" />
<circle cx="1889.959961" cy="518.960022" r="19.980000" fill="red">
  <title>Karachi</title>
</circle><line x1="1938.959961" y1="952.960022" x2="1889.959961" y2="518.960022" stroke="red" stroke-width="6.660000" />
<circle cx="1707.959961" cy="316.959991" r="19.980000" fill="red">
  <title>Mumbai</title>
</circle><line x1="1889.959961" y1="518.960022" x2="1707.959961" y2="316.959991" stroke="red" stroke-width="6.660000" />
<circle cx="1344.959961" cy="810.960022" r="19.980000" fill="red">
  <title>Chongqing</title>
</circle><line x1="1707.959961" y1="316.959991" x2="1344.959961" y2="810.960022" stroke="red" stroke-width="6.660000" />
<circle cx="1103.959961" cy="508.959991" r="19.980000" fill="red">
  <title>Manila</title>
</circle><line x1="1344.959961" y1="810.960022" x2="1103.959961" y2="508.959991" stroke="red" stroke-width="6.660000" />
<circle cx="471.959991" cy="159.959991" r="19.980000" fill="red">
  <title>Osaka</title>
</circle><line x1="1103.959961" y1="508.959991" x2="471.959991" y2="159.959991" stroke="red" stroke-width="6.660000" />
<circle cx="161.959991" cy="95.959999" r="19.980000" fill="red">
  <title>New York</title>
</circle><line x1="471.959991" y1="159.959991" x2="161.959991" y2="95.959999" stroke="red" stroke-width="6.660000" />
<circle cx="411.959991" cy="393.959991" r="19.980000" fill="red">
  <title>Cairo</title>
</circle><line x1="161.959991" y1="95.959999" x2="411.959991" y2="393.959991" stroke="red" stroke-width="6.660000" />
<circle cx="105.959999" cy="699.960022" r="19.980000" fill="red">
  <title>Rio de Janeiro</title>
</circle><line x1="411.959991" y1="393.959991" x2="105.959999" y2="699.960022" stroke="red" stroke-width="6.660000" />
<circle cx="134.959991" cy="1470.959961" r="19.980000" fill="red">
  <title>Lagos</title>
</circle><line x1="105.959999" y1="699.960022" x2="134.959991" y2="1470.959961" stroke="red" stroke-width="6.660000" />
<circle cx="353.959991" cy="1721.959961" r="19.980000" fill="red">
  <title>Mexico City</title>
</circle><line x1="134.959991" y1="1470.959961" x2="353.959991" y2="1721.959961" stroke="red" stroke-width="6.660000" />
<circle cx="405.959991" cy="1634.959961" r="19.980000" fill="red">
  <title>Shanghai</title>
</circle><line x1="353.959991" y1="1721.959961" x2="405.959991" y2="1634.959961" stroke="red" stroke-width="6.660000" />
<circle cx="608.960022" cy="1219.959961" r="19.980000" fill="red">
  <title>Kolkata</title>
</circle><line x1="405.959991" y1="1634.959961" x2="608.960022" y2="1219.959961" stroke="red" stroke-width="6.660000" />
<circle cx="604.960022" cy="1005.960022" r="19.980000" fill="red">
  <title>São Paulo</title>
</circle><line x1="608.960022" y1="1219.959961" x2="604.960022" y2="1005.960022" stroke="red" stroke-width="6.660000" />
<circle cx="1262.959961" cy="999.960022" r="19.980000" fill="red">
  <title>Beijing</title>
</circle><line x1="604.960022" y1="1005.960022" x2="1262.959961" y2="999.960022" stroke="red" stroke-width="6.660000" />
<circle cx="1239.959961" cy="1251.959961" r="19.980000" fill="red">
  <title>Istanbul</title>
</circle><line x1="1262.959961" y1="999.960022" x2="1239.959961" y2="1251.959961" stroke="red" stroke-width="6.660000" />
<circle cx="1310.959961" cy="2032.959961" r="19.980000" fill="red">
  <title>Buenos Aires</title>
</circle><line x1="1239.959961" y1="1251.959961" x2="1310.959961" y2="2032.959961" stroke="red" stroke-width="6.660000" />
</svg>
