<?xml version="1.0" encoding="UTF-8" standalone="no"?>
<svg width="500" height="500" viewBox="0 0 2074.000000 2074.000000" xmlns="http://www.w3.org/2000/svg">
<rect x="19.000000" y="19.000000" width="2036.000000" height="2036.000000" fill="black" />
<circle cx="1201.959961" cy="535.960022" r="19.980000" fill="red">
  <title>Tokyo</title>
</circle><line x1="1634.959961" y1="57.959999" x2="1201.959961" y2="535.960022" stroke="red" stroke-width="6.660000" />
<circle cx="1411.959961" cy="677.960022" r="19.980000" fill="red">
  <title>Beijing</title>
</circle><line x1="1201.959961" y1="535.960022" x2="1411.959961" y2="677.960022" stroke="red" stroke-width="6.660000" />
<circle cx="2013.959961" cy="1048.959961" r="19.980000" fill="red">
  <title>Shanghai</title>
</circle><line x1="1411.959961" y1="677.960022" x2="2013.959961" y2="1048.959961" stroke="red" stroke-width="6.660000" />
<circle cx="1902.959961" cy="1731.959961" r="19.980000" fill="red">
  <title>New York</title>
</circle><line x1="2013.959961" y1="1048.959961" x2="1902.959961" y2="1731.959961" stroke="red" stroke-width="6.660000" />
<circle cx="665.960022" cy="1807.959961" r="19.980000" fill="red">
  <title>Cairo</title>
</circle><line x1="1902.959961" y1="1731.959961" x2="665.960022" y2="1807.959961" stroke="red" stroke-width="6.660000" />
<circle cx="669.960022" cy="1338.959961" r="19.980000" fill="red">
  <title>Chongqing</title>
</circle><line x1="665.960022" y1="1807.959961" x2="669.960022" y2="1338.959961" stroke="red" stroke-width="6.660000" />
<circle cx="813.960022" cy="946.960022" r="19.980000" fill="red">
  <title>Mexico City</title>
</circle><line x1="669.960022" y1="1338.959961" x2="813.960022" y2="946.960022" stroke="red" stroke-width="6.660000" />
<circle cx="590.960022" cy="796.960022" r="19.980000" fill="red">
  <title>Istanbul</title>
</circle><line x1="813.960022" y1="946.960022" x2="590.960022" y2="796.960022" stroke="red" stroke-width="6.660000" />
<circle cx="441.959991" cy="866.960022" r="19.980000" fill="red">
  <title>Dhaka</title>
</circle><line x1="590.960022" y1="796.960022" x2="441.959991" y2="866.960022" stroke="red" stroke-width="6.660000" />
<circle cx="374.959991" cy="326.959991" r="19.980000" fill="red">
  <title>São Paulo</title>
</circle><line x1="441.959991" y1="866.960022" x2="374.959991" y2="326.959991" stroke="red" stroke-width="6.660000" />
<circle cx="76.959999" cy="146.959991" r="19.980000" fill="red">
  <title>Osaka</title>
</circle><line x1="374.959991" y1="326.959991" x2="76.959999" y2="146.959991" stroke="red" stroke-width="6.660000" />
<circle cx="534.960022" cy="284.959991" r="19.980000" fill="red">
  <title>Karachi</title>
</circle><line x1="76.959999" y1="146.959991" x2="534.960022" y2="284.959991" stroke="red" stroke-width="6.660000" />
<circle cx="1053.959961" cy="493.959991" r="19.980000" fill="red">
  <title>Buenos Aires</title>
</circle><line x1="534.960022" y1="284.959991" x2="1053.959961" y2="493.959991" stroke="red" stroke-width="6.660000" />
<circle cx="1118.959961" cy="141.959991" r="19.980000" fill="red">
  <title>Mumbai</title>
</circle><line x1="1053.959961" y1="493.959991" x2="1118.959961" y2="141.959991" stroke="red" stroke-width="6.660000" />
<circle cx="1634.959961" cy="57.959999" r="19.980000" fill="red">
  <title>Delhi</title>
</circle><line x1="1118.959961" y1="141.959991" x2="1634.959961" y2="57.959999" stroke="red" stroke-width="6.660000" />
</svg>
