<?xml version="1.0" encoding="UTF-8" standalone="no"?>
<svg width="500" height="500" viewBox="0 0 2074.000000 2074.000000" xmlns="http://www.w3.org/2000/svg">
<rect x="19.000000" y="19.000000" width="2036.000000" height="2036.000000" fill="black" />
<circle cx="245.959991" cy="1706.959961" r="19.980000" fill="red">
  <title>Tokyo</title>
</circle><line x1="508.959991" y1="1685.959961" x2="245.959991" y2="1706.959961" stroke="red" stroke-width="6.660000" />
<circle cx="61.959999" cy="1644.959961" r="19.980000" fill="red">
  <title>Mexico City</title>
</circle><line x1="245.959991" y1="1706.959961" x2="61.959999" y2="1644.959961" stroke="red" stroke-width="6.660000" />
<circle cx="194.959991" cy="1150.959961" r="19.980000" fill="red">
  <title>Karachi</title>
</circle><line x1="61.959999" y1="1644.959961" x2="194.959991" y2="1150.959961" stroke="red" stroke-width="6.660000" />
<circle cx="43.959999" cy="182.959991" r="19.980000" fill="red">
  <title>Buenos Aires</title>
</circle><line x1="194.959991" y1="1150.959961" x2="43.959999" y2="182.959991" stroke="red" stroke-width="6.660000" />
<circle cx="134.959991" cy="235.959991" r="19.980000" fill="red">
  <title>Shanghai</title>
</circle><line x1="43.959999" y1="182.959991" x2="134.959991" y2="235.959991" stroke="red" stroke-width="6.660000" />
<circle cx="403.959991" cy="965.960022" r="19.980000" fill="red">
  <title>Delhi</title>
</circle><line x1="134.959991" y1="235.959991" x2="403.959991" y2="965.960022" stroke="red" stroke-width="6.660000" />
<circle cx="1350.959961" cy="1288.959961" r="19.980000" fill="red">
  <title>Chongqing</title>
</circle><line x1="403.959991" y1="965.960022" x2="1350.959961" y2="1288.959961" stroke="red" stroke-width="6.660000" />
<circle cx="1358.959961" cy="1204.959961" r="19.980000" fill="red">
  <title>São Paulo</title>
</circle><line x1="1350.959961" y1="1288.959961" x2="1358.959961" y2="1204.959961" stroke="red" stroke-width="6.660000" />
<circle cx="1969.959961" cy="291.959991" r="19.980000" fill="red">
  <title>Mumbai</title>
</circle><line x1="1358.959961" y1="1204.959961" x2="1969.959961" y2="291.959991" stroke="red" stroke-width="6.660000" />
<circle cx="1620.959961" cy="1389.959961" r="19.980000" fill="red">
  <title>Osaka</title>
</circle><line x1="1969.959961" y1="291.959991" x2="1620.959961" y2="1389.959961" stroke="red" stroke-width="6.660000" />
<circle cx="1636.959961" cy="1631.959961" r="19.980000" fill="red">
  <title>Cairo</title>
</circle><line x1="1620.959961" y1="1389.959961" x2="1636.959961" y2="1631.959961" stroke="red" stroke-width="6.660000" />
<circle cx="1278.959961" cy="1675.959961" r="19.980000" fill="red">
  <title>Beijing</title>
</circle><line x1="1636.959961" y1="1631.959961" x2="1278.959961" y2="1675.959961" stroke="red" stroke-width="6.660000" />
<circle cx="974.960022" cy="1639.959961" r="19.980000" fill="red">
  <title>New York</title>
</circle><line x1="1278.959961" y1="1675.959961" x2="974.960022" y2="1639.959961" stroke="red" stroke-width="6.660000" />
<circle cx="508.959991" cy="1685.959961" r="19.980000" fill="red">
  <title>Dhaka</title>
</circle><line x1="974.960022" y1="1639.959961" x2="508.959991" y2="1685.959961" stroke="red" stroke-width="6.660000" />
</svg>
