<?xml version="1.0" encoding="UTF-8" standalone="no"?>
<svg width="500" height="500" viewBox="0 0 2074.000000 2074.000000" xmlns="http://www.w3.org/2000/svg">
<rect x="19.000000" y="19.000000" width="2036.000000" height="2036.000000" fill="black" />
<circle cx="1037.959961" cy="1277.959961" r="19.980000" fill="red">
  <title>Tokyo</title>
</circle><line x1="866.960022" y1="1432.959961" x2="1037.959961" y2="1277.959961" stroke="red" stroke-width="6.660000" />
<circle cx="1160.959961" cy="1314.959961" r="19.980000" fill="red">
  <title>Mexico City</title>
</circle><line x1="1037.959961" y1="1277.959961" x2="1160.959961" y2="1314.959961" stroke="red" stroke-width="6.660000" />
<circle cx="1281.959961" cy="1255.959961" r="19.980000" fill="red">
  <title>Shanghai</title>
</circle><line x1="1160.959961" y1="1314.959961" x2="1281.959961" y2="1255.959961" stroke="red" stroke-width="6.660000" />
<circle cx="1931.959961" cy="1184.959961" r="19.980000" fill="red">
  <title>Osaka</title>
</circle><line x1="1281.959961" y1="1255.959961" x2="1931.959961" y2="1184.959961" stroke="red" stroke-width="6.660000" />
<circle cx="1659.959961" cy="630.960022" r="19.980000" fill="red">
  <title>Karachi</title>
</circle><line x1="1931.959961" y1="1184.959961" x2="1659.959961" y2="630.960022" stroke="red" stroke-width="6.660000" />
<circle cx="1900.959961" cy="112.959999" r="19.980000" fill="red">
  <title>New York</title>
</circle><line x1="1659.959961" y1="630.960022" x2="1900.959961" y2="112.959999" stroke="red" stroke-width="6.660000" />
<circle cx="518.960022" cy="164.959991" r="19.980000" fill="red">
  <title>Cairo</title>
</circle><line x1="1900.959961" y1="112.959999" x2="518.960022" y2="164.959991" stroke="red" stroke-width="6.660000" />
<circle cx="518.960022" cy="727.960022" r="19.980000" fill="red">
  <title>Mumbai</title>
</circle><line x1="518.960022" y1="164.959991" x2="518.960022" y2="727.960022" stroke="red" stroke-width="6.660000" />
<circle cx="334.959991" cy="829.960022" r="19.980000" fill="red">
  <title>São Paulo</title>
</circle><line x1="518.960022" y1="727.960022" x2="334.959991" y2="829.960022" stroke="red" stroke-width="6.660000" />
<circle cx="319.959991" cy="1390.959961" r="19.980000" fill="red">
  <title>Beijing</title>
</circle><line x1="334.959991" y1="829.960022" x2="319.959991" y2="1390.959961" stroke="red" stroke-width="6.660000" />
<circle cx="607.960022" cy="1658.959961" r="19.980000" fill="red">
  <title>Buenos Aires</title>
</circle><line x1="319.959991" y1="1390.959961" x2="607.960022" y2="1658.959961" stroke="red" stroke-width="6.660000" />
<circle cx="1038.959961" cy="1701.959961" r="19.980000" fill="red">
  <title>Delhi</title>
</circle><line x1="607.960022" y1="1658.959961" x2="1038.959961" y2="1701.959961" stroke="red" stroke-width="6.660000" />
<circle cx="866.960022" cy="1432.959961" r="19.980000" fill="red">
  <title>Dhaka</title>
</circle><line x1="1038.959961" y1="1701.959961" x2="866.960022" y2="1432.959961" stroke="red" stroke-width="6.660000" />
</svg>
