<?xml version="1.0" encoding="UTF-8" standalone="no"?>
<svg width="500" height="500" viewBox="0 0 2074.000000 2074.000000" xmlns="http://www.w3.org/2000/svg">
<rect x="19.000000" y="19.000000" width="2036.000000" height="2036.000000" fill="black" />
<circle cx="1859.959961" cy="134.959991" r="19.980000" fill="red">
  <title>Tokyo</title>
</circle><line x1="1562.959961" y1="821.960022" x2="1859.959961" y2="134.959991" stroke="red" stroke-width="6.660000" />
<circle cx="1499.959961" cy="227.959991" r="19.980000" fill="red">
  <title>Osaka</title>
</circle><line x1="1859.959961" y1="134.959991" x2="1499.959961" y2="227.959991" stroke="red" stroke-width="6.660000" />
<circle cx="1157.959961" cy="293.959991" r="19.980000" fill="red">
  <title>Cairo</title>
</circle><line x1="1499.959961" y1="227.959991" x2="1157.959961" y2="293.959991" stroke="red" stroke-width="6.660000" />
<circle cx="285.959991" cy="637.960022" r="19.980000" fill="red">
  <title>Mumbai</title>
</circle><line x1="1157.959961" y1="293.959991" x2="285.959991" y2="637.960022" stroke="red" stroke-width="6.660000" />
<circle cx="105.959999" cy="652.960022" r="19.980000" fill="red">
  <title>Delhi</title>
</circle><line x1="285.959991" y1="637.960022" x2="105.959999" y2="652.960022" stroke="red" stroke-width="6.660000" />
<circle cx="704.960022" cy="823.960022" r="19.980000" fill="red">
  <title>Mexico City</title>
</circle><line x1="105.959999" y1="652.960022" x2="704.960022" y2="823.960022" stroke="red" stroke-width="6.660000" />
<circle cx="875.960022" cy="1386.959961" r="19.980000" fill="red">
  <title>São Paulo</title>
</circle><line x1="704.960022" y1="823.960022" x2="875.960022" y2="1386.959961" stroke="red" stroke-width="6.660000" />
<circle cx="534.960022" cy="1876.959961" r="19.980000" fill="red">
  <title>Dhaka</title>
</circle><line x1="875.960022" y1="1386.959961" x2="534.960022" y2="1876.959961" stroke="red" stroke-width="6.660000" />
<circle cx="971.960022" cy="1807.959961" r="19.980000" fill="red">
  <title>Beijing</title>
</circle><line x1="534.960022" y1="1876.959961" x2="971.960022" y2="1807.959961" stroke="red" stroke-width="6.660000" />
<circle cx="1325.959961" cy="1656.959961" r="19.980000" fill="red">
  <title>Karachi</title>
</circle><line x1="971.960022" y1="1807.959961" x2="1325.959961" y2="1656.959961" stroke="red" stroke-width="6.660000" />
<circle cx="1495.959961" cy="1734.959961" r="19.980000" fill="red">
  <title>Buenos Aires</title>
</circle><line x1="1325.959961" y1="1656.959961" x2="1495.959961" y2="1734.959961" stroke="red" stroke-width="6.660000" />
<circle cx="2035.959961" cy="1512.959961" r="19.980000" fill="red">
  <title>Shanghai</title>
</circle><line x1="1495.959961" y1="1734.959961" x2="2035.959961" y2="1512.959961" stroke="red" stroke-width="6.660000" />
<circle cx="1562.959961" cy="821.960022" r="19.980000" fill="red">
  <title>New York</title>
</circle><line x1="2035.959961" y1="1512.959961" x2="1562.959961" y2="821.960022" stroke="red" stroke-width="6.660000" />
</svg>
