<?xml version="1.0" encoding="UTF-8" standalone="no"?>
<svg width="500" height="500" viewBox="0 0 2074.000000 2074.000000" xmlns="http://www.w3.org/2000/svg">
<rect x="19.000000" y="19.000000" width="2036.000000" height="2036.000000" fill="black" />
<circle cx="1163.959961" cy="369.959991" r="19.980000" fill="red">
  <title>Tokyo</title>
</circle><line x1="1277.959961" y1="1021.960022" x2="1163.959961" y2="369.959991" stroke="red" stroke-width="6.660000" />
<circle cx="1812.959961" cy="693.960022" r="19.980000" fill="red">
  <title>Delhi</title>
</circle><line x1="1163.959961" y1="369.959991" x2="1812.959961" y2="693.960022" stroke="red" stroke-width="6.660000" />
<circle cx="1298.959961" cy="1152.959961" r="19.980000" fill="red">
  <title>Mumbai</title>
</circle><line x1="1812.959961" y1="693.960022" x2="1298.959961" y2="1152.959961" stroke="red" stroke-width="6.660000" />
<circle cx="779.960022" cy="2019.959961" r="19.980000" fill="red">
  <title>Mexico City</title>
</circle><line x1="1298.959961" y1="1152.959961" x2="779.960022" y2="2019.959961" stroke="red" stroke-width="6.660000" />
<circle cx="353.959991" cy="1653.959961" r="19.980000" fill="red">
  <title>Cairo</title>
</circle><line x1="779.960022" y1="2019.959961" x2="353.959991" y2="1653.959961" stroke="red" stroke-width="6.660000" />
<circle cx="1019.960022" cy="1174.959961" r="19.980000" fill="red">
  <title>Shanghai</title>
</circle><line x1="353.959991" y1="1653.959961" x2="1019.960022" y2="1174.959961" stroke="red" stroke-width="6.660000" />
<circle cx="1277.959961" cy="1021.960022" r="19.980000" fill="red">
  <title>São Paulo</title>
</circle><line x1="1019.960022" y1="1174.959961" x2="1277.959961" y2="1021.960022" stroke="red" stroke-width="6.660000" />
</svg>
