<?xml version="1.0" encoding="UTF-8" standalone="no"?>
<svg width="500" height="500" viewBox="0 0 2074.000000 2074.000000" xmlns="http://www.w3.org/2000/svg">
<rect x="19.000000" y="19.000000" width="2036.000000" height="2036.000000" fill="black" />
<circle cx="1857.959961" cy="924.960022" r="19.980000" fill="red">
  <title>Tokyo</title>
</circle><line x1="1857.959961" y1="434.959991" x2="1857.959961" y2="924.960022" stroke="red" stroke-width="6.660000" />
<circle cx="1950.959961" cy="1226.959961" r="19.980000" fill="red">
  <title>Shanghai</title>
</circle><line x1="1857.959961" y1="924.960022" x2="1950.959961" y2="1226.959961" stroke="red" stroke-width="6.660000" />
<circle cx="2029.959961" cy="1903.959961" r="19.980000" fill="red">
  <title>Manila</title>
</circle><line x1="1950.959961" y1="1226.959961" x2="2029.959961" y2="1903.959961" stroke="red" stroke-width="6.660000" />
<circle cx="1481.959961" cy="1738.959961" r="19.980000" fill="red">
  <title>Delhi</title>
</circle><line x1="2029.959961" y1="1903.959961" x2="1481.959961" y2="1738.959961" stroke="red" stroke-width="6.660000" />
<circle cx="1092.959961" cy="1744.959961" r="19.980000" fill="red">
  <title>Rio de Janeiro</title>
</circle><line x1="1481.959961" y1="1738.959961" x2="1092.959961" y2="1744.959961" stroke="red" stroke-width="6.660000" />
<circle cx="175.959991" cy="1942.959961" r="19.980000" fill="red">
  <title>Lagos</title>
</circle><line x1="1092.959961" y1="1744.959961" x2="175.959991" y2="1942.959961" stroke="red" stroke-width="6.660000" />
<circle cx="223.959991" cy="1821.959961" r="19.980000" fill="red">
  <title>New York</title>
</circle><line x1="175.959991" y1="1942.959961" x2="223.959991" y2="1821.959961" stroke="red" stroke-width="6.660000" />
<circle cx="662.960022" cy="1379.959961" r="19.980000" fill="red">
  <title>Dhaka</title>
</circle><line x1="223.959991" y1="1821.959961" x2="662.960022" y2="1379.959961" stroke="red" stroke-width="6.660000" />
<circle cx="655.960022" cy="1144.959961" r="19.980000" fill="red">
  <title>Istanbul</title>
</circle><line x1="662.960022" y1="1379.959961" x2="655.960022" y2="1144.959961" stroke="red" stroke-width="6.660000" />
<circle cx="550.960022" cy="648.960022" r="19.980000" fill="red">
  <title>Osaka</title>
</circle><line x1="655.960022" y1="1144.959961" x2="550.960022" y2="648.960022" stroke="red" stroke-width="6.660000" />
<circle cx="567.960022" cy="281.959991" r="19.980000" fill="red">
  <title>Beijing</title>
</circle><line x1="550.960022" y1="648.960022" x2="567.960022" y2="281.959991" stroke="red" stroke-width="6.660000" />
<circle cx="133.959991" cy="415.959991" r="19.980000" fill="red">
  <title>Buenos Aires</title>
</circle><line x1="567.960022" y1="281.959991" x2="133.959991" y2="415.959991" stroke="red" stroke-width="6.660000" />
<circle cx="460.959991" cy="475.959991" r="19.980000" fill="red">
  <title>Kolkata</title>
</circle><line x1="133.959991" y1="415.959991" x2="460.959991" y2="475.959991" stroke="red" stroke-width="6.660000" />
<circle cx="685.960022" cy="783.960022" r="19.980000" fill="red">
  <title>Karachi</title>
</circle><line x1="460.959991" y1="475.959991" x2="685.960022" y2="783.960022" stroke="red" stroke-width="6.660000" />
<circle cx="964.960022" cy="988.960022" r="19.980000" fill="red">
  <title>Mumbai</title>
</circle><line x1="685.960022" y1="783.960022" x2="964.960022" y2="988.960022" stroke="red" stroke-width="6.660000" />
<circle cx="1440.959961" cy="926.960022" r="19.980000" fill="red">
  <title>Mexico City</title>
</circle><line x1="964.960022" y1="988.960022" x2="1440.959961" y2="926.960022" stroke="red" stroke-width="6.660000" />
<circle cx="1472.959961" cy="635.960022" r="19.980000" fill="red">
  <title>Chongqing</title>
</circle><line x1="1440.959961" y1="926.960022" x2="1472.959961" y2="635.960022" stroke="red" stroke-width="6.660000" />
<circle cx="1608.959961" cy="738.960022" r="19.980000" fill="red">
  <title>São Paulo</title>
</circle><line x1="1472.959961" y1="635.960022" x2="1608.959961" y2="738.960022" stroke="red" stroke-width="6.660000" />
<circle cx="1857.959961" cy="434.959991" r="19.980000" fill="red">
  <title>Cairo</title>
</circle><line x1="1608.959961" y1="738.960022" x2="1857.959961" y2="434.959991" stroke="red" stroke-width="6.660000" />
</svg>
