<?xml version="1.0" encoding="UTF-8" standalone="no"?>
<svg width="500" height="500" viewBox="0 0 2074.000000 2074.000000" xmlns="http://www.w3.org/2000/svg">
<rect x="19.000000" y="19.000000" width="2036.000000" height="2036.000000" fill="black" />
<circle cx="582.960022" cy="1749.959961" r="19.980000" fill="red">
  <title>Tokyo</title>
</circle><line x1="280.959991" y1="1401.959961" x2="582.960022" y2="1749.959961" stroke="red" stroke-width="6.660000" />
<circle cx="659.960022" cy="1867.959961" r="19.980000" fill="red">
  <title>Beijing</title>
</circle><line x1="582.960022" y1="1749.959961" x2="659.960022" y2="1867.959961" stroke="red" stroke-width="6.660000" />
<circle cx="852.960022" cy="1883.959961" r="19.980000" fill="red">
  <title>Cairo</title>
</circle><line x1="659.960022" y1="1867.959961" x2="852.960022" y2="1883.959961" stroke="red" stroke-width="6.660000" />
<circle cx="1483.959961" cy="1740.959961" r="19.980000" fill="red">
  <title>Shanghai</title>
</circle><line x1="852.960022" y1="1883.959961" x2="1483.959961" y2="1740.959961" stroke="red" stroke-width="6.660000" />
<circle cx="1676.959961" cy="1831.959961" r="19.980000" fill="red">
  <title>Karachi</title>
</circle><line x1="1483.959961" y1="1740.959961" x2="1676.959961" y2="1831.959961" stroke="red" stroke-width="6.660000" />
<circle cx="1279.959961" cy="1330.959961" r="19.980000" fill="red">
  <title>Delhi</title>
</circle><line x1="1676.959961" y1="1831.959961" x2="1279.959961" y2="1330.959961" stroke="red" stroke-width="6.660000" />
<circle cx="1759.959961" cy="1093.959961" r="19.980000" fill="red">
  <title>Mumbai</title>
</circle><line x1="1279.959961" y1="1330.959961" x2="1759.959961" y2="1093.959961" stroke="red" stroke-width="6.660000" />
<circle cx="1678.959961" cy="587.960022" r="19.980000" fill="red">
  <title>Osaka</title>
</circle><line x1="1759.959961" y1="1093.959961" x2="1678.959961" y2="587.960022" stroke="red" stroke-width="6.660000" />
<circle cx="1257.959961" cy="876.960022" r="19.980000" fill="red">
  <title>New York</title>
</circle><line x1="1678.959961" y1="587.960022" x2="1257.959961" y2="876.960022" stroke="red" stroke-width="6.660000" />
<circle cx="262.959991" cy="599.960022" r="19.980000" fill="red">
  <title>Mexico City</title>
</circle><line x1="1257.959961" y1="876.960022" x2="262.959991" y2="599.960022" stroke="red" stroke-width="6.660000" />
<circle cx="126.959999" cy="389.959991" r="19.980000" fill="red">
  <title>São Paulo</title>
</circle><line x1="262.959991" y1="599.960022" x2="126.959999" y2="389.959991" stroke="red" stroke-width="6.660000" />
<circle cx="212.959991" cy="1257.959961" r="19.980000" fill="red">
  <title>Buenos Aires</title>
</circle><line x1="126.959999" y1="389.959991" x2="212.959991" y2="1257.959961" stroke="red" stroke-width="6.660000" />
<circle cx="280.959991" cy="1401.959961" r="19.980000" fill="red">
  <title>Dhaka</title>
</circle><line x1="212.959991" y1="1257.959961" x2="280.959991" y2="1401.959961" stroke="red" stroke-width="6.660000" />
</svg>
