<?xml version="1.0" encoding="UTF-8" standalone="no"?>
<svg width="500" height="500" viewBox="0 0 2074.000000 2074.000000" xmlns="http://www.w3.org/2000/svg">
<rect x="19.000000" y="19.000000" width="2036.000000" height="2036.000000" fill="black" />
<circle cx="1058.959961" cy="1748.959961" r="19.980000" fill="red">
  <title>Tokyo</title>
</circle><line x1="69.959999" y1="789.960022" x2="1058.959961" y2="1748.959961" stroke="red" stroke-width="6.660000" />
<circle cx="2003.959961" cy="504.959991" r="19.980000" fill="red">
  <title>Delhi</title>
</circle><line x1="1058.959961" y1="1748.959961" x2="2003.959961" y2="504.959991" stroke="red" stroke-width="6.660000" />
<circle cx="1954.959961" cy="718.960022" r="19.980000" fill="red">
  <title>Shanghai</title>
</circle><line x1="2003.959961" y1="504.959991" x2="1954.959961" y2="718.960022" stroke="red" stroke-width="6.660000" />
<circle cx="381.959991" cy="502.959991" r="19.980000" fill="red">
  <title>São Paulo</title>
</circle><line x1="1954.959961" y1="718.960022" x2="381.959991" y2="502.959991" stroke="red" stroke-width="6.660000" />
<circle cx="69.959999" cy="789.960022" r="19.980000" fill="red">
  <title>Mexico City</title>
</circle><line x1="381.959991" y1="502.959991" x2="69.959999" y2="789.960022" stroke="red" stroke-width="6.660000" />
</svg>
