<?xml version="1.0" encoding="UTF-8" standalone="no"?>
<svg width="500" height="500" viewBox="0 0 2074.000000 2074.000000" xmlns="http://www.w3.org/2000/svg">
<rect x="19.000000" y="19.000000" width="2036.000000" height="2036.000000" fill="black" />
<circle cx="103.959999" cy="1726.959961" r="19.980000" fill="red">
  <title>Tokyo</title>
</circle><line x1="416.959991" y1="1486.959961" x2="103.959999" y2="1726.959961" stroke="red" stroke-width="6.660000" />
<circle cx="766.960022" cy="1983.959961" r="19.980000" fill="red">
  <title>Mumbai</title>
</circle><line x1="103.959999" y1="1726.959961" x2="766.960022" y2="1983.959961" stroke="red" stroke-width="6.660000" />
<circle cx="823.960022" cy="1881.959961" r="19.980000" fill="red">
  <title>Chongqing</title>
</circle><line x1="766.960022" y1="1983.959961" x2="823.960022" y2="1881.959961" stroke="red" stroke-width="6.660000" />
<circle cx="871.960022" cy="1680.959961" r="19.980000" fill="red">
  <title>Osaka</title>
</circle><line x1="823.960022" y1="1881.959961" x2="871.960022" y2="1680.959961" stroke="red" stroke-width="6.660000" />
<circle cx="811.960022" cy="1081.959961" r="19.980000" fill="red">
  <title>Rio de Janeiro</title>
</circle><line x1="871.960022" y1="1680.959961" x2="811.960022" y2="1081.959961" stroke="red" stroke-width="6.660000" />
<circle cx="1561.959961" cy="964.960022" r="19.980000" fill="red">
  <title>Cairo</title>
</circle><line x1="811.960022" y1="1081.959961" x2="1561.959961" y2="964.960022" stroke="red" stroke-width="6.660000" />
<circle cx="1989.959961" cy="994.960022" r="19.980000" fill="red">
  <title>Istanbul</title>
</circle><line x1="1561.959961" y1="964.960022" x2="1989.959961" y2="994.960022" stroke="red" stroke-width="6.660000" />
<circle cx="1997.959961" cy="854.960022" r="19.980000" fill="red">
  <title>Buenos Aires</title>
</circle><line x1="1989.959961" y1="994.960022" x2="1997.959961" y2="854.960022" stroke="red" stroke-width="6.660000" />
<circle cx="1954.959961" cy="297.959991" r="19.980000" fill="red">
  <title>Shanghai</title>
</circle><line x1="1997.959961" y1="854.960022" x2="1954.959961" y2="297.959991" stroke="red" stroke-width="6.660000" />
<circle cx="1782.959961" cy="54.959999" r="19.980000" fill="red">
  <title>Kolkata</title>
</circle><line x1="1954.959961" y1="297.959991" x2="1782.959961" y2="54.959999" stroke="red" stroke-width="6.660000" />
<circle cx="1485.959961" cy="76.959999" r="19.980000" fill="red">
  <title>Mexico City</title>
</circle><line x1="1782.959961" y1="54.959999" x2="1485.959961" y2="76.959999" stroke="red" stroke-width="6.660000" />
<circle cx="1042.959961" cy="259.959991" r="19.980000" fill="red">
  <title>Tianjin</title>
</circle><line x1="1485.959961" y1="76.959999" x2="1042.959961" y2="259.959991" stroke="red" stroke-width="6.660000" />
<circle cx="734.960022" cy="39.959999" r="19.980000" fill="red">
  <title>Dhaka</title>
</circle><line x1="1042.959961" y1="259.959991" x2="734.960022" y2="39.959999" stroke="red" stroke-width="6.660000" />
<circle cx="807.960022" cy="163.959991" r="19.980000" fill="red">
  <title>Delhi</title>
</circle><line x1="734.960022" y1="39.959999" x2="807.960022" y2="163.959991" stroke="red" stroke-width="6.660000" />
<circle cx="941.960022" cy="482.959991" r="19.980000" fill="red">
  <title>São Paulo</title>
</circle><line x1="807.960022" y1="163.959991" x2="941.960022" y2="482.959991" stroke="red" stroke-width="6.660000" />
<circle cx="682.960022" cy="552.960022" r="19.980000" fill="red">
  <title>Manila</title>
</circle><line x1="941.960022" y1="482.959991" x2="682.960022" y2="552.960022" stroke="red" stroke-width="6.660000" />
<circle cx="179.959991" cy="599.960022" r="19.980000" fill="red">
  <title>Lagos</title>
</circle><line x1="682.960022" y1="552.960022" x2="179.959991" y2="599.960022" stroke="red" stroke-width="6.660000" />
<circle cx="92.959999" cy="896.960022" r="19.980000" fill="red">
  <title>Karachi</title>
</circle><line x1="179.959991" y1="599.960022" x2="92.959999" y2="896.960022" stroke="red" stroke-width="6.660000" />
<circle cx="597.960022" cy="935.960022" r="19.980000" fill="red">
  <title>Beijing</title>
</circle><line x1="92.959999" y1="896.960022" x2="597.960022" y2="935.960022" stroke="red" stroke-width="6.660000" />
<circle cx="416.959991" cy="1486.959961" r="19.980000" fill="red">
  <title>New York</title>
</circle><line x1="597.960022" y1="935.960022" x2="416.959991" y2="1486.959961" stroke="red" stroke-width="6.660000" />
</svg>
