<?xml version="1.0" encoding="UTF-8" standalone="no"?>
<svg width="500" height="500" viewBox="0 0 2074.000000 2074.000000" xmlns="http://www.w3.org/2000/svg">
<rect x="19.000000" y="19.000000" width="2036.000000" height="2036.000000" fill="black" />
<circle cx="475.959991" cy="1310.959961" r="19.980000" fill="red">
  <title>Tokyo</title>
</circle><line x1="1472.959961" y1="909.960022" x2="475.959991" y2="1310.959961" stroke="red" stroke-width="6.660000" />
<circle cx="149.959991" cy="418.959991" r="19.980000" fill="red">
  <title>Delhi</title>
</circle><line x1="475.959991" y1="1310.959961" x2="149.959991" y2="418.959991" stroke="red" stroke-width="6.660000" />
<circle cx="766.960022" cy="178.959991" r="19.980000" fill="red">
  <title>Cairo</title>
</circle><line x1="149.959991" y1="418.959991" x2="766.960022" y2="178.959991" stroke="red" stroke-width="6.660000" />
<circle cx="1220.959961" cy="677.960022" r="19.980000" fill="red">
  <title>São Paulo</title>
</circle><line x1="766.960022" y1="178.959991" x2="1220.959961" y2="677.960022" stroke="red" stroke-width="6.660000" />
<circle cx="1409.959961" cy="708.960022" r="19.980000" fill="red">
  <title>Mexico City</title>
</circle><line x1="1220.959961" y1="677.960022" x2="1409.959961" y2="708.960022" stroke="red" stroke-width="6.660000" />
<circle cx="1472.959961" cy="909.960022" r="19.980000" fill="red">
  <title>Shanghai</title>
</circle><line x1="1409.959961" y1="708.960022" x2="1472.959961" y2="909.960022" stroke="red" stroke-width="6.660000" />
</svg>
