<?xml version="1.0" encoding="UTF-8" standalone="no"?>
<svg width="500" height="500" viewBox="0 0 2074.000000 2074.000000" xmlns="http://www.w3.org/2000/svg">
<rect x="19.000000" y="19.000000" width="2036.000000" height="2036.000000" fill="black" />
<circle cx="320.959991" cy="1635.959961" r="19.980000" fill="red">
  <title>Tokyo</title>
</circle><line x1="131.959991" y1="1342.959961" x2="320.959991" y2="1635.959961" stroke="red" stroke-width="6.660000" />
<circle cx="358.959991" cy="1535.959961" r="19.980000" fill="red">
  <title>Delhi</title>
</circle><line x1="320.959991" y1="1635.959961" x2="358.959991" y2="1535.959961" stroke="red" stroke-width="6.660000" />
<circle cx="1110.959961" cy="742.960022" r="19.980000" fill="red">
  <title>Dhaka</title>
</circle><line x1="358.959991" y1="1535.959961" x2="1110.959961" y2="742.960022" stroke="red" stroke-width="6.660000" />
<circle cx="1705.959961" cy="583.960022" r="19.980000" fill="red">
  <title>Mexico City</title>
</circle><line x1="1110.959961" y1="742.960022" x2="1705.959961" y2="583.960022" stroke="red" stroke-width="6.660000" />
<circle cx="1742.959961" cy="248.959991" r="19.980000" fill="red">
  <title>Osaka</title>
</circle><line x1="1705.959961" y1="583.960022" x2="1742.959961" y2="248.959991" stroke="red" stroke-width="6.660000" />
<circle cx="1063.959961" cy="87.959999" r="19.980000" fill="red">
  <title>Shanghai</title>
</circle><line x1="1742.959961" y1="248.959991" x2="1063.959961" y2="87.959999" stroke="red" stroke-width="6.660000" />
<circle cx="1005.960022" cy="276.959991" r="19.980000" fill="red">
  <title>Cairo</title>
</circle><line x1="1063.959961" y1="87.959999" x2="1005.960022" y2="276.959991" stroke="red" stroke-width="6.660000" />
<circle cx="717.960022" cy="208.959991" r="19.980000" fill="red">
  <title>São Paulo</title>
</circle><line x1="1005.960022" y1="276.959991" x2="717.960022" y2="208.959991" stroke="red" stroke-width="6.660000" />
<circle cx="754.960022" cy="937.960022" r="19.980000" fill="red">
  <title>Beijing</title>
</circle><line x1="717.960022" y1="208.959991" x2="754.960022" y2="937.960022" stroke="red" stroke-width="6.660000" />
<circle cx="131.959991" cy="1342.959961" r="19.980000" fill="red">
  <title>Mumbai</title>
</circle><line x1="754.960022" y1="937.960022" x2="131.959991" y2="1342.959961" stroke="red" stroke-width="6.660000" />
</svg>
