<?xml version="1.0" encoding="UTF-8" standalone="no"?>
<svg width="500" height="500" viewBox="0 0 2074.000000 2074.000000" xmlns="http://www.w3.org/2000/svg">
<rect x="19.000000" y="19.000000" width="2036.000000" height="2036.000000" fill="black" />
<circle cx="328.959991" cy="1653.959961" r="19.980000" fill="red">
  <title>Tokyo</title>
</circle><line x1="635.960022" y1="1496.959961" x2="328.959991" y2="1653.959961" stroke="red" stroke-width="6.660000" />
<circle cx="84.959999" cy="986.960022" r="19.980000" fill="red">
  <title>São Paulo</title>
</circle><line x1="328.959991" y1="1653.959961" x2="84.959999" y2="986.960022" stroke="red" stroke-width="6.660000" />
<circle cx="564.960022" cy="510.959991" r="19.980000" fill="red">
  <title>Delhi</title>
</circle><line x1="84.959999" y1="986.960022" x2="564.960022" y2="510.959991" stroke="red" stroke-width="6.660000" />
<circle cx="1838.959961" cy="443.959991" r="19.980000" fill="red">
  <title>Beijing</title>
</circle><line x1="564.960022" y1="510.959991" x2="1838.959961" y2="443.959991" stroke="red" stroke-width="6.660000" />
<circle cx="1666.959961" cy="885.960022" r="19.980000" fill="red">
  <title>Cairo</title>
</circle><line x1="1838.959961" y1="443.959991" x2="1666.959961" y2="885.960022" stroke="red" stroke-width="6.660000" />
<circle cx="1479.959961" cy="1441.959961" r="19.980000" fill="red">
  <title>Osaka</title>
</circle><line x1="1666.959961" y1="885.960022" x2="1479.959961" y2="1441.959961" stroke="red" stroke-width="6.660000" />
<circle cx="1538.959961" cy="1795.959961" r="19.980000" fill="red">
  <title>Shanghai</title>
</circle><line x1="1479.959961" y1="1441.959961" x2="1538.959961" y2="1795.959961" stroke="red" stroke-width="6.660000" />
<circle cx="848.960022" cy="2022.959961" r="19.980000" fill="red">
  <title>New York</title>
</circle><line x1="1538.959961" y1="1795.959961" x2="848.960022" y2="2022.959961" stroke="red" stroke-width="6.660000" />
<circle cx="838.960022" cy="1466.959961" r="19.980000" fill="red">
  <title>Mexico City</title>
</circle><line x1="848.960022" y1="2022.959961" x2="838.960022" y2="1466.959961" stroke="red" stroke-width="6.660000" />
<circle cx="968.960022" cy="1306.959961" r="19.980000" fill="red">
  <title>Mumbai</title>
</circle><line x1="838.960022" y1="1466.959961" x2="968.960022" y2="1306.959961" stroke="red" stroke-width="6.660000" />
<circle cx="635.960022" cy="1496.959961" r="19.980000" fill="red">
  <title>Dhaka</title>
</circle><line x1="968.960022" y1="1306.959961" x2="635.960022" y2="1496.959961" stroke="red" stroke-width="6.660000" />
</svg>
