<?xml version="1.0" encoding="UTF-8" standalone="no"?>
<svg width="500" height="500" viewBox="0 0 2074.000000 2074.000000" xmlns="http://www.w3.org/2000/svg">
<rect x="19.000000" y="19.000000" width="2036.000000" height="2036.000000" fill="black" />
<circle cx="1441.959961" cy="152.959991" r="19.980000" fill="red">
  <title>Tokyo</title>
</circle><line x1="1768.959961" y1="688.960022" x2="1441.959961" y2="152.959991" stroke="red" stroke-width="6.660000" />
<circle cx="787.960022" cy="227.959991" r="19.980000" fill="red">
  <title>São Paulo</title>
</circle><line x1="1441.959961" y1="152.959991" x2="787.960022" y2="227.959991" stroke="red" stroke-width="6.660000" />
<circle cx="973.960022" cy="700.960022" r="19.980000" fill="red">
  <title>New York</title>
</circle><line x1="787.960022" y1="227.959991" x2="973.960022" y2="700.960022" stroke="red" stroke-width="6.660000" />
<circle cx="718.960022" cy="939.960022" r="19.980000" fill="red">
  <title>Osaka</title>
</circle><line x1="973.960022" y1="700.960022" x2="718.960022" y2="939.960022" stroke="red" stroke-width="6.660000" />
<circle cx="451.959991" cy="983.960022" r="19.980000" fill="red">
  <title>Mexico City</title>
</circle><line x1="718.960022" y1="939.960022" x2="451.959991" y2="983.960022" stroke="red" stroke-width="6.660000" />
<circle cx="542.960022" cy="1399.959961" r="19.980000" fill="red">
  <title>Beijing</title>
</circle><line x1="451.959991" y1="983.960022" x2="542.960022" y2="1399.959961" stroke="red" stroke-width="6.660000" />
<circle cx="686.960022" cy="1653.959961" r="19.980000" fill="red">
  <title>Cairo</title>
</circle><line x1="542.960022" y1="1399.959961" x2="686.960022" y2="1653.959961" stroke="red" stroke-width="6.660000" />
<circle cx="958.960022" cy="1148.959961" r="19.980000" fill="red">
  <title>Dhaka</title>
</circle><line x1="686.960022" y1="1653.959961" x2="958.960022" y2="1148.959961" stroke="red" stroke-width="6.660000" />
<circle cx="1321.959961" cy="1225.959961" r="19.980000" fill="red">
  <title>Shanghai</title>
</circle><line x1="958.960022" y1="1148.959961" x2="1321.959961" y2="1225.959961" stroke="red" stroke-width="6.660000" />
<circle cx="1684.959961" cy="1595.959961" r="19.980000" fill="red">
  <title>Delhi</title>
</circle><line x1="1321.959961" y1="1225.959961" x2="1684.959961" y2="1595.959961" stroke="red" stroke-width="6.660000" />
<circle cx="1768.959961" cy="688.960022" r="19.980000" fill="red">
  <title>Mumbai</title>
</circle><line x1="1684.959961" y1="1595.959961" x2="1768.959961" y2="688.960022" stroke="red" stroke-width="6.660000" />
</svg>
