<?xml version="1.0" encoding="UTF-8" standalone="no"?>
<svg width="500" height="500" viewBox="0 0 2074.000000 2074.000000" xmlns="http://www.w3.org/2000/svg">
<rect x="19.000000" y="19.000000" width="2036.000000" height="2036.000000" fill="black" />
<circle cx="820.960022" cy="244.959991" r="19.980000" fill="red">
  <title>Tokyo</title>
</circle><line x1="556.960022" y1="427.959991" x2="820.960022" y2="244.959991" stroke="red" stroke-width="6.660000" />
<circle cx="1799.959961" cy="501.959991" r="19.980000" fill="red">
  <title>Delhi</title>
</circle><line x1="820.960022" y1="244.959991" x2="1799.959961" y2="501.959991" stroke="red" stroke-width="6.660000" />
<circle cx="1982.959961" cy="673.960022" r="19.980000" fill="red">
  <title>Shanghai</title>
</circle><line x1="1799.959961" y1="501.959991" x2="1982.959961" y2="673.960022" stroke="red" stroke-width="6.660000" />
<circle cx="1908.959961" cy="1088.959961" r="19.980000" fill="red">
  <title>Mexico City</title>
</circle><line x1="1982.959961" y1="673.960022" x2="1908.959961" y2="1088.959961" stroke="red" stroke-width="6.660000" />
<circle cx="556.960022" cy="427.959991" r="19.980000" fill="red">
  <title>São Paulo</title>
</circle><line x1="1908.959961" y1="1088.959961" x2="556.960022" y2="427.959991" stroke="red" stroke-width="6.660000" />
</svg>
