<?xml version="1.0" encoding="UTF-8" standalone="no"?>
<svg width="500" height="500" viewBox="0 0 2074.000000 2074.000000" xmlns="http://www.w3.org/2000/svg">
<rect x="19.000000" y="19.000000" width="2036.000000" height="2036.000000" fill="black" />
<circle cx="680.960022" cy="1067.959961" r="19.980000" fill="red">
  <title>Tokyo</title>
</circle><line x1="788.960022" y1="1712.959961" x2="680.960022" y2="1067.959961" stroke="red" stroke-width="6.660000" />
<circle cx="335.959991" cy="1099.959961" r="19.980000" fill="red">
  <title>Shanghai</title>
</circle><line x1="680.960022" y1="1067.959961" x2="335.959991" y2="1099.959961" stroke="red" stroke-width="6.660000" />
<circle cx="355.959991" cy="72.959999" r="19.980000" fill="red">
  <title>São Paulo</title>
</circle><line x1="335.959991" y1="1099.959961" x2="355.959991" y2="72.959999" stroke="red" stroke-width="6.660000" />
<circle cx="629.960022" cy="220.959991" r="19.980000" fill="red">
  <title>Lagos</title>
</circle><line x1="355.959991" y1="72.959999" x2="629.960022" y2="220.959991" stroke="red" stroke-width="6.660000" />
<circle cx="1419.959961" cy="688.960022" r="19.980000" fill="red">
  <title>Cairo</title>
</circle><line x1="629.960022" y1="220.959991" x2="1419.959961" y2="688.960022" stroke="red" stroke-width="6.660000" />
<circle cx="1592.959961" cy="658.960022" r="19.980000" fill="red">
  <title>Kolkata</title>
</circle><line x1="1419.959961" y1="688.960022" x2="1592.959961" y2="658.960022" stroke="red" stroke-width="6.660000" />
<circle cx="1809.959961" cy="605.960022" r="19.980000" fill="red">
  <title>Osaka</title>
</circle><line x1="1592.959961" y1="658.960022" x2="1809.959961" y2="605.960022" stroke="red" stroke-width="6.660000" />
<circle cx="1938.959961" cy="359.959991" r="19.980000" fill="red">
  <title>Karachi</title>
</circle><line x1="1809.959961" y1="605.960022" x2="1938.959961" y2="359.959991" stroke="red" stroke-width="6.660000" />
<circle cx="1922.959961" cy="599.960022" r="19.980000" fill="red">
  <title>Manila</title>
</circle><line x1="1938.959961" y1="359.959991" x2="1922.959961" y2="599.960022" stroke="red" stroke-width="6.660000" />
<circle cx="2015.959961" cy="893.960022" r="19.980000" fill="red">
  <title>Istanbul</title>
</circle><line x1="1922.959961" y1="599.960022" x2="2015.959961" y2="893.960022" stroke="red" stroke-width="6.660000" />
<circle cx="1716.959961" cy="860.960022" r="19.980000" fill="red">
  <title>Mexico City</title>
</circle><line x1="2015.959961" y1="893.960022" x2="1716.959961" y2="860.960022" stroke="red" stroke-width="6.660000" />
<circle cx="1660.959961" cy="946.960022" r="19.980000" fill="red">
  <title>Rio de Janeiro</title>
</circle><line x1="1716.959961" y1="860.960022" x2="1660.959961" y2="946.960022" stroke="red" stroke-width="6.660000" />
<circle cx="1247.959961" cy="1010.960022" r="19.980000" fill="red">
  <title>Mumbai</title>
</circle><line x1="1660.959961" y1="946.960022" x2="1247.959961" y2="1010.960022" stroke="red" stroke-width="6.660000" />
<circle cx="1477.959961" cy="1433.959961" r="19.980000" fill="red">
  <title>Dhaka</title>
</circle><line x1="1247.959961" y1="1010.960022" x2="1477.959961" y2="1433.959961" stroke="red" stroke-width="6.660000" />
<circle cx="1860.959961" cy="1480.959961" r="19.980000" fill="red">
  <title>New York</title>
</circle><line x1="1477.959961" y1="1433.959961" x2="1860.959961" y2="1480.959961" stroke="red" stroke-width="6.660000" />
<circle cx="1727.959961" cy="1705.959961" r="19.980000" fill="red">
  <title>Chongqing</title>
</circle><line x1="1860.959961" y1="1480.959961" x2="1727.959961" y2="1705.959961" stroke="red" stroke-width="6.660000" />
<circle cx="1045.959961" cy="2009.959961" r="19.980000" fill="red">
  <title>Delhi</title>
</circle><line x1="1727.959961" y1="1705.959961" x2="1045.959961" y2="2009.959961" stroke="red" stroke-width="6.660000" />
<circle cx="586.960022" cy="1983.959961" r="19.980000" fill="red">
  <title>Buenos Aires</title>
</circle><line x1="1045.959961" y1="2009.959961" x2="586.960022" y2="1983.959961" stroke="red" stroke-width="6.660000" />
<circle cx="788.960022" cy="1712.959961" r="19.980000" fill="red">
  <title>Beijing</title>
</circle><line x1="586.960022" y1="1983.959961" x2="788.960022" y2="1712.959961" stroke="red" stroke-width="6.660000" />
</svg>
