<?xml version="1.0" encoding="UTF-8" standalone="no"?>
<svg width="500" height="500" viewBox="0 0 2074.000000 2074.000000" xmlns="http://www.w3.org/2000/svg">
<rect x="19.000000" y="19.000000" width="2036.000000" height="2036.000000" fill="black" />
<circle cx="1463.959961" cy="402.959991" r="19.980000" fill="red">
  <title>Tokyo</title>
</circle><line x1="1141.959961" y1="298.959991" x2="1463.959961" y2="402.959991" stroke="red" stroke-width="6.660000" />
<circle cx="1587.959961" cy="566.960022" r="19.980000" fill="red">
  <title>Cairo</title>
</circle><line x1="1463.959961" y1="402.959991" x2="1587.959961" y2="566.960022" stroke="red" stroke-width="6.660000" />
<circle cx="1892.959961" cy="709.960022" r="19.980000" fill="red">
  <title>Shanghai</title>
</circle><line x1="1587.959961" y1="566.960022" x2="1892.959961" y2="709.960022" stroke="red" stroke-width="6.660000" />
<circle cx="2024.959961" cy="945.960022" r="19.980000" fill="red">
  <title>Delhi</title>
</circle><line x1="1892.959961" y1="709.960022" x2="2024.959961" y2="945.960022" stroke="red" stroke-width="6.660000" />
<circle cx="1944.959961" cy="1049.959961" r="19.980000" fill="red">
  <title>Beijing</title>
</circle><line x1="2024.959961" y1="945.960022" x2="1944.959961" y2="1049.959961" stroke="red" stroke-width="6.660000" />
<circle cx="1164.959961" cy="1558.959961" r="19.980000" fill="red">
  <title>Osaka</title>
</circle><line x1="1944.959961" y1="1049.959961" x2="1164.959961" y2="1558.959961" stroke="red" stroke-width="6.660000" />
<circle cx="1224.959961" cy="1982.959961" r="19.980000" fill="red">
  <title>Dhaka</title>
</circle><line x1="1164.959961" y1="1558.959961" x2="1224.959961" y2="1982.959961" stroke="red" stroke-width="6.660000" />
<circle cx="416.959991" cy="1902.959961" r="19.980000" fill="red">
  <title>New York</title>
</circle><line x1="1224.959961" y1="1982.959961" x2="416.959991" y2="1902.959961" stroke="red" stroke-width="6.660000" />
<circle cx="125.959999" cy="1378.959961" r="19.980000" fill="red">
  <title>Karachi</title>
</circle><line x1="416.959991" y1="1902.959961" x2="125.959999" y2="1378.959961" stroke="red" stroke-width="6.660000" />
<circle cx="364.959991" cy="654.960022" r="19.980000" fill="red">
  <title>Mexico City</title>
</circle><line x1="125.959999" y1="1378.959961" x2="364.959991" y2="654.960022" stroke="red" stroke-width="6.660000" />
<circle cx="1002.960022" cy="893.960022" r="19.980000" fill="red">
  <title>São Paulo</title>
</circle><line x1="364.959991" y1="654.960022" x2="1002.960022" y2="893.960022" stroke="red" stroke-width="6.660000" />
<circle cx="1141.959961" cy="298.959991" r="19.980000" fill="red">
  <title>Mumbai</title>
</circle><line x1="1002.960022" y1="893.960022" x2="1141.959961" y2="298.959991" stroke="red" stroke-width="6.660000" />
</svg>
