<?xml version="1.0" encoding="UTF-8" standalone="no"?>
<svg width="500" height="500" viewBox="0 0 2074.000000 2074.000000" xmlns="http://www.w3.org/2000/svg">
<rect x="19.000000" y="19.000000" width="2036.000000" height="2036.000000" fill="black" />
<circle cx="141.959991" cy="1048.959961" r="19.980000" fill="red">
  <title>Tokyo</title>
</circle><line x1="320.959991" y1="1125.959961" x2="141.959991" y2="1048.959961" stroke="red" stroke-width="6.660000" />
<circle cx="411.959991" cy="1037.959961" r="19.980000" fill="red">
  <title>Mumbai</title>
</circle><line x1="141.959991" y1="1048.959961" x2="411.959991" y2="1037.959961" stroke="red" stroke-width="6.660000" />
<circle cx="733.960022" cy="1020.960022" r="19.980000" fill="red">
  <title>Osaka</title>
</circle><line x1="411.959991" y1="1037.959961" x2="733.960022" y2="1020.960022" stroke="red" stroke-width="6.660000" />
<circle cx="760.960022" cy="996.960022" r="19.980000" fill="red">
  <title>Kolkata</title>
</circle><line x1="733.960022" y1="1020.960022" x2="760.960022" y2="996.960022" stroke="red" stroke-width="6.660000" />
<circle cx="815.960022" cy="981.960022" r="19.980000" fill="red">
  <title>Cairo</title>
</circle><line x1="760.960022" y1="996.960022" x2="815.960022" y2="981.960022" stroke="red" stroke-width="6.660000" />
<circle cx="893.960022" cy="271.959991" r="19.980000" fill="red">
  <title>Istanbul</title>
</circle><line x1="815.960022" y1="981.960022" x2="893.960022" y2="271.959991" stroke="red" stroke-width="6.660000" />
<circle cx="1280.959961" cy="342.959991" r="19.980000" fill="red">
  <title>Manila</title>
</circle><line x1="893.960022" y1="271.959991" x2="1280.959961" y2="342.959991" stroke="red" stroke-width="6.660000" />
<circle cx="2027.959961" cy="120.959999" r="19.980000" fill="red">
  <title>Buenos Aires</title>
</circle><line x1="1280.959961" y1="342.959991" x2="2027.959961" y2="120.959999" stroke="red" stroke-width="6.660000" />
<circle cx="1619.959961" cy="323.959991" r="19.980000" fill="red">
  <title>Delhi</title>
</circle><line x1="2027.959961" y1="120.959999" x2="1619.959961" y2="323.959991" stroke="red" stroke-width="6.660000" />
<circle cx="1360.959961" cy="656.960022" r="19.980000" fill="red">
  <title>Mexico City</title>
</circle><line x1="1619.959961" y1="323.959991" x2="1360.959961" y2="656.960022" stroke="red" stroke-width="6.660000" />
<circle cx="1351.959961" cy="1109.959961" r="19.980000" fill="red">
  <title>Chongqing</title>
</circle><line x1="1360.959961" y1="656.960022" x2="1351.959961" y2="1109.959961" stroke="red" stroke-width="6.660000" />
<circle cx="1402.959961" cy="1519.959961" r="19.980000" fill="red">
  <title>Dhaka</title>
</circle><line x1="1351.959961" y1="1109.959961" x2="1402.959961" y2="1519.959961" stroke="red" stroke-width="6.660000" />
<circle cx="1184.959961" cy="1586.959961" r="19.980000" fill="red">
  <title>Karachi</title>
</circle><line x1="1402.959961" y1="1519.959961" x2="1184.959961" y2="1586.959961" stroke="red" stroke-width="6.660000" />
<circle cx="1049.959961" cy="1328.959961" r="19.980000" fill="red">
  <title>São Paulo</title>
</circle><line x1="1184.959961" y1="1586.959961" x2="1049.959961" y2="1328.959961" stroke="red" stroke-width="6.660000" />
<circle cx="890.960022" cy="1282.959961" r="19.980000" fill="red">
  <title>New York</title>
</circle><line x1="1049.959961" y1="1328.959961" x2="890.960022" y2="1282.959961" stroke="red" stroke-width="6.660000" />
<circle cx="708.960022" cy="1273.959961" r="19.980000" fill="red">
  <title>Shanghai</title>
</circle><line x1="890.960022" y1="1282.959961" x2="708.960022" y2="1273.959961" stroke="red" stroke-width="6.660000" />
<circle cx="320.959991" cy="1125.959961" r="19.980000" fill="red">
  <title>Beijing</title>
</circle><line x1="708.960022" y1="1273.959961" x2="320.959991" y2="1125.959961" stroke="red" stroke-width="6.660000" />
</svg>
