<?xml version="1.0" encoding="UTF-8" standalone="no"?>
<svg width="500" height="500" viewBox="0 0 2074.000000 2074.000000" xmlns="http://www.w3.org/2000/svg">
<rect x="19.000000" y="19.000000" width="2036.000000" height="2036.000000" fill="black" />
<circle cx="828.960022" cy="308.959991" r="19.980000" fill="red">
  <title>Tokyo</title>
</circle><line x1="1309.959961" y1="512.960022" x2="828.960022" y2="308.959991" stroke="red" stroke-width="6.660000" />
<circle cx="829.960022" cy="1803.959961" r="19.980000" fill="red">
  <title>Shanghai</title>
</circle><line x1="828.960022" y1="308.959991" x2="829.960022" y2="1803.959961" stroke="red" stroke-width="6.660000" />
<circle cx="1845.959961" cy="1705.959961" r="19.980000" fill="red">
  <title>Delhi</title>
</circle><line x1="829.960022" y1="1803.959961" x2="1845.959961" y2="1705.959961" stroke="red" stroke-width="6.660000" />
<circle cx="1989.959961" cy="1467.959961" r="19.980000" fill="red">
  <title>São Paulo</title>
</circle><line x1="1845.959961" y1="1705.959961" x2="1989.959961" y2="1467.959961" stroke="red" stroke-width="6.660000" />
<circle cx="1903.959961" cy="1194.959961" r="19.980000" fill="red">
  <title>Mumbai</title>
</circle><line x1="1989.959961" y1="1467.959961" x2="1903.959961" y2="1194.959961" stroke="red" stroke-width="6.660000" />
<circle cx="1651.959961" cy="911.960022" r="19.980000" fill="red">
  <title>Cairo</title>
</circle><line x1="1903.959961" y1="1194.959961" x2="1651.959961" y2="911.960022" stroke="red" stroke-width="6.660000" />
<circle cx="1309.959961" cy="512.960022" r="19.980000" fill="red">
  <title>Mexico City</title>
</circle><line x1="1651.959961" y1="911.960022" x2="1309.959961" y2="512.960022" stroke="red" stroke-width="6.660000" />
</svg>
