<?xml version="1.0" encoding="UTF-8" standalone="no"?>
<svg width="500" height="500" viewBox="0 0 2074.000000 2074.000000" xmlns="http://www.w3.org/2000/svg">
<rect x="19.000000" y="19.000000" width="2036.000000" height="2036.000000" fill="black" />
<circle cx="80.959999" cy="408.959991" r="19.980000" fill="red">
  <title>Tokyo</title>
</circle><line x1="406.959991" y1="466.959991" x2="80.959999" y2="408.959991" stroke="red" stroke-width="6.660000" />
<circle cx="101.959999" cy="1545.959961" r="19.980000" fill="red">
  <title>Delhi</title>
</circle><line x1="80.959999" y1="408.959991" x2="101.959999" y2="1545.959961" stroke="red" stroke-width="6.660000" />
<circle cx="249.959991" cy="1539.959961" r="19.980000" fill="red">
  <title>Beijing</title>
</circle><line x1="101.959999" y1="1545.959961" x2="249.959991" y2="1539.959961" stroke="red" stroke-width="6.660000" />
<circle cx="200.959991" cy="1776.959961" r="19.980000" fill="red">
  <title>São Paulo</title>
</circle><line x1="249.959991" y1="1539.959961" x2="200.959991" y2="1776.959961" stroke="red" stroke-width="6.660000" />
<circle cx="1159.959961" cy="1774.959961" r="19.980000" fill="red">
  <title>Cairo</title>
</circle><line x1="200.959991" y1="1776.959961" x2="1159.959961" y2="1774.959961" stroke="red" stroke-width="6.660000" />
<circle cx="1972.959961" cy="573.960022" r="19.980000" fill="red">
  <title>Mexico City</title>
</circle><line x1="1159.959961" y1="1774.959961" x2="1972.959961" y2="573.960022" stroke="red" stroke-width="6.660000" />
<circle cx="499.959991" cy="212.959991" r="19.980000" fill="red">
  <title>Mumbai</title>
</circle><line x1="1972.959961" y1="573.960022" x2="499.959991" y2="212.959991" stroke="red" stroke-width="6.660000" />
<circle cx="406.959991" cy="466.959991" r="19.980000" fill="red">
  <title>Shanghai</title>
</circle><line x1="499.959991" y1="212.959991" x2="406.959991" y2="466.959991" stroke="red" stroke-width="6.660000" />
</svg>
