<?xml version="1.0" encoding="UTF-8" standalone="no"?>
<svg width="500" height="500" viewBox="0 0 2074.000000 2074.000000" xmlns="http://www.w3.org/2000/svg">
<rect x="19.000000" y="19.000000" width="2036.000000" height="2036.000000" fill="black" />
<circle cx="368.959991" cy="363.959991" r="19.980000" fill="red">
  <title>Tokyo</title>
</circle><line x1="73.959999" y1="104.959999" x2="368.959991" y2="363.959991" stroke="red" stroke-width="6.660000" />
<circle cx="743.960022" cy="386.959991" r="19.980000" fill="red">
  <title>Osaka</title>
</circle><line x1="368.959991" y1="363.959991" x2="743.960022" y2="386.959991" stroke="red" stroke-width="6.660000" />
<circle cx="1727.959961" cy="274.959991" r="19.980000" fill="red">
  <title>Delhi</title>
</circle><line x1="743.960022" y1="386.959991" x2="1727.959961" y2="274.959991" stroke="red" stroke-width="6.660000" />
<circle cx="1920.959961" cy="1882.959961" r="19.980000" fill="red">
  <title>Dhaka</title>
</circle><line x1="1727.959961" y1="274.959991" x2="1920.959961" y2="1882.959961" stroke="red" stroke-width="6.660000" />
<circle cx="1617.959961" cy="1964.959961" r="19.980000" fill="red">
  <title>Shanghai</title>
</circle><line x1="1920.959961" y1="1882.959961" x2="1617.959961" y2="1964.959961" stroke="red" stroke-width="6.660000" />
<circle cx="1063.959961" cy="1635.959961" r="19.980000" fill="red">
  <title>Mexico City</title>
</circle><line x1="1617.959961" y1="1964.959961" x2="1063.959961" y2="1635.959961" stroke="red" stroke-width="6.660000" />
<circle cx="757.960022" cy="1400.959961" r="19.980000" fill="red">
  <title>Buenos Aires</title>
</circle><line x1="1063.959961" y1="1635.959961" x2="757.960022" y2="1400.959961" stroke="red" stroke-width="6.660000" />
<circle cx="683.960022" cy="1531.959961" r="19.980000" fill="red">
  <title>Istanbul</title>
</circle><line x1="757.960022" y1="1400.959961" x2="683.960022" y2="1531.959961" stroke="red" stroke-width="6.660000" />
<circle cx="567.960022" cy="1802.959961" r="19.980000" fill="red">
  <title>New York</title>
</circle><line x1="683.960022" y1="1531.959961" x2="567.960022" y2="1802.959961" stroke="red" stroke-width="6.660000" />
<circle cx="363.959991" cy="1977.959961" r="19.980000" fill="red">
  <title>Mumbai</title>
</circle><line x1="567.960022" y1="1802.959961" x2="363.959991" y2="1977.959961" stroke="red" stroke-width="6.660000" />
<circle cx="74.959999" cy="1602.959961" r="19.980000" fill="red">
  <title>Karachi</title>
</circle><line x1="363.959991" y1="1977.959961" x2="74.959999" y2="1602.959961" stroke="red" stroke-width="6.660000" />
<circle cx="565.960022" cy="1031.959961" r="19.980000" fill="red">
  <title>Beijing</title>
</circle><line x1="74.959999" y1="1602.959961" x2="565.960022" y2="1031.959961" stroke="red" stroke-width="6.660000" />
<circle cx="668.960022" cy="558.960022" r="19.980000" fill="red">
  <title>Cairo</title>
</circle><line x1="565.960022" y1="1031.959961" x2="668.960022" y2="558.960022" stroke="red" stroke-width="6.660000" />
<circle cx="614.960022" cy="530.960022" r="19.980000" fill="red">
  <title>São Paulo</title>
</circle><line x1="668.960022" y1="558.960022" x2="614.960022" y2="530.960022" stroke="red" stroke-width="6.660000" />
<circle cx="73.959999" cy="104.959999" r="19.980000" fill="red">
  <title>Chongqing</title>
</circle><line x1="614.960022" y1="530.960022" x2="73.959999" y2="104.959999" stroke="red" stroke-width="6.660000" />
</svg>
