<?xml version="1.0" encoding="UTF-8" standalone="no"?>
<svg width="500" height="500" viewBox="0 0 2074.000000 2074.000000" xmlns="http://www.w3.org/2000/svg">
<rect x="19.000000" y="19.000000" width="2036.000000" height="2036.000000" fill="black" />
<circle cx="433.959991" cy="1384.959961" r="19.980000" fill="red">
  <title>Tokyo</title>
</circle><line x1="404.959991" y1="1086.959961" x2="433.959991" y2="1384.959961" stroke="red" stroke-width="6.660000" />
<circle cx="430.959991" cy="1426.959961" r="19.980000" fill="red">
  <title>São Paulo</title>
</circle><line x1="433.959991" y1="1384.959961" x2="430.959991" y2="1426.959961" stroke="red" stroke-width="6.660000" />
<circle cx="528.960022" cy="1904.959961" r="19.980000" fill="red">
  <title>Osaka</title>
</circle><line x1="430.959991" y1="1426.959961" x2="528.960022" y2="1904.959961" stroke="red" stroke-width="6.660000" />
<circle cx="1288.959961" cy="1441.959961" r="19.980000" fill="red">
  <title>Mumbai</title>
</circle><line x1="528.960022" y1="1904.959961" x2="1288.959961" y2="1441.959961" stroke="red" stroke-width="6.660000" />
<circle cx="1305.959961" cy="1116.959961" r="19.980000" fill="red">
  <title>Beijing</title>
</circle><line x1="1288.959961" y1="1441.959961" x2="1305.959961" y2="1116.959961" stroke="red" stroke-width="6.660000" />
<circle cx="1810.959961" cy="1395.959961" r="19.980000" fill="red">
  <title>Delhi</title>
</circle><line x1="1305.959961" y1="1116.959961" x2="1810.959961" y2="1395.959961" stroke="red" stroke-width="6.660000" />
<circle cx="2011.959961" cy="2004.959961" r="19.980000" fill="red">
  <title>Shanghai</title>
</circle><line x1="1810.959961" y1="1395.959961" x2="2011.959961" y2="2004.959961" stroke="red" stroke-width="6.660000" />
<circle cx="1807.959961" cy="1261.959961" r="19.980000" fill="red">
  <title>Chongqing</title>
</circle><line x1="2011.959961" y1="2004.959961" x2="1807.959961" y2="1261.959961" stroke="red" stroke-width="6.660000" />
<circle cx="1676.959961" cy="681.960022" r="19.980000" fill="red">
  <title>Mexico City</title>
</circle><line x1="1807.959961" y1="1261.959961" x2="1676.959961" y2="681.960022" stroke="red" stroke-width="6.660000" />
<circle cx="1962.959961" cy="329.959991" r="19.980000" fill="red">
  <title>Cairo</title>
</circle><line x1="1676.959961" y1="681.960022" x2="1962.959961" y2="329.959991" stroke="red" stroke-width="6.660000" />
<circle cx="1659.959961" cy="641.960022" r="19.980000" fill="red">
  <title>Karachi</title>
</circle><line x1="1962.959961" y1="329.959991" x2="1659.959961" y2="641.960022" stroke="red" stroke-width="6.660000" />
<circle cx="1377.959961" cy="788.960022" r="19.980000" fill="red">
  <title>Istanbul</title>
</circle><line x1="1659.959961" y1="641.960022" x2="1377.959961" y2="788.960022" stroke="red" stroke-width="6.660000" />
<circle cx="1229.959961" cy="665.960022" r="19.980000" fill="red">
  <title>Buenos Aires</title>
</circle><line x1="1377.959961" y1="788.960022" x2="1229.959961" y2="665.960022" stroke="red" stroke-width="6.660000" />
<circle cx="216.959991" cy="578.960022" r="19.980000" fill="red">
  <title>Dhaka</title>
</circle><line x1="1229.959961" y1="665.960022" x2="216.959991" y2="578.960022" stroke="red" stroke-width="6.660000" />
<circle cx="404.959991" cy="1086.959961" r="19.980000" fill="red">
  <title>New York</title>
</circle><line x1="216.959991" y1="578.960022" x2="404.959991" y2="1086.959961" stroke="red" stroke-width="6.660000" />
</svg>
