<?xml version="1.0" encoding="UTF-8" standalone="no"?>
<svg width="500" height="500" viewBox="0 0 2074.000000 2074.000000" xmlns="http://www.w3.org/2000/svg">
<rect x="19.000000" y="19.000000" width="2036.000000" height="2036.000000" fill="black" />
<circle cx="1535.959961" cy="508.959991" r="19.980000" fill="red">
  <title>Tokyo</title>
</circle><line x1="1749.959961" y1="1317.959961" x2="1535.959961" y2="508.959991" stroke="red" stroke-width="6.660000" />
<circle cx="1156.959961" cy="490.959991" r="19.980000" fill="red">
  <title>Shanghai</title>
</circle><line x1="1535.959961" y1="508.959991" x2="1156.959961" y2="490.959991" stroke="red" stroke-width="6.660000" />
<circle cx="1011.960022" cy="508.959991" r="19.980000" fill="red">
  <title>Mexico City</title>
</circle><line x1="1156.959961" y1="490.959991" x2="1011.960022" y2="508.959991" stroke="red" stroke-width="6.660000" />
<circle cx="755.960022" cy="183.959991" r="19.980000" fill="red">
  <title>Cairo</title>
</circle><line x1="1011.960022" y1="508.959991" x2="755.960022" y2="183.959991" stroke="red" stroke-width="6.660000" />
<circle cx="500.959991" cy="89.959999" r="19.980000" fill="red">
  <title>Delhi</title>
</circle><line x1="755.960022" y1="183.959991" x2="500.959991" y2="89.959999" stroke="red" stroke-width="6.660000" />
<circle cx="477.959991" cy="1180.959961" r="19.980000" fill="red">
  <title>Mumbai</title>
</circle><line x1="500.959991" y1="89.959999" x2="477.959991" y2="1180.959961" stroke="red" stroke-width="6.660000" />
<circle cx="1342.959961" cy="1542.959961" r="19.980000" fill="red">
  <title>São Paulo</title>
</circle><line x1="477.959991" y1="1180.959961" x2="1342.959961" y2="1542.959961" stroke="red" stroke-width="6.660000" />
<circle cx="1749.959961" cy="1317.959961" r="19.980000" fill="red">
  <title>Beijing</title>
</circle><line x1="1342.959961" y1="1542.959961" x2="1749.959961" y2="1317.959961" stroke="red" stroke-width="6.660000" />
</svg>
