<?xml version="1.0" encoding="UTF-8" standalone="no"?>
<svg width="500" height="500" viewBox="0 0 2074.000000 2074.000000" xmlns="http://www.w3.org/2000/svg">
<rect x="19.000000" y="19.000000" width="2036.000000" height="2036.000000" fill="black" />
<circle cx="59.959999" cy="1047.959961" r="19.980000" fill="red">
  <title>Tokyo</title>
</circle><line x1="140.959991" y1="1063.959961" x2="59.959999" y2="1047.959961" stroke="red" stroke-width="6.660000" />
<circle cx="294.959991" cy="994.960022" r="19.980000" fill="red">
  <title>São Paulo</title>
</circle><line x1="59.959999" y1="1047.959961" x2="294.959991" y2="994.960022" stroke="red" stroke-width="6.660000" />
<circle cx="553.960022" cy="394.959991" r="19.980000" fill="red">
  <title>Delhi</title>
</circle><line x1="294.959991" y1="994.960022" x2="553.960022" y2="394.959991" stroke="red" stroke-width="6.660000" />
<circle cx="175.959991" cy="127.959999" r="19.980000" fill="red">
  <title>Mexico City</title>
</circle><line x1="553.960022" y1="394.959991" x2="175.959991" y2="127.959999" stroke="red" stroke-width="6.660000" />
<circle cx="721.960022" cy="117.959999" r="19.980000" fill="red">
  <title>Cairo</title>
</circle><line x1="175.959991" y1="127.959999" x2="721.960022" y2="117.959999" stroke="red" stroke-width="6.660000" />
<circle cx="1677.959961" cy="535.960022" r="19.980000" fill="red">
  <title>Mumbai</title>
</circle><line x1="721.960022" y1="117.959999" x2="1677.959961" y2="535.960022" stroke="red" stroke-width="6.660000" />
<circle cx="1253.959961" cy="1776.959961" r="19.980000" fill="red">
  <title>Shanghai</title>
</circle><line x1="1677.959961" y1="535.960022" x2="1253.959961" y2="1776.959961" stroke="red" stroke-width="6.660000" />
<circle cx="878.960022" cy="1523.959961" r="19.980000" fill="red">
  <title>Osaka</title>
</circle><line x1="1253.959961" y1="1776.959961" x2="878.960022" y2="1523.959961" stroke="red" stroke-width="6.660000" />
<circle cx="445.959991" cy="1552.959961" r="19.980000" fill="red">
  <title>Dhaka</title>
</circle><line x1="878.960022" y1="1523.959961" x2="445.959991" y2="1552.959961" stroke="red" stroke-width="6.660000" />
<circle cx="140.959991" cy="1063.959961" r="19.980000" fill="red">
  <title>Beijing</title>
</circle><line x1="445.959991" y1="1552.959961" x2="140.959991" y2="1063.959961" stroke="red" stroke-width="6.660000" />
</svg>
