<?xml version="1.0" encoding="UTF-8" standalone="no"?>
<svg width="500" height="500" viewBox="0 0 2074.000000 2074.000000" xmlns="http://www.w3.org/2000/svg">
<rect x="19.000000" y="19.000000" width="2036.000000" height="2036.000000" fill="black" />
<circle cx="507.959991" cy="224.959991" r="19.980000" fill="red">
  <title>Tokyo</title>
</circle><line x1="679.960022" y1="445.959991" x2="507.959991" y2="224.959991" stroke="red" stroke-width="6.660000" />
<circle cx="835.960022" cy="342.959991" r="19.980000" fill="red">
  <title>Beijing</title>
</circle><line x1="507.959991" y1="224.959991" x2="835.960022" y2="342.959991" stroke="red" stroke-width="6.660000" />
<circle cx="1583.959961" cy="237.959991" r="19.980000" fill="red">
  <title>Manila</title>
</circle><line x1="835.960022" y1="342.959991" x2="1583.959961" y2="237.959991" stroke="red" stroke-width="6.660000" />
<circle cx="1529.959961" cy="423.959991" r="19.980000" fill="red">
  <title>São Paulo</title>
</circle><line x1="1583.959961" y1="237.959991" x2="1529.959961" y2="423.959991" stroke="red" stroke-width="6.660000" />
<circle cx="1825.959961" cy="933.960022" r="19.980000" fill="red">
  <title>Mumbai</title>
</circle><line x1="1529.959961" y1="423.959991" x2="1825.959961" y2="933.960022" stroke="red" stroke-width="6.660000" />
<circle cx="1530.959961" cy="1345.959961" r="19.980000" fill="red">
  <title>Chongqing</title>
</circle><line x1="1825.959961" y1="933.960022" x2="1530.959961" y2="1345.959961" stroke="red" stroke-width="6.660000" />
<circle cx="1541.959961" cy="1398.959961" r="19.980000" fill="red">
  <title>Istanbul</title>
</circle><line x1="1530.959961" y1="1345.959961" x2="1541.959961" y2="1398.959961" stroke="red" stroke-width="6.660000" />
<circle cx="1793.959961" cy="1725.959961" r="19.980000" fill="red">
  <title>Buenos Aires</title>
</circle><line x1="1541.959961" y1="1398.959961" x2="1793.959961" y2="1725.959961" stroke="red" stroke-width="6.660000" />
<circle cx="1925.959961" cy="1866.959961" r="19.980000" fill="red">
  <title>Mexico City</title>
</circle><line x1="1793.959961" y1="1725.959961" x2="1925.959961" y2="1866.959961" stroke="red" stroke-width="6.660000" />
<circle cx="1079.959961" cy="2010.959961" r="19.980000" fill="red">
  <title>Kolkata</title>
</circle><line x1="1925.959961" y1="1866.959961" x2="1079.959961" y2="2010.959961" stroke="red" stroke-width="6.660000" />
<circle cx="1067.959961" cy="1986.959961" r="19.980000" fill="red">
  <title>Lagos</title>
</circle><line x1="1079.959961" y1="2010.959961" x2="1067.959961" y2="1986.959961" stroke="red" stroke-width="6.660000" />
<circle cx="442.959991" cy="2023.959961" r="19.980000" fill="red">
  <title>Shanghai</title>
</circle><line x1="1067.959961" y1="1986.959961" x2="442.959991" y2="2023.959961" stroke="red" stroke-width="6.660000" />
<circle cx="912.960022" cy="1714.959961" r="19.980000" fill="red">
  <title>Osaka</title>
</circle><line x1="442.959991" y1="2023.959961" x2="912.960022" y2="1714.959961" stroke="red" stroke-width="6.660000" />
<circle cx="1242.959961" cy="1254.959961" r="19.980000" fill="red">
  <title>Karachi</title>
</circle><line x1="912.960022" y1="1714.959961" x2="1242.959961" y2="1254.959961" stroke="red" stroke-width="6.660000" />
<circle cx="1195.959961" cy="1094.959961" r="19.980000" fill="red">
  <title>Delhi</title>
</circle><line x1="1242.959961" y1="1254.959961" x2="1195.959961" y2="1094.959961" stroke="red" stroke-width="6.660000" />
<circle cx="779.960022" cy="965.960022" r="19.980000" fill="red">
  <title>Cairo</title>
</circle><line x1="1195.959961" y1="1094.959961" x2="779.960022" y2="965.960022" stroke="red" stroke-width="6.660000" />
<circle cx="774.960022" cy="457.959991" r="19.980000" fill="red">
  <title>New York</title>
</circle><line x1="779.960022" y1="965.960022" x2="774.960022" y2="457.959991" stroke="red" stroke-width="6.660000" />
<circle cx="679.960022" cy="445.959991" r="19.980000" fill="red">
  <title>Dhaka</title>
</circle><line x1="774.960022" y1="457.959991" x2="679.960022" y2="445.959991" stroke="red" stroke-width="6.660000" />
</svg>
