<?xml version="1.0" encoding="UTF-8" standalone="no"?>
<svg width="500" height="500" viewBox="0 0 2074.000000 2074.000000" xmlns="http://www.w3.org/2000/svg">
<rect x="19.000000" y="19.000000" width="2036.000000" height="2036.000000" fill="black" />
<circle cx="1793.959961" cy="427.959991" r="19.980000" fill="red">
  <title>Tokyo</title>
</circle><line x1="1947.959961" y1="304.959991" x2="1793.959961" y2="427.959991" stroke="red" stroke-width="6.660000" />
<circle cx="1516.959961" cy="1067.959961" r="19.980000" fill="red">
  <title>Delhi</title>
</circle><line x1="1793.959961" y1="427.959991" x2="1516.959961" y2="1067.959961" stroke="red" stroke-width="6.660000" />
<circle cx="1576.959961" cy="1338.959961" r="19.980000" fill="red">
  <title>Mexico City</title>
</circle><line x1="1516.959961" y1="1067.959961" x2="1576.959961" y2="1338.959961" stroke="red" stroke-width="6.660000" />
<circle cx="2009.959961" cy="1285.959961" r="19.980000" fill="red">
  <title>Mumbai</title>
</circle><line x1="1576.959961" y1="1338.959961" x2="2009.959961" y2="1285.959961" stroke="red" stroke-width="6.660000" />
<circle cx="1611.959961" cy="1700.959961" r="19.980000" fill="red">
  <title>Dhaka</title>
</circle><line x1="2009.959961" y1="1285.959961" x2="1611.959961" y2="1700.959961" stroke="red" stroke-width="6.660000" />
<circle cx="663.960022" cy="1902.959961" r="19.980000" fill="red">
  <title>São Paulo</title>
</circle><line x1="1611.959961" y1="1700.959961" x2="663.960022" y2="1902.959961" stroke="red" stroke-width="6.660000" />
<circle cx="967.960022" cy="876.960022" r="19.980000" fill="red">
  <title>Beijing</title>
</circle><line x1="663.960022" y1="1902.959961" x2="967.960022" y2="876.960022" stroke="red" stroke-width="6.660000" />
<circle cx="946.960022" cy="800.960022" r="19.980000" fill="red">
  <title>Buenos Aires</title>
</circle><line x1="967.960022" y1="876.960022" x2="946.960022" y2="800.960022" stroke="red" stroke-width="6.660000" />
<circle cx="686.960022" cy="435.959991" r="19.980000" fill="red">
  <title>Karachi</title>
</circle><line x1="946.960022" y1="800.960022" x2="686.960022" y2="435.959991" stroke="red" stroke-width="6.660000" />
<circle cx="289.959991" cy="339.959991" r="19.980000" fill="red">
  <title>New York</title>
</circle><line x1="686.960022" y1="435.959991" x2="289.959991" y2="339.959991" stroke="red" stroke-width="6.660000" />
<circle cx="613.960022" cy="189.959991" r="19.980000" fill="red">
  <title>Shanghai</title>
</circle><line x1="289.959991" y1="339.959991" x2="613.960022" y2="189.959991" stroke="red" stroke-width="6.660000" />
<circle cx="1175.959961" cy="546.960022" r="19.980000" fill="red">
  <title>Osaka</title>
</circle><line x1="613.960022" y1="189.959991" x2="1175.959961" y2="546.960022" stroke="red" stroke-width="6.660000" />
<circle cx="1947.959961" cy="304.959991" r="19.980000" fill="red">
  <title>Cairo</title>
</circle><line x1="1175.959961" y1="546.960022" x2="1947.959961" y2="304.959991" stroke="red" stroke-width="6.660000" />
</svg>
