<?xml version="1.0" encoding="UTF-8" standalone="no"?>
<svg width="500" height="500" viewBox="0 0 2074.000000 2074.000000" xmlns="http://www.w3.org/2000/svg">
<rect x="19.000000" y="19.000000" width="2036.000000" height="2036.000000" fill="black" />
<circle cx="1185.959961" cy="616.960022" r="19.980000" fill="red">
  <title>Tokyo</title>
</circle><line x1="1246.959961" y1="378.959991" x2="1185.959961" y2="616.960022" stroke="red" stroke-width="6.660000" />
<circle cx="1574.959961" cy="1463.959961" r="19.980000" fill="red">
  <title>Shanghai</title>
</circle><line x1="1185.959961" y1="616.960022" x2="1574.959961" y2="1463.959961" stroke="red" stroke-width="6.660000" />
<circle cx="1296.959961" cy="1645.959961" r="19.980000" fill="red">
  <title>São Paulo</title>
</circle><line x1="1574.959961" y1="1463.959961" x2="1296.959961" y2="1645.959961" stroke="red" stroke-width="6.660000" />
<circle cx="361.959991" cy="1363.959961" r="19.980000" fill="red">
  <title>Mexico City</title>
</circle><line x1="1296.959961" y1="1645.959961" x2="361.959991" y2="1363.959961" stroke="red" stroke-width="6.660000" />
<circle cx="1132.959961" cy="669.960022" r="19.980000" fill="red">
  <title>Delhi</title>
</circle><line x1="361.959991" y1="1363.959961" x2="1132.959961" y2="669.960022" stroke="red" stroke-width="6.660000" />
<circle cx="1246.959961" cy="378.959991" r="19.980000" fill="red">
  <title>Cairo</title>
</circle><line x1="1132.959961" y1="669.960022" x2="1246.959961" y2="378.959991" stroke="red" stroke-width="6.660000" />
</svg>
