<?xml version="1.0" encoding="UTF-8" standalone="no"?>
<svg width="500" height="500" viewBox="0 0 2074.000000 2074.000000" xmlns="http://www.w3.org/2000/svg">
<rect x="19.000000" y="19.000000" width="2036.000000" height="2036.000000" fill="black" />
<circle cx="335.959991" cy="1230.959961" r="19.980000" fill="red">
  <title>Tokyo</title>
</circle><line x1="1037.959961" y1="1760.959961" x2="335.959991" y2="1230.959961" stroke="red" stroke-width="6.660000" />
<circle cx="652.960022" cy="858.960022" r="19.980000" fill="red">
  <title>Delhi</title>
</circle><line x1="335.959991" y1="1230.959961" x2="652.960022" y2="858.960022" stroke="red" stroke-width="6.660000" />
<circle cx="486.959991" cy="298.959991" r="19.980000" fill="red">
  <title>São Paulo</title>
</circle><line x1="652.960022" y1="858.960022" x2="486.959991" y2="298.959991" stroke="red" stroke-width="6.660000" />
<circle cx="1584.959961" cy="135.959991" r="19.980000" fill="red">
  <title>Shanghai</title>
</circle><line x1="486.959991" y1="298.959991" x2="1584.959961" y2="135.959991" stroke="red" stroke-width="6.660000" />
<circle cx="1801.959961" cy="383.959991" r="19.980000" fill="red">
  <title>Cairo</title>
</circle><line x1="1584.959961" y1="135.959991" x2="1801.959961" y2="383.959991" stroke="red" stroke-width="6.660000" />
<circle cx="1742.959961" cy="394.959991" r="19.980000" fill="red">
  <title>Mexico City</title>
</circle><line x1="1801.959961" y1="383.959991" x2="1742.959961" y2="394.959991" stroke="red" stroke-width="6.660000" />
<circle cx="1037.959961" cy="1760.959961" r="19.980000" fill="red">
  <title>Mumbai</title>
</circle><line x1="1742.959961" y1="394.959991" x2="1037.959961" y2="1760.959961" stroke="red" stroke-width="6.660000" />
</svg>
