<?xml version="1.0" encoding="UTF-8" standalone="no"?>
<svg width="500" height="500" viewBox="0 0 2074.000000 2074.000000" xmlns="http://www.w3.org/2000/svg">
<rect x="19.000000" y="19.000000" width="2036.000000" height="2036.000000" fill="black" />
<circle cx="631.960022" cy="2019.959961" r="19.980000" fill="red">
  <title>Tokyo</title>
</circle><line x1="228.959991" y1="1299.959961" x2="631.960022" y2="2019.959961" stroke="red" stroke-width="6.660000" />
<circle cx="846.960022" cy="1516.959961" r="19.980000" fill="red">
  <title>Karachi</title>
</circle><line x1="631.960022" y1="2019.959961" x2="846.960022" y2="1516.959961" stroke="red" stroke-width="6.660000" />
<circle cx="1499.959961" cy="1171.959961" r="19.980000" fill="red">
  <title>Chongqing</title>
</circle><line x1="846.960022" y1="1516.959961" x2="1499.959961" y2="1171.959961" stroke="red" stroke-width="6.660000" />
<circle cx="1690.959961" cy="1492.959961" r="19.980000" fill="red">
  <title>São Paulo</title>
</circle><line x1="1499.959961" y1="1171.959961" x2="1690.959961" y2="1492.959961" stroke="red" stroke-width="6.660000" />
<circle cx="1788.959961" cy="1350.959961" r="19.980000" fill="red">
  <title>Beijing</title>
</circle><line x1="1690.959961" y1="1492.959961" x2="1788.959961" y2="1350.959961" stroke="red" stroke-width="6.660000" />
<circle cx="2024.959961" cy="1475.959961" r="19.980000" fill="red">
  <title>New York</title>
</circle><line x1="1788.959961" y1="1350.959961" x2="2024.959961" y2="1475.959961" stroke="red" stroke-width="6.660000" />
<circle cx="1993.959961" cy="1016.960022" r="19.980000" fill="red">
  <title>Cairo</title>
</circle><line x1="2024.959961" y1="1475.959961" x2="1993.959961" y2="1016.960022" stroke="red" stroke-width="6.660000" />
<circle cx="1582.959961" cy="753.960022" r="19.980000" fill="red">
  <title>Mumbai</title>
</circle><line x1="1993.959961" y1="1016.960022" x2="1582.959961" y2="753.960022" stroke="red" stroke-width="6.660000" />
<circle cx="1144.959961" cy="442.959991" r="19.980000" fill="red">
  <title>Osaka</title>
</circle><line x1="1582.959961" y1="753.960022" x2="1144.959961" y2="442.959991" stroke="red" stroke-width="6.660000" />
<circle cx="957.960022" cy="646.960022" r="19.980000" fill="red">
  <title>Shanghai</title>
</circle><line x1="1144.959961" y1="442.959991" x2="957.960022" y2="646.960022" stroke="red" stroke-width="6.660000" />
<circle cx="929.960022" cy="467.959991" r="19.980000" fill="red">
  <title>Mexico City</title>
</circle><line x1="957.960022" y1="646.960022" x2="929.960022" y2="467.959991" stroke="red" stroke-width="6.660000" />
<circle cx="599.960022" cy="306.959991" r="19.980000" fill="red">
  <title>Dhaka</title>
</circle><line x1="929.960022" y1="467.959991" x2="599.960022" y2="306.959991" stroke="red" stroke-width="6.660000" />
<circle cx="613.960022" cy="852.960022" r="19.980000" fill="red">
  <title>Delhi</title>
</circle><line x1="599.960022" y1="306.959991" x2="613.960022" y2="852.960022" stroke="red" stroke-width="6.660000" />
<circle cx="228.959991" cy="1299.959961" r="19.980000" fill="red">
  <title>Buenos Aires</title>
</circle><line x1="613.960022" y1="852.960022" x2="228.959991" y2="1299.959961" stroke="red" stroke-width="6.660000" />
</svg>
