<?xml version="1.0" encoding="UTF-8" standalone="no"?>
<svg width="500" height="500" viewBox="0 0 2074.000000 2074.000000" xmlns="http://www.w3.org/2000/svg">
<rect x="19.000000" y="19.000000" width="2036.000000" height="2036.000000" fill="black" />
<circle cx="737.960022" cy="453.959991" r="19.980000" fill="red">
  <title>Tokyo</title>
</circle><line x1="661.960022" y1="296.959991" x2="737.960022" y2="453.959991" stroke="red" stroke-width="6.660000" />
<circle cx="408.959991" cy="1268.959961" r="19.980000" fill="red">
  <title>Shanghai</title>
</circle><line x1="737.960022" y1="453.959991" x2="408.959991" y2="1268.959961" stroke="red" stroke-width="6.660000" />
<circle cx="1411.959961" cy="1591.959961" r="19.980000" fill="red">
  <title>Mexico City</title>
</circle><line x1="408.959991" y1="1268.959961" x2="1411.959961" y2="1591.959961" stroke="red" stroke-width="6.660000" />
<circle cx="1997.959961" cy="1786.959961" r="19.980000" fill="red">
  <title>São Paulo</title>
</circle><line x1="1411.959961" y1="1591.959961" x2="1997.959961" y2="1786.959961" stroke="red" stroke-width="6.660000" />
<circle cx="885.960022" cy="286.959991" r="19.980000" fill="red">
  <title>Delhi</title>
</circle><line x1="1997.959961" y1="1786.959961" x2="885.960022" y2="286.959991" stroke="red" stroke-width="6.660000" />
<circle cx="661.960022" cy="296.959991" r="19.980000" fill="red">
  <title>Cairo</title>
</circle><line x1="885.960022" y1="286.959991" x2="661.960022" y2="296.959991" stroke="red" stroke-width="6.660000" />
</svg>
