<?xml version="1.0" encoding="UTF-8" standalone="no"?>
<svg width="500" height="500" viewBox="0 0 2074.000000 2074.000000" xmlns="http://www.w3.org/2000/svg">
<rect x="19.000000" y="19.000000" width="2036.000000" height="2036.000000" fill="black" />
<circle cx="1581.959961" cy="589.960022" r="19.980000" fill="red">
  <title>Tokyo</title>
</circle><line x1="1648.959961" y1="380.959991" x2="1581.959961" y2="589.960022" stroke="red" stroke-width="6.660000" />
<circle cx="2014.959961" cy="1129.959961" r="19.980000" fill="red">
  <title>Cairo</title>
</circle><line x1="1581.959961" y1="589.960022" x2="2014.959961" y2="1129.959961" stroke="red" stroke-width="6.660000" />
<circle cx="1596.959961" cy="1405.959961" r="19.980000" fill="red">
  <title>Osaka</title>
</circle><line x1="2014.959961" y1="1129.959961" x2="1596.959961" y2="1405.959961" stroke="red" stroke-width="6.660000" />
<circle cx="1022.960022" cy="1382.959961" r="19.980000" fill="red">
  <title>Shanghai</title>
</circle><line x1="1596.959961" y1="1405.959961" x2="1022.960022" y2="1382.959961" stroke="red" stroke-width="6.660000" />
<circle cx="882.960022" cy="1190.959961" r="19.980000" fill="red">
  <title>Dhaka</title>
</circle><line x1="1022.960022" y1="1382.959961" x2="882.960022" y2="1190.959961" stroke="red" stroke-width="6.660000" />
<circle cx="872.960022" cy="1282.959961" r="19.980000" fill="red">
  <title>Delhi</title>
</circle><line x1="882.960022" y1="1190.959961" x2="872.960022" y2="1282.959961" stroke="red" stroke-width="6.660000" />
<circle cx="676.960022" cy="1664.959961" r="19.980000" fill="red">
  <title>Mumbai</title>
</circle><line x1="872.960022" y1="1282.959961" x2="676.960022" y2="1664.959961" stroke="red" stroke-width="6.660000" />
<circle cx="346.959991" cy="1546.959961" r="19.980000" fill="red">
  <title>New York</title>
</circle><line x1="676.960022" y1="1664.959961" x2="346.959991" y2="1546.959961" stroke="red" stroke-width="6.660000" />
<circle cx="669.960022" cy="1226.959961" r="19.980000" fill="red">
  <title>Beijing</title>
</circle><line x1="346.959991" y1="1546.959961" x2="669.960022" y2="1226.959961" stroke="red" stroke-width="6.660000" />
<circle cx="528.960022" cy="1024.959961" r="19.980000" fill="red">
  <title>Buenos Aires</title>
</circle><line x1="669.960022" y1="1226.959961" x2="528.960022" y2="1024.959961" stroke="red" stroke-width="6.660000" />
<circle cx="609.960022" cy="966.960022" r="19.980000" fill="red">
  <title>Karachi</title>
</circle><line x1="528.960022" y1="1024.959961" x2="609.960022" y2="966.960022" stroke="red" stroke-width="6.660000" />
<circle cx="303.959991" cy="238.959991" r="19.980000" fill="red">
  <title>Mexico City</title>
</circle><line x1="609.960022" y1="966.960022" x2="303.959991" y2="238.959991" stroke="red" stroke-width="6.660000" />
<circle cx="1571.959961" cy="221.959991" r="19.980000" fill="red">
  <title>Istanbul</title>
</circle><line x1="303.959991" y1="238.959991" x2="1571.959961" y2="221.959991" stroke="red" stroke-width="6.660000" />
<circle cx="1720.959961" cy="49.959999" r="19.980000" fill="red">
  <title>São Paulo</title>
</circle><line x1="1571.959961" y1="221.959991" x2="1720.959961" y2="49.959999" stroke="red" stroke-width="6.660000" />
<circle cx="1648.959961" cy="380.959991" r="19.980000" fill="red">
  <title>Chongqing</title>
</circle><line x1="1720.959961" y1="49.959999" x2="1648.959961" y2="380.959991" stroke="red" stroke-width="6.660000" />
</svg>
