<?xml version="1.0" encoding="UTF-8" standalone="no"?>
<svg width="500" height="500" viewBox="0 0 2074.000000 2074.000000" xmlns="http://www.w3.org/2000/svg">
<rect x="19.000000" y="19.000000" width="2036.000000" height="2036.000000" fill="black" />
<circle cx="1611.959961" cy="936.960022" r="19.980000" fill="red">
  <title>Tokyo</title>
</circle><line x1="1424.959961" y1="1211.959961" x2="1611.959961" y2="936.960022" stroke="red" stroke-width="6.660000" />
<circle cx="1396.959961" cy="782.960022" r="19.980000" fill="red">
  <title>Dhaka</title>
</circle><line x1="1611.959961" y1="936.960022" x2="1396.959961" y2="782.960022" stroke="red" stroke-width="6.660000" />
<circle cx="1496.959961" cy="617.960022" r="19.980000" fill="red">
  <title>New York</title>
</circle><line x1="1396.959961" y1="782.960022" x2="1496.959961" y2="617.960022" stroke="red" stroke-width="6.660000" />
<circle cx="873.960022" cy="112.959999" r="19.980000" fill="red">
  <title>Cairo</title>
</circle><line x1="1496.959961" y1="617.960022" x2="873.960022" y2="112.959999" stroke="red" stroke-width="6.660000" />
<circle cx="210.959991" cy="59.959999" r="19.980000" fill="red">
  <title>Buenos Aires</title>
</circle><line x1="873.960022" y1="112.959999" x2="210.959991" y2="59.959999" stroke="red" stroke-width="6.660000" />
<circle cx="994.960022" cy="1079.959961" r="19.980000" fill="red">
  <title>Beijing</title>
</circle><line x1="210.959991" y1="59.959999" x2="994.960022" y2="1079.959961" stroke="red" stroke-width="6.660000" />
<circle cx="317.959991" cy="1771.959961" r="19.980000" fill="red">
  <title>São Paulo</title>
</circle><line x1="994.960022" y1="1079.959961" x2="317.959991" y2="1771.959961" stroke="red" stroke-width="6.660000" />
<circle cx="214.959991" cy="1761.959961" r="19.980000" fill="red">
  <title>Delhi</title>
</circle><line x1="317.959991" y1="1771.959961" x2="214.959991" y2="1761.959961" stroke="red" stroke-width="6.660000" />
<circle cx="550.960022" cy="1712.959961" r="19.980000" fill="red">
  <title>Osaka</title>
</circle><line x1="214.959991" y1="1761.959961" x2="550.960022" y2="1712.959961" stroke="red" stroke-width="6.660000" />
<circle cx="1216.959961" cy="1948.959961" r="19.980000" fill="red">
  <title>Mumbai</title>
</circle><line x1="550.960022" y1="1712.959961" x2="1216.959961" y2="1948.959961" stroke="red" stroke-width="6.660000" />
<circle cx="1410.959961" cy="1447.959961" r="19.980000" fill="red">
  <title>Shanghai</title>
</circle><line x1="1216.959961" y1="1948.959961" x2="1410.959961" y2="1447.959961" stroke="red" stroke-width="6.660000" />
<circle cx="1521.959961" cy="1488.959961" r="19.980000" fill="red">
  <title>Karachi</title>
</circle><line x1="1410.959961" y1="1447.959961" x2="1521.959961" y2="1488.959961" stroke="red" stroke-width="6.660000" />
<circle cx="1494.959961" cy="1274.959961" r="19.980000" fill="red">
  <title>Mexico City</title>
</circle><line x1="1521.959961" y1="1488.959961" x2="1494.959961" y2="1274.959961" stroke="red" stroke-width="6.660000" />
<circle cx="1424.959961" cy="1211.959961" r="19.980000" fill="red">
  <title>Chongqing</title>
</circle><line x1="1494.959961" y1="1274.959961" x2="1424.959961" y2="1211.959961" stroke="red" stroke-width="6.660000" />
</svg>
