<?xml version="1.0" encoding="UTF-8" standalone="no"?>
<svg width="500" height="500" viewBox="0 0 2074.000000 2074.000000" xmlns="http://www.w3.org/2000/svg">
<rect x="19.000000" y="19.000000" width="2036.000000" height="2036.000000" fill="black" />
<circle cx="1015.960022" cy="111.959999" r="19.980000" fill="red">
  <title>Tokyo</title>
</circle><line x1="929.960022" y1="326.959991" x2="1015.960022" y2="111.959999" stroke="red" stroke-width="6.660000" />
<circle cx="1021.960022" cy="280.959991" r="19.980000" fill="red">
  <title>Delhi</title>
</circle><line x1="1015.960022" y1="111.959999" x2="1021.960022" y2="280.959991" stroke="red" stroke-width="6.660000" />
<circle cx="1527.959961" cy="1054.959961" r="19.980000" fill="red">
  <title>São Paulo</title>
</circle><line x1="1021.960022" y1="280.959991" x2="1527.959961" y2="1054.959961" stroke="red" stroke-width="6.660000" />
<circle cx="552.960022" cy="722.960022" r="19.980000" fill="red">
  <title>Beijing</title>
</circle><line x1="1527.959961" y1="1054.959961" x2="552.960022" y2="722.960022" stroke="red" stroke-width="6.660000" />
<circle cx="121.959999" cy="1125.959961" r="19.980000" fill="red">
  <title>Shanghai</title>
</circle><line x1="552.960022" y1="722.960022" x2="121.959999" y2="1125.959961" stroke="red" stroke-width="6.660000" />
<circle cx="185.959991" cy="933.960022" r="19.980000" fill="red">
  <title>Cairo</title>
</circle><line x1="121.959999" y1="1125.959961" x2="185.959991" y2="933.960022" stroke="red" stroke-width="6.660000" />
<circle cx="514.960022" cy="303.959991" r="19.980000" fill="red">
  <title>Mexico City</title>
</circle><line x1="185.959991" y1="933.960022" x2="514.960022" y2="303.959991" stroke="red" stroke-width="6.660000" />
<circle cx="929.960022" cy="326.959991" r="19.980000" fill="red">
  <title>Mumbai</title>
</circle><line x1="514.960022" y1="303.959991" x2="929.960022" y2="326.959991" stroke="red" stroke-width="6.660000" />
</svg>
