<?xml version="1.0" encoding="UTF-8" standalone="no"?>
<svg width="500" height="500" viewBox="0 0 2074.000000 2074.000000" xmlns="http://www.w3.org/2000/svg">
<rect x="19.000000" y="19.000000" width="2036.000000" height="2036.000000" fill="black" />
<circle cx="199.959991" cy="1427.959961" r="19.980000" fill="red">
  <title>Tokyo</title>
</circle><line x1="609.960022" y1="180.959991" x2="199.959991" y2="1427.959961" stroke="red" stroke-width="6.660000" />
<circle cx="1501.959961" cy="1628.959961" r="19.980000" fill="red">
  <title>Mexico City</title>
</circle><line x1="199.959991" y1="1427.959961" x2="1501.959961" y2="1628.959961" stroke="red" stroke-width="6.660000" />
<circle cx="1931.959961" cy="798.960022" r="19.980000" fill="red">
  <title>São Paulo</title>
</circle><line x1="1501.959961" y1="1628.959961" x2="1931.959961" y2="798.960022" stroke="red" stroke-width="6.660000" />
<circle cx="1773.959961" cy="700.960022" r="19.980000" fill="red">
  <title>Delhi</title>
</circle><line x1="1931.959961" y1="798.960022" x2="1773.959961" y2="700.960022" stroke="red" stroke-width="6.660000" />
<circle cx="1046.959961" cy="609.960022" r="19.980000" fill="red">
  <title>Shanghai</title>
</circle><line x1="1773.959961" y1="700.960022" x2="1046.959961" y2="609.960022" stroke="red" stroke-width="6.660000" />
<circle cx="609.960022" cy="180.959991" r="19.980000" fill="red">
  <title>Cairo</title>
</circle><line x1="1046.959961" y1="609.960022" x2="609.960022" y2="180.959991" stroke="red" stroke-width="6.660000" />
</svg>
