<?xml version="1.0" encoding="UTF-8" standalone="no"?>
<svg width="500" height="500" viewBox="0 0 2074.000000 2074.000000" xmlns="http://www.w3.org/2000/svg">
<rect x="19.000000" y="19.000000" width="2036.000000" height="2036.000000" fill="black" />
<circle cx="64.959999" cy="1414.959961" r="19.980000" fill="red">
  <title>Tokyo</title>
</circle><line x1="169.959991" y1="1073.959961" x2="64.959999" y2="1414.959961" stroke="red" stroke-width="6.660000" />
<circle cx="570.960022" cy="1879.959961" r="19.980000" fill="red">
  <title>Shanghai</title>
</circle><line x1="64.959999" y1="1414.959961" x2="570.960022" y2="1879.959961" stroke="red" stroke-width="6.660000" />
<circle cx="975.960022" cy="1897.959961" r="19.980000" fill="red">
  <title>Cairo</title>
</circle><line x1="570.960022" y1="1879.959961" x2="975.960022" y2="1897.959961" stroke="red" stroke-width="6.660000" />
<circle cx="1702.959961" cy="2026.959961" r="19.980000" fill="red">
  <title>São Paulo</title>
</circle><line x1="975.960022" y1="1897.959961" x2="1702.959961" y2="2026.959961" stroke="red" stroke-width="6.660000" />
<circle cx="2036.959961" cy="1866.959961" r="19.980000" fill="red">
  <title>Beijing</title>
</circle><line x1="1702.959961" y1="2026.959961" x2="2036.959961" y2="1866.959961" stroke="red" stroke-width="6.660000" />
<circle cx="1439.959961" cy="1476.959961" r="19.980000" fill="red">
  <title>Dhaka</title>
</circle><line x1="2036.959961" y1="1866.959961" x2="1439.959961" y2="1476.959961" stroke="red" stroke-width="6.660000" />
<circle cx="1162.959961" cy="1544.959961" r="19.980000" fill="red">
  <title>Delhi</title>
</circle><line x1="1439.959961" y1="1476.959961" x2="1162.959961" y2="1544.959961" stroke="red" stroke-width="6.660000" />
<circle cx="963.960022" cy="450.959991" r="19.980000" fill="red">
  <title>Mexico City</title>
</circle><line x1="1162.959961" y1="1544.959961" x2="963.960022" y2="450.959991" stroke="red" stroke-width="6.660000" />
<circle cx="50.959999" cy="322.959991" r="19.980000" fill="red">
  <title>Osaka</title>
</circle><line x1="963.960022" y1="450.959991" x2="50.959999" y2="322.959991" stroke="red" stroke-width="6.660000" />
<circle cx="169.959991" cy="1073.959961" r="19.980000" fill="red">
  <title>Mumbai</title>
</circle><line x1="50.959999" y1="322.959991" x2="169.959991" y2="1073.959961" stroke="red" stroke-width="6.660000" />
</svg>
