<?xml version="1.0" encoding="UTF-8" standalone="no"?>
<svg width="500" height="500" viewBox="0 0 2074.000000 2074.000000" xmlns="http://www.w3.org/2000/svg">
<rect x="19.000000" y="19.000000" width="2036.000000" height="2036.000000" fill="black" />
<circle cx="746.960022" cy="1922.959961" r="19.980000" fill="red">
  <title>Tokyo</title>
</circle><line x1="151.959991" y1="1114.959961" x2="746.960022" y2="1922.959961" stroke="red" stroke-width="6.660000" />
<circle cx="1265.959961" cy="1500.959961" r="19.980000" fill="red">
  <title>São Paulo</title>
</circle><line x1="746.960022" y1="1922.959961" x2="1265.959961" y2="1500.959961" stroke="red" stroke-width="6.660000" />
<circle cx="1435.959961" cy="1751.959961" r="19.980000" fill="red">
  <title>Delhi</title>
</circle><line x1="1265.959961" y1="1500.959961" x2="1435.959961" y2="1751.959961" stroke="red" stroke-width="6.660000" />
<circle cx="1738.959961" cy="1444.959961" r="19.980000" fill="red">
  <title>Cairo</title>
</circle><line x1="1435.959961" y1="1751.959961" x2="1738.959961" y2="1444.959961" stroke="red" stroke-width="6.660000" />
<circle cx="1911.959961" cy="772.960022" r="19.980000" fill="red">
  <title>Shanghai</title>
</circle><line x1="1738.959961" y1="1444.959961" x2="1911.959961" y2="772.960022" stroke="red" stroke-width="6.660000" />
<circle cx="1307.959961" cy="952.960022" r="19.980000" fill="red">
  <title>Beijing</title>
</circle><line x1="1911.959961" y1="772.960022" x2="1307.959961" y2="952.960022" stroke="red" stroke-width="6.660000" />
<circle cx="1096.959961" cy="155.959991" r="19.980000" fill="red">
  <title>Mexico City</title>
</circle><line x1="1307.959961" y1="952.960022" x2="1096.959961" y2="155.959991" stroke="red" stroke-width="6.660000" />
<circle cx="579.960022" cy="635.960022" r="19.980000" fill="red">
  <title>Osaka</title>
</circle><line x1="1096.959961" y1="155.959991" x2="579.960022" y2="635.960022" stroke="red" stroke-width="6.660000" />
<circle cx="673.960022" cy="990.960022" r="19.980000" fill="red">
  <title>Dhaka</title>
</circle><line x1="579.960022" y1="635.960022" x2="673.960022" y2="990.960022" stroke="red" stroke-width="6.660000" />
<circle cx="151.959991" cy="1114.959961" r="19.980000" fill="red">
  <title>Mumbai</title>
</circle><line x1="673.960022" y1="990.960022" x2="151.959991" y2="1114.959961" stroke="red" stroke-width="6.660000" />
</svg>
