<?xml version="1.0" encoding="UTF-8" standalone="no"?>
<svg width="500" height="500" viewBox="0 0 2074.000000 2074.000000" xmlns="http://www.w3.org/2000/svg">
<rect x="19.000000" y="19.000000" width="2036.000000" height="2036.000000" fill="black" />
<circle cx="1880.959961" cy="309.959991" r="19.980000" fill="red">
  <title>Tokyo</title>
</circle><line x1="1708.959961" y1="386.959991" x2="1880.959961" y2="309.959991" stroke="red" stroke-width="6.660000" />
<circle cx="1869.959961" cy="115.959999" r="19.980000" fill="red">
  <title>Cairo</title>
</circle><line x1="1880.959961" y1="309.959991" x2="1869.959961" y2="115.959999" stroke="red" stroke-width="6.660000" />
<circle cx="1435.959961" cy="179.959991" r="19.980000" fill="red">
  <title>New York</title>
</circle><line x1="1869.959961" y1="115.959999" x2="1435.959961" y2="179.959991" stroke="red" stroke-width="6.660000" />
<circle cx="816.960022" cy="260.959991" r="19.980000" fill="red">
  <title>Mumbai</title>
</circle><line x1="1435.959961" y1="179.959991" x2="816.960022" y2="260.959991" stroke="red" stroke-width="6.660000" />
<circle cx="1340.959961" cy="416.959991" r="19.980000" fill="red">
  <title>Dhaka</title>
</circle><line x1="816.960022" y1="260.959991" x2="1340.959961" y2="416.959991" stroke="red" stroke-width="6.660000" />
<circle cx="1244.959961" cy="1044.959961" r="19.980000" fill="red">
  <title>Karachi</title>
</circle><line x1="1340.959961" y1="416.959991" x2="1244.959961" y2="1044.959961" stroke="red" stroke-width="6.660000" />
<circle cx="998.960022" cy="1446.959961" r="19.980000" fill="red">
  <title>São Paulo</title>
</circle><line x1="1244.959961" y1="1044.959961" x2="998.960022" y2="1446.959961" stroke="red" stroke-width="6.660000" />
<circle cx="289.959991" cy="1757.959961" r="19.980000" fill="red">
  <title>Delhi</title>
</circle><line x1="998.960022" y1="1446.959961" x2="289.959991" y2="1757.959961" stroke="red" stroke-width="6.660000" />
<circle cx="738.960022" cy="1875.959961" r="19.980000" fill="red">
  <title>Buenos Aires</title>
</circle><line x1="289.959991" y1="1757.959961" x2="738.960022" y2="1875.959961" stroke="red" stroke-width="6.660000" />
<circle cx="918.960022" cy="1842.959961" r="19.980000" fill="red">
  <title>Chongqing</title>
</circle><line x1="738.960022" y1="1875.959961" x2="918.960022" y2="1842.959961" stroke="red" stroke-width="6.660000" />
<circle cx="1510.959961" cy="1538.959961" r="19.980000" fill="red">
  <title>Mexico City</title>
</circle><line x1="918.960022" y1="1842.959961" x2="1510.959961" y2="1538.959961" stroke="red" stroke-width="6.660000" />
<circle cx="1735.959961" cy="1716.959961" r="19.980000" fill="red">
  <title>Shanghai</title>
</circle><line x1="1510.959961" y1="1538.959961" x2="1735.959961" y2="1716.959961" stroke="red" stroke-width="6.660000" />
<circle cx="1563.959961" cy="1304.959961" r="19.980000" fill="red">
  <title>Osaka</title>
</circle><line x1="1735.959961" y1="1716.959961" x2="1563.959961" y2="1304.959961" stroke="red" stroke-width="6.660000" />
<circle cx="1708.959961" cy="386.959991" r="19.980000" fill="red">
  <title>Beijing</title>
</circle><line x1="1563.959961" y1="1304.959961" x2="1708.959961" y2="386.959991" stroke="red" stroke-width="6.660000" />
</svg>
