<?xml version="1.0" encoding="UTF-8" standalone="no"?>
<svg width="500" height="500" viewBox="0 0 2074.000000 2074.000000" xmlns="http://www.w3.org/2000/svg">
<rect x="19.000000" y="19.000000" width="2036.000000" height="2036.000000" fill="black" />
<circle cx="93.959999" cy="364.959991" r="19.980000" fill="red">
  <title>Tokyo</title>
</circle><line x1="565.960022" y1="362.959991" x2="93.959999" y2="364.959991" stroke="red" stroke-width="6.660000" />
<circle cx="343.959991" cy="1389.959961" r="19.980000" fill="red">
  <title>Shanghai</title>
</circle><line x1="93.959999" y1="364.959991" x2="343.959991" y2="1389.959961" stroke="red" stroke-width="6.660000" />
<circle cx="184.959991" cy="1506.959961" r="19.980000" fill="red">
  <title>Kolkata</title>
</circle><line x1="343.959991" y1="1389.959961" x2="184.959991" y2="1506.959961" stroke="red" stroke-width="6.660000" />
<circle cx="273.959991" cy="1682.959961" r="19.980000" fill="red">
  <title>Osaka</title>
</circle><line x1="184.959991" y1="1506.959961" x2="273.959991" y2="1682.959961" stroke="red" stroke-width="6.660000" />
<circle cx="181.959991" cy="1660.959961" r="19.980000" fill="red">
  <title>Buenos Aires</title>
</circle><line x1="273.959991" y1="1682.959961" x2="181.959991" y2="1660.959961" stroke="red" stroke-width="6.660000" />
<circle cx="69.959999" cy="1773.959961" r="19.980000" fill="red">
  <title>Karachi</title>
</circle><line x1="181.959991" y1="1660.959961" x2="69.959999" y2="1773.959961" stroke="red" stroke-width="6.660000" />
<circle cx="282.959991" cy="1843.959961" r="19.980000" fill="red">
  <title>Delhi</title>
</circle><line x1="69.959999" y1="1773.959961" x2="282.959991" y2="1843.959961" stroke="red" stroke-width="6.660000" />
<circle cx="876.960022" cy="1752.959961" r="19.980000" fill="red">
  <title>São Paulo</title>
</circle><line x1="282.959991" y1="1843.959961" x2="876.960022" y2="1752.959961" stroke="red" stroke-width="6.660000" />
<circle cx="1403.959961" cy="1907.959961" r="19.980000" fill="red">
  <title>New York</title>
</circle><line x1="876.960022" y1="1752.959961" x2="1403.959961" y2="1907.959961" stroke="red" stroke-width="6.660000" />
<circle cx="1766.959961" cy="2030.959961" r="19.980000" fill="red">
  <title>Mumbai</title>
</circle><line x1="1403.959961" y1="1907.959961" x2="1766.959961" y2="2030.959961" stroke="red" stroke-width="6.660000" />
<circle cx="1312.959961" cy="1640.959961" r="19.980000" fill="red">
  <title>Lagos</title>
</circle><line x1="1766.959961" y1="2030.959961" x2="1312.959961" y2="1640.959961" stroke="red" stroke-width="6.660000" />
<circle cx="1227.959961" cy="1546.959961" r="19.980000" fill="red">
  <title>Dhaka</title>
</circle><line x1="1312.959961" y1="1640.959961" x2="1227.959961" y2="1546.959961" stroke="red" stroke-width="6.660000" />
<circle cx="1123.959961" cy="1342.959961" r="19.980000" fill="red">
  <title>Cairo</title>
</circle><line x1="1227.959961" y1="1546.959961" x2="1123.959961" y2="1342.959961" stroke="red" stroke-width="6.660000" />
<circle cx="1452.959961" cy="1010.960022" r="19.980000" fill="red">
  <title>Istanbul</title>
</circle><line x1="1123.959961" y1="1342.959961" x2="1452.959961" y2="1010.960022" stroke="red" stroke-width="6.660000" />
<circle cx="1465.959961" cy="485.959991" r="19.980000" fill="red">
  <title>Beijing</title>
</circle><line x1="1452.959961" y1="1010.960022" x2="1465.959961" y2="485.959991" stroke="red" stroke-width="6.660000" />
<circle cx="1778.959961" cy="150.959991" r="19.980000" fill="red">
  <title>Rio de Janeiro</title>
</circle><line x1="1465.959961" y1="485.959991" x2="1778.959961" y2="150.959991" stroke="red" stroke-width="6.660000" />
<circle cx="1336.959961" cy="427.959991" r="19.980000" fill="red">
  <title>Manila</title>
</circle><line x1="1778.959961" y1="150.959991" x2="1336.959961" y2="427.959991" stroke="red" stroke-width="6.660000" />
<circle cx="718.960022" cy="241.959991" r="19.980000" fill="red">
  <title>Mexico City</title>
</circle><line x1="1336.959961" y1="427.959991" x2="718.960022" y2="241.959991" stroke="red" stroke-width="6.660000" />
<circle cx="565.960022" cy="362.959991" r="19.980000" fill="red">
  <title>Chongqing</title>
</circle><line x1="718.960022" y1="241.959991" x2="565.960022" y2="362.959991" stroke="red" stroke-width="6.660000" />
</svg>
