<?xml version="1.0" encoding="UTF-8" standalone="no"?>
<svg width="500" height="500" viewBox="0 0 2074.000000 2074.000000" xmlns="http://www.w3.org/2000/svg">
<rect x="19.000000" y="19.000000" width="2036.000000" height="2036.000000" fill="black" />
<circle cx="797.960022" cy="346.959991" r="19.980000" fill="red">
  <title>Tokyo</title>
</circle><line x1="123.959999" y1="978.960022" x2="797.960022" y2="346.959991" stroke="red" stroke-width="6.660000" />
<circle cx="919.960022" cy="236.959991" r="19.980000" fill="red">
  <title>Mexico City</title>
</circle><line x1="797.960022" y1="346.959991" x2="919.960022" y2="236.959991" stroke="red" stroke-width="6.660000" />
<circle cx="1581.959961" cy="175.959991" r="19.980000" fill="red">
  <title>Chongqing</title>
</circle><line x1="919.960022" y1="236.959991" x2="1581.959961" y2="175.959991" stroke="red" stroke-width="6.660000" />
<circle cx="1811.959961" cy="138.959991" r="19.980000" fill="red">
  <title>New York</title>
</circle><line x1="1581.959961" y1="175.959991" x2="1811.959961" y2="138.959991" stroke="red" stroke-width="6.660000" />
<circle cx="1728.959961" cy="291.959991" r="19.980000" fill="red">
  <title>Kolkata</title>
</circle><line x1="1811.959961" y1="138.959991" x2="1728.959961" y2="291.959991" stroke="red" stroke-width="6.660000" />
<circle cx="1650.959961" cy="397.959991" r="19.980000" fill="red">
  <title>Shanghai</title>
</circle><line x1="1728.959961" y1="291.959991" x2="1650.959961" y2="397.959991" stroke="red" stroke-width="6.660000" />
<circle cx="1531.959961" cy="725.960022" r="19.980000" fill="red">
  <title>Istanbul</title>
</circle><line x1="1650.959961" y1="397.959991" x2="1531.959961" y2="725.960022" stroke="red" stroke-width="6.660000" />
<circle cx="2023.959961" cy="829.960022" r="19.980000" fill="red">
  <title>Buenos Aires</title>
</circle><line x1="1531.959961" y1="725.960022" x2="2023.959961" y2="829.960022" stroke="red" stroke-width="6.660000" />
<circle cx="1922.959961" cy="985.960022" r="19.980000" fill="red">
  <title>Cairo</title>
</circle><line x1="2023.959961" y1="829.960022" x2="1922.959961" y2="985.960022" stroke="red" stroke-width="6.660000" />
<circle cx="1643.959961" cy="1871.959961" r="19.980000" fill="red">
  <title>Mumbai</title>
</circle><line x1="1922.959961" y1="985.960022" x2="1643.959961" y2="1871.959961" stroke="red" stroke-width="6.660000" />
<circle cx="1405.959961" cy="1757.959961" r="19.980000" fill="red">
  <title>São Paulo</title>
</circle><line x1="1643.959961" y1="1871.959961" x2="1405.959961" y2="1757.959961" stroke="red" stroke-width="6.660000" />
<circle cx="937.960022" cy="1901.959961" r="19.980000" fill="red">
  <title>Delhi</title>
</circle><line x1="1405.959961" y1="1757.959961" x2="937.960022" y2="1901.959961" stroke="red" stroke-width="6.660000" />
<circle cx="297.959991" cy="1947.959961" r="19.980000" fill="red">
  <title>Dhaka</title>
</circle><line x1="937.960022" y1="1901.959961" x2="297.959991" y2="1947.959961" stroke="red" stroke-width="6.660000" />
<circle cx="338.959991" cy="1621.959961" r="19.980000" fill="red">
  <title>Karachi</title>
</circle><line x1="297.959991" y1="1947.959961" x2="338.959991" y2="1621.959961" stroke="red" stroke-width="6.660000" />
<circle cx="309.959991" cy="1226.959961" r="19.980000" fill="red">
  <title>Osaka</title>
</circle><line x1="338.959991" y1="1621.959961" x2="309.959991" y2="1226.959961" stroke="red" stroke-width="6.660000" />
<circle cx="123.959999" cy="978.960022" r="19.980000" fill="red">
  <title>Beijing</title>
</circle><line x1="309.959991" y1="1226.959961" x2="123.959999" y2="978.960022" stroke="red" stroke-width="6.660000" />
</svg>
