<?xml version="1.0" encoding="UTF-8" standalone="no"?>
<svg width="500" height="500" viewBox="0 0 2074.000000 2074.000000" xmlns="http://www.w3.org/2000/svg">
<rect x="19.000000" y="19.000000" width="2036.000000" height="2036.000000" fill="black" />
<circle cx="1959.959961" cy="1522.959961" r="19.980000" fill="red">
  <title>Tokyo</title>
</circle><line x1="1754.959961" y1="1669.959961" x2="1959.959961" y2="1522.959961" stroke="red" stroke-width="6.660000" />
<circle cx="1840.959961" cy="966.960022" r="19.980000" fill="red">
  <title>Dhaka</title>
</circle><line x1="1959.959961" y1="1522.959961" x2="1840.959961" y2="966.960022" stroke="red" stroke-width="6.660000" />
<circle cx="1942.959961" cy="786.960022" r="19.980000" fill="red">
  <title>Beijing</title>
</circle><line x1="1840.959961" y1="966.960022" x2="1942.959961" y2="786.960022" stroke="red" stroke-width="6.660000" />
<circle cx="1136.959961" cy="204.959991" r="19.980000" fill="red">
  <title>Karachi</title>
</circle><line x1="1942.959961" y1="786.960022" x2="1136.959961" y2="204.959991" stroke="red" stroke-width="6.660000" />
<circle cx="181.959991" cy="100.959999" r="19.980000" fill="red">
  <title>New York</title>
</circle><line x1="1136.959961" y1="204.959991" x2="181.959991" y2="100.959999" stroke="red" stroke-width="6.660000" />
<circle cx="497.959991" cy="459.959991" r="19.980000" fill="red">
  <title>Mexico City</title>
</circle><line x1="181.959991" y1="100.959999" x2="497.959991" y2="459.959991" stroke="red" stroke-width="6.660000" />
<circle cx="383.959991" cy="1418.959961" r="19.980000" fill="red">
  <title>São Paulo</title>
</circle><line x1="497.959991" y1="459.959991" x2="383.959991" y2="1418.959961" stroke="red" stroke-width="6.660000" />
<circle cx="111.959999" cy="1813.959961" r="19.980000" fill="red">
  <title>Delhi</title>
</circle><line x1="383.959991" y1="1418.959961" x2="111.959999" y2="1813.959961" stroke="red" stroke-width="6.660000" />
<circle cx="270.959991" cy="1911.959961" r="19.980000" fill="red">
  <title>Osaka</title>
</circle><line x1="111.959999" y1="1813.959961" x2="270.959991" y2="1911.959961" stroke="red" stroke-width="6.660000" />
<circle cx="746.960022" cy="1956.959961" r="19.980000" fill="red">
  <title>Cairo</title>
</circle><line x1="270.959991" y1="1911.959961" x2="746.960022" y2="1956.959961" stroke="red" stroke-width="6.660000" />
<circle cx="881.960022" cy="1901.959961" r="19.980000" fill="red">
  <title>Shanghai</title>
</circle><line x1="746.960022" y1="1956.959961" x2="881.960022" y2="1901.959961" stroke="red" stroke-width="6.660000" />
<circle cx="1063.959961" cy="1281.959961" r="19.980000" fill="red">
  <title>Kolkata</title>
</circle><line x1="881.960022" y1="1901.959961" x2="1063.959961" y2="1281.959961" stroke="red" stroke-width="6.660000" />
<circle cx="1051.959961" cy="1103.959961" r="19.980000" fill="red">
  <title>Mumbai</title>
</circle><line x1="1063.959961" y1="1281.959961" x2="1051.959961" y2="1103.959961" stroke="red" stroke-width="6.660000" />
<circle cx="1359.959961" cy="1329.959961" r="19.980000" fill="red">
  <title>Istanbul</title>
</circle><line x1="1051.959961" y1="1103.959961" x2="1359.959961" y2="1329.959961" stroke="red" stroke-width="6.660000" />
<circle cx="1718.959961" cy="1591.959961" r="19.980000" fill="red">
  <title>Chongqing</title>
</circle><line x1="1359.959961" y1="1329.959961" x2="1718.959961" y2="1591.959961" stroke="red" stroke-width="6.660000" />
<circle cx="1754.959961" cy="1669.959961" r="19.980000" fill="red">
  <title>Buenos Aires</title>
</circle><line x1="1718.959961" y1="1591.959961" x2="1754.959961" y2="1669.959961" stroke="red" stroke-width="6.660000" />
</svg>
