<?xml version="1.0" encoding="UTF-8" standalone="no"?>
<svg width="500" height="500" viewBox="0 0 2074.000000 2074.000000" xmlns="http://www.w3.org/2000/svg">
<rect x="19.000000" y="19.000000" width="2036.000000" height="2036.000000" fill="black" />
<circle cx="780.960022" cy="1066.959961" r="19.980000" fill="red">
  <title>Tokyo</title>
</circle><line x1="446.959991" y1="951.960022" x2="780.960022" y2="1066.959961" stroke="red" stroke-width="6.660000" />
<circle cx="505.959991" cy="1629.959961" r="19.980000" fill="red">
  <title>Mumbai</title>
</circle><line x1="780.960022" y1="1066.959961" x2="505.959991" y2="1629.959961" stroke="red" stroke-width="6.660000" />
<circle cx="377.959991" cy="1978.959961" r="19.980000" fill="red">
  <title>Shanghai</title>
</circle><line x1="505.959991" y1="1629.959961" x2="377.959991" y2="1978.959961" stroke="red" stroke-width="6.660000" />
<circle cx="381.959991" cy="2004.959961" r="19.980000" fill="red">
  <title>New York</title>
</circle><line x1="377.959991" y1="1978.959961" x2="381.959991" y2="2004.959961" stroke="red" stroke-width="6.660000" />
<circle cx="1513.959961" cy="1968.959961" r="19.980000" fill="red">
  <title>Karachi</title>
</circle><line x1="381.959991" y1="2004.959961" x2="1513.959961" y2="1968.959961" stroke="red" stroke-width="6.660000" />
<circle cx="1963.959961" cy="1482.959961" r="19.980000" fill="red">
  <title>São Paulo</title>
</circle><line x1="1513.959961" y1="1968.959961" x2="1963.959961" y2="1482.959961" stroke="red" stroke-width="6.660000" />
<circle cx="1690.959961" cy="1403.959961" r="19.980000" fill="red">
  <title>Delhi</title>
</circle><line x1="1963.959961" y1="1482.959961" x2="1690.959961" y2="1403.959961" stroke="red" stroke-width="6.660000" />
<circle cx="1336.959961" cy="1394.959961" r="19.980000" fill="red">
  <title>Mexico City</title>
</circle><line x1="1690.959961" y1="1403.959961" x2="1336.959961" y2="1394.959961" stroke="red" stroke-width="6.660000" />
<circle cx="1605.959961" cy="688.960022" r="19.980000" fill="red">
  <title>Beijing</title>
</circle><line x1="1336.959961" y1="1394.959961" x2="1605.959961" y2="688.960022" stroke="red" stroke-width="6.660000" />
<circle cx="1311.959961" cy="378.959991" r="19.980000" fill="red">
  <title>Cairo</title>
</circle><line x1="1605.959961" y1="688.960022" x2="1311.959961" y2="378.959991" stroke="red" stroke-width="6.660000" />
<circle cx="674.960022" cy="598.960022" r="19.980000" fill="red">
  <title>Osaka</title>
</circle><line x1="1311.959961" y1="378.959991" x2="674.960022" y2="598.960022" stroke="red" stroke-width="6.660000" />
<circle cx="446.959991" cy="951.960022" r="19.980000" fill="red">
  <title>Dhaka</title>
</circle><line x1="674.960022" y1="598.960022" x2="446.959991" y2="951.960022" stroke="red" stroke-width="6.660000" />
</svg>
