<?xml version="1.0" encoding="UTF-8" standalone="no"?>
<svg width="500" height="500" viewBox="0 0 2074.000000 2074.000000" xmlns="http://www.w3.org/2000/svg">
<rect x="19.000000" y="19.000000" width="2036.000000" height="2036.000000" fill="black" />
<circle cx="945.960022" cy="332.959991" r="19.980000" fill="red">
  <title>Tokyo</title>
</circle><line x1="282.959991" y1="319.959991" x2="945.960022" y2="332.959991" stroke="red" stroke-width="6.660000" />
<circle cx="1126.959961" cy="638.960022" r="19.980000" fill="red">
  <title>Mexico City</title>
</circle><line x1="945.960022" y1="332.959991" x2="1126.959961" y2="638.960022" stroke="red" stroke-width="6.660000" />
<circle cx="728.960022" cy="785.960022" r="19.980000" fill="red">
  <title>Delhi</title>
</circle><line x1="1126.959961" y1="638.960022" x2="728.960022" y2="785.960022" stroke="red" stroke-width="6.660000" />
<circle cx="931.960022" cy="1051.959961" r="19.980000" fill="red">
  <title>Dhaka</title>
</circle><line x1="728.960022" y1="785.960022" x2="931.960022" y2="1051.959961" stroke="red" stroke-width="6.660000" />
<circle cx="1027.959961" cy="1417.959961" r="19.980000" fill="red">
  <title>Buenos Aires</title>
</circle><line x1="931.960022" y1="1051.959961" x2="1027.959961" y2="1417.959961" stroke="red" stroke-width="6.660000" />
<circle cx="1905.959961" cy="1174.959961" r="19.980000" fill="red">
  <title>Mumbai</title>
</circle><line x1="1027.959961" y1="1417.959961" x2="1905.959961" y2="1174.959961" stroke="red" stroke-width="6.660000" />
<circle cx="1918.959961" cy="1287.959961" r="19.980000" fill="red">
  <title>Osaka</title>
</circle><line x1="1905.959961" y1="1174.959961" x2="1918.959961" y2="1287.959961" stroke="red" stroke-width="6.660000" />
<circle cx="1968.959961" cy="1670.959961" r="19.980000" fill="red">
  <title>Karachi</title>
</circle><line x1="1918.959961" y1="1287.959961" x2="1968.959961" y2="1670.959961" stroke="red" stroke-width="6.660000" />
<circle cx="2036.959961" cy="1676.959961" r="19.980000" fill="red">
  <title>Manila</title>
</circle><line x1="1968.959961" y1="1670.959961" x2="2036.959961" y2="1676.959961" stroke="red" stroke-width="6.660000" />
<circle cx="2005.959961" cy="1932.959961" r="19.980000" fill="red">
  <title>Beijing</title>
</circle><line x1="2036.959961" y1="1676.959961" x2="2005.959961" y2="1932.959961" stroke="red" stroke-width="6.660000" />
<circle cx="1140.959961" cy="1969.959961" r="19.980000" fill="red">
  <title>São Paulo</title>
</circle><line x1="2005.959961" y1="1932.959961" x2="1140.959961" y2="1969.959961" stroke="red" stroke-width="6.660000" />
<circle cx="987.960022" cy="1534.959961" r="19.980000" fill="red">
  <title>Kolkata</title>
</circle><line x1="1140.959961" y1="1969.959961" x2="987.960022" y2="1534.959961" stroke="red" stroke-width="6.660000" />
<circle cx="628.960022" cy="1742.959961" r="19.980000" fill="red">
  <title>Istanbul</title>
</circle><line x1="987.960022" y1="1534.959961" x2="628.960022" y2="1742.959961" stroke="red" stroke-width="6.660000" />
<circle cx="495.959991" cy="1259.959961" r="19.980000" fill="red">
  <title>New York</title>
</circle><line x1="628.960022" y1="1742.959961" x2="495.959991" y2="1259.959961" stroke="red" stroke-width="6.660000" />
<circle cx="251.959991" cy="1179.959961" r="19.980000" fill="red">
  <title>Tianjin</title>
</circle><line x1="495.959991" y1="1259.959961" x2="251.959991" y2="1179.959961" stroke="red" stroke-width="6.660000" />
<circle cx="92.959999" cy="1383.959961" r="19.980000" fill="red">
  <title>Rio de Janeiro</title>
</circle><line x1="251.959991" y1="1179.959961" x2="92.959999" y2="1383.959961" stroke="red" stroke-width="6.660000" />
<circle cx="204.959991" cy="1054.959961" r="19.980000" fill="red">
  <title>Chongqing</title>
</circle><line x1="92.959999" y1="1383.959961" x2="204.959991" y2="1054.959961" stroke="red" stroke-width="6.660000" />
<circle cx="138.959991" cy="922.960022" r="19.980000" fill="red">
  <title>Cairo</title>
</circle><line x1="204.959991" y1="1054.959961" x2="138.959991" y2="922.960022" stroke="red" stroke-width="6.660000" />
<circle cx="321.959991" cy="453.959991" r="19.980000" fill="red">
  <title>Shanghai</title>
</circle><line x1="138.959991" y1="922.960022" x2="321.959991" y2="453.959991" stroke="red" stroke-width="6.660000" />
<circle cx="282.959991" cy="319.959991" r="19.980000" fill="red">
  <title>Lagos</title>
</circle><line x1="321.959991" y1="453.959991" x2="282.959991" y2="319.959991" stroke="red" stroke-width="6.660000" />
</svg>
