<?xml version="1.0" encoding="UTF-8" standalone="no"?>
<svg width="500" height="500" viewBox="0 0 2074.000000 2074.000000" xmlns="http://www.w3.org/2000/svg">
<rect x="19.000000" y="19.000000" width="2036.000000" height="2036.000000" fill="black" />
<circle cx="832.960022" cy="1186.959961" r="19.980000" fill="red">
  <title>Tokyo</title>
</circle><line x1="1446.959961" y1="1792.959961" x2="832.960022" y2="1186.959961" stroke="red" stroke-width="6.660000" />
<circle cx="1339.959961" cy="154.959991" r="19.980000" fill="red">
  <title>Delhi</title>
</circle><line x1="832.960022" y1="1186.959961" x2="1339.959961" y2="154.959991" stroke="red" stroke-width="6.660000" />
<circle cx="1773.959961" cy="993.960022" r="19.980000" fill="red">
  <title>Shanghai</title>
</circle><line x1="1339.959961" y1="154.959991" x2="1773.959961" y2="993.960022" stroke="red" stroke-width="6.660000" />
<circle cx="1446.959961" cy="1792.959961" r="19.980000" fill="red">
  <title>São Paulo</title>
</circle><line x1="1773.959961" y1="993.960022" x2="1446.959961" y2="1792.959961" stroke="red" stroke-width="6.660000" />
</svg>
