<?xml version="1.0" encoding="UTF-8" standalone="no"?>
<svg width="500" height="500" viewBox="0 0 2074.000000 2074.000000" xmlns="http://www.w3.org/2000/svg">
<rect x="19.000000" y="19.000000" width="2036.000000" height="2036.000000" fill="black" />
<circle cx="1104.959961" cy="45.959999" r="19.980000" fill="red">
  <title>Tokyo</title>
</circle><line x1="358.959991" y1="724.960022" x2="1104.959961" y2="45.959999" stroke="red" stroke-width="6.660000" />
<circle cx="1264.959961" cy="611.960022" r="19.980000" fill="red">
  <title>Delhi</title>
</circle><line x1="1104.959961" y1="45.959999" x2="1264.959961" y2="611.960022" stroke="red" stroke-width="6.660000" />
<circle cx="1487.959961" cy="721.960022" r="19.980000" fill="red">
  <title>Beijing</title>
</circle><line x1="1264.959961" y1="611.960022" x2="1487.959961" y2="721.960022" stroke="red" stroke-width="6.660000" />
<circle cx="1978.959961" cy="255.959991" r="19.980000" fill="red">
  <title>Mexico City</title>
</circle><line x1="1487.959961" y1="721.960022" x2="1978.959961" y2="255.959991" stroke="red" stroke-width="6.660000" />
<circle cx="1642.959961" cy="977.960022" r="19.980000" fill="red">
  <title>Shanghai</title>
</circle><line x1="1978.959961" y1="255.959991" x2="1642.959961" y2="977.960022" stroke="red" stroke-width="6.660000" />
<circle cx="1913.959961" cy="1505.959961" r="19.980000" fill="red">
  <title>Mumbai</title>
</circle><line x1="1642.959961" y1="977.960022" x2="1913.959961" y2="1505.959961" stroke="red" stroke-width="6.660000" />
<circle cx="1885.959961" cy="1845.959961" r="19.980000" fill="red">
  <title>São Paulo</title>
</circle><line x1="1913.959961" y1="1505.959961" x2="1885.959961" y2="1845.959961" stroke="red" stroke-width="6.660000" />
<circle cx="142.959991" cy="1644.959961" r="19.980000" fill="red">
  <title>Dhaka</title>
</circle><line x1="1885.959961" y1="1845.959961" x2="142.959991" y2="1644.959961" stroke="red" stroke-width="6.660000" />
<circle cx="358.959991" cy="724.960022" r="19.980000" fill="red">
  <title>Cairo</title>
</circle><line x1="142.959991" y1="1644.959961" x2="358.959991" y2="724.960022" stroke="red" stroke-width="6.660000" />
</svg>
