<?xml version="1.0" encoding="UTF-8" standalone="no"?>
<svg width="500" height="500" viewBox="0 0 2074.000000 2074.000000" xmlns="http://www.w3.org/2000/svg">
<rect x="19.000000" y="19.000000" width="2036.000000" height="2036.000000" fill="black" />
<circle cx="476.959991" cy="1357.959961" r="19.980000" fill="red">
  <title>Tokyo</title>
</circle><line x1="510.959991" y1="1588.959961" x2="476.959991" y2="1357.959961" stroke="red" stroke-width="6.660000" />
<circle cx="174.959991" cy="1043.959961" r="19.980000" fill="red">
  <title>Mexico City</title>
</circle><line x1="476.959991" y1="1357.959961" x2="174.959991" y2="1043.959961" stroke="red" stroke-width="6.660000" />
<circle cx="454.959991" cy="743.960022" r="19.980000" fill="red">
  <title>Chongqing</title>
</circle><line x1="174.959991" y1="1043.959961" x2="454.959991" y2="743.960022" stroke="red" stroke-width="6.660000" />
<circle cx="857.960022" cy="966.960022" r="19.980000" fill="red">
  <title>Delhi</title>
</circle><line x1="454.959991" y1="743.960022" x2="857.960022" y2="966.960022" stroke="red" stroke-width="6.660000" />
<circle cx="1463.959961" cy="495.959991" r="19.980000" fill="red">
  <title>New York</title>
</circle><line x1="857.960022" y1="966.960022" x2="1463.959961" y2="495.959991" stroke="red" stroke-width="6.660000" />
<circle cx="1939.959961" cy="865.960022" r="19.980000" fill="red">
  <title>Osaka</title>
</circle><line x1="1463.959961" y1="495.959991" x2="1939.959961" y2="865.960022" stroke="red" stroke-width="6.660000" />
<circle cx="2004.959961" cy="1290.959961" r="19.980000" fill="red">
  <title>Buenos Aires</title>
</circle><line x1="1939.959961" y1="865.960022" x2="2004.959961" y2="1290.959961" stroke="red" stroke-width="6.660000" />
<circle cx="1462.959961" cy="1120.959961" r="19.980000" fill="red">
  <title>Dhaka</title>
</circle><line x1="2004.959961" y1="1290.959961" x2="1462.959961" y2="1120.959961" stroke="red" stroke-width="6.660000" />
<circle cx="1342.959961" cy="1253.959961" r="19.980000" fill="red">
  <title>Cairo</title>
</circle><line x1="1462.959961" y1="1120.959961" x2="1342.959961" y2="1253.959961" stroke="red" stroke-width="6.660000" />
<circle cx="1255.959961" cy="1728.959961" r="19.980000" fill="red">
  <title>Mumbai</title>
</circle><line x1="1342.959961" y1="1253.959961" x2="1255.959961" y2="1728.959961" stroke="red" stroke-width="6.660000" />
<circle cx="1177.959961" cy="1738.959961" r="19.980000" fill="red">
  <title>São Paulo</title>
</circle><line x1="1255.959961" y1="1728.959961" x2="1177.959961" y2="1738.959961" stroke="red" stroke-width="6.660000" />
<circle cx="706.960022" cy="1690.959961" r="19.980000" fill="red">
  <title>Shanghai</title>
</circle><line x1="1177.959961" y1="1738.959961" x2="706.960022" y2="1690.959961" stroke="red" stroke-width="6.660000" />
<circle cx="360.959991" cy="1872.959961" r="19.980000" fill="red">
  <title>Beijing</title>
</circle><line x1="706.960022" y1="1690.959961" x2="360.959991" y2="1872.959961" stroke="red" stroke-width="6.660000" />
<circle cx="510.959991" cy="1588.959961" r="19.980000" fill="red">
  <title>Karachi</title>
</circle><line x1="360.959991" y1="1872.959961" x2="510.959991" y2="1588.959961" stroke="red" stroke-width="6.660000" />
</svg>
