<?xml version="1.0" encoding="UTF-8" standalone="no"?>
<svg width="500" height="500" viewBox="0 0 2074.000000 2074.000000" xmlns="http://www.w3.org/2000/svg">
<rect x="19.000000" y="19.000000" width="2036.000000" height="2036.000000" fill="black" />
<circle cx="2007.959961" cy="1784.959961" r="19.980000" fill="red">
  <title>Tokyo</title>
</circle><line x1="42.959999" y1="1480.959961" x2="2007.959961" y2="1784.959961" stroke="red" stroke-width="6.660000" />
<circle cx="80.959999" cy="655.960022" r="19.980000" fill="red">
  <title>Delhi</title>
</circle><line x1="2007.959961" y1="1784.959961" x2="80.959999" y2="655.960022" stroke="red" stroke-width="6.660000" />
<circle cx="42.959999" cy="1480.959961" r="19.980000" fill="red">
  <title>Shanghai</title>
</circle><line x1="80.959999" y1="655.960022" x2="42.959999" y2="1480.959961" stroke="red" stroke-width="6.660000" />
</svg>
