<?xml version="1.0" encoding="UTF-8" standalone="no"?>
<svg width="500" height="500" viewBox="0 0 2074.000000 2074.000000" xmlns="http://www.w3.org/2000/svg">
<rect x="19.000000" y="19.000000" width="2036.000000" height="2036.000000" fill="black" />
<circle cx="1492.959961" cy="1036.959961" r="19.980000" fill="red">
  <title>Tokyo</title>
</circle><line x1="1361.959961" y1="1615.959961" x2="1492.959961" y2="1036.959961" stroke="red" stroke-width="6.660000" />
<circle cx="1886.959961" cy="984.960022" r="19.980000" fill="red">
  <title>Mexico City</title>
</circle><line x1="1492.959961" y1="1036.959961" x2="1886.959961" y2="984.960022" stroke="red" stroke-width="6.660000" />
<circle cx="1747.959961" cy="381.959991" r="19.980000" fill="red">
  <title>Mumbai</title>
</circle><line x1="1886.959961" y1="984.960022" x2="1747.959961" y2="381.959991" stroke="red" stroke-width="6.660000" />
<circle cx="1551.959961" cy="154.959991" r="19.980000" fill="red">
  <title>Delhi</title>
</circle><line x1="1747.959961" y1="381.959991" x2="1551.959961" y2="154.959991" stroke="red" stroke-width="6.660000" />
<circle cx="1387.959961" cy="677.960022" r="19.980000" fill="red">
  <title>Osaka</title>
</circle><line x1="1551.959961" y1="154.959991" x2="1387.959961" y2="677.960022" stroke="red" stroke-width="6.660000" />
<circle cx="1383.959961" cy="688.960022" r="19.980000" fill="red">
  <title>Dhaka</title>
</circle><line x1="1387.959961" y1="677.960022" x2="1383.959961" y2="688.960022" stroke="red" stroke-width="6.660000" />
<circle cx="847.960022" cy="1054.959961" r="19.980000" fill="red">
  <title>Cairo</title>
</circle><line x1="1383.959961" y1="688.960022" x2="847.960022" y2="1054.959961" stroke="red" stroke-width="6.660000" />
<circle cx="595.960022" cy="1812.959961" r="19.980000" fill="red">
  <title>São Paulo</title>
</circle><line x1="847.960022" y1="1054.959961" x2="595.960022" y2="1812.959961" stroke="red" stroke-width="6.660000" />
<circle cx="1115.959961" cy="1529.959961" r="19.980000" fill="red">
  <title>Shanghai</title>
</circle><line x1="595.960022" y1="1812.959961" x2="1115.959961" y2="1529.959961" stroke="red" stroke-width="6.660000" />
<circle cx="1361.959961" cy="1615.959961" r="19.980000" fill="red">
  <title>Beijing</title>
</circle><line x1="1115.959961" y1="1529.959961" x2="1361.959961" y2="1615.959961" stroke="red" stroke-width="6.660000" />
</svg>
