<?xml version="1.0" encoding="UTF-8" standalone="no"?>
<svg width="500" height="500" viewBox="0 0 2074.000000 2074.000000" xmlns="http://www.w3.org/2000/svg">
<rect x="19.000000" y="19.000000" width="2036.000000" height="2036.000000" fill="black" />
<circle cx="1043.959961" cy="118.959999" r="19.980000" fill="red">
  <title>Tokyo</title>
</circle><line x1="1784.959961" y1="465.959991" x2="1043.959961" y2="118.959999" stroke="red" stroke-width="6.660000" />
<circle cx="1025.959961" cy="40.959999" r="19.980000" fill="red">
  <title>Mexico City</title>
</circle><line x1="1043.959961" y1="118.959999" x2="1025.959961" y2="40.959999" stroke="red" stroke-width="6.660000" />
<circle cx="876.960022" cy="609.960022" r="19.980000" fill="red">
  <title>Mumbai</title>
</circle><line x1="1025.959961" y1="40.959999" x2="876.960022" y2="609.960022" stroke="red" stroke-width="6.660000" />
<circle cx="262.959991" cy="685.960022" r="19.980000" fill="red">
  <title>Cairo</title>
</circle><line x1="876.960022" y1="609.960022" x2="262.959991" y2="685.960022" stroke="red" stroke-width="6.660000" />
<circle cx="479.959991" cy="788.960022" r="19.980000" fill="red">
  <title>Osaka</title>
</circle><line x1="262.959991" y1="685.960022" x2="479.959991" y2="788.960022" stroke="red" stroke-width="6.660000" />
<circle cx="585.960022" cy="1321.959961" r="19.980000" fill="red">
  <title>Buenos Aires</title>
</circle><line x1="479.959991" y1="788.960022" x2="585.960022" y2="1321.959961" stroke="red" stroke-width="6.660000" />
<circle cx="702.960022" cy="1655.959961" r="19.980000" fill="red">
  <title>New York</title>
</circle><line x1="585.960022" y1="1321.959961" x2="702.960022" y2="1655.959961" stroke="red" stroke-width="6.660000" />
<circle cx="893.960022" cy="1889.959961" r="19.980000" fill="red">
  <title>São Paulo</title>
</circle><line x1="702.960022" y1="1655.959961" x2="893.960022" y2="1889.959961" stroke="red" stroke-width="6.660000" />
<circle cx="1057.959961" cy="1766.959961" r="19.980000" fill="red">
  <title>Shanghai</title>
</circle><line x1="893.960022" y1="1889.959961" x2="1057.959961" y2="1766.959961" stroke="red" stroke-width="6.660000" />
<circle cx="971.960022" cy="1540.959961" r="19.980000" fill="red">
  <title>Dhaka</title>
</circle><line x1="1057.959961" y1="1766.959961" x2="971.960022" y2="1540.959961" stroke="red" stroke-width="6.660000" />
<circle cx="983.960022" cy="1184.959961" r="19.980000" fill="red">
  <title>Karachi</title>
</circle><line x1="971.960022" y1="1540.959961" x2="983.960022" y2="1184.959961" stroke="red" stroke-width="6.660000" />
<circle cx="1529.959961" cy="894.960022" r="19.980000" fill="red">
  <title>Chongqing</title>
</circle><line x1="983.960022" y1="1184.959961" x2="1529.959961" y2="894.960022" stroke="red" stroke-width="6.660000" />
<circle cx="1667.959961" cy="855.960022" r="19.980000" fill="red">
  <title>Delhi</title>
</circle><line x1="1529.959961" y1="894.960022" x2="1667.959961" y2="855.960022" stroke="red" stroke-width="6.660000" />
<circle cx="1784.959961" cy="465.959991" r="19.980000" fill="red">
  <title>Beijing</title>
</circle><line x1="1667.959961" y1="855.960022" x2="1784.959961" y2="465.959991" stroke="red" stroke-width="6.660000" />
</svg>
