<?xml version="1.0" encoding="UTF-8" standalone="no"?>
<svg width="500" height="500" viewBox="0 0 2074.000000 2074.000000" xmlns="http://www.w3.org/2000/svg">
<rect x="19.000000" y="19.000000" width="2036.000000" height="2036.000000" fill="black" />
<circle cx="1054.959961" cy="1827.959961" r="19.980000" fill="red">
  <title>Tokyo</title>
</circle><line x1="705.960022" y1="1983.959961" x2="1054.959961" y2="1827.959961" stroke="red" stroke-width="6.660000" />
<circle cx="1271.959961" cy="1991.959961" r="19.980000" fill="red">
  <title>Shanghai</title>
</circle><line x1="1054.959961" y1="1827.959961" x2="1271.959961" y2="1991.959961" stroke="red" stroke-width="6.660000" />
<circle cx="1309.959961" cy="1761.959961" r="19.980000" fill="red">
  <title>Chongqing</title>
</circle><line x1="1271.959961" y1="1991.959961" x2="1309.959961" y2="1761.959961" stroke="red" stroke-width="6.660000" />
<circle cx="1655.959961" cy="1720.959961" r="19.980000" fill="red">
  <title>Kolkata</title>
</circle><line x1="1309.959961" y1="1761.959961" x2="1655.959961" y2="1720.959961" stroke="red" stroke-width="6.660000" />
<circle cx="1754.959961" cy="1564.959961" r="19.980000" fill="red">
  <title>Beijing</title>
</circle><line x1="1655.959961" y1="1720.959961" x2="1754.959961" y2="1564.959961" stroke="red" stroke-width="6.660000" />
<circle cx="1972.959961" cy="1006.960022" r="19.980000" fill="red">
  <title>Lagos</title>
</circle><line x1="1754.959961" y1="1564.959961" x2="1972.959961" y2="1006.960022" stroke="red" stroke-width="6.660000" />
<circle cx="1979.959961" cy="154.959991" r="19.980000" fill="red">
  <title>São Paulo</title>
</circle><line x1="1972.959961" y1="1006.960022" x2="1979.959961" y2="154.959991" stroke="red" stroke-width="6.660000" />
<circle cx="1773.959961" cy="264.959991" r="19.980000" fill="red">
  <title>Manila</title>
</circle><line x1="1979.959961" y1="154.959991" x2="1773.959961" y2="264.959991" stroke="red" stroke-width="6.660000" />
<circle cx="1529.959961" cy="890.960022" r="19.980000" fill="red">
  <title>Karachi</title>
</circle><line x1="1773.959961" y1="264.959991" x2="1529.959961" y2="890.960022" stroke="red" stroke-width="6.660000" />
<circle cx="1472.959961" cy="813.960022" r="19.980000" fill="red">
  <title>New York</title>
</circle><line x1="1529.959961" y1="890.960022" x2="1472.959961" y2="813.960022" stroke="red" stroke-width="6.660000" />
<circle cx="1186.959961" cy="624.960022" r="19.980000" fill="red">
  <title>Buenos Aires</title>
</circle><line x1="1472.959961" y1="813.960022" x2="1186.959961" y2="624.960022" stroke="red" stroke-width="6.660000" />
<circle cx="1122.959961" cy="1094.959961" r="19.980000" fill="red">
  <title>Tianjin</title>
</circle><line x1="1186.959961" y1="624.960022" x2="1122.959961" y2="1094.959961" stroke="red" stroke-width="6.660000" />
<circle cx="945.960022" cy="1071.959961" r="19.980000" fill="red">
  <title>Mumbai</title>
</circle><line x1="1122.959961" y1="1094.959961" x2="945.960022" y2="1071.959961" stroke="red" stroke-width="6.660000" />
<circle cx="915.960022" cy="709.960022" r="19.980000" fill="red">
  <title>Mexico City</title>
</circle><line x1="945.960022" y1="1071.959961" x2="915.960022" y2="709.960022" stroke="red" stroke-width="6.660000" />
<circle cx="646.960022" cy="290.959991" r="19.980000" fill="red">
  <title>Delhi</title>
</circle><line x1="915.960022" y1="709.960022" x2="646.960022" y2="290.959991" stroke="red" stroke-width="6.660000" />
<circle cx="503.959991" cy="366.959991" r="19.980000" fill="red">
  <title>Cairo</title>
</circle><line x1="646.960022" y1="290.959991" x2="503.959991" y2="366.959991" stroke="red" stroke-width="6.660000" />
<circle cx="51.959999" cy="1274.959961" r="19.980000" fill="red">
  <title>Dhaka</title>
</circle><line x1="503.959991" y1="366.959991" x2="51.959999" y2="1274.959961" stroke="red" stroke-width="6.660000" />
<circle cx="325.959991" cy="1642.959961" r="19.980000" fill="red">
  <title>Osaka</title>
</circle><line x1="51.959999" y1="1274.959961" x2="325.959991" y2="1642.959961" stroke="red" stroke-width="6.660000" />
<circle cx="217.959991" cy="1913.959961" r="19.980000" fill="red">
  <title>Rio de Janeiro</title>
</circle><line x1="325.959991" y1="1642.959961" x2="217.959991" y2="1913.959961" stroke="red" stroke-width="6.660000" />
<circle cx="705.960022" cy="1983.959961" r="19.980000" fill="red">
  <title>Istanbul</title>
</circle><line x1="217.959991" y1="1913.959961" x2="705.960022" y2="1983.959961" stroke="red" stroke-width="6.660000" />
</svg>
