<?xml version="1.0" encoding="UTF-8" standalone="no"?>
<svg width="500" height="500" viewBox="0 0 2074.000000 2074.000000" xmlns="http://www.w3.org/2000/svg">
<rect x="19.000000" y="19.000000" width="2036.000000" height="2036.000000" fill="black" />
<circle cx="1910.959961" cy="1111.959961" r="19.980000" fill="red">
  <title>Tokyo</title>
</circle><line x1="1787.959961" y1="919.960022" x2="1910.959961" y2="1111.959961" stroke="red" stroke-width="6.660000" />
<circle cx="1573.959961" cy="1110.959961" r="19.980000" fill="red">
  <title>Mexico City</title>
</circle><line x1="1910.959961" y1="1111.959961" x2="1573.959961" y2="1110.959961" stroke="red" stroke-width="6.660000" />
<circle cx="1465.959961" cy="1184.959961" r="19.980000" fill="red">
  <title>São Paulo</title>
</circle><line x1="1573.959961" y1="1110.959961" x2="1465.959961" y2="1184.959961" stroke="red" stroke-width="6.660000" />
<circle cx="1322.959961" cy="1688.959961" r="19.980000" fill="red">
  <title>Osaka</title>
</circle><line x1="1465.959961" y1="1184.959961" x2="1322.959961" y2="1688.959961" stroke="red" stroke-width="6.660000" />
<circle cx="795.960022" cy="1892.959961" r="19.980000" fill="red">
  <title>Mumbai</title>
</circle><line x1="1322.959961" y1="1688.959961" x2="795.960022" y2="1892.959961" stroke="red" stroke-width="6.660000" />
<circle cx="377.959991" cy="1899.959961" r="19.980000" fill="red">
  <title>Dhaka</title>
</circle><line x1="795.960022" y1="1892.959961" x2="377.959991" y2="1899.959961" stroke="red" stroke-width="6.660000" />
<circle cx="457.959991" cy="1719.959961" r="19.980000" fill="red">
  <title>Beijing</title>
</circle><line x1="377.959991" y1="1899.959961" x2="457.959991" y2="1719.959961" stroke="red" stroke-width="6.660000" />
<circle cx="912.960022" cy="968.960022" r="19.980000" fill="red">
  <title>Karachi</title>
</circle><line x1="457.959991" y1="1719.959961" x2="912.960022" y2="968.960022" stroke="red" stroke-width="6.660000" />
<circle cx="636.960022" cy="388.959991" r="19.980000" fill="red">
  <title>Delhi</title>
</circle><line x1="912.960022" y1="968.960022" x2="636.960022" y2="388.959991" stroke="red" stroke-width="6.660000" />
<circle cx="1325.959961" cy="620.960022" r="19.980000" fill="red">
  <title>Buenos Aires</title>
</circle><line x1="636.960022" y1="388.959991" x2="1325.959961" y2="620.960022" stroke="red" stroke-width="6.660000" />
<circle cx="1305.959961" cy="344.959991" r="19.980000" fill="red">
  <title>Shanghai</title>
</circle><line x1="1325.959961" y1="620.960022" x2="1305.959961" y2="344.959991" stroke="red" stroke-width="6.660000" />
<circle cx="1526.959961" cy="144.959991" r="19.980000" fill="red">
  <title>New York</title>
</circle><line x1="1305.959961" y1="344.959991" x2="1526.959961" y2="144.959991" stroke="red" stroke-width="6.660000" />
<circle cx="1742.959961" cy="455.959991" r="19.980000" fill="red">
  <title>Cairo</title>
</circle><line x1="1526.959961" y1="144.959991" x2="1742.959961" y2="455.959991" stroke="red" stroke-width="6.660000" />
<circle cx="1787.959961" cy="919.960022" r="19.980000" fill="red">
  <title>Chongqing</title>
</circle><line x1="1742.959961" y1="455.959991" x2="1787.959961" y2="919.960022" stroke="red" stroke-width="6.660000" />
</svg>
