<?xml version="1.0" encoding="UTF-8" standalone="no"?>
<svg width="500" height="500" viewBox="0 0 2074.000000 2074.000000" xmlns="http://www.w3.org/2000/svg">
<rect x="19.000000" y="19.000000" width="2036.000000" height="2036.000000" fill="black" />
<circle cx="1600.959961" cy="1370.959961" r="19.980000" fill="red">
  <title>Tokyo</title>
</circle><line x1="1619.959961" y1="1116.959961" x2="1600.959961" y2="1370.959961" stroke="red" stroke-width="6.660000" />
<circle cx="1861.959961" cy="1389.959961" r="19.980000" fill="red">
  <title>Delhi</title>
</circle><line x1="1600.959961" y1="1370.959961" x2="1861.959961" y2="1389.959961" stroke="red" stroke-width="6.660000" />
<circle cx="1631.959961" cy="1419.959961" r="19.980000" fill="red">
  <title>Osaka</title>
</circle><line x1="1861.959961" y1="1389.959961" x2="1631.959961" y2="1419.959961" stroke="red" stroke-width="6.660000" />
<circle cx="1483.959961" cy="1613.959961" r="19.980000" fill="red">
  <title>Mumbai</title>
</circle><line x1="1631.959961" y1="1419.959961" x2="1483.959961" y2="1613.959961" stroke="red" stroke-width="6.660000" />
<circle cx="762.960022" cy="1783.959961" r="19.980000" fill="red">
  <title>Kolkata</title>
</circle><line x1="1483.959961" y1="1613.959961" x2="762.960022" y2="1783.959961" stroke="red" stroke-width="6.660000" />
<circle cx="764.960022" cy="1543.959961" r="19.980000" fill="red">
  <title>Dhaka</title>
</circle><line x1="762.960022" y1="1783.959961" x2="764.960022" y2="1543.959961" stroke="red" stroke-width="6.660000" />
<circle cx="221.959991" cy="1284.959961" r="19.980000" fill="red">
  <title>Istanbul</title>
</circle><line x1="764.960022" y1="1543.959961" x2="221.959991" y2="1284.959961" stroke="red" stroke-width="6.660000" />
<circle cx="509.959991" cy="1052.959961" r="19.980000" fill="red">
  <title>Beijing</title>
</circle><line x1="221.959991" y1="1284.959961" x2="509.959991" y2="1052.959961" stroke="red" stroke-width="6.660000" />
<circle cx="399.959991" cy="683.960022" r="19.980000" fill="red">
  <title>Karachi</title>
</circle><line x1="509.959991" y1="1052.959961" x2="399.959991" y2="683.960022" stroke="red" stroke-width="6.660000" />
<circle cx="150.959991" cy="566.960022" r="19.980000" fill="red">
  <title>Buenos Aires</title>
</circle><line x1="399.959991" y1="683.960022" x2="150.959991" y2="566.960022" stroke="red" stroke-width="6.660000" />
<circle cx="458.959991" cy="457.959991" r="19.980000" fill="red">
  <title>New York</title>
</circle><line x1="150.959991" y1="566.960022" x2="458.959991" y2="457.959991" stroke="red" stroke-width="6.660000" />
<circle cx="617.960022" cy="585.960022" r="19.980000" fill="red">
  <title>Manila</title>
</circle><line x1="458.959991" y1="457.959991" x2="617.960022" y2="585.960022" stroke="red" stroke-width="6.660000" />
<circle cx="859.960022" cy="346.959991" r="19.980000" fill="red">
  <title>Mexico City</title>
</circle><line x1="617.960022" y1="585.960022" x2="859.960022" y2="346.959991" stroke="red" stroke-width="6.660000" />
<circle cx="1135.959961" cy="522.960022" r="19.980000" fill="red">
  <title>Lagos</title>
</circle><line x1="859.960022" y1="346.959991" x2="1135.959961" y2="522.960022" stroke="red" stroke-width="6.660000" />
<circle cx="1771.959961" cy="276.959991" r="19.980000" fill="red">
  <title>Cairo</title>
</circle><line x1="1135.959961" y1="522.960022" x2="1771.959961" y2="276.959991" stroke="red" stroke-width="6.660000" />
<circle cx="2019.959961" cy="306.959991" r="19.980000" fill="red">
  <title>São Paulo</title>
</circle><line x1="1771.959961" y1="276.959991" x2="2019.959961" y2="306.959991" stroke="red" stroke-width="6.660000" />
<circle cx="1846.959961" cy="908.960022" r="19.980000" fill="red">
  <title>Chongqing</title>
</circle><line x1="2019.959961" y1="306.959991" x2="1846.959961" y2="908.960022" stroke="red" stroke-width="6.660000" />
<circle cx="1942.959961" cy="1072.959961" r="19.980000" fill="red">
  <title>Shanghai</title>
</circle><line x1="1846.959961" y1="908.960022" x2="1942.959961" y2="1072.959961" stroke="red" stroke-width="6.660000" />
<circle cx="1619.959961" cy="1116.959961" r="19.980000" fill="red">
  <title>Rio de Janeiro</title>
</circle><line x1="1942.959961" y1="1072.959961" x2="1619.959961" y2="1116.959961" stroke="red" stroke-width="6.660000" />
</svg>
