<?xml version="1.0" encoding="UTF-8" standalone="no"?>
<svg width="500" height="500" viewBox="0 0 2074.000000 2074.000000" xmlns="http://www.w3.org/2000/svg">
<rect x="19.000000" y="19.000000" width="2036.000000" height="2036.000000" fill="black" />
<circle cx="216.959991" cy="1392.959961" r="19.980000" fill="red">
  <title>Tokyo</title>
</circle><line x1="395.959991" y1="1335.959961" x2="216.959991" y2="1392.959961" stroke="red" stroke-width="6.660000" />
<circle cx="202.959991" cy="1289.959961" r="19.980000" fill="red">
  <title>Mexico City</title>
</circle><line x1="216.959991" y1="1392.959961" x2="202.959991" y2="1289.959961" stroke="red" stroke-width="6.660000" />
<circle cx="1280.959961" cy="241.959991" r="19.980000" fill="red">
  <title>Cairo</title>
</circle><line x1="202.959991" y1="1289.959961" x2="1280.959961" y2="241.959991" stroke="red" stroke-width="6.660000" />
<circle cx="2029.959961" cy="141.959991" r="19.980000" fill="red">
  <title>Delhi</title>
</circle><line x1="1280.959961" y1="241.959991" x2="2029.959961" y2="141.959991" stroke="red" stroke-width="6.660000" />
<circle cx="1605.959961" cy="678.960022" r="19.980000" fill="red">
  <title>Shanghai</title>
</circle><line x1="2029.959961" y1="141.959991" x2="1605.959961" y2="678.960022" stroke="red" stroke-width="6.660000" />
<circle cx="1602.959961" cy="705.960022" r="19.980000" fill="red">
  <title>São Paulo</title>
</circle><line x1="1605.959961" y1="678.960022" x2="1602.959961" y2="705.960022" stroke="red" stroke-width="6.660000" />
<circle cx="395.959991" cy="1335.959961" r="19.980000" fill="red">
  <title>Mumbai</title>
</circle><line x1="1602.959961" y1="705.960022" x2="395.959991" y2="1335.959961" stroke="red" stroke-width="6.660000" />
</svg>
