<?xml version="1.0" encoding="UTF-8" standalone="no"?>
<svg width="500" height="500" viewBox="0 0 2074.000000 2074.000000" xmlns="http://www.w3.org/2000/svg">
<rect x="19.000000" y="19.000000" width="2036.000000" height="2036.000000" fill="black" />
<circle cx="1565.959961" cy="177.959991" r="19.980000" fill="red">
  <title>Tokyo</title>
</circle><line x1="55.959999" y1="117.959999" x2="1565.959961" y2="177.959991" stroke="red" stroke-width="6.660000" />
<circle cx="508.959991" cy="472.959991" r="19.980000" fill="red">
  <title>Shanghai</title>
</circle><line x1="1565.959961" y1="177.959991" x2="508.959991" y2="472.959991" stroke="red" stroke-width="6.660000" />
<circle cx="242.959991" cy="1927.959961" r="19.980000" fill="red">
  <title>Mexico City</title>
</circle><line x1="508.959991" y1="472.959991" x2="242.959991" y2="1927.959961" stroke="red" stroke-width="6.660000" />
<circle cx="61.959999" cy="1340.959961" r="19.980000" fill="red">
  <title>Delhi</title>
</circle><line x1="242.959991" y1="1927.959961" x2="61.959999" y2="1340.959961" stroke="red" stroke-width="6.660000" />
<circle cx="55.959999" cy="117.959999" r="19.980000" fill="red">
  <title>São Paulo</title>
</circle><line x1="61.959999" y1="1340.959961" x2="55.959999" y2="117.959999" stroke="red" stroke-width="6.660000" />
</svg>
