<?xml version="1.0" encoding="UTF-8" standalone="no"?>
<svg width="500" height="500" viewBox="0 0 2074.000000 2074.000000" xmlns="http://www.w3.org/2000/svg">
<rect x="19.000000" y="19.000000" width="2036.000000" height="2036.000000" fill="black" />
<circle cx="1885.959961" cy="327.959991" r="19.980000" fill="red">
  <title>Tokyo</title>
</circle><line x1="1731.959961" y1="1076.959961" x2="1885.959961" y2="327.959991" stroke="red" stroke-width="6.660000" />
<circle cx="1684.959961" cy="571.960022" r="19.980000" fill="red">
  <title>Mexico City</title>
</circle><line x1="1885.959961" y1="327.959991" x2="1684.959961" y2="571.960022" stroke="red" stroke-width="6.660000" />
<circle cx="106.959999" cy="628.960022" r="19.980000" fill="red">
  <title>Delhi</title>
</circle><line x1="1684.959961" y1="571.960022" x2="106.959999" y2="628.960022" stroke="red" stroke-width="6.660000" />
<circle cx="934.960022" cy="979.960022" r="19.980000" fill="red">
  <title>Shanghai</title>
</circle><line x1="106.959999" y1="628.960022" x2="934.960022" y2="979.960022" stroke="red" stroke-width="6.660000" />
<circle cx="1333.959961" cy="1968.959961" r="19.980000" fill="red">
  <title>São Paulo</title>
</circle><line x1="934.960022" y1="979.960022" x2="1333.959961" y2="1968.959961" stroke="red" stroke-width="6.660000" />
<circle cx="1731.959961" cy="1076.959961" r="19.980000" fill="red">
  <title>Cairo</title>
</circle><line x1="1333.959961" y1="1968.959961" x2="1731.959961" y2="1076.959961" stroke="red" stroke-width="6.660000" />
</svg>
