<?xml version="1.0" encoding="UTF-8" standalone="no"?>
<svg width="500" height="500" viewBox="0 0 2074.000000 2074.000000" xmlns="http://www.w3.org/2000/svg">
<rect x="19.000000" y="19.000000" width="2036.000000" height="2036.000000" fill="black" />
<circle cx="1772.959961" cy="329.959991" r="19.980000" fill="red">
  <title>Tokyo</title>
</circle><line x1="1829.959961" y1="988.960022" x2="1772.959961" y2="329.959991" stroke="red" stroke-width="6.660000" />
<circle cx="1685.959961" cy="224.959991" r="19.980000" fill="red">
  <title>Beijing</title>
</circle><line x1="1772.959961" y1="329.959991" x2="1685.959961" y2="224.959991" stroke="red" stroke-width="6.660000" />
<circle cx="1817.959961" cy="284.959991" r="19.980000" fill="red">
  <title>Osaka</title>
</circle><line x1="1685.959961" y1="224.959991" x2="1817.959961" y2="284.959991" stroke="red" stroke-width="6.660000" />
<circle cx="1735.959961" cy="581.960022" r="19.980000" fill="red">
  <title>New York</title>
</circle><line x1="1817.959961" y1="284.959991" x2="1735.959961" y2="581.960022" stroke="red" stroke-width="6.660000" />
<circle cx="1203.959961" cy="923.960022" r="19.980000" fill="red">
  <title>Karachi</title>
</circle><line x1="1735.959961" y1="581.960022" x2="1203.959961" y2="923.960022" stroke="red" stroke-width="6.660000" />
<circle cx="1104.959961" cy="767.960022" r="19.980000" fill="red">
  <title>Lagos</title>
</circle><line x1="1203.959961" y1="923.960022" x2="1104.959961" y2="767.960022" stroke="red" stroke-width="6.660000" />
<circle cx="329.959991" cy="328.959991" r="19.980000" fill="red">
  <title>Cairo</title>
</circle><line x1="1104.959961" y1="767.960022" x2="329.959991" y2="328.959991" stroke="red" stroke-width="6.660000" />
<circle cx="60.959999" cy="1033.959961" r="19.980000" fill="red">
  <title>São Paulo</title>
</circle><line x1="329.959991" y1="328.959991" x2="60.959999" y2="1033.959961" stroke="red" stroke-width="6.660000" />
<circle cx="241.959991" cy="1126.959961" r="19.980000" fill="red">
  <title>Rio de Janeiro</title>
</circle><line x1="60.959999" y1="1033.959961" x2="241.959991" y2="1126.959961" stroke="red" stroke-width="6.660000" />
<circle cx="976.960022" cy="1290.959961" r="19.980000" fill="red">
  <title>Shanghai</title>
</circle><line x1="241.959991" y1="1126.959961" x2="976.960022" y2="1290.959961" stroke="red" stroke-width="6.660000" />
<circle cx="1334.959961" cy="1266.959961" r="19.980000" fill="red">
  <title>Buenos Aires</title>
</circle><line x1="976.960022" y1="1290.959961" x2="1334.959961" y2="1266.959961" stroke="red" stroke-width="6.660000" />
<circle cx="1277.959961" cy="1391.959961" r="19.980000" fill="red">
  <title>Dhaka</title>
</circle><line x1="1334.959961" y1="1266.959961" x2="1277.959961" y2="1391.959961" stroke="red" stroke-width="6.660000" />
<circle cx="1272.959961" cy="1512.959961" r="19.980000" fill="red">
  <title>Delhi</title>
</circle><line x1="1277.959961" y1="1391.959961" x2="1272.959961" y2="1512.959961" stroke="red" stroke-width="6.660000" />
<circle cx="1574.959961" cy="1480.959961" r="19.980000" fill="red">
  <title>Mumbai</title>
</circle><line x1="1272.959961" y1="1512.959961" x2="1574.959961" y2="1480.959961" stroke="red" stroke-width="6.660000" />
<circle cx="1754.959961" cy="1629.959961" r="19.980000" fill="red">
  <title>Kolkata</title>
</circle><line x1="1574.959961" y1="1480.959961" x2="1754.959961" y2="1629.959961" stroke="red" stroke-width="6.660000" />
<circle cx="1727.959961" cy="1969.959961" r="19.980000" fill="red">
  <title>Chongqing</title>
</circle><line x1="1754.959961" y1="1629.959961" x2="1727.959961" y2="1969.959961" stroke="red" stroke-width="6.660000" />
<circle cx="1904.959961" cy="1835.959961" r="19.980000" fill="red">
  <title>Mexico City</title>
</circle><line x1="1727.959961" y1="1969.959961" x2="1904.959961" y2="1835.959961" stroke="red" stroke-width="6.660000" />
<circle cx="1894.959961" cy="1539.959961" r="19.980000" fill="red">
  <title>Istanbul</title>
</circle><line x1="1904.959961" y1="1835.959961" x2="1894.959961" y2="1539.959961" stroke="red" stroke-width="6.660000" />
<circle cx="1829.959961" cy="988.960022" r="19.980000" fill="red">
  <title>Manila</title>
</circle><line x1="1894.959961" y1="1539.959961" x2="1829.959961" y2="988.960022" stroke="red" stroke-width="6.660000" />
</svg>
