<?xml version="1.0" encoding="UTF-8" standalone="no"?>
<svg width="500" height="500" viewBox="0 0 2074.000000 2074.000000" xmlns="http://www.w3.org/2000/svg">
<rect x="19.000000" y="19.000000" width="2036.000000" height="2036.000000" fill="black" />
<circle cx="219.959991" cy="266.959991" r="19.980000" fill="red">
  <title>Tokyo</title>
</circle><line x1="1079.959961" y1="101.959999" x2="219.959991" y2="266.959991" stroke="red" stroke-width="6.660000" />
<circle cx="42.959999" cy="350.959991" r="19.980000" fill="red">
  <title>Delhi</title>
</circle><line x1="219.959991" y1="266.959991" x2="42.959999" y2="350.959991" stroke="red" stroke-width="6.660000" />
<circle cx="182.959991" cy="984.960022" r="19.980000" fill="red">
  <title>Mumbai</title>
</circle><line x1="42.959999" y1="350.959991" x2="182.959991" y2="984.960022" stroke="red" stroke-width="6.660000" />
<circle cx="554.960022" cy="1239.959961" r="19.980000" fill="red">
  <title>Shanghai</title>
</circle><line x1="182.959991" y1="984.960022" x2="554.960022" y2="1239.959961" stroke="red" stroke-width="6.660000" />
<circle cx="788.960022" cy="1856.959961" r="19.980000" fill="red">
  <title>Osaka</title>
</circle><line x1="554.960022" y1="1239.959961" x2="788.960022" y2="1856.959961" stroke="red" stroke-width="6.660000" />
<circle cx="1240.959961" cy="1356.959961" r="19.980000" fill="red">
  <title>São Paulo</title>
</circle><line x1="788.960022" y1="1856.959961" x2="1240.959961" y2="1356.959961" stroke="red" stroke-width="6.660000" />
<circle cx="1973.959961" cy="1876.959961" r="19.980000" fill="red">
  <title>Beijing</title>
</circle><line x1="1240.959961" y1="1356.959961" x2="1973.959961" y2="1876.959961" stroke="red" stroke-width="6.660000" />
<circle cx="1726.959961" cy="915.960022" r="19.980000" fill="red">
  <title>New York</title>
</circle><line x1="1973.959961" y1="1876.959961" x2="1726.959961" y2="915.960022" stroke="red" stroke-width="6.660000" />
<circle cx="1762.959961" cy="780.960022" r="19.980000" fill="red">
  <title>Buenos Aires</title>
</circle><line x1="1726.959961" y1="915.960022" x2="1762.959961" y2="780.960022" stroke="red" stroke-width="6.660000" />
<circle cx="1947.959961" cy="427.959991" r="19.980000" fill="red">
  <title>Dhaka</title>
</circle><line x1="1762.959961" y1="780.960022" x2="1947.959961" y2="427.959991" stroke="red" stroke-width="6.660000" />
<circle cx="1359.959961" cy="97.959999" r="19.980000" fill="red">
  <title>Mexico City</title>
</circle><line x1="1947.959961" y1="427.959991" x2="1359.959961" y2="97.959999" stroke="red" stroke-width="6.660000" />
<circle cx="1156.959961" cy="615.960022" r="19.980000" fill="red">
  <title>Cairo</title>
</circle><line x1="1359.959961" y1="97.959999" x2="1156.959961" y2="615.960022" stroke="red" stroke-width="6.660000" />
<circle cx="1079.959961" cy="101.959999" r="19.980000" fill="red">
  <title>Karachi</title>
</circle><line x1="1156.959961" y1="615.960022" x2="1079.959961" y2="101.959999" stroke="red" stroke-width="6.660000" />
</svg>
