<?xml version="1.0" encoding="UTF-8" standalone="no"?>
<svg width="500" height="500" viewBox="0 0 2074.000000 2074.000000" xmlns="http://www.w3.org/2000/svg">
<rect x="19.000000" y="19.000000" width="2036.000000" height="2036.000000" fill="black" />
<circle cx="950.960022" cy="601.960022" r="19.980000" fill="red">
  <title>Tokyo</title>
</circle><line x1="924.960022" y1="490.959991" x2="950.960022" y2="601.960022" stroke="red" stroke-width="6.660000" />
<circle cx="1874.959961" cy="39.959999" r="19.980000" fill="red">
  <title>Cairo</title>
</circle><line x1="950.960022" y1="601.960022" x2="1874.959961" y2="39.959999" stroke="red" stroke-width="6.660000" />
<circle cx="1732.959961" cy="487.959991" r="19.980000" fill="red">
  <title>Istanbul</title>
</circle><line x1="1874.959961" y1="39.959999" x2="1732.959961" y2="487.959991" stroke="red" stroke-width="6.660000" />
<circle cx="1660.959961" cy="963.960022" r="19.980000" fill="red">
  <title>Buenos Aires</title>
</circle><line x1="1732.959961" y1="487.959991" x2="1660.959961" y2="963.960022" stroke="red" stroke-width="6.660000" />
<circle cx="1960.959961" cy="1992.959961" r="19.980000" fill="red">
  <title>Osaka</title>
</circle><line x1="1660.959961" y1="963.960022" x2="1960.959961" y2="1992.959961" stroke="red" stroke-width="6.660000" />
<circle cx="1691.959961" cy="1403.959961" r="19.980000" fill="red">
  <title>Karachi</title>
</circle><line x1="1960.959961" y1="1992.959961" x2="1691.959961" y2="1403.959961" stroke="red" stroke-width="6.660000" />
<circle cx="1150.959961" cy="976.960022" r="19.980000" fill="red">
  <title>Shanghai</title>
</circle><line x1="1691.959961" y1="1403.959961" x2="1150.959961" y2="976.960022" stroke="red" stroke-width="6.660000" />
<circle cx="981.960022" cy="1168.959961" r="19.980000" fill="red">
  <title>Mumbai</title>
</circle><line x1="1150.959961" y1="976.960022" x2="981.960022" y2="1168.959961" stroke="red" stroke-width="6.660000" />
<circle cx="711.960022" cy="1170.959961" r="19.980000" fill="red">
  <title>São Paulo</title>
</circle><line x1="981.960022" y1="1168.959961" x2="711.960022" y2="1170.959961" stroke="red" stroke-width="6.660000" />
<circle cx="124.959999" cy="1837.959961" r="19.980000" fill="red">
  <title>Chongqing</title>
</circle><line x1="711.960022" y1="1170.959961" x2="124.959999" y2="1837.959961" stroke="red" stroke-width="6.660000" />
<circle cx="486.959991" cy="920.960022" r="19.980000" fill="red">
  <title>Mexico City</title>
</circle><line x1="124.959999" y1="1837.959961" x2="486.959991" y2="920.960022" stroke="red" stroke-width="6.660000" />
<circle cx="459.959991" cy="485.959991" r="19.980000" fill="red">
  <title>Beijing</title>
</circle><line x1="486.959991" y1="920.960022" x2="459.959991" y2="485.959991" stroke="red" stroke-width="6.660000" />
<circle cx="82.959999" cy="118.959999" r="19.980000" fill="red">
  <title>Delhi</title>
</circle><line x1="459.959991" y1="485.959991" x2="82.959999" y2="118.959999" stroke="red" stroke-width="6.660000" />
<circle cx="382.959991" cy="359.959991" r="19.980000" fill="red">
  <title>New York</title>
</circle><line x1="82.959999" y1="118.959999" x2="382.959991" y2="359.959991" stroke="red" stroke-width="6.660000" />
<circle cx="924.960022" cy="490.959991" r="19.980000" fill="red">
  <title>Dhaka</title>
</circle><line x1="382.959991" y1="359.959991" x2="924.960022" y2="490.959991" stroke="red" stroke-width="6.660000" />
</svg>
