<?xml version="1.0" encoding="UTF-8" standalone="no"?>
<svg width="500" height="500" viewBox="0 0 2074.000000 2074.000000" xmlns="http://www.w3.org/2000/svg">
<rect x="19.000000" y="19.000000" width="2036.000000" height="2036.000000" fill="black" />
<circle cx="1099.959961" cy="1167.959961" r="19.980000" fill="red">
  <title>Tokyo</title>
</circle><line x1="1688.959961" y1="1617.959961" x2="1099.959961" y2="1167.959961" stroke="red" stroke-width="6.660000" />
<circle cx="1596.959961" cy="598.960022" r="19.980000" fill="red">
  <title>Delhi</title>
</circle><line x1="1099.959961" y1="1167.959961" x2="1596.959961" y2="598.960022" stroke="red" stroke-width="6.660000" />
<circle cx="1242.959961" cy="357.959991" r="19.980000" fill="red">
  <title>Mumbai</title>
</circle><line x1="1596.959961" y1="598.960022" x2="1242.959961" y2="357.959991" stroke="red" stroke-width="6.660000" />
<circle cx="532.960022" cy="465.959991" r="19.980000" fill="red">
  <title>São Paulo</title>
</circle><line x1="1242.959961" y1="357.959991" x2="532.960022" y2="465.959991" stroke="red" stroke-width="6.660000" />
<circle cx="745.960022" cy="1348.959961" r="19.980000" fill="red">
  <title>Mexico City</title>
</circle><line x1="532.960022" y1="465.959991" x2="745.960022" y2="1348.959961" stroke="red" stroke-width="6.660000" />
<circle cx="911.960022" cy="1656.959961" r="19.980000" fill="red">
  <title>Beijing</title>
</circle><line x1="745.960022" y1="1348.959961" x2="911.960022" y2="1656.959961" stroke="red" stroke-width="6.660000" />
<circle cx="1802.959961" cy="1783.959961" r="19.980000" fill="red">
  <title>Cairo</title>
</circle><line x1="911.960022" y1="1656.959961" x2="1802.959961" y2="1783.959961" stroke="red" stroke-width="6.660000" />
<circle cx="1688.959961" cy="1617.959961" r="19.980000" fill="red">
  <title>Shanghai</title>
</circle><line x1="1802.959961" y1="1783.959961" x2="1688.959961" y2="1617.959961" stroke="red" stroke-width="6.660000" />
</svg>
