<?xml version="1.0" encoding="UTF-8" standalone="no"?>
<svg width="500" height="500" viewBox="0 0 2074.000000 2074.000000" xmlns="http://www.w3.org/2000/svg">
<rect x="19.000000" y="19.000000" width="2036.000000" height="2036.000000" fill="black" />
<circle cx="1409.959961" cy="960.960022" r="19.980000" fill="red">
  <title>Tokyo</title>
</circle><line x1="1310.959961" y1="518.960022" x2="1409.959961" y2="960.960022" stroke="red" stroke-width="6.660000" />
<circle cx="1947.959961" cy="878.960022" r="19.980000" fill="red">
  <title>Delhi</title>
</circle><line x1="1409.959961" y1="960.960022" x2="1947.959961" y2="878.960022" stroke="red" stroke-width="6.660000" />
<circle cx="1858.959961" cy="1211.959961" r="19.980000" fill="red">
  <title>Beijing</title>
</circle><line x1="1947.959961" y1="878.960022" x2="1858.959961" y2="1211.959961" stroke="red" stroke-width="6.660000" />
<circle cx="1934.959961" cy="1653.959961" r="19.980000" fill="red">
  <title>Mumbai</title>
</circle><line x1="1858.959961" y1="1211.959961" x2="1934.959961" y2="1653.959961" stroke="red" stroke-width="6.660000" />
<circle cx="1567.959961" cy="1736.959961" r="19.980000" fill="red">
  <title>Karachi</title>
</circle><line x1="1934.959961" y1="1653.959961" x2="1567.959961" y2="1736.959961" stroke="red" stroke-width="6.660000" />
<circle cx="1350.959961" cy="1953.959961" r="19.980000" fill="red">
  <title>Osaka</title>
</circle><line x1="1567.959961" y1="1736.959961" x2="1350.959961" y2="1953.959961" stroke="red" stroke-width="6.660000" />
<circle cx="961.960022" cy="1488.959961" r="19.980000" fill="red">
  <title>Dhaka</title>
</circle><line x1="1350.959961" y1="1953.959961" x2="961.960022" y2="1488.959961" stroke="red" stroke-width="6.660000" />
<circle cx="633.960022" cy="1507.959961" r="19.980000" fill="red">
  <title>Buenos Aires</title>
</circle><line x1="961.960022" y1="1488.959961" x2="633.960022" y2="1507.959961" stroke="red" stroke-width="6.660000" />
<circle cx="122.959999" cy="1667.959961" r="19.980000" fill="red">
  <title>Chongqing</title>
</circle><line x1="633.960022" y1="1507.959961" x2="122.959999" y2="1667.959961" stroke="red" stroke-width="6.660000" />
<circle cx="191.959991" cy="696.960022" r="19.980000" fill="red">
  <title>Shanghai</title>
</circle><line x1="122.959999" y1="1667.959961" x2="191.959991" y2="696.960022" stroke="red" stroke-width="6.660000" />
<circle cx="297.959991" cy="638.960022" r="19.980000" fill="red">
  <title>New York</title>
</circle><line x1="191.959991" y1="696.960022" x2="297.959991" y2="638.960022" stroke="red" stroke-width="6.660000" />
<circle cx="922.960022" cy="616.960022" r="19.980000" fill="red">
  <title>Cairo</title>
</circle><line x1="297.959991" y1="638.960022" x2="922.960022" y2="616.960022" stroke="red" stroke-width="6.660000" />
<circle cx="908.960022" cy="55.959999" r="19.980000" fill="red">
  <title>São Paulo</title>
</circle><line x1="922.960022" y1="616.960022" x2="908.960022" y2="55.959999" stroke="red" stroke-width="6.660000" />
<circle cx="1310.959961" cy="518.960022" r="19.980000" fill="red">
  <title>Mexico City</title>
</circle><line x1="908.960022" y1="55.959999" x2="1310.959961" y2="518.960022" stroke="red" stroke-width="6.660000" />
</svg>
