<?xml version="1.0" encoding="UTF-8" standalone="no"?>
<svg width="500" height="500" viewBox="0 0 2074.000000 2074.000000" xmlns="http://www.w3.org/2000/svg">
<rect x="19.000000" y="19.000000" width="2036.000000" height="2036.000000" fill="black" />
<circle cx="888.960022" cy="1772.959961" r="19.980000" fill="red">
  <title>Tokyo</title>
</circle><line x1="1385.959961" y1="1873.959961" x2="888.960022" y2="1772.959961" stroke="red" stroke-width="6.660000" />
<circle cx="354.959991" cy="1873.959961" r="19.980000" fill="red">
  <title>Mumbai</title>
</circle><line x1="888.960022" y1="1772.959961" x2="354.959991" y2="1873.959961" stroke="red" stroke-width="6.660000" />
<circle cx="239.959991" cy="1620.959961" r="19.980000" fill="red">
  <title>Beijing</title>
</circle><line x1="354.959991" y1="1873.959961" x2="239.959991" y2="1620.959961" stroke="red" stroke-width="6.660000" />
<circle cx="172.959991" cy="982.960022" r="19.980000" fill="red">
  <title>São Paulo</title>
</circle><line x1="239.959991" y1="1620.959961" x2="172.959991" y2="982.960022" stroke="red" stroke-width="6.660000" />
<circle cx="572.960022" cy="1029.959961" r="19.980000" fill="red">
  <title>Dhaka</title>
</circle><line x1="172.959991" y1="982.960022" x2="572.960022" y2="1029.959961" stroke="red" stroke-width="6.660000" />
<circle cx="786.960022" cy="1082.959961" r="19.980000" fill="red">
  <title>Mexico City</title>
</circle><line x1="572.960022" y1="1029.959961" x2="786.960022" y2="1082.959961" stroke="red" stroke-width="6.660000" />
<circle cx="1662.959961" cy="350.959991" r="19.980000" fill="red">
  <title>Shanghai</title>
</circle><line x1="786.960022" y1="1082.959961" x2="1662.959961" y2="350.959991" stroke="red" stroke-width="6.660000" />
<circle cx="1881.959961" cy="1519.959961" r="19.980000" fill="red">
  <title>Osaka</title>
</circle><line x1="1662.959961" y1="350.959991" x2="1881.959961" y2="1519.959961" stroke="red" stroke-width="6.660000" />
<circle cx="1712.959961" cy="1761.959961" r="19.980000" fill="red">
  <title>Delhi</title>
</circle><line x1="1881.959961" y1="1519.959961" x2="1712.959961" y2="1761.959961" stroke="red" stroke-width="6.660000" />
<circle cx="1651.959961" cy="1721.959961" r="19.980000" fill="red">
  <title>Cairo</title>
</circle><line x1="1712.959961" y1="1761.959961" x2="1651.959961" y2="1721.959961" stroke="red" stroke-width="6.660000" />
<circle cx="1385.959961" cy="1873.959961" r="19.980000" fill="red">
  <title>New York</title>
</circle><line x1="1651.959961" y1="1721.959961" x2="1385.959961" y2="1873.959961" stroke="red" stroke-width="6.660000" />
</svg>
