<?xml version="1.0" encoding="UTF-8" standalone="no"?>
<svg width="500" height="500" viewBox="0 0 2074.000000 2074.000000" xmlns="http://www.w3.org/2000/svg">
<rect x="19.000000" y="19.000000" width="2036.000000" height="2036.000000" fill="black" />
<circle cx="1916.959961" cy="632.960022" r="19.980000" fill="red">
  <title>Tokyo</title>
</circle><line x1="1770.959961" y1="1347.959961" x2="1916.959961" y2="632.960022" stroke="red" stroke-width="6.660000" />
<circle cx="1751.959961" cy="617.960022" r="19.980000" fill="red">
  <title>Karachi</title>
</circle><line x1="1916.959961" y1="632.960022" x2="1751.959961" y2="617.960022" stroke="red" stroke-width="6.660000" />
<circle cx="1627.959961" cy="206.959991" r="19.980000" fill="red">
  <title>Shanghai</title>
</circle><line x1="1751.959961" y1="617.960022" x2="1627.959961" y2="206.959991" stroke="red" stroke-width="6.660000" />
<circle cx="1429.959961" cy="460.959991" r="19.980000" fill="red">
  <title>New York</title>
</circle><line x1="1627.959961" y1="206.959991" x2="1429.959961" y2="460.959991" stroke="red" stroke-width="6.660000" />
<circle cx="1287.959961" cy="825.960022" r="19.980000" fill="red">
  <title>Osaka</title>
</circle><line x1="1429.959961" y1="460.959991" x2="1287.959961" y2="825.960022" stroke="red" stroke-width="6.660000" />
<circle cx="1139.959961" cy="695.960022" r="19.980000" fill="red">
  <title>Mumbai</title>
</circle><line x1="1287.959961" y1="825.960022" x2="1139.959961" y2="695.960022" stroke="red" stroke-width="6.660000" />
<circle cx="555.960022" cy="772.960022" r="19.980000" fill="red">
  <title>Buenos Aires</title>
</circle><line x1="1139.959961" y1="695.960022" x2="555.960022" y2="772.960022" stroke="red" stroke-width="6.660000" />
<circle cx="1064.959961" cy="1003.960022" r="19.980000" fill="red">
  <title>Mexico City</title>
</circle><line x1="555.960022" y1="772.960022" x2="1064.959961" y2="1003.960022" stroke="red" stroke-width="6.660000" />
<circle cx="797.960022" cy="1657.959961" r="19.980000" fill="red">
  <title>Beijing</title>
</circle><line x1="1064.959961" y1="1003.960022" x2="797.960022" y2="1657.959961" stroke="red" stroke-width="6.660000" />
<circle cx="305.959991" cy="1917.959961" r="19.980000" fill="red">
  <title>Cairo</title>
</circle><line x1="797.960022" y1="1657.959961" x2="305.959991" y2="1917.959961" stroke="red" stroke-width="6.660000" />
<circle cx="1017.960022" cy="1625.959961" r="19.980000" fill="red">
  <title>Delhi</title>
</circle><line x1="305.959991" y1="1917.959961" x2="1017.960022" y2="1625.959961" stroke="red" stroke-width="6.660000" />
<circle cx="1629.959961" cy="1271.959961" r="19.980000" fill="red">
  <title>Dhaka</title>
</circle><line x1="1017.960022" y1="1625.959961" x2="1629.959961" y2="1271.959961" stroke="red" stroke-width="6.660000" />
<circle cx="1770.959961" cy="1347.959961" r="19.980000" fill="red">
  <title>São Paulo</title>
</circle><line x1="1629.959961" y1="1271.959961" x2="1770.959961" y2="1347.959961" stroke="red" stroke-width="6.660000" />
</svg>
