<?xml version="1.0" encoding="UTF-8" standalone="no"?>
<svg width="500" height="500" viewBox="0 0 2074.000000 2074.000000" xmlns="http://www.w3.org/2000/svg">
<rect x="19.000000" y="19.000000" width="2036.000000" height="2036.000000" fill="black" />
<circle cx="319.959991" cy="1461.959961" r="19.980000" fill="red">
  <title>Tokyo</title>
</circle><line x1="122.959999" y1="2015.959961" x2="319.959991" y2="1461.959961" stroke="red" stroke-width="6.660000" />
<circle cx="655.960022" cy="690.960022" r="19.980000" fill="red">
  <title>Mexico City</title>
</circle><line x1="319.959991" y1="1461.959961" x2="655.960022" y2="690.960022" stroke="red" stroke-width="6.660000" />
<circle cx="1166.959961" cy="1176.959961" r="19.980000" fill="red">
  <title>Delhi</title>
</circle><line x1="655.960022" y1="690.960022" x2="1166.959961" y2="1176.959961" stroke="red" stroke-width="6.660000" />
<circle cx="1773.959961" cy="685.960022" r="19.980000" fill="red">
  <title>São Paulo</title>
</circle><line x1="1166.959961" y1="1176.959961" x2="1773.959961" y2="685.960022" stroke="red" stroke-width="6.660000" />
<circle cx="1887.959961" cy="778.960022" r="19.980000" fill="red">
  <title>Shanghai</title>
</circle><line x1="1773.959961" y1="685.960022" x2="1887.959961" y2="778.960022" stroke="red" stroke-width="6.660000" />
<circle cx="2004.959961" cy="1824.959961" r="19.980000" fill="red">
  <title>Cairo</title>
</circle><line x1="1887.959961" y1="778.960022" x2="2004.959961" y2="1824.959961" stroke="red" stroke-width="6.660000" />
<circle cx="1045.959961" cy="1925.959961" r="19.980000" fill="red">
  <title>Mumbai</title>
</circle><line x1="2004.959961" y1="1824.959961" x2="1045.959961" y2="1925.959961" stroke="red" stroke-width="6.660000" />
<circle cx="122.959999" cy="2015.959961" r="19.980000" fill="red">
  <title>Beijing</title>
</circle><line x1="1045.959961" y1="1925.959961" x2="122.959999" y2="2015.959961" stroke="red" stroke-width="6.660000" />
</svg>
