<?xml version="1.0" encoding="UTF-8" standalone="no"?>
<svg width="500" height="500" viewBox="0 0 2074.000000 2074.000000" xmlns="http://www.w3.org/2000/svg">
<rect x="19.000000" y="19.000000" width="2036.000000" height="2036.000000" fill="black" />
<circle cx="1456.959961" cy="1984.959961" r="19.980000" fill="red">
  <title>Tokyo</title>
</circle><line x1="689.960022" y1="1620.959961" x2="1456.959961" y2="1984.959961" stroke="red" stroke-width="6.660000" />
<circle cx="1913.959961" cy="1757.959961" r="19.980000" fill="red">
  <title>Cairo</title>
</circle><line x1="1456.959961" y1="1984.959961" x2="1913.959961" y2="1757.959961" stroke="red" stroke-width="6.660000" />
<circle cx="1161.959961" cy="1007.960022" r="19.980000" fill="red">
  <title>Beijing</title>
</circle><line x1="1913.959961" y1="1757.959961" x2="1161.959961" y2="1007.960022" stroke="red" stroke-width="6.660000" />
<circle cx="873.960022" cy="535.960022" r="19.980000" fill="red">
  <title>Delhi</title>
</circle><line x1="1161.959961" y1="1007.960022" x2="873.960022" y2="535.960022" stroke="red" stroke-width="6.660000" />
<circle cx="1080.959961" cy="364.959991" r="19.980000" fill="red">
  <title>Dhaka</title>
</circle><line x1="873.960022" y1="535.960022" x2="1080.959961" y2="364.959991" stroke="red" stroke-width="6.660000" />
<circle cx="779.960022" cy="297.959991" r="19.980000" fill="red">
  <title>Mumbai</title>
</circle><line x1="1080.959961" y1="364.959991" x2="779.960022" y2="297.959991" stroke="red" stroke-width="6.660000" />
<circle cx="658.960022" cy="242.959991" r="19.980000" fill="red">
  <title>Mexico City</title>
</circle><line x1="779.960022" y1="297.959991" x2="658.960022" y2="242.959991" stroke="red" stroke-width="6.660000" />
<circle cx="254.959991" cy="538.960022" r="19.980000" fill="red">
  <title>São Paulo</title>
</circle><line x1="658.960022" y1="242.959991" x2="254.959991" y2="538.960022" stroke="red" stroke-width="6.660000" />
<circle cx="410.959991" cy="536.960022" r="19.980000" fill="red">
  <title>Shanghai</title>
</circle><line x1="254.959991" y1="538.960022" x2="410.959991" y2="536.960022" stroke="red" stroke-width="6.660000" />
<circle cx="689.960022" cy="1620.959961" r="19.980000" fill="red">
  <title>Osaka</title>
</circle><line x1="410.959991" y1="536.960022" x2="689.960022" y2="1620.959961" stroke="red" stroke-width="6.660000" />
</svg>
