<?xml version="1.0" encoding="UTF-8" standalone="no"?>
<svg width="500" height="500" viewBox="0 0 2074.000000 2074.000000" xmlns="http://www.w3.org/2000/svg">
<rect x="19.000000" y="19.000000" width="2036.000000" height="2036.000000" fill="black" />
<circle cx="210.959991" cy="464.959991" r="19.980000" fill="red">
  <title>Tokyo</title>
</circle><line x1="290.959991" y1="286.959991" x2="210.959991" y2="464.959991" stroke="red" stroke-width="6.660000" />
<circle cx="256.959991" cy="690.960022" r="19.980000" fill="red">
  <title>Shanghai</title>
</circle><line x1="210.959991" y1="464.959991" x2="256.959991" y2="690.960022" stroke="red" stroke-width="6.660000" />
<circle cx="364.959991" cy="644.960022" r="19.980000" fill="red">
  <title>Beijing</title>
</circle><line x1="256.959991" y1="690.960022" x2="364.959991" y2="644.960022" stroke="red" stroke-width="6.660000" />
<circle cx="433.959991" cy="675.960022" r="19.980000" fill="red">
  <title>Mexico City</title>
</circle><line x1="364.959991" y1="644.960022" x2="433.959991" y2="675.960022" stroke="red" stroke-width="6.660000" />
<circle cx="695.960022" cy="926.960022" r="19.980000" fill="red">
  <title>Lagos</title>
</circle><line x1="433.959991" y1="675.960022" x2="695.960022" y2="926.960022" stroke="red" stroke-width="6.660000" />
<circle cx="1030.959961" cy="1057.959961" r="19.980000" fill="red">
  <title>Chongqing</title>
</circle><line x1="695.960022" y1="926.960022" x2="1030.959961" y2="1057.959961" stroke="red" stroke-width="6.660000" />
<circle cx="1094.959961" cy="1359.959961" r="19.980000" fill="red">
  <title>Dhaka</title>
</circle><line x1="1030.959961" y1="1057.959961" x2="1094.959961" y2="1359.959961" stroke="red" stroke-width="6.660000" />
<circle cx="810.960022" cy="1563.959961" r="19.980000" fill="red">
  <title>Karachi</title>
</circle><line x1="1094.959961" y1="1359.959961" x2="810.960022" y2="1563.959961" stroke="red" stroke-width="6.660000" />
<circle cx="708.960022" cy="1740.959961" r="19.980000" fill="red">
  <title>Manila</title>
</circle><line x1="810.960022" y1="1563.959961" x2="708.960022" y2="1740.959961" stroke="red" stroke-width="6.660000" />
<circle cx="1128.959961" cy="1813.959961" r="19.980000" fill="red">
  <title>New York</title>
</circle><line x1="708.960022" y1="1740.959961" x2="1128.959961" y2="1813.959961" stroke="red" stroke-width="6.660000" />
<circle cx="1717.959961" cy="1949.959961" r="19.980000" fill="red">
  <title>São Paulo</title>
</circle><line x1="1128.959961" y1="1813.959961" x2="1717.959961" y2="1949.959961" stroke="red" stroke-width="6.660000" />
<circle cx="1797.959961" cy="1143.959961" r="19.980000" fill="red">
  <title>Mumbai</title>
</circle><line x1="1717.959961" y1="1949.959961" x2="1797.959961" y2="1143.959961" stroke="red" stroke-width="6.660000" />
<circle cx="1954.959961" cy="283.959991" r="19.980000" fill="red">
  <title>Istanbul</title>
</circle><line x1="1797.959961" y1="1143.959961" x2="1954.959961" y2="283.959991" stroke="red" stroke-width="6.660000" />
<circle cx="1911.959961" cy="154.959991" r="19.980000" fill="red">
  <title>Cairo</title>
</circle><line x1="1954.959961" y1="283.959991" x2="1911.959961" y2="154.959991" stroke="red" stroke-width="6.660000" />
<circle cx="922.960022" cy="126.959999" r="19.980000" fill="red">
  <title>Kolkata</title>
</circle><line x1="1911.959961" y1="154.959991" x2="922.960022" y2="126.959999" stroke="red" stroke-width="6.660000" />
<circle cx="772.960022" cy="418.959991" r="19.980000" fill="red">
  <title>Buenos Aires</title>
</circle><line x1="922.960022" y1="126.959999" x2="772.960022" y2="418.959991" stroke="red" stroke-width="6.660000" />
<circle cx="857.960022" cy="607.960022" r="19.980000" fill="red">
  <title>Delhi</title>
</circle><line x1="772.960022" y1="418.959991" x2="857.960022" y2="607.960022" stroke="red" stroke-width="6.660000" />
<circle cx="392.959991" cy="374.959991" r="19.980000" fill="red">
  <title>Rio de Janeiro</title>
</circle><line x1="857.960022" y1="607.960022" x2="392.959991" y2="374.959991" stroke="red" stroke-width="6.660000" />
<circle cx="290.959991" cy="286.959991" r="19.980000" fill="red">
  <title>Osaka</title>
</circle><line x1="392.959991" y1="374.959991" x2="290.959991" y2="286.959991" stroke="red" stroke-width="6.660000" />
</svg>
