<?xml version="1.0" encoding="UTF-8" standalone="no"?>
<svg width="500" height="500" viewBox="0 0 2074.000000 2074.000000" xmlns="http://www.w3.org/2000/svg">
<rect x="19.000000" y="19.000000" width="2036.000000" height="2036.000000" fill="black" />
<circle cx="1280.959961" cy="1114.959961" r="19.980000" fill="red">
  <title>Tokyo</title>
</circle><line x1="152.959991" y1="1721.959961" x2="1280.959961" y2="1114.959961" stroke="red" stroke-width="6.660000" />
<circle cx="1665.959961" cy="1042.959961" r="19.980000" fill="red">
  <title>Mexico City</title>
</circle><line x1="1280.959961" y1="1114.959961" x2="1665.959961" y2="1042.959961" stroke="red" stroke-width="6.660000" />
<circle cx="2025.959961" cy="784.960022" r="19.980000" fill="red">
  <title>Beijing</title>
</circle><line x1="1665.959961" y1="1042.959961" x2="2025.959961" y2="784.960022" stroke="red" stroke-width="6.660000" />
<circle cx="1799.959961" cy="1117.959961" r="19.980000" fill="red">
  <title>São Paulo</title>
</circle><line x1="2025.959961" y1="784.960022" x2="1799.959961" y2="1117.959961" stroke="red" stroke-width="6.660000" />
<circle cx="1837.959961" cy="1321.959961" r="19.980000" fill="red">
  <title>Cairo</title>
</circle><line x1="1799.959961" y1="1117.959961" x2="1837.959961" y2="1321.959961" stroke="red" stroke-width="6.660000" />
<circle cx="1605.959961" cy="1701.959961" r="19.980000" fill="red">
  <title>Delhi</title>
</circle><line x1="1837.959961" y1="1321.959961" x2="1605.959961" y2="1701.959961" stroke="red" stroke-width="6.660000" />
<circle cx="1411.959961" cy="1239.959961" r="19.980000" fill="red">
  <title>Shanghai</title>
</circle><line x1="1605.959961" y1="1701.959961" x2="1411.959961" y2="1239.959961" stroke="red" stroke-width="6.660000" />
<circle cx="669.960022" cy="1292.959961" r="19.980000" fill="red">
  <title>Dhaka</title>
</circle><line x1="1411.959961" y1="1239.959961" x2="669.960022" y2="1292.959961" stroke="red" stroke-width="6.660000" />
<circle cx="152.959991" cy="1721.959961" r="19.980000" fill="red">
  <title>Mumbai</title>
</circle><line x1="669.960022" y1="1292.959961" x2="152.959991" y2="1721.959961" stroke="red" stroke-width="6.660000" />
</svg>
