<?xml version="1.0" encoding="UTF-8" standalone="no"?>
<svg width="500" height="500" viewBox="0 0 2074.000000 2074.000000" xmlns="http://www.w3.org/2000/svg">
<rect x="19.000000" y="19.000000" width="2036.000000" height="2036.000000" fill="black" />
<circle cx="336.959991" cy="207.959991" r="19.980000" fill="red">
  <title>Tokyo</title>
</circle><line x1="1888.959961" y1="1022.960022" x2="336.959991" y2="207.959991" stroke="red" stroke-width="6.660000" />
<circle cx="476.959991" cy="784.960022" r="19.980000" fill="red">
  <title>Shanghai</title>
</circle><line x1="336.959991" y1="207.959991" x2="476.959991" y2="784.960022" stroke="red" stroke-width="6.660000" />
<circle cx="841.960022" cy="1771.959961" r="19.980000" fill="red">
  <title>Delhi</title>
</circle><line x1="476.959991" y1="784.960022" x2="841.960022" y2="1771.959961" stroke="red" stroke-width="6.660000" />
<circle cx="1189.959961" cy="1656.959961" r="19.980000" fill="red">
  <title>São Paulo</title>
</circle><line x1="841.960022" y1="1771.959961" x2="1189.959961" y2="1656.959961" stroke="red" stroke-width="6.660000" />
<circle cx="1888.959961" cy="1022.960022" r="19.980000" fill="red">
  <title>Mexico City</title>
</circle><line x1="1189.959961" y1="1656.959961" x2="1888.959961" y2="1022.960022" stroke="red" stroke-width="6.660000" />
</svg>
