<?xml version="1.0" encoding="UTF-8" standalone="no"?>
<svg width="500" height="500" viewBox="0 0 2074.000000 2074.000000" xmlns="http://www.w3.org/2000/svg">
<rect x="19.000000" y="19.000000" width="2036.000000" height="2036.000000" fill="black" />
<circle cx="561.960022" cy="628.960022" r="19.980000" fill="red">
  <title>Tokyo</title>
</circle><line x1="682.960022" y1="260.959991" x2="561.960022" y2="628.960022" stroke="red" stroke-width="6.660000" />
<circle cx="855.960022" cy="1051.959961" r="19.980000" fill="red">
  <title>Shanghai</title>
</circle><line x1="561.960022" y1="628.960022" x2="855.960022" y2="1051.959961" stroke="red" stroke-width="6.660000" />
<circle cx="1473.959961" cy="1927.959961" r="19.980000" fill="red">
  <title>Delhi</title>
</circle><line x1="855.960022" y1="1051.959961" x2="1473.959961" y2="1927.959961" stroke="red" stroke-width="6.660000" />
<circle cx="1798.959961" cy="1033.959961" r="19.980000" fill="red">
  <title>São Paulo</title>
</circle><line x1="1473.959961" y1="1927.959961" x2="1798.959961" y2="1033.959961" stroke="red" stroke-width="6.660000" />
<circle cx="682.960022" cy="260.959991" r="19.980000" fill="red">
  <title>Mexico City</title>
</circle><line x1="1798.959961" y1="1033.959961" x2="682.960022" y2="260.959991" stroke="red" stroke-width="6.660000" />
</svg>
