<?xml version="1.0" encoding="UTF-8" standalone="no"?>
<svg width="500" height="500" viewBox="0 0 2074.000000 2074.000000" xmlns="http://www.w3.org/2000/svg">
<rect x="19.000000" y="19.000000" width="2036.000000" height="2036.000000" fill="black" />
<circle cx="940.960022" cy="1985.959961" r="19.980000" fill="red">
  <title>Tokyo</title>
</circle><line x1="879.960022" y1="1683.959961" x2="940.960022" y2="1985.959961" stroke="red" stroke-width="6.660000" />
<circle cx="944.960022" cy="2016.959961" r="19.980000" fill="red">
  <title>Mexico City</title>
</circle><line x1="940.960022" y1="1985.959961" x2="944.960022" y2="2016.959961" stroke="red" stroke-width="6.660000" />
<circle cx="1745.959961" cy="1652.959961" r="19.980000" fill="red">
  <title>Karachi</title>
</circle><line x1="944.960022" y1="2016.959961" x2="1745.959961" y2="1652.959961" stroke="red" stroke-width="6.660000" />
<circle cx="1650.959961" cy="1569.959961" r="19.980000" fill="red">
  <title>Dhaka</title>
</circle><line x1="1745.959961" y1="1652.959961" x2="1650.959961" y2="1569.959961" stroke="red" stroke-width="6.660000" />
<circle cx="1250.959961" cy="1286.959961" r="19.980000" fill="red">
  <title>Beijing</title>
</circle><line x1="1650.959961" y1="1569.959961" x2="1250.959961" y2="1286.959961" stroke="red" stroke-width="6.660000" />
<circle cx="1138.959961" cy="1220.959961" r="19.980000" fill="red">
  <title>Cairo</title>
</circle><line x1="1250.959961" y1="1286.959961" x2="1138.959961" y2="1220.959961" stroke="red" stroke-width="6.660000" />
<circle cx="1345.959961" cy="661.960022" r="19.980000" fill="red">
  <title>Buenos Aires</title>
</circle><line x1="1138.959961" y1="1220.959961" x2="1345.959961" y2="661.960022" stroke="red" stroke-width="6.660000" />
<circle cx="1313.959961" cy="361.959991" r="19.980000" fill="red">
  <title>New York</title>
</circle><line x1="1345.959961" y1="661.960022" x2="1313.959961" y2="361.959991" stroke="red" stroke-width="6.660000" />
<circle cx="1677.959961" cy="117.959999" r="19.980000" fill="red">
  <title>Delhi</title>
</circle><line x1="1313.959961" y1="361.959991" x2="1677.959961" y2="117.959999" stroke="red" stroke-width="6.660000" />
<circle cx="1281.959961" cy="339.959991" r="19.980000" fill="red">
  <title>Shanghai</title>
</circle><line x1="1677.959961" y1="117.959999" x2="1281.959961" y2="339.959991" stroke="red" stroke-width="6.660000" />
<circle cx="460.959991" cy="63.959999" r="19.980000" fill="red">
  <title>Osaka</title>
</circle><line x1="1281.959961" y1="339.959991" x2="460.959991" y2="63.959999" stroke="red" stroke-width="6.660000" />
<circle cx="798.960022" cy="455.959991" r="19.980000" fill="red">
  <title>Mumbai</title>
</circle><line x1="460.959991" y1="63.959999" x2="798.960022" y2="455.959991" stroke="red" stroke-width="6.660000" />
<circle cx="664.960022" cy="936.960022" r="19.980000" fill="red">
  <title>São Paulo</title>
</circle><line x1="798.960022" y1="455.959991" x2="664.960022" y2="936.960022" stroke="red" stroke-width="6.660000" />
<circle cx="879.960022" cy="1683.959961" r="19.980000" fill="red">
  <title>Chongqing</title>
</circle><line x1="664.960022" y1="936.960022" x2="879.960022" y2="1683.959961" stroke="red" stroke-width="6.660000" />
</svg>
