<?xml version="1.0" encoding="UTF-8" standalone="no"?>
<svg width="500" height="500" viewBox="0 0 2074.000000 2074.000000" xmlns="http://www.w3.org/2000/svg">
<rect x="19.000000" y="19.000000" width="2036.000000" height="2036.000000" fill="black" />
<circle cx="1361.959961" cy="1420.959961" r="19.980000" fill="red">
  <title>Tokyo</title>
</circle><line x1="1127.959961" y1="1205.959961" x2="1361.959961" y2="1420.959961" stroke="red" stroke-width="6.660000" />
<circle cx="1437.959961" cy="1371.959961" r="19.980000" fill="red">
  <title>New York</title>
</circle><line x1="1361.959961" y1="1420.959961" x2="1437.959961" y2="1371.959961" stroke="red" stroke-width="6.660000" />
<circle cx="1584.959961" cy="1569.959961" r="19.980000" fill="red">
  <title>Karachi</title>
</circle><line x1="1437.959961" y1="1371.959961" x2="1584.959961" y2="1569.959961" stroke="red" stroke-width="6.660000" />
<circle cx="1548.959961" cy="1608.959961" r="19.980000" fill="red">
  <title>Manila</title>
</circle><line x1="1584.959961" y1="1569.959961" x2="1548.959961" y2="1608.959961" stroke="red" stroke-width="6.660000" />
<circle cx="1530.959961" cy="1866.959961" r="19.980000" fill="red">
  <title>Lagos</title>
</circle><line x1="1548.959961" y1="1608.959961" x2="1530.959961" y2="1866.959961" stroke="red" stroke-width="6.660000" />
<circle cx="1331.959961" cy="1687.959961" r="19.980000" fill="red">
  <title>Kolkata</title>
</circle><line x1="1530.959961" y1="1866.959961" x2="1331.959961" y2="1687.959961" stroke="red" stroke-width="6.660000" />
<circle cx="316.959991" cy="1880.959961" r="19.980000" fill="red">
  <title>Delhi</title>
</circle><line x1="1331.959961" y1="1687.959961" x2="316.959991" y2="1880.959961" stroke="red" stroke-width="6.660000" />
<circle cx="395.959991" cy="1598.959961" r="19.980000" fill="red">
  <title>Chongqing</title>
</circle><line x1="316.959991" y1="1880.959961" x2="395.959991" y2="1598.959961" stroke="red" stroke-width="6.660000" />
<circle cx="356.959991" cy="962.960022" r="19.980000" fill="red">
  <title>Shanghai</title>
</circle><line x1="395.959991" y1="1598.959961" x2="356.959991" y2="962.960022" stroke="red" stroke-width="6.660000" />
<circle cx="365.959991" cy="167.959991" r="19.980000" fill="red">
  <title>Istanbul</title>
</circle><line x1="356.959991" y1="962.960022" x2="365.959991" y2="167.959991" stroke="red" stroke-width="6.660000" />
<circle cx="761.960022" cy="84.959999" r="19.980000" fill="red">
  <title>Osaka</title>
</circle><line x1="365.959991" y1="167.959991" x2="761.960022" y2="84.959999" stroke="red" stroke-width="6.660000" />
<circle cx="1482.959961" cy="367.959991" r="19.980000" fill="red">
  <title>São Paulo</title>
</circle><line x1="761.960022" y1="84.959999" x2="1482.959961" y2="367.959991" stroke="red" stroke-width="6.660000" />
<circle cx="1893.959961" cy="169.959991" r="19.980000" fill="red">
  <title>Mexico City</title>
</circle><line x1="1482.959961" y1="367.959991" x2="1893.959961" y2="169.959991" stroke="red" stroke-width="6.660000" />
<circle cx="1893.959961" cy="213.959991" r="19.980000" fill="red">
  <title>Mumbai</title>
</circle><line x1="1893.959961" y1="169.959991" x2="1893.959961" y2="213.959991" stroke="red" stroke-width="6.660000" />
<circle cx="1964.959961" cy="406.959991" r="19.980000" fill="red">
  <title>Cairo</title>
</circle><line x1="1893.959961" y1="213.959991" x2="1964.959961" y2="406.959991" stroke="red" stroke-width="6.660000" />
<circle cx="1759.959961" cy="678.960022" r="19.980000" fill="red">
  <title>Buenos Aires</title>
</circle><line x1="1964.959961" y1="406.959991" x2="1759.959961" y2="678.960022" stroke="red" stroke-width="6.660000" />
<circle cx="1104.959961" cy="894.960022" r="19.980000" fill="red">
  <title>Beijing</title>
</circle><line x1="1759.959961" y1="678.960022" x2="1104.959961" y2="894.960022" stroke="red" stroke-width="6.660000" />
<circle cx="1127.959961" cy="1205.959961" r="19.980000" fill="red">
  <title>Dhaka</title>
</circle><line x1="1104.959961" y1="894.960022" x2="1127.959961" y2="1205.959961" stroke="red" stroke-width="6.660000" />
</svg>
