<?xml version="1.0" encoding="UTF-8" standalone="no"?>
<svg width="500" height="500" viewBox="0 0 2074.000000 2074.000000" xmlns="http://www.w3.org/2000/svg">
<rect x="19.000000" y="19.000000" width="2036.000000" height="2036.000000" fill="black" />
<circle cx="1262.959961" cy="472.959991" r="19.980000" fill="red">
  <title>Tokyo</title>
</circle><line x1="648.960022" y1="778.960022" x2="1262.959961" y2="472.959991" stroke="red" stroke-width="6.660000" />
<circle cx="1402.959961" cy="275.959991" r="19.980000" fill="red">
  <title>Delhi</title>
</circle><line x1="1262.959961" y1="472.959991" x2="1402.959961" y2="275.959991" stroke="red" stroke-width="6.660000" />
<circle cx="1476.959961" cy="823.960022" r="19.980000" fill="red">
  <title>Cairo</title>
</circle><line x1="1402.959961" y1="275.959991" x2="1476.959961" y2="823.960022" stroke="red" stroke-width="6.660000" />
<circle cx="1429.959961" cy="1930.959961" r="19.980000" fill="red">
  <title>Shanghai</title>
</circle><line x1="1476.959961" y1="823.960022" x2="1429.959961" y2="1930.959961" stroke="red" stroke-width="6.660000" />
<circle cx="402.959991" cy="1942.959961" r="19.980000" fill="red">
  <title>São Paulo</title>
</circle><line x1="1429.959961" y1="1930.959961" x2="402.959991" y2="1942.959961" stroke="red" stroke-width="6.660000" />
<circle cx="743.960022" cy="973.960022" r="19.980000" fill="red">
  <title>Mexico City</title>
</circle><line x1="402.959991" y1="1942.959961" x2="743.960022" y2="973.960022" stroke="red" stroke-width="6.660000" />
<circle cx="648.960022" cy="778.960022" r="19.980000" fill="red">
  <title>Mumbai</title>
</circle><line x1="743.960022" y1="973.960022" x2="648.960022" y2="778.960022" stroke="red" stroke-width="6.660000" />
</svg>
