<?xml version="1.0" encoding="UTF-8" standalone="no"?>
<svg width="500" height="500" viewBox="0 0 2074.000000 2074.000000" xmlns="http://www.w3.org/2000/svg">
<rect x="19.000000" y="19.000000" width="2036.000000" height="2036.000000" fill="black" />
<circle cx="575.960022" cy="1655.959961" r="19.980000" fill="red">
  <title>Tokyo</title>
</circle><line x1="578.960022" y1="1583.959961" x2="575.960022" y2="1655.959961" stroke="red" stroke-width="6.660000" />
<circle cx="788.960022" cy="1877.959961" r="19.980000" fill="red">
  <title>Delhi</title>
</circle><line x1="575.960022" y1="1655.959961" x2="788.960022" y2="1877.959961" stroke="red" stroke-width="6.660000" />
<circle cx="1359.959961" cy="1361.959961" r="19.980000" fill="red">
  <title>São Paulo</title>
</circle><line x1="788.960022" y1="1877.959961" x2="1359.959961" y2="1361.959961" stroke="red" stroke-width="6.660000" />
<circle cx="1183.959961" cy="1038.959961" r="19.980000" fill="red">
  <title>Cairo</title>
</circle><line x1="1359.959961" y1="1361.959961" x2="1183.959961" y2="1038.959961" stroke="red" stroke-width="6.660000" />
<circle cx="864.960022" cy="503.959991" r="19.980000" fill="red">
  <title>Shanghai</title>
</circle><line x1="1183.959961" y1="1038.959961" x2="864.960022" y2="503.959991" stroke="red" stroke-width="6.660000" />
<circle cx="578.960022" cy="1583.959961" r="19.980000" fill="red">
  <title>Mexico City</title>
</circle><line x1="864.960022" y1="503.959991" x2="578.960022" y2="1583.959961" stroke="red" stroke-width="6.660000" />
</svg>
