<?xml version="1.0" encoding="UTF-8" standalone="no"?>
<svg width="500" height="500" viewBox="0 0 2074.000000 2074.000000" xmlns="http://www.w3.org/2000/svg">
<rect x="19.000000" y="19.000000" width="2036.000000" height="2036.000000" fill="black" />
<circle cx="556.960022" cy="1959.959961" r="19.980000" fill="red">
  <title>Tokyo</title>
</circle><line x1="465.959991" y1="2002.959961" x2="556.960022" y2="1959.959961" stroke="red" stroke-width="6.660000" />
<circle cx="1067.959961" cy="1592.959961" r="19.980000" fill="red">
  <title>Buenos Aires</title>
</circle><line x1="556.960022" y1="1959.959961" x2="1067.959961" y2="1592.959961" stroke="red" stroke-width="6.660000" />
<circle cx="1386.959961" cy="1611.959961" r="19.980000" fill="red">
  <title>Karachi</title>
</circle><line x1="1067.959961" y1="1592.959961" x2="1386.959961" y2="1611.959961" stroke="red" stroke-width="6.660000" />
<circle cx="1219.959961" cy="1246.959961" r="19.980000" fill="red">
  <title>Chongqing</title>
</circle><line x1="1386.959961" y1="1611.959961" x2="1219.959961" y2="1246.959961" stroke="red" stroke-width="6.660000" />
<circle cx="1044.959961" cy="977.960022" r="19.980000" fill="red">
  <title>Delhi</title>
</circle><line x1="1219.959961" y1="1246.959961" x2="1044.959961" y2="977.960022" stroke="red" stroke-width="6.660000" />
<circle cx="1289.959961" cy="938.960022" r="19.980000" fill="red">
  <title>Dhaka</title>
</circle><line x1="1044.959961" y1="977.960022" x2="1289.959961" y2="938.960022" stroke="red" stroke-width="6.660000" />
<circle cx="1562.959961" cy="892.960022" r="19.980000" fill="red">
  <title>Lagos</title>
</circle><line x1="1289.959961" y1="938.960022" x2="1562.959961" y2="892.960022" stroke="red" stroke-width="6.660000" />
<circle cx="1849.959961" cy="484.959991" r="19.980000" fill="red">
  <title>Mexico City</title>
</circle><line x1="1562.959961" y1="892.960022" x2="1849.959961" y2="484.959991" stroke="red" stroke-width="6.660000" />
<circle cx="1751.959961" cy="145.959991" r="19.980000" fill="red">
  <title>Osaka</title>
</circle><line x1="1849.959961" y1="484.959991" x2="1751.959961" y2="145.959991" stroke="red" stroke-width="6.660000" />
<circle cx="1656.959961" cy="143.959991" r="19.980000" fill="red">
  <title>São Paulo</title>
</circle><line x1="1751.959961" y1="145.959991" x2="1656.959961" y2="143.959991" stroke="red" stroke-width="6.660000" />
<circle cx="1360.959961" cy="228.959991" r="19.980000" fill="red">
  <title>Beijing</title>
</circle><line x1="1656.959961" y1="143.959991" x2="1360.959961" y2="228.959991" stroke="red" stroke-width="6.660000" />
<circle cx="1328.959961" cy="315.959991" r="19.980000" fill="red">
  <title>New York</title>
</circle><line x1="1360.959961" y1="228.959991" x2="1328.959961" y2="315.959991" stroke="red" stroke-width="6.660000" />
<circle cx="997.960022" cy="624.960022" r="19.980000" fill="red">
  <title>Kolkata</title>
</circle><line x1="1328.959961" y1="315.959991" x2="997.960022" y2="624.960022" stroke="red" stroke-width="6.660000" />
<circle cx="465.959991" cy="211.959991" r="19.980000" fill="red">
  <title>Shanghai</title>
</circle><line x1="997.960022" y1="624.960022" x2="465.959991" y2="211.959991" stroke="red" stroke-width="6.660000" />
<circle cx="107.959999" cy="544.960022" r="19.980000" fill="red">
  <title>Istanbul</title>
</circle><line x1="465.959991" y1="211.959991" x2="107.959999" y2="544.960022" stroke="red" stroke-width="6.660000" />
<circle cx="221.959991" cy="711.960022" r="19.980000" fill="red">
  <title>Cairo</title>
</circle><line x1="107.959999" y1="544.960022" x2="221.959991" y2="711.960022" stroke="red" stroke-width="6.660000" />
<circle cx="497.959991" cy="1479.959961" r="19.980000" fill="red">
  <title>Mumbai</title>
</circle><line x1="221.959991" y1="711.960022" x2="497.959991" y2="1479.959961" stroke="red" stroke-width="6.660000" />
<circle cx="465.959991" cy="2002.959961" r="19.980000" fill="red">
  <title>Manila</title>
</circle><line x1="497.959991" y1="1479.959961" x2="465.959991" y2="2002.959961" stroke="red" stroke-width="6.660000" />
</svg>
