<?xml version="1.0" encoding="UTF-8" standalone="no"?>
<svg width="500" height="500" viewBox="0 0 2074.000000 2074.000000" xmlns="http://www.w3.org/2000/svg">
<rect x="19.000000" y="19.000000" width="2036.000000" height="2036.000000" fill="black" />
<circle cx="712.960022" cy="591.960022" r="19.980000" fill="red">
  <title>Tokyo</title>
</circle><line x1="758.960022" y1="592.960022" x2="712.960022" y2="591.960022" stroke="red" stroke-width="6.660000" />
<circle cx="190.959991" cy="323.959991" r="19.980000" fill="red">
  <title>Beijing</title>
</circle><line x1="712.960022" y1="591.960022" x2="190.959991" y2="323.959991" stroke="red" stroke-width="6.660000" />
<circle cx="42.959999" cy="282.959991" r="19.980000" fill="red">
  <title>New York</title>
</circle><line x1="190.959991" y1="323.959991" x2="42.959999" y2="282.959991" stroke="red" stroke-width="6.660000" />
<circle cx="510.959991" cy="205.959991" r="19.980000" fill="red">
  <title>Istanbul</title>
</circle><line x1="42.959999" y1="282.959991" x2="510.959991" y2="205.959991" stroke="red" stroke-width="6.660000" />
<circle cx="662.960022" cy="383.959991" r="19.980000" fill="red">
  <title>Cairo</title>
</circle><line x1="510.959991" y1="205.959991" x2="662.960022" y2="383.959991" stroke="red" stroke-width="6.660000" />
<circle cx="974.960022" cy="385.959991" r="19.980000" fill="red">
  <title>Karachi</title>
</circle><line x1="662.960022" y1="383.959991" x2="974.960022" y2="385.959991" stroke="red" stroke-width="6.660000" />
<circle cx="1062.959961" cy="289.959991" r="19.980000" fill="red">
  <title>Shanghai</title>
</circle><line x1="974.960022" y1="385.959991" x2="1062.959961" y2="289.959991" stroke="red" stroke-width="6.660000" />
<circle cx="1540.959961" cy="71.959999" r="19.980000" fill="red">
  <title>Chongqing</title>
</circle><line x1="1062.959961" y1="289.959991" x2="1540.959961" y2="71.959999" stroke="red" stroke-width="6.660000" />
<circle cx="1694.959961" cy="64.959999" r="19.980000" fill="red">
  <title>São Paulo</title>
</circle><line x1="1540.959961" y1="71.959999" x2="1694.959961" y2="64.959999" stroke="red" stroke-width="6.660000" />
<circle cx="1661.959961" cy="227.959991" r="19.980000" fill="red">
  <title>Buenos Aires</title>
</circle><line x1="1694.959961" y1="64.959999" x2="1661.959961" y2="227.959991" stroke="red" stroke-width="6.660000" />
<circle cx="1641.959961" cy="1183.959961" r="19.980000" fill="red">
  <title>Kolkata</title>
</circle><line x1="1661.959961" y1="227.959991" x2="1641.959961" y2="1183.959961" stroke="red" stroke-width="6.660000" />
<circle cx="1821.959961" cy="1438.959961" r="19.980000" fill="red">
  <title>Mumbai</title>
</circle><line x1="1641.959961" y1="1183.959961" x2="1821.959961" y2="1438.959961" stroke="red" stroke-width="6.660000" />
<circle cx="1914.959961" cy="1537.959961" r="19.980000" fill="red">
  <title>Dhaka</title>
</circle><line x1="1821.959961" y1="1438.959961" x2="1914.959961" y2="1537.959961" stroke="red" stroke-width="6.660000" />
<circle cx="1346.959961" cy="1916.959961" r="19.980000" fill="red">
  <title>Osaka</title>
</circle><line x1="1914.959961" y1="1537.959961" x2="1346.959961" y2="1916.959961" stroke="red" stroke-width="6.660000" />
<circle cx="983.960022" cy="1981.959961" r="19.980000" fill="red">
  <title>Mexico City</title>
</circle><line x1="1346.959961" y1="1916.959961" x2="983.960022" y2="1981.959961" stroke="red" stroke-width="6.660000" />
<circle cx="989.960022" cy="735.960022" r="19.980000" fill="red">
  <title>Delhi</title>
</circle><line x1="983.960022" y1="1981.959961" x2="989.960022" y2="735.960022" stroke="red" stroke-width="6.660000" />
<circle cx="758.960022" cy="592.960022" r="19.980000" fill="red">
  <title>Manila</title>
</circle><line x1="989.960022" y1="735.960022" x2="758.960022" y2="592.960022" stroke="red" stroke-width="6.660000" />
</svg>
