<?xml version="1.0" encoding="UTF-8" standalone="no"?>
<svg width="500" height="500" viewBox="0 0 2074.000000 2074.000000" xmlns="http://www.w3.org/2000/svg">
<rect x="19.000000" y="19.000000" width="2036.000000" height="2036.000000" fill="black" />
<circle cx="1202.959961" cy="1035.959961" r="19.980000" fill="red">
  <title>Tokyo</title>
</circle><line x1="895.960022" y1="1194.959961" x2="1202.959961" y2="1035.959961" stroke="red" stroke-width="6.660000" />
<circle cx="1101.959961" cy="686.960022" r="19.980000" fill="red">
  <title>Mexico City</title>
</circle><line x1="1202.959961" y1="1035.959961" x2="1101.959961" y2="686.960022" stroke="red" stroke-width="6.660000" />
<circle cx="1540.959961" cy="302.959991" r="19.980000" fill="red">
  <title>Shanghai</title>
</circle><line x1="1101.959961" y1="686.960022" x2="1540.959961" y2="302.959991" stroke="red" stroke-width="6.660000" />
<circle cx="1856.959961" cy="403.959991" r="19.980000" fill="red">
  <title>New York</title>
</circle><line x1="1540.959961" y1="302.959991" x2="1856.959961" y2="403.959991" stroke="red" stroke-width="6.660000" />
<circle cx="1308.959961" cy="974.960022" r="19.980000" fill="red">
  <title>Beijing</title>
</circle><line x1="1856.959961" y1="403.959991" x2="1308.959961" y2="974.960022" stroke="red" stroke-width="6.660000" />
<circle cx="1563.959961" cy="1247.959961" r="19.980000" fill="red">
  <title>Cairo</title>
</circle><line x1="1308.959961" y1="974.960022" x2="1563.959961" y2="1247.959961" stroke="red" stroke-width="6.660000" />
<circle cx="1892.959961" cy="1908.959961" r="19.980000" fill="red">
  <title>Karachi</title>
</circle><line x1="1563.959961" y1="1247.959961" x2="1892.959961" y2="1908.959961" stroke="red" stroke-width="6.660000" />
<circle cx="1268.959961" cy="1931.959961" r="19.980000" fill="red">
  <title>São Paulo</title>
</circle><line x1="1892.959961" y1="1908.959961" x2="1268.959961" y2="1931.959961" stroke="red" stroke-width="6.660000" />
<circle cx="780.960022" cy="1948.959961" r="19.980000" fill="red">
  <title>Kolkata</title>
</circle><line x1="1268.959961" y1="1931.959961" x2="780.960022" y2="1948.959961" stroke="red" stroke-width="6.660000" />
<circle cx="478.959991" cy="1652.959961" r="19.980000" fill="red">
  <title>Mumbai</title>
</circle><line x1="780.960022" y1="1948.959961" x2="478.959991" y2="1652.959961" stroke="red" stroke-width="6.660000" />
<circle cx="320.959991" cy="1680.959961" r="19.980000" fill="red">
  <title>Osaka</title>
</circle><line x1="478.959991" y1="1652.959961" x2="320.959991" y2="1680.959961" stroke="red" stroke-width="6.660000" />
<circle cx="195.959991" cy="1122.959961" r="19.980000" fill="red">
  <title>Delhi</title>
</circle><line x1="320.959991" y1="1680.959961" x2="195.959991" y2="1122.959961" stroke="red" stroke-width="6.660000" />
<circle cx="142.959991" cy="1037.959961" r="19.980000" fill="red">
  <title>Dhaka</title>
</circle><line x1="195.959991" y1="1122.959961" x2="142.959991" y2="1037.959961" stroke="red" stroke-width="6.660000" />
<circle cx="363.959991" cy="681.960022" r="19.980000" fill="red">
  <title>Buenos Aires</title>
</circle><line x1="142.959991" y1="1037.959961" x2="363.959991" y2="681.960022" stroke="red" stroke-width="6.660000" />
<circle cx="431.959991" cy="937.960022" r="19.980000" fill="red">
  <title>Manila</title>
</circle><line x1="363.959991" y1="681.960022" x2="431.959991" y2="937.960022" stroke="red" stroke-width="6.660000" />
<circle cx="785.960022" cy="1434.959961" r="19.980000" fill="red">
  <title>Istanbul</title>
</circle><line x1="431.959991" y1="937.960022" x2="785.960022" y2="1434.959961" stroke="red" stroke-width="6.660000" />
<circle cx="895.960022" cy="1194.959961" r="19.980000" fill="red">
  <title>Chongqing</title>
</circle><line x1="785.960022" y1="1434.959961" x2="895.960022" y2="1194.959961" stroke="red" stroke-width="6.660000" />
</svg>
