<?xml version="1.0" encoding="UTF-8" standalone="no"?>
<svg width="500" height="500" viewBox="0 0 2074.000000 2074.000000" xmlns="http://www.w3.org/2000/svg">
<rect x="19.000000" y="19.000000" width="2036.000000" height="2036.000000" fill="black" />
<circle cx="94.959999" cy="154.959991" r="19.980000" fill="red">
  <title>Tokyo</title>
</circle><line x1="367.959991" y1="69.959999" x2="94.959999" y2="154.959991" stroke="red" stroke-width="6.660000" />
<circle cx="58.959999" cy="468.959991" r="19.980000" fill="red">
  <title>Buenos Aires</title>
</circle><line x1="94.959999" y1="154.959991" x2="58.959999" y2="468.959991" stroke="red" stroke-width="6.660000" />
<circle cx="415.959991" cy="454.959991" r="19.980000" fill="red">
  <title>Mexico City</title>
</circle><line x1="58.959999" y1="468.959991" x2="415.959991" y2="454.959991" stroke="red" stroke-width="6.660000" />
<circle cx="704.960022" cy="1401.959961" r="19.980000" fill="red">
  <title>Manila</title>
</circle><line x1="415.959991" y1="454.959991" x2="704.960022" y2="1401.959961" stroke="red" stroke-width="6.660000" />
<circle cx="480.959991" cy="1655.959961" r="19.980000" fill="red">
  <title>Cairo</title>
</circle><line x1="704.960022" y1="1401.959961" x2="480.959991" y2="1655.959961" stroke="red" stroke-width="6.660000" />
<circle cx="793.960022" cy="1366.959961" r="19.980000" fill="red">
  <title>Karachi</title>
</circle><line x1="480.959991" y1="1655.959961" x2="793.960022" y2="1366.959961" stroke="red" stroke-width="6.660000" />
<circle cx="1205.959961" cy="1508.959961" r="19.980000" fill="red">
  <title>Rio de Janeiro</title>
</circle><line x1="793.960022" y1="1366.959961" x2="1205.959961" y2="1508.959961" stroke="red" stroke-width="6.660000" />
<circle cx="1103.959961" cy="1904.959961" r="19.980000" fill="red">
  <title>Dhaka</title>
</circle><line x1="1205.959961" y1="1508.959961" x2="1103.959961" y2="1904.959961" stroke="red" stroke-width="6.660000" />
<circle cx="1384.959961" cy="1841.959961" r="19.980000" fill="red">
  <title>Shanghai</title>
</circle><line x1="1103.959961" y1="1904.959961" x2="1384.959961" y2="1841.959961" stroke="red" stroke-width="6.660000" />
<circle cx="1766.959961" cy="1868.959961" r="19.980000" fill="red">
  <title>São Paulo</title>
</circle><line x1="1384.959961" y1="1841.959961" x2="1766.959961" y2="1868.959961" stroke="red" stroke-width="6.660000" />
<circle cx="1812.959961" cy="1545.959961" r="19.980000" fill="red">
  <title>New York</title>
</circle><line x1="1766.959961" y1="1868.959961" x2="1812.959961" y2="1545.959961" stroke="red" stroke-width="6.660000" />
<circle cx="1879.959961" cy="1185.959961" r="19.980000" fill="red">
  <title>Kolkata</title>
</circle><line x1="1812.959961" y1="1545.959961" x2="1879.959961" y2="1185.959961" stroke="red" stroke-width="6.660000" />
<circle cx="1393.959961" cy="1078.959961" r="19.980000" fill="red">
  <title>Osaka</title>
</circle><line x1="1879.959961" y1="1185.959961" x2="1393.959961" y2="1078.959961" stroke="red" stroke-width="6.660000" />
<circle cx="1704.959961" cy="719.960022" r="19.980000" fill="red">
  <title>Mumbai</title>
</circle><line x1="1393.959961" y1="1078.959961" x2="1704.959961" y2="719.960022" stroke="red" stroke-width="6.660000" />
<circle cx="1592.959961" cy="526.960022" r="19.980000" fill="red">
  <title>Beijing</title>
</circle><line x1="1704.959961" y1="719.960022" x2="1592.959961" y2="526.960022" stroke="red" stroke-width="6.660000" />
<circle cx="1780.959961" cy="50.959999" r="19.980000" fill="red">
  <title>Lagos</title>
</circle><line x1="1592.959961" y1="526.960022" x2="1780.959961" y2="50.959999" stroke="red" stroke-width="6.660000" />
<circle cx="1559.959961" cy="633.960022" r="19.980000" fill="red">
  <title>Delhi</title>
</circle><line x1="1780.959961" y1="50.959999" x2="1559.959961" y2="633.960022" stroke="red" stroke-width="6.660000" />
<circle cx="1130.959961" cy="589.960022" r="19.980000" fill="red">
  <title>Istanbul</title>
</circle><line x1="1559.959961" y1="633.960022" x2="1130.959961" y2="589.960022" stroke="red" stroke-width="6.660000" />
<circle cx="367.959991" cy="69.959999" r="19.980000" fill="red">
  <title>Chongqing</title>
</circle><line x1="1130.959961" y1="589.960022" x2="367.959991" y2="69.959999" stroke="red" stroke-width="6.660000" />
</svg>
