<?xml version="1.0" encoding="UTF-8" standalone="no"?>
<svg width="500" height="500" viewBox="0 0 2074.000000 2074.000000" xmlns="http://www.w3.org/2000/svg">
<rect x="19.000000" y="19.000000" width="2036.000000" height="2036.000000" fill="black" />
<circle cx="1198.959961" cy="1077.959961" r="19.980000" fill="red">
  <title>Tokyo</title>
</circle><line x1="526.960022" y1="1305.959961" x2="1198.959961" y2="1077.959961" stroke="red" stroke-width="6.660000" />
<circle cx="1297.959961" cy="543.960022" r="19.980000" fill="red">
  <title>Delhi</title>
</circle><line x1="1198.959961" y1="1077.959961" x2="1297.959961" y2="543.960022" stroke="red" stroke-width="6.660000" />
<circle cx="1416.959961" cy="313.959991" r="19.980000" fill="red">
  <title>Cairo</title>
</circle><line x1="1297.959961" y1="543.960022" x2="1416.959961" y2="313.959991" stroke="red" stroke-width="6.660000" />
<circle cx="1453.959961" cy="583.960022" r="19.980000" fill="red">
  <title>Mumbai</title>
</circle><line x1="1416.959961" y1="313.959991" x2="1453.959961" y2="583.960022" stroke="red" stroke-width="6.660000" />
<circle cx="1870.959961" cy="542.960022" r="19.980000" fill="red">
  <title>Shanghai</title>
</circle><line x1="1453.959961" y1="583.960022" x2="1870.959961" y2="542.960022" stroke="red" stroke-width="6.660000" />
<circle cx="1535.959961" cy="1288.959961" r="19.980000" fill="red">
  <title>Mexico City</title>
</circle><line x1="1870.959961" y1="542.960022" x2="1535.959961" y2="1288.959961" stroke="red" stroke-width="6.660000" />
<circle cx="526.960022" cy="1305.959961" r="19.980000" fill="red">
  <title>São Paulo</title>
</circle><line x1="1535.959961" y1="1288.959961" x2="526.960022" y2="1305.959961" stroke="red" stroke-width="6.660000" />
</svg>
