<?xml version="1.0" encoding="UTF-8" standalone="no"?>
<svg width="500" height="500" viewBox="0 0 2074.000000 2074.000000" xmlns="http://www.w3.org/2000/svg">
<rect x="19.000000" y="19.000000" width="2036.000000" height="2036.000000" fill="black" />
<circle cx="569.960022" cy="1821.959961" r="19.980000" fill="red">
  <title>Tokyo</title>
</circle><line x1="745.960022" y1="990.960022" x2="569.960022" y2="1821.959961" stroke="red" stroke-width="6.660000" />
<circle cx="243.959991" cy="188.959991" r="19.980000" fill="red">
  <title>Delhi</title>
</circle><line x1="569.960022" y1="1821.959961" x2="243.959991" y2="188.959991" stroke="red" stroke-width="6.660000" />
<circle cx="1807.959961" cy="352.959991" r="19.980000" fill="red">
  <title>Shanghai</title>
</circle><line x1="243.959991" y1="188.959991" x2="1807.959961" y2="352.959991" stroke="red" stroke-width="6.660000" />
<circle cx="745.960022" cy="990.960022" r="19.980000" fill="red">
  <title>São Paulo</title>
</circle><line x1="1807.959961" y1="352.959991" x2="745.960022" y2="990.960022" stroke="red" stroke-width="6.660000" />
</svg>
