<?xml version="1.0" encoding="UTF-8" standalone="no"?>
<svg width="500" height="500" viewBox="0 0 2074.000000 2074.000000" xmlns="http://www.w3.org/2000/svg">
<rect x="19.000000" y="19.000000" width="2036.000000" height="2036.000000" fill="black" />
<circle cx="876.960022" cy="104.959999" r="19.980000" fill="red">
  <title>Tokyo</title>
</circle><line x1="367.959991" y1="171.959991" x2="876.960022" y2="104.959999" stroke="red" stroke-width="6.660000" />
<circle cx="1345.959961" cy="738.960022" r="19.980000" fill="red">
  <title>Mumbai</title>
</circle><line x1="876.960022" y1="104.959999" x2="1345.959961" y2="738.960022" stroke="red" stroke-width="6.660000" />
<circle cx="1504.959961" cy="507.959991" r="19.980000" fill="red">
  <title>Shanghai</title>
</circle><line x1="1345.959961" y1="738.960022" x2="1504.959961" y2="507.959991" stroke="red" stroke-width="6.660000" />
<circle cx="2003.959961" cy="39.959999" r="19.980000" fill="red">
  <title>Delhi</title>
</circle><line x1="1504.959961" y1="507.959991" x2="2003.959961" y2="39.959999" stroke="red" stroke-width="6.660000" />
<circle cx="1692.959961" cy="642.960022" r="19.980000" fill="red">
  <title>Mexico City</title>
</circle><line x1="2003.959961" y1="39.959999" x2="1692.959961" y2="642.960022" stroke="red" stroke-width="6.660000" />
<circle cx="2016.959961" cy="1547.959961" r="19.980000" fill="red">
  <title>Cairo</title>
</circle><line x1="1692.959961" y1="642.960022" x2="2016.959961" y2="1547.959961" stroke="red" stroke-width="6.660000" />
<circle cx="480.959991" cy="1628.959961" r="19.980000" fill="red">
  <title>São Paulo</title>
</circle><line x1="2016.959961" y1="1547.959961" x2="480.959991" y2="1628.959961" stroke="red" stroke-width="6.660000" />
<circle cx="367.959991" cy="171.959991" r="19.980000" fill="red">
  <title>Beijing</title>
</circle><line x1="480.959991" y1="1628.959961" x2="367.959991" y2="171.959991" stroke="red" stroke-width="6.660000" />
</svg>
