<?xml version="1.0" encoding="UTF-8" standalone="no"?>
<svg width="500" height="500" viewBox="0 0 2074.000000 2074.000000" xmlns="http://www.w3.org/2000/svg">
<rect x="19.000000" y="19.000000" width="2036.000000" height="2036.000000" fill="black" />
<circle cx="1962.959961" cy="556.960022" r="19.980000" fill="red">
  <title>Tokyo</title>
</circle><line x1="1717.959961" y1="287.959991" x2="1962.959961" y2="556.960022" stroke="red" stroke-width="6.660000" />
<circle cx="2001.959961" cy="1113.959961" r="19.980000" fill="red">
  <title>Mexico City</title>
</circle><line x1="1962.959961" y1="556.960022" x2="2001.959961" y2="1113.959961" stroke="red" stroke-width="6.660000" />
<circle cx="1615.959961" cy="1228.959961" r="19.980000" fill="red">
  <title>Beijing</title>
</circle><line x1="2001.959961" y1="1113.959961" x2="1615.959961" y2="1228.959961" stroke="red" stroke-width="6.660000" />
<circle cx="1561.959961" cy="1230.959961" r="19.980000" fill="red">
  <title>São Paulo</title>
</circle><line x1="1615.959961" y1="1228.959961" x2="1561.959961" y2="1230.959961" stroke="red" stroke-width="6.660000" />
<circle cx="1906.959961" cy="1912.959961" r="19.980000" fill="red">
  <title>Lagos</title>
</circle><line x1="1561.959961" y1="1230.959961" x2="1906.959961" y2="1912.959961" stroke="red" stroke-width="6.660000" />
<circle cx="1901.959961" cy="1987.959961" r="19.980000" fill="red">
  <title>Cairo</title>
</circle><line x1="1906.959961" y1="1912.959961" x2="1901.959961" y2="1987.959961" stroke="red" stroke-width="6.660000" />
<circle cx="1375.959961" cy="1718.959961" r="19.980000" fill="red">
  <title>Chongqing</title>
</circle><line x1="1901.959961" y1="1987.959961" x2="1375.959961" y2="1718.959961" stroke="red" stroke-width="6.660000" />
<circle cx="1197.959961" cy="1430.959961" r="19.980000" fill="red">
  <title>Rio de Janeiro</title>
</circle><line x1="1375.959961" y1="1718.959961" x2="1197.959961" y2="1430.959961" stroke="red" stroke-width="6.660000" />
<circle cx="1104.959961" cy="1160.959961" r="19.980000" fill="red">
  <title>Tianjin</title>
</circle><line x1="1197.959961" y1="1430.959961" x2="1104.959961" y2="1160.959961" stroke="red" stroke-width="6.660000" />
<circle cx="742.960022" cy="1387.959961" r="19.980000" fill="red">
  <title>New York</title>
</circle><line x1="1104.959961" y1="1160.959961" x2="742.960022" y2="1387.959961" stroke="red" stroke-width="6.660000" />
<circle cx="715.960022" cy="1495.959961" r="19.980000" fill="red">
  <title>Mumbai</title>
</circle><line x1="742.960022" y1="1387.959961" x2="715.960022" y2="1495.959961" stroke="red" stroke-width="6.660000" />
<circle cx="595.960022" cy="1657.959961" r="19.980000" fill="red">
  <title>Delhi</title>
</circle><line x1="715.960022" y1="1495.959961" x2="595.960022" y2="1657.959961" stroke="red" stroke-width="6.660000" />
<circle cx="290.959991" cy="1760.959961" r="19.980000" fill="red">
  <title>Karachi</title>
</circle><line x1="595.960022" y1="1657.959961" x2="290.959991" y2="1760.959961" stroke="red" stroke-width="6.660000" />
<circle cx="363.959991" cy="1050.959961" r="19.980000" fill="red">
  <title>Istanbul</title>
</circle><line x1="290.959991" y1="1760.959961" x2="363.959991" y2="1050.959961" stroke="red" stroke-width="6.660000" />
<circle cx="382.959991" cy="961.960022" r="19.980000" fill="red">
  <title>Shanghai</title>
</circle><line x1="363.959991" y1="1050.959961" x2="382.959991" y2="961.960022" stroke="red" stroke-width="6.660000" />
<circle cx="92.959999" cy="797.960022" r="19.980000" fill="red">
  <title>Buenos Aires</title>
</circle><line x1="382.959991" y1="961.960022" x2="92.959999" y2="797.960022" stroke="red" stroke-width="6.660000" />
<circle cx="408.959991" cy="777.960022" r="19.980000" fill="red">
  <title>Dhaka</title>
</circle><line x1="92.959999" y1="797.960022" x2="408.959991" y2="777.960022" stroke="red" stroke-width="6.660000" />
<circle cx="738.960022" cy="459.959991" r="19.980000" fill="red">
  <title>Osaka</title>
</circle><line x1="408.959991" y1="777.960022" x2="738.960022" y2="459.959991" stroke="red" stroke-width="6.660000" />
<circle cx="1568.959961" cy="274.959991" r="19.980000" fill="red">
  <title>Manila</title>
</circle><line x1="738.960022" y1="459.959991" x2="1568.959961" y2="274.959991" stroke="red" stroke-width="6.660000" />
<circle cx="1717.959961" cy="287.959991" r="19.980000" fill="red">
  <title>Kolkata</title>
</circle><line x1="1568.959961" y1="274.959991" x2="1717.959961" y2="287.959991" stroke="red" stroke-width="6.660000" />
</svg>
