<?xml version="1.0" encoding="UTF-8" standalone="no"?>
<svg width="500" height="500" viewBox="0 0 2074.000000 2074.000000" xmlns="http://www.w3.org/2000/svg">
<rect x="19.000000" y="19.000000" width="2036.000000" height="2036.000000" fill="black" />
<circle cx="293.959991" cy="446.959991" r="19.980000" fill="red">
  <title>Tokyo</title>
</circle><line x1="693.960022" y1="551.960022" x2="293.959991" y2="446.959991" stroke="red" stroke-width="6.660000" />
<circle cx="383.959991" cy="671.960022" r="19.980000" fill="red">
  <title>São Paulo</title>
</circle><line x1="293.959991" y1="446.959991" x2="383.959991" y2="671.960022" stroke="red" stroke-width="6.660000" />
<circle cx="590.960022" cy="1519.959961" r="19.980000" fill="red">
  <title>Osaka</title>
</circle><line x1="383.959991" y1="671.960022" x2="590.960022" y2="1519.959961" stroke="red" stroke-width="6.660000" />
<circle cx="493.959991" cy="1680.959961" r="19.980000" fill="red">
  <title>Cairo</title>
</circle><line x1="590.960022" y1="1519.959961" x2="493.959991" y2="1680.959961" stroke="red" stroke-width="6.660000" />
<circle cx="323.959991" cy="1788.959961" r="19.980000" fill="red">
  <title>Beijing</title>
</circle><line x1="493.959991" y1="1680.959961" x2="323.959991" y2="1788.959961" stroke="red" stroke-width="6.660000" />
<circle cx="573.960022" cy="2027.959961" r="19.980000" fill="red">
  <title>Delhi</title>
</circle><line x1="323.959991" y1="1788.959961" x2="573.960022" y2="2027.959961" stroke="red" stroke-width="6.660000" />
<circle cx="667.960022" cy="2017.959961" r="19.980000" fill="red">
  <title>Chongqing</title>
</circle><line x1="573.960022" y1="2027.959961" x2="667.960022" y2="2017.959961" stroke="red" stroke-width="6.660000" />
<circle cx="908.960022" cy="1789.959961" r="19.980000" fill="red">
  <title>Mumbai</title>
</circle><line x1="667.960022" y1="2017.959961" x2="908.960022" y2="1789.959961" stroke="red" stroke-width="6.660000" />
<circle cx="1225.959961" cy="1887.959961" r="19.980000" fill="red">
  <title>New York</title>
</circle><line x1="908.960022" y1="1789.959961" x2="1225.959961" y2="1887.959961" stroke="red" stroke-width="6.660000" />
<circle cx="2007.959961" cy="1626.959961" r="19.980000" fill="red">
  <title>Istanbul</title>
</circle><line x1="1225.959961" y1="1887.959961" x2="2007.959961" y2="1626.959961" stroke="red" stroke-width="6.660000" />
<circle cx="2023.959961" cy="771.960022" r="19.980000" fill="red">
  <title>Mexico City</title>
</circle><line x1="2007.959961" y1="1626.959961" x2="2023.959961" y2="771.960022" stroke="red" stroke-width="6.660000" />
<circle cx="1544.959961" cy="728.960022" r="19.980000" fill="red">
  <title>Buenos Aires</title>
</circle><line x1="2023.959961" y1="771.960022" x2="1544.959961" y2="728.960022" stroke="red" stroke-width="6.660000" />
<circle cx="1586.959961" cy="262.959991" r="19.980000" fill="red">
  <title>Kolkata</title>
</circle><line x1="1544.959961" y1="728.960022" x2="1586.959961" y2="262.959991" stroke="red" stroke-width="6.660000" />
<circle cx="2034.959961" cy="121.959999" r="19.980000" fill="red">
  <title>Manila</title>
</circle><line x1="1586.959961" y1="262.959991" x2="2034.959961" y2="121.959999" stroke="red" stroke-width="6.660000" />
<circle cx="1399.959961" cy="251.959991" r="19.980000" fill="red">
  <title>Karachi</title>
</circle><line x1="2034.959961" y1="121.959999" x2="1399.959961" y2="251.959991" stroke="red" stroke-width="6.660000" />
<circle cx="804.960022" cy="130.959991" r="19.980000" fill="red">
  <title>Shanghai</title>
</circle><line x1="1399.959961" y1="251.959991" x2="804.960022" y2="130.959991" stroke="red" stroke-width="6.660000" />
<circle cx="693.960022" cy="551.960022" r="19.980000" fill="red">
  <title>Dhaka</title>
</circle><line x1="804.960022" y1="130.959991" x2="693.960022" y2="551.960022" stroke="red" stroke-width="6.660000" />
</svg>
