<?xml version="1.0" encoding="UTF-8" standalone="no"?>
<svg width="500" height="500" viewBox="0 0 2074.000000 2074.000000" xmlns="http://www.w3.org/2000/svg">
<rect x="19.000000" y="19.000000" width="2036.000000" height="2036.000000" fill="black" />
<circle cx="1034.959961" cy="1668.959961" r="19.980000" fill="red">
  <title>Tokyo</title>
</circle><line x1="244.959991" y1="1222.959961" x2="1034.959961" y2="1668.959961" stroke="red" stroke-width="6.660000" />
<circle cx="1069.959961" cy="1917.959961" r="19.980000" fill="red">
  <title>Delhi</title>
</circle><line x1="1034.959961" y1="1668.959961" x2="1069.959961" y2="1917.959961" stroke="red" stroke-width="6.660000" />
<circle cx="1203.959961" cy="1544.959961" r="19.980000" fill="red">
  <title>Karachi</title>
</circle><line x1="1069.959961" y1="1917.959961" x2="1203.959961" y2="1544.959961" stroke="red" stroke-width="6.660000" />
<circle cx="1338.959961" cy="1733.959961" r="19.980000" fill="red">
  <title>Rio de Janeiro</title>
</circle><line x1="1203.959961" y1="1544.959961" x2="1338.959961" y2="1733.959961" stroke="red" stroke-width="6.660000" />
<circle cx="1434.959961" cy="1874.959961" r="19.980000" fill="red">
  <title>Mexico City</title>
</circle><line x1="1338.959961" y1="1733.959961" x2="1434.959961" y2="1874.959961" stroke="red" stroke-width="6.660000" />
<circle cx="1578.959961" cy="1897.959961" r="19.980000" fill="red">
  <title>Istanbul</title>
</circle><line x1="1434.959961" y1="1874.959961" x2="1578.959961" y2="1897.959961" stroke="red" stroke-width="6.660000" />
<circle cx="1678.959961" cy="1679.959961" r="19.980000" fill="red">
  <title>Osaka</title>
</circle><line x1="1578.959961" y1="1897.959961" x2="1678.959961" y2="1679.959961" stroke="red" stroke-width="6.660000" />
<circle cx="1740.959961" cy="1391.959961" r="19.980000" fill="red">
  <title>Cairo</title>
</circle><line x1="1678.959961" y1="1679.959961" x2="1740.959961" y2="1391.959961" stroke="red" stroke-width="6.660000" />
<circle cx="1527.959961" cy="1026.959961" r="19.980000" fill="red">
  <title>Manila</title>
</circle><line x1="1740.959961" y1="1391.959961" x2="1527.959961" y2="1026.959961" stroke="red" stroke-width="6.660000" />
<circle cx="1480.959961" cy="622.960022" r="19.980000" fill="red">
  <title>New York</title>
</circle><line x1="1527.959961" y1="1026.959961" x2="1480.959961" y2="622.960022" stroke="red" stroke-width="6.660000" />
<circle cx="1994.959961" cy="575.960022" r="19.980000" fill="red">
  <title>Kolkata</title>
</circle><line x1="1480.959961" y1="622.960022" x2="1994.959961" y2="575.960022" stroke="red" stroke-width="6.660000" />
<circle cx="1646.959961" cy="127.959999" r="19.980000" fill="red">
  <title>Chongqing</title>
</circle><line x1="1994.959961" y1="575.960022" x2="1646.959961" y2="127.959999" stroke="red" stroke-width="6.660000" />
<circle cx="1317.959961" cy="182.959991" r="19.980000" fill="red">
  <title>São Paulo</title>
</circle><line x1="1646.959961" y1="127.959999" x2="1317.959961" y2="182.959991" stroke="red" stroke-width="6.660000" />
<circle cx="1152.959961" cy="108.959999" r="19.980000" fill="red">
  <title>Dhaka</title>
</circle><line x1="1317.959961" y1="182.959991" x2="1152.959961" y2="108.959999" stroke="red" stroke-width="6.660000" />
<circle cx="752.960022" cy="350.959991" r="19.980000" fill="red">
  <title>Shanghai</title>
</circle><line x1="1152.959961" y1="108.959999" x2="752.960022" y2="350.959991" stroke="red" stroke-width="6.660000" />
<circle cx="454.959991" cy="242.959991" r="19.980000" fill="red">
  <title>Lagos</title>
</circle><line x1="752.960022" y1="350.959991" x2="454.959991" y2="242.959991" stroke="red" stroke-width="6.660000" />
<circle cx="779.960022" cy="794.960022" r="19.980000" fill="red">
  <title>Mumbai</title>
</circle><line x1="454.959991" y1="242.959991" x2="779.960022" y2="794.960022" stroke="red" stroke-width="6.660000" />
<circle cx="40.959999" cy="949.960022" r="19.980000" fill="red">
  <title>Beijing</title>
</circle><line x1="779.960022" y1="794.960022" x2="40.959999" y2="949.960022" stroke="red" stroke-width="6.660000" />
<circle cx="244.959991" cy="1222.959961" r="19.980000" fill="red">
  <title>Buenos Aires</title>
</circle><line x1="40.959999" y1="949.960022" x2="244.959991" y2="1222.959961" stroke="red" stroke-width="6.660000" />
</svg>
