<?xml version="1.0" encoding="UTF-8" standalone="no"?>
<svg width="500" height="500" viewBox="0 0 2074.000000 2074.000000" xmlns="http://www.w3.org/2000/svg">
<rect x="19.000000" y="19.000000" width="2036.000000" height="2036.000000" fill="black" />
<circle cx="1957.959961" cy="594.960022" r="19.980000" fill="red">
  <title>Tokyo</title>
</circle><line x1="1685.959961" y1="1894.959961" x2="1957.959961" y2="594.960022" stroke="red" stroke-width="6.660000" />
<circle cx="1975.959961" cy="360.959991" r="19.980000" fill="red">
  <title>Delhi</title>
</circle><line x1="1957.959961" y1="594.960022" x2="1975.959961" y2="360.959991" stroke="red" stroke-width="6.660000" />
<circle cx="932.960022" cy="1240.959961" r="19.980000" fill="red">
  <title>São Paulo</title>
</circle><line x1="1975.959961" y1="360.959991" x2="932.960022" y2="1240.959961" stroke="red" stroke-width="6.660000" />
<circle cx="61.959999" cy="1438.959961" r="19.980000" fill="red">
  <title>Mexico City</title>
</circle><line x1="932.960022" y1="1240.959961" x2="61.959999" y2="1438.959961" stroke="red" stroke-width="6.660000" />
<circle cx="1685.959961" cy="1894.959961" r="19.980000" fill="red">
  <title>Shanghai</title>
</circle><line x1="61.959999" y1="1438.959961" x2="1685.959961" y2="1894.959961" stroke="red" stroke-width="6.660000" />
</svg>
