<?xml version="1.0" encoding="UTF-8" standalone="no"?>
<svg width="500" height="500" viewBox="0 0 2074.000000 2074.000000" xmlns="http://www.w3.org/2000/svg">
<rect x="19.000000" y="19.000000" width="2036.000000" height="2036.000000" fill="black" />
<circle cx="750.960022" cy="85.959999" r="19.980000" fill="red">
  <title>Tokyo</title>
</circle><line x1="906.960022" y1="280.959991" x2="750.960022" y2="85.959999" stroke="red" stroke-width="6.660000" />
<circle cx="794.960022" cy="535.960022" r="19.980000" fill="red">
  <title>Delhi</title>
</circle><line x1="750.960022" y1="85.959999" x2="794.960022" y2="535.960022" stroke="red" stroke-width="6.660000" />
<circle cx="722.960022" cy="659.960022" r="19.980000" fill="red">
  <title>Shanghai</title>
</circle><line x1="794.960022" y1="535.960022" x2="722.960022" y2="659.960022" stroke="red" stroke-width="6.660000" />
<circle cx="73.959999" cy="564.960022" r="19.980000" fill="red">
  <title>New York</title>
</circle><line x1="722.960022" y1="659.960022" x2="73.959999" y2="564.960022" stroke="red" stroke-width="6.660000" />
<circle cx="123.959999" cy="1499.959961" r="19.980000" fill="red">
  <title>Dhaka</title>
</circle><line x1="73.959999" y1="564.960022" x2="123.959999" y2="1499.959961" stroke="red" stroke-width="6.660000" />
<circle cx="107.959999" cy="1881.959961" r="19.980000" fill="red">
  <title>São Paulo</title>
</circle><line x1="123.959999" y1="1499.959961" x2="107.959999" y2="1881.959961" stroke="red" stroke-width="6.660000" />
<circle cx="956.960022" cy="1879.959961" r="19.980000" fill="red">
  <title>Chongqing</title>
</circle><line x1="107.959999" y1="1881.959961" x2="956.960022" y2="1879.959961" stroke="red" stroke-width="6.660000" />
<circle cx="1138.959961" cy="1935.959961" r="19.980000" fill="red">
  <title>Cairo</title>
</circle><line x1="956.960022" y1="1879.959961" x2="1138.959961" y2="1935.959961" stroke="red" stroke-width="6.660000" />
<circle cx="1213.959961" cy="1867.959961" r="19.980000" fill="red">
  <title>Beijing</title>
</circle><line x1="1138.959961" y1="1935.959961" x2="1213.959961" y2="1867.959961" stroke="red" stroke-width="6.660000" />
<circle cx="1415.959961" cy="1949.959961" r="19.980000" fill="red">
  <title>Mexico City</title>
</circle><line x1="1213.959961" y1="1867.959961" x2="1415.959961" y2="1949.959961" stroke="red" stroke-width="6.660000" />
<circle cx="1795.959961" cy="1891.959961" r="19.980000" fill="red">
  <title>Buenos Aires</title>
</circle><line x1="1415.959961" y1="1949.959961" x2="1795.959961" y2="1891.959961" stroke="red" stroke-width="6.660000" />
<circle cx="1263.959961" cy="1593.959961" r="19.980000" fill="red">
  <title>Karachi</title>
</circle><line x1="1795.959961" y1="1891.959961" x2="1263.959961" y2="1593.959961" stroke="red" stroke-width="6.660000" />
<circle cx="1660.959961" cy="868.960022" r="19.980000" fill="red">
  <title>Mumbai</title>
</circle><line x1="1263.959961" y1="1593.959961" x2="1660.959961" y2="868.960022" stroke="red" stroke-width="6.660000" />
<circle cx="906.960022" cy="280.959991" r="19.980000" fill="red">
  <title>Osaka</title>
</circle><line x1="1660.959961" y1="868.960022" x2="906.960022" y2="280.959991" stroke="red" stroke-width="6.660000" />
</svg>
