<?xml version="1.0" encoding="UTF-8" standalone="no"?>
<svg width="500" height="500" viewBox="0 0 2074.000000 2074.000000" xmlns="http://www.w3.org/2000/svg">
<rect x="19.000000" y="19.000000" width="2036.000000" height="2036.000000" fill="black" />
<circle cx="892.960022" cy="1560.959961" r="19.980000" fill="red">
  <title>Tokyo</title>
</circle><line x1="780.960022" y1="1678.959961" x2="892.960022" y2="1560.959961" stroke="red" stroke-width="6.660000" />
<circle cx="1563.959961" cy="1775.959961" r="19.980000" fill="red">
  <title>New York</title>
</circle><line x1="892.960022" y1="1560.959961" x2="1563.959961" y2="1775.959961" stroke="red" stroke-width="6.660000" />
<circle cx="1642.959961" cy="1893.959961" r="19.980000" fill="red">
  <title>Beijing</title>
</circle><line x1="1563.959961" y1="1775.959961" x2="1642.959961" y2="1893.959961" stroke="red" stroke-width="6.660000" />
<circle cx="1872.959961" cy="1634.959961" r="19.980000" fill="red">
  <title>Kolkata</title>
</circle><line x1="1642.959961" y1="1893.959961" x2="1872.959961" y2="1634.959961" stroke="red" stroke-width="6.660000" />
<circle cx="1668.959961" cy="1045.959961" r="19.980000" fill="red">
  <title>São Paulo</title>
</circle><line x1="1872.959961" y1="1634.959961" x2="1668.959961" y2="1045.959961" stroke="red" stroke-width="6.660000" />
<circle cx="1165.959961" cy="874.960022" r="19.980000" fill="red">
  <title>Delhi</title>
</circle><line x1="1668.959961" y1="1045.959961" x2="1165.959961" y2="874.960022" stroke="red" stroke-width="6.660000" />
<circle cx="1350.959961" cy="201.959991" r="19.980000" fill="red">
  <title>Dhaka</title>
</circle><line x1="1165.959961" y1="874.960022" x2="1350.959961" y2="201.959991" stroke="red" stroke-width="6.660000" />
<circle cx="841.960022" cy="420.959991" r="19.980000" fill="red">
  <title>Shanghai</title>
</circle><line x1="1350.959961" y1="201.959991" x2="841.960022" y2="420.959991" stroke="red" stroke-width="6.660000" />
<circle cx="747.960022" cy="335.959991" r="19.980000" fill="red">
  <title>Buenos Aires</title>
</circle><line x1="841.960022" y1="420.959991" x2="747.960022" y2="335.959991" stroke="red" stroke-width="6.660000" />
<circle cx="474.959991" cy="80.959999" r="19.980000" fill="red">
  <title>Karachi</title>
</circle><line x1="747.960022" y1="335.959991" x2="474.959991" y2="80.959999" stroke="red" stroke-width="6.660000" />
<circle cx="45.959999" cy="92.959999" r="19.980000" fill="red">
  <title>Mumbai</title>
</circle><line x1="474.959991" y1="80.959999" x2="45.959999" y2="92.959999" stroke="red" stroke-width="6.660000" />
<circle cx="118.959999" cy="391.959991" r="19.980000" fill="red">
  <title>Chongqing</title>
</circle><line x1="45.959999" y1="92.959999" x2="118.959999" y2="391.959991" stroke="red" stroke-width="6.660000" />
<circle cx="752.960022" cy="802.960022" r="19.980000" fill="red">
  <title>Mexico City</title>
</circle><line x1="118.959999" y1="391.959991" x2="752.960022" y2="802.960022" stroke="red" stroke-width="6.660000" />
<circle cx="566.960022" cy="1517.959961" r="19.980000" fill="red">
  <title>Osaka</title>
</circle><line x1="752.960022" y1="802.960022" x2="566.960022" y2="1517.959961" stroke="red" stroke-width="6.660000" />
<circle cx="624.960022" cy="1762.959961" r="19.980000" fill="red">
  <title>Cairo</title>
</circle><line x1="566.960022" y1="1517.959961" x2="624.960022" y2="1762.959961" stroke="red" stroke-width="6.660000" />
<circle cx="780.960022" cy="1678.959961" r="19.980000" fill="red">
  <title>Istanbul</title>
</circle><line x1="624.960022" y1="1762.959961" x2="780.960022" y2="1678.959961" stroke="red" stroke-width="6.660000" />
</svg>
