<?xml version="1.0" encoding="UTF-8" standalone="no"?>
<svg width="500" height="500" viewBox="0 0 2074.000000 2074.000000" xmlns="http://www.w3.org/2000/svg">
<rect x="19.000000" y="19.000000" width="2036.000000" height="2036.000000" fill="black" />
<circle cx="1524.959961" cy="111.959999" r="19.980000" fill="red">
  <title>Tokyo</title>
</circle><line x1="1197.959961" y1="547.960022" x2="1524.959961" y2="111.959999" stroke="red" stroke-width="6.660000" />
<circle cx="1112.959961" cy="604.960022" r="19.980000" fill="red">
  <title>Mexico City</title>
</circle><line x1="1524.959961" y1="111.959999" x2="1112.959961" y2="604.960022" stroke="red" stroke-width="6.660000" />
<circle cx="1072.959961" cy="1526.959961" r="19.980000" fill="red">
  <title>São Paulo</title>
</circle><line x1="1112.959961" y1="604.960022" x2="1072.959961" y2="1526.959961" stroke="red" stroke-width="6.660000" />
<circle cx="1082.959961" cy="1959.959961" r="19.980000" fill="red">
  <title>Shanghai</title>
</circle><line x1="1072.959961" y1="1526.959961" x2="1082.959961" y2="1959.959961" stroke="red" stroke-width="6.660000" />
<circle cx="1928.959961" cy="1944.959961" r="19.980000" fill="red">
  <title>Beijing</title>
</circle><line x1="1082.959961" y1="1959.959961" x2="1928.959961" y2="1944.959961" stroke="red" stroke-width="6.660000" />
<circle cx="1947.959961" cy="1131.959961" r="19.980000" fill="red">
  <title>Cairo</title>
</circle><line x1="1928.959961" y1="1944.959961" x2="1947.959961" y2="1131.959961" stroke="red" stroke-width="6.660000" />
<circle cx="1489.959961" cy="1091.959961" r="19.980000" fill="red">
  <title>Delhi</title>
</circle><line x1="1947.959961" y1="1131.959961" x2="1489.959961" y2="1091.959961" stroke="red" stroke-width="6.660000" />
<circle cx="1197.959961" cy="547.960022" r="19.980000" fill="red">
  <title>Mumbai</title>
</circle><line x1="1489.959961" y1="1091.959961" x2="1197.959961" y2="547.960022" stroke="red" stroke-width="6.660000" />
</svg>
