<?xml version="1.0" encoding="UTF-8" standalone="no"?>
<svg width="500" height="500" viewBox="0 0 2074.000000 2074.000000" xmlns="http://www.w3.org/2000/svg">
<rect x="19.000000" y="19.000000" width="2036.000000" height="2036.000000" fill="black" />
<circle cx="1259.959961" cy="1185.959961" r="19.980000" fill="red">
  <title>Tokyo</title>
</circle><line x1="575.960022" y1="1477.959961" x2="1259.959961" y2="1185.959961" stroke="red" stroke-width="6.660000" />
<circle cx="1729.959961" cy="1709.959961" r="19.980000" fill="red">
  <title>Shanghai</title>
</circle><line x1="1259.959961" y1="1185.959961" x2="1729.959961" y2="1709.959961" stroke="red" stroke-width="6.660000" />
<circle cx="1962.959961" cy="1450.959961" r="19.980000" fill="red">
  <title>Delhi</title>
</circle><line x1="1729.959961" y1="1709.959961" x2="1962.959961" y2="1450.959961" stroke="red" stroke-width="6.660000" />
<circle cx="1956.959961" cy="1172.959961" r="19.980000" fill="red">
  <title>Mexico City</title>
</circle><line x1="1962.959961" y1="1450.959961" x2="1956.959961" y2="1172.959961" stroke="red" stroke-width="6.660000" />
<circle cx="1563.959961" cy="704.960022" r="19.980000" fill="red">
  <title>Mumbai</title>
</circle><line x1="1956.959961" y1="1172.959961" x2="1563.959961" y2="704.960022" stroke="red" stroke-width="6.660000" />
<circle cx="1693.959961" cy="450.959991" r="19.980000" fill="red">
  <title>Cairo</title>
</circle><line x1="1563.959961" y1="704.960022" x2="1693.959961" y2="450.959991" stroke="red" stroke-width="6.660000" />
<circle cx="160.959991" cy="158.959991" r="19.980000" fill="red">
  <title>São Paulo</title>
</circle><line x1="1693.959961" y1="450.959991" x2="160.959991" y2="158.959991" stroke="red" stroke-width="6.660000" />
<circle cx="575.960022" cy="1477.959961" r="19.980000" fill="red">
  <title>Beijing</title>
</circle><line x1="160.959991" y1="158.959991" x2="575.960022" y2="1477.959961" stroke="red" stroke-width="6.660000" />
</svg>
