<?xml version="1.0" encoding="UTF-8" standalone="no"?>
<svg width="500" height="500" viewBox="0 0 2074.000000 2074.000000" xmlns="http://www.w3.org/2000/svg">
<rect x="19.000000" y="19.000000" width="2036.000000" height="2036.000000" fill="black" />
<circle cx="1568.959961" cy="1958.959961" r="19.980000" fill="red">
  <title>Tokyo</title>
</circle><line x1="1045.959961" y1="1403.959961" x2="1568.959961" y2="1958.959961" stroke="red" stroke-width="6.660000" />
<circle cx="1886.959961" cy="1355.959961" r="19.980000" fill="red">
  <title>Beijing</title>
</circle><line x1="1568.959961" y1="1958.959961" x2="1886.959961" y2="1355.959961" stroke="red" stroke-width="6.660000" />
<circle cx="1066.959961" cy="819.960022" r="19.980000" fill="red">
  <title>Delhi</title>
</circle><line x1="1886.959961" y1="1355.959961" x2="1066.959961" y2="819.960022" stroke="red" stroke-width="6.660000" />
<circle cx="960.960022" cy="391.959991" r="19.980000" fill="red">
  <title>Cairo</title>
</circle><line x1="1066.959961" y1="819.960022" x2="960.960022" y2="391.959991" stroke="red" stroke-width="6.660000" />
<circle cx="736.960022" cy="418.959991" r="19.980000" fill="red">
  <title>Mumbai</title>
</circle><line x1="960.960022" y1="391.959991" x2="736.960022" y2="418.959991" stroke="red" stroke-width="6.660000" />
<circle cx="180.959991" cy="490.959991" r="19.980000" fill="red">
  <title>Shanghai</title>
</circle><line x1="736.960022" y1="418.959991" x2="180.959991" y2="490.959991" stroke="red" stroke-width="6.660000" />
<circle cx="120.959999" cy="696.960022" r="19.980000" fill="red">
  <title>Mexico City</title>
</circle><line x1="180.959991" y1="490.959991" x2="120.959999" y2="696.960022" stroke="red" stroke-width="6.660000" />
<circle cx="56.959999" cy="1035.959961" r="19.980000" fill="red">
  <title>São Paulo</title>
</circle><line x1="120.959999" y1="696.960022" x2="56.959999" y2="1035.959961" stroke="red" stroke-width="6.660000" />
<circle cx="404.959991" cy="1101.959961" r="19.980000" fill="red">
  <title>Osaka</title>
</circle><line x1="56.959999" y1="1035.959961" x2="404.959991" y2="1101.959961" stroke="red" stroke-width="6.660000" />
<circle cx="1045.959961" cy="1403.959961" r="19.980000" fill="red">
  <title>Dhaka</title>
</circle><line x1="404.959991" y1="1101.959961" x2="1045.959961" y2="1403.959961" stroke="red" stroke-width="6.660000" />
</svg>
