<?xml version="1.0" encoding="UTF-8" standalone="no"?>
<svg width="500" height="500" viewBox="0 0 2074.000000 2074.000000" xmlns="http://www.w3.org/2000/svg">
<rect x="19.000000" y="19.000000" width="2036.000000" height="2036.000000" fill="black" />
<circle cx="552.960022" cy="550.960022" r="19.980000" fill="red">
  <title>Tokyo</title>
</circle><line x1="545.960022" y1="1150.959961" x2="552.960022" y2="550.960022" stroke="red" stroke-width="6.660000" />
<circle cx="230.959991" cy="220.959991" r="19.980000" fill="red">
  <title>Delhi</title>
</circle><line x1="552.960022" y1="550.960022" x2="230.959991" y2="220.959991" stroke="red" stroke-width="6.660000" />
<circle cx="683.960022" cy="545.960022" r="19.980000" fill="red">
  <title>Shanghai</title>
</circle><line x1="230.959991" y1="220.959991" x2="683.960022" y2="545.960022" stroke="red" stroke-width="6.660000" />
<circle cx="1148.959961" cy="505.959991" r="19.980000" fill="red">
  <title>Cairo</title>
</circle><line x1="683.960022" y1="545.960022" x2="1148.959961" y2="505.959991" stroke="red" stroke-width="6.660000" />
<circle cx="1459.959961" cy="210.959991" r="19.980000" fill="red">
  <title>Mexico City</title>
</circle><line x1="1148.959961" y1="505.959991" x2="1459.959961" y2="210.959991" stroke="red" stroke-width="6.660000" />
<circle cx="1815.959961" cy="1292.959961" r="19.980000" fill="red">
  <title>São Paulo</title>
</circle><line x1="1459.959961" y1="210.959991" x2="1815.959961" y2="1292.959961" stroke="red" stroke-width="6.660000" />
<circle cx="1284.959961" cy="922.960022" r="19.980000" fill="red">
  <title>Mumbai</title>
</circle><line x1="1815.959961" y1="1292.959961" x2="1284.959961" y2="922.960022" stroke="red" stroke-width="6.660000" />
<circle cx="545.960022" cy="1150.959961" r="19.980000" fill="red">
  <title>Beijing</title>
</circle><line x1="1284.959961" y1="922.960022" x2="545.960022" y2="1150.959961" stroke="red" stroke-width="6.660000" />
</svg>
