<?xml version="1.0" encoding="UTF-8" standalone="no"?>
<svg width="500" height="500" viewBox="0 0 2074.000000 2074.000000" xmlns="http://www.w3.org/2000/svg">
<rect x="19.000000" y="19.000000" width="2036.000000" height="2036.000000" fill="black" />
<circle cx="1731.959961" cy="79.959999" r="19.980000" fill="red">
  <title>Tokyo</title>
</circle><line x1="1663.959961" y1="359.959991" x2="1731.959961" y2="79.959999" stroke="red" stroke-width="6.660000" />
<circle cx="1729.959961" cy="45.959999" r="19.980000" fill="red">
  <title>São Paulo</title>
</circle><line x1="1731.959961" y1="79.959999" x2="1729.959961" y2="45.959999" stroke="red" stroke-width="6.660000" />
<circle cx="1466.959961" cy="270.959991" r="19.980000" fill="red">
  <title>Mumbai</title>
</circle><line x1="1729.959961" y1="45.959999" x2="1466.959961" y2="270.959991" stroke="red" stroke-width="6.660000" />
<circle cx="1081.959961" cy="461.959991" r="19.980000" fill="red">
  <title>Kolkata</title>
</circle><line x1="1466.959961" y1="270.959991" x2="1081.959961" y2="461.959991" stroke="red" stroke-width="6.660000" />
<circle cx="633.960022" cy="223.959991" r="19.980000" fill="red">
  <title>Buenos Aires</title>
</circle><line x1="1081.959961" y1="461.959991" x2="633.960022" y2="223.959991" stroke="red" stroke-width="6.660000" />
<circle cx="796.960022" cy="479.959991" r="19.980000" fill="red">
  <title>Beijing</title>
</circle><line x1="633.960022" y1="223.959991" x2="796.960022" y2="479.959991" stroke="red" stroke-width="6.660000" />
<circle cx="1091.959961" cy="636.960022" r="19.980000" fill="red">
  <title>Dhaka</title>
</circle><line x1="796.960022" y1="479.959991" x2="1091.959961" y2="636.960022" stroke="red" stroke-width="6.660000" />
<circle cx="768.960022" cy="1238.959961" r="19.980000" fill="red">
  <title>Istanbul</title>
</circle><line x1="1091.959961" y1="636.960022" x2="768.960022" y2="1238.959961" stroke="red" stroke-width="6.660000" />
<circle cx="176.959991" cy="1599.959961" r="19.980000" fill="red">
  <title>Chongqing</title>
</circle><line x1="768.960022" y1="1238.959961" x2="176.959991" y2="1599.959961" stroke="red" stroke-width="6.660000" />
<circle cx="245.959991" cy="1771.959961" r="19.980000" fill="red">
  <title>New York</title>
</circle><line x1="176.959991" y1="1599.959961" x2="245.959991" y2="1771.959961" stroke="red" stroke-width="6.660000" />
<circle cx="738.960022" cy="1270.959961" r="19.980000" fill="red">
  <title>Cairo</title>
</circle><line x1="245.959991" y1="1771.959961" x2="738.960022" y2="1270.959961" stroke="red" stroke-width="6.660000" />
<circle cx="1813.959961" cy="1951.959961" r="19.980000" fill="red">
  <title>Mexico City</title>
</circle><line x1="738.960022" y1="1270.959961" x2="1813.959961" y2="1951.959961" stroke="red" stroke-width="6.660000" />
<circle cx="1932.959961" cy="1499.959961" r="19.980000" fill="red">
  <title>Shanghai</title>
</circle><line x1="1813.959961" y1="1951.959961" x2="1932.959961" y2="1499.959961" stroke="red" stroke-width="6.660000" />
<circle cx="1964.959961" cy="1200.959961" r="19.980000" fill="red">
  <title>Delhi</title>
</circle><line x1="1932.959961" y1="1499.959961" x2="1964.959961" y2="1200.959961" stroke="red" stroke-width="6.660000" />
<circle cx="1575.959961" cy="541.960022" r="19.980000" fill="red">
  <title>Karachi</title>
</circle><line x1="1964.959961" y1="1200.959961" x2="1575.959961" y2="541.960022" stroke="red" stroke-width="6.660000" />
<circle cx="1663.959961" cy="359.959991" r="19.980000" fill="red">
  <title>Osaka</title>
</circle><line x1="1575.959961" y1="541.960022" x2="1663.959961" y2="359.959991" stroke="red" stroke-width="6.660000" />
</svg>
