<?xml version="1.0" encoding="UTF-8" standalone="no"?>
<svg width="500" height="500" viewBox="0 0 2074.000000 2074.000000" xmlns="http://www.w3.org/2000/svg">
<rect x="19.000000" y="19.000000" width="2036.000000" height="2036.000000" fill="black" />
<circle cx="1039.959961" cy="516.960022" r="19.980000" fill="red">
  <title>Tokyo</title>
</circle><line x1="1525.959961" y1="1150.959961" x2="1039.959961" y2="516.960022" stroke="red" stroke-width="6.660000" />
<circle cx="1089.959961" cy="291.959991" r="19.980000" fill="red">
  <title>Delhi</title>
</circle><line x1="1039.959961" y1="516.960022" x2="1089.959961" y2="291.959991" stroke="red" stroke-width="6.660000" />
<circle cx="1525.959961" cy="1150.959961" r="19.980000" fill="red">
  <title>Shanghai</title>
</circle><line x1="1089.959961" y1="291.959991" x2="1525.959961" y2="1150.959961" stroke="red" stroke-width="6.660000" />
</svg>
