<?xml version="1.0" encoding="UTF-8" standalone="no"?>
<svg width="500" height="500" viewBox="0 0 2074.000000 2074.000000" xmlns="http://www.w3.org/2000/svg">
<rect x="19.000000" y="19.000000" width="2036.000000" height="2036.000000" fill="black" />
<circle cx="1078.959961" cy="598.960022" r="19.980000" fill="red">
  <title>Tokyo</title>
</circle><line x1="613.960022" y1="307.959991" x2="1078.959961" y2="598.960022" stroke="red" stroke-width="6.660000" />
<circle cx="1380.959961" cy="1445.959961" r="19.980000" fill="red">
  <title>Delhi</title>
</circle><line x1="1078.959961" y1="598.960022" x2="1380.959961" y2="1445.959961" stroke="red" stroke-width="6.660000" />
<circle cx="1337.959961" cy="1881.959961" r="19.980000" fill="red">
  <title>Cairo</title>
</circle><line x1="1380.959961" y1="1445.959961" x2="1337.959961" y2="1881.959961" stroke="red" stroke-width="6.660000" />
<circle cx="1299.959961" cy="1956.959961" r="19.980000" fill="red">
  <title>Beijing</title>
</circle><line x1="1337.959961" y1="1881.959961" x2="1299.959961" y2="1956.959961" stroke="red" stroke-width="6.660000" />
<circle cx="1070.959961" cy="1820.959961" r="19.980000" fill="red">
  <title>Shanghai</title>
</circle><line x1="1299.959961" y1="1956.959961" x2="1070.959961" y2="1820.959961" stroke="red" stroke-width="6.660000" />
<circle cx="768.960022" cy="1891.959961" r="19.980000" fill="red">
  <title>Mexico City</title>
</circle><line x1="1070.959961" y1="1820.959961" x2="768.960022" y2="1891.959961" stroke="red" stroke-width="6.660000" />
<circle cx="660.960022" cy="1908.959961" r="19.980000" fill="red">
  <title>São Paulo</title>
</circle><line x1="768.960022" y1="1891.959961" x2="660.960022" y2="1908.959961" stroke="red" stroke-width="6.660000" />
<circle cx="395.959991" cy="1593.959961" r="19.980000" fill="red">
  <title>Dhaka</title>
</circle><line x1="660.960022" y1="1908.959961" x2="395.959991" y2="1593.959961" stroke="red" stroke-width="6.660000" />
<circle cx="613.960022" cy="307.959991" r="19.980000" fill="red">
  <title>Mumbai</title>
</circle><line x1="395.959991" y1="1593.959961" x2="613.960022" y2="307.959991" stroke="red" stroke-width="6.660000" />
</svg>
