<?xml version="1.0" encoding="UTF-8" standalone="no"?>
<svg width="500" height="500" viewBox="0 0 2074.000000 2074.000000" xmlns="http://www.w3.org/2000/svg">
<rect x="19.000000" y="19.000000" width="2036.000000" height="2036.000000" fill="black" />
<circle cx="1415.959961" cy="1875.959961" r="19.980000" fill="red">
  <title>Tokyo</title>
</circle><line x1="1608.959961" y1="1814.959961" x2="1415.959961" y2="1875.959961" stroke="red" stroke-width="6.660000" />
<circle cx="1194.959961" cy="1942.959961" r="19.980000" fill="red">
  <title>Mexico City</title>
</circle><line x1="1415.959961" y1="1875.959961" x2="1194.959961" y2="1942.959961" stroke="red" stroke-width="6.660000" />
<circle cx="1009.960022" cy="1498.959961" r="19.980000" fill="red">
  <title>Osaka</title>
</circle><line x1="1194.959961" y1="1942.959961" x2="1009.960022" y2="1498.959961" stroke="red" stroke-width="6.660000" />
<circle cx="873.960022" cy="1580.959961" r="19.980000" fill="red">
  <title>Dhaka</title>
</circle><line x1="1009.960022" y1="1498.959961" x2="873.960022" y2="1580.959961" stroke="red" stroke-width="6.660000" />
<circle cx="302.959991" cy="2029.959961" r="19.980000" fill="red">
  <title>Cairo</title>
</circle><line x1="873.960022" y1="1580.959961" x2="302.959991" y2="2029.959961" stroke="red" stroke-width="6.660000" />
<circle cx="254.959991" cy="1461.959961" r="19.980000" fill="red">
  <title>Chongqing</title>
</circle><line x1="302.959991" y1="2029.959961" x2="254.959991" y2="1461.959961" stroke="red" stroke-width="6.660000" />
<circle cx="140.959991" cy="1466.959961" r="19.980000" fill="red">
  <title>Lagos</title>
</circle><line x1="254.959991" y1="1461.959961" x2="140.959991" y2="1466.959961" stroke="red" stroke-width="6.660000" />
<circle cx="145.959991" cy="1331.959961" r="19.980000" fill="red">
  <title>New York</title>
</circle><line x1="140.959991" y1="1466.959961" x2="145.959991" y2="1331.959961" stroke="red" stroke-width="6.660000" />
<circle cx="89.959999" cy="1165.959961" r="19.980000" fill="red">
  <title>São Paulo</title>
</circle><line x1="145.959991" y1="1331.959961" x2="89.959999" y2="1165.959961" stroke="red" stroke-width="6.660000" />
<circle cx="268.959991" cy="880.960022" r="19.980000" fill="red">
  <title>Manila</title>
</circle><line x1="89.959999" y1="1165.959961" x2="268.959991" y2="880.960022" stroke="red" stroke-width="6.660000" />
<circle cx="64.959999" cy="191.959991" r="19.980000" fill="red">
  <title>Rio de Janeiro</title>
</circle><line x1="268.959991" y1="880.960022" x2="64.959999" y2="191.959991" stroke="red" stroke-width="6.660000" />
<circle cx="714.960022" cy="724.960022" r="19.980000" fill="red">
  <title>Karachi</title>
</circle><line x1="64.959999" y1="191.959991" x2="714.960022" y2="724.960022" stroke="red" stroke-width="6.660000" />
<circle cx="754.960022" cy="431.959991" r="19.980000" fill="red">
  <title>Istanbul</title>
</circle><line x1="714.960022" y1="724.960022" x2="754.960022" y2="431.959991" stroke="red" stroke-width="6.660000" />
<circle cx="1249.959961" cy="132.959991" r="19.980000" fill="red">
  <title>Kolkata</title>
</circle><line x1="754.960022" y1="431.959991" x2="1249.959961" y2="132.959991" stroke="red" stroke-width="6.660000" />
<circle cx="1669.959961" cy="47.959999" r="19.980000" fill="red">
  <title>Delhi</title>
</circle><line x1="1249.959961" y1="132.959991" x2="1669.959961" y2="47.959999" stroke="red" stroke-width="6.660000" />
<circle cx="1903.959961" cy="1061.959961" r="19.980000" fill="red">
  <title>Mumbai</title>
</circle><line x1="1669.959961" y1="47.959999" x2="1903.959961" y2="1061.959961" stroke="red" stroke-width="6.660000" />
<circle cx="1465.959961" cy="994.960022" r="19.980000" fill="red">
  <title>Buenos Aires</title>
</circle><line x1="1903.959961" y1="1061.959961" x2="1465.959961" y2="994.960022" stroke="red" stroke-width="6.660000" />
<circle cx="1236.959961" cy="1221.959961" r="19.980000" fill="red">
  <title>Shanghai</title>
</circle><line x1="1465.959961" y1="994.960022" x2="1236.959961" y2="1221.959961" stroke="red" stroke-width="6.660000" />
<circle cx="1608.959961" cy="1814.959961" r="19.980000" fill="red">
  <title>Beijing</title>
</circle><line x1="1236.959961" y1="1221.959961" x2="1608.959961" y2="1814.959961" stroke="red" stroke-width="6.660000" />
</svg>
