<?xml version="1.0" encoding="UTF-8" standalone="no"?>
<svg width="500" height="500" viewBox="0 0 2074.000000 2074.000000" xmlns="http://www.w3.org/2000/svg">
<rect x="19.000000" y="19.000000" width="2036.000000" height="2036.000000" fill="black" />
<circle cx="1355.959961" cy="1418.959961" r="19.980000" fill="red">
  <title>Tokyo</title>
</circle><line x1="1254.959961" y1="1779.959961" x2="1355.959961" y2="1418.959961" stroke="red" stroke-width="6.660000" />
<circle cx="1615.959961" cy="862.960022" r="19.980000" fill="red">
  <title>Mexico City</title>
</circle><line x1="1355.959961" y1="1418.959961" x2="1615.959961" y2="862.960022" stroke="red" stroke-width="6.660000" />
<circle cx="1370.959961" cy="798.960022" r="19.980000" fill="red">
  <title>Beijing</title>
</circle><line x1="1615.959961" y1="862.960022" x2="1370.959961" y2="798.960022" stroke="red" stroke-width="6.660000" />
<circle cx="810.960022" cy="360.959991" r="19.980000" fill="red">
  <title>Mumbai</title>
</circle><line x1="1370.959961" y1="798.960022" x2="810.960022" y2="360.959991" stroke="red" stroke-width="6.660000" />
<circle cx="523.960022" cy="144.959991" r="19.980000" fill="red">
  <title>Shanghai</title>
</circle><line x1="810.960022" y1="360.959991" x2="523.960022" y2="144.959991" stroke="red" stroke-width="6.660000" />
<circle cx="893.960022" cy="1219.959961" r="19.980000" fill="red">
  <title>Delhi</title>
</circle><line x1="523.960022" y1="144.959991" x2="893.960022" y2="1219.959961" stroke="red" stroke-width="6.660000" />
<circle cx="175.959991" cy="1589.959961" r="19.980000" fill="red">
  <title>New York</title>
</circle><line x1="893.960022" y1="1219.959961" x2="175.959991" y2="1589.959961" stroke="red" stroke-width="6.660000" />
<circle cx="533.960022" cy="1848.959961" r="19.980000" fill="red">
  <title>Dhaka</title>
</circle><line x1="175.959991" y1="1589.959961" x2="533.960022" y2="1848.959961" stroke="red" stroke-width="6.660000" />
<circle cx="777.960022" cy="1901.959961" r="19.980000" fill="red">
  <title>São Paulo</title>
</circle><line x1="533.960022" y1="1848.959961" x2="777.960022" y2="1901.959961" stroke="red" stroke-width="6.660000" />
<circle cx="1324.959961" cy="1929.959961" r="19.980000" fill="red">
  <title>Osaka</title>
</circle><line x1="777.960022" y1="1901.959961" x2="1324.959961" y2="1929.959961" stroke="red" stroke-width="6.660000" />
<circle cx="1254.959961" cy="1779.959961" r="19.980000" fill="red">
  <title>Cairo</title>
</circle><line x1="1324.959961" y1="1929.959961" x2="1254.959961" y2="1779.959961" stroke="red" stroke-width="6.660000" />
</svg>
