<?xml version="1.0" encoding="UTF-8" standalone="no"?>
<svg width="500" height="500" viewBox="0 0 2074.000000 2074.000000" xmlns="http://www.w3.org/2000/svg">
<rect x="19.000000" y="19.000000" width="2036.000000" height="2036.000000" fill="black" />
<circle cx="1244.959961" cy="478.959991" r="19.980000" fill="red">
  <title>Tokyo</title>
</circle><line x1="1213.959961" y1="193.959991" x2="1244.959961" y2="478.959991" stroke="red" stroke-width="6.660000" />
<circle cx="977.960022" cy="551.960022" r="19.980000" fill="red">
  <title>New York</title>
</circle><line x1="1244.959961" y1="478.959991" x2="977.960022" y2="551.960022" stroke="red" stroke-width="6.660000" />
<circle cx="681.960022" cy="903.960022" r="19.980000" fill="red">
  <title>Mumbai</title>
</circle><line x1="977.960022" y1="551.960022" x2="681.960022" y2="903.960022" stroke="red" stroke-width="6.660000" />
<circle cx="314.959991" cy="715.960022" r="19.980000" fill="red">
  <title>Delhi</title>
</circle><line x1="681.960022" y1="903.960022" x2="314.959991" y2="715.960022" stroke="red" stroke-width="6.660000" />
<circle cx="462.959991" cy="375.959991" r="19.980000" fill="red">
  <title>Tianjin</title>
</circle><line x1="314.959991" y1="715.960022" x2="462.959991" y2="375.959991" stroke="red" stroke-width="6.660000" />
<circle cx="88.959999" cy="295.959991" r="19.980000" fill="red">
  <title>Karachi</title>
</circle><line x1="462.959991" y1="375.959991" x2="88.959999" y2="295.959991" stroke="red" stroke-width="6.660000" />
<circle cx="109.959999" cy="773.960022" r="19.980000" fill="red">
  <title>Istanbul</title>
</circle><line x1="88.959999" y1="295.959991" x2="109.959999" y2="773.960022" stroke="red" stroke-width="6.660000" />
<circle cx="178.959991" cy="1534.959961" r="19.980000" fill="red">
  <title>Osaka</title>
</circle><line x1="109.959999" y1="773.960022" x2="178.959991" y2="1534.959961" stroke="red" stroke-width="6.660000" />
<circle cx="416.959991" cy="1584.959961" r="19.980000" fill="red">
  <title>Rio de Janeiro</title>
</circle><line x1="178.959991" y1="1534.959961" x2="416.959991" y2="1584.959961" stroke="red" stroke-width="6.660000" />
<circle cx="1223.959961" cy="1919.959961" r="19.980000" fill="red">
  <title>Chongqing</title>
</circle><line x1="416.959991" y1="1584.959961" x2="1223.959961" y2="1919.959961" stroke="red" stroke-width="6.660000" />
<circle cx="1631.959961" cy="1956.959961" r="19.980000" fill="red">
  <title>São Paulo</title>
</circle><line x1="1223.959961" y1="1919.959961" x2="1631.959961" y2="1956.959961" stroke="red" stroke-width="6.660000" />
<circle cx="1666.959961" cy="2026.959961" r="19.980000" fill="red">
  <title>Dhaka</title>
</circle><line x1="1631.959961" y1="1956.959961" x2="1666.959961" y2="2026.959961" stroke="red" stroke-width="6.660000" />
<circle cx="1997.959961" cy="1781.959961" r="19.980000" fill="red">
  <title>Mexico City</title>
</circle><line x1="1666.959961" y1="2026.959961" x2="1997.959961" y2="1781.959961" stroke="red" stroke-width="6.660000" />
<circle cx="1867.959961" cy="1571.959961" r="19.980000" fill="red">
  <title>Buenos Aires</title>
</circle><line x1="1997.959961" y1="1781.959961" x2="1867.959961" y2="1571.959961" stroke="red" stroke-width="6.660000" />
<circle cx="1916.959961" cy="1314.959961" r="19.980000" fill="red">
  <title>Kolkata</title>
</circle><line x1="1867.959961" y1="1571.959961" x2="1916.959961" y2="1314.959961" stroke="red" stroke-width="6.660000" />
<circle cx="1525.959961" cy="855.960022" r="19.980000" fill="red">
  <title>Beijing</title>
</circle><line x1="1916.959961" y1="1314.959961" x2="1525.959961" y2="855.960022" stroke="red" stroke-width="6.660000" />
<circle cx="1991.959961" cy="543.960022" r="19.980000" fill="red">
  <title>Lagos</title>
</circle><line x1="1525.959961" y1="855.960022" x2="1991.959961" y2="543.960022" stroke="red" stroke-width="6.660000" />
<circle cx="1429.959961" cy="387.959991" r="19.980000" fill="red">
  <title>Cairo</title>
</circle><line x1="1991.959961" y1="543.960022" x2="1429.959961" y2="387.959991" stroke="red" stroke-width="6.660000" />
<circle cx="1368.959961" cy="261.959991" r="19.980000" fill="red">
  <title>Shanghai</title>
</circle><line x1="1429.959961" y1="387.959991" x2="1368.959961" y2="261.959991" stroke="red" stroke-width="6.660000" />
<circle cx="1213.959961" cy="193.959991" r="19.980000" fill="red">
  <title>Manila</title>
</circle><line x1="1368.959961" y1="261.959991" x2="1213.959961" y2="193.959991" stroke="red" stroke-width="6.660000" />
</svg>
