<?xml version="1.0" encoding="UTF-8" standalone="no"?>
<svg width="500" height="500" viewBox="0 0 2074.000000 2074.000000" xmlns="http://www.w3.org/2000/svg">
<rect x="19.000000" y="19.000000" width="2036.000000" height="2036.000000" fill="black" />
<circle cx="1992.959961" cy="555.960022" r="19.980000" fill="red">
  <title>Tokyo</title>
</circle><line x1="1888.959961" y1="1848.959961" x2="1992.959961" y2="555.960022" stroke="red" stroke-width="6.660000" />
<circle cx="626.960022" cy="702.960022" r="19.980000" fill="red">
  <title>São Paulo</title>
</circle><line x1="1992.959961" y1="555.960022" x2="626.960022" y2="702.960022" stroke="red" stroke-width="6.660000" />
<circle cx="136.959991" cy="1533.959961" r="19.980000" fill="red">
  <title>Delhi</title>
</circle><line x1="626.960022" y1="702.960022" x2="136.959991" y2="1533.959961" stroke="red" stroke-width="6.660000" />
<circle cx="554.960022" cy="1966.959961" r="19.980000" fill="red">
  <title>Shanghai</title>
</circle><line x1="136.959991" y1="1533.959961" x2="554.960022" y2="1966.959961" stroke="red" stroke-width="6.660000" />
<circle cx="1888.959961" cy="1848.959961" r="19.980000" fill="red">
  <title>Mexico City</title>
</circle><line x1="554.960022" y1="1966.959961" x2="1888.959961" y2="1848.959961" stroke="red" stroke-width="6.660000" />
</svg>
