<?xml version="1.0" encoding="UTF-8" standalone="no"?>
<svg width="500" height="500" viewBox="0 0 2074.000000 2074.000000" xmlns="http://www.w3.org/2000/svg">
<rect x="19.000000" y="19.000000" width="2036.000000" height="2036.000000" fill="black" />
<circle cx="862.960022" cy="2034.959961" r="19.980000" fill="red">
  <title>Tokyo</title>
</circle><line x1="951.960022" y1="1921.959961" x2="862.960022" y2="2034.959961" stroke="red" stroke-width="6.660000" />
<circle cx="765.960022" cy="1815.959961" r="19.980000" fill="red">
  <title>São Paulo</title>
</circle><line x1="862.960022" y1="2034.959961" x2="765.960022" y2="1815.959961" stroke="red" stroke-width="6.660000" />
<circle cx="101.959999" cy="1184.959961" r="19.980000" fill="red">
  <title>Delhi</title>
</circle><line x1="765.960022" y1="1815.959961" x2="101.959999" y2="1184.959961" stroke="red" stroke-width="6.660000" />
<circle cx="152.959991" cy="937.960022" r="19.980000" fill="red">
  <title>Osaka</title>
</circle><line x1="101.959999" y1="1184.959961" x2="152.959991" y2="937.960022" stroke="red" stroke-width="6.660000" />
<circle cx="445.959991" cy="499.959991" r="19.980000" fill="red">
  <title>Shanghai</title>
</circle><line x1="152.959991" y1="937.960022" x2="445.959991" y2="499.959991" stroke="red" stroke-width="6.660000" />
<circle cx="332.959991" cy="203.959991" r="19.980000" fill="red">
  <title>Chongqing</title>
</circle><line x1="445.959991" y1="499.959991" x2="332.959991" y2="203.959991" stroke="red" stroke-width="6.660000" />
<circle cx="575.960022" cy="748.960022" r="19.980000" fill="red">
  <title>Cairo</title>
</circle><line x1="332.959991" y1="203.959991" x2="575.960022" y2="748.960022" stroke="red" stroke-width="6.660000" />
<circle cx="1272.959961" cy="464.959991" r="19.980000" fill="red">
  <title>Istanbul</title>
</circle><line x1="575.960022" y1="748.960022" x2="1272.959961" y2="464.959991" stroke="red" stroke-width="6.660000" />
<circle cx="1715.959961" cy="96.959999" r="19.980000" fill="red">
  <title>Kolkata</title>
</circle><line x1="1272.959961" y1="464.959991" x2="1715.959961" y2="96.959999" stroke="red" stroke-width="6.660000" />
<circle cx="1903.959961" cy="1311.959961" r="19.980000" fill="red">
  <title>Mexico City</title>
</circle><line x1="1715.959961" y1="96.959999" x2="1903.959961" y2="1311.959961" stroke="red" stroke-width="6.660000" />
<circle cx="2023.959961" cy="1618.959961" r="19.980000" fill="red">
  <title>Dhaka</title>
</circle><line x1="1903.959961" y1="1311.959961" x2="2023.959961" y2="1618.959961" stroke="red" stroke-width="6.660000" />
<circle cx="1778.959961" cy="1482.959961" r="19.980000" fill="red">
  <title>Mumbai</title>
</circle><line x1="2023.959961" y1="1618.959961" x2="1778.959961" y2="1482.959961" stroke="red" stroke-width="6.660000" />
<circle cx="1658.959961" cy="1536.959961" r="19.980000" fill="red">
  <title>Beijing</title>
</circle><line x1="1778.959961" y1="1482.959961" x2="1658.959961" y2="1536.959961" stroke="red" stroke-width="6.660000" />
<circle cx="1385.959961" cy="1571.959961" r="19.980000" fill="red">
  <title>New York</title>
</circle><line x1="1658.959961" y1="1536.959961" x2="1385.959961" y2="1571.959961" stroke="red" stroke-width="6.660000" />
<circle cx="1463.959961" cy="1967.959961" r="19.980000" fill="red">
  <title>Karachi</title>
</circle><line x1="1385.959961" y1="1571.959961" x2="1463.959961" y2="1967.959961" stroke="red" stroke-width="6.660000" />
<circle cx="951.960022" cy="1921.959961" r="19.980000" fill="red">
  <title>Buenos Aires</title>
</circle><line x1="1463.959961" y1="1967.959961" x2="951.960022" y2="1921.959961" stroke="red" stroke-width="6.660000" />
</svg>
