<?xml version="1.0" encoding="UTF-8" standalone="no"?>
<svg width="500" height="500" viewBox="0 0 2074.000000 2074.000000" xmlns="http://www.w3.org/2000/svg">
<rect x="19.000000" y="19.000000" width="2036.000000" height="2036.000000" fill="black" />
<circle cx="454.959991" cy="1804.959961" r="19.980000" fill="red">
  <title>Tokyo</title>
</circle><line x1="432.959991" y1="855.960022" x2="454.959991" y2="1804.959961" stroke="red" stroke-width="6.660000" />
<circle cx="1040.959961" cy="1539.959961" r="19.980000" fill="red">
  <title>Shanghai</title>
</circle><line x1="454.959991" y1="1804.959961" x2="1040.959961" y2="1539.959961" stroke="red" stroke-width="6.660000" />
<circle cx="1146.959961" cy="1298.959961" r="19.980000" fill="red">
  <title>Delhi</title>
</circle><line x1="1040.959961" y1="1539.959961" x2="1146.959961" y2="1298.959961" stroke="red" stroke-width="6.660000" />
<circle cx="1781.959961" cy="1248.959961" r="19.980000" fill="red">
  <title>Beijing</title>
</circle><line x1="1146.959961" y1="1298.959961" x2="1781.959961" y2="1248.959961" stroke="red" stroke-width="6.660000" />
<circle cx="1335.959961" cy="873.960022" r="19.980000" fill="red">
  <title>New York</title>
</circle><line x1="1781.959961" y1="1248.959961" x2="1335.959961" y2="873.960022" stroke="red" stroke-width="6.660000" />
<circle cx="1712.959961" cy="540.960022" r="19.980000" fill="red">
  <title>Buenos Aires</title>
</circle><line x1="1335.959961" y1="873.960022" x2="1712.959961" y2="540.960022" stroke="red" stroke-width="6.660000" />
<circle cx="2033.959961" cy="272.959991" r="19.980000" fill="red">
  <title>Cairo</title>
</circle><line x1="1712.959961" y1="540.960022" x2="2033.959961" y2="272.959991" stroke="red" stroke-width="6.660000" />
<circle cx="1457.959961" cy="316.959991" r="19.980000" fill="red">
  <title>Dhaka</title>
</circle><line x1="2033.959961" y1="272.959991" x2="1457.959961" y2="316.959991" stroke="red" stroke-width="6.660000" />
<circle cx="1236.959961" cy="228.959991" r="19.980000" fill="red">
  <title>Karachi</title>
</circle><line x1="1457.959961" y1="316.959991" x2="1236.959961" y2="228.959991" stroke="red" stroke-width="6.660000" />
<circle cx="909.960022" cy="565.960022" r="19.980000" fill="red">
  <title>Mumbai</title>
</circle><line x1="1236.959961" y1="228.959991" x2="909.960022" y2="565.960022" stroke="red" stroke-width="6.660000" />
<circle cx="856.960022" cy="921.960022" r="19.980000" fill="red">
  <title>Osaka</title>
</circle><line x1="909.960022" y1="565.960022" x2="856.960022" y2="921.960022" stroke="red" stroke-width="6.660000" />
<circle cx="420.959991" cy="624.960022" r="19.980000" fill="red">
  <title>São Paulo</title>
</circle><line x1="856.960022" y1="921.960022" x2="420.959991" y2="624.960022" stroke="red" stroke-width="6.660000" />
<circle cx="432.959991" cy="855.960022" r="19.980000" fill="red">
  <title>Mexico City</title>
</circle><line x1="420.959991" y1="624.960022" x2="432.959991" y2="855.960022" stroke="red" stroke-width="6.660000" />
</svg>
