<?xml version="1.0" encoding="UTF-8" standalone="no"?>
<svg width="500" height="500" viewBox="0 0 2074.000000 2074.000000" xmlns="http://www.w3.org/2000/svg">
<rect x="19.000000" y="19.000000" width="2036.000000" height="2036.000000" fill="black" />
<circle cx="1998.959961" cy="549.960022" r="19.980000" fill="red">
  <title>Tokyo</title>
</circle><line x1="1979.959961" y1="974.960022" x2="1998.959961" y2="549.960022" stroke="red" stroke-width="6.660000" />
<circle cx="1796.959961" cy="378.959991" r="19.980000" fill="red">
  <title>Karachi</title>
</circle><line x1="1998.959961" y1="549.960022" x2="1796.959961" y2="378.959991" stroke="red" stroke-width="6.660000" />
<circle cx="1251.959961" cy="786.960022" r="19.980000" fill="red">
  <title>São Paulo</title>
</circle><line x1="1796.959961" y1="378.959991" x2="1251.959961" y2="786.960022" stroke="red" stroke-width="6.660000" />
<circle cx="1288.959961" cy="873.960022" r="19.980000" fill="red">
  <title>Cairo</title>
</circle><line x1="1251.959961" y1="786.960022" x2="1288.959961" y2="873.960022" stroke="red" stroke-width="6.660000" />
<circle cx="1053.959961" cy="1161.959961" r="19.980000" fill="red">
  <title>Beijing</title>
</circle><line x1="1288.959961" y1="873.960022" x2="1053.959961" y2="1161.959961" stroke="red" stroke-width="6.660000" />
<circle cx="538.960022" cy="691.960022" r="19.980000" fill="red">
  <title>New York</title>
</circle><line x1="1053.959961" y1="1161.959961" x2="538.960022" y2="691.960022" stroke="red" stroke-width="6.660000" />
<circle cx="285.959991" cy="1385.959961" r="19.980000" fill="red">
  <title>Mexico City</title>
</circle><line x1="538.960022" y1="691.960022" x2="285.959991" y2="1385.959961" stroke="red" stroke-width="6.660000" />
<circle cx="653.960022" cy="1695.959961" r="19.980000" fill="red">
  <title>Dhaka</title>
</circle><line x1="285.959991" y1="1385.959961" x2="653.960022" y2="1695.959961" stroke="red" stroke-width="6.660000" />
<circle cx="870.960022" cy="1539.959961" r="19.980000" fill="red">
  <title>Osaka</title>
</circle><line x1="653.960022" y1="1695.959961" x2="870.960022" y2="1539.959961" stroke="red" stroke-width="6.660000" />
<circle cx="1237.959961" cy="1446.959961" r="19.980000" fill="red">
  <title>Shanghai</title>
</circle><line x1="870.960022" y1="1539.959961" x2="1237.959961" y2="1446.959961" stroke="red" stroke-width="6.660000" />
<circle cx="1563.959961" cy="1923.959961" r="19.980000" fill="red">
  <title>Mumbai</title>
</circle><line x1="1237.959961" y1="1446.959961" x2="1563.959961" y2="1923.959961" stroke="red" stroke-width="6.660000" />
<circle cx="1718.959961" cy="1925.959961" r="19.980000" fill="red">
  <title>Delhi</title>
</circle><line x1="1563.959961" y1="1923.959961" x2="1718.959961" y2="1925.959961" stroke="red" stroke-width="6.660000" />
<circle cx="1588.959961" cy="1684.959961" r="19.980000" fill="red">
  <title>Chongqing</title>
</circle><line x1="1718.959961" y1="1925.959961" x2="1588.959961" y2="1684.959961" stroke="red" stroke-width="6.660000" />
<circle cx="1979.959961" cy="974.960022" r="19.980000" fill="red">
  <title>Buenos Aires</title>
</circle><line x1="1588.959961" y1="1684.959961" x2="1979.959961" y2="974.960022" stroke="red" stroke-width="6.660000" />
</svg>
