<?xml version="1.0" encoding="UTF-8" standalone="no"?>
<svg width="500" height="500" viewBox="0 0 2074.000000 2074.000000" xmlns="http://www.w3.org/2000/svg">
<rect x="19.000000" y="19.000000" width="2036.000000" height="2036.000000" fill="black" />
<circle cx="1602.959961" cy="550.960022" r="19.980000" fill="red">
  <title>Tokyo</title>
</circle><line x1="2036.959961" y1="825.960022" x2="1602.959961" y2="550.960022" stroke="red" stroke-width="6.660000" />
<circle cx="1321.959961" cy="110.959999" r="19.980000" fill="red">
  <title>Mexico City</title>
</circle><line x1="1602.959961" y1="550.960022" x2="1321.959961" y2="110.959999" stroke="red" stroke-width="6.660000" />
<circle cx="1393.959961" cy="1051.959961" r="19.980000" fill="red">
  <title>São Paulo</title>
</circle><line x1="1321.959961" y1="110.959999" x2="1393.959961" y2="1051.959961" stroke="red" stroke-width="6.660000" />
<circle cx="98.959999" cy="1938.959961" r="19.980000" fill="red">
  <title>Delhi</title>
</circle><line x1="1393.959961" y1="1051.959961" x2="98.959999" y2="1938.959961" stroke="red" stroke-width="6.660000" />
<circle cx="1281.959961" cy="1298.959961" r="19.980000" fill="red">
  <title>Shanghai</title>
</circle><line x1="98.959999" y1="1938.959961" x2="1281.959961" y2="1298.959961" stroke="red" stroke-width="6.660000" />
<circle cx="2036.959961" cy="825.960022" r="19.980000" fill="red">
  <title>Cairo</title>
</circle><line x1="1281.959961" y1="1298.959961" x2="2036.959961" y2="825.960022" stroke="red" stroke-width="6.660000" />
</svg>
