<?xml version="1.0" encoding="UTF-8" standalone="no"?>
<svg width="500" height="500" viewBox="0 0 2074.000000 2074.000000" xmlns="http://www.w3.org/2000/svg">
<rect x="19.000000" y="19.000000" width="2036.000000" height="2036.000000" fill="black" />
<circle cx="118.959999" cy="1878.959961" r="19.980000" fill="red">
  <title>Tokyo</title>
</circle><line x1="537.960022" y1="1091.959961" x2="118.959999" y2="1878.959961" stroke="red" stroke-width="6.660000" />
<circle cx="594.960022" cy="1926.959961" r="19.980000" fill="red">
  <title>Shanghai</title>
</circle><line x1="118.959999" y1="1878.959961" x2="594.960022" y2="1926.959961" stroke="red" stroke-width="6.660000" />
<circle cx="1174.959961" cy="1841.959961" r="19.980000" fill="red">
  <title>Cairo</title>
</circle><line x1="594.960022" y1="1926.959961" x2="1174.959961" y2="1841.959961" stroke="red" stroke-width="6.660000" />
<circle cx="1861.959961" cy="889.960022" r="19.980000" fill="red">
  <title>Dhaka</title>
</circle><line x1="1174.959961" y1="1841.959961" x2="1861.959961" y2="889.960022" stroke="red" stroke-width="6.660000" />
<circle cx="2007.959961" cy="573.960022" r="19.980000" fill="red">
  <title>Beijing</title>
</circle><line x1="1861.959961" y1="889.960022" x2="2007.959961" y2="573.960022" stroke="red" stroke-width="6.660000" />
<circle cx="1671.959961" cy="353.959991" r="19.980000" fill="red">
  <title>Delhi</title>
</circle><line x1="2007.959961" y1="573.960022" x2="1671.959961" y2="353.959991" stroke="red" stroke-width="6.660000" />
<circle cx="1642.959961" cy="248.959991" r="19.980000" fill="red">
  <title>Mumbai</title>
</circle><line x1="1671.959961" y1="353.959991" x2="1642.959961" y2="248.959991" stroke="red" stroke-width="6.660000" />
<circle cx="791.960022" cy="327.959991" r="19.980000" fill="red">
  <title>São Paulo</title>
</circle><line x1="1642.959961" y1="248.959991" x2="791.960022" y2="327.959991" stroke="red" stroke-width="6.660000" />
<circle cx="384.959991" cy="536.960022" r="19.980000" fill="red">
  <title>Mexico City</title>
</circle><line x1="791.960022" y1="327.959991" x2="384.959991" y2="536.960022" stroke="red" stroke-width="6.660000" />
<circle cx="537.960022" cy="1091.959961" r="19.980000" fill="red">
  <title>Osaka</title>
</circle><line x1="384.959991" y1="536.960022" x2="537.960022" y2="1091.959961" stroke="red" stroke-width="6.660000" />
</svg>
