<?xml version="1.0" encoding="UTF-8" standalone="no"?>
<svg width="500" height="500" viewBox="0 0 2074.000000 2074.000000" xmlns="http://www.w3.org/2000/svg">
<rect x="19.000000" y="19.000000" width="2036.000000" height="2036.000000" fill="black" />
<circle cx="1685.959961" cy="377.959991" r="19.980000" fill="red">
  <title>Tokyo</title>
</circle><line x1="1269.959961" y1="830.960022" x2="1685.959961" y2="377.959991" stroke="red" stroke-width="6.660000" />
<circle cx="1980.959961" cy="512.960022" r="19.980000" fill="red">
  <title>Delhi</title>
</circle><line x1="1685.959961" y1="377.959991" x2="1980.959961" y2="512.960022" stroke="red" stroke-width="6.660000" />
<circle cx="1843.959961" cy="792.960022" r="19.980000" fill="red">
  <title>Beijing</title>
</circle><line x1="1980.959961" y1="512.960022" x2="1843.959961" y2="792.960022" stroke="red" stroke-width="6.660000" />
<circle cx="1502.959961" cy="1193.959961" r="19.980000" fill="red">
  <title>Mumbai</title>
</circle><line x1="1843.959961" y1="792.960022" x2="1502.959961" y2="1193.959961" stroke="red" stroke-width="6.660000" />
<circle cx="1679.959961" cy="1533.959961" r="19.980000" fill="red">
  <title>Dhaka</title>
</circle><line x1="1502.959961" y1="1193.959961" x2="1679.959961" y2="1533.959961" stroke="red" stroke-width="6.660000" />
<circle cx="1066.959961" cy="1398.959961" r="19.980000" fill="red">
  <title>Cairo</title>
</circle><line x1="1679.959961" y1="1533.959961" x2="1066.959961" y2="1398.959961" stroke="red" stroke-width="6.660000" />
<circle cx="960.960022" cy="1302.959961" r="19.980000" fill="red">
  <title>Osaka</title>
</circle><line x1="1066.959961" y1="1398.959961" x2="960.960022" y2="1302.959961" stroke="red" stroke-width="6.660000" />
<circle cx="173.959991" cy="1347.959961" r="19.980000" fill="red">
  <title>Shanghai</title>
</circle><line x1="960.960022" y1="1302.959961" x2="173.959991" y2="1347.959961" stroke="red" stroke-width="6.660000" />
<circle cx="293.959991" cy="936.960022" r="19.980000" fill="red">
  <title>São Paulo</title>
</circle><line x1="173.959991" y1="1347.959961" x2="293.959991" y2="936.960022" stroke="red" stroke-width="6.660000" />
<circle cx="339.959991" cy="957.960022" r="19.980000" fill="red">
  <title>Mexico City</title>
</circle><line x1="293.959991" y1="936.960022" x2="339.959991" y2="957.960022" stroke="red" stroke-width="6.660000" />
<circle cx="1269.959961" cy="830.960022" r="19.980000" fill="red">
  <title>New York</title>
</circle><line x1="339.959991" y1="957.960022" x2="1269.959961" y2="830.960022" stroke="red" stroke-width="6.660000" />
</svg>
