<?xml version="1.0" encoding="UTF-8" standalone="no"?>
<svg width="500" height="500" viewBox="0 0 2074.000000 2074.000000" xmlns="http://www.w3.org/2000/svg">
<rect x="19.000000" y="19.000000" width="2036.000000" height="2036.000000" fill="black" />
<circle cx="100.959999" cy="1457.959961" r="19.980000" fill="red">
  <title>Tokyo</title>
</circle><line x1="548.960022" y1="1293.959961" x2="100.959999" y2="1457.959961" stroke="red" stroke-width="6.660000" />
<circle cx="354.959991" cy="943.960022" r="19.980000" fill="red">
  <title>Shanghai</title>
</circle><line x1="100.959999" y1="1457.959961" x2="354.959991" y2="943.960022" stroke="red" stroke-width="6.660000" />
<circle cx="490.959991" cy="979.960022" r="19.980000" fill="red">
  <title>Cairo</title>
</circle><line x1="354.959991" y1="943.960022" x2="490.959991" y2="979.960022" stroke="red" stroke-width="6.660000" />
<circle cx="732.960022" cy="745.960022" r="19.980000" fill="red">
  <title>New York</title>
</circle><line x1="490.959991" y1="979.960022" x2="732.960022" y2="745.960022" stroke="red" stroke-width="6.660000" />
<circle cx="1019.960022" cy="416.959991" r="19.980000" fill="red">
  <title>Karachi</title>
</circle><line x1="732.960022" y1="745.960022" x2="1019.960022" y2="416.959991" stroke="red" stroke-width="6.660000" />
<circle cx="1692.959961" cy="447.959991" r="19.980000" fill="red">
  <title>Mumbai</title>
</circle><line x1="1019.960022" y1="416.959991" x2="1692.959961" y2="447.959991" stroke="red" stroke-width="6.660000" />
<circle cx="1806.959961" cy="63.959999" r="19.980000" fill="red">
  <title>Mexico City</title>
</circle><line x1="1692.959961" y1="447.959991" x2="1806.959961" y2="63.959999" stroke="red" stroke-width="6.660000" />
<circle cx="1933.959961" cy="107.959999" r="19.980000" fill="red">
  <title>Dhaka</title>
</circle><line x1="1806.959961" y1="63.959999" x2="1933.959961" y2="107.959999" stroke="red" stroke-width="6.660000" />
<circle cx="1850.959961" cy="719.960022" r="19.980000" fill="red">
  <title>Beijing</title>
</circle><line x1="1933.959961" y1="107.959999" x2="1850.959961" y2="719.960022" stroke="red" stroke-width="6.660000" />
<circle cx="1123.959961" cy="1536.959961" r="19.980000" fill="red">
  <title>São Paulo</title>
</circle><line x1="1850.959961" y1="719.960022" x2="1123.959961" y2="1536.959961" stroke="red" stroke-width="6.660000" />
<circle cx="996.960022" cy="1916.959961" r="19.980000" fill="red">
  <title>Osaka</title>
</circle><line x1="1123.959961" y1="1536.959961" x2="996.960022" y2="1916.959961" stroke="red" stroke-width="6.660000" />
<circle cx="679.960022" cy="1734.959961" r="19.980000" fill="red">
  <title>Buenos Aires</title>
</circle><line x1="996.960022" y1="1916.959961" x2="679.960022" y2="1734.959961" stroke="red" stroke-width="6.660000" />
<circle cx="548.960022" cy="1293.959961" r="19.980000" fill="red">
  <title>Delhi</title>
</circle><line x1="679.960022" y1="1734.959961" x2="548.960022" y2="1293.959961" stroke="red" stroke-width="6.660000" />
</svg>
