<?xml version="1.0" encoding="UTF-8" standalone="no"?>
<svg width="500" height="500" viewBox="0 0 2074.000000 2074.000000" xmlns="http://www.w3.org/2000/svg">
<rect x="19.000000" y="19.000000" width="2036.000000" height="2036.000000" fill="black" />
<circle cx="448.959991" cy="478.959991" r="19.980000" fill="red">
  <title>Tokyo</title>
</circle><line x1="487.959991" y1="636.960022" x2="448.959991" y2="478.959991" stroke="red" stroke-width="6.660000" />
<circle cx="1259.959961" cy="988.960022" r="19.980000" fill="red">
  <title>Delhi</title>
</circle><line x1="448.959991" y1="478.959991" x2="1259.959961" y2="988.960022" stroke="red" stroke-width="6.660000" />
<circle cx="1230.959961" cy="1380.959961" r="19.980000" fill="red">
  <title>Mexico City</title>
</circle><line x1="1259.959961" y1="988.960022" x2="1230.959961" y2="1380.959961" stroke="red" stroke-width="6.660000" />
<circle cx="645.960022" cy="1977.959961" r="19.980000" fill="red">
  <title>Shanghai</title>
</circle><line x1="1230.959961" y1="1380.959961" x2="645.960022" y2="1977.959961" stroke="red" stroke-width="6.660000" />
<circle cx="487.959991" cy="636.960022" r="19.980000" fill="red">
  <title>São Paulo</title>
</circle><line x1="645.960022" y1="1977.959961" x2="487.959991" y2="636.960022" stroke="red" stroke-width="6.660000" />
</svg>
