<?xml version="1.0" encoding="UTF-8" standalone="no"?>
<svg width="500" height="500" viewBox="0 0 2074.000000 2074.000000" xmlns="http://www.w3.org/2000/svg">
<rect x="19.000000" y="19.000000" width="2036.000000" height="2036.000000" fill="black" />
<circle cx="1490.959961" cy="1326.959961" r="19.980000" fill="red">
  <title>Tokyo</title>
</circle><line x1="1625.959961" y1="1038.959961" x2="1490.959961" y2="1326.959961" stroke="red" stroke-width="6.660000" />
<circle cx="1457.959961" cy="2023.959961" r="19.980000" fill="red">
  <title>São Paulo</title>
</circle><line x1="1490.959961" y1="1326.959961" x2="1457.959961" y2="2023.959961" stroke="red" stroke-width="6.660000" />
<circle cx="1294.959961" cy="1267.959961" r="19.980000" fill="red">
  <title>Mumbai</title>
</circle><line x1="1457.959961" y1="2023.959961" x2="1294.959961" y2="1267.959961" stroke="red" stroke-width="6.660000" />
<circle cx="901.960022" cy="745.960022" r="19.980000" fill="red">
  <title>Cairo</title>
</circle><line x1="1294.959961" y1="1267.959961" x2="901.960022" y2="745.960022" stroke="red" stroke-width="6.660000" />
<circle cx="959.960022" cy="636.960022" r="19.980000" fill="red">
  <title>Beijing</title>
</circle><line x1="901.960022" y1="745.960022" x2="959.960022" y2="636.960022" stroke="red" stroke-width="6.660000" />
<circle cx="412.959991" cy="447.959991" r="19.980000" fill="red">
  <title>Delhi</title>
</circle><line x1="959.960022" y1="636.960022" x2="412.959991" y2="447.959991" stroke="red" stroke-width="6.660000" />
<circle cx="1002.960022" cy="100.959999" r="19.980000" fill="red">
  <title>Osaka</title>
</circle><line x1="412.959991" y1="447.959991" x2="1002.960022" y2="100.959999" stroke="red" stroke-width="6.660000" />
<circle cx="1596.959961" cy="373.959991" r="19.980000" fill="red">
  <title>Mexico City</title>
</circle><line x1="1002.960022" y1="100.959999" x2="1596.959961" y2="373.959991" stroke="red" stroke-width="6.660000" />
<circle cx="2012.959961" cy="357.959991" r="19.980000" fill="red">
  <title>Dhaka</title>
</circle><line x1="1596.959961" y1="373.959991" x2="2012.959961" y2="357.959991" stroke="red" stroke-width="6.660000" />
<circle cx="1839.959961" cy="1125.959961" r="19.980000" fill="red">
  <title>Shanghai</title>
</circle><line x1="2012.959961" y1="357.959991" x2="1839.959961" y2="1125.959961" stroke="red" stroke-width="6.660000" />
<circle cx="1625.959961" cy="1038.959961" r="19.980000" fill="red">
  <title>New York</title>
</circle><line x1="1839.959961" y1="1125.959961" x2="1625.959961" y2="1038.959961" stroke="red" stroke-width="6.660000" />
</svg>
