<?xml version="1.0" encoding="UTF-8" standalone="no"?>
<svg width="500" height="500" viewBox="0 0 2074.000000 2074.000000" xmlns="http://www.w3.org/2000/svg">
<rect x="19.000000" y="19.000000" width="2036.000000" height="2036.000000" fill="black" />
<circle cx="1646.959961" cy="1341.959961" r="19.980000" fill="red">
  <title>Tokyo</title>
</circle><line x1="1776.959961" y1="1567.959961" x2="1646.959961" y2="1341.959961" stroke="red" stroke-width="6.660000" />
<circle cx="1610.959961" cy="1242.959961" r="19.980000" fill="red">
  <title>Karachi</title>
</circle><line x1="1646.959961" y1="1341.959961" x2="1610.959961" y2="1242.959961" stroke="red" stroke-width="6.660000" />
<circle cx="1682.959961" cy="1089.959961" r="19.980000" fill="red">
  <title>Mexico City</title>
</circle><line x1="1610.959961" y1="1242.959961" x2="1682.959961" y2="1089.959961" stroke="red" stroke-width="6.660000" />
<circle cx="1846.959961" cy="592.960022" r="19.980000" fill="red">
  <title>Manila</title>
</circle><line x1="1682.959961" y1="1089.959961" x2="1846.959961" y2="592.960022" stroke="red" stroke-width="6.660000" />
<circle cx="1958.959961" cy="544.960022" r="19.980000" fill="red">
  <title>Istanbul</title>
</circle><line x1="1846.959961" y1="592.960022" x2="1958.959961" y2="544.960022" stroke="red" stroke-width="6.660000" />
<circle cx="1525.959961" cy="286.959991" r="19.980000" fill="red">
  <title>Cairo</title>
</circle><line x1="1958.959961" y1="544.960022" x2="1525.959961" y2="286.959991" stroke="red" stroke-width="6.660000" />
<circle cx="1534.959961" cy="504.959991" r="19.980000" fill="red">
  <title>Osaka</title>
</circle><line x1="1525.959961" y1="286.959991" x2="1534.959961" y2="504.959991" stroke="red" stroke-width="6.660000" />
<circle cx="1359.959961" cy="624.960022" r="19.980000" fill="red">
  <title>Buenos Aires</title>
</circle><line x1="1534.959961" y1="504.959991" x2="1359.959961" y2="624.960022" stroke="red" stroke-width="6.660000" />
<circle cx="1037.959961" cy="372.959991" r="19.980000" fill="red">
  <title>Beijing</title>
</circle><line x1="1359.959961" y1="624.960022" x2="1037.959961" y2="372.959991" stroke="red" stroke-width="6.660000" />
<circle cx="921.960022" cy="302.959991" r="19.980000" fill="red">
  <title>Rio de Janeiro</title>
</circle><line x1="1037.959961" y1="372.959991" x2="921.960022" y2="302.959991" stroke="red" stroke-width="6.660000" />
<circle cx="577.960022" cy="113.959999" r="19.980000" fill="red">
  <title>Mumbai</title>
</circle><line x1="921.960022" y1="302.959991" x2="577.960022" y2="113.959999" stroke="red" stroke-width="6.660000" />
<circle cx="168.959991" cy="367.959991" r="19.980000" fill="red">
  <title>Shanghai</title>
</circle><line x1="577.960022" y1="113.959999" x2="168.959991" y2="367.959991" stroke="red" stroke-width="6.660000" />
<circle cx="384.959991" cy="266.959991" r="19.980000" fill="red">
  <title>São Paulo</title>
</circle><line x1="168.959991" y1="367.959991" x2="384.959991" y2="266.959991" stroke="red" stroke-width="6.660000" />
<circle cx="853.960022" cy="427.959991" r="19.980000" fill="red">
  <title>Delhi</title>
</circle><line x1="384.959991" y1="266.959991" x2="853.960022" y2="427.959991" stroke="red" stroke-width="6.660000" />
<circle cx="1181.959961" cy="932.960022" r="19.980000" fill="red">
  <title>New York</title>
</circle><line x1="853.960022" y1="427.959991" x2="1181.959961" y2="932.960022" stroke="red" stroke-width="6.660000" />
<circle cx="340.959991" cy="1964.959961" r="19.980000" fill="red">
  <title>Chongqing</title>
</circle><line x1="1181.959961" y1="932.960022" x2="340.959991" y2="1964.959961" stroke="red" stroke-width="6.660000" />
<circle cx="1272.959961" cy="1719.959961" r="19.980000" fill="red">
  <title>Dhaka</title>
</circle><line x1="340.959991" y1="1964.959961" x2="1272.959961" y2="1719.959961" stroke="red" stroke-width="6.660000" />
<circle cx="1955.959961" cy="1976.959961" r="19.980000" fill="red">
  <title>Lagos</title>
</circle><line x1="1272.959961" y1="1719.959961" x2="1955.959961" y2="1976.959961" stroke="red" stroke-width="6.660000" />
<circle cx="1776.959961" cy="1567.959961" r="19.980000" fill="red">
  <title>Kolkata</title>
</circle><line x1="1955.959961" y1="1976.959961" x2="1776.959961" y2="1567.959961" stroke="red" stroke-width="6.660000" />
</svg>
