<?xml version="1.0" encoding="UTF-8" standalone="no"?>
<svg width="500" height="500" viewBox="0 0 2074.000000 2074.000000" xmlns="http://www.w3.org/2000/svg">
<rect x="19.000000" y="19.000000" width="2036.000000" height="2036.000000" fill="black" />
<circle cx="289.959991" cy="593.960022" r="19.980000" fill="red">
  <title>Tokyo</title>
</circle><line x1="103.959999" y1="1052.959961" x2="289.959991" y2="593.960022" stroke="red" stroke-width="6.660000" />
<circle cx="200.959991" cy="322.959991" r="19.980000" fill="red">
  <title>Dhaka</title>
</circle><line x1="289.959991" y1="593.960022" x2="200.959991" y2="322.959991" stroke="red" stroke-width="6.660000" />
<circle cx="656.960022" cy="289.959991" r="19.980000" fill="red">
  <title>Shanghai</title>
</circle><line x1="200.959991" y1="322.959991" x2="656.960022" y2="289.959991" stroke="red" stroke-width="6.660000" />
<circle cx="759.960022" cy="429.959991" r="19.980000" fill="red">
  <title>Beijing</title>
</circle><line x1="656.960022" y1="289.959991" x2="759.960022" y2="429.959991" stroke="red" stroke-width="6.660000" />
<circle cx="1815.959961" cy="343.959991" r="19.980000" fill="red">
  <title>Karachi</title>
</circle><line x1="759.960022" y1="429.959991" x2="1815.959961" y2="343.959991" stroke="red" stroke-width="6.660000" />
<circle cx="1835.959961" cy="875.960022" r="19.980000" fill="red">
  <title>São Paulo</title>
</circle><line x1="1815.959961" y1="343.959991" x2="1835.959961" y2="875.960022" stroke="red" stroke-width="6.660000" />
<circle cx="1959.959961" cy="1735.959961" r="19.980000" fill="red">
  <title>Delhi</title>
</circle><line x1="1835.959961" y1="875.960022" x2="1959.959961" y2="1735.959961" stroke="red" stroke-width="6.660000" />
<circle cx="1857.959961" cy="1851.959961" r="19.980000" fill="red">
  <title>Osaka</title>
</circle><line x1="1959.959961" y1="1735.959961" x2="1857.959961" y2="1851.959961" stroke="red" stroke-width="6.660000" />
<circle cx="1311.959961" cy="1891.959961" r="19.980000" fill="red">
  <title>Chongqing</title>
</circle><line x1="1857.959961" y1="1851.959961" x2="1311.959961" y2="1891.959961" stroke="red" stroke-width="6.660000" />
<circle cx="991.960022" cy="1983.959961" r="19.980000" fill="red">
  <title>Mexico City</title>
</circle><line x1="1311.959961" y1="1891.959961" x2="991.960022" y2="1983.959961" stroke="red" stroke-width="6.660000" />
<circle cx="787.960022" cy="1025.959961" r="19.980000" fill="red">
  <title>New York</title>
</circle><line x1="991.960022" y1="1983.959961" x2="787.960022" y2="1025.959961" stroke="red" stroke-width="6.660000" />
<circle cx="818.960022" cy="983.960022" r="19.980000" fill="red">
  <title>Mumbai</title>
</circle><line x1="787.960022" y1="1025.959961" x2="818.960022" y2="983.960022" stroke="red" stroke-width="6.660000" />
<circle cx="168.959991" cy="1228.959961" r="19.980000" fill="red">
  <title>Cairo</title>
</circle><line x1="818.960022" y1="983.960022" x2="168.959991" y2="1228.959961" stroke="red" stroke-width="6.660000" />
<circle cx="103.959999" cy="1052.959961" r="19.980000" fill="red">
  <title>Buenos Aires</title>
</circle><line x1="168.959991" y1="1228.959961" x2="103.959999" y2="1052.959961" stroke="red" stroke-width="6.660000" />
</svg>
