<?xml version="1.0" encoding="UTF-8" standalone="no"?>
<svg width="500" height="500" viewBox="0 0 2074.000000 2074.000000" xmlns="http://www.w3.org/2000/svg">
<rect x="19.000000" y="19.000000" width="2036.000000" height="2036.000000" fill="black" />
<circle cx="1652.959961" cy="1016.960022" r="19.980000" fill="red">
  <title>Tokyo</title>
</circle><line x1="1923.959961" y1="1600.959961" x2="1652.959961" y2="1016.960022" stroke="red" stroke-width="6.660000" />
<circle cx="1780.959961" cy="747.960022" r="19.980000" fill="red">
  <title>Mumbai</title>
</circle><line x1="1652.959961" y1="1016.960022" x2="1780.959961" y2="747.960022" stroke="red" stroke-width="6.660000" />
<circle cx="1888.959961" cy="302.959991" r="19.980000" fill="red">
  <title>Osaka</title>
</circle><line x1="1780.959961" y1="747.960022" x2="1888.959961" y2="302.959991" stroke="red" stroke-width="6.660000" />
<circle cx="1778.959961" cy="613.960022" r="19.980000" fill="red">
  <title>New York</title>
</circle><line x1="1888.959961" y1="302.959991" x2="1778.959961" y2="613.960022" stroke="red" stroke-width="6.660000" />
<circle cx="1332.959961" cy="801.960022" r="19.980000" fill="red">
  <title>Shanghai</title>
</circle><line x1="1778.959961" y1="613.960022" x2="1332.959961" y2="801.960022" stroke="red" stroke-width="6.660000" />
<circle cx="988.960022" cy="208.959991" r="19.980000" fill="red">
  <title>Karachi</title>
</circle><line x1="1332.959961" y1="801.960022" x2="988.960022" y2="208.959991" stroke="red" stroke-width="6.660000" />
<circle cx="531.960022" cy="128.959991" r="19.980000" fill="red">
  <title>Dhaka</title>
</circle><line x1="988.960022" y1="208.959991" x2="531.960022" y2="128.959991" stroke="red" stroke-width="6.660000" />
<circle cx="798.960022" cy="806.960022" r="19.980000" fill="red">
  <title>Kolkata</title>
</circle><line x1="531.960022" y1="128.959991" x2="798.960022" y2="806.960022" stroke="red" stroke-width="6.660000" />
<circle cx="900.960022" cy="1222.959961" r="19.980000" fill="red">
  <title>Manila</title>
</circle><line x1="798.960022" y1="806.960022" x2="900.960022" y2="1222.959961" stroke="red" stroke-width="6.660000" />
<circle cx="719.960022" cy="1312.959961" r="19.980000" fill="red">
  <title>Mexico City</title>
</circle><line x1="900.960022" y1="1222.959961" x2="719.960022" y2="1312.959961" stroke="red" stroke-width="6.660000" />
<circle cx="463.959991" cy="1230.959961" r="19.980000" fill="red">
  <title>Delhi</title>
</circle><line x1="719.960022" y1="1312.959961" x2="463.959991" y2="1230.959961" stroke="red" stroke-width="6.660000" />
<circle cx="149.959991" cy="1187.959961" r="19.980000" fill="red">
  <title>Chongqing</title>
</circle><line x1="463.959991" y1="1230.959961" x2="149.959991" y2="1187.959961" stroke="red" stroke-width="6.660000" />
<circle cx="400.959991" cy="1936.959961" r="19.980000" fill="red">
  <title>São Paulo</title>
</circle><line x1="149.959991" y1="1187.959961" x2="400.959991" y2="1936.959961" stroke="red" stroke-width="6.660000" />
<circle cx="1031.959961" cy="1948.959961" r="19.980000" fill="red">
  <title>Buenos Aires</title>
</circle><line x1="400.959991" y1="1936.959961" x2="1031.959961" y2="1948.959961" stroke="red" stroke-width="6.660000" />
<circle cx="1192.959961" cy="1922.959961" r="19.980000" fill="red">
  <title>Istanbul</title>
</circle><line x1="1031.959961" y1="1948.959961" x2="1192.959961" y2="1922.959961" stroke="red" stroke-width="6.660000" />
<circle cx="1338.959961" cy="1367.959961" r="19.980000" fill="red">
  <title>Cairo</title>
</circle><line x1="1192.959961" y1="1922.959961" x2="1338.959961" y2="1367.959961" stroke="red" stroke-width="6.660000" />
<circle cx="1923.959961" cy="1600.959961" r="19.980000" fill="red">
  <title>Beijing</title>
</circle><line x1="1338.959961" y1="1367.959961" x2="1923.959961" y2="1600.959961" stroke="red" stroke-width="6.660000" />
</svg>
