<?xml version="1.0" encoding="UTF-8" standalone="no"?>
<svg width="500" height="500" viewBox="0 0 2074.000000 2074.000000" xmlns="http://www.w3.org/2000/svg">
<rect x="19.000000" y="19.000000" width="2036.000000" height="2036.000000" fill="black" />
<circle cx="428.959991" cy="334.959991" r="19.980000" fill="red">
  <title>Tokyo</title>
</circle><line x1="1291.959961" y1="309.959991" x2="428.959991" y2="334.959991" stroke="red" stroke-width="6.660000" />
<circle cx="796.960022" cy="682.960022" r="19.980000" fill="red">
  <title>Delhi</title>
</circle><line x1="428.959991" y1="334.959991" x2="796.960022" y2="682.960022" stroke="red" stroke-width="6.660000" />
<circle cx="1991.959961" cy="1979.959961" r="19.980000" fill="red">
  <title>São Paulo</title>
</circle><line x1="796.960022" y1="682.960022" x2="1991.959961" y2="1979.959961" stroke="red" stroke-width="6.660000" />
<circle cx="1291.959961" cy="309.959991" r="19.980000" fill="red">
  <title>Shanghai</title>
</circle><line x1="1991.959961" y1="1979.959961" x2="1291.959961" y2="309.959991" stroke="red" stroke-width="6.660000" />
</svg>
