<?xml version="1.0" encoding="UTF-8" standalone="no"?>
<svg width="500" height="500" viewBox="0 0 2074.000000 2074.000000" xmlns="http://www.w3.org/2000/svg">
<rect x="19.000000" y="19.000000" width="2036.000000" height="2036.000000" fill="black" />
<circle cx="1527.959961" cy="1639.959961" r="19.980000" fill="red">
  <title>Tokyo</title>
</circle><line x1="1035.959961" y1="1843.959961" x2="1527.959961" y2="1639.959961" stroke="red" stroke-width="6.660000" />
<circle cx="1977.959961" cy="1763.959961" r="19.980000" fill="red">
  <title>Mexico City</title>
</circle><line x1="1527.959961" y1="1639.959961" x2="1977.959961" y2="1763.959961" stroke="red" stroke-width="6.660000" />
<circle cx="1920.959961" cy="1479.959961" r="19.980000" fill="red">
  <title>Delhi</title>
</circle><line x1="1977.959961" y1="1763.959961" x2="1920.959961" y2="1479.959961" stroke="red" stroke-width="6.660000" />
<circle cx="1545.959961" cy="1188.959961" r="19.980000" fill="red">
  <title>Dhaka</title>
</circle><line x1="1920.959961" y1="1479.959961" x2="1545.959961" y2="1188.959961" stroke="red" stroke-width="6.660000" />
<circle cx="983.960022" cy="1114.959961" r="19.980000" fill="red">
  <title>Cairo</title>
</circle><line x1="1545.959961" y1="1188.959961" x2="983.960022" y2="1114.959961" stroke="red" stroke-width="6.660000" />
<circle cx="617.960022" cy="731.960022" r="19.980000" fill="red">
  <title>São Paulo</title>
</circle><line x1="983.960022" y1="1114.959961" x2="617.960022" y2="731.960022" stroke="red" stroke-width="6.660000" />
<circle cx="116.959999" cy="538.960022" r="19.980000" fill="red">
  <title>Beijing</title>
</circle><line x1="617.960022" y1="731.960022" x2="116.959999" y2="538.960022" stroke="red" stroke-width="6.660000" />
<circle cx="350.959991" cy="816.960022" r="19.980000" fill="red">
  <title>Mumbai</title>
</circle><line x1="116.959999" y1="538.960022" x2="350.959991" y2="816.960022" stroke="red" stroke-width="6.660000" />
<circle cx="471.959991" cy="1842.959961" r="19.980000" fill="red">
  <title>Shanghai</title>
</circle><line x1="350.959991" y1="816.960022" x2="471.959991" y2="1842.959961" stroke="red" stroke-width="6.660000" />
<circle cx="1035.959961" cy="1843.959961" r="19.980000" fill="red">
  <title>Osaka</title>
</circle><line x1="471.959991" y1="1842.959961" x2="1035.959961" y2="1843.959961" stroke="red" stroke-width="6.660000" />
</svg>
