<?xml version="1.0" encoding="UTF-8" standalone="no"?>
<svg width="500" height="500" viewBox="0 0 2074.000000 2074.000000" xmlns="http://www.w3.org/2000/svg">
<rect x="19.000000" y="19.000000" width="2036.000000" height="2036.000000" fill="black" />
<circle cx="1147.959961" cy="1939.959961" r="19.980000" fill="red">
  <title>Tokyo</title>
</circle><line x1="285.959991" y1="1534.959961" x2="1147.959961" y2="1939.959961" stroke="red" stroke-width="6.660000" />
<circle cx="1398.959961" cy="1807.959961" r="19.980000" fill="red">
  <title>Cairo</title>
</circle><line x1="1147.959961" y1="1939.959961" x2="1398.959961" y2="1807.959961" stroke="red" stroke-width="6.660000" />
<circle cx="1660.959961" cy="1405.959961" r="19.980000" fill="red">
  <title>Beijing</title>
</circle><line x1="1398.959961" y1="1807.959961" x2="1660.959961" y2="1405.959961" stroke="red" stroke-width="6.660000" />
<circle cx="1345.959961" cy="952.960022" r="19.980000" fill="red">
  <title>New York</title>
</circle><line x1="1660.959961" y1="1405.959961" x2="1345.959961" y2="952.960022" stroke="red" stroke-width="6.660000" />
<circle cx="1411.959961" cy="868.960022" r="19.980000" fill="red">
  <title>Istanbul</title>
</circle><line x1="1345.959961" y1="952.960022" x2="1411.959961" y2="868.960022" stroke="red" stroke-width="6.660000" />
<circle cx="1854.959961" cy="416.959991" r="19.980000" fill="red">
  <title>Mexico City</title>
</circle><line x1="1411.959961" y1="868.960022" x2="1854.959961" y2="416.959991" stroke="red" stroke-width="6.660000" />
<circle cx="1591.959961" cy="116.959999" r="19.980000" fill="red">
  <title>Buenos Aires</title>
</circle><line x1="1854.959961" y1="416.959991" x2="1591.959961" y2="116.959999" stroke="red" stroke-width="6.660000" />
<circle cx="1345.959961" cy="340.959991" r="19.980000" fill="red">
  <title>Dhaka</title>
</circle><line x1="1591.959961" y1="116.959999" x2="1345.959961" y2="340.959991" stroke="red" stroke-width="6.660000" />
<circle cx="479.959991" cy="598.960022" r="19.980000" fill="red">
  <title>Shanghai</title>
</circle><line x1="1345.959961" y1="340.959991" x2="479.959991" y2="598.960022" stroke="red" stroke-width="6.660000" />
<circle cx="408.959991" cy="633.960022" r="19.980000" fill="red">
  <title>Mumbai</title>
</circle><line x1="479.959991" y1="598.960022" x2="408.959991" y2="633.960022" stroke="red" stroke-width="6.660000" />
<circle cx="136.959991" cy="476.959991" r="19.980000" fill="red">
  <title>Osaka</title>
</circle><line x1="408.959991" y1="633.960022" x2="136.959991" y2="476.959991" stroke="red" stroke-width="6.660000" />
<circle cx="299.959991" cy="907.960022" r="19.980000" fill="red">
  <title>São Paulo</title>
</circle><line x1="136.959991" y1="476.959991" x2="299.959991" y2="907.960022" stroke="red" stroke-width="6.660000" />
<circle cx="396.959991" cy="1109.959961" r="19.980000" fill="red">
  <title>Chongqing</title>
</circle><line x1="299.959991" y1="907.960022" x2="396.959991" y2="1109.959961" stroke="red" stroke-width="6.660000" />
<circle cx="325.959991" cy="1258.959961" r="19.980000" fill="red">
  <title>Delhi</title>
</circle><line x1="396.959991" y1="1109.959961" x2="325.959991" y2="1258.959961" stroke="red" stroke-width="6.660000" />
<circle cx="285.959991" cy="1534.959961" r="19.980000" fill="red">
  <title>Karachi</title>
</circle><line x1="325.959991" y1="1258.959961" x2="285.959991" y2="1534.959961" stroke="red" stroke-width="6.660000" />
</svg>
