<?xml version="1.0" encoding="UTF-8" standalone="no"?>
<svg width="500" height="500" viewBox="0 0 2074.000000 2074.000000" xmlns="http://www.w3.org/2000/svg">
<rect x="19.000000" y="19.000000" width="2036.000000" height="2036.000000" fill="black" />
<circle cx="935.960022" cy="86.959999" r="19.980000" fill="red">
  <title>Tokyo</title>
</circle><line x1="1571.959961" y1="68.959999" x2="935.960022" y2="86.959999" stroke="red" stroke-width="6.660000" />
<circle cx="373.959991" cy="165.959991" r="19.980000" fill="red">
  <title>Shanghai</title>
</circle><line x1="935.960022" y1="86.959999" x2="373.959991" y2="165.959991" stroke="red" stroke-width="6.660000" />
<circle cx="505.959991" cy="430.959991" r="19.980000" fill="red">
  <title>Beijing</title>
</circle><line x1="373.959991" y1="165.959991" x2="505.959991" y2="430.959991" stroke="red" stroke-width="6.660000" />
<circle cx="1080.959961" cy="362.959991" r="19.980000" fill="red">
  <title>Mumbai</title>
</circle><line x1="505.959991" y1="430.959991" x2="1080.959961" y2="362.959991" stroke="red" stroke-width="6.660000" />
<circle cx="1235.959961" cy="789.960022" r="19.980000" fill="red">
  <title>Cairo</title>
</circle><line x1="1080.959961" y1="362.959991" x2="1235.959961" y2="789.960022" stroke="red" stroke-width="6.660000" />
<circle cx="1139.959961" cy="1209.959961" r="19.980000" fill="red">
  <title>Karachi</title>
</circle><line x1="1235.959961" y1="789.960022" x2="1139.959961" y2="1209.959961" stroke="red" stroke-width="6.660000" />
<circle cx="305.959991" cy="1756.959961" r="19.980000" fill="red">
  <title>Delhi</title>
</circle><line x1="1139.959961" y1="1209.959961" x2="305.959991" y2="1756.959961" stroke="red" stroke-width="6.660000" />
<circle cx="683.960022" cy="1613.959961" r="19.980000" fill="red">
  <title>New York</title>
</circle><line x1="305.959991" y1="1756.959961" x2="683.960022" y2="1613.959961" stroke="red" stroke-width="6.660000" />
<circle cx="1286.959961" cy="1210.959961" r="19.980000" fill="red">
  <title>São Paulo</title>
</circle><line x1="683.960022" y1="1613.959961" x2="1286.959961" y2="1210.959961" stroke="red" stroke-width="6.660000" />
<circle cx="1703.959961" cy="1383.959961" r="19.980000" fill="red">
  <title>Buenos Aires</title>
</circle><line x1="1286.959961" y1="1210.959961" x2="1703.959961" y2="1383.959961" stroke="red" stroke-width="6.660000" />
<circle cx="1451.959961" cy="756.960022" r="19.980000" fill="red">
  <title>Osaka</title>
</circle><line x1="1703.959961" y1="1383.959961" x2="1451.959961" y2="756.960022" stroke="red" stroke-width="6.660000" />
<circle cx="1994.959961" cy="447.959991" r="19.980000" fill="red">
  <title>Mexico City</title>
</circle><line x1="1451.959961" y1="756.960022" x2="1994.959961" y2="447.959991" stroke="red" stroke-width="6.660000" />
<circle cx="1571.959961" cy="68.959999" r="19.980000" fill="red">
  <title>Dhaka</title>
</circle><line x1="1994.959961" y1="447.959991" x2="1571.959961" y2="68.959999" stroke="red" stroke-width="6.660000" />
</svg>
