<?xml version="1.0" encoding="UTF-8" standalone="no"?>
<svg width="500" height="500" viewBox="0 0 2074.000000 2074.000000" xmlns="http://www.w3.org/2000/svg">
<rect x="19.000000" y="19.000000" width="2036.000000" height="2036.000000" fill="black" />
<circle cx="1771.959961" cy="968.960022" r="19.980000" fill="red">
  <title>Tokyo</title>
</circle><line x1="1225.959961" y1="843.960022" x2="1771.959961" y2="968.960022" stroke="red" stroke-width="6.660000" />
<circle cx="1274.959961" cy="1379.959961" r="19.980000" fill="red">
  <title>Delhi</title>
</circle><line x1="1771.959961" y1="968.960022" x2="1274.959961" y2="1379.959961" stroke="red" stroke-width="6.660000" />
<circle cx="1350.959961" cy="1975.959961" r="19.980000" fill="red">
  <title>Cairo</title>
</circle><line x1="1274.959961" y1="1379.959961" x2="1350.959961" y2="1975.959961" stroke="red" stroke-width="6.660000" />
<circle cx="1003.960022" cy="1521.959961" r="19.980000" fill="red">
  <title>Beijing</title>
</circle><line x1="1350.959961" y1="1975.959961" x2="1003.960022" y2="1521.959961" stroke="red" stroke-width="6.660000" />
<circle cx="305.959991" cy="1507.959961" r="19.980000" fill="red">
  <title>Mexico City</title>
</circle><line x1="1003.960022" y1="1521.959961" x2="305.959991" y2="1507.959961" stroke="red" stroke-width="6.660000" />
<circle cx="343.959991" cy="1426.959961" r="19.980000" fill="red">
  <title>Dhaka</title>
</circle><line x1="305.959991" y1="1507.959961" x2="343.959991" y2="1426.959961" stroke="red" stroke-width="6.660000" />
<circle cx="362.959991" cy="1160.959961" r="19.980000" fill="red">
  <title>Mumbai</title>
</circle><line x1="343.959991" y1="1426.959961" x2="362.959991" y2="1160.959961" stroke="red" stroke-width="6.660000" />
<circle cx="490.959991" cy="1109.959961" r="19.980000" fill="red">
  <title>São Paulo</title>
</circle><line x1="362.959991" y1="1160.959961" x2="490.959991" y2="1109.959961" stroke="red" stroke-width="6.660000" />
<circle cx="1225.959961" cy="843.960022" r="19.980000" fill="red">
  <title>Shanghai</title>
</circle><line x1="490.959991" y1="1109.959961" x2="1225.959961" y2="843.960022" stroke="red" stroke-width="6.660000" />
</svg>
