<?xml version="1.0" encoding="UTF-8" standalone="no"?>
<svg width="500" height="500" viewBox="0 0 2074.000000 2074.000000" xmlns="http://www.w3.org/2000/svg">
<rect x="19.000000" y="19.000000" width="2036.000000" height="2036.000000" fill="black" />
<circle cx="1687.959961" cy="543.960022" r="19.980000" fill="red">
  <title>Tokyo</title>
</circle><line x1="2002.959961" y1="1123.959961" x2="1687.959961" y2="543.960022" stroke="red" stroke-width="6.660000" />
<circle cx="1116.959961" cy="62.959999" r="19.980000" fill="red">
  <title>São Paulo</title>
</circle><line x1="1687.959961" y1="543.960022" x2="1116.959961" y2="62.959999" stroke="red" stroke-width="6.660000" />
<circle cx="41.959999" cy="82.959999" r="19.980000" fill="red">
  <title>Mumbai</title>
</circle><line x1="1116.959961" y1="62.959999" x2="41.959999" y2="82.959999" stroke="red" stroke-width="6.660000" />
<circle cx="116.959999" cy="385.959991" r="19.980000" fill="red">
  <title>Shanghai</title>
</circle><line x1="41.959999" y1="82.959999" x2="116.959999" y2="385.959991" stroke="red" stroke-width="6.660000" />
<circle cx="312.959991" cy="1375.959961" r="19.980000" fill="red">
  <title>Beijing</title>
</circle><line x1="116.959999" y1="385.959991" x2="312.959991" y2="1375.959961" stroke="red" stroke-width="6.660000" />
<circle cx="750.960022" cy="1244.959961" r="19.980000" fill="red">
  <title>Delhi</title>
</circle><line x1="312.959991" y1="1375.959961" x2="750.960022" y2="1244.959961" stroke="red" stroke-width="6.660000" />
<circle cx="1213.959961" cy="1480.959961" r="19.980000" fill="red">
  <title>Dhaka</title>
</circle><line x1="750.960022" y1="1244.959961" x2="1213.959961" y2="1480.959961" stroke="red" stroke-width="6.660000" />
<circle cx="1478.959961" cy="1057.959961" r="19.980000" fill="red">
  <title>Mexico City</title>
</circle><line x1="1213.959961" y1="1480.959961" x2="1478.959961" y2="1057.959961" stroke="red" stroke-width="6.660000" />
<circle cx="2002.959961" cy="1123.959961" r="19.980000" fill="red">
  <title>Cairo</title>
</circle><line x1="1478.959961" y1="1057.959961" x2="2002.959961" y2="1123.959961" stroke="red" stroke-width="6.660000" />
</svg>
