<?xml version="1.0" encoding="UTF-8" standalone="no"?>
<svg width="500" height="500" viewBox="0 0 2074.000000 2074.000000" xmlns="http://www.w3.org/2000/svg">
<rect x="19.000000" y="19.000000" width="2036.000000" height="2036.000000" fill="black" />
<circle cx="77.959999" cy="124.959999" r="19.980000" fill="red">
  <title>Tokyo</title>
</circle><line x1="241.959991" y1="1420.959961" x2="77.959999" y2="124.959999" stroke="red" stroke-width="6.660000" />
<circle cx="499.959991" cy="343.959991" r="19.980000" fill="red">
  <title>Cairo</title>
</circle><line x1="77.959999" y1="124.959999" x2="499.959991" y2="343.959991" stroke="red" stroke-width="6.660000" />
<circle cx="944.960022" cy="81.959999" r="19.980000" fill="red">
  <title>São Paulo</title>
</circle><line x1="499.959991" y1="343.959991" x2="944.960022" y2="81.959999" stroke="red" stroke-width="6.660000" />
<circle cx="1068.959961" cy="825.960022" r="19.980000" fill="red">
  <title>Mexico City</title>
</circle><line x1="944.960022" y1="81.959999" x2="1068.959961" y2="825.960022" stroke="red" stroke-width="6.660000" />
<circle cx="1068.959961" cy="977.960022" r="19.980000" fill="red">
  <title>Delhi</title>
</circle><line x1="1068.959961" y1="825.960022" x2="1068.959961" y2="977.960022" stroke="red" stroke-width="6.660000" />
<circle cx="95.959999" cy="1801.959961" r="19.980000" fill="red">
  <title>Mumbai</title>
</circle><line x1="1068.959961" y1="977.960022" x2="95.959999" y2="1801.959961" stroke="red" stroke-width="6.660000" />
<circle cx="241.959991" cy="1420.959961" r="19.980000" fill="red">
  <title>Shanghai</title>
</circle><line x1="95.959999" y1="1801.959961" x2="241.959991" y2="1420.959961" stroke="red" stroke-width="6.660000" />
</svg>
