<?xml version="1.0" encoding="UTF-8" standalone="no"?>
<svg width="500" height="500" viewBox="0 0 2074.000000 2074.000000" xmlns="http://www.w3.org/2000/svg">
<rect x="19.000000" y="19.000000" width="2036.000000" height="2036.000000" fill="black" />
<circle cx="2021.959961" cy="466.959991" r="19.980000" fill="red">
  <title>Tokyo</title>
</circle><line x1="1236.959961" y1="329.959991" x2="2021.959961" y2="466.959991" stroke="red" stroke-width="6.660000" />
<circle cx="1821.959961" cy="1596.959961" r="19.980000" fill="red">
  <title>Delhi</title>
</circle><line x1="2021.959961" y1="466.959991" x2="1821.959961" y2="1596.959961" stroke="red" stroke-width="6.660000" />
<circle cx="801.960022" cy="1521.959961" r="19.980000" fill="red">
  <title>Mexico City</title>
</circle><line x1="1821.959961" y1="1596.959961" x2="801.960022" y2="1521.959961" stroke="red" stroke-width="6.660000" />
<circle cx="1224.959961" cy="792.960022" r="19.980000" fill="red">
  <title>Mumbai</title>
</circle><line x1="801.960022" y1="1521.959961" x2="1224.959961" y2="792.960022" stroke="red" stroke-width="6.660000" />
<circle cx="584.960022" cy="386.959991" r="19.980000" fill="red">
  <title>Shanghai</title>
</circle><line x1="1224.959961" y1="792.960022" x2="584.960022" y2="386.959991" stroke="red" stroke-width="6.660000" />
<circle cx="1196.959961" cy="113.959999" r="19.980000" fill="red">
  <title>São Paulo</title>
</circle><line x1="584.960022" y1="386.959991" x2="1196.959961" y2="113.959999" stroke="red" stroke-width="6.660000" />
<circle cx="1236.959961" cy="329.959991" r="19.980000" fill="red">
  <title>Cairo</title>
</circle><line x1="1196.959961" y1="113.959999" x2="1236.959961" y2="329.959991" stroke="red" stroke-width="6.660000" />
</svg>
