<?xml version="1.0" encoding="UTF-8" standalone="no"?>
<svg width="500" height="500" viewBox="0 0 2074.000000 2074.000000" xmlns="http://www.w3.org/2000/svg">
<rect x="19.000000" y="19.000000" width="2036.000000" height="2036.000000" fill="black" />
<circle cx="1401.959961" cy="1322.959961" r="19.980000" fill="red">
  <title>Tokyo</title>
</circle><line x1="1229.959961" y1="1025.959961" x2="1401.959961" y2="1322.959961" stroke="red" stroke-width="6.660000" />
<circle cx="962.960022" cy="1592.959961" r="19.980000" fill="red">
  <title>Beijing</title>
</circle><line x1="1401.959961" y1="1322.959961" x2="962.960022" y2="1592.959961" stroke="red" stroke-width="6.660000" />
<circle cx="940.960022" cy="1707.959961" r="19.980000" fill="red">
  <title>Buenos Aires</title>
</circle><line x1="962.960022" y1="1592.959961" x2="940.960022" y2="1707.959961" stroke="red" stroke-width="6.660000" />
<circle cx="558.960022" cy="1448.959961" r="19.980000" fill="red">
  <title>Delhi</title>
</circle><line x1="940.960022" y1="1707.959961" x2="558.960022" y2="1448.959961" stroke="red" stroke-width="6.660000" />
<circle cx="196.959991" cy="930.960022" r="19.980000" fill="red">
  <title>São Paulo</title>
</circle><line x1="558.960022" y1="1448.959961" x2="196.959991" y2="930.960022" stroke="red" stroke-width="6.660000" />
<circle cx="49.959999" cy="417.959991" r="19.980000" fill="red">
  <title>New York</title>
</circle><line x1="196.959991" y1="930.960022" x2="49.959999" y2="417.959991" stroke="red" stroke-width="6.660000" />
<circle cx="918.960022" cy="420.959991" r="19.980000" fill="red">
  <title>Shanghai</title>
</circle><line x1="49.959999" y1="417.959991" x2="918.960022" y2="420.959991" stroke="red" stroke-width="6.660000" />
<circle cx="992.960022" cy="362.959991" r="19.980000" fill="red">
  <title>Osaka</title>
</circle><line x1="918.960022" y1="420.959991" x2="992.960022" y2="362.959991" stroke="red" stroke-width="6.660000" />
<circle cx="1501.959961" cy="135.959991" r="19.980000" fill="red">
  <title>Cairo</title>
</circle><line x1="992.960022" y1="362.959991" x2="1501.959961" y2="135.959991" stroke="red" stroke-width="6.660000" />
<circle cx="1738.959961" cy="530.960022" r="19.980000" fill="red">
  <title>Mexico City</title>
</circle><line x1="1501.959961" y1="135.959991" x2="1738.959961" y2="530.960022" stroke="red" stroke-width="6.660000" />
<circle cx="1730.959961" cy="1170.959961" r="19.980000" fill="red">
  <title>Dhaka</title>
</circle><line x1="1738.959961" y1="530.960022" x2="1730.959961" y2="1170.959961" stroke="red" stroke-width="6.660000" />
<circle cx="1527.959961" cy="1249.959961" r="19.980000" fill="red">
  <title>Karachi</title>
</circle><line x1="1730.959961" y1="1170.959961" x2="1527.959961" y2="1249.959961" stroke="red" stroke-width="6.660000" />
<circle cx="1229.959961" cy="1025.959961" r="19.980000" fill="red">
  <title>Mumbai</title>
</circle><line x1="1527.959961" y1="1249.959961" x2="1229.959961" y2="1025.959961" stroke="red" stroke-width="6.660000" />
</svg>
