<?xml version="1.0" encoding="UTF-8" standalone="no"?>
<svg width="500" height="500" viewBox="0 0 2074.000000 2074.000000" xmlns="http://www.w3.org/2000/svg">
<rect x="19.000000" y="19.000000" width="2036.000000" height="2036.000000" fill="black" />
<circle cx="1333.959961" cy="1725.959961" r="19.980000" fill="red">
  <title>Tokyo</title>
</circle><line x1="1148.959961" y1="1831.959961" x2="1333.959961" y2="1725.959961" stroke="red" stroke-width="6.660000" />
<circle cx="1086.959961" cy="829.960022" r="19.980000" fill="red">
  <title>Cairo</title>
</circle><line x1="1333.959961" y1="1725.959961" x2="1086.959961" y2="829.960022" stroke="red" stroke-width="6.660000" />
<circle cx="1099.959961" cy="787.960022" r="19.980000" fill="red">
  <title>Beijing</title>
</circle><line x1="1086.959961" y1="829.960022" x2="1099.959961" y2="787.960022" stroke="red" stroke-width="6.660000" />
<circle cx="628.960022" cy="584.960022" r="19.980000" fill="red">
  <title>Mumbai</title>
</circle><line x1="1099.959961" y1="787.960022" x2="628.960022" y2="584.960022" stroke="red" stroke-width="6.660000" />
<circle cx="595.960022" cy="119.959999" r="19.980000" fill="red">
  <title>Delhi</title>
</circle><line x1="628.960022" y1="584.960022" x2="595.960022" y2="119.959999" stroke="red" stroke-width="6.660000" />
<circle cx="441.959991" cy="629.960022" r="19.980000" fill="red">
  <title>São Paulo</title>
</circle><line x1="595.960022" y1="119.959999" x2="441.959991" y2="629.960022" stroke="red" stroke-width="6.660000" />
<circle cx="373.959991" cy="843.960022" r="19.980000" fill="red">
  <title>Mexico City</title>
</circle><line x1="441.959991" y1="629.960022" x2="373.959991" y2="843.960022" stroke="red" stroke-width="6.660000" />
<circle cx="547.960022" cy="1458.959961" r="19.980000" fill="red">
  <title>Shanghai</title>
</circle><line x1="373.959991" y1="843.960022" x2="547.960022" y2="1458.959961" stroke="red" stroke-width="6.660000" />
<circle cx="1148.959961" cy="1831.959961" r="19.980000" fill="red">
  <title>Dhaka</title>
</circle><line x1="547.960022" y1="1458.959961" x2="1148.959961" y2="1831.959961" stroke="red" stroke-width="6.660000" />
</svg>
