<?xml version="1.0" encoding="UTF-8" standalone="no"?>
<svg width="500" height="500" viewBox="0 0 2074.000000 2074.000000" xmlns="http://www.w3.org/2000/svg">
<rect x="19.000000" y="19.000000" width="2036.000000" height="2036.000000" fill="black" />
<circle cx="1655.959961" cy="472.959991" r="19.980000" fill="red">
  <title>Tokyo</title>
</circle><line x1="1068.959961" y1="585.960022" x2="1655.959961" y2="472.959991" stroke="red" stroke-width="6.660000" />
<circle cx="1998.959961" cy="245.959991" r="19.980000" fill="red">
  <title>Shanghai</title>
</circle><line x1="1655.959961" y1="472.959991" x2="1998.959961" y2="245.959991" stroke="red" stroke-width="6.660000" />
<circle cx="1999.959961" cy="775.960022" r="19.980000" fill="red">
  <title>Mexico City</title>
</circle><line x1="1998.959961" y1="245.959991" x2="1999.959961" y2="775.960022" stroke="red" stroke-width="6.660000" />
<circle cx="1413.959961" cy="1032.959961" r="19.980000" fill="red">
  <title>Dhaka</title>
</circle><line x1="1999.959961" y1="775.960022" x2="1413.959961" y2="1032.959961" stroke="red" stroke-width="6.660000" />
<circle cx="1570.959961" cy="1184.959961" r="19.980000" fill="red">
  <title>Cairo</title>
</circle><line x1="1413.959961" y1="1032.959961" x2="1570.959961" y2="1184.959961" stroke="red" stroke-width="6.660000" />
<circle cx="2024.959961" cy="1904.959961" r="19.980000" fill="red">
  <title>Beijing</title>
</circle><line x1="1570.959961" y1="1184.959961" x2="2024.959961" y2="1904.959961" stroke="red" stroke-width="6.660000" />
<circle cx="1814.959961" cy="1922.959961" r="19.980000" fill="red">
  <title>São Paulo</title>
</circle><line x1="2024.959961" y1="1904.959961" x2="1814.959961" y2="1922.959961" stroke="red" stroke-width="6.660000" />
<circle cx="1635.959961" cy="1922.959961" r="19.980000" fill="red">
  <title>Chongqing</title>
</circle><line x1="1814.959961" y1="1922.959961" x2="1635.959961" y2="1922.959961" stroke="red" stroke-width="6.660000" />
<circle cx="1407.959961" cy="1873.959961" r="19.980000" fill="red">
  <title>Mumbai</title>
</circle><line x1="1635.959961" y1="1922.959961" x2="1407.959961" y2="1873.959961" stroke="red" stroke-width="6.660000" />
<circle cx="776.960022" cy="2017.959961" r="19.980000" fill="red">
  <title>Delhi</title>
</circle><line x1="1407.959961" y1="1873.959961" x2="776.960022" y2="2017.959961" stroke="red" stroke-width="6.660000" />
<circle cx="523.960022" cy="1034.959961" r="19.980000" fill="red">
  <title>New York</title>
</circle><line x1="776.960022" y1="2017.959961" x2="523.960022" y2="1034.959961" stroke="red" stroke-width="6.660000" />
<circle cx="530.960022" cy="782.960022" r="19.980000" fill="red">
  <title>Osaka</title>
</circle><line x1="523.960022" y1="1034.959961" x2="530.960022" y2="782.960022" stroke="red" stroke-width="6.660000" />
<circle cx="726.960022" cy="520.960022" r="19.980000" fill="red">
  <title>Buenos Aires</title>
</circle><line x1="530.960022" y1="782.960022" x2="726.960022" y2="520.960022" stroke="red" stroke-width="6.660000" />
<circle cx="1068.959961" cy="585.960022" r="19.980000" fill="red">
  <title>Karachi</title>
</circle><line x1="726.960022" y1="520.960022" x2="1068.959961" y2="585.960022" stroke="red" stroke-width="6.660000" />
</svg>
