<?xml version="1.0" encoding="UTF-8" standalone="no"?>
<svg width="500" height="500" viewBox="0 0 2074.000000 2074.000000" xmlns="http://www.w3.org/2000/svg">
<rect x="19.000000" y="19.000000" width="2036.000000" height="2036.000000" fill="black" />
<circle cx="1806.959961" cy="795.960022" r="19.980000" fill="red">
  <title>Tokyo</title>
</circle><line x1="1619.959961" y1="916.960022" x2="1806.959961" y2="795.960022" stroke="red" stroke-width="6.660000" />
<circle cx="1599.959961" cy="597.960022" r="19.980000" fill="red">
  <title>Delhi</title>
</circle><line x1="1806.959961" y1="795.960022" x2="1599.959961" y2="597.960022" stroke="red" stroke-width="6.660000" />
<circle cx="1351.959961" cy="576.960022" r="19.980000" fill="red">
  <title>Osaka</title>
</circle><line x1="1599.959961" y1="597.960022" x2="1351.959961" y2="576.960022" stroke="red" stroke-width="6.660000" />
<circle cx="427.959991" cy="477.959991" r="19.980000" fill="red">
  <title>Shanghai</title>
</circle><line x1="1351.959961" y1="576.960022" x2="427.959991" y2="477.959991" stroke="red" stroke-width="6.660000" />
<circle cx="343.959991" cy="328.959991" r="19.980000" fill="red">
  <title>New York</title>
</circle><line x1="427.959991" y1="477.959991" x2="343.959991" y2="328.959991" stroke="red" stroke-width="6.660000" />
<circle cx="179.959991" cy="43.959999" r="19.980000" fill="red">
  <title>Mexico City</title>
</circle><line x1="343.959991" y1="328.959991" x2="179.959991" y2="43.959999" stroke="red" stroke-width="6.660000" />
<circle cx="190.959991" cy="459.959991" r="19.980000" fill="red">
  <title>Mumbai</title>
</circle><line x1="179.959991" y1="43.959999" x2="190.959991" y2="459.959991" stroke="red" stroke-width="6.660000" />
<circle cx="646.960022" cy="1219.959961" r="19.980000" fill="red">
  <title>Dhaka</title>
</circle><line x1="190.959991" y1="459.959991" x2="646.960022" y2="1219.959961" stroke="red" stroke-width="6.660000" />
<circle cx="719.960022" cy="1357.959961" r="19.980000" fill="red">
  <title>Cairo</title>
</circle><line x1="646.960022" y1="1219.959961" x2="719.960022" y2="1357.959961" stroke="red" stroke-width="6.660000" />
<circle cx="1052.959961" cy="1154.959961" r="19.980000" fill="red">
  <title>São Paulo</title>
</circle><line x1="719.960022" y1="1357.959961" x2="1052.959961" y2="1154.959961" stroke="red" stroke-width="6.660000" />
<circle cx="1619.959961" cy="916.960022" r="19.980000" fill="red">
  <title>Beijing</title>
</circle><line x1="1052.959961" y1="1154.959961" x2="1619.959961" y2="916.960022" stroke="red" stroke-width="6.660000" />
</svg>
