<?xml version="1.0" encoding="UTF-8" standalone="no"?>
<svg width="500" height="500" viewBox="0 0 2074.000000 2074.000000" xmlns="http://www.w3.org/2000/svg">
<rect x="19.000000" y="19.000000" width="2036.000000" height="2036.000000" fill="black" />
<circle cx="759.960022" cy="1150.959961" r="19.980000" fill="red">
  <title>Tokyo</title>
</circle><line x1="1579.959961" y1="1517.959961" x2="759.960022" y2="1150.959961" stroke="red" stroke-width="6.660000" />
<circle cx="1674.959961" cy="1882.959961" r="19.980000" fill="red">
  <title>Delhi</title>
</circle><line x1="759.960022" y1="1150.959961" x2="1674.959961" y2="1882.959961" stroke="red" stroke-width="6.660000" />
<circle cx="1777.959961" cy="1687.959961" r="19.980000" fill="red">
  <title>São Paulo</title>
</circle><line x1="1674.959961" y1="1882.959961" x2="1777.959961" y2="1687.959961" stroke="red" stroke-width="6.660000" />
<circle cx="1579.959961" cy="1517.959961" r="19.980000" fill="red">
  <title>Shanghai</title>
</circle><line x1="1777.959961" y1="1687.959961" x2="1579.959961" y2="1517.959961" stroke="red" stroke-width="6.660000" />
</svg>
