<?xml version="1.0" encoding="UTF-8" standalone="no"?>
<svg width="500" height="500" viewBox="0 0 2074.000000 2074.000000" xmlns="http://www.w3.org/2000/svg">
<rect x="19.000000" y="19.000000" width="2036.000000" height="2036.000000" fill="black" />
<circle cx="411.959991" cy="1410.959961" r="19.980000" fill="red">
  <title>Tokyo</title>
</circle><line x1="531.960022" y1="1943.959961" x2="411.959991" y2="1410.959961" stroke="red" stroke-width="6.660000" />
<circle cx="183.959991" cy="1023.960022" r="19.980000" fill="red">
  <title>Cairo</title>
</circle><line x1="411.959991" y1="1410.959961" x2="183.959991" y2="1023.960022" stroke="red" stroke-width="6.660000" />
<circle cx="299.959991" cy="954.960022" r="19.980000" fill="red">
  <title>São Paulo</title>
</circle><line x1="183.959991" y1="1023.960022" x2="299.959991" y2="954.960022" stroke="red" stroke-width="6.660000" />
<circle cx="508.959991" cy="524.960022" r="19.980000" fill="red">
  <title>Beijing</title>
</circle><line x1="299.959991" y1="954.960022" x2="508.959991" y2="524.960022" stroke="red" stroke-width="6.660000" />
<circle cx="1200.959961" cy="110.959999" r="19.980000" fill="red">
  <title>Karachi</title>
</circle><line x1="508.959991" y1="524.960022" x2="1200.959961" y2="110.959999" stroke="red" stroke-width="6.660000" />
<circle cx="1191.959961" cy="89.959999" r="19.980000" fill="red">
  <title>Osaka</title>
</circle><line x1="1200.959961" y1="110.959999" x2="1191.959961" y2="89.959999" stroke="red" stroke-width="6.660000" />
<circle cx="1420.959961" cy="112.959999" r="19.980000" fill="red">
  <title>Shanghai</title>
</circle><line x1="1191.959961" y1="89.959999" x2="1420.959961" y2="112.959999" stroke="red" stroke-width="6.660000" />
<circle cx="1498.959961" cy="499.959991" r="19.980000" fill="red">
  <title>New York</title>
</circle><line x1="1420.959961" y1="112.959999" x2="1498.959961" y2="499.959991" stroke="red" stroke-width="6.660000" />
<circle cx="1937.959961" cy="434.959991" r="19.980000" fill="red">
  <title>Delhi</title>
</circle><line x1="1498.959961" y1="499.959991" x2="1937.959961" y2="434.959991" stroke="red" stroke-width="6.660000" />
<circle cx="1821.959961" cy="1644.959961" r="19.980000" fill="red">
  <title>Mexico City</title>
</circle><line x1="1937.959961" y1="434.959991" x2="1821.959961" y2="1644.959961" stroke="red" stroke-width="6.660000" />
<circle cx="790.960022" cy="1832.959961" r="19.980000" fill="red">
  <title>Mumbai</title>
</circle><line x1="1821.959961" y1="1644.959961" x2="790.960022" y2="1832.959961" stroke="red" stroke-width="6.660000" />
<circle cx="531.960022" cy="1943.959961" r="19.980000" fill="red">
  <title>Dhaka</title>
</circle><line x1="790.960022" y1="1832.959961" x2="531.960022" y2="1943.959961" stroke="red" stroke-width="6.660000" />
</svg>
