<?xml version="1.0" encoding="UTF-8" standalone="no"?>
<svg width="500" height="500" viewBox="0 0 2074.000000 2074.000000" xmlns="http://www.w3.org/2000/svg">
<rect x="19.000000" y="19.000000" width="2036.000000" height="2036.000000" fill="black" />
<circle cx="425.959991" cy="1876.959961" r="19.980000" fill="red">
  <title>Tokyo</title>
</circle><line x1="116.959999" y1="1100.959961" x2="425.959991" y2="1876.959961" stroke="red" stroke-width="6.660000" />
<circle cx="708.960022" cy="1871.959961" r="19.980000" fill="red">
  <title>Shanghai</title>
</circle><line x1="425.959991" y1="1876.959961" x2="708.960022" y2="1871.959961" stroke="red" stroke-width="6.660000" />
<circle cx="1007.960022" cy="1609.959961" r="19.980000" fill="red">
  <title>São Paulo</title>
</circle><line x1="708.960022" y1="1871.959961" x2="1007.960022" y2="1609.959961" stroke="red" stroke-width="6.660000" />
<circle cx="1051.959961" cy="1343.959961" r="19.980000" fill="red">
  <title>Karachi</title>
</circle><line x1="1007.960022" y1="1609.959961" x2="1051.959961" y2="1343.959961" stroke="red" stroke-width="6.660000" />
<circle cx="1518.959961" cy="1465.959961" r="19.980000" fill="red">
  <title>New York</title>
</circle><line x1="1051.959961" y1="1343.959961" x2="1518.959961" y2="1465.959961" stroke="red" stroke-width="6.660000" />
<circle cx="1553.959961" cy="2020.959961" r="19.980000" fill="red">
  <title>Osaka</title>
</circle><line x1="1518.959961" y1="1465.959961" x2="1553.959961" y2="2020.959961" stroke="red" stroke-width="6.660000" />
<circle cx="1624.959961" cy="1599.959961" r="19.980000" fill="red">
  <title>Cairo</title>
</circle><line x1="1553.959961" y1="2020.959961" x2="1624.959961" y2="1599.959961" stroke="red" stroke-width="6.660000" />
<circle cx="1818.959961" cy="1186.959961" r="19.980000" fill="red">
  <title>Delhi</title>
</circle><line x1="1624.959961" y1="1599.959961" x2="1818.959961" y2="1186.959961" stroke="red" stroke-width="6.660000" />
<circle cx="1224.959961" cy="991.960022" r="19.980000" fill="red">
  <title>Buenos Aires</title>
</circle><line x1="1818.959961" y1="1186.959961" x2="1224.959961" y2="991.960022" stroke="red" stroke-width="6.660000" />
<circle cx="1056.959961" cy="747.960022" r="19.980000" fill="red">
  <title>Beijing</title>
</circle><line x1="1224.959961" y1="991.960022" x2="1056.959961" y2="747.960022" stroke="red" stroke-width="6.660000" />
<circle cx="1139.959961" cy="288.959991" r="19.980000" fill="red">
  <title>Mumbai</title>
</circle><line x1="1056.959961" y1="747.960022" x2="1139.959961" y2="288.959991" stroke="red" stroke-width="6.660000" />
<circle cx="575.960022" cy="550.960022" r="19.980000" fill="red">
  <title>Dhaka</title>
</circle><line x1="1139.959961" y1="288.959991" x2="575.960022" y2="550.960022" stroke="red" stroke-width="6.660000" />
<circle cx="116.959999" cy="1100.959961" r="19.980000" fill="red">
  <title>Mexico City</title>
</circle><line x1="575.960022" y1="550.960022" x2="116.959999" y2="1100.959961" stroke="red" stroke-width="6.660000" />
</svg>
