<?xml version="1.0" encoding="UTF-8" standalone="no"?>
<svg width="500" height="500" viewBox="0 0 2074.000000 2074.000000" xmlns="http://www.w3.org/2000/svg">
<rect x="19.000000" y="19.000000" width="2036.000000" height="2036.000000" fill="black" />
<circle cx="1038.959961" cy="1036.959961" r="19.980000" fill="red">
  <title>Tokyo</title>
</circle><line x1="1211.959961" y1="1516.959961" x2="1038.959961" y2="1036.959961" stroke="red" stroke-width="6.660000" />
<circle cx="1604.959961" cy="231.959991" r="19.980000" fill="red">
  <title>Mexico City</title>
</circle><line x1="1038.959961" y1="1036.959961" x2="1604.959961" y2="231.959991" stroke="red" stroke-width="6.660000" />
<circle cx="1994.959961" cy="870.960022" r="19.980000" fill="red">
  <title>Mumbai</title>
</circle><line x1="1604.959961" y1="231.959991" x2="1994.959961" y2="870.960022" stroke="red" stroke-width="6.660000" />
<circle cx="1704.959961" cy="1689.959961" r="19.980000" fill="red">
  <title>Shanghai</title>
</circle><line x1="1994.959961" y1="870.960022" x2="1704.959961" y2="1689.959961" stroke="red" stroke-width="6.660000" />
<circle cx="1128.959961" cy="1619.959961" r="19.980000" fill="red">
  <title>São Paulo</title>
</circle><line x1="1704.959961" y1="1689.959961" x2="1128.959961" y2="1619.959961" stroke="red" stroke-width="6.660000" />
<circle cx="846.960022" cy="1850.959961" r="19.980000" fill="red">
  <title>Dhaka</title>
</circle><line x1="1128.959961" y1="1619.959961" x2="846.960022" y2="1850.959961" stroke="red" stroke-width="6.660000" />
<circle cx="266.959991" cy="1700.959961" r="19.980000" fill="red">
  <title>Delhi</title>
</circle><line x1="846.960022" y1="1850.959961" x2="266.959991" y2="1700.959961" stroke="red" stroke-width="6.660000" />
<circle cx="912.960022" cy="1824.959961" r="19.980000" fill="red">
  <title>Cairo</title>
</circle><line x1="266.959991" y1="1700.959961" x2="912.960022" y2="1824.959961" stroke="red" stroke-width="6.660000" />
<circle cx="1211.959961" cy="1516.959961" r="19.980000" fill="red">
  <title>Beijing</title>
</circle><line x1="912.960022" y1="1824.959961" x2="1211.959961" y2="1516.959961" stroke="red" stroke-width="6.660000" />
</svg>
