<?xml version="1.0" encoding="UTF-8" standalone="no"?>
<svg width="500" height="500" viewBox="0 0 2074.000000 2074.000000" xmlns="http://www.w3.org/2000/svg">
<rect x="19.000000" y="19.000000" width="2036.000000" height="2036.000000" fill="black" />
<circle cx="555.960022" cy="869.960022" r="19.980000" fill="red">
  <title>Tokyo</title>
</circle><line x1="705.960022" y1="140.959991" x2="555.960022" y2="869.960022" stroke="red" stroke-width="6.660000" />
<circle cx="107.959999" cy="1388.959961" r="19.980000" fill="red">
  <title>Mexico City</title>
</circle><line x1="555.960022" y1="869.960022" x2="107.959999" y2="1388.959961" stroke="red" stroke-width="6.660000" />
<circle cx="498.959991" cy="1777.959961" r="19.980000" fill="red">
  <title>Mumbai</title>
</circle><line x1="107.959999" y1="1388.959961" x2="498.959991" y2="1777.959961" stroke="red" stroke-width="6.660000" />
<circle cx="581.960022" cy="2017.959961" r="19.980000" fill="red">
  <title>Buenos Aires</title>
</circle><line x1="498.959991" y1="1777.959961" x2="581.960022" y2="2017.959961" stroke="red" stroke-width="6.660000" />
<circle cx="767.960022" cy="1721.959961" r="19.980000" fill="red">
  <title>Chongqing</title>
</circle><line x1="581.960022" y1="2017.959961" x2="767.960022" y2="1721.959961" stroke="red" stroke-width="6.660000" />
<circle cx="789.960022" cy="1780.959961" r="19.980000" fill="red">
  <title>Karachi</title>
</circle><line x1="767.960022" y1="1721.959961" x2="789.960022" y2="1780.959961" stroke="red" stroke-width="6.660000" />
<circle cx="1012.960022" cy="1951.959961" r="19.980000" fill="red">
  <title>São Paulo</title>
</circle><line x1="789.960022" y1="1780.959961" x2="1012.960022" y2="1951.959961" stroke="red" stroke-width="6.660000" />
<circle cx="1361.959961" cy="1930.959961" r="19.980000" fill="red">
  <title>Shanghai</title>
</circle><line x1="1012.960022" y1="1951.959961" x2="1361.959961" y2="1930.959961" stroke="red" stroke-width="6.660000" />
<circle cx="1273.959961" cy="1789.959961" r="19.980000" fill="red">
  <title>Kolkata</title>
</circle><line x1="1361.959961" y1="1930.959961" x2="1273.959961" y2="1789.959961" stroke="red" stroke-width="6.660000" />
<circle cx="1046.959961" cy="1013.960022" r="19.980000" fill="red">
  <title>New York</title>
</circle><line x1="1273.959961" y1="1789.959961" x2="1046.959961" y2="1013.960022" stroke="red" stroke-width="6.660000" />
<circle cx="1586.959961" cy="648.960022" r="19.980000" fill="red">
  <title>Osaka</title>
</circle><line x1="1046.959961" y1="1013.960022" x2="1586.959961" y2="648.960022" stroke="red" stroke-width="6.660000" />
<circle cx="1872.959961" cy="236.959991" r="19.980000" fill="red">
  <title>Delhi</title>
</circle><line x1="1586.959961" y1="648.960022" x2="1872.959961" y2="236.959991" stroke="red" stroke-width="6.660000" />
<circle cx="1922.959961" cy="178.959991" r="19.980000" fill="red">
  <title>Dhaka</title>
</circle><line x1="1872.959961" y1="236.959991" x2="1922.959961" y2="178.959991" stroke="red" stroke-width="6.660000" />
<circle cx="1806.959961" cy="369.959991" r="19.980000" fill="red">
  <title>Beijing</title>
</circle><line x1="1922.959961" y1="178.959991" x2="1806.959961" y2="369.959991" stroke="red" stroke-width="6.660000" />
<circle cx="1272.959961" cy="638.960022" r="19.980000" fill="red">
  <title>Istanbul</title>
</circle><line x1="1806.959961" y1="369.959991" x2="1272.959961" y2="638.960022" stroke="red" stroke-width="6.660000" />
<circle cx="705.960022" cy="140.959991" r="19.980000" fill="red">
  <title>Cairo</title>
</circle><line x1="1272.959961" y1="638.960022" x2="705.960022" y2="140.959991" stroke="red" stroke-width="6.660000" />
</svg>
