<?xml version="1.0" encoding="UTF-8" standalone="no"?>
<svg width="500" height="500" viewBox="0 0 2074.000000 2074.000000" xmlns="http://www.w3.org/2000/svg">
<rect x="19.000000" y="19.000000" width="2036.000000" height="2036.000000" fill="black" />
<circle cx="1414.959961" cy="51.959999" r="19.980000" fill="red">
  <title>Tokyo</title>
</circle><line x1="1972.959961" y1="102.959999" x2="1414.959961" y2="51.959999" stroke="red" stroke-width="6.660000" />
<circle cx="859.960022" cy="655.960022" r="19.980000" fill="red">
  <title>São Paulo</title>
</circle><line x1="1414.959961" y1="51.959999" x2="859.960022" y2="655.960022" stroke="red" stroke-width="6.660000" />
<circle cx="994.960022" cy="1178.959961" r="19.980000" fill="red">
  <title>Dhaka</title>
</circle><line x1="859.960022" y1="655.960022" x2="994.960022" y2="1178.959961" stroke="red" stroke-width="6.660000" />
<circle cx="239.959991" cy="1314.959961" r="19.980000" fill="red">
  <title>Beijing</title>
</circle><line x1="994.960022" y1="1178.959961" x2="239.959991" y2="1314.959961" stroke="red" stroke-width="6.660000" />
<circle cx="193.959991" cy="2014.959961" r="19.980000" fill="red">
  <title>Cairo</title>
</circle><line x1="239.959991" y1="1314.959961" x2="193.959991" y2="2014.959961" stroke="red" stroke-width="6.660000" />
<circle cx="1256.959961" cy="2004.959961" r="19.980000" fill="red">
  <title>Mumbai</title>
</circle><line x1="193.959991" y1="2014.959961" x2="1256.959961" y2="2004.959961" stroke="red" stroke-width="6.660000" />
<circle cx="1774.959961" cy="1479.959961" r="19.980000" fill="red">
  <title>Delhi</title>
</circle><line x1="1256.959961" y1="2004.959961" x2="1774.959961" y2="1479.959961" stroke="red" stroke-width="6.660000" />
<circle cx="1334.959961" cy="656.960022" r="19.980000" fill="red">
  <title>Shanghai</title>
</circle><line x1="1774.959961" y1="1479.959961" x2="1334.959961" y2="656.960022" stroke="red" stroke-width="6.660000" />
<circle cx="1972.959961" cy="102.959999" r="19.980000" fill="red">
  <title>Mexico City</title>
</circle><line x1="1334.959961" y1="656.960022" x2="1972.959961" y2="102.959999" stroke="red" stroke-width="6.660000" />
</svg>
