<?xml version="1.0" encoding="UTF-8" standalone="no"?>
<svg width="500" height="500" viewBox="0 0 2074.000000 2074.000000" xmlns="http://www.w3.org/2000/svg">
<rect x="19.000000" y="19.000000" width="2036.000000" height="2036.000000" fill="black" />
<circle cx="629.960022" cy="1327.959961" r="19.980000" fill="red">
  <title>Tokyo</title>
</circle><line x1="892.960022" y1="1218.959961" x2="629.960022" y2="1327.959961" stroke="red" stroke-width="6.660000" />
<circle cx="220.959991" cy="809.960022" r="19.980000" fill="red">
  <title>New York</title>
</circle><line x1="629.960022" y1="1327.959961" x2="220.959991" y2="809.960022" stroke="red" stroke-width="6.660000" />
<circle cx="204.959991" cy="615.960022" r="19.980000" fill="red">
  <title>Delhi</title>
</circle><line x1="220.959991" y1="809.960022" x2="204.959991" y2="615.960022" stroke="red" stroke-width="6.660000" />
<circle cx="640.960022" cy="230.959991" r="19.980000" fill="red">
  <title>Beijing</title>
</circle><line x1="204.959991" y1="615.960022" x2="640.960022" y2="230.959991" stroke="red" stroke-width="6.660000" />
<circle cx="812.960022" cy="561.960022" r="19.980000" fill="red">
  <title>Kolkata</title>
</circle><line x1="640.960022" y1="230.959991" x2="812.960022" y2="561.960022" stroke="red" stroke-width="6.660000" />
<circle cx="844.960022" cy="983.960022" r="19.980000" fill="red">
  <title>Osaka</title>
</circle><line x1="812.960022" y1="561.960022" x2="844.960022" y2="983.960022" stroke="red" stroke-width="6.660000" />
<circle cx="1138.959961" cy="797.960022" r="19.980000" fill="red">
  <title>São Paulo</title>
</circle><line x1="844.960022" y1="983.960022" x2="1138.959961" y2="797.960022" stroke="red" stroke-width="6.660000" />
<circle cx="1205.959961" cy="726.960022" r="19.980000" fill="red">
  <title>Mumbai</title>
</circle><line x1="1138.959961" y1="797.960022" x2="1205.959961" y2="726.960022" stroke="red" stroke-width="6.660000" />
<circle cx="1613.959961" cy="758.960022" r="19.980000" fill="red">
  <title>Buenos Aires</title>
</circle><line x1="1205.959961" y1="726.960022" x2="1613.959961" y2="758.960022" stroke="red" stroke-width="6.660000" />
<circle cx="1925.959961" cy="392.959991" r="19.980000" fill="red">
  <title>Dhaka</title>
</circle><line x1="1613.959961" y1="758.960022" x2="1925.959961" y2="392.959991" stroke="red" stroke-width="6.660000" />
<circle cx="2010.959961" cy="452.959991" r="19.980000" fill="red">
  <title>Shanghai</title>
</circle><line x1="1925.959961" y1="392.959991" x2="2010.959961" y2="452.959991" stroke="red" stroke-width="6.660000" />
<circle cx="1804.959961" cy="1308.959961" r="19.980000" fill="red">
  <title>Cairo</title>
</circle><line x1="2010.959961" y1="452.959991" x2="1804.959961" y2="1308.959961" stroke="red" stroke-width="6.660000" />
<circle cx="1969.959961" cy="1534.959961" r="19.980000" fill="red">
  <title>Istanbul</title>
</circle><line x1="1804.959961" y1="1308.959961" x2="1969.959961" y2="1534.959961" stroke="red" stroke-width="6.660000" />
<circle cx="1546.959961" cy="1358.959961" r="19.980000" fill="red">
  <title>Chongqing</title>
</circle><line x1="1969.959961" y1="1534.959961" x2="1546.959961" y2="1358.959961" stroke="red" stroke-width="6.660000" />
<circle cx="1319.959961" cy="1565.959961" r="19.980000" fill="red">
  <title>Mexico City</title>
</circle><line x1="1546.959961" y1="1358.959961" x2="1319.959961" y2="1565.959961" stroke="red" stroke-width="6.660000" />
<circle cx="892.960022" cy="1218.959961" r="19.980000" fill="red">
  <title>Karachi</title>
</circle><line x1="1319.959961" y1="1565.959961" x2="892.960022" y2="1218.959961" stroke="red" stroke-width="6.660000" />
</svg>
