<?xml version="1.0" encoding="UTF-8" standalone="no"?>
<svg width="500" height="500" viewBox="0 0 2074.000000 2074.000000" xmlns="http://www.w3.org/2000/svg">
<rect x="19.000000" y="19.000000" width="2036.000000" height="2036.000000" fill="black" />
<circle cx="1329.959961" cy="87.959999" r="19.980000" fill="red">
  <title>Tokyo</title>
</circle><line x1="588.960022" y1="572.960022" x2="1329.959961" y2="87.959999" stroke="red" stroke-width="6.660000" />
<circle cx="799.960022" cy="899.960022" r="19.980000" fill="red">
  <title>Delhi</title>
</circle><line x1="1329.959961" y1="87.959999" x2="799.960022" y2="899.960022" stroke="red" stroke-width="6.660000" />
<circle cx="911.960022" cy="1816.959961" r="19.980000" fill="red">
  <title>Shanghai</title>
</circle><line x1="799.960022" y1="899.960022" x2="911.960022" y2="1816.959961" stroke="red" stroke-width="6.660000" />
<circle cx="1736.959961" cy="1922.959961" r="19.980000" fill="red">
  <title>Cairo</title>
</circle><line x1="911.960022" y1="1816.959961" x2="1736.959961" y2="1922.959961" stroke="red" stroke-width="6.660000" />
<circle cx="729.960022" cy="1911.959961" r="19.980000" fill="red">
  <title>São Paulo</title>
</circle><line x1="1736.959961" y1="1922.959961" x2="729.960022" y2="1911.959961" stroke="red" stroke-width="6.660000" />
<circle cx="115.959999" cy="1899.959961" r="19.980000" fill="red">
  <title>Mumbai</title>
</circle><line x1="729.960022" y1="1911.959961" x2="115.959999" y2="1899.959961" stroke="red" stroke-width="6.660000" />
<circle cx="430.959991" cy="676.960022" r="19.980000" fill="red">
  <title>Dhaka</title>
</circle><line x1="115.959999" y1="1899.959961" x2="430.959991" y2="676.960022" stroke="red" stroke-width="6.660000" />
<circle cx="436.959991" cy="488.959991" r="19.980000" fill="red">
  <title>Mexico City</title>
</circle><line x1="430.959991" y1="676.960022" x2="436.959991" y2="488.959991" stroke="red" stroke-width="6.660000" />
<circle cx="588.960022" cy="572.960022" r="19.980000" fill="red">
  <title>Beijing</title>
</circle><line x1="436.959991" y1="488.959991" x2="588.960022" y2="572.960022" stroke="red" stroke-width="6.660000" />
</svg>
