<?xml version="1.0" encoding="UTF-8" standalone="no"?>
<svg width="500" height="500" viewBox="0 0 2074.000000 2074.000000" xmlns="http://www.w3.org/2000/svg">
<rect x="19.000000" y="19.000000" width="2036.000000" height="2036.000000" fill="black" />
<circle cx="826.960022" cy="382.959991" r="19.980000" fill="red">
  <title>Tokyo</title>
</circle><line x1="873.960022" y1="176.959991" x2="826.960022" y2="382.959991" stroke="red" stroke-width="6.660000" />
<circle cx="263.959991" cy="658.960022" r="19.980000" fill="red">
  <title>Mumbai</title>
</circle><line x1="826.960022" y1="382.959991" x2="263.959991" y2="658.960022" stroke="red" stroke-width="6.660000" />
<circle cx="870.960022" cy="844.960022" r="19.980000" fill="red">
  <title>Dhaka</title>
</circle><line x1="263.959991" y1="658.960022" x2="870.960022" y2="844.960022" stroke="red" stroke-width="6.660000" />
<circle cx="1090.959961" cy="1613.959961" r="19.980000" fill="red">
  <title>Cairo</title>
</circle><line x1="870.960022" y1="844.960022" x2="1090.959961" y2="1613.959961" stroke="red" stroke-width="6.660000" />
<circle cx="1268.959961" cy="1924.959961" r="19.980000" fill="red">
  <title>Shanghai</title>
</circle><line x1="1090.959961" y1="1613.959961" x2="1268.959961" y2="1924.959961" stroke="red" stroke-width="6.660000" />
<circle cx="1600.959961" cy="1932.959961" r="19.980000" fill="red">
  <title>São Paulo</title>
</circle><line x1="1268.959961" y1="1924.959961" x2="1600.959961" y2="1932.959961" stroke="red" stroke-width="6.660000" />
<circle cx="1814.959961" cy="1891.959961" r="19.980000" fill="red">
  <title>Beijing</title>
</circle><line x1="1600.959961" y1="1932.959961" x2="1814.959961" y2="1891.959961" stroke="red" stroke-width="6.660000" />
<circle cx="1564.959961" cy="1377.959961" r="19.980000" fill="red">
  <title>Delhi</title>
</circle><line x1="1814.959961" y1="1891.959961" x2="1564.959961" y2="1377.959961" stroke="red" stroke-width="6.660000" />
<circle cx="1663.959961" cy="1046.959961" r="19.980000" fill="red">
  <title>Karachi</title>
</circle><line x1="1564.959961" y1="1377.959961" x2="1663.959961" y2="1046.959961" stroke="red" stroke-width="6.660000" />
<circle cx="1595.959961" cy="1008.960022" r="19.980000" fill="red">
  <title>Mexico City</title>
</circle><line x1="1663.959961" y1="1046.959961" x2="1595.959961" y2="1008.960022" stroke="red" stroke-width="6.660000" />
<circle cx="1266.959961" cy="180.959991" r="19.980000" fill="red">
  <title>Osaka</title>
</circle><line x1="1595.959961" y1="1008.960022" x2="1266.959961" y2="180.959991" stroke="red" stroke-width="6.660000" />
<circle cx="1068.959961" cy="99.959999" r="19.980000" fill="red">
  <title>Buenos Aires</title>
</circle><line x1="1266.959961" y1="180.959991" x2="1068.959961" y2="99.959999" stroke="red" stroke-width="6.660000" />
<circle cx="873.960022" cy="176.959991" r="19.980000" fill="red">
  <title>New York</title>
</circle><line x1="1068.959961" y1="99.959999" x2="873.960022" y2="176.959991" stroke="red" stroke-width="6.660000" />
</svg>
