<?xml version="1.0" encoding="UTF-8" standalone="no"?>
<svg width="500" height="500" viewBox="0 0 2074.000000 2074.000000" xmlns="http://www.w3.org/2000/svg">
<rect x="19.000000" y="19.000000" width="2036.000000" height="2036.000000" fill="black" />
<circle cx="1838.959961" cy="590.960022" r="19.980000" fill="red">
  <title>Tokyo</title>
</circle><line x1="709.960022" y1="1488.959961" x2="1838.959961" y2="590.960022" stroke="red" stroke-width="6.660000" />
<circle cx="2009.959961" cy="529.960022" r="19.980000" fill="red">
  <title>Shanghai</title>
</circle><line x1="1838.959961" y1="590.960022" x2="2009.959961" y2="529.960022" stroke="red" stroke-width="6.660000" />
<circle cx="1663.959961" cy="157.959991" r="19.980000" fill="red">
  <title>Delhi</title>
</circle><line x1="2009.959961" y1="529.960022" x2="1663.959961" y2="157.959991" stroke="red" stroke-width="6.660000" />
<circle cx="1149.959961" cy="1182.959961" r="19.980000" fill="red">
  <title>Mexico City</title>
</circle><line x1="1663.959961" y1="157.959991" x2="1149.959961" y2="1182.959961" stroke="red" stroke-width="6.660000" />
<circle cx="709.960022" cy="1488.959961" r="19.980000" fill="red">
  <title>São Paulo</title>
</circle><line x1="1149.959961" y1="1182.959961" x2="709.960022" y2="1488.959961" stroke="red" stroke-width="6.660000" />
</svg>
