<?xml version="1.0" encoding="UTF-8" standalone="no"?>
<svg width="500" height="500" viewBox="0 0 2074.000000 2074.000000" xmlns="http://www.w3.org/2000/svg">
<rect x="19.000000" y="19.000000" width="2036.000000" height="2036.000000" fill="black" />
<circle cx="1260.959961" cy="609.960022" r="19.980000" fill="red">
  <title>Tokyo</title>
</circle><line x1="991.960022" y1="751.960022" x2="1260.959961" y2="609.960022" stroke="red" stroke-width="6.660000" />
<circle cx="1977.959961" cy="511.959991" r="19.980000" fill="red">
  <title>Mumbai</title>
</circle><line x1="1260.959961" y1="609.960022" x2="1977.959961" y2="511.959991" stroke="red" stroke-width="6.660000" />
<circle cx="1407.959961" cy="1115.959961" r="19.980000" fill="red">
  <title>São Paulo</title>
</circle><line x1="1977.959961" y1="511.959991" x2="1407.959961" y2="1115.959961" stroke="red" stroke-width="6.660000" />
<circle cx="1466.959961" cy="1858.959961" r="19.980000" fill="red">
  <title>Shanghai</title>
</circle><line x1="1407.959961" y1="1115.959961" x2="1466.959961" y2="1858.959961" stroke="red" stroke-width="6.660000" />
<circle cx="1192.959961" cy="1883.959961" r="19.980000" fill="red">
  <title>New York</title>
</circle><line x1="1466.959961" y1="1858.959961" x2="1192.959961" y2="1883.959961" stroke="red" stroke-width="6.660000" />
<circle cx="735.960022" cy="1665.959961" r="19.980000" fill="red">
  <title>Delhi</title>
</circle><line x1="1192.959961" y1="1883.959961" x2="735.960022" y2="1665.959961" stroke="red" stroke-width="6.660000" />
<circle cx="270.959991" cy="1942.959961" r="19.980000" fill="red">
  <title>Osaka</title>
</circle><line x1="735.960022" y1="1665.959961" x2="270.959991" y2="1942.959961" stroke="red" stroke-width="6.660000" />
<circle cx="156.959991" cy="1645.959961" r="19.980000" fill="red">
  <title>Dhaka</title>
</circle><line x1="270.959991" y1="1942.959961" x2="156.959991" y2="1645.959961" stroke="red" stroke-width="6.660000" />
<circle cx="307.959991" cy="776.960022" r="19.980000" fill="red">
  <title>Cairo</title>
</circle><line x1="156.959991" y1="1645.959961" x2="307.959991" y2="776.960022" stroke="red" stroke-width="6.660000" />
<circle cx="880.960022" cy="770.960022" r="19.980000" fill="red">
  <title>Mexico City</title>
</circle><line x1="307.959991" y1="776.960022" x2="880.960022" y2="770.960022" stroke="red" stroke-width="6.660000" />
<circle cx="991.960022" cy="751.960022" r="19.980000" fill="red">
  <title>Beijing</title>
</circle><line x1="880.960022" y1="770.960022" x2="991.960022" y2="751.960022" stroke="red" stroke-width="6.660000" />
</svg>
