<?xml version="1.0" encoding="UTF-8" standalone="no"?>
<svg width="500" height="500" viewBox="0 0 2074.000000 2074.000000" xmlns="http://www.w3.org/2000/svg">
<rect x="19.000000" y="19.000000" width="2036.000000" height="2036.000000" fill="black" />
<circle cx="105.959999" cy="490.959991" r="19.980000" fill="red">
  <title>Tokyo</title>
</circle><line x1="383.959991" y1="951.960022" x2="105.959999" y2="490.959991" stroke="red" stroke-width="6.660000" />
<circle cx="864.960022" cy="261.959991" r="19.980000" fill="red">
  <title>Delhi</title>
</circle><line x1="105.959999" y1="490.959991" x2="864.960022" y2="261.959991" stroke="red" stroke-width="6.660000" />
<circle cx="996.960022" cy="179.959991" r="19.980000" fill="red">
  <title>Mumbai</title>
</circle><line x1="864.960022" y1="261.959991" x2="996.960022" y2="179.959991" stroke="red" stroke-width="6.660000" />
<circle cx="1933.959961" cy="1403.959961" r="19.980000" fill="red">
  <title>São Paulo</title>
</circle><line x1="996.960022" y1="179.959991" x2="1933.959961" y2="1403.959961" stroke="red" stroke-width="6.660000" />
<circle cx="2001.959961" cy="1958.959961" r="19.980000" fill="red">
  <title>Cairo</title>
</circle><line x1="1933.959961" y1="1403.959961" x2="2001.959961" y2="1958.959961" stroke="red" stroke-width="6.660000" />
<circle cx="553.960022" cy="1437.959961" r="19.980000" fill="red">
  <title>Mexico City</title>
</circle><line x1="2001.959961" y1="1958.959961" x2="553.960022" y2="1437.959961" stroke="red" stroke-width="6.660000" />
<circle cx="383.959991" cy="951.960022" r="19.980000" fill="red">
  <title>Shanghai</title>
</circle><line x1="553.960022" y1="1437.959961" x2="383.959991" y2="951.960022" stroke="red" stroke-width="6.660000" />
</svg>
