<?xml version="1.0" encoding="UTF-8" standalone="no"?>
<svg width="500" height="500" viewBox="0 0 2074.000000 2074.000000" xmlns="http://www.w3.org/2000/svg">
<rect x="19.000000" y="19.000000" width="2036.000000" height="2036.000000" fill="black" />
<circle cx="2025.959961" cy="1903.959961" r="19.980000" fill="red">
  <title>Tokyo</title>
</circle><line x1="1660.959961" y1="1616.959961" x2="2025.959961" y2="1903.959961" stroke="red" stroke-width="6.660000" />
<circle cx="2010.959961" cy="1666.959961" r="19.980000" fill="red">
  <title>Shanghai</title>
</circle><line x1="2025.959961" y1="1903.959961" x2="2010.959961" y2="1666.959961" stroke="red" stroke-width="6.660000" />
<circle cx="1651.959961" cy="200.959991" r="19.980000" fill="red">
  <title>Cairo</title>
</circle><line x1="2010.959961" y1="1666.959961" x2="1651.959961" y2="200.959991" stroke="red" stroke-width="6.660000" />
<circle cx="1047.959961" cy="528.960022" r="19.980000" fill="red">
  <title>Delhi</title>
</circle><line x1="1651.959961" y1="200.959991" x2="1047.959961" y2="528.960022" stroke="red" stroke-width="6.660000" />
<circle cx="363.959991" cy="239.959991" r="19.980000" fill="red">
  <title>Mexico City</title>
</circle><line x1="1047.959961" y1="528.960022" x2="363.959991" y2="239.959991" stroke="red" stroke-width="6.660000" />
<circle cx="284.959991" cy="335.959991" r="19.980000" fill="red">
  <title>Beijing</title>
</circle><line x1="363.959991" y1="239.959991" x2="284.959991" y2="335.959991" stroke="red" stroke-width="6.660000" />
<circle cx="122.959999" cy="794.960022" r="19.980000" fill="red">
  <title>São Paulo</title>
</circle><line x1="284.959991" y1="335.959991" x2="122.959999" y2="794.960022" stroke="red" stroke-width="6.660000" />
<circle cx="893.960022" cy="1955.959961" r="19.980000" fill="red">
  <title>Mumbai</title>
</circle><line x1="122.959999" y1="794.960022" x2="893.960022" y2="1955.959961" stroke="red" stroke-width="6.660000" />
<circle cx="1660.959961" cy="1616.959961" r="19.980000" fill="red">
  <title>Dhaka</title>
</circle><line x1="893.960022" y1="1955.959961" x2="1660.959961" y2="1616.959961" stroke="red" stroke-width="6.660000" />
</svg>
