<?xml version="1.0" encoding="UTF-8" standalone="no"?>
<svg width="500" height="500" viewBox="0 0 2074.000000 2074.000000" xmlns="http://www.w3.org/2000/svg">
<rect x="19.000000" y="19.000000" width="2036.000000" height="2036.000000" fill="black" />
<circle cx="1628.959961" cy="1996.959961" r="19.980000" fill="red">
  <title>Tokyo</title>
</circle><line x1="208.959991" y1="1386.959961" x2="1628.959961" y2="1996.959961" stroke="red" stroke-width="6.660000" />
<circle cx="1749.959961" cy="1992.959961" r="19.980000" fill="red">
  <title>Mexico City</title>
</circle><line x1="1628.959961" y1="1996.959961" x2="1749.959961" y2="1992.959961" stroke="red" stroke-width="6.660000" />
<circle cx="1527.959961" cy="881.960022" r="19.980000" fill="red">
  <title>Shanghai</title>
</circle><line x1="1749.959961" y1="1992.959961" x2="1527.959961" y2="881.960022" stroke="red" stroke-width="6.660000" />
<circle cx="1019.960022" cy="1190.959961" r="19.980000" fill="red">
  <title>Delhi</title>
</circle><line x1="1527.959961" y1="881.960022" x2="1019.960022" y2="1190.959961" stroke="red" stroke-width="6.660000" />
<circle cx="208.959991" cy="1386.959961" r="19.980000" fill="red">
  <title>São Paulo</title>
</circle><line x1="1019.960022" y1="1190.959961" x2="208.959991" y2="1386.959961" stroke="red" stroke-width="6.660000" />
</svg>
