<?xml version="1.0" encoding="UTF-8" standalone="no"?>
<svg width="500" height="500" viewBox="0 0 2074.000000 2074.000000" xmlns="http://www.w3.org/2000/svg">
<rect x="19.000000" y="19.000000" width="2036.000000" height="2036.000000" fill="black" />
<circle cx="443.959991" cy="669.960022" r="19.980000" fill="red">
  <title>Tokyo</title>
</circle><line x1="690.960022" y1="944.960022" x2="443.959991" y2="669.960022" stroke="red" stroke-width="6.660000" />
<circle cx="441.959991" cy="72.959999" r="19.980000" fill="red">
  <title>Delhi</title>
</circle><line x1="443.959991" y1="669.960022" x2="441.959991" y2="72.959999" stroke="red" stroke-width="6.660000" />
<circle cx="1233.959961" cy="238.959991" r="19.980000" fill="red">
  <title>Osaka</title>
</circle><line x1="441.959991" y1="72.959999" x2="1233.959961" y2="238.959991" stroke="red" stroke-width="6.660000" />
<circle cx="1225.959961" cy="760.960022" r="19.980000" fill="red">
  <title>Cairo</title>
</circle><line x1="1233.959961" y1="238.959991" x2="1225.959961" y2="760.960022" stroke="red" stroke-width="6.660000" />
<circle cx="1451.959961" cy="871.960022" r="19.980000" fill="red">
  <title>Mumbai</title>
</circle><line x1="1225.959961" y1="760.960022" x2="1451.959961" y2="871.960022" stroke="red" stroke-width="6.660000" />
<circle cx="1060.959961" cy="1012.960022" r="19.980000" fill="red">
  <title>Karachi</title>
</circle><line x1="1451.959961" y1="871.960022" x2="1060.959961" y2="1012.960022" stroke="red" stroke-width="6.660000" />
<circle cx="1140.959961" cy="1242.959961" r="19.980000" fill="red">
  <title>New York</title>
</circle><line x1="1060.959961" y1="1012.960022" x2="1140.959961" y2="1242.959961" stroke="red" stroke-width="6.660000" />
<circle cx="1220.959961" cy="1786.959961" r="19.980000" fill="red">
  <title>São Paulo</title>
</circle><line x1="1140.959961" y1="1242.959961" x2="1220.959961" y2="1786.959961" stroke="red" stroke-width="6.660000" />
<circle cx="669.960022" cy="1959.959961" r="19.980000" fill="red">
  <title>Dhaka</title>
</circle><line x1="1220.959961" y1="1786.959961" x2="669.960022" y2="1959.959961" stroke="red" stroke-width="6.660000" />
<circle cx="195.959991" cy="1831.959961" r="19.980000" fill="red">
  <title>Mexico City</title>
</circle><line x1="669.960022" y1="1959.959961" x2="195.959991" y2="1831.959961" stroke="red" stroke-width="6.660000" />
<circle cx="622.960022" cy="1056.959961" r="19.980000" fill="red">
  <title>Shanghai</title>
</circle><line x1="195.959991" y1="1831.959961" x2="622.960022" y2="1056.959961" stroke="red" stroke-width="6.660000" />
<circle cx="690.960022" cy="944.960022" r="19.980000" fill="red">
  <title>Beijing</title>
</circle><line x1="622.960022" y1="1056.959961" x2="690.960022" y2="944.960022" stroke="red" stroke-width="6.660000" />
</svg>
