<?xml version="1.0" encoding="UTF-8" standalone="no"?>
<svg width="500" height="500" viewBox="0 0 2074.000000 2074.000000" xmlns="http://www.w3.org/2000/svg">
<rect x="19.000000" y="19.000000" width="2036.000000" height="2036.000000" fill="black" />
<circle cx="1068.959961" cy="114.959999" r="19.980000" fill="red">
  <title>Tokyo</title>
</circle><line x1="338.959991" y1="1309.959961" x2="1068.959961" y2="114.959999" stroke="red" stroke-width="6.660000" />
<circle cx="1368.959961" cy="424.959991" r="19.980000" fill="red">
  <title>Shanghai</title>
</circle><line x1="1068.959961" y1="114.959999" x2="1368.959961" y2="424.959991" stroke="red" stroke-width="6.660000" />
<circle cx="1472.959961" cy="1005.960022" r="19.980000" fill="red">
  <title>Delhi</title>
</circle><line x1="1368.959961" y1="424.959991" x2="1472.959961" y2="1005.960022" stroke="red" stroke-width="6.660000" />
<circle cx="338.959991" cy="1309.959961" r="19.980000" fill="red">
  <title>São Paulo</title>
</circle><line x1="1472.959961" y1="1005.960022" x2="338.959991" y2="1309.959961" stroke="red" stroke-width="6.660000" />
</svg>
