<?xml version="1.0" encoding="UTF-8" standalone="no"?>
<svg width="500" height="500" viewBox="0 0 2074.000000 2074.000000" xmlns="http://www.w3.org/2000/svg">
<rect x="19.000000" y="19.000000" width="2036.000000" height="2036.000000" fill="black" />
<circle cx="278.959991" cy="879.960022" r="19.980000" fill="red">
  <title>Tokyo</title>
</circle><line x1="272.959991" y1="1287.959961" x2="278.959991" y2="879.960022" stroke="red" stroke-width="6.660000" />
<circle cx="272.959991" cy="776.960022" r="19.980000" fill="red">
  <title>Dhaka</title>
</circle><line x1="278.959991" y1="879.960022" x2="272.959991" y2="776.960022" stroke="red" stroke-width="6.660000" />
<circle cx="414.959991" cy="445.959991" r="19.980000" fill="red">
  <title>Shanghai</title>
</circle><line x1="272.959991" y1="776.960022" x2="414.959991" y2="445.959991" stroke="red" stroke-width="6.660000" />
<circle cx="240.959991" cy="199.959991" r="19.980000" fill="red">
  <title>Beijing</title>
</circle><line x1="414.959991" y1="445.959991" x2="240.959991" y2="199.959991" stroke="red" stroke-width="6.660000" />
<circle cx="772.960022" cy="193.959991" r="19.980000" fill="red">
  <title>Delhi</title>
</circle><line x1="240.959991" y1="199.959991" x2="772.960022" y2="193.959991" stroke="red" stroke-width="6.660000" />
<circle cx="1367.959961" cy="277.959991" r="19.980000" fill="red">
  <title>Osaka</title>
</circle><line x1="772.960022" y1="193.959991" x2="1367.959961" y2="277.959991" stroke="red" stroke-width="6.660000" />
<circle cx="1972.959961" cy="383.959991" r="19.980000" fill="red">
  <title>New York</title>
</circle><line x1="1367.959961" y1="277.959991" x2="1972.959961" y2="383.959991" stroke="red" stroke-width="6.660000" />
<circle cx="1991.959961" cy="928.960022" r="19.980000" fill="red">
  <title>São Paulo</title>
</circle><line x1="1972.959961" y1="383.959991" x2="1991.959961" y2="928.960022" stroke="red" stroke-width="6.660000" />
<circle cx="1525.959961" cy="802.960022" r="19.980000" fill="red">
  <title>Mexico City</title>
</circle><line x1="1991.959961" y1="928.960022" x2="1525.959961" y2="802.960022" stroke="red" stroke-width="6.660000" />
<circle cx="1594.959961" cy="1364.959961" r="19.980000" fill="red">
  <title>Buenos Aires</title>
</circle><line x1="1525.959961" y1="802.960022" x2="1594.959961" y2="1364.959961" stroke="red" stroke-width="6.660000" />
<circle cx="1741.959961" cy="1827.959961" r="19.980000" fill="red">
  <title>Chongqing</title>
</circle><line x1="1594.959961" y1="1364.959961" x2="1741.959961" y2="1827.959961" stroke="red" stroke-width="6.660000" />
<circle cx="1268.959961" cy="1549.959961" r="19.980000" fill="red">
  <title>Mumbai</title>
</circle><line x1="1741.959961" y1="1827.959961" x2="1268.959961" y2="1549.959961" stroke="red" stroke-width="6.660000" />
<circle cx="1148.959961" cy="1017.960022" r="19.980000" fill="red">
  <title>Karachi</title>
</circle><line x1="1268.959961" y1="1549.959961" x2="1148.959961" y2="1017.960022" stroke="red" stroke-width="6.660000" />
<circle cx="272.959991" cy="1287.959961" r="19.980000" fill="red">
  <title>Cairo</title>
</circle><line x1="1148.959961" y1="1017.960022" x2="272.959991" y2="1287.959961" stroke="red" stroke-width="6.660000" />
</svg>
