<?xml version="1.0" encoding="UTF-8" standalone="no"?>
<svg width="500" height="500" viewBox="0 0 2074.000000 2074.000000" xmlns="http://www.w3.org/2000/svg">
<rect x="19.000000" y="19.000000" width="2036.000000" height="2036.000000" fill="black" />
<circle cx="1288.959961" cy="259.959991" r="19.980000" fill="red">
  <title>Tokyo</title>
</circle><line x1="1944.959961" y1="170.959991" x2="1288.959961" y2="259.959991" stroke="red" stroke-width="6.660000" />
<circle cx="550.960022" cy="1036.959961" r="19.980000" fill="red">
  <title>Delhi</title>
</circle><line x1="1288.959961" y1="259.959991" x2="550.960022" y2="1036.959961" stroke="red" stroke-width="6.660000" />
<circle cx="425.959991" cy="1302.959961" r="19.980000" fill="red">
  <title>Mexico City</title>
</circle><line x1="550.960022" y1="1036.959961" x2="425.959991" y2="1302.959961" stroke="red" stroke-width="6.660000" />
<circle cx="1459.959961" cy="1542.959961" r="19.980000" fill="red">
  <title>Mumbai</title>
</circle><line x1="425.959991" y1="1302.959961" x2="1459.959961" y2="1542.959961" stroke="red" stroke-width="6.660000" />
<circle cx="1616.959961" cy="1479.959961" r="19.980000" fill="red">
  <title>Cairo</title>
</circle><line x1="1459.959961" y1="1542.959961" x2="1616.959961" y2="1479.959961" stroke="red" stroke-width="6.660000" />
<circle cx="1836.959961" cy="747.960022" r="19.980000" fill="red">
  <title>Shanghai</title>
</circle><line x1="1616.959961" y1="1479.959961" x2="1836.959961" y2="747.960022" stroke="red" stroke-width="6.660000" />
<circle cx="1944.959961" cy="170.959991" r="19.980000" fill="red">
  <title>São Paulo</title>
</circle><line x1="1836.959961" y1="747.960022" x2="1944.959961" y2="170.959991" stroke="red" stroke-width="6.660000" />
</svg>
