<?xml version="1.0" encoding="UTF-8" standalone="no"?>
<svg width="500" height="500" viewBox="0 0 2074.000000 2074.000000" xmlns="http://www.w3.org/2000/svg">
<rect x="19.000000" y="19.000000" width="2036.000000" height="2036.000000" fill="black" />
<circle cx="1198.959961" cy="1898.959961" r="19.980000" fill="red">
  <title>Tokyo</title>
</circle><line x1="1013.960022" y1="1460.959961" x2="1198.959961" y2="1898.959961" stroke="red" stroke-width="6.660000" />
<circle cx="1199.959961" cy="1961.959961" r="19.980000" fill="red">
  <title>Dhaka</title>
</circle><line x1="1198.959961" y1="1898.959961" x2="1199.959961" y2="1961.959961" stroke="red" stroke-width="6.660000" />
<circle cx="554.960022" cy="1771.959961" r="19.980000" fill="red">
  <title>Karachi</title>
</circle><line x1="1199.959961" y1="1961.959961" x2="554.960022" y2="1771.959961" stroke="red" stroke-width="6.660000" />
<circle cx="264.959991" cy="1624.959961" r="19.980000" fill="red">
  <title>Istanbul</title>
</circle><line x1="554.960022" y1="1771.959961" x2="264.959991" y2="1624.959961" stroke="red" stroke-width="6.660000" />
<circle cx="196.959991" cy="1600.959961" r="19.980000" fill="red">
  <title>Buenos Aires</title>
</circle><line x1="264.959991" y1="1624.959961" x2="196.959991" y2="1600.959961" stroke="red" stroke-width="6.660000" />
<circle cx="452.959991" cy="1374.959961" r="19.980000" fill="red">
  <title>Chongqing</title>
</circle><line x1="196.959991" y1="1600.959961" x2="452.959991" y2="1374.959961" stroke="red" stroke-width="6.660000" />
<circle cx="266.959991" cy="916.960022" r="19.980000" fill="red">
  <title>Cairo</title>
</circle><line x1="452.959991" y1="1374.959961" x2="266.959991" y2="916.960022" stroke="red" stroke-width="6.660000" />
<circle cx="302.959991" cy="940.960022" r="19.980000" fill="red">
  <title>Mexico City</title>
</circle><line x1="266.959991" y1="916.960022" x2="302.959991" y2="940.960022" stroke="red" stroke-width="6.660000" />
<circle cx="892.960022" cy="1068.959961" r="19.980000" fill="red">
  <title>São Paulo</title>
</circle><line x1="302.959991" y1="940.960022" x2="892.960022" y2="1068.959961" stroke="red" stroke-width="6.660000" />
<circle cx="1236.959961" cy="422.959991" r="19.980000" fill="red">
  <title>Shanghai</title>
</circle><line x1="892.960022" y1="1068.959961" x2="1236.959961" y2="422.959991" stroke="red" stroke-width="6.660000" />
<circle cx="1789.959961" cy="48.959999" r="19.980000" fill="red">
  <title>Beijing</title>
</circle><line x1="1236.959961" y1="422.959991" x2="1789.959961" y2="48.959999" stroke="red" stroke-width="6.660000" />
<circle cx="2009.959961" cy="211.959991" r="19.980000" fill="red">
  <title>Delhi</title>
</circle><line x1="1789.959961" y1="48.959999" x2="2009.959961" y2="211.959991" stroke="red" stroke-width="6.660000" />
<circle cx="1085.959961" cy="1009.960022" r="19.980000" fill="red">
  <title>New York</title>
</circle><line x1="2009.959961" y1="211.959991" x2="1085.959961" y2="1009.960022" stroke="red" stroke-width="6.660000" />
<circle cx="878.960022" cy="1273.959961" r="19.980000" fill="red">
  <title>Mumbai</title>
</circle><line x1="1085.959961" y1="1009.960022" x2="878.960022" y2="1273.959961" stroke="red" stroke-width="6.660000" />
<circle cx="1013.960022" cy="1460.959961" r="19.980000" fill="red">
  <title>Osaka</title>
</circle><line x1="878.960022" y1="1273.959961" x2="1013.960022" y2="1460.959961" stroke="red" stroke-width="6.660000" />
</svg>
