<?xml version="1.0" encoding="UTF-8" standalone="no"?>
<svg width="500" height="500" viewBox="0 0 2074.000000 2074.000000" xmlns="http://www.w3.org/2000/svg">
<rect x="19.000000" y="19.000000" width="2036.000000" height="2036.000000" fill="black" />
<circle cx="317.959991" cy="1243.959961" r="19.980000" fill="red">
  <title>Tokyo</title>
</circle><line x1="301.959991" y1="1659.959961" x2="317.959991" y2="1243.959961" stroke="red" stroke-width="6.660000" />
<circle cx="499.959991" cy="298.959991" r="19.980000" fill="red">
  <title>Delhi</title>
</circle><line x1="317.959991" y1="1243.959961" x2="499.959991" y2="298.959991" stroke="red" stroke-width="6.660000" />
<circle cx="855.960022" cy="197.959991" r="19.980000" fill="red">
  <title>Beijing</title>
</circle><line x1="499.959991" y1="298.959991" x2="855.960022" y2="197.959991" stroke="red" stroke-width="6.660000" />
<circle cx="1394.959961" cy="112.959999" r="19.980000" fill="red">
  <title>Dhaka</title>
</circle><line x1="855.960022" y1="197.959991" x2="1394.959961" y2="112.959999" stroke="red" stroke-width="6.660000" />
<circle cx="1499.959961" cy="78.959999" r="19.980000" fill="red">
  <title>São Paulo</title>
</circle><line x1="1394.959961" y1="112.959999" x2="1499.959961" y2="78.959999" stroke="red" stroke-width="6.660000" />
<circle cx="1572.959961" cy="153.959991" r="19.980000" fill="red">
  <title>Shanghai</title>
</circle><line x1="1499.959961" y1="78.959999" x2="1572.959961" y2="153.959991" stroke="red" stroke-width="6.660000" />
<circle cx="1070.959961" cy="858.960022" r="19.980000" fill="red">
  <title>Cairo</title>
</circle><line x1="1572.959961" y1="153.959991" x2="1070.959961" y2="858.960022" stroke="red" stroke-width="6.660000" />
<circle cx="1959.959961" cy="1711.959961" r="19.980000" fill="red">
  <title>Osaka</title>
</circle><line x1="1070.959961" y1="858.960022" x2="1959.959961" y2="1711.959961" stroke="red" stroke-width="6.660000" />
<circle cx="1267.959961" cy="1065.959961" r="19.980000" fill="red">
  <title>Mexico City</title>
</circle><line x1="1959.959961" y1="1711.959961" x2="1267.959961" y2="1065.959961" stroke="red" stroke-width="6.660000" />
<circle cx="301.959991" cy="1659.959961" r="19.980000" fill="red">
  <title>Mumbai</title>
</circle><line x1="1267.959961" y1="1065.959961" x2="301.959991" y2="1659.959961" stroke="red" stroke-width="6.660000" />
</svg>
