<?xml version="1.0" encoding="UTF-8" standalone="no"?>
<svg width="500" height="500" viewBox="0 0 2074.000000 2074.000000" xmlns="http://www.w3.org/2000/svg">
<rect x="19.000000" y="19.000000" width="2036.000000" height="2036.000000" fill="black" />
<circle cx="1279.959961" cy="1827.959961" r="19.980000" fill="red">
  <title>Tokyo</title>
</circle><line x1="1540.959961" y1="1458.959961" x2="1279.959961" y2="1827.959961" stroke="red" stroke-width="6.660000" />
<circle cx="185.959991" cy="1297.959961" r="19.980000" fill="red">
  <title>Delhi</title>
</circle><line x1="1279.959961" y1="1827.959961" x2="185.959991" y2="1297.959961" stroke="red" stroke-width="6.660000" />
<circle cx="74.959999" cy="623.960022" r="19.980000" fill="red">
  <title>Mumbai</title>
</circle><line x1="185.959991" y1="1297.959961" x2="74.959999" y2="623.960022" stroke="red" stroke-width="6.660000" />
<circle cx="274.959991" cy="525.960022" r="19.980000" fill="red">
  <title>New York</title>
</circle><line x1="74.959999" y1="623.960022" x2="274.959991" y2="525.960022" stroke="red" stroke-width="6.660000" />
<circle cx="845.960022" cy="627.960022" r="19.980000" fill="red">
  <title>Osaka</title>
</circle><line x1="274.959991" y1="525.960022" x2="845.960022" y2="627.960022" stroke="red" stroke-width="6.660000" />
<circle cx="848.960022" cy="174.959991" r="19.980000" fill="red">
  <title>Dhaka</title>
</circle><line x1="845.960022" y1="627.960022" x2="848.960022" y2="174.959991" stroke="red" stroke-width="6.660000" />
<circle cx="936.960022" cy="351.959991" r="19.980000" fill="red">
  <title>São Paulo</title>
</circle><line x1="848.960022" y1="174.959991" x2="936.960022" y2="351.959991" stroke="red" stroke-width="6.660000" />
<circle cx="1591.959961" cy="292.959991" r="19.980000" fill="red">
  <title>Beijing</title>
</circle><line x1="936.960022" y1="351.959991" x2="1591.959961" y2="292.959991" stroke="red" stroke-width="6.660000" />
<circle cx="1995.959961" cy="119.959999" r="19.980000" fill="red">
  <title>Mexico City</title>
</circle><line x1="1591.959961" y1="292.959991" x2="1995.959961" y2="119.959999" stroke="red" stroke-width="6.660000" />
<circle cx="1535.959961" cy="633.960022" r="19.980000" fill="red">
  <title>Shanghai</title>
</circle><line x1="1995.959961" y1="119.959999" x2="1535.959961" y2="633.960022" stroke="red" stroke-width="6.660000" />
<circle cx="1518.959961" cy="1447.959961" r="19.980000" fill="red">
  <title>Cairo</title>
</circle><line x1="1535.959961" y1="633.960022" x2="1518.959961" y2="1447.959961" stroke="red" stroke-width="6.660000" />
<circle cx="1540.959961" cy="1458.959961" r="19.980000" fill="red">
  <title>Karachi</title>
</circle><line x1="1518.959961" y1="1447.959961" x2="1540.959961" y2="1458.959961" stroke="red" stroke-width="6.660000" />
</svg>
