<?xml version="1.0" encoding="UTF-8" standalone="no"?>
<svg width="500" height="500" viewBox="0 0 2074.000000 2074.000000" xmlns="http://www.w3.org/2000/svg">
<rect x="19.000000" y="19.000000" width="2036.000000" height="2036.000000" fill="black" />
<circle cx="1601.959961" cy="1166.959961" r="19.980000" fill="red">
  <title>Tokyo</title>
</circle><line x1="1900.959961" y1="938.960022" x2="1601.959961" y2="1166.959961" stroke="red" stroke-width="6.660000" />
<circle cx="1354.959961" cy="1475.959961" r="19.980000" fill="red">
  <title>Mexico City</title>
</circle><line x1="1601.959961" y1="1166.959961" x2="1354.959961" y2="1475.959961" stroke="red" stroke-width="6.660000" />
<circle cx="1066.959961" cy="980.960022" r="19.980000" fill="red">
  <title>Osaka</title>
</circle><line x1="1354.959961" y1="1475.959961" x2="1066.959961" y2="980.960022" stroke="red" stroke-width="6.660000" />
<circle cx="868.960022" cy="929.960022" r="19.980000" fill="red">
  <title>Istanbul</title>
</circle><line x1="1066.959961" y1="980.960022" x2="868.960022" y2="929.960022" stroke="red" stroke-width="6.660000" />
<circle cx="93.959999" cy="1495.959961" r="19.980000" fill="red">
  <title>Delhi</title>
</circle><line x1="868.960022" y1="929.960022" x2="93.959999" y2="1495.959961" stroke="red" stroke-width="6.660000" />
<circle cx="57.959999" cy="2000.959961" r="19.980000" fill="red">
  <title>Manila</title>
</circle><line x1="93.959999" y1="1495.959961" x2="57.959999" y2="2000.959961" stroke="red" stroke-width="6.660000" />
<circle cx="116.959999" cy="1319.959961" r="19.980000" fill="red">
  <title>Buenos Aires</title>
</circle><line x1="57.959999" y1="2000.959961" x2="116.959999" y2="1319.959961" stroke="red" stroke-width="6.660000" />
<circle cx="462.959991" cy="693.960022" r="19.980000" fill="red">
  <title>Karachi</title>
</circle><line x1="116.959999" y1="1319.959961" x2="462.959991" y2="693.960022" stroke="red" stroke-width="6.660000" />
<circle cx="461.959991" cy="561.960022" r="19.980000" fill="red">
  <title>Dhaka</title>
</circle><line x1="462.959991" y1="693.960022" x2="461.959991" y2="561.960022" stroke="red" stroke-width="6.660000" />
<circle cx="380.959991" cy="126.959999" r="19.980000" fill="red">
  <title>New York</title>
</circle><line x1="461.959991" y1="561.960022" x2="380.959991" y2="126.959999" stroke="red" stroke-width="6.660000" />
<circle cx="1123.959961" cy="329.959991" r="19.980000" fill="red">
  <title>Chongqing</title>
</circle><line x1="380.959991" y1="126.959999" x2="1123.959961" y2="329.959991" stroke="red" stroke-width="6.660000" />
<circle cx="1323.959961" cy="383.959991" r="19.980000" fill="red">
  <title>Shanghai</title>
</circle><line x1="1123.959961" y1="329.959991" x2="1323.959961" y2="383.959991" stroke="red" stroke-width="6.660000" />
<circle cx="1632.959961" cy="496.959991" r="19.980000" fill="red">
  <title>São Paulo</title>
</circle><line x1="1323.959961" y1="383.959991" x2="1632.959961" y2="496.959991" stroke="red" stroke-width="6.660000" />
<circle cx="1586.959961" cy="394.959991" r="19.980000" fill="red">
  <title>Beijing</title>
</circle><line x1="1632.959961" y1="496.959991" x2="1586.959961" y2="394.959991" stroke="red" stroke-width="6.660000" />
<circle cx="1744.959961" cy="88.959999" r="19.980000" fill="red">
  <title>Mumbai</title>
</circle><line x1="1586.959961" y1="394.959991" x2="1744.959961" y2="88.959999" stroke="red" stroke-width="6.660000" />
<circle cx="1946.959961" cy="431.959991" r="19.980000" fill="red">
  <title>Kolkata</title>
</circle><line x1="1744.959961" y1="88.959999" x2="1946.959961" y2="431.959991" stroke="red" stroke-width="6.660000" />
<circle cx="1900.959961" cy="938.960022" r="19.980000" fill="red">
  <title>Cairo</title>
</circle><line x1="1946.959961" y1="431.959991" x2="1900.959961" y2="938.960022" stroke="red" stroke-width="6.660000" />
</svg>
