<?xml version="1.0" encoding="UTF-8" standalone="no"?>
<svg width="500" height="500" viewBox="0 0 2074.000000 2074.000000" xmlns="http://www.w3.org/2000/svg">
<rect x="19.000000" y="19.000000" width="2036.000000" height="2036.000000" fill="black" />
<circle cx="647.960022" cy="272.959991" r="19.980000" fill="red">
  <title>Tokyo</title>
</circle><line x1="275.959991" y1="923.960022" x2="647.960022" y2="272.959991" stroke="red" stroke-width="6.660000" />
<circle cx="1143.959961" cy="1215.959961" r="19.980000" fill="red">
  <title>São Paulo</title>
</circle><line x1="647.960022" y1="272.959991" x2="1143.959961" y2="1215.959961" stroke="red" stroke-width="6.660000" />
<circle cx="1328.959961" cy="1420.959961" r="19.980000" fill="red">
  <title>Shanghai</title>
</circle><line x1="1143.959961" y1="1215.959961" x2="1328.959961" y2="1420.959961" stroke="red" stroke-width="6.660000" />
<circle cx="1579.959961" cy="1593.959961" r="19.980000" fill="red">
  <title>Dhaka</title>
</circle><line x1="1328.959961" y1="1420.959961" x2="1579.959961" y2="1593.959961" stroke="red" stroke-width="6.660000" />
<circle cx="1176.959961" cy="1740.959961" r="19.980000" fill="red">
  <title>Mexico City</title>
</circle><line x1="1579.959961" y1="1593.959961" x2="1176.959961" y2="1740.959961" stroke="red" stroke-width="6.660000" />
<circle cx="1045.959961" cy="1744.959961" r="19.980000" fill="red">
  <title>Delhi</title>
</circle><line x1="1176.959961" y1="1740.959961" x2="1045.959961" y2="1744.959961" stroke="red" stroke-width="6.660000" />
<circle cx="756.960022" cy="1452.959961" r="19.980000" fill="red">
  <title>Osaka</title>
</circle><line x1="1045.959961" y1="1744.959961" x2="756.960022" y2="1452.959961" stroke="red" stroke-width="6.660000" />
<circle cx="242.959991" cy="1364.959961" r="19.980000" fill="red">
  <title>Cairo</title>
</circle><line x1="756.960022" y1="1452.959961" x2="242.959991" y2="1364.959961" stroke="red" stroke-width="6.660000" />
<circle cx="159.959991" cy="1401.959961" r="19.980000" fill="red">
  <title>Mumbai</title>
</circle><line x1="242.959991" y1="1364.959961" x2="159.959991" y2="1401.959961" stroke="red" stroke-width="6.660000" />
<circle cx="275.959991" cy="923.960022" r="19.980000" fill="red">
  <title>Beijing</title>
</circle><line x1="159.959991" y1="1401.959961" x2="275.959991" y2="923.960022" stroke="red" stroke-width="6.660000" />
</svg>
