<?xml version="1.0" encoding="UTF-8" standalone="no"?>
<svg width="500" height="500" viewBox="0 0 2074.000000 2074.000000" xmlns="http://www.w3.org/2000/svg">
<rect x="19.000000" y="19.000000" width="2036.000000" height="2036.000000" fill="black" />
<circle cx="387.959991" cy="1562.959961" r="19.980000" fill="red">
  <title>Tokyo</title>
</circle><line x1="486.959991" y1="1903.959961" x2="387.959991" y2="1562.959961" stroke="red" stroke-width="6.660000" />
<circle cx="158.959991" cy="1019.960022" r="19.980000" fill="red">
  <title>Shanghai</title>
</circle><line x1="387.959991" y1="1562.959961" x2="158.959991" y2="1019.960022" stroke="red" stroke-width="6.660000" />
<circle cx="336.959991" cy="632.960022" r="19.980000" fill="red">
  <title>Mexico City</title>
</circle><line x1="158.959991" y1="1019.960022" x2="336.959991" y2="632.960022" stroke="red" stroke-width="6.660000" />
<circle cx="728.960022" cy="456.959991" r="19.980000" fill="red">
  <title>Beijing</title>
</circle><line x1="336.959991" y1="632.960022" x2="728.960022" y2="456.959991" stroke="red" stroke-width="6.660000" />
<circle cx="1049.959961" cy="746.960022" r="19.980000" fill="red">
  <title>Cairo</title>
</circle><line x1="728.960022" y1="456.959991" x2="1049.959961" y2="746.960022" stroke="red" stroke-width="6.660000" />
<circle cx="1252.959961" cy="533.960022" r="19.980000" fill="red">
  <title>Delhi</title>
</circle><line x1="1049.959961" y1="746.960022" x2="1252.959961" y2="533.960022" stroke="red" stroke-width="6.660000" />
<circle cx="1755.959961" cy="988.960022" r="19.980000" fill="red">
  <title>São Paulo</title>
</circle><line x1="1252.959961" y1="533.960022" x2="1755.959961" y2="988.960022" stroke="red" stroke-width="6.660000" />
<circle cx="1975.959961" cy="1287.959961" r="19.980000" fill="red">
  <title>Dhaka</title>
</circle><line x1="1755.959961" y1="988.960022" x2="1975.959961" y2="1287.959961" stroke="red" stroke-width="6.660000" />
<circle cx="1019.960022" cy="1135.959961" r="19.980000" fill="red">
  <title>Osaka</title>
</circle><line x1="1975.959961" y1="1287.959961" x2="1019.960022" y2="1135.959961" stroke="red" stroke-width="6.660000" />
<circle cx="668.960022" cy="1015.960022" r="19.980000" fill="red">
  <title>New York</title>
</circle><line x1="1019.960022" y1="1135.959961" x2="668.960022" y2="1015.960022" stroke="red" stroke-width="6.660000" />
<circle cx="486.959991" cy="1903.959961" r="19.980000" fill="red">
  <title>Mumbai</title>
</circle><line x1="668.960022" y1="1015.960022" x2="486.959991" y2="1903.959961" stroke="red" stroke-width="6.660000" />
</svg>
