<?xml version="1.0" encoding="UTF-8" standalone="no"?>
<svg width="500" height="500" viewBox="0 0 2074.000000 2074.000000" xmlns="http://www.w3.org/2000/svg">
<rect x="19.000000" y="19.000000" width="2036.000000" height="2036.000000" fill="black" />
<circle cx="1439.959961" cy="1931.959961" r="19.980000" fill="red">
  <title>Tokyo</title>
</circle><line x1="1350.959961" y1="1637.959961" x2="1439.959961" y2="1931.959961" stroke="red" stroke-width="6.660000" />
<circle cx="206.959991" cy="1461.959961" r="19.980000" fill="red">
  <title>Delhi</title>
</circle><line x1="1439.959961" y1="1931.959961" x2="206.959991" y2="1461.959961" stroke="red" stroke-width="6.660000" />
<circle cx="507.959991" cy="902.960022" r="19.980000" fill="red">
  <title>Mexico City</title>
</circle><line x1="206.959991" y1="1461.959961" x2="507.959991" y2="902.960022" stroke="red" stroke-width="6.660000" />
<circle cx="821.960022" cy="1085.959961" r="19.980000" fill="red">
  <title>Shanghai</title>
</circle><line x1="507.959991" y1="902.960022" x2="821.960022" y2="1085.959961" stroke="red" stroke-width="6.660000" />
<circle cx="1350.959961" cy="1637.959961" r="19.980000" fill="red">
  <title>São Paulo</title>
</circle><line x1="821.960022" y1="1085.959961" x2="1350.959961" y2="1637.959961" stroke="red" stroke-width="6.660000" />
</svg>
