<?xml version="1.0" encoding="UTF-8" standalone="no"?>
<svg width="500" height="500" viewBox="0 0 2074.000000 2074.000000" xmlns="http://www.w3.org/2000/svg">
<rect x="19.000000" y="19.000000" width="2036.000000" height="2036.000000" fill="black" />
<circle cx="212.959991" cy="1542.959961" r="19.980000" fill="red">
  <title>Tokyo</title>
</circle><line x1="987.960022" y1="1217.959961" x2="212.959991" y2="1542.959961" stroke="red" stroke-width="6.660000" />
<circle cx="201.959991" cy="1956.959961" r="19.980000" fill="red">
  <title>Cairo</title>
</circle><line x1="212.959991" y1="1542.959961" x2="201.959991" y2="1956.959961" stroke="red" stroke-width="6.660000" />
<circle cx="544.960022" cy="1763.959961" r="19.980000" fill="red">
  <title>Buenos Aires</title>
</circle><line x1="201.959991" y1="1956.959961" x2="544.960022" y2="1763.959961" stroke="red" stroke-width="6.660000" />
<circle cx="1508.959961" cy="1916.959961" r="19.980000" fill="red">
  <title>Dhaka</title>
</circle><line x1="544.960022" y1="1763.959961" x2="1508.959961" y2="1916.959961" stroke="red" stroke-width="6.660000" />
<circle cx="1784.959961" cy="2004.959961" r="19.980000" fill="red">
  <title>Osaka</title>
</circle><line x1="1508.959961" y1="1916.959961" x2="1784.959961" y2="2004.959961" stroke="red" stroke-width="6.660000" />
<circle cx="1776.959961" cy="1929.959961" r="19.980000" fill="red">
  <title>New York</title>
</circle><line x1="1784.959961" y1="2004.959961" x2="1776.959961" y2="1929.959961" stroke="red" stroke-width="6.660000" />
<circle cx="1818.959961" cy="1747.959961" r="19.980000" fill="red">
  <title>Mexico City</title>
</circle><line x1="1776.959961" y1="1929.959961" x2="1818.959961" y2="1747.959961" stroke="red" stroke-width="6.660000" />
<circle cx="1600.959961" cy="1538.959961" r="19.980000" fill="red">
  <title>São Paulo</title>
</circle><line x1="1818.959961" y1="1747.959961" x2="1600.959961" y2="1538.959961" stroke="red" stroke-width="6.660000" />
<circle cx="1396.959961" cy="1387.959961" r="19.980000" fill="red">
  <title>Beijing</title>
</circle><line x1="1600.959961" y1="1538.959961" x2="1396.959961" y2="1387.959961" stroke="red" stroke-width="6.660000" />
<circle cx="1508.959961" cy="1299.959961" r="19.980000" fill="red">
  <title>Delhi</title>
</circle><line x1="1396.959961" y1="1387.959961" x2="1508.959961" y2="1299.959961" stroke="red" stroke-width="6.660000" />
<circle cx="1581.959961" cy="561.960022" r="19.980000" fill="red">
  <title>Shanghai</title>
</circle><line x1="1508.959961" y1="1299.959961" x2="1581.959961" y2="561.960022" stroke="red" stroke-width="6.660000" />
<circle cx="1268.959961" cy="241.959991" r="19.980000" fill="red">
  <title>Karachi</title>
</circle><line x1="1581.959961" y1="561.960022" x2="1268.959961" y2="241.959991" stroke="red" stroke-width="6.660000" />
<circle cx="987.960022" cy="1217.959961" r="19.980000" fill="red">
  <title>Mumbai</title>
</circle><line x1="1268.959961" y1="241.959991" x2="987.960022" y2="1217.959961" stroke="red" stroke-width="6.660000" />
</svg>
