<?xml version="1.0" encoding="UTF-8" standalone="no"?>
<svg width="500" height="500" viewBox="0 0 2074.000000 2074.000000" xmlns="http://www.w3.org/2000/svg">
<rect x="19.000000" y="19.000000" width="2036.000000" height="2036.000000" fill="black" />
<circle cx="799.960022" cy="1094.959961" r="19.980000" fill="red">
  <title>Tokyo</title>
</circle><line x1="236.959991" y1="417.959991" x2="799.960022" y2="1094.959961" stroke="red" stroke-width="6.660000" />
<circle cx="849.960022" cy="1645.959961" r="19.980000" fill="red">
  <title>Mumbai</title>
</circle><line x1="799.960022" y1="1094.959961" x2="849.960022" y2="1645.959961" stroke="red" stroke-width="6.660000" />
<circle cx="345.959991" cy="1889.959961" r="19.980000" fill="red">
  <title>Delhi</title>
</circle><line x1="849.960022" y1="1645.959961" x2="345.959991" y2="1889.959961" stroke="red" stroke-width="6.660000" />
<circle cx="923.960022" cy="1685.959961" r="19.980000" fill="red">
  <title>Beijing</title>
</circle><line x1="345.959991" y1="1889.959961" x2="923.960022" y2="1685.959961" stroke="red" stroke-width="6.660000" />
<circle cx="1347.959961" cy="1591.959961" r="19.980000" fill="red">
  <title>São Paulo</title>
</circle><line x1="923.960022" y1="1685.959961" x2="1347.959961" y2="1591.959961" stroke="red" stroke-width="6.660000" />
<circle cx="1773.959961" cy="2029.959961" r="19.980000" fill="red">
  <title>Cairo</title>
</circle><line x1="1347.959961" y1="1591.959961" x2="1773.959961" y2="2029.959961" stroke="red" stroke-width="6.660000" />
<circle cx="1734.959961" cy="1537.959961" r="19.980000" fill="red">
  <title>Shanghai</title>
</circle><line x1="1773.959961" y1="2029.959961" x2="1734.959961" y2="1537.959961" stroke="red" stroke-width="6.660000" />
<circle cx="1299.959961" cy="481.959991" r="19.980000" fill="red">
  <title>Osaka</title>
</circle><line x1="1734.959961" y1="1537.959961" x2="1299.959961" y2="481.959991" stroke="red" stroke-width="6.660000" />
<circle cx="187.959991" cy="41.959999" r="19.980000" fill="red">
  <title>Mexico City</title>
</circle><line x1="1299.959961" y1="481.959991" x2="187.959991" y2="41.959999" stroke="red" stroke-width="6.660000" />
<circle cx="236.959991" cy="417.959991" r="19.980000" fill="red">
  <title>Dhaka</title>
</circle><line x1="187.959991" y1="41.959999" x2="236.959991" y2="417.959991" stroke="red" stroke-width="6.660000" />
</svg>
