<?xml version="1.0" encoding="UTF-8" standalone="no"?>
<svg width="500" height="500" viewBox="0 0 2074.000000 2074.000000" xmlns="http://www.w3.org/2000/svg">
<rect x="19.000000" y="19.000000" width="2036.000000" height="2036.000000" fill="black" />
<circle cx="767.960022" cy="667.960022" r="19.980000" fill="red">
  <title>Tokyo</title>
</circle><line x1="741.960022" y1="805.960022" x2="767.960022" y2="667.960022" stroke="red" stroke-width="6.660000" />
<circle cx="362.959991" cy="191.959991" r="19.980000" fill="red">
  <title>Chongqing</title>
</circle><line x1="767.960022" y1="667.960022" x2="362.959991" y2="191.959991" stroke="red" stroke-width="6.660000" />
<circle cx="82.959999" cy="406.959991" r="19.980000" fill="red">
  <title>Cairo</title>
</circle><line x1="362.959991" y1="191.959991" x2="82.959999" y2="406.959991" stroke="red" stroke-width="6.660000" />
<circle cx="95.959999" cy="773.960022" r="19.980000" fill="red">
  <title>Istanbul</title>
</circle><line x1="82.959999" y1="406.959991" x2="95.959999" y2="773.960022" stroke="red" stroke-width="6.660000" />
<circle cx="113.959999" cy="824.960022" r="19.980000" fill="red">
  <title>Kolkata</title>
</circle><line x1="95.959999" y1="773.960022" x2="113.959999" y2="824.960022" stroke="red" stroke-width="6.660000" />
<circle cx="177.959991" cy="1933.959961" r="19.980000" fill="red">
  <title>São Paulo</title>
</circle><line x1="113.959999" y1="824.960022" x2="177.959991" y2="1933.959961" stroke="red" stroke-width="6.660000" />
<circle cx="1143.959961" cy="1454.959961" r="19.980000" fill="red">
  <title>Rio de Janeiro</title>
</circle><line x1="177.959991" y1="1933.959961" x2="1143.959961" y2="1454.959961" stroke="red" stroke-width="6.660000" />
<circle cx="1401.959961" cy="1506.959961" r="19.980000" fill="red">
  <title>Manila</title>
</circle><line x1="1143.959961" y1="1454.959961" x2="1401.959961" y2="1506.959961" stroke="red" stroke-width="6.660000" />
<circle cx="1481.959961" cy="1675.959961" r="19.980000" fill="red">
  <title>Shanghai</title>
</circle><line x1="1401.959961" y1="1506.959961" x2="1481.959961" y2="1675.959961" stroke="red" stroke-width="6.660000" />
<circle cx="1361.959961" cy="1947.959961" r="19.980000" fill="red">
  <title>Mumbai</title>
</circle><line x1="1481.959961" y1="1675.959961" x2="1361.959961" y2="1947.959961" stroke="red" stroke-width="6.660000" />
<circle cx="1540.959961" cy="1832.959961" r="19.980000" fill="red">
  <title>Karachi</title>
</circle><line x1="1361.959961" y1="1947.959961" x2="1540.959961" y2="1832.959961" stroke="red" stroke-width="6.660000" />
<circle cx="1776.959961" cy="1461.959961" r="19.980000" fill="red">
  <title>Buenos Aires</title>
</circle><line x1="1540.959961" y1="1832.959961" x2="1776.959961" y2="1461.959961" stroke="red" stroke-width="6.660000" />
<circle cx="1783.959961" cy="1078.959961" r="19.980000" fill="red">
  <title>Dhaka</title>
</circle><line x1="1776.959961" y1="1461.959961" x2="1783.959961" y2="1078.959961" stroke="red" stroke-width="6.660000" />
<circle cx="1700.959961" cy="932.960022" r="19.980000" fill="red">
  <title>Mexico City</title>
</circle><line x1="1783.959961" y1="1078.959961" x2="1700.959961" y2="932.960022" stroke="red" stroke-width="6.660000" />
<circle cx="1578.959961" cy="995.960022" r="19.980000" fill="red">
  <title>Beijing</title>
</circle><line x1="1700.959961" y1="932.960022" x2="1578.959961" y2="995.960022" stroke="red" stroke-width="6.660000" />
<circle cx="1316.959961" cy="845.960022" r="19.980000" fill="red">
  <title>Lagos</title>
</circle><line x1="1578.959961" y1="995.960022" x2="1316.959961" y2="845.960022" stroke="red" stroke-width="6.660000" />
<circle cx="1431.959961" cy="531.960022" r="19.980000" fill="red">
  <title>Delhi</title>
</circle><line x1="1316.959961" y1="845.960022" x2="1431.959961" y2="531.960022" stroke="red" stroke-width="6.660000" />
<circle cx="1723.959961" cy="259.959991" r="19.980000" fill="red">
  <title>Osaka</title>
</circle><line x1="1431.959961" y1="531.960022" x2="1723.959961" y2="259.959991" stroke="red" stroke-width="6.660000" />
<circle cx="1167.959961" cy="609.960022" r="19.980000" fill="red">
  <title>New York</title>
</circle><line x1="1723.959961" y1="259.959991" x2="1167.959961" y2="609.960022" stroke="red" stroke-width="6.660000" />
<circle cx="741.960022" cy="805.960022" r="19.980000" fill="red">
  <title>Tianjin</title>
</circle><line x1="1167.959961" y1="609.960022" x2="741.960022" y2="805.960022" stroke="red" stroke-width="6.660000" />
</svg>
