<?xml version="1.0" encoding="UTF-8" standalone="no"?>
<svg width="500" height="500" viewBox="0 0 2074.000000 2074.000000" xmlns="http://www.w3.org/2000/svg">
<rect x="19.000000" y="19.000000" width="2036.000000" height="2036.000000" fill="black" />
<circle cx="1528.959961" cy="562.960022" r="19.980000" fill="red">
  <title>Tokyo</title>
</circle><line x1="432.959991" y1="1748.959961" x2="1528.959961" y2="562.960022" stroke="red" stroke-width="6.660000" />
<circle cx="953.960022" cy="220.959991" r="19.980000" fill="red">
  <title>Shanghai</title>
</circle><line x1="1528.959961" y1="562.960022" x2="953.960022" y2="220.959991" stroke="red" stroke-width="6.660000" />
<circle cx="404.959991" cy="1670.959961" r="19.980000" fill="red">
  <title>Delhi</title>
</circle><line x1="953.960022" y1="220.959991" x2="404.959991" y2="1670.959961" stroke="red" stroke-width="6.660000" />
<circle cx="432.959991" cy="1748.959961" r="19.980000" fill="red">
  <title>São Paulo</title>
</circle><line x1="404.959991" y1="1670.959961" x2="432.959991" y2="1748.959961" stroke="red" stroke-width="6.660000" />
</svg>
