<?xml version="1.0" encoding="UTF-8" standalone="no"?>
<svg width="500" height="500" viewBox="0 0 2074.000000 2074.000000" xmlns="http://www.w3.org/2000/svg">
<rect x="19.000000" y="19.000000" width="2036.000000" height="2036.000000" fill="black" />
<circle cx="740.960022" cy="506.959991" r="19.980000" fill="red">
  <title>Tokyo</title>
</circle><line x1="557.960022" y1="977.960022" x2="740.960022" y2="506.959991" stroke="red" stroke-width="6.660000" />
<circle cx="1136.959961" cy="1234.959961" r="19.980000" fill="red">
  <title>Delhi</title>
</circle><line x1="740.960022" y1="506.959991" x2="1136.959961" y2="1234.959961" stroke="red" stroke-width="6.660000" />
<circle cx="2012.959961" cy="1426.959961" r="19.980000" fill="red">
  <title>Mexico City</title>
</circle><line x1="1136.959961" y1="1234.959961" x2="2012.959961" y2="1426.959961" stroke="red" stroke-width="6.660000" />
<circle cx="909.960022" cy="1247.959961" r="19.980000" fill="red">
  <title>São Paulo</title>
</circle><line x1="2012.959961" y1="1426.959961" x2="909.960022" y2="1247.959961" stroke="red" stroke-width="6.660000" />
<circle cx="81.959999" cy="2035.959961" r="19.980000" fill="red">
  <title>Cairo</title>
</circle><line x1="909.960022" y1="1247.959961" x2="81.959999" y2="2035.959961" stroke="red" stroke-width="6.660000" />
<circle cx="557.960022" cy="977.960022" r="19.980000" fill="red">
  <title>Shanghai</title>
</circle><line x1="81.959999" y1="2035.959961" x2="557.960022" y2="977.960022" stroke="red" stroke-width="6.660000" />
</svg>
