<?xml version="1.0" encoding="UTF-8" standalone="no"?>
<svg width="500" height="500" viewBox="0 0 2074.000000 2074.000000" xmlns="http://www.w3.org/2000/svg">
<rect x="19.000000" y="19.000000" width="2036.000000" height="2036.000000" fill="black" />
<circle cx="1321.959961" cy="1421.959961" r="19.980000" fill="red">
  <title>Tokyo</title>
</circle><line x1="1334.959961" y1="1543.959961" x2="1321.959961" y2="1421.959961" stroke="red" stroke-width="6.660000" />
<circle cx="1740.959961" cy="1412.959961" r="19.980000" fill="red">
  <title>Dhaka</title>
</circle><line x1="1321.959961" y1="1421.959961" x2="1740.959961" y2="1412.959961" stroke="red" stroke-width="6.660000" />
<circle cx="1966.959961" cy="1302.959961" r="19.980000" fill="red">
  <title>Kolkata</title>
</circle><line x1="1740.959961" y1="1412.959961" x2="1966.959961" y2="1302.959961" stroke="red" stroke-width="6.660000" />
<circle cx="1439.959961" cy="915.960022" r="19.980000" fill="red">
  <title>Mexico City</title>
</circle><line x1="1966.959961" y1="1302.959961" x2="1439.959961" y2="915.960022" stroke="red" stroke-width="6.660000" />
<circle cx="2019.959961" cy="607.960022" r="19.980000" fill="red">
  <title>Istanbul</title>
</circle><line x1="1439.959961" y1="915.960022" x2="2019.959961" y2="607.960022" stroke="red" stroke-width="6.660000" />
<circle cx="1971.959961" cy="223.959991" r="19.980000" fill="red">
  <title>Cairo</title>
</circle><line x1="2019.959961" y1="607.960022" x2="1971.959961" y2="223.959991" stroke="red" stroke-width="6.660000" />
<circle cx="1990.959961" cy="74.959999" r="19.980000" fill="red">
  <title>Manila</title>
</circle><line x1="1971.959961" y1="223.959991" x2="1990.959961" y2="74.959999" stroke="red" stroke-width="6.660000" />
<circle cx="1718.959961" cy="386.959991" r="19.980000" fill="red">
  <title>Chongqing</title>
</circle><line x1="1990.959961" y1="74.959999" x2="1718.959961" y2="386.959991" stroke="red" stroke-width="6.660000" />
<circle cx="1468.959961" cy="203.959991" r="19.980000" fill="red">
  <title>Beijing</title>
</circle><line x1="1718.959961" y1="386.959991" x2="1468.959961" y2="203.959991" stroke="red" stroke-width="6.660000" />
<circle cx="521.960022" cy="198.959991" r="19.980000" fill="red">
  <title>Mumbai</title>
</circle><line x1="1468.959961" y1="203.959991" x2="521.960022" y2="198.959991" stroke="red" stroke-width="6.660000" />
<circle cx="409.959991" cy="1588.959961" r="19.980000" fill="red">
  <title>São Paulo</title>
</circle><line x1="521.960022" y1="198.959991" x2="409.959991" y2="1588.959961" stroke="red" stroke-width="6.660000" />
<circle cx="131.959991" cy="1754.959961" r="19.980000" fill="red">
  <title>Buenos Aires</title>
</circle><line x1="409.959991" y1="1588.959961" x2="131.959991" y2="1754.959961" stroke="red" stroke-width="6.660000" />
<circle cx="145.959991" cy="1884.959961" r="19.980000" fill="red">
  <title>Delhi</title>
</circle><line x1="131.959991" y1="1754.959961" x2="145.959991" y2="1884.959961" stroke="red" stroke-width="6.660000" />
<circle cx="192.959991" cy="1887.959961" r="19.980000" fill="red">
  <title>Shanghai</title>
</circle><line x1="145.959991" y1="1884.959961" x2="192.959991" y2="1887.959961" stroke="red" stroke-width="6.660000" />
<circle cx="503.959991" cy="1847.959961" r="19.980000" fill="red">
  <title>New York</title>
</circle><line x1="192.959991" y1="1887.959961" x2="503.959991" y2="1847.959961" stroke="red" stroke-width="6.660000" />
<circle cx="1085.959961" cy="1838.959961" r="19.980000" fill="red">
  <title>Osaka</title>
</circle><line x1="503.959991" y1="1847.959961" x2="1085.959961" y2="1838.959961" stroke="red" stroke-width="6.660000" />
<circle cx="1334.959961" cy="1543.959961" r="19.980000" fill="red">
  <title>Karachi</title>
</circle><line x1="1085.959961" y1="1838.959961" x2="1334.959961" y2="1543.959961" stroke="red" stroke-width="6.660000" />
</svg>
