<?xml version="1.0" encoding="UTF-8" standalone="no"?>
<svg width="500" height="500" viewBox="0 0 2074.000000 2074.000000" xmlns="http://www.w3.org/2000/svg">
<rect x="19.000000" y="19.000000" width="2036.000000" height="2036.000000" fill="black" />
<circle cx="1210.959961" cy="66.959999" r="19.980000" fill="red">
  <title>Tokyo</title>
</circle><line x1="1147.959961" y1="168.959991" x2="1210.959961" y2="66.959999" stroke="red" stroke-width="6.660000" />
<circle cx="1345.959961" cy="149.959991" r="19.980000" fill="red">
  <title>Beijing</title>
</circle><line x1="1210.959961" y1="66.959999" x2="1345.959961" y2="149.959991" stroke="red" stroke-width="6.660000" />
<circle cx="1357.959961" cy="221.959991" r="19.980000" fill="red">
  <title>Shanghai</title>
</circle><line x1="1345.959961" y1="149.959991" x2="1357.959961" y2="221.959991" stroke="red" stroke-width="6.660000" />
<circle cx="1204.959961" cy="566.960022" r="19.980000" fill="red">
  <title>Karachi</title>
</circle><line x1="1357.959961" y1="221.959991" x2="1204.959961" y2="566.960022" stroke="red" stroke-width="6.660000" />
<circle cx="1494.959961" cy="444.959991" r="19.980000" fill="red">
  <title>New York</title>
</circle><line x1="1204.959961" y1="566.960022" x2="1494.959961" y2="444.959991" stroke="red" stroke-width="6.660000" />
<circle cx="2028.959961" cy="277.959991" r="19.980000" fill="red">
  <title>Delhi</title>
</circle><line x1="1494.959961" y1="444.959991" x2="2028.959961" y2="277.959991" stroke="red" stroke-width="6.660000" />
<circle cx="2023.959961" cy="1599.959961" r="19.980000" fill="red">
  <title>Chongqing</title>
</circle><line x1="2028.959961" y1="277.959991" x2="2023.959961" y2="1599.959961" stroke="red" stroke-width="6.660000" />
<circle cx="1264.959961" cy="1842.959961" r="19.980000" fill="red">
  <title>Buenos Aires</title>
</circle><line x1="2023.959961" y1="1599.959961" x2="1264.959961" y2="1842.959961" stroke="red" stroke-width="6.660000" />
<circle cx="1175.959961" cy="1994.959961" r="19.980000" fill="red">
  <title>Cairo</title>
</circle><line x1="1264.959961" y1="1842.959961" x2="1175.959961" y2="1994.959961" stroke="red" stroke-width="6.660000" />
<circle cx="996.960022" cy="1480.959961" r="19.980000" fill="red">
  <title>Istanbul</title>
</circle><line x1="1175.959961" y1="1994.959961" x2="996.960022" y2="1480.959961" stroke="red" stroke-width="6.660000" />
<circle cx="189.959991" cy="1549.959961" r="19.980000" fill="red">
  <title>São Paulo</title>
</circle><line x1="996.960022" y1="1480.959961" x2="189.959991" y2="1549.959961" stroke="red" stroke-width="6.660000" />
<circle cx="385.959991" cy="807.960022" r="19.980000" fill="red">
  <title>Osaka</title>
</circle><line x1="189.959991" y1="1549.959961" x2="385.959991" y2="807.960022" stroke="red" stroke-width="6.660000" />
<circle cx="474.959991" cy="329.959991" r="19.980000" fill="red">
  <title>Mumbai</title>
</circle><line x1="385.959991" y1="807.960022" x2="474.959991" y2="329.959991" stroke="red" stroke-width="6.660000" />
<circle cx="398.959991" cy="87.959999" r="19.980000" fill="red">
  <title>Dhaka</title>
</circle><line x1="474.959991" y1="329.959991" x2="398.959991" y2="87.959999" stroke="red" stroke-width="6.660000" />
<circle cx="594.960022" cy="294.959991" r="19.980000" fill="red">
  <title>Mexico City</title>
</circle><line x1="398.959991" y1="87.959999" x2="594.960022" y2="294.959991" stroke="red" stroke-width="6.660000" />
<circle cx="1147.959961" cy="168.959991" r="19.980000" fill="red">
  <title>Kolkata</title>
</circle><line x1="594.960022" y1="294.959991" x2="1147.959961" y2="168.959991" stroke="red" stroke-width="6.660000" />
</svg>
