<?xml version="1.0" encoding="UTF-8" standalone="no"?>
<svg width="500" height="500" viewBox="0 0 2074.000000 2074.000000" xmlns="http://www.w3.org/2000/svg">
<rect x="19.000000" y="19.000000" width="2036.000000" height="2036.000000" fill="black" />
<circle cx="516.960022" cy="1340.959961" r="19.980000" fill="red">
  <title>Tokyo</title>
</circle><line x1="923.960022" y1="471.959991" x2="516.960022" y2="1340.959961" stroke="red" stroke-width="6.660000" />
<circle cx="40.959999" cy="1279.959961" r="19.980000" fill="red">
  <title>Delhi</title>
</circle><line x1="516.960022" y1="1340.959961" x2="40.959999" y2="1279.959961" stroke="red" stroke-width="6.660000" />
<circle cx="336.959991" cy="1969.959961" r="19.980000" fill="red">
  <title>São Paulo</title>
</circle><line x1="40.959999" y1="1279.959961" x2="336.959991" y2="1969.959961" stroke="red" stroke-width="6.660000" />
<circle cx="514.960022" cy="1663.959961" r="19.980000" fill="red">
  <title>Dhaka</title>
</circle><line x1="336.959991" y1="1969.959961" x2="514.960022" y2="1663.959961" stroke="red" stroke-width="6.660000" />
<circle cx="1068.959961" cy="1588.959961" r="19.980000" fill="red">
  <title>New York</title>
</circle><line x1="514.960022" y1="1663.959961" x2="1068.959961" y2="1588.959961" stroke="red" stroke-width="6.660000" />
<circle cx="2002.959961" cy="1435.959961" r="19.980000" fill="red">
  <title>Shanghai</title>
</circle><line x1="1068.959961" y1="1588.959961" x2="2002.959961" y2="1435.959961" stroke="red" stroke-width="6.660000" />
<circle cx="1361.959961" cy="747.960022" r="19.980000" fill="red">
  <title>Mumbai</title>
</circle><line x1="2002.959961" y1="1435.959961" x2="1361.959961" y2="747.960022" stroke="red" stroke-width="6.660000" />
<circle cx="1697.959961" cy="364.959991" r="19.980000" fill="red">
  <title>Cairo</title>
</circle><line x1="1361.959961" y1="747.960022" x2="1697.959961" y2="364.959991" stroke="red" stroke-width="6.660000" />
<circle cx="1060.959961" cy="123.959999" r="19.980000" fill="red">
  <title>Beijing</title>
</circle><line x1="1697.959961" y1="364.959991" x2="1060.959961" y2="123.959999" stroke="red" stroke-width="6.660000" />
<circle cx="652.960022" cy="283.959991" r="19.980000" fill="red">
  <title>Osaka</title>
</circle><line x1="1060.959961" y1="123.959999" x2="652.960022" y2="283.959991" stroke="red" stroke-width="6.660000" />
<circle cx="923.960022" cy="471.959991" r="19.980000" fill="red">
  <title>Mexico City</title>
</circle><line x1="652.960022" y1="283.959991" x2="923.960022" y2="471.959991" stroke="red" stroke-width="6.660000" />
</svg>
