<?xml version="1.0" encoding="UTF-8" standalone="no"?>
<svg width="500" height="500" viewBox="0 0 2074.000000 2074.000000" xmlns="http://www.w3.org/2000/svg">
<rect x="19.000000" y="19.000000" width="2036.000000" height="2036.000000" fill="black" />
<circle cx="2002.959961" cy="1265.959961" r="19.980000" fill="red">
  <title>Tokyo</title>
</circle><line x1="984.960022" y1="562.960022" x2="2002.959961" y2="1265.959961" stroke="red" stroke-width="6.660000" />
<circle cx="1368.959961" cy="565.960022" r="19.980000" fill="red">
  <title>Delhi</title>
</circle><line x1="2002.959961" y1="1265.959961" x2="1368.959961" y2="565.960022" stroke="red" stroke-width="6.660000" />
<circle cx="984.960022" cy="562.960022" r="19.980000" fill="red">
  <title>Shanghai</title>
</circle><line x1="1368.959961" y1="565.960022" x2="984.960022" y2="562.960022" stroke="red" stroke-width="6.660000" />
</svg>
