<?xml version="1.0" encoding="UTF-8" standalone="no"?>
<svg width="500" height="500" viewBox="0 0 2074.000000 2074.000000" xmlns="http://www.w3.org/2000/svg">
<rect x="19.000000" y="19.000000" width="2036.000000" height="2036.000000" fill="black" />
<circle cx="1774.959961" cy="1746.959961" r="19.980000" fill="red">
  <title>Tokyo</title>
</circle><line x1="1769.959961" y1="1808.959961" x2="1774.959961" y2="1746.959961" stroke="red" stroke-width="6.660000" />
<circle cx="1687.959961" cy="1429.959961" r="19.980000" fill="red">
  <title>Delhi</title>
</circle><line x1="1774.959961" y1="1746.959961" x2="1687.959961" y2="1429.959961" stroke="red" stroke-width="6.660000" />
<circle cx="1509.959961" cy="754.960022" r="19.980000" fill="red">
  <title>Mexico City</title>
</circle><line x1="1687.959961" y1="1429.959961" x2="1509.959961" y2="754.960022" stroke="red" stroke-width="6.660000" />
<circle cx="1846.959961" cy="497.959991" r="19.980000" fill="red">
  <title>Istanbul</title>
</circle><line x1="1509.959961" y1="754.960022" x2="1846.959961" y2="497.959991" stroke="red" stroke-width="6.660000" />
<circle cx="1969.959961" cy="339.959991" r="19.980000" fill="red">
  <title>Mumbai</title>
</circle><line x1="1846.959961" y1="497.959991" x2="1969.959961" y2="339.959991" stroke="red" stroke-width="6.660000" />
<circle cx="1468.959961" cy="456.959991" r="19.980000" fill="red">
  <title>Osaka</title>
</circle><line x1="1969.959961" y1="339.959991" x2="1468.959961" y2="456.959991" stroke="red" stroke-width="6.660000" />
<circle cx="1156.959961" cy="580.960022" r="19.980000" fill="red">
  <title>New York</title>
</circle><line x1="1468.959961" y1="456.959991" x2="1156.959961" y2="580.960022" stroke="red" stroke-width="6.660000" />
<circle cx="974.960022" cy="636.960022" r="19.980000" fill="red">
  <title>Lagos</title>
</circle><line x1="1156.959961" y1="580.960022" x2="974.960022" y2="636.960022" stroke="red" stroke-width="6.660000" />
<circle cx="689.960022" cy="341.959991" r="19.980000" fill="red">
  <title>Cairo</title>
</circle><line x1="974.960022" y1="636.960022" x2="689.960022" y2="341.959991" stroke="red" stroke-width="6.660000" />
<circle cx="470.959991" cy="153.959991" r="19.980000" fill="red">
  <title>Shanghai</title>
</circle><line x1="689.960022" y1="341.959991" x2="470.959991" y2="153.959991" stroke="red" stroke-width="6.660000" />
<circle cx="242.959991" cy="155.959991" r="19.980000" fill="red">
  <title>Beijing</title>
</circle><line x1="470.959991" y1="153.959991" x2="242.959991" y2="155.959991" stroke="red" stroke-width="6.660000" />
<circle cx="205.959991" cy="420.959991" r="19.980000" fill="red">
  <title>Manila</title>
</circle><line x1="242.959991" y1="155.959991" x2="205.959991" y2="420.959991" stroke="red" stroke-width="6.660000" />
<circle cx="182.959991" cy="1022.960022" r="19.980000" fill="red">
  <title>Dhaka</title>
</circle><line x1="205.959991" y1="420.959991" x2="182.959991" y2="1022.960022" stroke="red" stroke-width="6.660000" />
<circle cx="503.959991" cy="924.960022" r="19.980000" fill="red">
  <title>Chongqing</title>
</circle><line x1="182.959991" y1="1022.960022" x2="503.959991" y2="924.960022" stroke="red" stroke-width="6.660000" />
<circle cx="535.960022" cy="1170.959961" r="19.980000" fill="red">
  <title>Rio de Janeiro</title>
</circle><line x1="503.959991" y1="924.960022" x2="535.960022" y2="1170.959961" stroke="red" stroke-width="6.660000" />
<circle cx="234.959991" cy="1555.959961" r="19.980000" fill="red">
  <title>São Paulo</title>
</circle><line x1="535.960022" y1="1170.959961" x2="234.959991" y2="1555.959961" stroke="red" stroke-width="6.660000" />
<circle cx="771.960022" cy="1583.959961" r="19.980000" fill="red">
  <title>Kolkata</title>
</circle><line x1="234.959991" y1="1555.959961" x2="771.960022" y2="1583.959961" stroke="red" stroke-width="6.660000" />
<circle cx="956.960022" cy="1695.959961" r="19.980000" fill="red">
  <title>Karachi</title>
</circle><line x1="771.960022" y1="1583.959961" x2="956.960022" y2="1695.959961" stroke="red" stroke-width="6.660000" />
<circle cx="1769.959961" cy="1808.959961" r="19.980000" fill="red">
  <title>Buenos Aires</title>
</circle><line x1="956.960022" y1="1695.959961" x2="1769.959961" y2="1808.959961" stroke="red" stroke-width="6.660000" />
</svg>
