<?xml version="1.0" encoding="UTF-8" standalone="no"?>
<svg width="500" height="500" viewBox="0 0 2074.000000 2074.000000" xmlns="http://www.w3.org/2000/svg">
<rect x="19.000000" y="19.000000" width="2036.000000" height="2036.000000" fill="black" />
<circle cx="1980.959961" cy="1551.959961" r="19.980000" fill="red">
  <title>Tokyo</title>
</circle><line x1="71.959999" y1="167.959991" x2="1980.959961" y2="1551.959961" stroke="red" stroke-width="6.660000" />
<circle cx="1323.959961" cy="1859.959961" r="19.980000" fill="red">
  <title>Delhi</title>
</circle><line x1="1980.959961" y1="1551.959961" x2="1323.959961" y2="1859.959961" stroke="red" stroke-width="6.660000" />
<circle cx="402.959991" cy="2018.959961" r="19.980000" fill="red">
  <title>Mexico City</title>
</circle><line x1="1323.959961" y1="1859.959961" x2="402.959991" y2="2018.959961" stroke="red" stroke-width="6.660000" />
<circle cx="114.959999" cy="502.959991" r="19.980000" fill="red">
  <title>Shanghai</title>
</circle><line x1="402.959991" y1="2018.959961" x2="114.959999" y2="502.959991" stroke="red" stroke-width="6.660000" />
<circle cx="71.959999" cy="167.959991" r="19.980000" fill="red">
  <title>São Paulo</title>
</circle><line x1="114.959999" y1="502.959991" x2="71.959999" y2="167.959991" stroke="red" stroke-width="6.660000" />
</svg>
