<?xml version="1.0" encoding="UTF-8" standalone="no"?>
<svg width="500" height="500" viewBox="0 0 2074.000000 2074.000000" xmlns="http://www.w3.org/2000/svg">
<rect x="19.000000" y="19.000000" width="2036.000000" height="2036.000000" fill="black" />
<circle cx="395.959991" cy="1272.959961" r="19.980000" fill="red">
  <title>Tokyo</title>
</circle><line x1="473.959991" y1="1099.959961" x2="395.959991" y2="1272.959961" stroke="red" stroke-width="6.660000" />
<circle cx="362.959991" cy="1487.959961" r="19.980000" fill="red">
  <title>Shanghai</title>
</circle><line x1="395.959991" y1="1272.959961" x2="362.959991" y2="1487.959961" stroke="red" stroke-width="6.660000" />
<circle cx="373.959991" cy="1574.959961" r="19.980000" fill="red">
  <title>Manila</title>
</circle><line x1="362.959991" y1="1487.959961" x2="373.959991" y2="1574.959961" stroke="red" stroke-width="6.660000" />
<circle cx="777.960022" cy="1920.959961" r="19.980000" fill="red">
  <title>Cairo</title>
</circle><line x1="373.959991" y1="1574.959961" x2="777.960022" y2="1920.959961" stroke="red" stroke-width="6.660000" />
<circle cx="925.960022" cy="1792.959961" r="19.980000" fill="red">
  <title>Kolkata</title>
</circle><line x1="777.960022" y1="1920.959961" x2="925.960022" y2="1792.959961" stroke="red" stroke-width="6.660000" />
<circle cx="1024.959961" cy="1323.959961" r="19.980000" fill="red">
  <title>Rio de Janeiro</title>
</circle><line x1="925.960022" y1="1792.959961" x2="1024.959961" y2="1323.959961" stroke="red" stroke-width="6.660000" />
<circle cx="1435.959961" cy="1139.959961" r="19.980000" fill="red">
  <title>Istanbul</title>
</circle><line x1="1024.959961" y1="1323.959961" x2="1435.959961" y2="1139.959961" stroke="red" stroke-width="6.660000" />
<circle cx="1551.959961" cy="1127.959961" r="19.980000" fill="red">
  <title>Tianjin</title>
</circle><line x1="1435.959961" y1="1139.959961" x2="1551.959961" y2="1127.959961" stroke="red" stroke-width="6.660000" />
<circle cx="1231.959961" cy="655.960022" r="19.980000" fill="red">
  <title>Karachi</title>
</circle><line x1="1551.959961" y1="1127.959961" x2="1231.959961" y2="655.960022" stroke="red" stroke-width="6.660000" />
<circle cx="1958.959961" cy="206.959991" r="19.980000" fill="red">
  <title>New York</title>
</circle><line x1="1231.959961" y1="655.960022" x2="1958.959961" y2="206.959991" stroke="red" stroke-width="6.660000" />
<circle cx="1551.959961" cy="184.959991" r="19.980000" fill="red">
  <title>Osaka</title>
</circle><line x1="1958.959961" y1="206.959991" x2="1551.959961" y2="184.959991" stroke="red" stroke-width="6.660000" />
<circle cx="1108.959961" cy="89.959999" r="19.980000" fill="red">
  <title>Mumbai</title>
</circle><line x1="1551.959961" y1="184.959991" x2="1108.959961" y2="89.959999" stroke="red" stroke-width="6.660000" />
<circle cx="607.960022" cy="292.959991" r="19.980000" fill="red">
  <title>Buenos Aires</title>
</circle><line x1="1108.959961" y1="89.959999" x2="607.960022" y2="292.959991" stroke="red" stroke-width="6.660000" />
<circle cx="631.960022" cy="459.959991" r="19.980000" fill="red">
  <title>Dhaka</title>
</circle><line x1="607.960022" y1="292.959991" x2="631.960022" y2="459.959991" stroke="red" stroke-width="6.660000" />
<circle cx="742.960022" cy="697.960022" r="19.980000" fill="red">
  <title>Lagos</title>
</circle><line x1="631.960022" y1="459.959991" x2="742.960022" y2="697.960022" stroke="red" stroke-width="6.660000" />
<circle cx="688.960022" cy="988.960022" r="19.980000" fill="red">
  <title>Delhi</title>
</circle><line x1="742.960022" y1="697.960022" x2="688.960022" y2="988.960022" stroke="red" stroke-width="6.660000" />
<circle cx="620.960022" cy="892.960022" r="19.980000" fill="red">
  <title>São Paulo</title>
</circle><line x1="688.960022" y1="988.960022" x2="620.960022" y2="892.960022" stroke="red" stroke-width="6.660000" />
<circle cx="142.959991" cy="574.960022" r="19.980000" fill="red">
  <title>Mexico City</title>
</circle><line x1="620.960022" y1="892.960022" x2="142.959991" y2="574.960022" stroke="red" stroke-width="6.660000" />
<circle cx="197.959991" cy="1010.960022" r="19.980000" fill="red">
  <title>Chongqing</title>
</circle><line x1="142.959991" y1="574.960022" x2="197.959991" y2="1010.960022" stroke="red" stroke-width="6.660000" />
<circle cx="473.959991" cy="1099.959961" r="19.980000" fill="red">
  <title>Beijing</title>
</circle><line x1="197.959991" y1="1010.960022" x2="473.959991" y2="1099.959961" stroke="red" stroke-width="6.660000" />
</svg>
