<?xml version="1.0" encoding="UTF-8" standalone="no"?>
<svg width="500" height="500" viewBox="0 0 2074.000000 2074.000000" xmlns="http://www.w3.org/2000/svg">
<rect x="19.000000" y="19.000000" width="2036.000000" height="2036.000000" fill="black" />
<circle cx="1222.959961" cy="1147.959961" r="19.980000" fill="red">
  <title>Tokyo</title>
</circle><line x1="1681.959961" y1="1713.959961" x2="1222.959961" y2="1147.959961" stroke="red" stroke-width="6.660000" />
<circle cx="1492.959961" cy="948.960022" r="19.980000" fill="red">
  <title>Mumbai</title>
</circle><line x1="1222.959961" y1="1147.959961" x2="1492.959961" y2="948.960022" stroke="red" stroke-width="6.660000" />
<circle cx="1620.959961" cy="996.960022" r="19.980000" fill="red">
  <title>Shanghai</title>
</circle><line x1="1492.959961" y1="948.960022" x2="1620.959961" y2="996.960022" stroke="red" stroke-width="6.660000" />
<circle cx="2036.959961" cy="365.959991" r="19.980000" fill="red">
  <title>Osaka</title>
</circle><line x1="1620.959961" y1="996.960022" x2="2036.959961" y2="365.959991" stroke="red" stroke-width="6.660000" />
<circle cx="1524.959961" cy="544.960022" r="19.980000" fill="red">
  <title>Beijing</title>
</circle><line x1="2036.959961" y1="365.959991" x2="1524.959961" y2="544.960022" stroke="red" stroke-width="6.660000" />
<circle cx="236.959991" cy="374.959991" r="19.980000" fill="red">
  <title>Delhi</title>
</circle><line x1="1524.959961" y1="544.960022" x2="236.959991" y2="374.959991" stroke="red" stroke-width="6.660000" />
<circle cx="375.959991" cy="1920.959961" r="19.980000" fill="red">
  <title>New York</title>
</circle><line x1="236.959991" y1="374.959991" x2="375.959991" y2="1920.959961" stroke="red" stroke-width="6.660000" />
<circle cx="1005.960022" cy="1724.959961" r="19.980000" fill="red">
  <title>Cairo</title>
</circle><line x1="375.959991" y1="1920.959961" x2="1005.960022" y2="1724.959961" stroke="red" stroke-width="6.660000" />
<circle cx="1601.959961" cy="1974.959961" r="19.980000" fill="red">
  <title>Mexico City</title>
</circle><line x1="1005.960022" y1="1724.959961" x2="1601.959961" y2="1974.959961" stroke="red" stroke-width="6.660000" />
<circle cx="1981.959961" cy="1864.959961" r="19.980000" fill="red">
  <title>São Paulo</title>
</circle><line x1="1601.959961" y1="1974.959961" x2="1981.959961" y2="1864.959961" stroke="red" stroke-width="6.660000" />
<circle cx="1681.959961" cy="1713.959961" r="19.980000" fill="red">
  <title>Dhaka</title>
</circle><line x1="1981.959961" y1="1864.959961" x2="1681.959961" y2="1713.959961" stroke="red" stroke-width="6.660000" />
</svg>
