<?xml version="1.0" encoding="UTF-8" standalone="no"?>
<svg width="500" height="500" viewBox="0 0 2074.000000 2074.000000" xmlns="http://www.w3.org/2000/svg">
<rect x="19.000000" y="19.000000" width="2036.000000" height="2036.000000" fill="black" />
<circle cx="725.960022" cy="1297.959961" r="19.980000" fill="red">
  <title>Tokyo</title>
</circle><line x1="896.960022" y1="1237.959961" x2="725.960022" y2="1297.959961" stroke="red" stroke-width="6.660000" />
<circle cx="362.959991" cy="514.960022" r="19.980000" fill="red">
  <title>São Paulo</title>
</circle><line x1="725.960022" y1="1297.959961" x2="362.959991" y2="514.960022" stroke="red" stroke-width="6.660000" />
<circle cx="269.959991" cy="672.960022" r="19.980000" fill="red">
  <title>Mexico City</title>
</circle><line x1="362.959991" y1="514.960022" x2="269.959991" y2="672.960022" stroke="red" stroke-width="6.660000" />
<circle cx="151.959991" cy="1509.959961" r="19.980000" fill="red">
  <title>Shanghai</title>
</circle><line x1="269.959991" y1="672.960022" x2="151.959991" y2="1509.959961" stroke="red" stroke-width="6.660000" />
<circle cx="855.960022" cy="1581.959961" r="19.980000" fill="red">
  <title>Cairo</title>
</circle><line x1="151.959991" y1="1509.959961" x2="855.960022" y2="1581.959961" stroke="red" stroke-width="6.660000" />
<circle cx="1948.959961" cy="1526.959961" r="19.980000" fill="red">
  <title>Delhi</title>
</circle><line x1="855.960022" y1="1581.959961" x2="1948.959961" y2="1526.959961" stroke="red" stroke-width="6.660000" />
<circle cx="1682.959961" cy="791.960022" r="19.980000" fill="red">
  <title>Mumbai</title>
</circle><line x1="1948.959961" y1="1526.959961" x2="1682.959961" y2="791.960022" stroke="red" stroke-width="6.660000" />
<circle cx="896.960022" cy="1237.959961" r="19.980000" fill="red">
  <title>Beijing</title>
</circle><line x1="1682.959961" y1="791.960022" x2="896.960022" y2="1237.959961" stroke="red" stroke-width="6.660000" />
</svg>
