<?xml version="1.0" encoding="UTF-8" standalone="no"?>
<svg width="500" height="500" viewBox="0 0 2074.000000 2074.000000" xmlns="http://www.w3.org/2000/svg">
<rect x="19.000000" y="19.000000" width="2036.000000" height="2036.000000" fill="black" />
<circle cx="1620.959961" cy="1311.959961" r="19.980000" fill="red">
  <title>Tokyo</title>
</circle><line x1="1136.959961" y1="1277.959961" x2="1620.959961" y2="1311.959961" stroke="red" stroke-width="6.660000" />
<circle cx="1568.959961" cy="1578.959961" r="19.980000" fill="red">
  <title>Beijing</title>
</circle><line x1="1620.959961" y1="1311.959961" x2="1568.959961" y2="1578.959961" stroke="red" stroke-width="6.660000" />
<circle cx="1140.959961" cy="1532.959961" r="19.980000" fill="red">
  <title>Karachi</title>
</circle><line x1="1568.959961" y1="1578.959961" x2="1140.959961" y2="1532.959961" stroke="red" stroke-width="6.660000" />
<circle cx="335.959991" cy="1676.959961" r="19.980000" fill="red">
  <title>Cairo</title>
</circle><line x1="1140.959961" y1="1532.959961" x2="335.959991" y2="1676.959961" stroke="red" stroke-width="6.660000" />
<circle cx="174.959991" cy="1671.959961" r="19.980000" fill="red">
  <title>Dhaka</title>
</circle><line x1="335.959991" y1="1676.959961" x2="174.959991" y2="1671.959961" stroke="red" stroke-width="6.660000" />
<circle cx="331.959991" cy="1479.959961" r="19.980000" fill="red">
  <title>Mumbai</title>
</circle><line x1="174.959991" y1="1671.959961" x2="331.959991" y2="1479.959961" stroke="red" stroke-width="6.660000" />
<circle cx="306.959991" cy="845.960022" r="19.980000" fill="red">
  <title>Shanghai</title>
</circle><line x1="331.959991" y1="1479.959961" x2="306.959991" y2="845.960022" stroke="red" stroke-width="6.660000" />
<circle cx="119.959999" cy="399.959991" r="19.980000" fill="red">
  <title>Kolkata</title>
</circle><line x1="306.959991" y1="845.960022" x2="119.959999" y2="399.959991" stroke="red" stroke-width="6.660000" />
<circle cx="200.959991" cy="153.959991" r="19.980000" fill="red">
  <title>Mexico City</title>
</circle><line x1="119.959999" y1="399.959991" x2="200.959991" y2="153.959991" stroke="red" stroke-width="6.660000" />
<circle cx="631.960022" cy="596.960022" r="19.980000" fill="red">
  <title>Buenos Aires</title>
</circle><line x1="200.959991" y1="153.959991" x2="631.960022" y2="596.960022" stroke="red" stroke-width="6.660000" />
<circle cx="816.960022" cy="581.960022" r="19.980000" fill="red">
  <title>Istanbul</title>
</circle><line x1="631.960022" y1="596.960022" x2="816.960022" y2="581.960022" stroke="red" stroke-width="6.660000" />
<circle cx="1062.959961" cy="570.960022" r="19.980000" fill="red">
  <title>Chongqing</title>
</circle><line x1="816.960022" y1="581.960022" x2="1062.959961" y2="570.960022" stroke="red" stroke-width="6.660000" />
<circle cx="1494.959961" cy="185.959991" r="19.980000" fill="red">
  <title>Osaka</title>
</circle><line x1="1062.959961" y1="570.960022" x2="1494.959961" y2="185.959991" stroke="red" stroke-width="6.660000" />
<circle cx="1867.959961" cy="189.959991" r="19.980000" fill="red">
  <title>São Paulo</title>
</circle><line x1="1494.959961" y1="185.959991" x2="1867.959961" y2="189.959991" stroke="red" stroke-width="6.660000" />
<circle cx="1313.959961" cy="649.960022" r="19.980000" fill="red">
  <title>Delhi</title>
</circle><line x1="1867.959961" y1="189.959991" x2="1313.959961" y2="649.960022" stroke="red" stroke-width="6.660000" />
<circle cx="1136.959961" cy="1277.959961" r="19.980000" fill="red">
  <title>New York</title>
</circle><line x1="1313.959961" y1="649.960022" x2="1136.959961" y2="1277.959961" stroke="red" stroke-width="6.660000" />
</svg>
