<?xml version="1.0" encoding="UTF-8" standalone="no"?>
<svg width="500" height="500" viewBox="0 0 2074.000000 2074.000000" xmlns="http://www.w3.org/2000/svg">
<rect x="19.000000" y="19.000000" width="2036.000000" height="2036.000000" fill="black" />
<circle cx="1067.959961" cy="1538.959961" r="19.980000" fill="red">
  <title>Tokyo</title>
</circle><line x1="1190.959961" y1="1783.959961" x2="1067.959961" y2="1538.959961" stroke="red" stroke-width="6.660000" />
<circle cx="751.960022" cy="1272.959961" r="19.980000" fill="red">
  <title>Shanghai</title>
</circle><line x1="1067.959961" y1="1538.959961" x2="751.960022" y2="1272.959961" stroke="red" stroke-width="6.660000" />
<circle cx="948.960022" cy="497.959991" r="19.980000" fill="red">
  <title>Beijing</title>
</circle><line x1="751.960022" y1="1272.959961" x2="948.960022" y2="497.959991" stroke="red" stroke-width="6.660000" />
<circle cx="1624.959961" cy="652.960022" r="19.980000" fill="red">
  <title>Dhaka</title>
</circle><line x1="948.960022" y1="497.959991" x2="1624.959961" y2="652.960022" stroke="red" stroke-width="6.660000" />
<circle cx="1488.959961" cy="928.960022" r="19.980000" fill="red">
  <title>Mumbai</title>
</circle><line x1="1624.959961" y1="652.960022" x2="1488.959961" y2="928.960022" stroke="red" stroke-width="6.660000" />
<circle cx="1836.959961" cy="971.960022" r="19.980000" fill="red">
  <title>Delhi</title>
</circle><line x1="1488.959961" y1="928.960022" x2="1836.959961" y2="971.960022" stroke="red" stroke-width="6.660000" />
<circle cx="2009.959961" cy="1529.959961" r="19.980000" fill="red">
  <title>Cairo</title>
</circle><line x1="1836.959961" y1="971.960022" x2="2009.959961" y2="1529.959961" stroke="red" stroke-width="6.660000" />
<circle cx="1372.959961" cy="1254.959961" r="19.980000" fill="red">
  <title>Mexico City</title>
</circle><line x1="2009.959961" y1="1529.959961" x2="1372.959961" y2="1254.959961" stroke="red" stroke-width="6.660000" />
<circle cx="1271.959961" cy="1796.959961" r="19.980000" fill="red">
  <title>São Paulo</title>
</circle><line x1="1372.959961" y1="1254.959961" x2="1271.959961" y2="1796.959961" stroke="red" stroke-width="6.660000" />
<circle cx="1190.959961" cy="1783.959961" r="19.980000" fill="red">
  <title>Osaka</title>
</circle><line x1="1271.959961" y1="1796.959961" x2="1190.959961" y2="1783.959961" stroke="red" stroke-width="6.660000" />
</svg>
