<?xml version="1.0" encoding="UTF-8" standalone="no"?>
<svg width="500" height="500" viewBox="0 0 2074.000000 2074.000000" xmlns="http://www.w3.org/2000/svg">
<rect x="19.000000" y="19.000000" width="2036.000000" height="2036.000000" fill="black" />
<circle cx="199.959991" cy="749.960022" r="19.980000" fill="red">
  <title>Tokyo</title>
</circle><line x1="319.959991" y1="1894.959961" x2="199.959991" y2="749.960022" stroke="red" stroke-width="6.660000" />
<circle cx="103.959999" cy="378.959991" r="19.980000" fill="red">
  <title>Delhi</title>
</circle><line x1="199.959991" y1="749.960022" x2="103.959999" y2="378.959991" stroke="red" stroke-width="6.660000" />
<circle cx="1367.959961" cy="345.959991" r="19.980000" fill="red">
  <title>São Paulo</title>
</circle><line x1="103.959999" y1="378.959991" x2="1367.959961" y2="345.959991" stroke="red" stroke-width="6.660000" />
<circle cx="829.960022" cy="1074.959961" r="19.980000" fill="red">
  <title>Mexico City</title>
</circle><line x1="1367.959961" y1="345.959991" x2="829.960022" y2="1074.959961" stroke="red" stroke-width="6.660000" />
<circle cx="319.959991" cy="1894.959961" r="19.980000" fill="red">
  <title>Shanghai</title>
</circle><line x1="829.960022" y1="1074.959961" x2="319.959991" y2="1894.959961" stroke="red" stroke-width="6.660000" />
</svg>
