<?xml version="1.0" encoding="UTF-8" standalone="no"?>
<svg width="500" height="500" viewBox="0 0 2074.000000 2074.000000" xmlns="http://www.w3.org/2000/svg">
<rect x="19.000000" y="19.000000" width="2036.000000" height="2036.000000" fill="black" />
<circle cx="750.960022" cy="1919.959961" r="19.980000" fill="red">
  <title>Tokyo</title>
</circle><line x1="1724.959961" y1="2034.959961" x2="750.960022" y2="1919.959961" stroke="red" stroke-width="6.660000" />
<circle cx="791.960022" cy="1511.959961" r="19.980000" fill="red">
  <title>Mexico City</title>
</circle><line x1="750.960022" y1="1919.959961" x2="791.960022" y2="1511.959961" stroke="red" stroke-width="6.660000" />
<circle cx="325.959991" cy="1108.959961" r="19.980000" fill="red">
  <title>Delhi</title>
</circle><line x1="791.960022" y1="1511.959961" x2="325.959991" y2="1108.959961" stroke="red" stroke-width="6.660000" />
<circle cx="463.959991" cy="128.959991" r="19.980000" fill="red">
  <title>São Paulo</title>
</circle><line x1="325.959991" y1="1108.959961" x2="463.959991" y2="128.959991" stroke="red" stroke-width="6.660000" />
<circle cx="2023.959961" cy="797.960022" r="19.980000" fill="red">
  <title>Cairo</title>
</circle><line x1="463.959991" y1="128.959991" x2="2023.959961" y2="797.960022" stroke="red" stroke-width="6.660000" />
<circle cx="1724.959961" cy="2034.959961" r="19.980000" fill="red">
  <title>Shanghai</title>
</circle><line x1="2023.959961" y1="797.960022" x2="1724.959961" y2="2034.959961" stroke="red" stroke-width="6.660000" />
</svg>
