<?xml version="1.0" encoding="UTF-8" standalone="no"?>
<svg width="500" height="500" viewBox="0 0 2074.000000 2074.000000" xmlns="http://www.w3.org/2000/svg">
<rect x="19.000000" y="19.000000" width="2036.000000" height="2036.000000" fill="black" />
<circle cx="675.960022" cy="1939.959961" r="19.980000" fill="red">
  <title>Tokyo</title>
</circle><line x1="191.959991" y1="1335.959961" x2="675.960022" y2="1939.959961" stroke="red" stroke-width="6.660000" />
<circle cx="819.960022" cy="1218.959961" r="19.980000" fill="red">
  <title>Cairo</title>
</circle><line x1="675.960022" y1="1939.959961" x2="819.960022" y2="1218.959961" stroke="red" stroke-width="6.660000" />
<circle cx="1959.959961" cy="401.959991" r="19.980000" fill="red">
  <title>Mexico City</title>
</circle><line x1="819.960022" y1="1218.959961" x2="1959.959961" y2="401.959991" stroke="red" stroke-width="6.660000" />
<circle cx="1197.959961" cy="175.959991" r="19.980000" fill="red">
  <title>São Paulo</title>
</circle><line x1="1959.959961" y1="401.959991" x2="1197.959961" y2="175.959991" stroke="red" stroke-width="6.660000" />
<circle cx="374.959991" cy="791.960022" r="19.980000" fill="red">
  <title>Delhi</title>
</circle><line x1="1197.959961" y1="175.959991" x2="374.959991" y2="791.960022" stroke="red" stroke-width="6.660000" />
<circle cx="224.959991" cy="1129.959961" r="19.980000" fill="red">
  <title>Shanghai</title>
</circle><line x1="374.959991" y1="791.960022" x2="224.959991" y2="1129.959961" stroke="red" stroke-width="6.660000" />
<circle cx="191.959991" cy="1335.959961" r="19.980000" fill="red">
  <title>Mumbai</title>
</circle><line x1="224.959991" y1="1129.959961" x2="191.959991" y2="1335.959961" stroke="red" stroke-width="6.660000" />
</svg>
