<?xml version="1.0" encoding="UTF-8" standalone="no"?>
<svg width="500" height="500" viewBox="0 0 2074.000000 2074.000000" xmlns="http://www.w3.org/2000/svg">
<rect x="19.000000" y="19.000000" width="2036.000000" height="2036.000000" fill="black" />
<circle cx="1505.959961" cy="44.959999" r="19.980000" fill="red">
  <title>Tokyo</title>
</circle><line x1="554.960022" y1="51.959999" x2="1505.959961" y2="44.959999" stroke="red" stroke-width="6.660000" />
<circle cx="1900.959961" cy="282.959991" r="19.980000" fill="red">
  <title>Manila</title>
</circle><line x1="1505.959961" y1="44.959999" x2="1900.959961" y2="282.959991" stroke="red" stroke-width="6.660000" />
<circle cx="1989.959961" cy="452.959991" r="19.980000" fill="red">
  <title>Osaka</title>
</circle><line x1="1900.959961" y1="282.959991" x2="1989.959961" y2="452.959991" stroke="red" stroke-width="6.660000" />
<circle cx="1912.959961" cy="583.960022" r="19.980000" fill="red">
  <title>Dhaka</title>
</circle><line x1="1989.959961" y1="452.959991" x2="1912.959961" y2="583.960022" stroke="red" stroke-width="6.660000" />
<circle cx="1932.959961" cy="1004.960022" r="19.980000" fill="red">
  <title>Mumbai</title>
</circle><line x1="1912.959961" y1="583.960022" x2="1932.959961" y2="1004.960022" stroke="red" stroke-width="6.660000" />
<circle cx="2012.959961" cy="1291.959961" r="19.980000" fill="red">
  <title>Mexico City</title>
</circle><line x1="1932.959961" y1="1004.960022" x2="2012.959961" y2="1291.959961" stroke="red" stroke-width="6.660000" />
<circle cx="1841.959961" cy="1309.959961" r="19.980000" fill="red">
  <title>New York</title>
</circle><line x1="2012.959961" y1="1291.959961" x2="1841.959961" y2="1309.959961" stroke="red" stroke-width="6.660000" />
<circle cx="1800.959961" cy="1128.959961" r="19.980000" fill="red">
  <title>Rio de Janeiro</title>
</circle><line x1="1841.959961" y1="1309.959961" x2="1800.959961" y2="1128.959961" stroke="red" stroke-width="6.660000" />
<circle cx="1565.959961" cy="1191.959961" r="19.980000" fill="red">
  <title>Karachi</title>
</circle><line x1="1800.959961" y1="1128.959961" x2="1565.959961" y2="1191.959961" stroke="red" stroke-width="6.660000" />
<circle cx="1542.959961" cy="1389.959961" r="19.980000" fill="red">
  <title>Cairo</title>
</circle><line x1="1565.959961" y1="1191.959961" x2="1542.959961" y2="1389.959961" stroke="red" stroke-width="6.660000" />
<circle cx="1320.959961" cy="1556.959961" r="19.980000" fill="red">
  <title>Shanghai</title>
</circle><line x1="1542.959961" y1="1389.959961" x2="1320.959961" y2="1556.959961" stroke="red" stroke-width="6.660000" />
<circle cx="1858.959961" cy="1915.959961" r="19.980000" fill="red">
  <title>Kolkata</title>
</circle><line x1="1320.959961" y1="1556.959961" x2="1858.959961" y2="1915.959961" stroke="red" stroke-width="6.660000" />
<circle cx="1563.959961" cy="1958.959961" r="19.980000" fill="red">
  <title>Beijing</title>
</circle><line x1="1858.959961" y1="1915.959961" x2="1563.959961" y2="1958.959961" stroke="red" stroke-width="6.660000" />
<circle cx="1068.959961" cy="1999.959961" r="19.980000" fill="red">
  <title>Chongqing</title>
</circle><line x1="1563.959961" y1="1958.959961" x2="1068.959961" y2="1999.959961" stroke="red" stroke-width="6.660000" />
<circle cx="449.959991" cy="1895.959961" r="19.980000" fill="red">
  <title>Istanbul</title>
</circle><line x1="1068.959961" y1="1999.959961" x2="449.959991" y2="1895.959961" stroke="red" stroke-width="6.660000" />
<circle cx="776.960022" cy="1183.959961" r="19.980000" fill="red">
  <title>Lagos</title>
</circle><line x1="449.959991" y1="1895.959961" x2="776.960022" y2="1183.959961" stroke="red" stroke-width="6.660000" />
<circle cx="462.959991" cy="899.960022" r="19.980000" fill="red">
  <title>Delhi</title>
</circle><line x1="776.960022" y1="1183.959961" x2="462.959991" y2="899.960022" stroke="red" stroke-width="6.660000" />
<circle cx="390.959991" cy="307.959991" r="19.980000" fill="red">
  <title>São Paulo</title>
</circle><line x1="462.959991" y1="899.960022" x2="390.959991" y2="307.959991" stroke="red" stroke-width="6.660000" />
<circle cx="554.960022" cy="51.959999" r="19.980000" fill="red">
  <title>Buenos Aires</title>
</circle><line x1="390.959991" y1="307.959991" x2="554.960022" y2="51.959999" stroke="red" stroke-width="6.660000" />
</svg>
