<?xml version="1.0" encoding="UTF-8" standalone="no"?>
<svg width="500" height="500" viewBox="0 0 2074.000000 2074.000000" xmlns="http://www.w3.org/2000/svg">
<rect x="19.000000" y="19.000000" width="2036.000000" height="2036.000000" fill="black" />
<circle cx="1853.959961" cy="1210.959961" r="19.980000" fill="red">
  <title>Tokyo</title>
</circle><line x1="1954.959961" y1="1809.959961" x2="1853.959961" y2="1210.959961" stroke="red" stroke-width="6.660000" />
<circle cx="2017.959961" cy="1106.959961" r="19.980000" fill="red">
  <title>Cairo</title>
</circle><line x1="1853.959961" y1="1210.959961" x2="2017.959961" y2="1106.959961" stroke="red" stroke-width="6.660000" />
<circle cx="1744.959961" cy="1098.959961" r="19.980000" fill="red">
  <title>Buenos Aires</title>
</circle><line x1="2017.959961" y1="1106.959961" x2="1744.959961" y2="1098.959961" stroke="red" stroke-width="6.660000" />
<circle cx="1505.959961" cy="594.960022" r="19.980000" fill="red">
  <title>Mexico City</title>
</circle><line x1="1744.959961" y1="1098.959961" x2="1505.959961" y2="594.960022" stroke="red" stroke-width="6.660000" />
<circle cx="1767.959961" cy="322.959991" r="19.980000" fill="red">
  <title>Dhaka</title>
</circle><line x1="1505.959961" y1="594.960022" x2="1767.959961" y2="322.959991" stroke="red" stroke-width="6.660000" />
<circle cx="1854.959961" cy="356.959991" r="19.980000" fill="red">
  <title>Mumbai</title>
</circle><line x1="1767.959961" y1="322.959991" x2="1854.959961" y2="356.959991" stroke="red" stroke-width="6.660000" />
<circle cx="1740.959961" cy="286.959991" r="19.980000" fill="red">
  <title>Osaka</title>
</circle><line x1="1854.959961" y1="356.959991" x2="1740.959961" y2="286.959991" stroke="red" stroke-width="6.660000" />
<circle cx="1087.959961" cy="99.959999" r="19.980000" fill="red">
  <title>Delhi</title>
</circle><line x1="1740.959961" y1="286.959991" x2="1087.959961" y2="99.959999" stroke="red" stroke-width="6.660000" />
<circle cx="960.960022" cy="684.960022" r="19.980000" fill="red">
  <title>Chongqing</title>
</circle><line x1="1087.959961" y1="99.959999" x2="960.960022" y2="684.960022" stroke="red" stroke-width="6.660000" />
<circle cx="1004.960022" cy="1076.959961" r="19.980000" fill="red">
  <title>São Paulo</title>
</circle><line x1="960.960022" y1="684.960022" x2="1004.960022" y2="1076.959961" stroke="red" stroke-width="6.660000" />
<circle cx="1279.959961" cy="1122.959961" r="19.980000" fill="red">
  <title>New York</title>
</circle><line x1="1004.960022" y1="1076.959961" x2="1279.959961" y2="1122.959961" stroke="red" stroke-width="6.660000" />
<circle cx="885.960022" cy="1464.959961" r="19.980000" fill="red">
  <title>Istanbul</title>
</circle><line x1="1279.959961" y1="1122.959961" x2="885.960022" y2="1464.959961" stroke="red" stroke-width="6.660000" />
<circle cx="942.960022" cy="1826.959961" r="19.980000" fill="red">
  <title>Karachi</title>
</circle><line x1="885.960022" y1="1464.959961" x2="942.960022" y2="1826.959961" stroke="red" stroke-width="6.660000" />
<circle cx="1524.959961" cy="1557.959961" r="19.980000" fill="red">
  <title>Shanghai</title>
</circle><line x1="942.960022" y1="1826.959961" x2="1524.959961" y2="1557.959961" stroke="red" stroke-width="6.660000" />
<circle cx="1954.959961" cy="1809.959961" r="19.980000" fill="red">
  <title>Beijing</title>
</circle><line x1="1524.959961" y1="1557.959961" x2="1954.959961" y2="1809.959961" stroke="red" stroke-width="6.660000" />
</svg>
