<?xml version="1.0" encoding="UTF-8" standalone="no"?>
<svg width="500" height="500" viewBox="0 0 2074.000000 2074.000000" xmlns="http://www.w3.org/2000/svg">
<rect x="19.000000" y="19.000000" width="2036.000000" height="2036.000000" fill="black" />
<circle cx="130.959991" cy="598.960022" r="19.980000" fill="red">
  <title>Tokyo</title>
</circle><line x1="551.960022" y1="459.959991" x2="130.959991" y2="598.960022" stroke="red" stroke-width="6.660000" />
<circle cx="280.959991" cy="765.960022" r="19.980000" fill="red">
  <title>Delhi</title>
</circle><line x1="130.959991" y1="598.960022" x2="280.959991" y2="765.960022" stroke="red" stroke-width="6.660000" />
<circle cx="449.959991" cy="762.960022" r="19.980000" fill="red">
  <title>Shanghai</title>
</circle><line x1="280.959991" y1="765.960022" x2="449.959991" y2="762.960022" stroke="red" stroke-width="6.660000" />
<circle cx="705.960022" cy="1255.959961" r="19.980000" fill="red">
  <title>Beijing</title>
</circle><line x1="449.959991" y1="762.960022" x2="705.960022" y2="1255.959961" stroke="red" stroke-width="6.660000" />
<circle cx="502.959991" cy="1988.959961" r="19.980000" fill="red">
  <title>Osaka</title>
</circle><line x1="705.960022" y1="1255.959961" x2="502.959991" y2="1988.959961" stroke="red" stroke-width="6.660000" />
<circle cx="1097.959961" cy="1709.959961" r="19.980000" fill="red">
  <title>Chongqing</title>
</circle><line x1="502.959991" y1="1988.959961" x2="1097.959961" y2="1709.959961" stroke="red" stroke-width="6.660000" />
<circle cx="1252.959961" cy="1772.959961" r="19.980000" fill="red">
  <title>Dhaka</title>
</circle><line x1="1097.959961" y1="1709.959961" x2="1252.959961" y2="1772.959961" stroke="red" stroke-width="6.660000" />
<circle cx="1448.959961" cy="1466.959961" r="19.980000" fill="red">
  <title>São Paulo</title>
</circle><line x1="1252.959961" y1="1772.959961" x2="1448.959961" y2="1466.959961" stroke="red" stroke-width="6.660000" />
<circle cx="1161.959961" cy="1286.959961" r="19.980000" fill="red">
  <title>Kolkata</title>
</circle><line x1="1448.959961" y1="1466.959961" x2="1161.959961" y2="1286.959961" stroke="red" stroke-width="6.660000" />
<circle cx="1195.959961" cy="1233.959961" r="19.980000" fill="red">
  <title>Istanbul</title>
</circle><line x1="1161.959961" y1="1286.959961" x2="1195.959961" y2="1233.959961" stroke="red" stroke-width="6.660000" />
<circle cx="1008.960022" cy="1090.959961" r="19.980000" fill="red">
  <title>Karachi</title>
</circle><line x1="1195.959961" y1="1233.959961" x2="1008.960022" y2="1090.959961" stroke="red" stroke-width="6.660000" />
<circle cx="1819.959961" cy="368.959991" r="19.980000" fill="red">
  <title>Buenos Aires</title>
</circle><line x1="1008.960022" y1="1090.959961" x2="1819.959961" y2="368.959991" stroke="red" stroke-width="6.660000" />
<circle cx="769.960022" cy="438.959991" r="19.980000" fill="red">
  <title>New York</title>
</circle><line x1="1819.959961" y1="368.959991" x2="769.960022" y2="438.959991" stroke="red" stroke-width="6.660000" />
<circle cx="593.960022" cy="290.959991" r="19.980000" fill="red">
  <title>Mexico City</title>
</circle><line x1="769.960022" y1="438.959991" x2="593.960022" y2="290.959991" stroke="red" stroke-width="6.660000" />
<circle cx="527.960022" cy="298.959991" r="19.980000" fill="red">
  <title>Mumbai</title>
</circle><line x1="593.960022" y1="290.959991" x2="527.960022" y2="298.959991" stroke="red" stroke-width="6.660000" />
<circle cx="551.960022" cy="459.959991" r="19.980000" fill="red">
  <title>Cairo</title>
</circle><line x1="527.960022" y1="298.959991" x2="551.960022" y2="459.959991" stroke="red" stroke-width="6.660000" />
</svg>
