<?xml version="1.0" encoding="UTF-8" standalone="no"?>
<svg width="500" height="500" viewBox="0 0 2074.000000 2074.000000" xmlns="http://www.w3.org/2000/svg">
<rect x="19.000000" y="19.000000" width="2036.000000" height="2036.000000" fill="black" />
<circle cx="674.960022" cy="1398.959961" r="19.980000" fill="red">
  <title>Tokyo</title>
</circle><line x1="82.959999" y1="841.960022" x2="674.960022" y2="1398.959961" stroke="red" stroke-width="6.660000" />
<circle cx="1731.959961" cy="1105.959961" r="19.980000" fill="red">
  <title>Shanghai</title>
</circle><line x1="674.960022" y1="1398.959961" x2="1731.959961" y2="1105.959961" stroke="red" stroke-width="6.660000" />
<circle cx="1699.959961" cy="625.960022" r="19.980000" fill="red">
  <title>Mexico City</title>
</circle><line x1="1731.959961" y1="1105.959961" x2="1699.959961" y2="625.960022" stroke="red" stroke-width="6.660000" />
<circle cx="1434.959961" cy="483.959991" r="19.980000" fill="red">
  <title>Delhi</title>
</circle><line x1="1699.959961" y1="625.960022" x2="1434.959961" y2="483.959991" stroke="red" stroke-width="6.660000" />
<circle cx="82.959999" cy="841.960022" r="19.980000" fill="red">
  <title>São Paulo</title>
</circle><line x1="1434.959961" y1="483.959991" x2="82.959999" y2="841.960022" stroke="red" stroke-width="6.660000" />
</svg>
