<?xml version="1.0" encoding="UTF-8" standalone="no"?>
<svg width="500" height="500" viewBox="0 0 2074.000000 2074.000000" xmlns="http://www.w3.org/2000/svg">
<rect x="19.000000" y="19.000000" width="2036.000000" height="2036.000000" fill="black" />
<circle cx="522.960022" cy="1446.959961" r="19.980000" fill="red">
  <title>Tokyo</title>
</circle><line x1="780.960022" y1="1183.959961" x2="522.960022" y2="1446.959961" stroke="red" stroke-width="6.660000" />
<circle cx="58.959999" cy="2002.959961" r="19.980000" fill="red">
  <title>Mumbai</title>
</circle><line x1="522.960022" y1="1446.959961" x2="58.959999" y2="2002.959961" stroke="red" stroke-width="6.660000" />
<circle cx="1159.959961" cy="1694.959961" r="19.980000" fill="red">
  <title>Karachi</title>
</circle><line x1="58.959999" y1="2002.959961" x2="1159.959961" y2="1694.959961" stroke="red" stroke-width="6.660000" />
<circle cx="1574.959961" cy="1508.959961" r="19.980000" fill="red">
  <title>Mexico City</title>
</circle><line x1="1159.959961" y1="1694.959961" x2="1574.959961" y2="1508.959961" stroke="red" stroke-width="6.660000" />
<circle cx="1875.959961" cy="1955.959961" r="19.980000" fill="red">
  <title>Delhi</title>
</circle><line x1="1574.959961" y1="1508.959961" x2="1875.959961" y2="1955.959961" stroke="red" stroke-width="6.660000" />
<circle cx="1649.959961" cy="1473.959961" r="19.980000" fill="red">
  <title>Beijing</title>
</circle><line x1="1875.959961" y1="1955.959961" x2="1649.959961" y2="1473.959961" stroke="red" stroke-width="6.660000" />
<circle cx="1057.959961" cy="745.960022" r="19.980000" fill="red">
  <title>Cairo</title>
</circle><line x1="1649.959961" y1="1473.959961" x2="1057.959961" y2="745.960022" stroke="red" stroke-width="6.660000" />
<circle cx="850.960022" cy="78.959999" r="19.980000" fill="red">
  <title>Osaka</title>
</circle><line x1="1057.959961" y1="745.960022" x2="850.960022" y2="78.959999" stroke="red" stroke-width="6.660000" />
<circle cx="297.959991" cy="587.960022" r="19.980000" fill="red">
  <title>São Paulo</title>
</circle><line x1="850.960022" y1="78.959999" x2="297.959991" y2="587.960022" stroke="red" stroke-width="6.660000" />
<circle cx="519.960022" cy="813.960022" r="19.980000" fill="red">
  <title>Dhaka</title>
</circle><line x1="297.959991" y1="587.960022" x2="519.960022" y2="813.960022" stroke="red" stroke-width="6.660000" />
<circle cx="672.960022" cy="910.960022" r="19.980000" fill="red">
  <title>Shanghai</title>
</circle><line x1="519.960022" y1="813.960022" x2="672.960022" y2="910.960022" stroke="red" stroke-width="6.660000" />
<circle cx="780.960022" cy="1183.959961" r="19.980000" fill="red">
  <title>New York</title>
</circle><line x1="672.960022" y1="910.960022" x2="780.960022" y2="1183.959961" stroke="red" stroke-width="6.660000" />
</svg>
