<?xml version="1.0" encoding="UTF-8" standalone="no"?>
<svg width="500" height="500" viewBox="0 0 2074.000000 2074.000000" xmlns="http://www.w3.org/2000/svg">
<rect x="19.000000" y="19.000000" width="2036.000000" height="2036.000000" fill="black" />
<circle cx="1566.959961" cy="1592.959961" r="19.980000" fill="red">
  <title>Tokyo</title>
</circle><line x1="1561.959961" y1="1888.959961" x2="1566.959961" y2="1592.959961" stroke="red" stroke-width="6.660000" />
<circle cx="1683.959961" cy="1022.960022" r="19.980000" fill="red">
  <title>Mumbai</title>
</circle><line x1="1566.959961" y1="1592.959961" x2="1683.959961" y2="1022.960022" stroke="red" stroke-width="6.660000" />
<circle cx="1828.959961" cy="295.959991" r="19.980000" fill="red">
  <title>Osaka</title>
</circle><line x1="1683.959961" y1="1022.960022" x2="1828.959961" y2="295.959991" stroke="red" stroke-width="6.660000" />
<circle cx="1345.959961" cy="639.960022" r="19.980000" fill="red">
  <title>Buenos Aires</title>
</circle><line x1="1828.959961" y1="295.959991" x2="1345.959961" y2="639.960022" stroke="red" stroke-width="6.660000" />
<circle cx="924.960022" cy="1066.959961" r="19.980000" fill="red">
  <title>Beijing</title>
</circle><line x1="1345.959961" y1="639.960022" x2="924.960022" y2="1066.959961" stroke="red" stroke-width="6.660000" />
<circle cx="662.960022" cy="834.960022" r="19.980000" fill="red">
  <title>Karachi</title>
</circle><line x1="924.960022" y1="1066.959961" x2="662.960022" y2="834.960022" stroke="red" stroke-width="6.660000" />
<circle cx="107.959999" cy="206.959991" r="19.980000" fill="red">
  <title>Shanghai</title>
</circle><line x1="662.960022" y1="834.960022" x2="107.959999" y2="206.959991" stroke="red" stroke-width="6.660000" />
<circle cx="361.959991" cy="983.960022" r="19.980000" fill="red">
  <title>Dhaka</title>
</circle><line x1="107.959999" y1="206.959991" x2="361.959991" y2="983.960022" stroke="red" stroke-width="6.660000" />
<circle cx="97.959999" cy="1304.959961" r="19.980000" fill="red">
  <title>São Paulo</title>
</circle><line x1="361.959991" y1="983.960022" x2="97.959999" y2="1304.959961" stroke="red" stroke-width="6.660000" />
<circle cx="211.959991" cy="1275.959961" r="19.980000" fill="red">
  <title>Mexico City</title>
</circle><line x1="97.959999" y1="1304.959961" x2="211.959991" y2="1275.959961" stroke="red" stroke-width="6.660000" />
<circle cx="598.960022" cy="1282.959961" r="19.980000" fill="red">
  <title>Cairo</title>
</circle><line x1="211.959991" y1="1275.959961" x2="598.960022" y2="1282.959961" stroke="red" stroke-width="6.660000" />
<circle cx="714.960022" cy="1461.959961" r="19.980000" fill="red">
  <title>New York</title>
</circle><line x1="598.960022" y1="1282.959961" x2="714.960022" y2="1461.959961" stroke="red" stroke-width="6.660000" />
<circle cx="1513.959961" cy="1586.959961" r="19.980000" fill="red">
  <title>Delhi</title>
</circle><line x1="714.960022" y1="1461.959961" x2="1513.959961" y2="1586.959961" stroke="red" stroke-width="6.660000" />
<circle cx="1561.959961" cy="1888.959961" r="19.980000" fill="red">
  <title>Chongqing</title>
</circle><line x1="1513.959961" y1="1586.959961" x2="1561.959961" y2="1888.959961" stroke="red" stroke-width="6.660000" />
</svg>
