<?xml version="1.0" encoding="UTF-8" standalone="no"?>
<svg width="500" height="500" viewBox="0 0 2074.000000 2074.000000" xmlns="http://www.w3.org/2000/svg">
<rect x="19.000000" y="19.000000" width="2036.000000" height="2036.000000" fill="black" />
<circle cx="384.959991" cy="1411.959961" r="19.980000" fill="red">
  <title>Tokyo</title>
</circle><line x1="1042.959961" y1="1881.959961" x2="384.959991" y2="1411.959961" stroke="red" stroke-width="6.660000" />
<circle cx="153.959991" cy="178.959991" r="19.980000" fill="red">
  <title>Mexico City</title>
</circle><line x1="384.959991" y1="1411.959961" x2="153.959991" y2="178.959991" stroke="red" stroke-width="6.660000" />
<circle cx="721.960022" cy="1069.959961" r="19.980000" fill="red">
  <title>Mumbai</title>
</circle><line x1="153.959991" y1="178.959991" x2="721.960022" y2="1069.959961" stroke="red" stroke-width="6.660000" />
<circle cx="1767.959961" cy="1013.960022" r="19.980000" fill="red">
  <title>Delhi</title>
</circle><line x1="721.960022" y1="1069.959961" x2="1767.959961" y2="1013.960022" stroke="red" stroke-width="6.660000" />
<circle cx="1326.959961" cy="1730.959961" r="19.980000" fill="red">
  <title>Shanghai</title>
</circle><line x1="1767.959961" y1="1013.960022" x2="1326.959961" y2="1730.959961" stroke="red" stroke-width="6.660000" />
<circle cx="1200.959961" cy="1768.959961" r="19.980000" fill="red">
  <title>São Paulo</title>
</circle><line x1="1326.959961" y1="1730.959961" x2="1200.959961" y2="1768.959961" stroke="red" stroke-width="6.660000" />
<circle cx="1042.959961" cy="1881.959961" r="19.980000" fill="red">
  <title>Cairo</title>
</circle><line x1="1200.959961" y1="1768.959961" x2="1042.959961" y2="1881.959961" stroke="red" stroke-width="6.660000" />
</svg>
