<?xml version="1.0" encoding="UTF-8" standalone="no"?>
<svg width="500" height="500" viewBox="0 0 2074.000000 2074.000000" xmlns="http://www.w3.org/2000/svg">
<rect x="19.000000" y="19.000000" width="2036.000000" height="2036.000000" fill="black" />
<circle cx="592.960022" cy="765.960022" r="19.980000" fill="red">
  <title>Tokyo</title>
</circle><line x1="130.959991" y1="969.960022" x2="592.960022" y2="765.960022" stroke="red" stroke-width="6.660000" />
<circle cx="932.960022" cy="1185.959961" r="19.980000" fill="red">
  <title>Shanghai</title>
</circle><line x1="592.960022" y1="765.960022" x2="932.960022" y2="1185.959961" stroke="red" stroke-width="6.660000" />
<circle cx="1814.959961" cy="1963.959961" r="19.980000" fill="red">
  <title>Osaka</title>
</circle><line x1="932.960022" y1="1185.959961" x2="1814.959961" y2="1963.959961" stroke="red" stroke-width="6.660000" />
<circle cx="1843.959961" cy="1561.959961" r="19.980000" fill="red">
  <title>Cairo</title>
</circle><line x1="1814.959961" y1="1963.959961" x2="1843.959961" y2="1561.959961" stroke="red" stroke-width="6.660000" />
<circle cx="1016.960022" cy="847.960022" r="19.980000" fill="red">
  <title>Dhaka</title>
</circle><line x1="1843.959961" y1="1561.959961" x2="1016.960022" y2="847.960022" stroke="red" stroke-width="6.660000" />
<circle cx="653.960022" cy="585.960022" r="19.980000" fill="red">
  <title>Beijing</title>
</circle><line x1="1016.960022" y1="847.960022" x2="653.960022" y2="585.960022" stroke="red" stroke-width="6.660000" />
<circle cx="814.960022" cy="136.959991" r="19.980000" fill="red">
  <title>Mumbai</title>
</circle><line x1="653.960022" y1="585.960022" x2="814.960022" y2="136.959991" stroke="red" stroke-width="6.660000" />
<circle cx="633.960022" cy="319.959991" r="19.980000" fill="red">
  <title>Delhi</title>
</circle><line x1="814.960022" y1="136.959991" x2="633.960022" y2="319.959991" stroke="red" stroke-width="6.660000" />
<circle cx="498.959991" cy="719.960022" r="19.980000" fill="red">
  <title>Mexico City</title>
</circle><line x1="633.960022" y1="319.959991" x2="498.959991" y2="719.960022" stroke="red" stroke-width="6.660000" />
<circle cx="130.959991" cy="969.960022" r="19.980000" fill="red">
  <title>São Paulo</title>
</circle><line x1="498.959991" y1="719.960022" x2="130.959991" y2="969.960022" stroke="red" stroke-width="6.660000" />
</svg>
