<?xml version="1.0" encoding="UTF-8" standalone="no"?>
<svg width="500" height="500" viewBox="0 0 2074.000000 2074.000000" xmlns="http://www.w3.org/2000/svg">
<rect x="19.000000" y="19.000000" width="2036.000000" height="2036.000000" fill="black" />
<circle cx="1395.959961" cy="682.960022" r="19.980000" fill="red">
  <title>Tokyo</title>
</circle><line x1="1800.959961" y1="589.960022" x2="1395.959961" y2="682.960022" stroke="red" stroke-width="6.660000" />
<circle cx="1187.959961" cy="1150.959961" r="19.980000" fill="red">
  <title>Delhi</title>
</circle><line x1="1395.959961" y1="682.960022" x2="1187.959961" y2="1150.959961" stroke="red" stroke-width="6.660000" />
<circle cx="1228.959961" cy="1650.959961" r="19.980000" fill="red">
  <title>New York</title>
</circle><line x1="1187.959961" y1="1150.959961" x2="1228.959961" y2="1650.959961" stroke="red" stroke-width="6.660000" />
<circle cx="1309.959961" cy="2030.959961" r="19.980000" fill="red">
  <title>Cairo</title>
</circle><line x1="1228.959961" y1="1650.959961" x2="1309.959961" y2="2030.959961" stroke="red" stroke-width="6.660000" />
<circle cx="823.960022" cy="2017.959961" r="19.980000" fill="red">
  <title>São Paulo</title>
</circle><line x1="1309.959961" y1="2030.959961" x2="823.960022" y2="2017.959961" stroke="red" stroke-width="6.660000" />
<circle cx="607.960022" cy="1041.959961" r="19.980000" fill="red">
  <title>Mumbai</title>
</circle><line x1="823.960022" y1="2017.959961" x2="607.960022" y2="1041.959961" stroke="red" stroke-width="6.660000" />
<circle cx="464.959991" cy="686.960022" r="19.980000" fill="red">
  <title>Shanghai</title>
</circle><line x1="607.960022" y1="1041.959961" x2="464.959991" y2="686.960022" stroke="red" stroke-width="6.660000" />
<circle cx="1224.959961" cy="600.960022" r="19.980000" fill="red">
  <title>Dhaka</title>
</circle><line x1="464.959991" y1="686.960022" x2="1224.959961" y2="600.960022" stroke="red" stroke-width="6.660000" />
<circle cx="1353.959961" cy="380.959991" r="19.980000" fill="red">
  <title>Osaka</title>
</circle><line x1="1224.959961" y1="600.960022" x2="1353.959961" y2="380.959991" stroke="red" stroke-width="6.660000" />
<circle cx="1515.959961" cy="110.959999" r="19.980000" fill="red">
  <title>Mexico City</title>
</circle><line x1="1353.959961" y1="380.959991" x2="1515.959961" y2="110.959999" stroke="red" stroke-width="6.660000" />
<circle cx="1800.959961" cy="589.960022" r="19.980000" fill="red">
  <title>Beijing</title>
</circle><line x1="1515.959961" y1="110.959999" x2="1800.959961" y2="589.960022" stroke="red" stroke-width="6.660000" />
</svg>
