<?xml version="1.0" encoding="UTF-8" standalone="no"?>
<svg width="500" height="500" viewBox="0 0 2074.000000 2074.000000" xmlns="http://www.w3.org/2000/svg">
<rect x="19.000000" y="19.000000" width="2036.000000" height="2036.000000" fill="black" />
<circle cx="1080.959961" cy="451.959991" r="19.980000" fill="red">
  <title>Tokyo</title>
</circle><line x1="1750.959961" y1="826.960022" x2="1080.959961" y2="451.959991" stroke="red" stroke-width="6.660000" />
<circle cx="450.959991" cy="831.960022" r="19.980000" fill="red">
  <title>Cairo</title>
</circle><line x1="1080.959961" y1="451.959991" x2="450.959991" y2="831.960022" stroke="red" stroke-width="6.660000" />
<circle cx="45.959999" cy="1831.959961" r="19.980000" fill="red">
  <title>Mumbai</title>
</circle><line x1="450.959991" y1="831.960022" x2="45.959999" y2="1831.959961" stroke="red" stroke-width="6.660000" />
<circle cx="498.959991" cy="1486.959961" r="19.980000" fill="red">
  <title>Delhi</title>
</circle><line x1="45.959999" y1="1831.959961" x2="498.959991" y2="1486.959961" stroke="red" stroke-width="6.660000" />
<circle cx="825.960022" cy="1143.959961" r="19.980000" fill="red">
  <title>Osaka</title>
</circle><line x1="498.959991" y1="1486.959961" x2="825.960022" y2="1143.959961" stroke="red" stroke-width="6.660000" />
<circle cx="1094.959961" cy="1244.959961" r="19.980000" fill="red">
  <title>Shanghai</title>
</circle><line x1="825.960022" y1="1143.959961" x2="1094.959961" y2="1244.959961" stroke="red" stroke-width="6.660000" />
<circle cx="1315.959961" cy="1043.959961" r="19.980000" fill="red">
  <title>Mexico City</title>
</circle><line x1="1094.959961" y1="1244.959961" x2="1315.959961" y2="1043.959961" stroke="red" stroke-width="6.660000" />
<circle cx="1885.959961" cy="1421.959961" r="19.980000" fill="red">
  <title>Beijing</title>
</circle><line x1="1315.959961" y1="1043.959961" x2="1885.959961" y2="1421.959961" stroke="red" stroke-width="6.660000" />
<circle cx="1896.959961" cy="966.960022" r="19.980000" fill="red">
  <title>São Paulo</title>
</circle><line x1="1885.959961" y1="1421.959961" x2="1896.959961" y2="966.960022" stroke="red" stroke-width="6.660000" />
<circle cx="1750.959961" cy="826.960022" r="19.980000" fill="red">
  <title>Dhaka</title>
</circle><line x1="1896.959961" y1="966.960022" x2="1750.959961" y2="826.960022" stroke="red" stroke-width="6.660000" />
</svg>
