<?xml version="1.0" encoding="UTF-8" standalone="no"?>
<svg width="500" height="500" viewBox="0 0 2074.000000 2074.000000" xmlns="http://www.w3.org/2000/svg">
<rect x="19.000000" y="19.000000" width="2036.000000" height="2036.000000" fill="black" />
<circle cx="89.959999" cy="1414.959961" r="19.980000" fill="red">
  <title>Tokyo</title>
</circle><line x1="63.959999" y1="563.960022" x2="89.959999" y2="1414.959961" stroke="red" stroke-width="6.660000" />
<circle cx="55.959999" cy="1865.959961" r="19.980000" fill="red">
  <title>Istanbul</title>
</circle><line x1="89.959999" y1="1414.959961" x2="55.959999" y2="1865.959961" stroke="red" stroke-width="6.660000" />
<circle cx="373.959991" cy="1522.959961" r="19.980000" fill="red">
  <title>Delhi</title>
</circle><line x1="55.959999" y1="1865.959961" x2="373.959991" y2="1522.959961" stroke="red" stroke-width="6.660000" />
<circle cx="844.960022" cy="1824.959961" r="19.980000" fill="red">
  <title>Beijing</title>
</circle><line x1="373.959991" y1="1522.959961" x2="844.960022" y2="1824.959961" stroke="red" stroke-width="6.660000" />
<circle cx="1462.959961" cy="1768.959961" r="19.980000" fill="red">
  <title>Dhaka</title>
</circle><line x1="844.960022" y1="1824.959961" x2="1462.959961" y2="1768.959961" stroke="red" stroke-width="6.660000" />
<circle cx="1821.959961" cy="1634.959961" r="19.980000" fill="red">
  <title>São Paulo</title>
</circle><line x1="1462.959961" y1="1768.959961" x2="1821.959961" y2="1634.959961" stroke="red" stroke-width="6.660000" />
<circle cx="1160.959961" cy="739.960022" r="19.980000" fill="red">
  <title>New York</title>
</circle><line x1="1821.959961" y1="1634.959961" x2="1160.959961" y2="739.960022" stroke="red" stroke-width="6.660000" />
<circle cx="1415.959961" cy="479.959991" r="19.980000" fill="red">
  <title>Shanghai</title>
</circle><line x1="1160.959961" y1="739.960022" x2="1415.959961" y2="479.959991" stroke="red" stroke-width="6.660000" />
<circle cx="1746.959961" cy="420.959991" r="19.980000" fill="red">
  <title>Mexico City</title>
</circle><line x1="1415.959961" y1="479.959991" x2="1746.959961" y2="420.959991" stroke="red" stroke-width="6.660000" />
<circle cx="1951.959961" cy="106.959999" r="19.980000" fill="red">
  <title>Kolkata</title>
</circle><line x1="1746.959961" y1="420.959991" x2="1951.959961" y2="106.959999" stroke="red" stroke-width="6.660000" />
<circle cx="1744.959961" cy="304.959991" r="19.980000" fill="red">
  <title>Mumbai</title>
</circle><line x1="1951.959961" y1="106.959999" x2="1744.959961" y2="304.959991" stroke="red" stroke-width="6.660000" />
<circle cx="1307.959961" cy="304.959991" r="19.980000" fill="red">
  <title>Chongqing</title>
</circle><line x1="1744.959961" y1="304.959991" x2="1307.959961" y2="304.959991" stroke="red" stroke-width="6.660000" />
<circle cx="1241.959961" cy="287.959991" r="19.980000" fill="red">
  <title>Manila</title>
</circle><line x1="1307.959961" y1="304.959991" x2="1241.959961" y2="287.959991" stroke="red" stroke-width="6.660000" />
<circle cx="551.960022" cy="311.959991" r="19.980000" fill="red">
  <title>Cairo</title>
</circle><line x1="1241.959961" y1="287.959991" x2="551.960022" y2="311.959991" stroke="red" stroke-width="6.660000" />
<circle cx="435.959991" cy="139.959991" r="19.980000" fill="red">
  <title>Osaka</title>
</circle><line x1="551.960022" y1="311.959991" x2="435.959991" y2="139.959991" stroke="red" stroke-width="6.660000" />
<circle cx="115.959999" cy="86.959999" r="19.980000" fill="red">
  <title>Buenos Aires</title>
</circle><line x1="435.959991" y1="139.959991" x2="115.959999" y2="86.959999" stroke="red" stroke-width="6.660000" />
<circle cx="63.959999" cy="563.960022" r="19.980000" fill="red">
  <title>Karachi</title>
</circle><line x1="115.959999" y1="86.959999" x2="63.959999" y2="563.960022" stroke="red" stroke-width="6.660000" />
</svg>
