<?xml version="1.0" encoding="UTF-8" standalone="no"?>
<svg width="500" height="500" viewBox="0 0 2074.000000 2074.000000" xmlns="http://www.w3.org/2000/svg">
<rect x="19.000000" y="19.000000" width="2036.000000" height="2036.000000" fill="black" />
<circle cx="1614.959961" cy="1198.959961" r="19.980000" fill="red">
  <title>Tokyo</title>
</circle><line x1="1842.959961" y1="1637.959961" x2="1614.959961" y2="1198.959961" stroke="red" stroke-width="6.660000" />
<circle cx="1222.959961" cy="1138.959961" r="19.980000" fill="red">
  <title>Mexico City</title>
</circle><line x1="1614.959961" y1="1198.959961" x2="1222.959961" y2="1138.959961" stroke="red" stroke-width="6.660000" />
<circle cx="625.960022" cy="981.960022" r="19.980000" fill="red">
  <title>Shanghai</title>
</circle><line x1="1222.959961" y1="1138.959961" x2="625.960022" y2="981.960022" stroke="red" stroke-width="6.660000" />
<circle cx="1313.959961" cy="443.959991" r="19.980000" fill="red">
  <title>São Paulo</title>
</circle><line x1="625.960022" y1="981.960022" x2="1313.959961" y2="443.959991" stroke="red" stroke-width="6.660000" />
<circle cx="1723.959961" cy="500.959991" r="19.980000" fill="red">
  <title>Delhi</title>
</circle><line x1="1313.959961" y1="443.959991" x2="1723.959961" y2="500.959991" stroke="red" stroke-width="6.660000" />
<circle cx="2002.959961" cy="1390.959961" r="19.980000" fill="red">
  <title>Mumbai</title>
</circle><line x1="1723.959961" y1="500.959991" x2="2002.959961" y2="1390.959961" stroke="red" stroke-width="6.660000" />
<circle cx="1842.959961" cy="1637.959961" r="19.980000" fill="red">
  <title>Cairo</title>
</circle><line x1="2002.959961" y1="1390.959961" x2="1842.959961" y2="1637.959961" stroke="red" stroke-width="6.660000" />
</svg>
