<?xml version="1.0" encoding="UTF-8" standalone="no"?>
<svg width="500" height="500" viewBox="0 0 2074.000000 2074.000000" xmlns="http://www.w3.org/2000/svg">
<rect x="19.000000" y="19.000000" width="2036.000000" height="2036.000000" fill="black" />
<circle cx="1694.959961" cy="641.960022" r="19.980000" fill="red">
  <title>Tokyo</title>
</circle><line x1="1680.959961" y1="684.960022" x2="1694.959961" y2="641.960022" stroke="red" stroke-width="6.660000" />
<circle cx="1802.959961" cy="790.960022" r="19.980000" fill="red">
  <title>São Paulo</title>
</circle><line x1="1694.959961" y1="641.960022" x2="1802.959961" y2="790.960022" stroke="red" stroke-width="6.660000" />
<circle cx="1753.959961" cy="970.960022" r="19.980000" fill="red">
  <title>Beijing</title>
</circle><line x1="1802.959961" y1="790.960022" x2="1753.959961" y2="970.960022" stroke="red" stroke-width="6.660000" />
<circle cx="1145.959961" cy="1714.959961" r="19.980000" fill="red">
  <title>Osaka</title>
</circle><line x1="1753.959961" y1="970.960022" x2="1145.959961" y2="1714.959961" stroke="red" stroke-width="6.660000" />
<circle cx="1106.959961" cy="993.960022" r="19.980000" fill="red">
  <title>Dhaka</title>
</circle><line x1="1145.959961" y1="1714.959961" x2="1106.959961" y2="993.960022" stroke="red" stroke-width="6.660000" />
<circle cx="860.960022" cy="1000.960022" r="19.980000" fill="red">
  <title>Shanghai</title>
</circle><line x1="1106.959961" y1="993.960022" x2="860.960022" y2="1000.960022" stroke="red" stroke-width="6.660000" />
<circle cx="48.959999" cy="1045.959961" r="19.980000" fill="red">
  <title>New York</title>
</circle><line x1="860.960022" y1="1000.960022" x2="48.959999" y2="1045.959961" stroke="red" stroke-width="6.660000" />
<circle cx="219.959991" cy="520.960022" r="19.980000" fill="red">
  <title>Delhi</title>
</circle><line x1="48.959999" y1="1045.959961" x2="219.959991" y2="520.960022" stroke="red" stroke-width="6.660000" />
<circle cx="732.960022" cy="673.960022" r="19.980000" fill="red">
  <title>Mexico City</title>
</circle><line x1="219.959991" y1="520.960022" x2="732.960022" y2="673.960022" stroke="red" stroke-width="6.660000" />
<circle cx="1300.959961" cy="669.960022" r="19.980000" fill="red">
  <title>Mumbai</title>
</circle><line x1="732.960022" y1="673.960022" x2="1300.959961" y2="669.960022" stroke="red" stroke-width="6.660000" />
<circle cx="1680.959961" cy="684.960022" r="19.980000" fill="red">
  <title>Cairo</title>
</circle><line x1="1300.959961" y1="669.960022" x2="1680.959961" y2="684.960022" stroke="red" stroke-width="6.660000" />
</svg>
