<?xml version="1.0" encoding="UTF-8" standalone="no"?>
<svg width="500" height="500" viewBox="0 0 2074.000000 2074.000000" xmlns="http://www.w3.org/2000/svg">
<rect x="19.000000" y="19.000000" width="2036.000000" height="2036.000000" fill="black" />
<circle cx="261.959991" cy="1855.959961" r="19.980000" fill="red">
  <title>Tokyo</title>
</circle><line x1="1754.959961" y1="1989.959961" x2="261.959991" y2="1855.959961" stroke="red" stroke-width="6.660000" />
<circle cx="267.959991" cy="1059.959961" r="19.980000" fill="red">
  <title>Shanghai</title>
</circle><line x1="261.959991" y1="1855.959961" x2="267.959991" y2="1059.959961" stroke="red" stroke-width="6.660000" />
<circle cx="958.960022" cy="461.959991" r="19.980000" fill="red">
  <title>Delhi</title>
</circle><line x1="267.959991" y1="1059.959961" x2="958.960022" y2="461.959991" stroke="red" stroke-width="6.660000" />
<circle cx="1754.959961" cy="1989.959961" r="19.980000" fill="red">
  <title>São Paulo</title>
</circle><line x1="958.960022" y1="461.959991" x2="1754.959961" y2="1989.959961" stroke="red" stroke-width="6.660000" />
</svg>
