<?xml version="1.0" encoding="UTF-8" standalone="no"?>
<svg width="500" height="500" viewBox="0 0 2074.000000 2074.000000" xmlns="http://www.w3.org/2000/svg">
<rect x="19.000000" y="19.000000" width="2036.000000" height="2036.000000" fill="black" />
<circle cx="288.959991" cy="1070.959961" r="19.980000" fill="red">
  <title>Tokyo</title>
</circle><line x1="181.959991" y1="524.960022" x2="288.959991" y2="1070.959961" stroke="red" stroke-width="6.660000" />
<circle cx="395.959991" cy="1833.959961" r="19.980000" fill="red">
  <title>Delhi</title>
</circle><line x1="288.959991" y1="1070.959961" x2="395.959991" y2="1833.959961" stroke="red" stroke-width="6.660000" />
<circle cx="883.960022" cy="1958.959961" r="19.980000" fill="red">
  <title>Shanghai</title>
</circle><line x1="395.959991" y1="1833.959961" x2="883.960022" y2="1958.959961" stroke="red" stroke-width="6.660000" />
<circle cx="698.960022" cy="1670.959961" r="19.980000" fill="red">
  <title>Dhaka</title>
</circle><line x1="883.960022" y1="1958.959961" x2="698.960022" y2="1670.959961" stroke="red" stroke-width="6.660000" />
<circle cx="839.960022" cy="1524.959961" r="19.980000" fill="red">
  <title>Mexico City</title>
</circle><line x1="698.960022" y1="1670.959961" x2="839.960022" y2="1524.959961" stroke="red" stroke-width="6.660000" />
<circle cx="1188.959961" cy="1217.959961" r="19.980000" fill="red">
  <title>Cairo</title>
</circle><line x1="839.960022" y1="1524.959961" x2="1188.959961" y2="1217.959961" stroke="red" stroke-width="6.660000" />
<circle cx="1455.959961" cy="1437.959961" r="19.980000" fill="red">
  <title>New York</title>
</circle><line x1="1188.959961" y1="1217.959961" x2="1455.959961" y2="1437.959961" stroke="red" stroke-width="6.660000" />
<circle cx="1461.959961" cy="1447.959961" r="19.980000" fill="red">
  <title>Karachi</title>
</circle><line x1="1455.959961" y1="1437.959961" x2="1461.959961" y2="1447.959961" stroke="red" stroke-width="6.660000" />
<circle cx="1870.959961" cy="1745.959961" r="19.980000" fill="red">
  <title>Mumbai</title>
</circle><line x1="1461.959961" y1="1447.959961" x2="1870.959961" y2="1745.959961" stroke="red" stroke-width="6.660000" />
<circle cx="1992.959961" cy="1781.959961" r="19.980000" fill="red">
  <title>Beijing</title>
</circle><line x1="1870.959961" y1="1745.959961" x2="1992.959961" y2="1781.959961" stroke="red" stroke-width="6.660000" />
<circle cx="1982.959961" cy="1215.959961" r="19.980000" fill="red">
  <title>Osaka</title>
</circle><line x1="1992.959961" y1="1781.959961" x2="1982.959961" y2="1215.959961" stroke="red" stroke-width="6.660000" />
<circle cx="1808.959961" cy="967.960022" r="19.980000" fill="red">
  <title>Istanbul</title>
</circle><line x1="1982.959961" y1="1215.959961" x2="1808.959961" y2="967.960022" stroke="red" stroke-width="6.660000" />
<circle cx="1999.959961" cy="463.959991" r="19.980000" fill="red">
  <title>Manila</title>
</circle><line x1="1808.959961" y1="967.960022" x2="1999.959961" y2="463.959991" stroke="red" stroke-width="6.660000" />
<circle cx="1331.959961" cy="947.960022" r="19.980000" fill="red">
  <title>Buenos Aires</title>
</circle><line x1="1999.959961" y1="463.959991" x2="1331.959961" y2="947.960022" stroke="red" stroke-width="6.660000" />
<circle cx="608.960022" cy="803.960022" r="19.980000" fill="red">
  <title>São Paulo</title>
</circle><line x1="1331.959961" y1="947.960022" x2="608.960022" y2="803.960022" stroke="red" stroke-width="6.660000" />
<circle cx="106.959999" cy="59.959999" r="19.980000" fill="red">
  <title>Kolkata</title>
</circle><line x1="608.960022" y1="803.960022" x2="106.959999" y2="59.959999" stroke="red" stroke-width="6.660000" />
<circle cx="181.959991" cy="524.960022" r="19.980000" fill="red">
  <title>Chongqing</title>
</circle><line x1="106.959999" y1="59.959999" x2="181.959991" y2="524.960022" stroke="red" stroke-width="6.660000" />
</svg>
