<?xml version="1.0" encoding="UTF-8" standalone="no"?>
<svg width="500" height="500" viewBox="0 0 2074.000000 2074.000000" xmlns="http://www.w3.org/2000/svg">
<rect x="19.000000" y="19.000000" width="2036.000000" height="2036.000000" fill="black" />
<circle cx="573.960022" cy="1045.959961" r="19.980000" fill="red">
  <title>Tokyo</title>
</circle><line x1="314.959991" y1="1906.959961" x2="573.960022" y2="1045.959961" stroke="red" stroke-width="6.660000" />
<circle cx="123.959999" cy="406.959991" r="19.980000" fill="red">
  <title>Mumbai</title>
</circle><line x1="573.960022" y1="1045.959961" x2="123.959999" y2="406.959991" stroke="red" stroke-width="6.660000" />
<circle cx="414.959991" cy="235.959991" r="19.980000" fill="red">
  <title>São Paulo</title>
</circle><line x1="123.959999" y1="406.959991" x2="414.959991" y2="235.959991" stroke="red" stroke-width="6.660000" />
<circle cx="868.960022" cy="812.960022" r="19.980000" fill="red">
  <title>Mexico City</title>
</circle><line x1="414.959991" y1="235.959991" x2="868.960022" y2="812.960022" stroke="red" stroke-width="6.660000" />
<circle cx="1681.959961" cy="838.960022" r="19.980000" fill="red">
  <title>Cairo</title>
</circle><line x1="868.960022" y1="812.960022" x2="1681.959961" y2="838.960022" stroke="red" stroke-width="6.660000" />
<circle cx="1985.959961" cy="450.959991" r="19.980000" fill="red">
  <title>Shanghai</title>
</circle><line x1="1681.959961" y1="838.960022" x2="1985.959961" y2="450.959991" stroke="red" stroke-width="6.660000" />
<circle cx="1924.959961" cy="1146.959961" r="19.980000" fill="red">
  <title>Dhaka</title>
</circle><line x1="1985.959961" y1="450.959991" x2="1924.959961" y2="1146.959961" stroke="red" stroke-width="6.660000" />
<circle cx="2024.959961" cy="1431.959961" r="19.980000" fill="red">
  <title>Osaka</title>
</circle><line x1="1924.959961" y1="1146.959961" x2="2024.959961" y2="1431.959961" stroke="red" stroke-width="6.660000" />
<circle cx="885.960022" cy="1456.959961" r="19.980000" fill="red">
  <title>New York</title>
</circle><line x1="2024.959961" y1="1431.959961" x2="885.960022" y2="1456.959961" stroke="red" stroke-width="6.660000" />
<circle cx="794.960022" cy="1549.959961" r="19.980000" fill="red">
  <title>Delhi</title>
</circle><line x1="885.960022" y1="1456.959961" x2="794.960022" y2="1549.959961" stroke="red" stroke-width="6.660000" />
<circle cx="314.959991" cy="1906.959961" r="19.980000" fill="red">
  <title>Beijing</title>
</circle><line x1="794.960022" y1="1549.959961" x2="314.959991" y2="1906.959961" stroke="red" stroke-width="6.660000" />
</svg>
