<?xml version="1.0" encoding="UTF-8" standalone="no"?>
<svg width="500" height="500" viewBox="0 0 2074.000000 2074.000000" xmlns="http://www.w3.org/2000/svg">
<rect x="19.000000" y="19.000000" width="2036.000000" height="2036.000000" fill="black" />
<circle cx="150.959991" cy="547.960022" r="19.980000" fill="red">
  <title>Tokyo</title>
</circle><line x1="220.959991" y1="903.960022" x2="150.959991" y2="547.960022" stroke="red" stroke-width="6.660000" />
<circle cx="556.960022" cy="235.959991" r="19.980000" fill="red">
  <title>Delhi</title>
</circle><line x1="150.959991" y1="547.960022" x2="556.960022" y2="235.959991" stroke="red" stroke-width="6.660000" />
<circle cx="1677.959961" cy="357.959991" r="19.980000" fill="red">
  <title>Dhaka</title>
</circle><line x1="556.960022" y1="235.959991" x2="1677.959961" y2="357.959991" stroke="red" stroke-width="6.660000" />
<circle cx="2016.959961" cy="897.960022" r="19.980000" fill="red">
  <title>Shanghai</title>
</circle><line x1="1677.959961" y1="357.959991" x2="2016.959961" y2="897.960022" stroke="red" stroke-width="6.660000" />
<circle cx="1210.959961" cy="1120.959961" r="19.980000" fill="red">
  <title>São Paulo</title>
</circle><line x1="2016.959961" y1="897.960022" x2="1210.959961" y2="1120.959961" stroke="red" stroke-width="6.660000" />
<circle cx="1381.959961" cy="1903.959961" r="19.980000" fill="red">
  <title>Cairo</title>
</circle><line x1="1210.959961" y1="1120.959961" x2="1381.959961" y2="1903.959961" stroke="red" stroke-width="6.660000" />
<circle cx="765.960022" cy="1442.959961" r="19.980000" fill="red">
  <title>Mexico City</title>
</circle><line x1="1381.959961" y1="1903.959961" x2="765.960022" y2="1442.959961" stroke="red" stroke-width="6.660000" />
<circle cx="553.960022" cy="1518.959961" r="19.980000" fill="red">
  <title>Beijing</title>
</circle><line x1="765.960022" y1="1442.959961" x2="553.960022" y2="1518.959961" stroke="red" stroke-width="6.660000" />
<circle cx="220.959991" cy="903.960022" r="19.980000" fill="red">
  <title>Mumbai</title>
</circle><line x1="553.960022" y1="1518.959961" x2="220.959991" y2="903.960022" stroke="red" stroke-width="6.660000" />
</svg>
