<?xml version="1.0" encoding="UTF-8" standalone="no"?>
<svg width="500" height="500" viewBox="0 0 2074.000000 2074.000000" xmlns="http://www.w3.org/2000/svg">
<rect x="19.000000" y="19.000000" width="2036.000000" height="2036.000000" fill="black" />
<circle cx="802.960022" cy="1003.960022" r="19.980000" fill="red">
  <title>Tokyo</title>
</circle><line x1="847.960022" y1="1863.959961" x2="802.960022" y2="1003.960022" stroke="red" stroke-width="6.660000" />
<circle cx="89.959999" cy="1051.959961" r="19.980000" fill="red">
  <title>Delhi</title>
</circle><line x1="802.960022" y1="1003.960022" x2="89.959999" y2="1051.959961" stroke="red" stroke-width="6.660000" />
<circle cx="847.960022" cy="1863.959961" r="19.980000" fill="red">
  <title>Shanghai</title>
</circle><line x1="89.959999" y1="1051.959961" x2="847.960022" y2="1863.959961" stroke="red" stroke-width="6.660000" />
</svg>
