<?xml version="1.0" encoding="UTF-8" standalone="no"?>
<svg width="500" height="500" viewBox="0 0 2074.000000 2074.000000" xmlns="http://www.w3.org/2000/svg">
<rect x="19.000000" y="19.000000" width="2036.000000" height="2036.000000" fill="black" />
<circle cx="421.959991" cy="1327.959961" r="19.980000" fill="red">
  <title>Tokyo</title>
</circle><line x1="574.960022" y1="1145.959961" x2="421.959991" y2="1327.959961" stroke="red" stroke-width="6.660000" />
<circle cx="406.959991" cy="1349.959961" r="19.980000" fill="red">
  <title>Cairo</title>
</circle><line x1="421.959991" y1="1327.959961" x2="406.959991" y2="1349.959961" stroke="red" stroke-width="6.660000" />
<circle cx="557.960022" cy="1480.959961" r="19.980000" fill="red">
  <title>Shanghai</title>
</circle><line x1="406.959991" y1="1349.959961" x2="557.960022" y2="1480.959961" stroke="red" stroke-width="6.660000" />
<circle cx="1220.959961" cy="1644.959961" r="19.980000" fill="red">
  <title>Osaka</title>
</circle><line x1="557.960022" y1="1480.959961" x2="1220.959961" y2="1644.959961" stroke="red" stroke-width="6.660000" />
<circle cx="1748.959961" cy="1450.959961" r="19.980000" fill="red">
  <title>São Paulo</title>
</circle><line x1="1220.959961" y1="1644.959961" x2="1748.959961" y2="1450.959961" stroke="red" stroke-width="6.660000" />
<circle cx="1485.959961" cy="1099.959961" r="19.980000" fill="red">
  <title>Karachi</title>
</circle><line x1="1748.959961" y1="1450.959961" x2="1485.959961" y2="1099.959961" stroke="red" stroke-width="6.660000" />
<circle cx="1497.959961" cy="902.960022" r="19.980000" fill="red">
  <title>Delhi</title>
</circle><line x1="1485.959961" y1="1099.959961" x2="1497.959961" y2="902.960022" stroke="red" stroke-width="6.660000" />
<circle cx="1341.959961" cy="525.960022" r="19.980000" fill="red">
  <title>Mumbai</title>
</circle><line x1="1497.959961" y1="902.960022" x2="1341.959961" y2="525.960022" stroke="red" stroke-width="6.660000" />
<circle cx="1314.959961" cy="143.959991" r="19.980000" fill="red">
  <title>Buenos Aires</title>
</circle><line x1="1341.959961" y1="525.960022" x2="1314.959961" y2="143.959991" stroke="red" stroke-width="6.660000" />
<circle cx="960.960022" cy="499.959991" r="19.980000" fill="red">
  <title>Beijing</title>
</circle><line x1="1314.959961" y1="143.959991" x2="960.960022" y2="499.959991" stroke="red" stroke-width="6.660000" />
<circle cx="831.960022" cy="941.960022" r="19.980000" fill="red">
  <title>Mexico City</title>
</circle><line x1="960.960022" y1="499.959991" x2="831.960022" y2="941.960022" stroke="red" stroke-width="6.660000" />
<circle cx="919.960022" cy="1071.959961" r="19.980000" fill="red">
  <title>Dhaka</title>
</circle><line x1="831.960022" y1="941.960022" x2="919.960022" y2="1071.959961" stroke="red" stroke-width="6.660000" />
<circle cx="574.960022" cy="1145.959961" r="19.980000" fill="red">
  <title>New York</title>
</circle><line x1="919.960022" y1="1071.959961" x2="574.960022" y2="1145.959961" stroke="red" stroke-width="6.660000" />
</svg>
