<?xml version="1.0" encoding="UTF-8" standalone="no"?>
<svg width="500" height="500" viewBox="0 0 2074.000000 2074.000000" xmlns="http://www.w3.org/2000/svg">
<rect x="19.000000" y="19.000000" width="2036.000000" height="2036.000000" fill="black" />
<circle cx="1288.959961" cy="1435.959961" r="19.980000" fill="red">
  <title>Tokyo</title>
</circle><line x1="1058.959961" y1="1083.959961" x2="1288.959961" y2="1435.959961" stroke="red" stroke-width="6.660000" />
<circle cx="1805.959961" cy="1821.959961" r="19.980000" fill="red">
  <title>Delhi</title>
</circle><line x1="1288.959961" y1="1435.959961" x2="1805.959961" y2="1821.959961" stroke="red" stroke-width="6.660000" />
<circle cx="1761.959961" cy="1399.959961" r="19.980000" fill="red">
  <title>Mexico City</title>
</circle><line x1="1805.959961" y1="1821.959961" x2="1761.959961" y2="1399.959961" stroke="red" stroke-width="6.660000" />
<circle cx="1473.959961" cy="854.960022" r="19.980000" fill="red">
  <title>Mumbai</title>
</circle><line x1="1761.959961" y1="1399.959961" x2="1473.959961" y2="854.960022" stroke="red" stroke-width="6.660000" />
<circle cx="1858.959961" cy="225.959991" r="19.980000" fill="red">
  <title>Beijing</title>
</circle><line x1="1473.959961" y1="854.960022" x2="1858.959961" y2="225.959991" stroke="red" stroke-width="6.660000" />
<circle cx="1873.959961" cy="57.959999" r="19.980000" fill="red">
  <title>Shanghai</title>
</circle><line x1="1858.959961" y1="225.959991" x2="1873.959961" y2="57.959999" stroke="red" stroke-width="6.660000" />
<circle cx="548.960022" cy="295.959991" r="19.980000" fill="red">
  <title>Osaka</title>
</circle><line x1="1873.959961" y1="57.959999" x2="548.960022" y2="295.959991" stroke="red" stroke-width="6.660000" />
<circle cx="346.959991" cy="302.959991" r="19.980000" fill="red">
  <title>Buenos Aires</title>
</circle><line x1="548.960022" y1="295.959991" x2="346.959991" y2="302.959991" stroke="red" stroke-width="6.660000" />
<circle cx="285.959991" cy="579.960022" r="19.980000" fill="red">
  <title>Dhaka</title>
</circle><line x1="346.959991" y1="302.959991" x2="285.959991" y2="579.960022" stroke="red" stroke-width="6.660000" />
<circle cx="120.959999" cy="975.960022" r="19.980000" fill="red">
  <title>Karachi</title>
</circle><line x1="285.959991" y1="579.960022" x2="120.959999" y2="975.960022" stroke="red" stroke-width="6.660000" />
<circle cx="234.959991" cy="1083.959961" r="19.980000" fill="red">
  <title>New York</title>
</circle><line x1="120.959999" y1="975.960022" x2="234.959991" y2="1083.959961" stroke="red" stroke-width="6.660000" />
<circle cx="585.960022" cy="1840.959961" r="19.980000" fill="red">
  <title>São Paulo</title>
</circle><line x1="234.959991" y1="1083.959961" x2="585.960022" y2="1840.959961" stroke="red" stroke-width="6.660000" />
<circle cx="1058.959961" cy="1083.959961" r="19.980000" fill="red">
  <title>Cairo</title>
</circle><line x1="585.960022" y1="1840.959961" x2="1058.959961" y2="1083.959961" stroke="red" stroke-width="6.660000" />
</svg>
