<?xml version="1.0" encoding="UTF-8" standalone="no"?>
<svg width="500" height="500" viewBox="0 0 2074.000000 2074.000000" xmlns="http://www.w3.org/2000/svg">
<rect x="19.000000" y="19.000000" width="2036.000000" height="2036.000000" fill="black" />
<circle cx="731.960022" cy="99.959999" r="19.980000" fill="red">
  <title>Tokyo</title>
</circle><line x1="1036.959961" y1="304.959991" x2="731.960022" y2="99.959999" stroke="red" stroke-width="6.660000" />
<circle cx="56.959999" cy="237.959991" r="19.980000" fill="red">
  <title>Karachi</title>
</circle><line x1="731.960022" y1="99.959999" x2="56.959999" y2="237.959991" stroke="red" stroke-width="6.660000" />
<circle cx="881.960022" cy="288.959991" r="19.980000" fill="red">
  <title>Kolkata</title>
</circle><line x1="56.959999" y1="237.959991" x2="881.960022" y2="288.959991" stroke="red" stroke-width="6.660000" />
<circle cx="1060.959961" cy="358.959991" r="19.980000" fill="red">
  <title>Dhaka</title>
</circle><line x1="881.960022" y1="288.959991" x2="1060.959961" y2="358.959991" stroke="red" stroke-width="6.660000" />
<circle cx="1047.959961" cy="597.960022" r="19.980000" fill="red">
  <title>Lagos</title>
</circle><line x1="1060.959961" y1="358.959991" x2="1047.959961" y2="597.960022" stroke="red" stroke-width="6.660000" />
<circle cx="1024.959961" cy="1348.959961" r="19.980000" fill="red">
  <title>Mexico City</title>
</circle><line x1="1047.959961" y1="597.960022" x2="1024.959961" y2="1348.959961" stroke="red" stroke-width="6.660000" />
<circle cx="957.960022" cy="1366.959961" r="19.980000" fill="red">
  <title>Mumbai</title>
</circle><line x1="1024.959961" y1="1348.959961" x2="957.960022" y2="1366.959961" stroke="red" stroke-width="6.660000" />
<circle cx="712.960022" cy="1804.959961" r="19.980000" fill="red">
  <title>Beijing</title>
</circle><line x1="957.960022" y1="1366.959961" x2="712.960022" y2="1804.959961" stroke="red" stroke-width="6.660000" />
<circle cx="956.960022" cy="1818.959961" r="19.980000" fill="red">
  <title>São Paulo</title>
</circle><line x1="712.960022" y1="1804.959961" x2="956.960022" y2="1818.959961" stroke="red" stroke-width="6.660000" />
<circle cx="1281.959961" cy="1557.959961" r="19.980000" fill="red">
  <title>Buenos Aires</title>
</circle><line x1="956.960022" y1="1818.959961" x2="1281.959961" y2="1557.959961" stroke="red" stroke-width="6.660000" />
<circle cx="1365.959961" cy="1157.959961" r="19.980000" fill="red">
  <title>Chongqing</title>
</circle><line x1="1281.959961" y1="1557.959961" x2="1365.959961" y2="1157.959961" stroke="red" stroke-width="6.660000" />
<circle cx="1433.959961" cy="1012.960022" r="19.980000" fill="red">
  <title>Osaka</title>
</circle><line x1="1365.959961" y1="1157.959961" x2="1433.959961" y2="1012.960022" stroke="red" stroke-width="6.660000" />
<circle cx="1595.959961" cy="976.960022" r="19.980000" fill="red">
  <title>Istanbul</title>
</circle><line x1="1433.959961" y1="1012.960022" x2="1595.959961" y2="976.960022" stroke="red" stroke-width="6.660000" />
<circle cx="1461.959961" cy="797.960022" r="19.980000" fill="red">
  <title>Delhi</title>
</circle><line x1="1595.959961" y1="976.960022" x2="1461.959961" y2="797.960022" stroke="red" stroke-width="6.660000" />
<circle cx="1598.959961" cy="454.959991" r="19.980000" fill="red">
  <title>Shanghai</title>
</circle><line x1="1461.959961" y1="797.960022" x2="1598.959961" y2="454.959991" stroke="red" stroke-width="6.660000" />
<circle cx="1514.959961" cy="211.959991" r="19.980000" fill="red">
  <title>Cairo</title>
</circle><line x1="1598.959961" y1="454.959991" x2="1514.959961" y2="211.959991" stroke="red" stroke-width="6.660000" />
<circle cx="1193.959961" cy="306.959991" r="19.980000" fill="red">
  <title>New York</title>
</circle><line x1="1514.959961" y1="211.959991" x2="1193.959961" y2="306.959991" stroke="red" stroke-width="6.660000" />
<circle cx="1036.959961" cy="304.959991" r="19.980000" fill="red">
  <title>Manila</title>
</circle><line x1="1193.959961" y1="306.959991" x2="1036.959961" y2="304.959991" stroke="red" stroke-width="6.660000" />
</svg>
