<?xml version="1.0" encoding="UTF-8" standalone="no"?>
<svg width="500" height="500" viewBox="0 0 2074.000000 2074.000000" xmlns="http://www.w3.org/2000/svg">
<rect x="19.000000" y="19.000000" width="2036.000000" height="2036.000000" fill="black" />
<circle cx="640.960022" cy="133.959991" r="19.980000" fill="red">
  <title>Tokyo</title>
</circle><line x1="247.959991" y1="1297.959961" x2="640.960022" y2="133.959991" stroke="red" stroke-width="6.660000" />
<circle cx="866.960022" cy="159.959991" r="19.980000" fill="red">
  <title>Delhi</title>
</circle><line x1="640.960022" y1="133.959991" x2="866.960022" y2="159.959991" stroke="red" stroke-width="6.660000" />
<circle cx="247.959991" cy="1297.959961" r="19.980000" fill="red">
  <title>Shanghai</title>
</circle><line x1="866.960022" y1="159.959991" x2="247.959991" y2="1297.959961" stroke="red" stroke-width="6.660000" />
</svg>
