<?xml version="1.0" encoding="UTF-8" standalone="no"?>
<svg width="500" height="500" viewBox="0 0 2074.000000 2074.000000" xmlns="http://www.w3.org/2000/svg">
<rect x="19.000000" y="19.000000" width="2036.000000" height="2036.000000" fill="black" />
<circle cx="160.959991" cy="407.959991" r="19.980000" fill="red">
  <title>Tokyo</title>
</circle><line x1="571.960022" y1="148.959991" x2="160.959991" y2="407.959991" stroke="red" stroke-width="6.660000" />
<circle cx="115.959999" cy="1036.959961" r="19.980000" fill="red">
  <title>Cairo</title>
</circle><line x1="160.959991" y1="407.959991" x2="115.959999" y2="1036.959961" stroke="red" stroke-width="6.660000" />
<circle cx="75.959999" cy="1419.959961" r="19.980000" fill="red">
  <title>Manila</title>
</circle><line x1="115.959999" y1="1036.959961" x2="75.959999" y2="1419.959961" stroke="red" stroke-width="6.660000" />
<circle cx="432.959991" cy="1739.959961" r="19.980000" fill="red">
  <title>Beijing</title>
</circle><line x1="75.959999" y1="1419.959961" x2="432.959991" y2="1739.959961" stroke="red" stroke-width="6.660000" />
<circle cx="418.959991" cy="1770.959961" r="19.980000" fill="red">
  <title>Karachi</title>
</circle><line x1="432.959991" y1="1739.959961" x2="418.959991" y2="1770.959961" stroke="red" stroke-width="6.660000" />
<circle cx="498.959991" cy="1994.959961" r="19.980000" fill="red">
  <title>Shanghai</title>
</circle><line x1="418.959991" y1="1770.959961" x2="498.959991" y2="1994.959961" stroke="red" stroke-width="6.660000" />
<circle cx="669.960022" cy="2005.959961" r="19.980000" fill="red">
  <title>Osaka</title>
</circle><line x1="498.959991" y1="1994.959961" x2="669.960022" y2="2005.959961" stroke="red" stroke-width="6.660000" />
<circle cx="1215.959961" cy="2014.959961" r="19.980000" fill="red">
  <title>New York</title>
</circle><line x1="669.960022" y1="2005.959961" x2="1215.959961" y2="2014.959961" stroke="red" stroke-width="6.660000" />
<circle cx="1853.959961" cy="1972.959961" r="19.980000" fill="red">
  <title>Kolkata</title>
</circle><line x1="1215.959961" y1="2014.959961" x2="1853.959961" y2="1972.959961" stroke="red" stroke-width="6.660000" />
<circle cx="1862.959961" cy="1953.959961" r="19.980000" fill="red">
  <title>Buenos Aires</title>
</circle><line x1="1853.959961" y1="1972.959961" x2="1862.959961" y2="1953.959961" stroke="red" stroke-width="6.660000" />
<circle cx="1851.959961" cy="1705.959961" r="19.980000" fill="red">
  <title>Istanbul</title>
</circle><line x1="1862.959961" y1="1953.959961" x2="1851.959961" y2="1705.959961" stroke="red" stroke-width="6.660000" />
<circle cx="1379.959961" cy="1575.959961" r="19.980000" fill="red">
  <title>Mumbai</title>
</circle><line x1="1851.959961" y1="1705.959961" x2="1379.959961" y2="1575.959961" stroke="red" stroke-width="6.660000" />
<circle cx="1604.959961" cy="1489.959961" r="19.980000" fill="red">
  <title>Delhi</title>
</circle><line x1="1379.959961" y1="1575.959961" x2="1604.959961" y2="1489.959961" stroke="red" stroke-width="6.660000" />
<circle cx="1424.959961" cy="534.960022" r="19.980000" fill="red">
  <title>Lagos</title>
</circle><line x1="1604.959961" y1="1489.959961" x2="1424.959961" y2="534.960022" stroke="red" stroke-width="6.660000" />
<circle cx="1613.959961" cy="322.959991" r="19.980000" fill="red">
  <title>São Paulo</title>
</circle><line x1="1424.959961" y1="534.960022" x2="1613.959961" y2="322.959991" stroke="red" stroke-width="6.660000" />
<circle cx="1496.959961" cy="96.959999" r="19.980000" fill="red">
  <title>Chongqing</title>
</circle><line x1="1613.959961" y1="322.959991" x2="1496.959961" y2="96.959999" stroke="red" stroke-width="6.660000" />
<circle cx="920.960022" cy="319.959991" r="19.980000" fill="red">
  <title>Mexico City</title>
</circle><line x1="1496.959961" y1="96.959999" x2="920.960022" y2="319.959991" stroke="red" stroke-width="6.660000" />
<circle cx="571.960022" cy="148.959991" r="19.980000" fill="red">
  <title>Dhaka</title>
</circle><line x1="920.960022" y1="319.959991" x2="571.960022" y2="148.959991" stroke="red" stroke-width="6.660000" />
</svg>
