<?xml version="1.0" encoding="UTF-8" standalone="no"?>
<svg width="500" height="500" viewBox="0 0 2074.000000 2074.000000" xmlns="http://www.w3.org/2000/svg">
<rect x="19.000000" y="19.000000" width="2036.000000" height="2036.000000" fill="black" />
<circle cx="822.960022" cy="812.960022" r="19.980000" fill="red">
  <title>Tokyo</title>
</circle><line x1="73.959999" y1="1986.959961" x2="822.960022" y2="812.960022" stroke="red" stroke-width="6.660000" />
<circle cx="358.959991" cy="57.959999" r="19.980000" fill="red">
  <title>Delhi</title>
</circle><line x1="822.960022" y1="812.960022" x2="358.959991" y2="57.959999" stroke="red" stroke-width="6.660000" />
<circle cx="407.959991" cy="42.959999" r="19.980000" fill="red">
  <title>Beijing</title>
</circle><line x1="358.959991" y1="57.959999" x2="407.959991" y2="42.959999" stroke="red" stroke-width="6.660000" />
<circle cx="810.960022" cy="237.959991" r="19.980000" fill="red">
  <title>Manila</title>
</circle><line x1="407.959991" y1="42.959999" x2="810.960022" y2="237.959991" stroke="red" stroke-width="6.660000" />
<circle cx="1394.959961" cy="221.959991" r="19.980000" fill="red">
  <title>Chongqing</title>
</circle><line x1="810.960022" y1="237.959991" x2="1394.959961" y2="221.959991" stroke="red" stroke-width="6.660000" />
<circle cx="1917.959961" cy="117.959999" r="19.980000" fill="red">
  <title>Kolkata</title>
</circle><line x1="1394.959961" y1="221.959991" x2="1917.959961" y2="117.959999" stroke="red" stroke-width="6.660000" />
<circle cx="1759.959961" cy="661.960022" r="19.980000" fill="red">
  <title>Cairo</title>
</circle><line x1="1917.959961" y1="117.959999" x2="1759.959961" y2="661.960022" stroke="red" stroke-width="6.660000" />
<circle cx="1092.959961" cy="744.960022" r="19.980000" fill="red">
  <title>Osaka</title>
</circle><line x1="1759.959961" y1="661.960022" x2="1092.959961" y2="744.960022" stroke="red" stroke-width="6.660000" />
<circle cx="1260.959961" cy="957.960022" r="19.980000" fill="red">
  <title>Shanghai</title>
</circle><line x1="1092.959961" y1="744.960022" x2="1260.959961" y2="957.960022" stroke="red" stroke-width="6.660000" />
<circle cx="1395.959961" cy="1001.960022" r="19.980000" fill="red">
  <title>Buenos Aires</title>
</circle><line x1="1260.959961" y1="957.960022" x2="1395.959961" y2="1001.960022" stroke="red" stroke-width="6.660000" />
<circle cx="1705.959961" cy="1307.959961" r="19.980000" fill="red">
  <title>São Paulo</title>
</circle><line x1="1395.959961" y1="1001.960022" x2="1705.959961" y2="1307.959961" stroke="red" stroke-width="6.660000" />
<circle cx="1557.959961" cy="1682.959961" r="19.980000" fill="red">
  <title>Mumbai</title>
</circle><line x1="1705.959961" y1="1307.959961" x2="1557.959961" y2="1682.959961" stroke="red" stroke-width="6.660000" />
<circle cx="1513.959961" cy="1884.959961" r="19.980000" fill="red">
  <title>New York</title>
</circle><line x1="1557.959961" y1="1682.959961" x2="1513.959961" y2="1884.959961" stroke="red" stroke-width="6.660000" />
<circle cx="1332.959961" cy="2036.959961" r="19.980000" fill="red">
  <title>Istanbul</title>
</circle><line x1="1513.959961" y1="1884.959961" x2="1332.959961" y2="2036.959961" stroke="red" stroke-width="6.660000" />
<circle cx="990.960022" cy="1993.959961" r="19.980000" fill="red">
  <title>Dhaka</title>
</circle><line x1="1332.959961" y1="2036.959961" x2="990.960022" y2="1993.959961" stroke="red" stroke-width="6.660000" />
<circle cx="197.959991" cy="2020.959961" r="19.980000" fill="red">
  <title>Karachi</title>
</circle><line x1="990.960022" y1="1993.959961" x2="197.959991" y2="2020.959961" stroke="red" stroke-width="6.660000" />
<circle cx="135.959991" cy="2032.959961" r="19.980000" fill="red">
  <title>Lagos</title>
</circle><line x1="197.959991" y1="2020.959961" x2="135.959991" y2="2032.959961" stroke="red" stroke-width="6.660000" />
<circle cx="73.959999" cy="1986.959961" r="19.980000" fill="red">
  <title>Mexico City</title>
</circle><line x1="135.959991" y1="2032.959961" x2="73.959999" y2="1986.959961" stroke="red" stroke-width="6.660000" />
</svg>
