<?xml version="1.0" encoding="UTF-8" standalone="no"?>
<svg width="500" height="500" viewBox="0 0 2074.000000 2074.000000" xmlns="http://www.w3.org/2000/svg">
<rect x="19.000000" y="19.000000" width="2036.000000" height="2036.000000" fill="black" />
<circle cx="824.960022" cy="1488.959961" r="19.980000" fill="red">
  <title>Tokyo</title>
</circle><line x1="1751.959961" y1="542.960022" x2="824.960022" y2="1488.959961" stroke="red" stroke-width="6.660000" />
<circle cx="144.959991" cy="1371.959961" r="19.980000" fill="red">
  <title>Shanghai</title>
</circle><line x1="824.960022" y1="1488.959961" x2="144.959991" y2="1371.959961" stroke="red" stroke-width="6.660000" />
<circle cx="308.959991" cy="113.959999" r="19.980000" fill="red">
  <title>Delhi</title>
</circle><line x1="144.959991" y1="1371.959961" x2="308.959991" y2="113.959999" stroke="red" stroke-width="6.660000" />
<circle cx="1751.959961" cy="542.960022" r="19.980000" fill="red">
  <title>São Paulo</title>
</circle><line x1="308.959991" y1="113.959999" x2="1751.959961" y2="542.960022" stroke="red" stroke-width="6.660000" />
</svg>
