<?xml version="1.0" encoding="UTF-8" standalone="no"?>
<svg width="500" height="500" viewBox="0 0 2074.000000 2074.000000" xmlns="http://www.w3.org/2000/svg">
<rect x="19.000000" y="19.000000" width="2036.000000" height="2036.000000" fill="black" />
<circle cx="2010.959961" cy="72.959999" r="19.980000" fill="red">
  <title>Tokyo</title>
</circle><line x1="281.959991" y1="817.960022" x2="2010.959961" y2="72.959999" stroke="red" stroke-width="6.660000" />
<circle cx="1961.959961" cy="670.960022" r="19.980000" fill="red">
  <title>Delhi</title>
</circle><line x1="2010.959961" y1="72.959999" x2="1961.959961" y2="670.960022" stroke="red" stroke-width="6.660000" />
<circle cx="835.960022" cy="1573.959961" r="19.980000" fill="red">
  <title>São Paulo</title>
</circle><line x1="1961.959961" y1="670.960022" x2="835.960022" y2="1573.959961" stroke="red" stroke-width="6.660000" />
<circle cx="281.959991" cy="817.960022" r="19.980000" fill="red">
  <title>Shanghai</title>
</circle><line x1="835.960022" y1="1573.959961" x2="281.959991" y2="817.960022" stroke="red" stroke-width="6.660000" />
</svg>
