<?xml version="1.0" encoding="UTF-8" standalone="no"?>
<svg width="500" height="500" viewBox="0 0 2074.000000 2074.000000" xmlns="http://www.w3.org/2000/svg">
<rect x="19.000000" y="19.000000" width="2036.000000" height="2036.000000" fill="black" />
<circle cx="1846.959961" cy="1249.959961" r="19.980000" fill="red">
  <title>Tokyo</title>
</circle><line x1="1033.959961" y1="1248.959961" x2="1846.959961" y2="1249.959961" stroke="red" stroke-width="6.660000" />
<circle cx="2030.959961" cy="271.959991" r="19.980000" fill="red">
  <title>Delhi</title>
</circle><line x1="1846.959961" y1="1249.959961" x2="2030.959961" y2="271.959991" stroke="red" stroke-width="6.660000" />
<circle cx="2013.959961" cy="215.959991" r="19.980000" fill="red">
  <title>Cairo</title>
</circle><line x1="2030.959961" y1="271.959991" x2="2013.959961" y2="215.959991" stroke="red" stroke-width="6.660000" />
<circle cx="1366.959961" cy="731.960022" r="19.980000" fill="red">
  <title>Dhaka</title>
</circle><line x1="2013.959961" y1="215.959991" x2="1366.959961" y2="731.960022" stroke="red" stroke-width="6.660000" />
<circle cx="1059.959961" cy="1169.959961" r="19.980000" fill="red">
  <title>Mexico City</title>
</circle><line x1="1366.959961" y1="731.960022" x2="1059.959961" y2="1169.959961" stroke="red" stroke-width="6.660000" />
<circle cx="740.960022" cy="1426.959961" r="19.980000" fill="red">
  <title>São Paulo</title>
</circle><line x1="1059.959961" y1="1169.959961" x2="740.960022" y2="1426.959961" stroke="red" stroke-width="6.660000" />
<circle cx="530.960022" cy="1387.959961" r="19.980000" fill="red">
  <title>Beijing</title>
</circle><line x1="740.960022" y1="1426.959961" x2="530.960022" y2="1387.959961" stroke="red" stroke-width="6.660000" />
<circle cx="618.960022" cy="1470.959961" r="19.980000" fill="red">
  <title>Mumbai</title>
</circle><line x1="530.960022" y1="1387.959961" x2="618.960022" y2="1470.959961" stroke="red" stroke-width="6.660000" />
<circle cx="1033.959961" cy="1248.959961" r="19.980000" fill="red">
  <title>Shanghai</title>
</circle><line x1="618.960022" y1="1470.959961" x2="1033.959961" y2="1248.959961" stroke="red" stroke-width="6.660000" />
</svg>
