<?xml version="1.0" encoding="UTF-8" standalone="no"?>
<svg width="500" height="500" viewBox="0 0 2074.000000 2074.000000" xmlns="http://www.w3.org/2000/svg">
<rect x="19.000000" y="19.000000" width="2036.000000" height="2036.000000" fill="black" />
<circle cx="1504.959961" cy="449.959991" r="19.980000" fill="red">
  <title>Tokyo</title>
</circle><line x1="1928.959961" y1="1666.959961" x2="1504.959961" y2="449.959991" stroke="red" stroke-width="6.660000" />
<circle cx="1364.959961" cy="207.959991" r="19.980000" fill="red">
  <title>Mexico City</title>
</circle><line x1="1504.959961" y1="449.959991" x2="1364.959961" y2="207.959991" stroke="red" stroke-width="6.660000" />
<circle cx="1087.959961" cy="132.959991" r="19.980000" fill="red">
  <title>Shanghai</title>
</circle><line x1="1364.959961" y1="207.959991" x2="1087.959961" y2="132.959991" stroke="red" stroke-width="6.660000" />
<circle cx="1018.960022" cy="405.959991" r="19.980000" fill="red">
  <title>São Paulo</title>
</circle><line x1="1087.959961" y1="132.959991" x2="1018.960022" y2="405.959991" stroke="red" stroke-width="6.660000" />
<circle cx="275.959991" cy="137.959991" r="19.980000" fill="red">
  <title>Delhi</title>
</circle><line x1="1018.960022" y1="405.959991" x2="275.959991" y2="137.959991" stroke="red" stroke-width="6.660000" />
<circle cx="886.960022" cy="586.960022" r="19.980000" fill="red">
  <title>Karachi</title>
</circle><line x1="275.959991" y1="137.959991" x2="886.960022" y2="586.960022" stroke="red" stroke-width="6.660000" />
<circle cx="667.960022" cy="1102.959961" r="19.980000" fill="red">
  <title>New York</title>
</circle><line x1="886.960022" y1="586.960022" x2="667.960022" y2="1102.959961" stroke="red" stroke-width="6.660000" />
<circle cx="526.960022" cy="1078.959961" r="19.980000" fill="red">
  <title>Osaka</title>
</circle><line x1="667.960022" y1="1102.959961" x2="526.960022" y2="1078.959961" stroke="red" stroke-width="6.660000" />
<circle cx="522.960022" cy="1477.959961" r="19.980000" fill="red">
  <title>Buenos Aires</title>
</circle><line x1="526.960022" y1="1078.959961" x2="522.960022" y2="1477.959961" stroke="red" stroke-width="6.660000" />
<circle cx="458.959991" cy="1856.959961" r="19.980000" fill="red">
  <title>Dhaka</title>
</circle><line x1="522.960022" y1="1477.959961" x2="458.959991" y2="1856.959961" stroke="red" stroke-width="6.660000" />
<circle cx="122.959999" cy="1917.959961" r="19.980000" fill="red">
  <title>Istanbul</title>
</circle><line x1="458.959991" y1="1856.959961" x2="122.959999" y2="1917.959961" stroke="red" stroke-width="6.660000" />
<circle cx="261.959991" cy="1988.959961" r="19.980000" fill="red">
  <title>Mumbai</title>
</circle><line x1="122.959999" y1="1917.959961" x2="261.959991" y2="1988.959961" stroke="red" stroke-width="6.660000" />
<circle cx="419.959991" cy="1991.959961" r="19.980000" fill="red">
  <title>Cairo</title>
</circle><line x1="261.959991" y1="1988.959961" x2="419.959991" y2="1991.959961" stroke="red" stroke-width="6.660000" />
<circle cx="1359.959961" cy="1842.959961" r="19.980000" fill="red">
  <title>Beijing</title>
</circle><line x1="419.959991" y1="1991.959961" x2="1359.959961" y2="1842.959961" stroke="red" stroke-width="6.660000" />
<circle cx="1928.959961" cy="1666.959961" r="19.980000" fill="red">
  <title>Chongqing</title>
</circle><line x1="1359.959961" y1="1842.959961" x2="1928.959961" y2="1666.959961" stroke="red" stroke-width="6.660000" />
</svg>
