<?xml version="1.0" encoding="UTF-8" standalone="no"?>
<svg width="500" height="500" viewBox="0 0 2074.000000 2074.000000" xmlns="http://www.w3.org/2000/svg">
<rect x="19.000000" y="19.000000" width="2036.000000" height="2036.000000" fill="black" />
<circle cx="940.960022" cy="1125.959961" r="19.980000" fill="red">
  <title>Tokyo</title>
</circle><line x1="309.959991" y1="1414.959961" x2="940.960022" y2="1125.959961" stroke="red" stroke-width="6.660000" />
<circle cx="2031.959961" cy="266.959991" r="19.980000" fill="red">
  <title>Cairo</title>
</circle><line x1="940.960022" y1="1125.959961" x2="2031.959961" y2="266.959991" stroke="red" stroke-width="6.660000" />
<circle cx="832.960022" cy="160.959991" r="19.980000" fill="red">
  <title>Dhaka</title>
</circle><line x1="2031.959961" y1="266.959991" x2="832.960022" y2="160.959991" stroke="red" stroke-width="6.660000" />
<circle cx="513.960022" cy="267.959991" r="19.980000" fill="red">
  <title>Mumbai</title>
</circle><line x1="832.960022" y1="160.959991" x2="513.960022" y2="267.959991" stroke="red" stroke-width="6.660000" />
<circle cx="138.959991" cy="756.960022" r="19.980000" fill="red">
  <title>Mexico City</title>
</circle><line x1="513.960022" y1="267.959991" x2="138.959991" y2="756.960022" stroke="red" stroke-width="6.660000" />
<circle cx="350.959991" cy="935.960022" r="19.980000" fill="red">
  <title>Shanghai</title>
</circle><line x1="138.959991" y1="756.960022" x2="350.959991" y2="935.960022" stroke="red" stroke-width="6.660000" />
<circle cx="199.959991" cy="1366.959961" r="19.980000" fill="red">
  <title>São Paulo</title>
</circle><line x1="350.959991" y1="935.960022" x2="199.959991" y2="1366.959961" stroke="red" stroke-width="6.660000" />
<circle cx="144.959991" cy="1730.959961" r="19.980000" fill="red">
  <title>Osaka</title>
</circle><line x1="199.959991" y1="1366.959961" x2="144.959991" y2="1730.959961" stroke="red" stroke-width="6.660000" />
<circle cx="122.959999" cy="1996.959961" r="19.980000" fill="red">
  <title>Delhi</title>
</circle><line x1="144.959991" y1="1730.959961" x2="122.959999" y2="1996.959961" stroke="red" stroke-width="6.660000" />
<circle cx="309.959991" cy="1414.959961" r="19.980000" fill="red">
  <title>Beijing</title>
</circle><line x1="122.959999" y1="1996.959961" x2="309.959991" y2="1414.959961" stroke="red" stroke-width="6.660000" />
</svg>
