<?xml version="1.0" encoding="UTF-8" standalone="no"?>
<svg width="500" height="500" viewBox="0 0 2074.000000 2074.000000" xmlns="http://www.w3.org/2000/svg">
<rect x="19.000000" y="19.000000" width="2036.000000" height="2036.000000" fill="black" />
<circle cx="1377.959961" cy="1438.959961" r="19.980000" fill="red">
  <title>Tokyo</title>
</circle><line x1="748.960022" y1="604.960022" x2="1377.959961" y2="1438.959961" stroke="red" stroke-width="6.660000" />
<circle cx="1428.959961" cy="1607.959961" r="19.980000" fill="red">
  <title>Delhi</title>
</circle><line x1="1377.959961" y1="1438.959961" x2="1428.959961" y2="1607.959961" stroke="red" stroke-width="6.660000" />
<circle cx="780.960022" cy="843.960022" r="19.980000" fill="red">
  <title>São Paulo</title>
</circle><line x1="1428.959961" y1="1607.959961" x2="780.960022" y2="843.960022" stroke="red" stroke-width="6.660000" />
<circle cx="748.960022" cy="604.960022" r="19.980000" fill="red">
  <title>Shanghai</title>
</circle><line x1="780.960022" y1="843.960022" x2="748.960022" y2="604.960022" stroke="red" stroke-width="6.660000" />
</svg>
