<?xml version="1.0" encoding="UTF-8" standalone="no"?>
<svg width="500" height="500" viewBox="0 0 2074.000000 2074.000000" xmlns="http://www.w3.org/2000/svg">
<rect x="19.000000" y="19.000000" width="2036.000000" height="2036.000000" fill="black" />
<circle cx="1780.959961" cy="197.959991" r="19.980000" fill="red">
  <title>Tokyo</title>
</circle><line x1="1624.959961" y1="193.959991" x2="1780.959961" y2="197.959991" stroke="red" stroke-width="6.660000" />
<circle cx="1875.959961" cy="422.959991" r="19.980000" fill="red">
  <title>Shanghai</title>
</circle><line x1="1780.959961" y1="197.959991" x2="1875.959961" y2="422.959991" stroke="red" stroke-width="6.660000" />
<circle cx="1716.959961" cy="712.960022" r="19.980000" fill="red">
  <title>Cairo</title>
</circle><line x1="1875.959961" y1="422.959991" x2="1716.959961" y2="712.960022" stroke="red" stroke-width="6.660000" />
<circle cx="1020.960022" cy="1163.959961" r="19.980000" fill="red">
  <title>Beijing</title>
</circle><line x1="1716.959961" y1="712.960022" x2="1020.960022" y2="1163.959961" stroke="red" stroke-width="6.660000" />
<circle cx="901.960022" cy="1176.959961" r="19.980000" fill="red">
  <title>Delhi</title>
</circle><line x1="1020.960022" y1="1163.959961" x2="901.960022" y2="1176.959961" stroke="red" stroke-width="6.660000" />
<circle cx="856.960022" cy="1950.959961" r="19.980000" fill="red">
  <title>New York</title>
</circle><line x1="901.960022" y1="1176.959961" x2="856.960022" y2="1950.959961" stroke="red" stroke-width="6.660000" />
<circle cx="833.960022" cy="1194.959961" r="19.980000" fill="red">
  <title>Mexico City</title>
</circle><line x1="856.960022" y1="1950.959961" x2="833.960022" y2="1194.959961" stroke="red" stroke-width="6.660000" />
<circle cx="550.960022" cy="803.960022" r="19.980000" fill="red">
  <title>Osaka</title>
</circle><line x1="833.960022" y1="1194.959961" x2="550.960022" y2="803.960022" stroke="red" stroke-width="6.660000" />
<circle cx="797.960022" cy="525.960022" r="19.980000" fill="red">
  <title>Dhaka</title>
</circle><line x1="550.960022" y1="803.960022" x2="797.960022" y2="525.960022" stroke="red" stroke-width="6.660000" />
<circle cx="1554.959961" cy="116.959999" r="19.980000" fill="red">
  <title>São Paulo</title>
</circle><line x1="797.960022" y1="525.960022" x2="1554.959961" y2="116.959999" stroke="red" stroke-width="6.660000" />
<circle cx="1624.959961" cy="193.959991" r="19.980000" fill="red">
  <title>Mumbai</title>
</circle><line x1="1554.959961" y1="116.959999" x2="1624.959961" y2="193.959991" stroke="red" stroke-width="6.660000" />
</svg>
