<?xml version="1.0" encoding="UTF-8" standalone="no"?>
<svg width="500" height="500" viewBox="0 0 2074.000000 2074.000000" xmlns="http://www.w3.org/2000/svg">
<rect x="19.000000" y="19.000000" width="2036.000000" height="2036.000000" fill="black" />
<circle cx="489.959991" cy="376.959991" r="19.980000" fill="red">
  <title>Tokyo</title>
</circle><line x1="229.959991" y1="863.960022" x2="489.959991" y2="376.959991" stroke="red" stroke-width="6.660000" />
<circle cx="687.960022" cy="97.959999" r="19.980000" fill="red">
  <title>Mexico City</title>
</circle><line x1="489.959991" y1="376.959991" x2="687.960022" y2="97.959999" stroke="red" stroke-width="6.660000" />
<circle cx="1092.959961" cy="275.959991" r="19.980000" fill="red">
  <title>New York</title>
</circle><line x1="687.960022" y1="97.959999" x2="1092.959961" y2="275.959991" stroke="red" stroke-width="6.660000" />
<circle cx="1290.959961" cy="271.959991" r="19.980000" fill="red">
  <title>Mumbai</title>
</circle><line x1="1092.959961" y1="275.959991" x2="1290.959961" y2="271.959991" stroke="red" stroke-width="6.660000" />
<circle cx="1798.959961" cy="195.959991" r="19.980000" fill="red">
  <title>Cairo</title>
</circle><line x1="1290.959961" y1="271.959991" x2="1798.959961" y2="195.959991" stroke="red" stroke-width="6.660000" />
<circle cx="1866.959961" cy="379.959991" r="19.980000" fill="red">
  <title>Buenos Aires</title>
</circle><line x1="1798.959961" y1="195.959991" x2="1866.959961" y2="379.959991" stroke="red" stroke-width="6.660000" />
<circle cx="1768.959961" cy="743.960022" r="19.980000" fill="red">
  <title>Beijing</title>
</circle><line x1="1866.959961" y1="379.959991" x2="1768.959961" y2="743.960022" stroke="red" stroke-width="6.660000" />
<circle cx="1609.959961" cy="1935.959961" r="19.980000" fill="red">
  <title>Shanghai</title>
</circle><line x1="1768.959961" y1="743.960022" x2="1609.959961" y2="1935.959961" stroke="red" stroke-width="6.660000" />
<circle cx="884.960022" cy="1768.959961" r="19.980000" fill="red">
  <title>Karachi</title>
</circle><line x1="1609.959961" y1="1935.959961" x2="884.960022" y2="1768.959961" stroke="red" stroke-width="6.660000" />
<circle cx="529.960022" cy="1503.959961" r="19.980000" fill="red">
  <title>Delhi</title>
</circle><line x1="884.960022" y1="1768.959961" x2="529.960022" y2="1503.959961" stroke="red" stroke-width="6.660000" />
<circle cx="669.960022" cy="1449.959961" r="19.980000" fill="red">
  <title>São Paulo</title>
</circle><line x1="529.960022" y1="1503.959961" x2="669.960022" y2="1449.959961" stroke="red" stroke-width="6.660000" />
<circle cx="841.960022" cy="1326.959961" r="19.980000" fill="red">
  <title>Dhaka</title>
</circle><line x1="669.960022" y1="1449.959961" x2="841.960022" y2="1326.959961" stroke="red" stroke-width="6.660000" />
<circle cx="649.960022" cy="1263.959961" r="19.980000" fill="red">
  <title>Kolkata</title>
</circle><line x1="841.960022" y1="1326.959961" x2="649.960022" y2="1263.959961" stroke="red" stroke-width="6.660000" />
<circle cx="813.960022" cy="847.960022" r="19.980000" fill="red">
  <title>Istanbul</title>
</circle><line x1="649.960022" y1="1263.959961" x2="813.960022" y2="847.960022" stroke="red" stroke-width="6.660000" />
<circle cx="527.960022" cy="1120.959961" r="19.980000" fill="red">
  <title>Chongqing</title>
</circle><line x1="813.960022" y1="847.960022" x2="527.960022" y2="1120.959961" stroke="red" stroke-width="6.660000" />
<circle cx="229.959991" cy="863.960022" r="19.980000" fill="red">
  <title>Osaka</title>
</circle><line x1="527.960022" y1="1120.959961" x2="229.959991" y2="863.960022" stroke="red" stroke-width="6.660000" />
</svg>
