<?xml version="1.0" encoding="UTF-8" standalone="no"?>
<svg width="500" height="500" viewBox="0 0 2074.000000 2074.000000" xmlns="http://www.w3.org/2000/svg">
<rect x="19.000000" y="19.000000" width="2036.000000" height="2036.000000" fill="black" />
<circle cx="1183.959961" cy="1793.959961" r="19.980000" fill="red">
  <title>Tokyo</title>
</circle><line x1="334.959991" y1="1921.959961" x2="1183.959961" y2="1793.959961" stroke="red" stroke-width="6.660000" />
<circle cx="1315.959961" cy="1675.959961" r="19.980000" fill="red">
  <title>Beijing</title>
</circle><line x1="1183.959961" y1="1793.959961" x2="1315.959961" y2="1675.959961" stroke="red" stroke-width="6.660000" />
<circle cx="1658.959961" cy="1527.959961" r="19.980000" fill="red">
  <title>Dhaka</title>
</circle><line x1="1315.959961" y1="1675.959961" x2="1658.959961" y2="1527.959961" stroke="red" stroke-width="6.660000" />
<circle cx="2035.959961" cy="1631.959961" r="19.980000" fill="red">
  <title>New York</title>
</circle><line x1="1658.959961" y1="1527.959961" x2="2035.959961" y2="1631.959961" stroke="red" stroke-width="6.660000" />
<circle cx="1938.959961" cy="894.960022" r="19.980000" fill="red">
  <title>Karachi</title>
</circle><line x1="2035.959961" y1="1631.959961" x2="1938.959961" y2="894.960022" stroke="red" stroke-width="6.660000" />
<circle cx="1439.959961" cy="912.960022" r="19.980000" fill="red">
  <title>Shanghai</title>
</circle><line x1="1938.959961" y1="894.960022" x2="1439.959961" y2="912.960022" stroke="red" stroke-width="6.660000" />
<circle cx="1450.959961" cy="580.960022" r="19.980000" fill="red">
  <title>Buenos Aires</title>
</circle><line x1="1439.959961" y1="912.960022" x2="1450.959961" y2="580.960022" stroke="red" stroke-width="6.660000" />
<circle cx="1261.959961" cy="584.960022" r="19.980000" fill="red">
  <title>Istanbul</title>
</circle><line x1="1450.959961" y1="580.960022" x2="1261.959961" y2="584.960022" stroke="red" stroke-width="6.660000" />
<circle cx="1150.959961" cy="216.959991" r="19.980000" fill="red">
  <title>Osaka</title>
</circle><line x1="1261.959961" y1="584.960022" x2="1150.959961" y2="216.959991" stroke="red" stroke-width="6.660000" />
<circle cx="823.960022" cy="296.959991" r="19.980000" fill="red">
  <title>Chongqing</title>
</circle><line x1="1150.959961" y1="216.959991" x2="823.960022" y2="296.959991" stroke="red" stroke-width="6.660000" />
<circle cx="189.959991" cy="224.959991" r="19.980000" fill="red">
  <title>Mumbai</title>
</circle><line x1="823.960022" y1="296.959991" x2="189.959991" y2="224.959991" stroke="red" stroke-width="6.660000" />
<circle cx="192.959991" cy="234.959991" r="19.980000" fill="red">
  <title>Cairo</title>
</circle><line x1="189.959991" y1="224.959991" x2="192.959991" y2="234.959991" stroke="red" stroke-width="6.660000" />
<circle cx="1044.959961" cy="778.960022" r="19.980000" fill="red">
  <title>São Paulo</title>
</circle><line x1="192.959991" y1="234.959991" x2="1044.959961" y2="778.960022" stroke="red" stroke-width="6.660000" />
<circle cx="1211.959961" cy="1296.959961" r="19.980000" fill="red">
  <title>Delhi</title>
</circle><line x1="1044.959961" y1="778.960022" x2="1211.959961" y2="1296.959961" stroke="red" stroke-width="6.660000" />
<circle cx="334.959991" cy="1921.959961" r="19.980000" fill="red">
  <title>Mexico City</title>
</circle><line x1="1211.959961" y1="1296.959961" x2="334.959991" y2="1921.959961" stroke="red" stroke-width="6.660000" />
</svg>
