<?xml version="1.0" encoding="UTF-8" standalone="no"?>
<svg width="500" height="500" viewBox="0 0 2074.000000 2074.000000" xmlns="http://www.w3.org/2000/svg">
<rect x="19.000000" y="19.000000" width="2036.000000" height="2036.000000" fill="black" />
<circle cx="1585.959961" cy="523.960022" r="19.980000" fill="red">
  <title>Tokyo</title>
</circle><line x1="1737.959961" y1="1177.959961" x2="1585.959961" y2="523.960022" stroke="red" stroke-width="6.660000" />
<circle cx="1025.959961" cy="212.959991" r="19.980000" fill="red">
  <title>New York</title>
</circle><line x1="1585.959961" y1="523.960022" x2="1025.959961" y2="212.959991" stroke="red" stroke-width="6.660000" />
<circle cx="371.959991" cy="208.959991" r="19.980000" fill="red">
  <title>Beijing</title>
</circle><line x1="1025.959961" y1="212.959991" x2="371.959991" y2="208.959991" stroke="red" stroke-width="6.660000" />
<circle cx="301.959991" cy="486.959991" r="19.980000" fill="red">
  <title>Mumbai</title>
</circle><line x1="371.959991" y1="208.959991" x2="301.959991" y2="486.959991" stroke="red" stroke-width="6.660000" />
<circle cx="634.960022" cy="986.960022" r="19.980000" fill="red">
  <title>Buenos Aires</title>
</circle><line x1="301.959991" y1="486.959991" x2="634.960022" y2="986.960022" stroke="red" stroke-width="6.660000" />
<circle cx="859.960022" cy="1013.960022" r="19.980000" fill="red">
  <title>Delhi</title>
</circle><line x1="634.960022" y1="986.960022" x2="859.960022" y2="1013.960022" stroke="red" stroke-width="6.660000" />
<circle cx="559.960022" cy="1368.959961" r="19.980000" fill="red">
  <title>Karachi</title>
</circle><line x1="859.960022" y1="1013.960022" x2="559.960022" y2="1368.959961" stroke="red" stroke-width="6.660000" />
<circle cx="293.959991" cy="1459.959961" r="19.980000" fill="red">
  <title>Dhaka</title>
</circle><line x1="559.960022" y1="1368.959961" x2="293.959991" y2="1459.959961" stroke="red" stroke-width="6.660000" />
<circle cx="971.960022" cy="1899.959961" r="19.980000" fill="red">
  <title>São Paulo</title>
</circle><line x1="293.959991" y1="1459.959961" x2="971.960022" y2="1899.959961" stroke="red" stroke-width="6.660000" />
<circle cx="1149.959961" cy="1669.959961" r="19.980000" fill="red">
  <title>Mexico City</title>
</circle><line x1="971.960022" y1="1899.959961" x2="1149.959961" y2="1669.959961" stroke="red" stroke-width="6.660000" />
<circle cx="1749.959961" cy="1557.959961" r="19.980000" fill="red">
  <title>Osaka</title>
</circle><line x1="1149.959961" y1="1669.959961" x2="1749.959961" y2="1557.959961" stroke="red" stroke-width="6.660000" />
<circle cx="1980.959961" cy="1212.959961" r="19.980000" fill="red">
  <title>Shanghai</title>
</circle><line x1="1749.959961" y1="1557.959961" x2="1980.959961" y2="1212.959961" stroke="red" stroke-width="6.660000" />
<circle cx="1737.959961" cy="1177.959961" r="19.980000" fill="red">
  <title>Cairo</title>
</circle><line x1="1980.959961" y1="1212.959961" x2="1737.959961" y2="1177.959961" stroke="red" stroke-width="6.660000" />
</svg>
