<?xml version="1.0" encoding="UTF-8" standalone="no"?>
<svg width="500" height="500" viewBox="0 0 2074.000000 2074.000000" xmlns="http://www.w3.org/2000/svg">
<rect x="19.000000" y="19.000000" width="2036.000000" height="2036.000000" fill="black" />
<circle cx="679.960022" cy="618.960022" r="19.980000" fill="red">
  <title>Tokyo</title>
</circle><line x1="199.959991" y1="291.959991" x2="679.960022" y2="618.960022" stroke="red" stroke-width="6.660000" />
<circle cx="788.960022" cy="47.959999" r="19.980000" fill="red">
  <title>São Paulo</title>
</circle><line x1="679.960022" y1="618.960022" x2="788.960022" y2="47.959999" stroke="red" stroke-width="6.660000" />
<circle cx="923.960022" cy="197.959991" r="19.980000" fill="red">
  <title>Buenos Aires</title>
</circle><line x1="788.960022" y1="47.959999" x2="923.960022" y2="197.959991" stroke="red" stroke-width="6.660000" />
<circle cx="1323.959961" cy="418.959991" r="19.980000" fill="red">
  <title>Rio de Janeiro</title>
</circle><line x1="923.960022" y1="197.959991" x2="1323.959961" y2="418.959991" stroke="red" stroke-width="6.660000" />
<circle cx="1668.959961" cy="123.959999" r="19.980000" fill="red">
  <title>Lagos</title>
</circle><line x1="1323.959961" y1="418.959991" x2="1668.959961" y2="123.959999" stroke="red" stroke-width="6.660000" />
<circle cx="1598.959961" cy="669.960022" r="19.980000" fill="red">
  <title>Mumbai</title>
</circle><line x1="1668.959961" y1="123.959999" x2="1598.959961" y2="669.960022" stroke="red" stroke-width="6.660000" />
<circle cx="1318.959961" cy="606.960022" r="19.980000" fill="red">
  <title>Chongqing</title>
</circle><line x1="1598.959961" y1="669.960022" x2="1318.959961" y2="606.960022" stroke="red" stroke-width="6.660000" />
<circle cx="1270.959961" cy="951.960022" r="19.980000" fill="red">
  <title>Istanbul</title>
</circle><line x1="1318.959961" y1="606.960022" x2="1270.959961" y2="951.960022" stroke="red" stroke-width="6.660000" />
<circle cx="1407.959961" cy="1145.959961" r="19.980000" fill="red">
  <title>Cairo</title>
</circle><line x1="1270.959961" y1="951.960022" x2="1407.959961" y2="1145.959961" stroke="red" stroke-width="6.660000" />
<circle cx="1530.959961" cy="1542.959961" r="19.980000" fill="red">
  <title>Manila</title>
</circle><line x1="1407.959961" y1="1145.959961" x2="1530.959961" y2="1542.959961" stroke="red" stroke-width="6.660000" />
<circle cx="1726.959961" cy="1812.959961" r="19.980000" fill="red">
  <title>Dhaka</title>
</circle><line x1="1530.959961" y1="1542.959961" x2="1726.959961" y2="1812.959961" stroke="red" stroke-width="6.660000" />
<circle cx="1142.959961" cy="1643.959961" r="19.980000" fill="red">
  <title>Karachi</title>
</circle><line x1="1726.959961" y1="1812.959961" x2="1142.959961" y2="1643.959961" stroke="red" stroke-width="6.660000" />
<circle cx="1029.959961" cy="1795.959961" r="19.980000" fill="red">
  <title>Delhi</title>
</circle><line x1="1142.959961" y1="1643.959961" x2="1029.959961" y2="1795.959961" stroke="red" stroke-width="6.660000" />
<circle cx="631.960022" cy="1818.959961" r="19.980000" fill="red">
  <title>Shanghai</title>
</circle><line x1="1029.959961" y1="1795.959961" x2="631.960022" y2="1818.959961" stroke="red" stroke-width="6.660000" />
<circle cx="552.960022" cy="1911.959961" r="19.980000" fill="red">
  <title>Kolkata</title>
</circle><line x1="631.960022" y1="1818.959961" x2="552.960022" y2="1911.959961" stroke="red" stroke-width="6.660000" />
<circle cx="375.959991" cy="1785.959961" r="19.980000" fill="red">
  <title>Mexico City</title>
</circle><line x1="552.960022" y1="1911.959961" x2="375.959991" y2="1785.959961" stroke="red" stroke-width="6.660000" />
<circle cx="222.959991" cy="1852.959961" r="19.980000" fill="red">
  <title>Osaka</title>
</circle><line x1="375.959991" y1="1785.959961" x2="222.959991" y2="1852.959961" stroke="red" stroke-width="6.660000" />
<circle cx="132.959991" cy="1660.959961" r="19.980000" fill="red">
  <title>Tianjin</title>
</circle><line x1="222.959991" y1="1852.959961" x2="132.959991" y2="1660.959961" stroke="red" stroke-width="6.660000" />
<circle cx="110.959999" cy="911.960022" r="19.980000" fill="red">
  <title>Beijing</title>
</circle><line x1="132.959991" y1="1660.959961" x2="110.959999" y2="911.960022" stroke="red" stroke-width="6.660000" />
<circle cx="199.959991" cy="291.959991" r="19.980000" fill="red">
  <title>New York</title>
</circle><line x1="110.959999" y1="911.960022" x2="199.959991" y2="291.959991" stroke="red" stroke-width="6.660000" />
</svg>
