<?xml version="1.0" encoding="UTF-8" standalone="no"?>
<svg width="500" height="500" viewBox="0 0 2074.000000 2074.000000" xmlns="http://www.w3.org/2000/svg">
<rect x="19.000000" y="19.000000" width="2036.000000" height="2036.000000" fill="black" />
<circle cx="996.960022" cy="775.960022" r="19.980000" fill="red">
  <title>Tokyo</title>
</circle><line x1="1181.959961" y1="1229.959961" x2="996.960022" y2="775.960022" stroke="red" stroke-width="6.660000" />
<circle cx="570.960022" cy="911.960022" r="19.980000" fill="red">
  <title>Beijing</title>
</circle><line x1="996.960022" y1="775.960022" x2="570.960022" y2="911.960022" stroke="red" stroke-width="6.660000" />
<circle cx="91.959999" cy="733.960022" r="19.980000" fill="red">
  <title>Mexico City</title>
</circle><line x1="570.960022" y1="911.960022" x2="91.959999" y2="733.960022" stroke="red" stroke-width="6.660000" />
<circle cx="848.960022" cy="679.960022" r="19.980000" fill="red">
  <title>Osaka</title>
</circle><line x1="91.959999" y1="733.960022" x2="848.960022" y2="679.960022" stroke="red" stroke-width="6.660000" />
<circle cx="1061.959961" cy="320.959991" r="19.980000" fill="red">
  <title>Chongqing</title>
</circle><line x1="848.960022" y1="679.960022" x2="1061.959961" y2="320.959991" stroke="red" stroke-width="6.660000" />
<circle cx="1233.959961" cy="233.959991" r="19.980000" fill="red">
  <title>Mumbai</title>
</circle><line x1="1061.959961" y1="320.959991" x2="1233.959961" y2="233.959991" stroke="red" stroke-width="6.660000" />
<circle cx="1399.959961" cy="369.959991" r="19.980000" fill="red">
  <title>Buenos Aires</title>
</circle><line x1="1233.959961" y1="233.959991" x2="1399.959961" y2="369.959991" stroke="red" stroke-width="6.660000" />
<circle cx="1639.959961" cy="385.959991" r="19.980000" fill="red">
  <title>São Paulo</title>
</circle><line x1="1399.959961" y1="369.959991" x2="1639.959961" y2="385.959991" stroke="red" stroke-width="6.660000" />
<circle cx="1604.959961" cy="621.960022" r="19.980000" fill="red">
  <title>Delhi</title>
</circle><line x1="1639.959961" y1="385.959991" x2="1604.959961" y2="621.960022" stroke="red" stroke-width="6.660000" />
<circle cx="1532.959961" cy="667.960022" r="19.980000" fill="red">
  <title>Shanghai</title>
</circle><line x1="1604.959961" y1="621.960022" x2="1532.959961" y2="667.960022" stroke="red" stroke-width="6.660000" />
<circle cx="1529.959961" cy="1245.959961" r="19.980000" fill="red">
  <title>Cairo</title>
</circle><line x1="1532.959961" y1="667.960022" x2="1529.959961" y2="1245.959961" stroke="red" stroke-width="6.660000" />
<circle cx="1593.959961" cy="2034.959961" r="19.980000" fill="red">
  <title>Karachi</title>
</circle><line x1="1529.959961" y1="1245.959961" x2="1593.959961" y2="2034.959961" stroke="red" stroke-width="6.660000" />
<circle cx="1101.959961" cy="1979.959961" r="19.980000" fill="red">
  <title>Dhaka</title>
</circle><line x1="1593.959961" y1="2034.959961" x2="1101.959961" y2="1979.959961" stroke="red" stroke-width="6.660000" />
<circle cx="1181.959961" cy="1229.959961" r="19.980000" fill="red">
  <title>New York</title>
</circle><line x1="1101.959961" y1="1979.959961" x2="1181.959961" y2="1229.959961" stroke="red" stroke-width="6.660000" />
</svg>
