<?xml version="1.0" encoding="UTF-8" standalone="no"?>
<svg width="500" height="500" viewBox="0 0 2074.000000 2074.000000" xmlns="http://www.w3.org/2000/svg">
<rect x="19.000000" y="19.000000" width="2036.000000" height="2036.000000" fill="black" />
<circle cx="1285.959961" cy="990.960022" r="19.980000" fill="red">
  <title>Tokyo</title>
</circle><line x1="657.960022" y1="1477.959961" x2="1285.959961" y2="990.960022" stroke="red" stroke-width="6.660000" />
<circle cx="605.960022" cy="205.959991" r="19.980000" fill="red">
  <title>Cairo</title>
</circle><line x1="1285.959961" y1="990.960022" x2="605.960022" y2="205.959991" stroke="red" stroke-width="6.660000" />
<circle cx="393.959991" cy="982.960022" r="19.980000" fill="red">
  <title>Delhi</title>
</circle><line x1="605.960022" y1="205.959991" x2="393.959991" y2="982.960022" stroke="red" stroke-width="6.660000" />
<circle cx="531.960022" cy="1419.959961" r="19.980000" fill="red">
  <title>São Paulo</title>
</circle><line x1="393.959991" y1="982.960022" x2="531.960022" y2="1419.959961" stroke="red" stroke-width="6.660000" />
<circle cx="315.959991" cy="1583.959961" r="19.980000" fill="red">
  <title>Shanghai</title>
</circle><line x1="531.960022" y1="1419.959961" x2="315.959991" y2="1583.959961" stroke="red" stroke-width="6.660000" />
<circle cx="612.960022" cy="1587.959961" r="19.980000" fill="red">
  <title>Mexico City</title>
</circle><line x1="315.959991" y1="1583.959961" x2="612.960022" y2="1587.959961" stroke="red" stroke-width="6.660000" />
<circle cx="657.960022" cy="1477.959961" r="19.980000" fill="red">
  <title>Mumbai</title>
</circle><line x1="612.960022" y1="1587.959961" x2="657.960022" y2="1477.959961" stroke="red" stroke-width="6.660000" />
</svg>
