<?xml version="1.0" encoding="UTF-8" standalone="no"?>
<svg width="500" height="500" viewBox="0 0 2074.000000 2074.000000" xmlns="http://www.w3.org/2000/svg">
<rect x="19.000000" y="19.000000" width="2036.000000" height="2036.000000" fill="black" />
<circle cx="1306.959961" cy="636.960022" r="19.980000" fill="red">
  <title>Tokyo</title>
</circle><line x1="2020.959961" y1="1138.959961" x2="1306.959961" y2="636.960022" stroke="red" stroke-width="6.660000" />
<circle cx="1122.959961" cy="534.960022" r="19.980000" fill="red">
  <title>Delhi</title>
</circle><line x1="1306.959961" y1="636.960022" x2="1122.959961" y2="534.960022" stroke="red" stroke-width="6.660000" />
<circle cx="1110.959961" cy="756.960022" r="19.980000" fill="red">
  <title>Istanbul</title>
</circle><line x1="1122.959961" y1="534.960022" x2="1110.959961" y2="756.960022" stroke="red" stroke-width="6.660000" />
<circle cx="761.960022" cy="814.960022" r="19.980000" fill="red">
  <title>Mexico City</title>
</circle><line x1="1110.959961" y1="756.960022" x2="761.960022" y2="814.960022" stroke="red" stroke-width="6.660000" />
<circle cx="961.960022" cy="531.960022" r="19.980000" fill="red">
  <title>Chongqing</title>
</circle><line x1="761.960022" y1="814.960022" x2="961.960022" y2="531.960022" stroke="red" stroke-width="6.660000" />
<circle cx="850.960022" cy="334.959991" r="19.980000" fill="red">
  <title>Shanghai</title>
</circle><line x1="961.960022" y1="531.960022" x2="850.960022" y2="334.959991" stroke="red" stroke-width="6.660000" />
<circle cx="874.960022" cy="165.959991" r="19.980000" fill="red">
  <title>Lagos</title>
</circle><line x1="850.960022" y1="334.959991" x2="874.960022" y2="165.959991" stroke="red" stroke-width="6.660000" />
<circle cx="509.959991" cy="455.959991" r="19.980000" fill="red">
  <title>Mumbai</title>
</circle><line x1="874.960022" y1="165.959991" x2="509.959991" y2="455.959991" stroke="red" stroke-width="6.660000" />
<circle cx="278.959991" cy="378.959991" r="19.980000" fill="red">
  <title>Kolkata</title>
</circle><line x1="509.959991" y1="455.959991" x2="278.959991" y2="378.959991" stroke="red" stroke-width="6.660000" />
<circle cx="77.959999" cy="468.959991" r="19.980000" fill="red">
  <title>Dhaka</title>
</circle><line x1="278.959991" y1="378.959991" x2="77.959999" y2="468.959991" stroke="red" stroke-width="6.660000" />
<circle cx="261.959991" cy="702.960022" r="19.980000" fill="red">
  <title>Beijing</title>
</circle><line x1="77.959999" y1="468.959991" x2="261.959991" y2="702.960022" stroke="red" stroke-width="6.660000" />
<circle cx="340.959991" cy="1157.959961" r="19.980000" fill="red">
  <title>São Paulo</title>
</circle><line x1="261.959991" y1="702.960022" x2="340.959991" y2="1157.959961" stroke="red" stroke-width="6.660000" />
<circle cx="643.960022" cy="1201.959961" r="19.980000" fill="red">
  <title>Buenos Aires</title>
</circle><line x1="340.959991" y1="1157.959961" x2="643.960022" y2="1201.959961" stroke="red" stroke-width="6.660000" />
<circle cx="1019.960022" cy="1613.959961" r="19.980000" fill="red">
  <title>Karachi</title>
</circle><line x1="643.960022" y1="1201.959961" x2="1019.960022" y2="1613.959961" stroke="red" stroke-width="6.660000" />
<circle cx="1076.959961" cy="1939.959961" r="19.980000" fill="red">
  <title>New York</title>
</circle><line x1="1019.960022" y1="1613.959961" x2="1076.959961" y2="1939.959961" stroke="red" stroke-width="6.660000" />
<circle cx="1353.959961" cy="1361.959961" r="19.980000" fill="red">
  <title>Manila</title>
</circle><line x1="1076.959961" y1="1939.959961" x2="1353.959961" y2="1361.959961" stroke="red" stroke-width="6.660000" />
<circle cx="1841.959961" cy="1336.959961" r="19.980000" fill="red">
  <title>Osaka</title>
</circle><line x1="1353.959961" y1="1361.959961" x2="1841.959961" y2="1336.959961" stroke="red" stroke-width="6.660000" />
<circle cx="2020.959961" cy="1138.959961" r="19.980000" fill="red">
  <title>Cairo</title>
</circle><line x1="1841.959961" y1="1336.959961" x2="2020.959961" y2="1138.959961" stroke="red" stroke-width="6.660000" />
</svg>
