<?xml version="1.0" encoding="UTF-8" standalone="no"?>
<svg width="500" height="500" viewBox="0 0 2074.000000 2074.000000" xmlns="http://www.w3.org/2000/svg">
<rect x="19.000000" y="19.000000" width="2036.000000" height="2036.000000" fill="black" />
<circle cx="259.959991" cy="1018.960022" r="19.980000" fill="red">
  <title>Tokyo</title>
</circle><line x1="1269.959961" y1="1118.959961" x2="259.959991" y2="1018.960022" stroke="red" stroke-width="6.660000" />
<circle cx="667.960022" cy="1801.959961" r="19.980000" fill="red">
  <title>Shanghai</title>
</circle><line x1="259.959991" y1="1018.960022" x2="667.960022" y2="1801.959961" stroke="red" stroke-width="6.660000" />
<circle cx="1519.959961" cy="1965.959961" r="19.980000" fill="red">
  <title>Mexico City</title>
</circle><line x1="667.960022" y1="1801.959961" x2="1519.959961" y2="1965.959961" stroke="red" stroke-width="6.660000" />
<circle cx="1347.959961" cy="1391.959961" r="19.980000" fill="red">
  <title>São Paulo</title>
</circle><line x1="1519.959961" y1="1965.959961" x2="1347.959961" y2="1391.959961" stroke="red" stroke-width="6.660000" />
<circle cx="1750.959961" cy="787.960022" r="19.980000" fill="red">
  <title>Delhi</title>
</circle><line x1="1347.959961" y1="1391.959961" x2="1750.959961" y2="787.960022" stroke="red" stroke-width="6.660000" />
<circle cx="1269.959961" cy="1118.959961" r="19.980000" fill="red">
  <title>Cairo</title>
</circle><line x1="1750.959961" y1="787.960022" x2="1269.959961" y2="1118.959961" stroke="red" stroke-width="6.660000" />
</svg>
