<?xml version="1.0" encoding="UTF-8" standalone="no"?>
<svg width="500" height="500" viewBox="0 0 2074.000000 2074.000000" xmlns="http://www.w3.org/2000/svg">
<rect x="19.000000" y="19.000000" width="2036.000000" height="2036.000000" fill="black" />
<circle cx="1250.959961" cy="114.959999" r="19.980000" fill="red">
  <title>Tokyo</title>
</circle><line x1="1605.959961" y1="131.959991" x2="1250.959961" y2="114.959999" stroke="red" stroke-width="6.660000" />
<circle cx="934.960022" cy="328.959991" r="19.980000" fill="red">
  <title>Osaka</title>
</circle><line x1="1250.959961" y1="114.959999" x2="934.960022" y2="328.959991" stroke="red" stroke-width="6.660000" />
<circle cx="773.960022" cy="307.959991" r="19.980000" fill="red">
  <title>Beijing</title>
</circle><line x1="934.960022" y1="328.959991" x2="773.960022" y2="307.959991" stroke="red" stroke-width="6.660000" />
<circle cx="213.959991" cy="421.959991" r="19.980000" fill="red">
  <title>São Paulo</title>
</circle><line x1="773.960022" y1="307.959991" x2="213.959991" y2="421.959991" stroke="red" stroke-width="6.660000" />
<circle cx="341.959991" cy="1177.959961" r="19.980000" fill="red">
  <title>New York</title>
</circle><line x1="213.959991" y1="421.959991" x2="341.959991" y2="1177.959961" stroke="red" stroke-width="6.660000" />
<circle cx="98.959999" cy="1297.959961" r="19.980000" fill="red">
  <title>Buenos Aires</title>
</circle><line x1="341.959991" y1="1177.959961" x2="98.959999" y2="1297.959961" stroke="red" stroke-width="6.660000" />
<circle cx="152.959991" cy="1528.959961" r="19.980000" fill="red">
  <title>Chongqing</title>
</circle><line x1="98.959999" y1="1297.959961" x2="152.959991" y2="1528.959961" stroke="red" stroke-width="6.660000" />
<circle cx="268.959991" cy="1479.959961" r="19.980000" fill="red">
  <title>Dhaka</title>
</circle><line x1="152.959991" y1="1528.959961" x2="268.959991" y2="1479.959961" stroke="red" stroke-width="6.660000" />
<circle cx="760.960022" cy="1122.959961" r="19.980000" fill="red">
  <title>Mexico City</title>
</circle><line x1="268.959991" y1="1479.959961" x2="760.960022" y2="1122.959961" stroke="red" stroke-width="6.660000" />
<circle cx="1287.959961" cy="1370.959961" r="19.980000" fill="red">
  <title>Cairo</title>
</circle><line x1="760.960022" y1="1122.959961" x2="1287.959961" y2="1370.959961" stroke="red" stroke-width="6.660000" />
<circle cx="1596.959961" cy="1974.959961" r="19.980000" fill="red">
  <title>Shanghai</title>
</circle><line x1="1287.959961" y1="1370.959961" x2="1596.959961" y2="1974.959961" stroke="red" stroke-width="6.660000" />
<circle cx="1280.959961" cy="1005.960022" r="19.980000" fill="red">
  <title>Mumbai</title>
</circle><line x1="1596.959961" y1="1974.959961" x2="1280.959961" y2="1005.960022" stroke="red" stroke-width="6.660000" />
<circle cx="1052.959961" cy="675.960022" r="19.980000" fill="red">
  <title>Delhi</title>
</circle><line x1="1280.959961" y1="1005.960022" x2="1052.959961" y2="675.960022" stroke="red" stroke-width="6.660000" />
<circle cx="1137.959961" cy="278.959991" r="19.980000" fill="red">
  <title>Istanbul</title>
</circle><line x1="1052.959961" y1="675.960022" x2="1137.959961" y2="278.959991" stroke="red" stroke-width="6.660000" />
<circle cx="1605.959961" cy="131.959991" r="19.980000" fill="red">
  <title>Karachi</title>
</circle><line x1="1137.959961" y1="278.959991" x2="1605.959961" y2="131.959991" stroke="red" stroke-width="6.660000" />
</svg>
