<?xml version="1.0" encoding="UTF-8" standalone="no"?>
<svg width="500" height="500" viewBox="0 0 2074.000000 2074.000000" xmlns="http://www.w3.org/2000/svg">
<rect x="19.000000" y="19.000000" width="2036.000000" height="2036.000000" fill="black" />
<circle cx="797.960022" cy="1901.959961" r="19.980000" fill="red">
  <title>Tokyo</title>
</circle><line x1="222.959991" y1="1753.959961" x2="797.960022" y2="1901.959961" stroke="red" stroke-width="6.660000" />
<circle cx="1758.959961" cy="1210.959961" r="19.980000" fill="red">
  <title>Shanghai</title>
</circle><line x1="797.960022" y1="1901.959961" x2="1758.959961" y2="1210.959961" stroke="red" stroke-width="6.660000" />
<circle cx="1892.959961" cy="772.960022" r="19.980000" fill="red">
  <title>São Paulo</title>
</circle><line x1="1758.959961" y1="1210.959961" x2="1892.959961" y2="772.960022" stroke="red" stroke-width="6.660000" />
<circle cx="1712.959961" cy="200.959991" r="19.980000" fill="red">
  <title>Mumbai</title>
</circle><line x1="1892.959961" y1="772.960022" x2="1712.959961" y2="200.959991" stroke="red" stroke-width="6.660000" />
<circle cx="1452.959961" cy="299.959991" r="19.980000" fill="red">
  <title>Mexico City</title>
</circle><line x1="1712.959961" y1="200.959991" x2="1452.959961" y2="299.959991" stroke="red" stroke-width="6.660000" />
<circle cx="1340.959961" cy="357.959991" r="19.980000" fill="red">
  <title>Beijing</title>
</circle><line x1="1452.959961" y1="299.959991" x2="1340.959961" y2="357.959991" stroke="red" stroke-width="6.660000" />
<circle cx="579.960022" cy="926.960022" r="19.980000" fill="red">
  <title>Delhi</title>
</circle><line x1="1340.959961" y1="357.959991" x2="579.960022" y2="926.960022" stroke="red" stroke-width="6.660000" />
<circle cx="222.959991" cy="1753.959961" r="19.980000" fill="red">
  <title>Cairo</title>
</circle><line x1="579.960022" y1="926.960022" x2="222.959991" y2="1753.959961" stroke="red" stroke-width="6.660000" />
</svg>
