<?xml version="1.0" encoding="UTF-8" standalone="no"?>
<svg width="500" height="500" viewBox="0 0 2074.000000 2074.000000" xmlns="http://www.w3.org/2000/svg">
<rect x="19.000000" y="19.000000" width="2036.000000" height="2036.000000" fill="black" />
<circle cx="1376.959961" cy="1171.959961" r="19.980000" fill="red">
  <title>Tokyo</title>
</circle><line x1="1791.959961" y1="1581.959961" x2="1376.959961" y2="1171.959961" stroke="red" stroke-width="6.660000" />
<circle cx="1603.959961" cy="76.959999" r="19.980000" fill="red">
  <title>São Paulo</title>
</circle><line x1="1376.959961" y1="1171.959961" x2="1603.959961" y2="76.959999" stroke="red" stroke-width="6.660000" />
<circle cx="1035.959961" cy="683.960022" r="19.980000" fill="red">
  <title>Shanghai</title>
</circle><line x1="1603.959961" y1="76.959999" x2="1035.959961" y2="683.960022" stroke="red" stroke-width="6.660000" />
<circle cx="655.960022" cy="1112.959961" r="19.980000" fill="red">
  <title>Mexico City</title>
</circle><line x1="1035.959961" y1="683.960022" x2="655.960022" y2="1112.959961" stroke="red" stroke-width="6.660000" />
<circle cx="398.959991" cy="994.960022" r="19.980000" fill="red">
  <title>Cairo</title>
</circle><line x1="655.960022" y1="1112.959961" x2="398.959991" y2="994.960022" stroke="red" stroke-width="6.660000" />
<circle cx="177.959991" cy="621.960022" r="19.980000" fill="red">
  <title>Beijing</title>
</circle><line x1="398.959991" y1="994.960022" x2="177.959991" y2="621.960022" stroke="red" stroke-width="6.660000" />
<circle cx="236.959991" cy="1058.959961" r="19.980000" fill="red">
  <title>Chongqing</title>
</circle><line x1="177.959991" y1="621.960022" x2="236.959991" y2="1058.959961" stroke="red" stroke-width="6.660000" />
<circle cx="205.959991" cy="1567.959961" r="19.980000" fill="red">
  <title>New York</title>
</circle><line x1="236.959991" y1="1058.959961" x2="205.959991" y2="1567.959961" stroke="red" stroke-width="6.660000" />
<circle cx="392.959991" cy="1828.959961" r="19.980000" fill="red">
  <title>Delhi</title>
</circle><line x1="205.959991" y1="1567.959961" x2="392.959991" y2="1828.959961" stroke="red" stroke-width="6.660000" />
<circle cx="711.960022" cy="1424.959961" r="19.980000" fill="red">
  <title>Dhaka</title>
</circle><line x1="392.959991" y1="1828.959961" x2="711.960022" y2="1424.959961" stroke="red" stroke-width="6.660000" />
<circle cx="796.960022" cy="1473.959961" r="19.980000" fill="red">
  <title>Karachi</title>
</circle><line x1="711.960022" y1="1424.959961" x2="796.960022" y2="1473.959961" stroke="red" stroke-width="6.660000" />
<circle cx="1385.959961" cy="1286.959961" r="19.980000" fill="red">
  <title>Osaka</title>
</circle><line x1="796.960022" y1="1473.959961" x2="1385.959961" y2="1286.959961" stroke="red" stroke-width="6.660000" />
<circle cx="2023.959961" cy="1921.959961" r="19.980000" fill="red">
  <title>Buenos Aires</title>
</circle><line x1="1385.959961" y1="1286.959961" x2="2023.959961" y2="1921.959961" stroke="red" stroke-width="6.660000" />
<circle cx="1791.959961" cy="1581.959961" r="19.980000" fill="red">
  <title>Mumbai</title>
</circle><line x1="2023.959961" y1="1921.959961" x2="1791.959961" y2="1581.959961" stroke="red" stroke-width="6.660000" />
</svg>
