<?xml version="1.0" encoding="UTF-8" standalone="no"?>
<svg width="500" height="500" viewBox="0 0 2074.000000 2074.000000" xmlns="http://www.w3.org/2000/svg">
<rect x="19.000000" y="19.000000" width="2036.000000" height="2036.000000" fill="black" />
<circle cx="534.960022" cy="1094.959961" r="19.980000" fill="red">
  <title>Tokyo</title>
</circle><line x1="766.960022" y1="799.960022" x2="534.960022" y2="1094.959961" stroke="red" stroke-width="6.660000" />
<circle cx="168.959991" cy="1335.959961" r="19.980000" fill="red">
  <title>Cairo</title>
</circle><line x1="534.960022" y1="1094.959961" x2="168.959991" y2="1335.959961" stroke="red" stroke-width="6.660000" />
<circle cx="515.960022" cy="1909.959961" r="19.980000" fill="red">
  <title>Mumbai</title>
</circle><line x1="168.959991" y1="1335.959961" x2="515.960022" y2="1909.959961" stroke="red" stroke-width="6.660000" />
<circle cx="1999.959961" cy="1607.959961" r="19.980000" fill="red">
  <title>Shanghai</title>
</circle><line x1="515.960022" y1="1909.959961" x2="1999.959961" y2="1607.959961" stroke="red" stroke-width="6.660000" />
<circle cx="1355.959961" cy="1016.960022" r="19.980000" fill="red">
  <title>Delhi</title>
</circle><line x1="1999.959961" y1="1607.959961" x2="1355.959961" y2="1016.960022" stroke="red" stroke-width="6.660000" />
<circle cx="1183.959961" cy="870.960022" r="19.980000" fill="red">
  <title>Dhaka</title>
</circle><line x1="1355.959961" y1="1016.960022" x2="1183.959961" y2="870.960022" stroke="red" stroke-width="6.660000" />
<circle cx="870.960022" cy="865.960022" r="19.980000" fill="red">
  <title>Mexico City</title>
</circle><line x1="1183.959961" y1="870.960022" x2="870.960022" y2="865.960022" stroke="red" stroke-width="6.660000" />
<circle cx="822.960022" cy="202.959991" r="19.980000" fill="red">
  <title>São Paulo</title>
</circle><line x1="870.960022" y1="865.960022" x2="822.960022" y2="202.959991" stroke="red" stroke-width="6.660000" />
<circle cx="766.960022" cy="799.960022" r="19.980000" fill="red">
  <title>Beijing</title>
</circle><line x1="822.960022" y1="202.959991" x2="766.960022" y2="799.960022" stroke="red" stroke-width="6.660000" />
</svg>
