<?xml version="1.0" encoding="UTF-8" standalone="no"?>
<svg width="500" height="500" viewBox="0 0 2074.000000 2074.000000" xmlns="http://www.w3.org/2000/svg">
<rect x="19.000000" y="19.000000" width="2036.000000" height="2036.000000" fill="black" />
<circle cx="1287.959961" cy="242.959991" r="19.980000" fill="red">
  <title>Tokyo</title>
</circle><line x1="253.959991" y1="1171.959961" x2="1287.959961" y2="242.959991" stroke="red" stroke-width="6.660000" />
<circle cx="241.959991" cy="351.959991" r="19.980000" fill="red">
  <title>Delhi</title>
</circle><line x1="1287.959961" y1="242.959991" x2="241.959991" y2="351.959991" stroke="red" stroke-width="6.660000" />
<circle cx="253.959991" cy="1171.959961" r="19.980000" fill="red">
  <title>Shanghai</title>
</circle><line x1="241.959991" y1="351.959991" x2="253.959991" y2="1171.959961" stroke="red" stroke-width="6.660000" />
</svg>
