<?xml version="1.0" encoding="UTF-8" standalone="no"?>
<svg width="500" height="500" viewBox="0 0 2074.000000 2074.000000" xmlns="http://www.w3.org/2000/svg">
<rect x="19.000000" y="19.000000" width="2036.000000" height="2036.000000" fill="black" />
<circle cx="565.960022" cy="1841.959961" r="19.980000" fill="red">
  <title>Tokyo</title>
</circle><line x1="710.960022" y1="1588.959961" x2="565.960022" y2="1841.959961" stroke="red" stroke-width="6.660000" />
<circle cx="706.960022" cy="1493.959961" r="19.980000" fill="red">
  <title>Shanghai</title>
</circle><line x1="565.960022" y1="1841.959961" x2="706.960022" y2="1493.959961" stroke="red" stroke-width="6.660000" />
<circle cx="577.960022" cy="987.960022" r="19.980000" fill="red">
  <title>Osaka</title>
</circle><line x1="706.960022" y1="1493.959961" x2="577.960022" y2="987.960022" stroke="red" stroke-width="6.660000" />
<circle cx="418.959991" cy="904.960022" r="19.980000" fill="red">
  <title>Kolkata</title>
</circle><line x1="577.960022" y1="987.960022" x2="418.959991" y2="904.960022" stroke="red" stroke-width="6.660000" />
<circle cx="377.959991" cy="417.959991" r="19.980000" fill="red">
  <title>Istanbul</title>
</circle><line x1="418.959991" y1="904.960022" x2="377.959991" y2="417.959991" stroke="red" stroke-width="6.660000" />
<circle cx="147.959991" cy="97.959999" r="19.980000" fill="red">
  <title>Mexico City</title>
</circle><line x1="377.959991" y1="417.959991" x2="147.959991" y2="97.959999" stroke="red" stroke-width="6.660000" />
<circle cx="706.960022" cy="649.960022" r="19.980000" fill="red">
  <title>Cairo</title>
</circle><line x1="147.959991" y1="97.959999" x2="706.960022" y2="649.960022" stroke="red" stroke-width="6.660000" />
<circle cx="1142.959961" cy="876.960022" r="19.980000" fill="red">
  <title>Chongqing</title>
</circle><line x1="706.960022" y1="649.960022" x2="1142.959961" y2="876.960022" stroke="red" stroke-width="6.660000" />
<circle cx="1208.959961" cy="481.959991" r="19.980000" fill="red">
  <title>Karachi</title>
</circle><line x1="1142.959961" y1="876.960022" x2="1208.959961" y2="481.959991" stroke="red" stroke-width="6.660000" />
<circle cx="1279.959961" cy="110.959999" r="19.980000" fill="red">
  <title>São Paulo</title>
</circle><line x1="1208.959961" y1="481.959991" x2="1279.959961" y2="110.959999" stroke="red" stroke-width="6.660000" />
<circle cx="2018.959961" cy="654.960022" r="19.980000" fill="red">
  <title>Mumbai</title>
</circle><line x1="1279.959961" y1="110.959999" x2="2018.959961" y2="654.960022" stroke="red" stroke-width="6.660000" />
<circle cx="1573.959961" cy="1501.959961" r="19.980000" fill="red">
  <title>Delhi</title>
</circle><line x1="2018.959961" y1="654.960022" x2="1573.959961" y2="1501.959961" stroke="red" stroke-width="6.660000" />
<circle cx="1607.959961" cy="1832.959961" r="19.980000" fill="red">
  <title>Beijing</title>
</circle><line x1="1573.959961" y1="1501.959961" x2="1607.959961" y2="1832.959961" stroke="red" stroke-width="6.660000" />
<circle cx="1678.959961" cy="1937.959961" r="19.980000" fill="red">
  <title>Buenos Aires</title>
</circle><line x1="1607.959961" y1="1832.959961" x2="1678.959961" y2="1937.959961" stroke="red" stroke-width="6.660000" />
<circle cx="1288.959961" cy="1710.959961" r="19.980000" fill="red">
  <title>New York</title>
</circle><line x1="1678.959961" y1="1937.959961" x2="1288.959961" y2="1710.959961" stroke="red" stroke-width="6.660000" />
<circle cx="710.960022" cy="1588.959961" r="19.980000" fill="red">
  <title>Dhaka</title>
</circle><line x1="1288.959961" y1="1710.959961" x2="710.960022" y2="1588.959961" stroke="red" stroke-width="6.660000" />
</svg>
