<?xml version="1.0" encoding="UTF-8" standalone="no"?>
<svg width="500" height="500" viewBox="0 0 2074.000000 2074.000000" xmlns="http://www.w3.org/2000/svg">
<rect x="19.000000" y="19.000000" width="2036.000000" height="2036.000000" fill="black" />
<circle cx="555.960022" cy="744.960022" r="19.980000" fill="red">
  <title>Tokyo</title>
</circle><line x1="567.960022" y1="217.959991" x2="555.960022" y2="744.960022" stroke="red" stroke-width="6.660000" />
<circle cx="257.959991" cy="795.960022" r="19.980000" fill="red">
  <title>Cairo</title>
</circle><line x1="555.960022" y1="744.960022" x2="257.959991" y2="795.960022" stroke="red" stroke-width="6.660000" />
<circle cx="308.959991" cy="872.960022" r="19.980000" fill="red">
  <title>Karachi</title>
</circle><line x1="257.959991" y1="795.960022" x2="308.959991" y2="872.960022" stroke="red" stroke-width="6.660000" />
<circle cx="573.960022" cy="1022.960022" r="19.980000" fill="red">
  <title>Beijing</title>
</circle><line x1="308.959991" y1="872.960022" x2="573.960022" y2="1022.960022" stroke="red" stroke-width="6.660000" />
<circle cx="1444.959961" cy="782.960022" r="19.980000" fill="red">
  <title>Delhi</title>
</circle><line x1="573.960022" y1="1022.960022" x2="1444.959961" y2="782.960022" stroke="red" stroke-width="6.660000" />
<circle cx="1609.959961" cy="1157.959961" r="19.980000" fill="red">
  <title>Chongqing</title>
</circle><line x1="1444.959961" y1="782.960022" x2="1609.959961" y2="1157.959961" stroke="red" stroke-width="6.660000" />
<circle cx="1802.959961" cy="1727.959961" r="19.980000" fill="red">
  <title>Mumbai</title>
</circle><line x1="1609.959961" y1="1157.959961" x2="1802.959961" y2="1727.959961" stroke="red" stroke-width="6.660000" />
<circle cx="1836.959961" cy="1838.959961" r="19.980000" fill="red">
  <title>Mexico City</title>
</circle><line x1="1802.959961" y1="1727.959961" x2="1836.959961" y2="1838.959961" stroke="red" stroke-width="6.660000" />
<circle cx="1830.959961" cy="1718.959961" r="19.980000" fill="red">
  <title>São Paulo</title>
</circle><line x1="1836.959961" y1="1838.959961" x2="1830.959961" y2="1718.959961" stroke="red" stroke-width="6.660000" />
<circle cx="1870.959961" cy="1146.959961" r="19.980000" fill="red">
  <title>Osaka</title>
</circle><line x1="1830.959961" y1="1718.959961" x2="1870.959961" y2="1146.959961" stroke="red" stroke-width="6.660000" />
<circle cx="1782.959961" cy="1161.959961" r="19.980000" fill="red">
  <title>New York</title>
</circle><line x1="1870.959961" y1="1146.959961" x2="1782.959961" y2="1161.959961" stroke="red" stroke-width="6.660000" />
<circle cx="1623.959961" cy="901.960022" r="19.980000" fill="red">
  <title>Dhaka</title>
</circle><line x1="1782.959961" y1="1161.959961" x2="1623.959961" y2="901.960022" stroke="red" stroke-width="6.660000" />
<circle cx="1717.959961" cy="185.959991" r="19.980000" fill="red">
  <title>Istanbul</title>
</circle><line x1="1623.959961" y1="901.960022" x2="1717.959961" y2="185.959991" stroke="red" stroke-width="6.660000" />
<circle cx="1132.959961" cy="463.959991" r="19.980000" fill="red">
  <title>Shanghai</title>
</circle><line x1="1717.959961" y1="185.959991" x2="1132.959961" y2="463.959991" stroke="red" stroke-width="6.660000" />
<circle cx="567.960022" cy="217.959991" r="19.980000" fill="red">
  <title>Buenos Aires</title>
</circle><line x1="1132.959961" y1="463.959991" x2="567.960022" y2="217.959991" stroke="red" stroke-width="6.660000" />
</svg>
