<?xml version="1.0" encoding="UTF-8" standalone="no"?>
<svg width="500" height="500" viewBox="0 0 2074.000000 2074.000000" xmlns="http://www.w3.org/2000/svg">
<rect x="19.000000" y="19.000000" width="2036.000000" height="2036.000000" fill="black" />
<circle cx="1408.959961" cy="1902.959961" r="19.980000" fill="red">
  <title>Tokyo</title>
</circle><line x1="1199.959961" y1="1737.959961" x2="1408.959961" y2="1902.959961" stroke="red" stroke-width="6.660000" />
<circle cx="1997.959961" cy="2036.959961" r="19.980000" fill="red">
  <title>Cairo</title>
</circle><line x1="1408.959961" y1="1902.959961" x2="1997.959961" y2="2036.959961" stroke="red" stroke-width="6.660000" />
<circle cx="1727.959961" cy="1545.959961" r="19.980000" fill="red">
  <title>Shanghai</title>
</circle><line x1="1997.959961" y1="2036.959961" x2="1727.959961" y2="1545.959961" stroke="red" stroke-width="6.660000" />
<circle cx="1656.959961" cy="807.960022" r="19.980000" fill="red">
  <title>São Paulo</title>
</circle><line x1="1727.959961" y1="1545.959961" x2="1656.959961" y2="807.960022" stroke="red" stroke-width="6.660000" />
<circle cx="1478.959961" cy="54.959999" r="19.980000" fill="red">
  <title>Mexico City</title>
</circle><line x1="1656.959961" y1="807.960022" x2="1478.959961" y2="54.959999" stroke="red" stroke-width="6.660000" />
<circle cx="1338.959961" cy="65.959999" r="19.980000" fill="red">
  <title>Mumbai</title>
</circle><line x1="1478.959961" y1="54.959999" x2="1338.959961" y2="65.959999" stroke="red" stroke-width="6.660000" />
<circle cx="622.960022" cy="688.960022" r="19.980000" fill="red">
  <title>Dhaka</title>
</circle><line x1="1338.959961" y1="65.959999" x2="622.960022" y2="688.960022" stroke="red" stroke-width="6.660000" />
<circle cx="324.959991" cy="1602.959961" r="19.980000" fill="red">
  <title>Delhi</title>
</circle><line x1="622.960022" y1="688.960022" x2="324.959991" y2="1602.959961" stroke="red" stroke-width="6.660000" />
<circle cx="1199.959961" cy="1737.959961" r="19.980000" fill="red">
  <title>Beijing</title>
</circle><line x1="324.959991" y1="1602.959961" x2="1199.959961" y2="1737.959961" stroke="red" stroke-width="6.660000" />
</svg>
