<?xml version="1.0" encoding="UTF-8" standalone="no"?>
<svg width="500" height="500" viewBox="0 0 2074.000000 2074.000000" xmlns="http://www.w3.org/2000/svg">
<rect x="19.000000" y="19.000000" width="2036.000000" height="2036.000000" fill="black" />
<circle cx="158.959991" cy="1405.959961" r="19.980000" fill="red">
  <title>Tokyo</title>
</circle><line x1="709.960022" y1="903.960022" x2="158.959991" y2="1405.959961" stroke="red" stroke-width="6.660000" />
<circle cx="495.959991" cy="1611.959961" r="19.980000" fill="red">
  <title>Mexico City</title>
</circle><line x1="158.959991" y1="1405.959961" x2="495.959991" y2="1611.959961" stroke="red" stroke-width="6.660000" />
<circle cx="640.960022" cy="1915.959961" r="19.980000" fill="red">
  <title>Dhaka</title>
</circle><line x1="495.959991" y1="1611.959961" x2="640.960022" y2="1915.959961" stroke="red" stroke-width="6.660000" />
<circle cx="711.960022" cy="1507.959961" r="19.980000" fill="red">
  <title>Mumbai</title>
</circle><line x1="640.960022" y1="1915.959961" x2="711.960022" y2="1507.959961" stroke="red" stroke-width="6.660000" />
<circle cx="960.960022" cy="1319.959961" r="19.980000" fill="red">
  <title>New York</title>
</circle><line x1="711.960022" y1="1507.959961" x2="960.960022" y2="1319.959961" stroke="red" stroke-width="6.660000" />
<circle cx="1222.959961" cy="1177.959961" r="19.980000" fill="red">
  <title>Rio de Janeiro</title>
</circle><line x1="960.960022" y1="1319.959961" x2="1222.959961" y2="1177.959961" stroke="red" stroke-width="6.660000" />
<circle cx="1222.959961" cy="1253.959961" r="19.980000" fill="red">
  <title>Manila</title>
</circle><line x1="1222.959961" y1="1177.959961" x2="1222.959961" y2="1253.959961" stroke="red" stroke-width="6.660000" />
<circle cx="1367.959961" cy="1855.959961" r="19.980000" fill="red">
  <title>Istanbul</title>
</circle><line x1="1222.959961" y1="1253.959961" x2="1367.959961" y2="1855.959961" stroke="red" stroke-width="6.660000" />
<circle cx="1920.959961" cy="2006.959961" r="19.980000" fill="red">
  <title>Shanghai</title>
</circle><line x1="1367.959961" y1="1855.959961" x2="1920.959961" y2="2006.959961" stroke="red" stroke-width="6.660000" />
<circle cx="1971.959961" cy="2033.959961" r="19.980000" fill="red">
  <title>Beijing</title>
</circle><line x1="1920.959961" y1="2006.959961" x2="1971.959961" y2="2033.959961" stroke="red" stroke-width="6.660000" />
<circle cx="1933.959961" cy="1486.959961" r="19.980000" fill="red">
  <title>Kolkata</title>
</circle><line x1="1971.959961" y1="2033.959961" x2="1933.959961" y2="1486.959961" stroke="red" stroke-width="6.660000" />
<circle cx="1840.959961" cy="1104.959961" r="19.980000" fill="red">
  <title>Lagos</title>
</circle><line x1="1933.959961" y1="1486.959961" x2="1840.959961" y2="1104.959961" stroke="red" stroke-width="6.660000" />
<circle cx="1375.959961" cy="978.960022" r="19.980000" fill="red">
  <title>São Paulo</title>
</circle><line x1="1840.959961" y1="1104.959961" x2="1375.959961" y2="978.960022" stroke="red" stroke-width="6.660000" />
<circle cx="1358.959961" cy="393.959991" r="19.980000" fill="red">
  <title>Delhi</title>
</circle><line x1="1375.959961" y1="978.960022" x2="1358.959961" y2="393.959991" stroke="red" stroke-width="6.660000" />
<circle cx="1202.959961" cy="211.959991" r="19.980000" fill="red">
  <title>Osaka</title>
</circle><line x1="1358.959961" y1="393.959991" x2="1202.959961" y2="211.959991" stroke="red" stroke-width="6.660000" />
<circle cx="1242.959961" cy="68.959999" r="19.980000" fill="red">
  <title>Buenos Aires</title>
</circle><line x1="1202.959961" y1="211.959991" x2="1242.959961" y2="68.959999" stroke="red" stroke-width="6.660000" />
<circle cx="904.960022" cy="78.959999" r="19.980000" fill="red">
  <title>Chongqing</title>
</circle><line x1="1242.959961" y1="68.959999" x2="904.960022" y2="78.959999" stroke="red" stroke-width="6.660000" />
<circle cx="675.960022" cy="611.960022" r="19.980000" fill="red">
  <title>Karachi</title>
</circle><line x1="904.960022" y1="78.959999" x2="675.960022" y2="611.960022" stroke="red" stroke-width="6.660000" />
<circle cx="709.960022" cy="903.960022" r="19.980000" fill="red">
  <title>Cairo</title>
</circle><line x1="675.960022" y1="611.960022" x2="709.960022" y2="903.960022" stroke="red" stroke-width="6.660000" />
</svg>
