<?xml version="1.0" encoding="UTF-8" standalone="no"?>
<svg width="500" height="500" viewBox="0 0 2074.000000 2074.000000" xmlns="http://www.w3.org/2000/svg">
<rect x="19.000000" y="19.000000" width="2036.000000" height="2036.000000" fill="black" />
<circle cx="1977.959961" cy="627.960022" r="19.980000" fill="red">
  <title>Tokyo</title>
</circle><line x1="1393.959961" y1="130.959991" x2="1977.959961" y2="627.960022" stroke="red" stroke-width="6.660000" />
<circle cx="1274.959961" cy="995.960022" r="19.980000" fill="red">
  <title>Mumbai</title>
</circle><line x1="1977.959961" y1="627.960022" x2="1274.959961" y2="995.960022" stroke="red" stroke-width="6.660000" />
<circle cx="1553.959961" cy="1198.959961" r="19.980000" fill="red">
  <title>Dhaka</title>
</circle><line x1="1274.959961" y1="995.960022" x2="1553.959961" y2="1198.959961" stroke="red" stroke-width="6.660000" />
<circle cx="1469.959961" cy="1605.959961" r="19.980000" fill="red">
  <title>Delhi</title>
</circle><line x1="1553.959961" y1="1198.959961" x2="1469.959961" y2="1605.959961" stroke="red" stroke-width="6.660000" />
<circle cx="1604.959961" cy="1727.959961" r="19.980000" fill="red">
  <title>São Paulo</title>
</circle><line x1="1469.959961" y1="1605.959961" x2="1604.959961" y2="1727.959961" stroke="red" stroke-width="6.660000" />
<circle cx="1595.959961" cy="2036.959961" r="19.980000" fill="red">
  <title>Chongqing</title>
</circle><line x1="1604.959961" y1="1727.959961" x2="1595.959961" y2="2036.959961" stroke="red" stroke-width="6.660000" />
<circle cx="844.960022" cy="1747.959961" r="19.980000" fill="red">
  <title>Shanghai</title>
</circle><line x1="1595.959961" y1="2036.959961" x2="844.960022" y2="1747.959961" stroke="red" stroke-width="6.660000" />
<circle cx="738.960022" cy="1629.959961" r="19.980000" fill="red">
  <title>Osaka</title>
</circle><line x1="844.960022" y1="1747.959961" x2="738.960022" y2="1629.959961" stroke="red" stroke-width="6.660000" />
<circle cx="342.959991" cy="1656.959961" r="19.980000" fill="red">
  <title>Karachi</title>
</circle><line x1="738.960022" y1="1629.959961" x2="342.959991" y2="1656.959961" stroke="red" stroke-width="6.660000" />
<circle cx="160.959991" cy="1428.959961" r="19.980000" fill="red">
  <title>Cairo</title>
</circle><line x1="342.959991" y1="1656.959961" x2="160.959991" y2="1428.959961" stroke="red" stroke-width="6.660000" />
<circle cx="719.960022" cy="1180.959961" r="19.980000" fill="red">
  <title>Beijing</title>
</circle><line x1="160.959991" y1="1428.959961" x2="719.960022" y2="1180.959961" stroke="red" stroke-width="6.660000" />
<circle cx="289.959991" cy="655.960022" r="19.980000" fill="red">
  <title>Mexico City</title>
</circle><line x1="719.960022" y1="1180.959961" x2="289.959991" y2="655.960022" stroke="red" stroke-width="6.660000" />
<circle cx="896.960022" cy="315.959991" r="19.980000" fill="red">
  <title>Buenos Aires</title>
</circle><line x1="289.959991" y1="655.960022" x2="896.960022" y2="315.959991" stroke="red" stroke-width="6.660000" />
<circle cx="1393.959961" cy="130.959991" r="19.980000" fill="red">
  <title>New York</title>
</circle><line x1="896.960022" y1="315.959991" x2="1393.959961" y2="130.959991" stroke="red" stroke-width="6.660000" />
</svg>
