<?xml version="1.0" encoding="UTF-8" standalone="no"?>
<svg width="500" height="500" viewBox="0 0 2074.000000 2074.000000" xmlns="http://www.w3.org/2000/svg">
<rect x="19.000000" y="19.000000" width="2036.000000" height="2036.000000" fill="black" />
<circle cx="162.959991" cy="1868.959961" r="19.980000" fill="red">
  <title>Tokyo</title>
</circle><line x1="295.959991" y1="1449.959961" x2="162.959991" y2="1868.959961" stroke="red" stroke-width="6.660000" />
<circle cx="512.960022" cy="1679.959961" r="19.980000" fill="red">
  <title>Mexico City</title>
</circle><line x1="162.959991" y1="1868.959961" x2="512.960022" y2="1679.959961" stroke="red" stroke-width="6.660000" />
<circle cx="1558.959961" cy="1898.959961" r="19.980000" fill="red">
  <title>Buenos Aires</title>
</circle><line x1="512.960022" y1="1679.959961" x2="1558.959961" y2="1898.959961" stroke="red" stroke-width="6.660000" />
<circle cx="1559.959961" cy="1343.959961" r="19.980000" fill="red">
  <title>Chongqing</title>
</circle><line x1="1558.959961" y1="1898.959961" x2="1559.959961" y2="1343.959961" stroke="red" stroke-width="6.660000" />
<circle cx="1848.959961" cy="1395.959961" r="19.980000" fill="red">
  <title>New York</title>
</circle><line x1="1559.959961" y1="1343.959961" x2="1848.959961" y2="1395.959961" stroke="red" stroke-width="6.660000" />
<circle cx="2019.959961" cy="930.960022" r="19.980000" fill="red">
  <title>São Paulo</title>
</circle><line x1="1848.959961" y1="1395.959961" x2="2019.959961" y2="930.960022" stroke="red" stroke-width="6.660000" />
<circle cx="2027.959961" cy="726.960022" r="19.980000" fill="red">
  <title>Beijing</title>
</circle><line x1="2019.959961" y1="930.960022" x2="2027.959961" y2="726.960022" stroke="red" stroke-width="6.660000" />
<circle cx="820.960022" cy="510.959991" r="19.980000" fill="red">
  <title>Shanghai</title>
</circle><line x1="2027.959961" y1="726.960022" x2="820.960022" y2="510.959991" stroke="red" stroke-width="6.660000" />
<circle cx="565.960022" cy="241.959991" r="19.980000" fill="red">
  <title>Delhi</title>
</circle><line x1="820.960022" y1="510.959991" x2="565.960022" y2="241.959991" stroke="red" stroke-width="6.660000" />
<circle cx="255.959991" cy="117.959999" r="19.980000" fill="red">
  <title>Osaka</title>
</circle><line x1="565.960022" y1="241.959991" x2="255.959991" y2="117.959999" stroke="red" stroke-width="6.660000" />
<circle cx="507.959991" cy="853.960022" r="19.980000" fill="red">
  <title>Karachi</title>
</circle><line x1="255.959991" y1="117.959999" x2="507.959991" y2="853.960022" stroke="red" stroke-width="6.660000" />
<circle cx="284.959991" cy="1224.959961" r="19.980000" fill="red">
  <title>Dhaka</title>
</circle><line x1="507.959991" y1="853.960022" x2="284.959991" y2="1224.959961" stroke="red" stroke-width="6.660000" />
<circle cx="265.959991" cy="1255.959961" r="19.980000" fill="red">
  <title>Mumbai</title>
</circle><line x1="284.959991" y1="1224.959961" x2="265.959991" y2="1255.959961" stroke="red" stroke-width="6.660000" />
<circle cx="295.959991" cy="1449.959961" r="19.980000" fill="red">
  <title>Cairo</title>
</circle><line x1="265.959991" y1="1255.959961" x2="295.959991" y2="1449.959961" stroke="red" stroke-width="6.660000" />
</svg>
