<?xml version="1.0" encoding="UTF-8" standalone="no"?>
<svg width="500" height="500" viewBox="0 0 2074.000000 2074.000000" xmlns="http://www.w3.org/2000/svg">
<rect x="19.000000" y="19.000000" width="2036.000000" height="2036.000000" fill="black" />
<circle cx="730.960022" cy="1453.959961" r="19.980000" fill="red">
  <title>Tokyo</title>
</circle><line x1="791.960022" y1="1506.959961" x2="730.960022" y2="1453.959961" stroke="red" stroke-width="6.660000" />
<circle cx="155.959991" cy="1434.959961" r="19.980000" fill="red">
  <title>São Paulo</title>
</circle><line x1="730.960022" y1="1453.959961" x2="155.959991" y2="1434.959961" stroke="red" stroke-width="6.660000" />
<circle cx="295.959991" cy="1399.959961" r="19.980000" fill="red">
  <title>Istanbul</title>
</circle><line x1="155.959991" y1="1434.959961" x2="295.959991" y2="1399.959961" stroke="red" stroke-width="6.660000" />
<circle cx="683.960022" cy="1096.959961" r="19.980000" fill="red">
  <title>Chongqing</title>
</circle><line x1="295.959991" y1="1399.959961" x2="683.960022" y2="1096.959961" stroke="red" stroke-width="6.660000" />
<circle cx="543.960022" cy="986.960022" r="19.980000" fill="red">
  <title>Kolkata</title>
</circle><line x1="683.960022" y1="1096.959961" x2="543.960022" y2="986.960022" stroke="red" stroke-width="6.660000" />
<circle cx="233.959991" cy="775.960022" r="19.980000" fill="red">
  <title>Buenos Aires</title>
</circle><line x1="543.960022" y1="986.960022" x2="233.959991" y2="775.960022" stroke="red" stroke-width="6.660000" />
<circle cx="331.959991" cy="90.959999" r="19.980000" fill="red">
  <title>New York</title>
</circle><line x1="233.959991" y1="775.960022" x2="331.959991" y2="90.959999" stroke="red" stroke-width="6.660000" />
<circle cx="1364.959961" cy="75.959999" r="19.980000" fill="red">
  <title>Beijing</title>
</circle><line x1="331.959991" y1="90.959999" x2="1364.959961" y2="75.959999" stroke="red" stroke-width="6.660000" />
<circle cx="1800.959961" cy="1009.960022" r="19.980000" fill="red">
  <title>Delhi</title>
</circle><line x1="1364.959961" y1="75.959999" x2="1800.959961" y2="1009.960022" stroke="red" stroke-width="6.660000" />
<circle cx="1480.959961" cy="1137.959961" r="19.980000" fill="red">
  <title>Shanghai</title>
</circle><line x1="1800.959961" y1="1009.960022" x2="1480.959961" y2="1137.959961" stroke="red" stroke-width="6.660000" />
<circle cx="1639.959961" cy="1222.959961" r="19.980000" fill="red">
  <title>Mexico City</title>
</circle><line x1="1480.959961" y1="1137.959961" x2="1639.959961" y2="1222.959961" stroke="red" stroke-width="6.660000" />
<circle cx="1589.959961" cy="1535.959961" r="19.980000" fill="red">
  <title>Osaka</title>
</circle><line x1="1639.959961" y1="1222.959961" x2="1589.959961" y2="1535.959961" stroke="red" stroke-width="6.660000" />
<circle cx="1517.959961" cy="1760.959961" r="19.980000" fill="red">
  <title>Mumbai</title>
</circle><line x1="1589.959961" y1="1535.959961" x2="1517.959961" y2="1760.959961" stroke="red" stroke-width="6.660000" />
<circle cx="993.960022" cy="1698.959961" r="19.980000" fill="red">
  <title>Karachi</title>
</circle><line x1="1517.959961" y1="1760.959961" x2="993.960022" y2="1698.959961" stroke="red" stroke-width="6.660000" />
<circle cx="777.960022" cy="1822.959961" r="19.980000" fill="red">
  <title>Cairo</title>
</circle><line x1="993.960022" y1="1698.959961" x2="777.960022" y2="1822.959961" stroke="red" stroke-width="6.660000" />
<circle cx="791.960022" cy="1506.959961" r="19.980000" fill="red">
  <title>Dhaka</title>
</circle><line x1="777.960022" y1="1822.959961" x2="791.960022" y2="1506.959961" stroke="red" stroke-width="6.660000" />
</svg>
