<?xml version="1.0" encoding="UTF-8" standalone="no"?>
<svg width="500" height="500" viewBox="0 0 2074.000000 2074.000000" xmlns="http://www.w3.org/2000/svg">
<rect x="19.000000" y="19.000000" width="2036.000000" height="2036.000000" fill="black" />
<circle cx="829.960022" cy="1045.959961" r="19.980000" fill="red">
  <title>Tokyo</title>
</circle><line x1="1061.959961" y1="749.960022" x2="829.960022" y2="1045.959961" stroke="red" stroke-width="6.660000" />
<circle cx="452.959991" cy="150.959991" r="19.980000" fill="red">
  <title>São Paulo</title>
</circle><line x1="829.960022" y1="1045.959961" x2="452.959991" y2="150.959991" stroke="red" stroke-width="6.660000" />
<circle cx="189.959991" cy="114.959999" r="19.980000" fill="red">
  <title>Manila</title>
</circle><line x1="452.959991" y1="150.959991" x2="189.959991" y2="114.959999" stroke="red" stroke-width="6.660000" />
<circle cx="115.959999" cy="910.960022" r="19.980000" fill="red">
  <title>Tianjin</title>
</circle><line x1="189.959991" y1="114.959999" x2="115.959999" y2="910.960022" stroke="red" stroke-width="6.660000" />
<circle cx="505.959991" cy="1137.959961" r="19.980000" fill="red">
  <title>Karachi</title>
</circle><line x1="115.959999" y1="910.960022" x2="505.959991" y2="1137.959961" stroke="red" stroke-width="6.660000" />
<circle cx="302.959991" cy="1424.959961" r="19.980000" fill="red">
  <title>New York</title>
</circle><line x1="505.959991" y1="1137.959961" x2="302.959991" y2="1424.959961" stroke="red" stroke-width="6.660000" />
<circle cx="536.960022" cy="1613.959961" r="19.980000" fill="red">
  <title>Delhi</title>
</circle><line x1="302.959991" y1="1424.959961" x2="536.960022" y2="1613.959961" stroke="red" stroke-width="6.660000" />
<circle cx="368.959991" cy="1862.959961" r="19.980000" fill="red">
  <title>Dhaka</title>
</circle><line x1="536.960022" y1="1613.959961" x2="368.959991" y2="1862.959961" stroke="red" stroke-width="6.660000" />
<circle cx="335.959991" cy="2003.959961" r="19.980000" fill="red">
  <title>Lagos</title>
</circle><line x1="368.959991" y1="1862.959961" x2="335.959991" y2="2003.959961" stroke="red" stroke-width="6.660000" />
<circle cx="477.959991" cy="1926.959961" r="19.980000" fill="red">
  <title>Mumbai</title>
</circle><line x1="335.959991" y1="2003.959961" x2="477.959991" y2="1926.959961" stroke="red" stroke-width="6.660000" />
<circle cx="803.960022" cy="1870.959961" r="19.980000" fill="red">
  <title>Beijing</title>
</circle><line x1="477.959991" y1="1926.959961" x2="803.960022" y2="1870.959961" stroke="red" stroke-width="6.660000" />
<circle cx="1256.959961" cy="1482.959961" r="19.980000" fill="red">
  <title>Buenos Aires</title>
</circle><line x1="803.960022" y1="1870.959961" x2="1256.959961" y2="1482.959961" stroke="red" stroke-width="6.660000" />
<circle cx="1717.959961" cy="1639.959961" r="19.980000" fill="red">
  <title>Chongqing</title>
</circle><line x1="1256.959961" y1="1482.959961" x2="1717.959961" y2="1639.959961" stroke="red" stroke-width="6.660000" />
<circle cx="1852.959961" cy="1315.959961" r="19.980000" fill="red">
  <title>Osaka</title>
</circle><line x1="1717.959961" y1="1639.959961" x2="1852.959961" y2="1315.959961" stroke="red" stroke-width="6.660000" />
<circle cx="1968.959961" cy="1181.959961" r="19.980000" fill="red">
  <title>Istanbul</title>
</circle><line x1="1852.959961" y1="1315.959961" x2="1968.959961" y2="1181.959961" stroke="red" stroke-width="6.660000" />
<circle cx="1853.959961" cy="986.960022" r="19.980000" fill="red">
  <title>Shanghai</title>
</circle><line x1="1968.959961" y1="1181.959961" x2="1853.959961" y2="986.960022" stroke="red" stroke-width="6.660000" />
<circle cx="1995.959961" cy="315.959991" r="19.980000" fill="red">
  <title>Cairo</title>
</circle><line x1="1853.959961" y1="986.960022" x2="1995.959961" y2="315.959991" stroke="red" stroke-width="6.660000" />
<circle cx="1887.959961" cy="174.959991" r="19.980000" fill="red">
  <title>Mexico City</title>
</circle><line x1="1995.959961" y1="315.959991" x2="1887.959961" y2="174.959991" stroke="red" stroke-width="6.660000" />
<circle cx="1615.959961" cy="760.960022" r="19.980000" fill="red">
  <title>Kolkata</title>
</circle><line x1="1887.959961" y1="174.959991" x2="1615.959961" y2="760.960022" stroke="red" stroke-width="6.660000" />
<circle cx="1061.959961" cy="749.960022" r="19.980000" fill="red">
  <title>Rio de Janeiro</title>
</circle><line x1="1615.959961" y1="760.960022" x2="1061.959961" y2="749.960022" stroke="red" stroke-width="6.660000" />
</svg>
