<?xml version="1.0" encoding="UTF-8" standalone="no"?>
<svg width="500" height="500" viewBox="0 0 2074.000000 2074.000000" xmlns="http://www.w3.org/2000/svg">
<rect x="19.000000" y="19.000000" width="2036.000000" height="2036.000000" fill="black" />
<circle cx="171.959991" cy="112.959999" r="19.980000" fill="red">
  <title>Tokyo</title>
</circle><line x1="1013.960022" y1="1714.959961" x2="171.959991" y2="112.959999" stroke="red" stroke-width="6.660000" />
<circle cx="597.960022" cy="1579.959961" r="19.980000" fill="red">
  <title>Delhi</title>
</circle><line x1="171.959991" y1="112.959999" x2="597.960022" y2="1579.959961" stroke="red" stroke-width="6.660000" />
<circle cx="1703.959961" cy="1913.959961" r="19.980000" fill="red">
  <title>São Paulo</title>
</circle><line x1="597.960022" y1="1579.959961" x2="1703.959961" y2="1913.959961" stroke="red" stroke-width="6.660000" />
<circle cx="1013.960022" cy="1714.959961" r="19.980000" fill="red">
  <title>Shanghai</title>
</circle><line x1="1703.959961" y1="1913.959961" x2="1013.960022" y2="1714.959961" stroke="red" stroke-width="6.660000" />
</svg>
