<?xml version="1.0" encoding="UTF-8" standalone="no"?>
<svg width="500" height="500" viewBox="0 0 2074.000000 2074.000000" xmlns="http://www.w3.org/2000/svg">
<rect x="19.000000" y="19.000000" width="2036.000000" height="2036.000000" fill="black" />
<circle cx="1500.959961" cy="1586.959961" r="19.980000" fill="red">
  <title>Tokyo</title>
</circle><line x1="814.960022" y1="1229.959961" x2="1500.959961" y2="1586.959961" stroke="red" stroke-width="6.660000" />
<circle cx="1500.959961" cy="1714.959961" r="19.980000" fill="red">
  <title>New York</title>
</circle><line x1="1500.959961" y1="1586.959961" x2="1500.959961" y2="1714.959961" stroke="red" stroke-width="6.660000" />
<circle cx="1983.959961" cy="1821.959961" r="19.980000" fill="red">
  <title>São Paulo</title>
</circle><line x1="1500.959961" y1="1714.959961" x2="1983.959961" y2="1821.959961" stroke="red" stroke-width="6.660000" />
<circle cx="1630.959961" cy="1360.959961" r="19.980000" fill="red">
  <title>Shanghai</title>
</circle><line x1="1983.959961" y1="1821.959961" x2="1630.959961" y2="1360.959961" stroke="red" stroke-width="6.660000" />
<circle cx="1567.959961" cy="752.960022" r="19.980000" fill="red">
  <title>Buenos Aires</title>
</circle><line x1="1630.959961" y1="1360.959961" x2="1567.959961" y2="752.960022" stroke="red" stroke-width="6.660000" />
<circle cx="1921.959961" cy="637.960022" r="19.980000" fill="red">
  <title>Mexico City</title>
</circle><line x1="1567.959961" y1="752.960022" x2="1921.959961" y2="637.960022" stroke="red" stroke-width="6.660000" />
<circle cx="1561.959961" cy="541.960022" r="19.980000" fill="red">
  <title>Karachi</title>
</circle><line x1="1921.959961" y1="637.960022" x2="1561.959961" y2="541.960022" stroke="red" stroke-width="6.660000" />
<circle cx="1457.959961" cy="462.959991" r="19.980000" fill="red">
  <title>Dhaka</title>
</circle><line x1="1561.959961" y1="541.960022" x2="1457.959961" y2="462.959991" stroke="red" stroke-width="6.660000" />
<circle cx="1381.959961" cy="296.959991" r="19.980000" fill="red">
  <title>Beijing</title>
</circle><line x1="1457.959961" y1="462.959991" x2="1381.959961" y2="296.959991" stroke="red" stroke-width="6.660000" />
<circle cx="1215.959961" cy="253.959991" r="19.980000" fill="red">
  <title>Cairo</title>
</circle><line x1="1381.959961" y1="296.959991" x2="1215.959961" y2="253.959991" stroke="red" stroke-width="6.660000" />
<circle cx="1199.959961" cy="358.959991" r="19.980000" fill="red">
  <title>Delhi</title>
</circle><line x1="1215.959961" y1="253.959991" x2="1199.959961" y2="358.959991" stroke="red" stroke-width="6.660000" />
<circle cx="502.959991" cy="437.959991" r="19.980000" fill="red">
  <title>Osaka</title>
</circle><line x1="1199.959961" y1="358.959991" x2="502.959991" y2="437.959991" stroke="red" stroke-width="6.660000" />
<circle cx="764.960022" cy="998.960022" r="19.980000" fill="red">
  <title>Mumbai</title>
</circle><line x1="502.959991" y1="437.959991" x2="764.960022" y2="998.960022" stroke="red" stroke-width="6.660000" />
<circle cx="814.960022" cy="1229.959961" r="19.980000" fill="red">
  <title>Chongqing</title>
</circle><line x1="764.960022" y1="998.960022" x2="814.960022" y2="1229.959961" stroke="red" stroke-width="6.660000" />
</svg>
