<?xml version="1.0" encoding="UTF-8" standalone="no"?>
<svg width="500" height="500" viewBox="0 0 2074.000000 2074.000000" xmlns="http://www.w3.org/2000/svg">
<rect x="19.000000" y="19.000000" width="2036.000000" height="2036.000000" fill="black" />
<circle cx="1307.959961" cy="1304.959961" r="19.980000" fill="red">
  <title>Tokyo</title>
</circle><line x1="1695.959961" y1="1919.959961" x2="1307.959961" y2="1304.959961" stroke="red" stroke-width="6.660000" />
<circle cx="1859.959961" cy="438.959991" r="19.980000" fill="red">
  <title>Shanghai</title>
</circle><line x1="1307.959961" y1="1304.959961" x2="1859.959961" y2="438.959991" stroke="red" stroke-width="6.660000" />
<circle cx="1773.959961" cy="69.959999" r="19.980000" fill="red">
  <title>Mexico City</title>
</circle><line x1="1859.959961" y1="438.959991" x2="1773.959961" y2="69.959999" stroke="red" stroke-width="6.660000" />
<circle cx="1329.959961" cy="399.959991" r="19.980000" fill="red">
  <title>São Paulo</title>
</circle><line x1="1773.959961" y1="69.959999" x2="1329.959961" y2="399.959991" stroke="red" stroke-width="6.660000" />
<circle cx="410.959991" cy="1324.959961" r="19.980000" fill="red">
  <title>Cairo</title>
</circle><line x1="1329.959961" y1="399.959991" x2="410.959991" y2="1324.959961" stroke="red" stroke-width="6.660000" />
<circle cx="125.959999" cy="1948.959961" r="19.980000" fill="red">
  <title>Delhi</title>
</circle><line x1="410.959991" y1="1324.959961" x2="125.959999" y2="1948.959961" stroke="red" stroke-width="6.660000" />
<circle cx="1695.959961" cy="1919.959961" r="19.980000" fill="red">
  <title>Mumbai</title>
</circle><line x1="125.959999" y1="1948.959961" x2="1695.959961" y2="1919.959961" stroke="red" stroke-width="6.660000" />
</svg>
