<?xml version="1.0" encoding="UTF-8" standalone="no"?>
<svg width="500" height="500" viewBox="0 0 2074.000000 2074.000000" xmlns="http://www.w3.org/2000/svg">
<rect x="19.000000" y="19.000000" width="2036.000000" height="2036.000000" fill="black" />
<circle cx="429.959991" cy="2008.959961" r="19.980000" fill="red">
  <title>Tokyo</title>
</circle><line x1="1434.959961" y1="1840.959961" x2="429.959991" y2="2008.959961" stroke="red" stroke-width="6.660000" />
<circle cx="264.959991" cy="981.960022" r="19.980000" fill="red">
  <title>Dhaka</title>
</circle><line x1="429.959991" y1="2008.959961" x2="264.959991" y2="981.960022" stroke="red" stroke-width="6.660000" />
<circle cx="629.960022" cy="656.960022" r="19.980000" fill="red">
  <title>Beijing</title>
</circle><line x1="264.959991" y1="981.960022" x2="629.960022" y2="656.960022" stroke="red" stroke-width="6.660000" />
<circle cx="328.959991" cy="227.959991" r="19.980000" fill="red">
  <title>Mumbai</title>
</circle><line x1="629.960022" y1="656.960022" x2="328.959991" y2="227.959991" stroke="red" stroke-width="6.660000" />
<circle cx="767.960022" cy="48.959999" r="19.980000" fill="red">
  <title>Delhi</title>
</circle><line x1="328.959991" y1="227.959991" x2="767.960022" y2="48.959999" stroke="red" stroke-width="6.660000" />
<circle cx="1359.959961" cy="503.959991" r="19.980000" fill="red">
  <title>Mexico City</title>
</circle><line x1="767.960022" y1="48.959999" x2="1359.959961" y2="503.959991" stroke="red" stroke-width="6.660000" />
<circle cx="1787.959961" cy="532.960022" r="19.980000" fill="red">
  <title>São Paulo</title>
</circle><line x1="1359.959961" y1="503.959991" x2="1787.959961" y2="532.960022" stroke="red" stroke-width="6.660000" />
<circle cx="1074.959961" cy="1461.959961" r="19.980000" fill="red">
  <title>Shanghai</title>
</circle><line x1="1787.959961" y1="532.960022" x2="1074.959961" y2="1461.959961" stroke="red" stroke-width="6.660000" />
<circle cx="1434.959961" cy="1840.959961" r="19.980000" fill="red">
  <title>Cairo</title>
</circle><line x1="1074.959961" y1="1461.959961" x2="1434.959961" y2="1840.959961" stroke="red" stroke-width="6.660000" />
</svg>
