<?xml version="1.0" encoding="UTF-8" standalone="no"?>
<svg width="500" height="500" viewBox="0 0 2074.000000 2074.000000" xmlns="http://www.w3.org/2000/svg">
<rect x="19.000000" y="19.000000" width="2036.000000" height="2036.000000" fill="black" />
<circle cx="943.960022" cy="1277.959961" r="19.980000" fill="red">
  <title>Tokyo</title>
</circle><line x1="354.959991" y1="1901.959961" x2="943.960022" y2="1277.959961" stroke="red" stroke-width="6.660000" />
<circle cx="1792.959961" cy="822.960022" r="19.980000" fill="red">
  <title>Shanghai</title>
</circle><line x1="943.960022" y1="1277.959961" x2="1792.959961" y2="822.960022" stroke="red" stroke-width="6.660000" />
<circle cx="929.960022" cy="810.960022" r="19.980000" fill="red">
  <title>Mexico City</title>
</circle><line x1="1792.959961" y1="822.960022" x2="929.960022" y2="810.960022" stroke="red" stroke-width="6.660000" />
<circle cx="853.960022" cy="1052.959961" r="19.980000" fill="red">
  <title>Delhi</title>
</circle><line x1="929.960022" y1="810.960022" x2="853.960022" y2="1052.959961" stroke="red" stroke-width="6.660000" />
<circle cx="354.959991" cy="1901.959961" r="19.980000" fill="red">
  <title>São Paulo</title>
</circle><line x1="853.960022" y1="1052.959961" x2="354.959991" y2="1901.959961" stroke="red" stroke-width="6.660000" />
</svg>
