<?xml version="1.0" encoding="UTF-8" standalone="no"?>
<svg width="500" height="500" viewBox="0 0 2074.000000 2074.000000" xmlns="http://www.w3.org/2000/svg">
<rect x="19.000000" y="19.000000" width="2036.000000" height="2036.000000" fill="black" />
<circle cx="1500.959961" cy="824.960022" r="19.980000" fill="red">
  <title>Tokyo</title>
</circle><line x1="1619.959961" y1="1374.959961" x2="1500.959961" y2="824.960022" stroke="red" stroke-width="6.660000" />
<circle cx="1625.959961" cy="1123.959961" r="19.980000" fill="red">
  <title>Delhi</title>
</circle><line x1="1500.959961" y1="824.960022" x2="1625.959961" y2="1123.959961" stroke="red" stroke-width="6.660000" />
<circle cx="1099.959961" cy="1688.959961" r="19.980000" fill="red">
  <title>Cairo</title>
</circle><line x1="1625.959961" y1="1123.959961" x2="1099.959961" y2="1688.959961" stroke="red" stroke-width="6.660000" />
<circle cx="48.959999" cy="1768.959961" r="19.980000" fill="red">
  <title>Mexico City</title>
</circle><line x1="1099.959961" y1="1688.959961" x2="48.959999" y2="1768.959961" stroke="red" stroke-width="6.660000" />
<circle cx="1509.959961" cy="1718.959961" r="19.980000" fill="red">
  <title>São Paulo</title>
</circle><line x1="48.959999" y1="1768.959961" x2="1509.959961" y2="1718.959961" stroke="red" stroke-width="6.660000" />
<circle cx="1619.959961" cy="1374.959961" r="19.980000" fill="red">
  <title>Shanghai</title>
</circle><line x1="1509.959961" y1="1718.959961" x2="1619.959961" y2="1374.959961" stroke="red" stroke-width="6.660000" />
</svg>
