<?xml version="1.0" encoding="UTF-8" standalone="no"?>
<svg width="500" height="500" viewBox="0 0 2074.000000 2074.000000" xmlns="http://www.w3.org/2000/svg">
<rect x="19.000000" y="19.000000" width="2036.000000" height="2036.000000" fill="black" />
<circle cx="1639.959961" cy="824.960022" r="19.980000" fill="red">
  <title>Tokyo</title>
</circle><line x1="1396.959961" y1="306.959991" x2="1639.959961" y2="824.960022" stroke="red" stroke-width="6.660000" />
<circle cx="1187.959961" cy="1495.959961" r="19.980000" fill="red">
  <title>Delhi</title>
</circle><line x1="1639.959961" y1="824.960022" x2="1187.959961" y2="1495.959961" stroke="red" stroke-width="6.660000" />
<circle cx="81.959999" cy="1450.959961" r="19.980000" fill="red">
  <title>São Paulo</title>
</circle><line x1="1187.959961" y1="1495.959961" x2="81.959999" y2="1450.959961" stroke="red" stroke-width="6.660000" />
<circle cx="1396.959961" cy="306.959991" r="19.980000" fill="red">
  <title>Shanghai</title>
</circle><line x1="81.959999" y1="1450.959961" x2="1396.959961" y2="306.959991" stroke="red" stroke-width="6.660000" />
</svg>
