<?xml version="1.0" encoding="UTF-8" standalone="no"?>
<svg width="500" height="500" viewBox="0 0 2074.000000 2074.000000" xmlns="http://www.w3.org/2000/svg">
<rect x="19.000000" y="19.000000" width="2036.000000" height="2036.000000" fill="black" />
<circle cx="1126.959961" cy="587.960022" r="19.980000" fill="red">
  <title>Tokyo</title>
</circle><line x1="1458.959961" y1="71.959999" x2="1126.959961" y2="587.960022" stroke="red" stroke-width="6.660000" />
<circle cx="831.960022" cy="622.960022" r="19.980000" fill="red">
  <title>Kolkata</title>
</circle><line x1="1126.959961" y1="587.960022" x2="831.960022" y2="622.960022" stroke="red" stroke-width="6.660000" />
<circle cx="712.960022" cy="191.959991" r="19.980000" fill="red">
  <title>Beijing</title>
</circle><line x1="831.960022" y1="622.960022" x2="712.960022" y2="191.959991" stroke="red" stroke-width="6.660000" />
<circle cx="385.959991" cy="369.959991" r="19.980000" fill="red">
  <title>Karachi</title>
</circle><line x1="712.960022" y1="191.959991" x2="385.959991" y2="369.959991" stroke="red" stroke-width="6.660000" />
<circle cx="140.959991" cy="251.959991" r="19.980000" fill="red">
  <title>Manila</title>
</circle><line x1="385.959991" y1="369.959991" x2="140.959991" y2="251.959991" stroke="red" stroke-width="6.660000" />
<circle cx="361.959991" cy="793.960022" r="19.980000" fill="red">
  <title>Cairo</title>
</circle><line x1="140.959991" y1="251.959991" x2="361.959991" y2="793.960022" stroke="red" stroke-width="6.660000" />
<circle cx="329.959991" cy="1394.959961" r="19.980000" fill="red">
  <title>Dhaka</title>
</circle><line x1="361.959991" y1="793.960022" x2="329.959991" y2="1394.959961" stroke="red" stroke-width="6.660000" />
<circle cx="825.960022" cy="1416.959961" r="19.980000" fill="red">
  <title>Mexico City</title>
</circle><line x1="329.959991" y1="1394.959961" x2="825.960022" y2="1416.959961" stroke="red" stroke-width="6.660000" />
<circle cx="1178.959961" cy="1925.959961" r="19.980000" fill="red">
  <title>Osaka</title>
</circle><line x1="825.960022" y1="1416.959961" x2="1178.959961" y2="1925.959961" stroke="red" stroke-width="6.660000" />
<circle cx="1534.959961" cy="1590.959961" r="19.980000" fill="red">
  <title>Istanbul</title>
</circle><line x1="1178.959961" y1="1925.959961" x2="1534.959961" y2="1590.959961" stroke="red" stroke-width="6.660000" />
<circle cx="2009.959961" cy="1597.959961" r="19.980000" fill="red">
  <title>Shanghai</title>
</circle><line x1="1534.959961" y1="1590.959961" x2="2009.959961" y2="1597.959961" stroke="red" stroke-width="6.660000" />
<circle cx="1941.959961" cy="1467.959961" r="19.980000" fill="red">
  <title>New York</title>
</circle><line x1="2009.959961" y1="1597.959961" x2="1941.959961" y2="1467.959961" stroke="red" stroke-width="6.660000" />
<circle cx="1651.959961" cy="1368.959961" r="19.980000" fill="red">
  <title>Buenos Aires</title>
</circle><line x1="1941.959961" y1="1467.959961" x2="1651.959961" y2="1368.959961" stroke="red" stroke-width="6.660000" />
<circle cx="1345.959961" cy="1385.959961" r="19.980000" fill="red">
  <title>Mumbai</title>
</circle><line x1="1651.959961" y1="1368.959961" x2="1345.959961" y2="1385.959961" stroke="red" stroke-width="6.660000" />
<circle cx="1103.959961" cy="1223.959961" r="19.980000" fill="red">
  <title>Chongqing</title>
</circle><line x1="1345.959961" y1="1385.959961" x2="1103.959961" y2="1223.959961" stroke="red" stroke-width="6.660000" />
<circle cx="1190.959961" cy="590.960022" r="19.980000" fill="red">
  <title>São Paulo</title>
</circle><line x1="1103.959961" y1="1223.959961" x2="1190.959961" y2="590.960022" stroke="red" stroke-width="6.660000" />
<circle cx="1458.959961" cy="71.959999" r="19.980000" fill="red">
  <title>Delhi</title>
</circle><line x1="1190.959961" y1="590.960022" x2="1458.959961" y2="71.959999" stroke="red" stroke-width="6.660000" />
</svg>
