<?xml version="1.0" encoding="UTF-8" standalone="no"?>
<svg width="500" height="500" viewBox="0 0 2074.000000 2074.000000" xmlns="http://www.w3.org/2000/svg">
<rect x="19.000000" y="19.000000" width="2036.000000" height="2036.000000" fill="black" />
<circle cx="511.959991" cy="1903.959961" r="19.980000" fill="red">
  <title>Tokyo</title>
</circle><line x1="340.959991" y1="891.960022" x2="511.959991" y2="1903.959961" stroke="red" stroke-width="6.660000" />
<circle cx="1304.959961" cy="1910.959961" r="19.980000" fill="red">
  <title>São Paulo</title>
</circle><line x1="511.959991" y1="1903.959961" x2="1304.959961" y2="1910.959961" stroke="red" stroke-width="6.660000" />
<circle cx="1905.959961" cy="1987.959961" r="19.980000" fill="red">
  <title>Mumbai</title>
</circle><line x1="1304.959961" y1="1910.959961" x2="1905.959961" y2="1987.959961" stroke="red" stroke-width="6.660000" />
<circle cx="1503.959961" cy="1352.959961" r="19.980000" fill="red">
  <title>Mexico City</title>
</circle><line x1="1905.959961" y1="1987.959961" x2="1503.959961" y2="1352.959961" stroke="red" stroke-width="6.660000" />
<circle cx="1861.959961" cy="1200.959961" r="19.980000" fill="red">
  <title>Delhi</title>
</circle><line x1="1503.959961" y1="1352.959961" x2="1861.959961" y2="1200.959961" stroke="red" stroke-width="6.660000" />
<circle cx="1718.959961" cy="560.960022" r="19.980000" fill="red">
  <title>Beijing</title>
</circle><line x1="1861.959961" y1="1200.959961" x2="1718.959961" y2="560.960022" stroke="red" stroke-width="6.660000" />
<circle cx="1659.959961" cy="576.960022" r="19.980000" fill="red">
  <title>Dhaka</title>
</circle><line x1="1718.959961" y1="560.960022" x2="1659.959961" y2="576.960022" stroke="red" stroke-width="6.660000" />
<circle cx="1091.959961" cy="1180.959961" r="19.980000" fill="red">
  <title>Shanghai</title>
</circle><line x1="1659.959961" y1="576.960022" x2="1091.959961" y2="1180.959961" stroke="red" stroke-width="6.660000" />
<circle cx="295.959991" cy="571.960022" r="19.980000" fill="red">
  <title>Cairo</title>
</circle><line x1="1091.959961" y1="1180.959961" x2="295.959991" y2="571.960022" stroke="red" stroke-width="6.660000" />
<circle cx="340.959991" cy="891.960022" r="19.980000" fill="red">
  <title>Osaka</title>
</circle><line x1="295.959991" y1="571.960022" x2="340.959991" y2="891.960022" stroke="red" stroke-width="6.660000" />
</svg>
