<?xml version="1.0" encoding="UTF-8" standalone="no"?>
<svg width="500" height="500" viewBox="0 0 2074.000000 2074.000000" xmlns="http://www.w3.org/2000/svg">
<rect x="19.000000" y="19.000000" width="2036.000000" height="2036.000000" fill="black" />
<circle cx="612.960022" cy="1794.959961" r="19.980000" fill="red">
  <title>Tokyo</title>
</circle><line x1="144.959991" y1="971.960022" x2="612.960022" y2="1794.959961" stroke="red" stroke-width="6.660000" />
<circle cx="1114.959961" cy="1524.959961" r="19.980000" fill="red">
  <title>São Paulo</title>
</circle><line x1="612.960022" y1="1794.959961" x2="1114.959961" y2="1524.959961" stroke="red" stroke-width="6.660000" />
<circle cx="1869.959961" cy="1423.959961" r="19.980000" fill="red">
  <title>Delhi</title>
</circle><line x1="1114.959961" y1="1524.959961" x2="1869.959961" y2="1423.959961" stroke="red" stroke-width="6.660000" />
<circle cx="1721.959961" cy="758.960022" r="19.980000" fill="red">
  <title>Mexico City</title>
</circle><line x1="1869.959961" y1="1423.959961" x2="1721.959961" y2="758.960022" stroke="red" stroke-width="6.660000" />
<circle cx="1111.959961" cy="392.959991" r="19.980000" fill="red">
  <title>Shanghai</title>
</circle><line x1="1721.959961" y1="758.960022" x2="1111.959961" y2="392.959991" stroke="red" stroke-width="6.660000" />
<circle cx="144.959991" cy="971.960022" r="19.980000" fill="red">
  <title>Cairo</title>
</circle><line x1="1111.959961" y1="392.959991" x2="144.959991" y2="971.960022" stroke="red" stroke-width="6.660000" />
</svg>
