<?xml version="1.0" encoding="UTF-8" standalone="no"?>
<svg width="500" height="500" viewBox="0 0 2074.000000 2074.000000" xmlns="http://www.w3.org/2000/svg">
<rect x="19.000000" y="19.000000" width="2036.000000" height="2036.000000" fill="black" />
<circle cx="912.960022" cy="144.959991" r="19.980000" fill="red">
  <title>Tokyo</title>
</circle><line x1="348.959991" y1="327.959991" x2="912.960022" y2="144.959991" stroke="red" stroke-width="6.660000" />
<circle cx="947.960022" cy="75.959999" r="19.980000" fill="red">
  <title>Beijing</title>
</circle><line x1="912.960022" y1="144.959991" x2="947.960022" y2="75.959999" stroke="red" stroke-width="6.660000" />
<circle cx="1265.959961" cy="67.959999" r="19.980000" fill="red">
  <title>Dhaka</title>
</circle><line x1="947.960022" y1="75.959999" x2="1265.959961" y2="67.959999" stroke="red" stroke-width="6.660000" />
<circle cx="1621.959961" cy="262.959991" r="19.980000" fill="red">
  <title>Istanbul</title>
</circle><line x1="1265.959961" y1="67.959999" x2="1621.959961" y2="262.959991" stroke="red" stroke-width="6.660000" />
<circle cx="1726.959961" cy="1138.959961" r="19.980000" fill="red">
  <title>Delhi</title>
</circle><line x1="1621.959961" y1="262.959991" x2="1726.959961" y2="1138.959961" stroke="red" stroke-width="6.660000" />
<circle cx="1516.959961" cy="1235.959961" r="19.980000" fill="red">
  <title>Mexico City</title>
</circle><line x1="1726.959961" y1="1138.959961" x2="1516.959961" y2="1235.959961" stroke="red" stroke-width="6.660000" />
<circle cx="1245.959961" cy="1203.959961" r="19.980000" fill="red">
  <title>Karachi</title>
</circle><line x1="1516.959961" y1="1235.959961" x2="1245.959961" y2="1203.959961" stroke="red" stroke-width="6.660000" />
<circle cx="1143.959961" cy="1897.959961" r="19.980000" fill="red">
  <title>São Paulo</title>
</circle><line x1="1245.959961" y1="1203.959961" x2="1143.959961" y2="1897.959961" stroke="red" stroke-width="6.660000" />
<circle cx="829.960022" cy="1808.959961" r="19.980000" fill="red">
  <title>Cairo</title>
</circle><line x1="1143.959961" y1="1897.959961" x2="829.960022" y2="1808.959961" stroke="red" stroke-width="6.660000" />
<circle cx="169.959991" cy="1872.959961" r="19.980000" fill="red">
  <title>Mumbai</title>
</circle><line x1="829.960022" y1="1808.959961" x2="169.959991" y2="1872.959961" stroke="red" stroke-width="6.660000" />
<circle cx="344.959991" cy="1749.959961" r="19.980000" fill="red">
  <title>Chongqing</title>
</circle><line x1="169.959991" y1="1872.959961" x2="344.959991" y2="1749.959961" stroke="red" stroke-width="6.660000" />
<circle cx="825.960022" cy="1228.959961" r="19.980000" fill="red">
  <title>Shanghai</title>
</circle><line x1="344.959991" y1="1749.959961" x2="825.960022" y2="1228.959961" stroke="red" stroke-width="6.660000" />
<circle cx="468.959991" cy="859.960022" r="19.980000" fill="red">
  <title>Buenos Aires</title>
</circle><line x1="825.960022" y1="1228.959961" x2="468.959991" y2="859.960022" stroke="red" stroke-width="6.660000" />
<circle cx="349.959991" cy="529.960022" r="19.980000" fill="red">
  <title>New York</title>
</circle><line x1="468.959991" y1="859.960022" x2="349.959991" y2="529.960022" stroke="red" stroke-width="6.660000" />
<circle cx="348.959991" cy="327.959991" r="19.980000" fill="red">
  <title>Osaka</title>
</circle><line x1="349.959991" y1="529.960022" x2="348.959991" y2="327.959991" stroke="red" stroke-width="6.660000" />
</svg>
