<?xml version="1.0" encoding="UTF-8" standalone="no"?>
<svg width="500" height="500" viewBox="0 0 2074.000000 2074.000000" xmlns="http://www.w3.org/2000/svg">
<rect x="19.000000" y="19.000000" width="2036.000000" height="2036.000000" fill="black" />
<circle cx="410.959991" cy="1520.959961" r="19.980000" fill="red">
  <title>Tokyo</title>
</circle><line x1="1642.959961" y1="1811.959961" x2="410.959991" y2="1520.959961" stroke="red" stroke-width="6.660000" />
<circle cx="198.959991" cy="1471.959961" r="19.980000" fill="red">
  <title>Cairo</title>
</circle><line x1="410.959991" y1="1520.959961" x2="198.959991" y2="1471.959961" stroke="red" stroke-width="6.660000" />
<circle cx="533.960022" cy="869.960022" r="19.980000" fill="red">
  <title>Beijing</title>
</circle><line x1="198.959991" y1="1471.959961" x2="533.960022" y2="869.960022" stroke="red" stroke-width="6.660000" />
<circle cx="342.959991" cy="178.959991" r="19.980000" fill="red">
  <title>São Paulo</title>
</circle><line x1="533.960022" y1="869.960022" x2="342.959991" y2="178.959991" stroke="red" stroke-width="6.660000" />
<circle cx="1546.959961" cy="44.959999" r="19.980000" fill="red">
  <title>Mumbai</title>
</circle><line x1="342.959991" y1="178.959991" x2="1546.959961" y2="44.959999" stroke="red" stroke-width="6.660000" />
<circle cx="1685.959961" cy="491.959991" r="19.980000" fill="red">
  <title>Delhi</title>
</circle><line x1="1546.959961" y1="44.959999" x2="1685.959961" y2="491.959991" stroke="red" stroke-width="6.660000" />
<circle cx="1526.959961" cy="805.960022" r="19.980000" fill="red">
  <title>Mexico City</title>
</circle><line x1="1685.959961" y1="491.959991" x2="1526.959961" y2="805.960022" stroke="red" stroke-width="6.660000" />
<circle cx="1814.959961" cy="977.960022" r="19.980000" fill="red">
  <title>Dhaka</title>
</circle><line x1="1526.959961" y1="805.960022" x2="1814.959961" y2="977.960022" stroke="red" stroke-width="6.660000" />
<circle cx="1642.959961" cy="1811.959961" r="19.980000" fill="red">
  <title>Shanghai</title>
</circle><line x1="1814.959961" y1="977.960022" x2="1642.959961" y2="1811.959961" stroke="red" stroke-width="6.660000" />
</svg>
