<?xml version="1.0" encoding="UTF-8" standalone="no"?>
<svg width="500" height="500" viewBox="0 0 2074.000000 2074.000000" xmlns="http://www.w3.org/2000/svg">
<rect x="19.000000" y="19.000000" width="2036.000000" height="2036.000000" fill="black" />
<circle cx="1550.959961" cy="925.960022" r="19.980000" fill="red">
  <title>Tokyo</title>
</circle><line x1="1394.959961" y1="1267.959961" x2="1550.959961" y2="925.960022" stroke="red" stroke-width="6.660000" />
<circle cx="1620.959961" cy="311.959991" r="19.980000" fill="red">
  <title>Shanghai</title>
</circle><line x1="1550.959961" y1="925.960022" x2="1620.959961" y2="311.959991" stroke="red" stroke-width="6.660000" />
<circle cx="832.960022" cy="1088.959961" r="19.980000" fill="red">
  <title>Delhi</title>
</circle><line x1="1620.959961" y1="311.959991" x2="832.960022" y2="1088.959961" stroke="red" stroke-width="6.660000" />
<circle cx="277.959991" cy="1060.959961" r="19.980000" fill="red">
  <title>Cairo</title>
</circle><line x1="832.960022" y1="1088.959961" x2="277.959991" y2="1060.959961" stroke="red" stroke-width="6.660000" />
<circle cx="854.960022" cy="1567.959961" r="19.980000" fill="red">
  <title>São Paulo</title>
</circle><line x1="277.959991" y1="1060.959961" x2="854.960022" y2="1567.959961" stroke="red" stroke-width="6.660000" />
<circle cx="1694.959961" cy="1818.959961" r="19.980000" fill="red">
  <title>Mexico City</title>
</circle><line x1="854.960022" y1="1567.959961" x2="1694.959961" y2="1818.959961" stroke="red" stroke-width="6.660000" />
<circle cx="1394.959961" cy="1267.959961" r="19.980000" fill="red">
  <title>Mumbai</title>
</circle><line x1="1694.959961" y1="1818.959961" x2="1394.959961" y2="1267.959961" stroke="red" stroke-width="6.660000" />
</svg>
