<?xml version="1.0" encoding="UTF-8" standalone="no"?>
<svg width="500" height="500" viewBox="0 0 2074.000000 2074.000000" xmlns="http://www.w3.org/2000/svg">
<rect x="19.000000" y="19.000000" width="2036.000000" height="2036.000000" fill="black" />
<circle cx="1721.959961" cy="1300.959961" r="19.980000" fill="red">
  <title>Tokyo</title>
</circle><line x1="1892.959961" y1="1739.959961" x2="1721.959961" y2="1300.959961" stroke="red" stroke-width="6.660000" />
<circle cx="1742.959961" cy="610.960022" r="19.980000" fill="red">
  <title>Delhi</title>
</circle><line x1="1721.959961" y1="1300.959961" x2="1742.959961" y2="610.960022" stroke="red" stroke-width="6.660000" />
<circle cx="466.959991" cy="150.959991" r="19.980000" fill="red">
  <title>Cairo</title>
</circle><line x1="1742.959961" y1="610.960022" x2="466.959991" y2="150.959991" stroke="red" stroke-width="6.660000" />
<circle cx="798.960022" cy="922.960022" r="19.980000" fill="red">
  <title>Mexico City</title>
</circle><line x1="466.959991" y1="150.959991" x2="798.960022" y2="922.960022" stroke="red" stroke-width="6.660000" />
<circle cx="1141.959961" cy="1070.959961" r="19.980000" fill="red">
  <title>Shanghai</title>
</circle><line x1="798.960022" y1="922.960022" x2="1141.959961" y2="1070.959961" stroke="red" stroke-width="6.660000" />
<circle cx="1892.959961" cy="1739.959961" r="19.980000" fill="red">
  <title>São Paulo</title>
</circle><line x1="1141.959961" y1="1070.959961" x2="1892.959961" y2="1739.959961" stroke="red" stroke-width="6.660000" />
</svg>
