<?xml version="1.0" encoding="UTF-8" standalone="no"?>
<svg width="500" height="500" viewBox="0 0 2074.000000 2074.000000" xmlns="http://www.w3.org/2000/svg">
<rect x="19.000000" y="19.000000" width="2036.000000" height="2036.000000" fill="black" />
<circle cx="1158.959961" cy="1642.959961" r="19.980000" fill="red">
  <title>Tokyo</title>
</circle><line x1="1721.959961" y1="340.959991" x2="1158.959961" y2="1642.959961" stroke="red" stroke-width="6.660000" />
<circle cx="1218.959961" cy="1731.959961" r="19.980000" fill="red">
  <title>Mexico City</title>
</circle><line x1="1158.959961" y1="1642.959961" x2="1218.959961" y2="1731.959961" stroke="red" stroke-width="6.660000" />
<circle cx="975.960022" cy="1831.959961" r="19.980000" fill="red">
  <title>Cairo</title>
</circle><line x1="1218.959961" y1="1731.959961" x2="975.960022" y2="1831.959961" stroke="red" stroke-width="6.660000" />
<circle cx="652.960022" cy="794.960022" r="19.980000" fill="red">
  <title>Dhaka</title>
</circle><line x1="975.960022" y1="1831.959961" x2="652.960022" y2="794.960022" stroke="red" stroke-width="6.660000" />
<circle cx="647.960022" cy="420.959991" r="19.980000" fill="red">
  <title>Delhi</title>
</circle><line x1="652.960022" y1="794.960022" x2="647.960022" y2="420.959991" stroke="red" stroke-width="6.660000" />
<circle cx="495.959991" cy="513.960022" r="19.980000" fill="red">
  <title>São Paulo</title>
</circle><line x1="647.960022" y1="420.959991" x2="495.959991" y2="513.960022" stroke="red" stroke-width="6.660000" />
<circle cx="84.959999" cy="243.959991" r="19.980000" fill="red">
  <title>Osaka</title>
</circle><line x1="495.959991" y1="513.960022" x2="84.959999" y2="243.959991" stroke="red" stroke-width="6.660000" />
<circle cx="563.960022" cy="115.959999" r="19.980000" fill="red">
  <title>Mumbai</title>
</circle><line x1="84.959999" y1="243.959991" x2="563.960022" y2="115.959999" stroke="red" stroke-width="6.660000" />
<circle cx="901.960022" cy="230.959991" r="19.980000" fill="red">
  <title>Shanghai</title>
</circle><line x1="563.960022" y1="115.959999" x2="901.960022" y2="230.959991" stroke="red" stroke-width="6.660000" />
<circle cx="1721.959961" cy="340.959991" r="19.980000" fill="red">
  <title>Beijing</title>
</circle><line x1="901.960022" y1="230.959991" x2="1721.959961" y2="340.959991" stroke="red" stroke-width="6.660000" />
</svg>
