<?xml version="1.0" encoding="UTF-8" standalone="no"?>
<svg width="500" height="500" viewBox="0 0 2074.000000 2074.000000" xmlns="http://www.w3.org/2000/svg">
<rect x="19.000000" y="19.000000" width="2036.000000" height="2036.000000" fill="black" />
<circle cx="1618.959961" cy="542.960022" r="19.980000" fill="red">
  <title>Tokyo</title>
</circle><line x1="1700.959961" y1="1929.959961" x2="1618.959961" y2="542.960022" stroke="red" stroke-width="6.660000" />
<circle cx="378.959991" cy="329.959991" r="19.980000" fill="red">
  <title>Shanghai</title>
</circle><line x1="1618.959961" y1="542.960022" x2="378.959991" y2="329.959991" stroke="red" stroke-width="6.660000" />
<circle cx="1486.959961" cy="332.959991" r="19.980000" fill="red">
  <title>Delhi</title>
</circle><line x1="378.959991" y1="329.959991" x2="1486.959961" y2="332.959991" stroke="red" stroke-width="6.660000" />
<circle cx="2030.959961" cy="931.960022" r="19.980000" fill="red">
  <title>Mexico City</title>
</circle><line x1="1486.959961" y1="332.959991" x2="2030.959961" y2="931.960022" stroke="red" stroke-width="6.660000" />
<circle cx="1700.959961" cy="1929.959961" r="19.980000" fill="red">
  <title>São Paulo</title>
</circle><line x1="2030.959961" y1="931.960022" x2="1700.959961" y2="1929.959961" stroke="red" stroke-width="6.660000" />
</svg>
