<?xml version="1.0" encoding="UTF-8" standalone="no"?>
<svg width="500" height="500" viewBox="0 0 2074.000000 2074.000000" xmlns="http://www.w3.org/2000/svg">
<rect x="19.000000" y="19.000000" width="2036.000000" height="2036.000000" fill="black" />
<circle cx="634.960022" cy="1077.959961" r="19.980000" fill="red">
  <title>Tokyo</title>
</circle><line x1="882.960022" y1="1204.959961" x2="634.960022" y2="1077.959961" stroke="red" stroke-width="6.660000" />
<circle cx="999.960022" cy="172.959991" r="19.980000" fill="red">
  <title>Delhi</title>
</circle><line x1="634.960022" y1="1077.959961" x2="999.960022" y2="172.959991" stroke="red" stroke-width="6.660000" />
<circle cx="1537.959961" cy="373.959991" r="19.980000" fill="red">
  <title>Osaka</title>
</circle><line x1="999.960022" y1="172.959991" x2="1537.959961" y2="373.959991" stroke="red" stroke-width="6.660000" />
<circle cx="1796.959961" cy="412.959991" r="19.980000" fill="red">
  <title>Mexico City</title>
</circle><line x1="1537.959961" y1="373.959991" x2="1796.959961" y2="412.959991" stroke="red" stroke-width="6.660000" />
<circle cx="1472.959961" cy="732.960022" r="19.980000" fill="red">
  <title>Dhaka</title>
</circle><line x1="1796.959961" y1="412.959991" x2="1472.959961" y2="732.960022" stroke="red" stroke-width="6.660000" />
<circle cx="1615.959961" cy="1390.959961" r="19.980000" fill="red">
  <title>Beijing</title>
</circle><line x1="1472.959961" y1="732.960022" x2="1615.959961" y2="1390.959961" stroke="red" stroke-width="6.660000" />
<circle cx="1881.959961" cy="1614.959961" r="19.980000" fill="red">
  <title>Cairo</title>
</circle><line x1="1615.959961" y1="1390.959961" x2="1881.959961" y2="1614.959961" stroke="red" stroke-width="6.660000" />
<circle cx="1303.959961" cy="1808.959961" r="19.980000" fill="red">
  <title>Shanghai</title>
</circle><line x1="1881.959961" y1="1614.959961" x2="1303.959961" y2="1808.959961" stroke="red" stroke-width="6.660000" />
<circle cx="661.960022" cy="1518.959961" r="19.980000" fill="red">
  <title>São Paulo</title>
</circle><line x1="1303.959961" y1="1808.959961" x2="661.960022" y2="1518.959961" stroke="red" stroke-width="6.660000" />
<circle cx="882.960022" cy="1204.959961" r="19.980000" fill="red">
  <title>Mumbai</title>
</circle><line x1="661.960022" y1="1518.959961" x2="882.960022" y2="1204.959961" stroke="red" stroke-width="6.660000" />
</svg>
