<?xml version="1.0" encoding="UTF-8" standalone="no"?>
<svg width="500" height="500" viewBox="0 0 2074.000000 2074.000000" xmlns="http://www.w3.org/2000/svg">
<rect x="19.000000" y="19.000000" width="2036.000000" height="2036.000000" fill="black" />
<circle cx="93.959999" cy="1819.959961" r="19.980000" fill="red">
  <title>Tokyo</title>
</circle><line x1="748.960022" y1="1511.959961" x2="93.959999" y2="1819.959961" stroke="red" stroke-width="6.660000" />
<circle cx="703.960022" cy="1646.959961" r="19.980000" fill="red">
  <title>Mumbai</title>
</circle><line x1="93.959999" y1="1819.959961" x2="703.960022" y2="1646.959961" stroke="red" stroke-width="6.660000" />
<circle cx="978.960022" cy="1967.959961" r="19.980000" fill="red">
  <title>Osaka</title>
</circle><line x1="703.960022" y1="1646.959961" x2="978.960022" y2="1967.959961" stroke="red" stroke-width="6.660000" />
<circle cx="1349.959961" cy="2023.959961" r="19.980000" fill="red">
  <title>Shanghai</title>
</circle><line x1="978.960022" y1="1967.959961" x2="1349.959961" y2="2023.959961" stroke="red" stroke-width="6.660000" />
<circle cx="1726.959961" cy="1821.959961" r="19.980000" fill="red">
  <title>Delhi</title>
</circle><line x1="1349.959961" y1="2023.959961" x2="1726.959961" y2="1821.959961" stroke="red" stroke-width="6.660000" />
<circle cx="1358.959961" cy="778.960022" r="19.980000" fill="red">
  <title>New York</title>
</circle><line x1="1726.959961" y1="1821.959961" x2="1358.959961" y2="778.960022" stroke="red" stroke-width="6.660000" />
<circle cx="1782.959961" cy="226.959991" r="19.980000" fill="red">
  <title>Mexico City</title>
</circle><line x1="1358.959961" y1="778.960022" x2="1782.959961" y2="226.959991" stroke="red" stroke-width="6.660000" />
<circle cx="1865.959961" cy="198.959991" r="19.980000" fill="red">
  <title>Beijing</title>
</circle><line x1="1782.959961" y1="226.959991" x2="1865.959961" y2="198.959991" stroke="red" stroke-width="6.660000" />
<circle cx="1335.959961" cy="101.959999" r="19.980000" fill="red">
  <title>São Paulo</title>
</circle><line x1="1865.959961" y1="198.959991" x2="1335.959961" y2="101.959999" stroke="red" stroke-width="6.660000" />
<circle cx="386.959991" cy="328.959991" r="19.980000" fill="red">
  <title>Cairo</title>
</circle><line x1="1335.959961" y1="101.959999" x2="386.959991" y2="328.959991" stroke="red" stroke-width="6.660000" />
<circle cx="748.960022" cy="1511.959961" r="19.980000" fill="red">
  <title>Dhaka</title>
</circle><line x1="386.959991" y1="328.959991" x2="748.960022" y2="1511.959961" stroke="red" stroke-width="6.660000" />
</svg>
