<?xml version="1.0" encoding="UTF-8" standalone="no"?>
<svg width="500" height="500" viewBox="0 0 2074.000000 2074.000000" xmlns="http://www.w3.org/2000/svg">
<rect x="19.000000" y="19.000000" width="2036.000000" height="2036.000000" fill="black" />
<circle cx="1054.959961" cy="1987.959961" r="19.980000" fill="red">
  <title>Tokyo</title>
</circle><line x1="1509.959961" y1="1797.959961" x2="1054.959961" y2="1987.959961" stroke="red" stroke-width="6.660000" />
<circle cx="368.959991" cy="1627.959961" r="19.980000" fill="red">
  <title>Cairo</title>
</circle><line x1="1054.959961" y1="1987.959961" x2="368.959991" y2="1627.959961" stroke="red" stroke-width="6.660000" />
<circle cx="490.959991" cy="1264.959961" r="19.980000" fill="red">
  <title>Dhaka</title>
</circle><line x1="368.959991" y1="1627.959961" x2="490.959991" y2="1264.959961" stroke="red" stroke-width="6.660000" />
<circle cx="306.959991" cy="913.960022" r="19.980000" fill="red">
  <title>São Paulo</title>
</circle><line x1="490.959991" y1="1264.959961" x2="306.959991" y2="913.960022" stroke="red" stroke-width="6.660000" />
<circle cx="229.959991" cy="898.960022" r="19.980000" fill="red">
  <title>Osaka</title>
</circle><line x1="306.959991" y1="913.960022" x2="229.959991" y2="898.960022" stroke="red" stroke-width="6.660000" />
<circle cx="79.959999" cy="216.959991" r="19.980000" fill="red">
  <title>Shanghai</title>
</circle><line x1="229.959991" y1="898.960022" x2="79.959999" y2="216.959991" stroke="red" stroke-width="6.660000" />
<circle cx="1587.959961" cy="194.959991" r="19.980000" fill="red">
  <title>Delhi</title>
</circle><line x1="79.959999" y1="216.959991" x2="1587.959961" y2="194.959991" stroke="red" stroke-width="6.660000" />
<circle cx="1829.959961" cy="718.960022" r="19.980000" fill="red">
  <title>Mumbai</title>
</circle><line x1="1587.959961" y1="194.959991" x2="1829.959961" y2="718.960022" stroke="red" stroke-width="6.660000" />
<circle cx="1924.959961" cy="827.960022" r="19.980000" fill="red">
  <title>Mexico City</title>
</circle><line x1="1829.959961" y1="718.960022" x2="1924.959961" y2="827.960022" stroke="red" stroke-width="6.660000" />
<circle cx="1993.959961" cy="1543.959961" r="19.980000" fill="red">
  <title>New York</title>
</circle><line x1="1924.959961" y1="827.960022" x2="1993.959961" y2="1543.959961" stroke="red" stroke-width="6.660000" />
<circle cx="1509.959961" cy="1797.959961" r="19.980000" fill="red">
  <title>Beijing</title>
</circle><line x1="1993.959961" y1="1543.959961" x2="1509.959961" y2="1797.959961" stroke="red" stroke-width="6.660000" />
</svg>
