<?xml version="1.0" encoding="UTF-8" standalone="no"?>
<svg width="500" height="500" viewBox="0 0 2074.000000 2074.000000" xmlns="http://www.w3.org/2000/svg">
<rect x="19.000000" y="19.000000" width="2036.000000" height="2036.000000" fill="black" />
<circle cx="334.959991" cy="152.959991" r="19.980000" fill="red">
  <title>Tokyo</title>
</circle><line x1="225.959991" y1="100.959999" x2="334.959991" y2="152.959991" stroke="red" stroke-width="6.660000" />
<circle cx="638.960022" cy="210.959991" r="19.980000" fill="red">
  <title>Mumbai</title>
</circle><line x1="334.959991" y1="152.959991" x2="638.960022" y2="210.959991" stroke="red" stroke-width="6.660000" />
<circle cx="761.960022" cy="556.960022" r="19.980000" fill="red">
  <title>Chongqing</title>
</circle><line x1="638.960022" y1="210.959991" x2="761.960022" y2="556.960022" stroke="red" stroke-width="6.660000" />
<circle cx="769.960022" cy="621.960022" r="19.980000" fill="red">
  <title>Cairo</title>
</circle><line x1="761.960022" y1="556.960022" x2="769.960022" y2="621.960022" stroke="red" stroke-width="6.660000" />
<circle cx="1003.960022" cy="616.960022" r="19.980000" fill="red">
  <title>Beijing</title>
</circle><line x1="769.960022" y1="621.960022" x2="1003.960022" y2="616.960022" stroke="red" stroke-width="6.660000" />
<circle cx="1794.959961" cy="324.959991" r="19.980000" fill="red">
  <title>Mexico City</title>
</circle><line x1="1003.960022" y1="616.960022" x2="1794.959961" y2="324.959991" stroke="red" stroke-width="6.660000" />
<circle cx="1807.959961" cy="480.959991" r="19.980000" fill="red">
  <title>Delhi</title>
</circle><line x1="1794.959961" y1="324.959991" x2="1807.959961" y2="480.959991" stroke="red" stroke-width="6.660000" />
<circle cx="1985.959961" cy="1340.959961" r="19.980000" fill="red">
  <title>São Paulo</title>
</circle><line x1="1807.959961" y1="480.959991" x2="1985.959961" y2="1340.959961" stroke="red" stroke-width="6.660000" />
<circle cx="971.960022" cy="1227.959961" r="19.980000" fill="red">
  <title>Karachi</title>
</circle><line x1="1985.959961" y1="1340.959961" x2="971.960022" y2="1227.959961" stroke="red" stroke-width="6.660000" />
<circle cx="468.959991" cy="1059.959961" r="19.980000" fill="red">
  <title>Dhaka</title>
</circle><line x1="971.960022" y1="1227.959961" x2="468.959991" y2="1059.959961" stroke="red" stroke-width="6.660000" />
<circle cx="64.959999" cy="2016.959961" r="19.980000" fill="red">
  <title>Shanghai</title>
</circle><line x1="468.959991" y1="1059.959961" x2="64.959999" y2="2016.959961" stroke="red" stroke-width="6.660000" />
<circle cx="56.959999" cy="1382.959961" r="19.980000" fill="red">
  <title>Osaka</title>
</circle><line x1="64.959999" y1="2016.959961" x2="56.959999" y2="1382.959961" stroke="red" stroke-width="6.660000" />
<circle cx="147.959991" cy="668.960022" r="19.980000" fill="red">
  <title>Buenos Aires</title>
</circle><line x1="56.959999" y1="1382.959961" x2="147.959991" y2="668.960022" stroke="red" stroke-width="6.660000" />
<circle cx="320.959991" cy="641.960022" r="19.980000" fill="red">
  <title>New York</title>
</circle><line x1="147.959991" y1="668.960022" x2="320.959991" y2="641.960022" stroke="red" stroke-width="6.660000" />
<circle cx="225.959991" cy="100.959999" r="19.980000" fill="red">
  <title>Istanbul</title>
</circle><line x1="320.959991" y1="641.960022" x2="225.959991" y2="100.959999" stroke="red" stroke-width="6.660000" />
</svg>
