<?xml version="1.0" encoding="UTF-8" standalone="no"?>
<svg width="500" height="500" viewBox="0 0 2074.000000 2074.000000" xmlns="http://www.w3.org/2000/svg">
<rect x="19.000000" y="19.000000" width="2036.000000" height="2036.000000" fill="black" />
<circle cx="150.959991" cy="1806.959961" r="19.980000" fill="red">
  <title>Tokyo</title>
</circle><line x1="827.960022" y1="1896.959961" x2="150.959991" y2="1806.959961" stroke="red" stroke-width="6.660000" />
<circle cx="41.959999" cy="1713.959961" r="19.980000" fill="red">
  <title>New York</title>
</circle><line x1="150.959991" y1="1806.959961" x2="41.959999" y2="1713.959961" stroke="red" stroke-width="6.660000" />
<circle cx="488.959991" cy="1616.959961" r="19.980000" fill="red">
  <title>Beijing</title>
</circle><line x1="41.959999" y1="1713.959961" x2="488.959991" y2="1616.959961" stroke="red" stroke-width="6.660000" />
<circle cx="890.960022" cy="1323.959961" r="19.980000" fill="red">
  <title>Osaka</title>
</circle><line x1="488.959991" y1="1616.959961" x2="890.960022" y2="1323.959961" stroke="red" stroke-width="6.660000" />
<circle cx="343.959991" cy="531.960022" r="19.980000" fill="red">
  <title>Karachi</title>
</circle><line x1="890.960022" y1="1323.959961" x2="343.959991" y2="531.960022" stroke="red" stroke-width="6.660000" />
<circle cx="492.959991" cy="295.959991" r="19.980000" fill="red">
  <title>Cairo</title>
</circle><line x1="343.959991" y1="531.960022" x2="492.959991" y2="295.959991" stroke="red" stroke-width="6.660000" />
<circle cx="742.960022" cy="552.960022" r="19.980000" fill="red">
  <title>São Paulo</title>
</circle><line x1="492.959991" y1="295.959991" x2="742.960022" y2="552.960022" stroke="red" stroke-width="6.660000" />
<circle cx="1407.959961" cy="1109.959961" r="19.980000" fill="red">
  <title>Mumbai</title>
</circle><line x1="742.960022" y1="552.960022" x2="1407.959961" y2="1109.959961" stroke="red" stroke-width="6.660000" />
<circle cx="1761.959961" cy="1215.959961" r="19.980000" fill="red">
  <title>Delhi</title>
</circle><line x1="1407.959961" y1="1109.959961" x2="1761.959961" y2="1215.959961" stroke="red" stroke-width="6.660000" />
<circle cx="1844.959961" cy="1456.959961" r="19.980000" fill="red">
  <title>Mexico City</title>
</circle><line x1="1761.959961" y1="1215.959961" x2="1844.959961" y2="1456.959961" stroke="red" stroke-width="6.660000" />
<circle cx="1447.959961" cy="1466.959961" r="19.980000" fill="red">
  <title>Dhaka</title>
</circle><line x1="1844.959961" y1="1456.959961" x2="1447.959961" y2="1466.959961" stroke="red" stroke-width="6.660000" />
<circle cx="1440.959961" cy="1959.959961" r="19.980000" fill="red">
  <title>Shanghai</title>
</circle><line x1="1447.959961" y1="1466.959961" x2="1440.959961" y2="1959.959961" stroke="red" stroke-width="6.660000" />
<circle cx="827.960022" cy="1896.959961" r="19.980000" fill="red">
  <title>Buenos Aires</title>
</circle><line x1="1440.959961" y1="1959.959961" x2="827.960022" y2="1896.959961" stroke="red" stroke-width="6.660000" />
</svg>
