<?xml version="1.0" encoding="UTF-8" standalone="no"?>
<svg width="500" height="500" viewBox="0 0 2074.000000 2074.000000" xmlns="http://www.w3.org/2000/svg">
<rect x="19.000000" y="19.000000" width="2036.000000" height="2036.000000" fill="black" />
<circle cx="1719.959961" cy="440.959991" r="19.980000" fill="red">
  <title>Tokyo</title>
</circle><line x1="1927.959961" y1="753.960022" x2="1719.959961" y2="440.959991" stroke="red" stroke-width="6.660000" />
<circle cx="1382.959961" cy="88.959999" r="19.980000" fill="red">
  <title>São Paulo</title>
</circle><line x1="1719.959961" y1="440.959991" x2="1382.959961" y2="88.959999" stroke="red" stroke-width="6.660000" />
<circle cx="1197.959961" cy="336.959991" r="19.980000" fill="red">
  <title>Dhaka</title>
</circle><line x1="1382.959961" y1="88.959999" x2="1197.959961" y2="336.959991" stroke="red" stroke-width="6.660000" />
<circle cx="939.960022" cy="212.959991" r="19.980000" fill="red">
  <title>Osaka</title>
</circle><line x1="1197.959961" y1="336.959991" x2="939.960022" y2="212.959991" stroke="red" stroke-width="6.660000" />
<circle cx="1127.959961" cy="503.959991" r="19.980000" fill="red">
  <title>Kolkata</title>
</circle><line x1="939.960022" y1="212.959991" x2="1127.959961" y2="503.959991" stroke="red" stroke-width="6.660000" />
<circle cx="1219.959961" cy="660.960022" r="19.980000" fill="red">
  <title>Mumbai</title>
</circle><line x1="1127.959961" y1="503.959991" x2="1219.959961" y2="660.960022" stroke="red" stroke-width="6.660000" />
<circle cx="1294.959961" cy="647.960022" r="19.980000" fill="red">
  <title>Cairo</title>
</circle><line x1="1219.959961" y1="660.960022" x2="1294.959961" y2="647.960022" stroke="red" stroke-width="6.660000" />
<circle cx="1236.959961" cy="938.960022" r="19.980000" fill="red">
  <title>New York</title>
</circle><line x1="1294.959961" y1="647.960022" x2="1236.959961" y2="938.960022" stroke="red" stroke-width="6.660000" />
<circle cx="963.960022" cy="1356.959961" r="19.980000" fill="red">
  <title>Rio de Janeiro</title>
</circle><line x1="1236.959961" y1="938.960022" x2="963.960022" y2="1356.959961" stroke="red" stroke-width="6.660000" />
<circle cx="821.960022" cy="1284.959961" r="19.980000" fill="red">
  <title>Istanbul</title>
</circle><line x1="963.960022" y1="1356.959961" x2="821.960022" y2="1284.959961" stroke="red" stroke-width="6.660000" />
<circle cx="353.959991" cy="1169.959961" r="19.980000" fill="red">
  <title>Shanghai</title>
</circle><line x1="821.960022" y1="1284.959961" x2="353.959991" y2="1169.959961" stroke="red" stroke-width="6.660000" />
<circle cx="222.959991" cy="1913.959961" r="19.980000" fill="red">
  <title>Karachi</title>
</circle><line x1="353.959991" y1="1169.959961" x2="222.959991" y2="1913.959961" stroke="red" stroke-width="6.660000" />
<circle cx="666.960022" cy="1521.959961" r="19.980000" fill="red">
  <title>Buenos Aires</title>
</circle><line x1="222.959991" y1="1913.959961" x2="666.960022" y2="1521.959961" stroke="red" stroke-width="6.660000" />
<circle cx="743.960022" cy="1548.959961" r="19.980000" fill="red">
  <title>Delhi</title>
</circle><line x1="666.960022" y1="1521.959961" x2="743.960022" y2="1548.959961" stroke="red" stroke-width="6.660000" />
<circle cx="890.960022" cy="1878.959961" r="19.980000" fill="red">
  <title>Mexico City</title>
</circle><line x1="743.960022" y1="1548.959961" x2="890.960022" y2="1878.959961" stroke="red" stroke-width="6.660000" />
<circle cx="1685.959961" cy="1832.959961" r="19.980000" fill="red">
  <title>Manila</title>
</circle><line x1="890.960022" y1="1878.959961" x2="1685.959961" y2="1832.959961" stroke="red" stroke-width="6.660000" />
<circle cx="2012.959961" cy="2000.959961" r="19.980000" fill="red">
  <title>Lagos</title>
</circle><line x1="1685.959961" y1="1832.959961" x2="2012.959961" y2="2000.959961" stroke="red" stroke-width="6.660000" />
<circle cx="1589.959961" cy="1277.959961" r="19.980000" fill="red">
  <title>Chongqing</title>
</circle><line x1="2012.959961" y1="2000.959961" x2="1589.959961" y2="1277.959961" stroke="red" stroke-width="6.660000" />
<circle cx="1927.959961" cy="753.960022" r="19.980000" fill="red">
  <title>Beijing</title>
</circle><line x1="1589.959961" y1="1277.959961" x2="1927.959961" y2="753.960022" stroke="red" stroke-width="6.660000" />
</svg>
