<?xml version="1.0" encoding="UTF-8" standalone="no"?>
<svg width="500" height="500" viewBox="0 0 2074.000000 2074.000000" xmlns="http://www.w3.org/2000/svg">
<rect x="19.000000" y="19.000000" width="2036.000000" height="2036.000000" fill="black" />
<circle cx="399.959991" cy="378.959991" r="19.980000" fill="red">
  <title>Tokyo</title>
</circle><line x1="852.960022" y1="939.960022" x2="399.959991" y2="378.959991" stroke="red" stroke-width="6.660000" />
<circle cx="105.959999" cy="103.959999" r="19.980000" fill="red">
  <title>Dhaka</title>
</circle><line x1="399.959991" y1="378.959991" x2="105.959999" y2="103.959999" stroke="red" stroke-width="6.660000" />
<circle cx="62.959999" cy="225.959991" r="19.980000" fill="red">
  <title>Mexico City</title>
</circle><line x1="105.959999" y1="103.959999" x2="62.959999" y2="225.959991" stroke="red" stroke-width="6.660000" />
<circle cx="220.959991" cy="341.959991" r="19.980000" fill="red">
  <title>Karachi</title>
</circle><line x1="62.959999" y1="225.959991" x2="220.959991" y2="341.959991" stroke="red" stroke-width="6.660000" />
<circle cx="309.959991" cy="930.960022" r="19.980000" fill="red">
  <title>Manila</title>
</circle><line x1="220.959991" y1="341.959991" x2="309.959991" y2="930.960022" stroke="red" stroke-width="6.660000" />
<circle cx="414.959991" cy="1108.959961" r="19.980000" fill="red">
  <title>Osaka</title>
</circle><line x1="309.959991" y1="930.960022" x2="414.959991" y2="1108.959961" stroke="red" stroke-width="6.660000" />
<circle cx="702.960022" cy="1314.959961" r="19.980000" fill="red">
  <title>Buenos Aires</title>
</circle><line x1="414.959991" y1="1108.959961" x2="702.960022" y2="1314.959961" stroke="red" stroke-width="6.660000" />
<circle cx="970.960022" cy="1687.959961" r="19.980000" fill="red">
  <title>São Paulo</title>
</circle><line x1="702.960022" y1="1314.959961" x2="970.960022" y2="1687.959961" stroke="red" stroke-width="6.660000" />
<circle cx="987.960022" cy="1969.959961" r="19.980000" fill="red">
  <title>Istanbul</title>
</circle><line x1="970.960022" y1="1687.959961" x2="987.960022" y2="1969.959961" stroke="red" stroke-width="6.660000" />
<circle cx="1129.959961" cy="1677.959961" r="19.980000" fill="red">
  <title>Beijing</title>
</circle><line x1="987.960022" y1="1969.959961" x2="1129.959961" y2="1677.959961" stroke="red" stroke-width="6.660000" />
<circle cx="1467.959961" cy="1863.959961" r="19.980000" fill="red">
  <title>Mumbai</title>
</circle><line x1="1129.959961" y1="1677.959961" x2="1467.959961" y2="1863.959961" stroke="red" stroke-width="6.660000" />
<circle cx="1824.959961" cy="1348.959961" r="19.980000" fill="red">
  <title>Kolkata</title>
</circle><line x1="1467.959961" y1="1863.959961" x2="1824.959961" y2="1348.959961" stroke="red" stroke-width="6.660000" />
<circle cx="1610.959961" cy="883.960022" r="19.980000" fill="red">
  <title>Shanghai</title>
</circle><line x1="1824.959961" y1="1348.959961" x2="1610.959961" y2="883.960022" stroke="red" stroke-width="6.660000" />
<circle cx="1826.959961" cy="224.959991" r="19.980000" fill="red">
  <title>Chongqing</title>
</circle><line x1="1610.959961" y1="883.960022" x2="1826.959961" y2="224.959991" stroke="red" stroke-width="6.660000" />
<circle cx="1455.959961" cy="601.960022" r="19.980000" fill="red">
  <title>Cairo</title>
</circle><line x1="1826.959961" y1="224.959991" x2="1455.959961" y2="601.960022" stroke="red" stroke-width="6.660000" />
<circle cx="1144.959961" cy="818.960022" r="19.980000" fill="red">
  <title>Delhi</title>
</circle><line x1="1455.959961" y1="601.960022" x2="1144.959961" y2="818.960022" stroke="red" stroke-width="6.660000" />
<circle cx="852.960022" cy="939.960022" r="19.980000" fill="red">
  <title>New York</title>
</circle><line x1="1144.959961" y1="818.960022" x2="852.960022" y2="939.960022" stroke="red" stroke-width="6.660000" />
</svg>
