<?xml version="1.0" encoding="UTF-8" standalone="no"?>
<svg width="500" height="500" viewBox="0 0 2074.000000 2074.000000" xmlns="http://www.w3.org/2000/svg">
<rect x="19.000000" y="19.000000" width="2036.000000" height="2036.000000" fill="black" />
<circle cx="1897.959961" cy="752.960022" r="19.980000" fill="red">
  <title>Tokyo</title>
</circle><line x1="1696.959961" y1="98.959999" x2="1897.959961" y2="752.960022" stroke="red" stroke-width="6.660000" />
<circle cx="1911.959961" cy="1096.959961" r="19.980000" fill="red">
  <title>São Paulo</title>
</circle><line x1="1897.959961" y1="752.960022" x2="1911.959961" y2="1096.959961" stroke="red" stroke-width="6.660000" />
<circle cx="1723.959961" cy="1768.959961" r="19.980000" fill="red">
  <title>Mexico City</title>
</circle><line x1="1911.959961" y1="1096.959961" x2="1723.959961" y2="1768.959961" stroke="red" stroke-width="6.660000" />
<circle cx="488.959991" cy="1656.959961" r="19.980000" fill="red">
  <title>Dhaka</title>
</circle><line x1="1723.959961" y1="1768.959961" x2="488.959991" y2="1656.959961" stroke="red" stroke-width="6.660000" />
<circle cx="1246.959961" cy="899.960022" r="19.980000" fill="red">
  <title>Shanghai</title>
</circle><line x1="488.959991" y1="1656.959961" x2="1246.959961" y2="899.960022" stroke="red" stroke-width="6.660000" />
<circle cx="1172.959961" cy="295.959991" r="19.980000" fill="red">
  <title>Mumbai</title>
</circle><line x1="1246.959961" y1="899.960022" x2="1172.959961" y2="295.959991" stroke="red" stroke-width="6.660000" />
<circle cx="1203.959961" cy="251.959991" r="19.980000" fill="red">
  <title>Delhi</title>
</circle><line x1="1172.959961" y1="295.959991" x2="1203.959961" y2="251.959991" stroke="red" stroke-width="6.660000" />
<circle cx="1213.959961" cy="243.959991" r="19.980000" fill="red">
  <title>Cairo</title>
</circle><line x1="1203.959961" y1="251.959991" x2="1213.959961" y2="243.959991" stroke="red" stroke-width="6.660000" />
<circle cx="1696.959961" cy="98.959999" r="19.980000" fill="red">
  <title>Beijing</title>
</circle><line x1="1213.959961" y1="243.959991" x2="1696.959961" y2="98.959999" stroke="red" stroke-width="6.660000" />
</svg>
