<?xml version="1.0" encoding="UTF-8" standalone="no"?>
<svg width="500" height="500" viewBox="0 0 2074.000000 2074.000000" xmlns="http://www.w3.org/2000/svg">
<rect x="19.000000" y="19.000000" width="2036.000000" height="2036.000000" fill="black" />
<circle cx="1749.959961" cy="919.960022" r="19.980000" fill="red">
  <title>Tokyo</title>
</circle><line x1="1572.959961" y1="641.960022" x2="1749.959961" y2="919.960022" stroke="red" stroke-width="6.660000" />
<circle cx="2017.959961" cy="1465.959961" r="19.980000" fill="red">
  <title>Shanghai</title>
</circle><line x1="1749.959961" y1="919.960022" x2="2017.959961" y2="1465.959961" stroke="red" stroke-width="6.660000" />
<circle cx="1412.959961" cy="1880.959961" r="19.980000" fill="red">
  <title>São Paulo</title>
</circle><line x1="2017.959961" y1="1465.959961" x2="1412.959961" y2="1880.959961" stroke="red" stroke-width="6.660000" />
<circle cx="1093.959961" cy="1583.959961" r="19.980000" fill="red">
  <title>Mexico City</title>
</circle><line x1="1412.959961" y1="1880.959961" x2="1093.959961" y2="1583.959961" stroke="red" stroke-width="6.660000" />
<circle cx="1028.959961" cy="1719.959961" r="19.980000" fill="red">
  <title>Cairo</title>
</circle><line x1="1093.959961" y1="1583.959961" x2="1028.959961" y2="1719.959961" stroke="red" stroke-width="6.660000" />
<circle cx="242.959991" cy="1837.959961" r="19.980000" fill="red">
  <title>Delhi</title>
</circle><line x1="1028.959961" y1="1719.959961" x2="242.959991" y2="1837.959961" stroke="red" stroke-width="6.660000" />
<circle cx="615.960022" cy="327.959991" r="19.980000" fill="red">
  <title>Dhaka</title>
</circle><line x1="242.959991" y1="1837.959961" x2="615.960022" y2="327.959991" stroke="red" stroke-width="6.660000" />
<circle cx="1581.959961" cy="168.959991" r="19.980000" fill="red">
  <title>Beijing</title>
</circle><line x1="615.960022" y1="327.959991" x2="1581.959961" y2="168.959991" stroke="red" stroke-width="6.660000" />
<circle cx="1572.959961" cy="641.960022" r="19.980000" fill="red">
  <title>Mumbai</title>
</circle><line x1="1581.959961" y1="168.959991" x2="1572.959961" y2="641.960022" stroke="red" stroke-width="6.660000" />
</svg>
