<?xml version="1.0" encoding="UTF-8" standalone="no"?>
<svg width="500" height="500" viewBox="0 0 2074.000000 2074.000000" xmlns="http://www.w3.org/2000/svg">
<rect x="19.000000" y="19.000000" width="2036.000000" height="2036.000000" fill="black" />
<circle cx="1977.959961" cy="179.959991" r="19.980000" fill="red">
  <title>Tokyo</title>
</circle><line x1="741.960022" y1="109.959999" x2="1977.959961" y2="179.959991" stroke="red" stroke-width="6.660000" />
<circle cx="1971.959961" cy="738.960022" r="19.980000" fill="red">
  <title>Shanghai</title>
</circle><line x1="1977.959961" y1="179.959991" x2="1971.959961" y2="738.960022" stroke="red" stroke-width="6.660000" />
<circle cx="1838.959961" cy="1674.959961" r="19.980000" fill="red">
  <title>São Paulo</title>
</circle><line x1="1971.959961" y1="738.960022" x2="1838.959961" y2="1674.959961" stroke="red" stroke-width="6.660000" />
<circle cx="1171.959961" cy="1747.959961" r="19.980000" fill="red">
  <title>Dhaka</title>
</circle><line x1="1838.959961" y1="1674.959961" x2="1171.959961" y2="1747.959961" stroke="red" stroke-width="6.660000" />
<circle cx="1154.959961" cy="1084.959961" r="19.980000" fill="red">
  <title>Delhi</title>
</circle><line x1="1171.959961" y1="1747.959961" x2="1154.959961" y2="1084.959961" stroke="red" stroke-width="6.660000" />
<circle cx="699.960022" cy="1255.959961" r="19.980000" fill="red">
  <title>Cairo</title>
</circle><line x1="1154.959961" y1="1084.959961" x2="699.960022" y2="1255.959961" stroke="red" stroke-width="6.660000" />
<circle cx="674.960022" cy="1061.959961" r="19.980000" fill="red">
  <title>Mumbai</title>
</circle><line x1="699.960022" y1="1255.959961" x2="674.960022" y2="1061.959961" stroke="red" stroke-width="6.660000" />
<circle cx="46.959999" cy="1067.959961" r="19.980000" fill="red">
  <title>Mexico City</title>
</circle><line x1="674.960022" y1="1061.959961" x2="46.959999" y2="1067.959961" stroke="red" stroke-width="6.660000" />
<circle cx="642.960022" cy="232.959991" r="19.980000" fill="red">
  <title>Osaka</title>
</circle><line x1="46.959999" y1="1067.959961" x2="642.960022" y2="232.959991" stroke="red" stroke-width="6.660000" />
<circle cx="741.960022" cy="109.959999" r="19.980000" fill="red">
  <title>Beijing</title>
</circle><line x1="642.960022" y1="232.959991" x2="741.960022" y2="109.959999" stroke="red" stroke-width="6.660000" />
</svg>
