<?xml version="1.0" encoding="UTF-8" standalone="no"?>
<svg width="500" height="500" viewBox="0 0 2074.000000 2074.000000" xmlns="http://www.w3.org/2000/svg">
<rect x="19.000000" y="19.000000" width="2036.000000" height="2036.000000" fill="black" />
<circle cx="1994.959961" cy="146.959991" r="19.980000" fill="red">
  <title>Tokyo</title>
</circle><line x1="1934.959961" y1="967.960022" x2="1994.959961" y2="146.959991" stroke="red" stroke-width="6.660000" />
<circle cx="1403.959961" cy="302.959991" r="19.980000" fill="red">
  <title>São Paulo</title>
</circle><line x1="1994.959961" y1="146.959991" x2="1403.959961" y2="302.959991" stroke="red" stroke-width="6.660000" />
<circle cx="901.960022" cy="327.959991" r="19.980000" fill="red">
  <title>Chongqing</title>
</circle><line x1="1403.959961" y1="302.959991" x2="901.960022" y2="327.959991" stroke="red" stroke-width="6.660000" />
<circle cx="436.959991" cy="682.960022" r="19.980000" fill="red">
  <title>Delhi</title>
</circle><line x1="901.960022" y1="327.959991" x2="436.959991" y2="682.960022" stroke="red" stroke-width="6.660000" />
<circle cx="535.960022" cy="806.960022" r="19.980000" fill="red">
  <title>Mumbai</title>
</circle><line x1="436.959991" y1="682.960022" x2="535.960022" y2="806.960022" stroke="red" stroke-width="6.660000" />
<circle cx="1216.959961" cy="957.960022" r="19.980000" fill="red">
  <title>Dhaka</title>
</circle><line x1="535.960022" y1="806.960022" x2="1216.959961" y2="957.960022" stroke="red" stroke-width="6.660000" />
<circle cx="1438.959961" cy="1115.959961" r="19.980000" fill="red">
  <title>New York</title>
</circle><line x1="1216.959961" y1="957.960022" x2="1438.959961" y2="1115.959961" stroke="red" stroke-width="6.660000" />
<circle cx="785.960022" cy="1751.959961" r="19.980000" fill="red">
  <title>Cairo</title>
</circle><line x1="1438.959961" y1="1115.959961" x2="785.960022" y2="1751.959961" stroke="red" stroke-width="6.660000" />
<circle cx="329.959991" cy="1799.959961" r="19.980000" fill="red">
  <title>Mexico City</title>
</circle><line x1="785.960022" y1="1751.959961" x2="329.959991" y2="1799.959961" stroke="red" stroke-width="6.660000" />
<circle cx="867.960022" cy="2001.959961" r="19.980000" fill="red">
  <title>Osaka</title>
</circle><line x1="329.959991" y1="1799.959961" x2="867.960022" y2="2001.959961" stroke="red" stroke-width="6.660000" />
<circle cx="1268.959961" cy="1863.959961" r="19.980000" fill="red">
  <title>Buenos Aires</title>
</circle><line x1="867.960022" y1="2001.959961" x2="1268.959961" y2="1863.959961" stroke="red" stroke-width="6.660000" />
<circle cx="1500.959961" cy="1744.959961" r="19.980000" fill="red">
  <title>Istanbul</title>
</circle><line x1="1268.959961" y1="1863.959961" x2="1500.959961" y2="1744.959961" stroke="red" stroke-width="6.660000" />
<circle cx="1930.959961" cy="1730.959961" r="19.980000" fill="red">
  <title>Karachi</title>
</circle><line x1="1500.959961" y1="1744.959961" x2="1930.959961" y2="1730.959961" stroke="red" stroke-width="6.660000" />
<circle cx="2031.959961" cy="1578.959961" r="19.980000" fill="red">
  <title>Shanghai</title>
</circle><line x1="1930.959961" y1="1730.959961" x2="2031.959961" y2="1578.959961" stroke="red" stroke-width="6.660000" />
<circle cx="1865.959961" cy="1457.959961" r="19.980000" fill="red">
  <title>Kolkata</title>
</circle><line x1="2031.959961" y1="1578.959961" x2="1865.959961" y2="1457.959961" stroke="red" stroke-width="6.660000" />
<circle cx="1934.959961" cy="967.960022" r="19.980000" fill="red">
  <title>Beijing</title>
</circle><line x1="1865.959961" y1="1457.959961" x2="1934.959961" y2="967.960022" stroke="red" stroke-width="6.660000" />
</svg>
