<?xml version="1.0" encoding="UTF-8" standalone="no"?>
<svg width="500" height="500" viewBox="0 0 2074.000000 2074.000000" xmlns="http://www.w3.org/2000/svg">
<rect x="19.000000" y="19.000000" width="2036.000000" height="2036.000000" fill="black" />
<circle cx="801.960022" cy="1249.959961" r="19.980000" fill="red">
  <title>Tokyo</title>
</circle><line x1="1143.959961" y1="563.960022" x2="801.960022" y2="1249.959961" stroke="red" stroke-width="6.660000" />
<circle cx="706.960022" cy="1172.959961" r="19.980000" fill="red">
  <title>Shanghai</title>
</circle><line x1="801.960022" y1="1249.959961" x2="706.960022" y2="1172.959961" stroke="red" stroke-width="6.660000" />
<circle cx="493.959991" cy="1009.960022" r="19.980000" fill="red">
  <title>Mexico City</title>
</circle><line x1="706.960022" y1="1172.959961" x2="493.959991" y2="1009.960022" stroke="red" stroke-width="6.660000" />
<circle cx="611.960022" cy="210.959991" r="19.980000" fill="red">
  <title>Delhi</title>
</circle><line x1="493.959991" y1="1009.960022" x2="611.960022" y2="210.959991" stroke="red" stroke-width="6.660000" />
<circle cx="1143.959961" cy="563.960022" r="19.980000" fill="red">
  <title>São Paulo</title>
</circle><line x1="611.960022" y1="210.959991" x2="1143.959961" y2="563.960022" stroke="red" stroke-width="6.660000" />
</svg>
