<?xml version="1.0" encoding="UTF-8" standalone="no"?>
<svg width="500" height="500" viewBox="0 0 2074.000000 2074.000000" xmlns="http://www.w3.org/2000/svg">
<rect x="19.000000" y="19.000000" width="2036.000000" height="2036.000000" fill="black" />
<circle cx="514.960022" cy="759.960022" r="19.980000" fill="red">
  <title>Tokyo</title>
</circle><line x1="699.960022" y1="800.960022" x2="514.960022" y2="759.960022" stroke="red" stroke-width="6.660000" />
<circle cx="288.959991" cy="789.960022" r="19.980000" fill="red">
  <title>Delhi</title>
</circle><line x1="514.960022" y1="759.960022" x2="288.959991" y2="789.960022" stroke="red" stroke-width="6.660000" />
<circle cx="187.959991" cy="1378.959961" r="19.980000" fill="red">
  <title>Mumbai</title>
</circle><line x1="288.959991" y1="789.960022" x2="187.959991" y2="1378.959961" stroke="red" stroke-width="6.660000" />
<circle cx="147.959991" cy="1653.959961" r="19.980000" fill="red">
  <title>Beijing</title>
</circle><line x1="187.959991" y1="1378.959961" x2="147.959991" y2="1653.959961" stroke="red" stroke-width="6.660000" />
<circle cx="197.959991" cy="1996.959961" r="19.980000" fill="red">
  <title>Cairo</title>
</circle><line x1="147.959991" y1="1653.959961" x2="197.959991" y2="1996.959961" stroke="red" stroke-width="6.660000" />
<circle cx="437.959991" cy="1575.959961" r="19.980000" fill="red">
  <title>Osaka</title>
</circle><line x1="197.959991" y1="1996.959961" x2="437.959991" y2="1575.959961" stroke="red" stroke-width="6.660000" />
<circle cx="572.960022" cy="1388.959961" r="19.980000" fill="red">
  <title>Shanghai</title>
</circle><line x1="437.959991" y1="1575.959961" x2="572.960022" y2="1388.959961" stroke="red" stroke-width="6.660000" />
<circle cx="1214.959961" cy="1216.959961" r="19.980000" fill="red">
  <title>Buenos Aires</title>
</circle><line x1="572.960022" y1="1388.959961" x2="1214.959961" y2="1216.959961" stroke="red" stroke-width="6.660000" />
<circle cx="2028.959961" cy="1763.959961" r="19.980000" fill="red">
  <title>Lagos</title>
</circle><line x1="1214.959961" y1="1216.959961" x2="2028.959961" y2="1763.959961" stroke="red" stroke-width="6.660000" />
<circle cx="1952.959961" cy="1278.959961" r="19.980000" fill="red">
  <title>Kolkata</title>
</circle><line x1="2028.959961" y1="1763.959961" x2="1952.959961" y2="1278.959961" stroke="red" stroke-width="6.660000" />
<circle cx="1519.959961" cy="123.959999" r="19.980000" fill="red">
  <title>São Paulo</title>
</circle><line x1="1952.959961" y1="1278.959961" x2="1519.959961" y2="123.959999" stroke="red" stroke-width="6.660000" />
<circle cx="1230.959961" cy="202.959991" r="19.980000" fill="red">
  <title>Manila</title>
</circle><line x1="1519.959961" y1="123.959999" x2="1230.959961" y2="202.959991" stroke="red" stroke-width="6.660000" />
<circle cx="1137.959961" cy="254.959991" r="19.980000" fill="red">
  <title>Chongqing</title>
</circle><line x1="1230.959961" y1="202.959991" x2="1137.959961" y2="254.959991" stroke="red" stroke-width="6.660000" />
<circle cx="765.960022" cy="244.959991" r="19.980000" fill="red">
  <title>Dhaka</title>
</circle><line x1="1137.959961" y1="254.959991" x2="765.960022" y2="244.959991" stroke="red" stroke-width="6.660000" />
<circle cx="102.959999" cy="103.959999" r="19.980000" fill="red">
  <title>Karachi</title>
</circle><line x1="765.960022" y1="244.959991" x2="102.959999" y2="103.959999" stroke="red" stroke-width="6.660000" />
<circle cx="802.960022" cy="509.959991" r="19.980000" fill="red">
  <title>Istanbul</title>
</circle><line x1="102.959999" y1="103.959999" x2="802.960022" y2="509.959991" stroke="red" stroke-width="6.660000" />
<circle cx="809.960022" cy="860.960022" r="19.980000" fill="red">
  <title>New York</title>
</circle><line x1="802.960022" y1="509.959991" x2="809.960022" y2="860.960022" stroke="red" stroke-width="6.660000" />
<circle cx="699.960022" cy="800.960022" r="19.980000" fill="red">
  <title>Mexico City</title>
</circle><line x1="809.960022" y1="860.960022" x2="699.960022" y2="800.960022" stroke="red" stroke-width="6.660000" />
</svg>
