<?xml version="1.0" encoding="UTF-8" standalone="no"?>
<svg width="500" height="500" viewBox="0 0 2074.000000 2074.000000" xmlns="http://www.w3.org/2000/svg">
<rect x="19.000000" y="19.000000" width="2036.000000" height="2036.000000" fill="black" />
<circle cx="773.960022" cy="766.960022" r="19.980000" fill="red">
  <title>Tokyo</title>
</circle><line x1="735.960022" y1="1058.959961" x2="773.960022" y2="766.960022" stroke="red" stroke-width="6.660000" />
<circle cx="856.960022" cy="664.960022" r="19.980000" fill="red">
  <title>Buenos Aires</title>
</circle><line x1="773.960022" y1="766.960022" x2="856.960022" y2="664.960022" stroke="red" stroke-width="6.660000" />
<circle cx="1040.959961" cy="564.960022" r="19.980000" fill="red">
  <title>Delhi</title>
</circle><line x1="856.960022" y1="664.960022" x2="1040.959961" y2="564.960022" stroke="red" stroke-width="6.660000" />
<circle cx="1115.959961" cy="553.960022" r="19.980000" fill="red">
  <title>Dhaka</title>
</circle><line x1="1040.959961" y1="564.960022" x2="1115.959961" y2="553.960022" stroke="red" stroke-width="6.660000" />
<circle cx="1601.959961" cy="394.959991" r="19.980000" fill="red">
  <title>São Paulo</title>
</circle><line x1="1115.959961" y1="553.960022" x2="1601.959961" y2="394.959991" stroke="red" stroke-width="6.660000" />
<circle cx="1637.959961" cy="415.959991" r="19.980000" fill="red">
  <title>Shanghai</title>
</circle><line x1="1601.959961" y1="394.959991" x2="1637.959961" y2="415.959991" stroke="red" stroke-width="6.660000" />
<circle cx="1651.959961" cy="47.959999" r="19.980000" fill="red">
  <title>Chongqing</title>
</circle><line x1="1637.959961" y1="415.959991" x2="1651.959961" y2="47.959999" stroke="red" stroke-width="6.660000" />
<circle cx="1165.959961" cy="73.959999" r="19.980000" fill="red">
  <title>Cairo</title>
</circle><line x1="1651.959961" y1="47.959999" x2="1165.959961" y2="73.959999" stroke="red" stroke-width="6.660000" />
<circle cx="791.960022" cy="315.959991" r="19.980000" fill="red">
  <title>Mexico City</title>
</circle><line x1="1165.959961" y1="73.959999" x2="791.960022" y2="315.959991" stroke="red" stroke-width="6.660000" />
<circle cx="268.959991" cy="137.959991" r="19.980000" fill="red">
  <title>Tianjin</title>
</circle><line x1="791.960022" y1="315.959991" x2="268.959991" y2="137.959991" stroke="red" stroke-width="6.660000" />
<circle cx="326.959991" cy="544.960022" r="19.980000" fill="red">
  <title>Karachi</title>
</circle><line x1="268.959991" y1="137.959991" x2="326.959991" y2="544.960022" stroke="red" stroke-width="6.660000" />
<circle cx="589.960022" cy="851.960022" r="19.980000" fill="red">
  <title>Mumbai</title>
</circle><line x1="326.959991" y1="544.960022" x2="589.960022" y2="851.960022" stroke="red" stroke-width="6.660000" />
<circle cx="498.959991" cy="995.960022" r="19.980000" fill="red">
  <title>Beijing</title>
</circle><line x1="589.960022" y1="851.960022" x2="498.959991" y2="995.960022" stroke="red" stroke-width="6.660000" />
<circle cx="314.959991" cy="1007.960022" r="19.980000" fill="red">
  <title>Manila</title>
</circle><line x1="498.959991" y1="995.960022" x2="314.959991" y2="1007.960022" stroke="red" stroke-width="6.660000" />
<circle cx="77.959999" cy="1912.959961" r="19.980000" fill="red">
  <title>Lagos</title>
</circle><line x1="314.959991" y1="1007.960022" x2="77.959999" y2="1912.959961" stroke="red" stroke-width="6.660000" />
<circle cx="817.960022" cy="1585.959961" r="19.980000" fill="red">
  <title>Istanbul</title>
</circle><line x1="77.959999" y1="1912.959961" x2="817.960022" y2="1585.959961" stroke="red" stroke-width="6.660000" />
<circle cx="1384.959961" cy="1640.959961" r="19.980000" fill="red">
  <title>Rio de Janeiro</title>
</circle><line x1="817.960022" y1="1585.959961" x2="1384.959961" y2="1640.959961" stroke="red" stroke-width="6.660000" />
<circle cx="2005.959961" cy="1551.959961" r="19.980000" fill="red">
  <title>Kolkata</title>
</circle><line x1="1384.959961" y1="1640.959961" x2="2005.959961" y2="1551.959961" stroke="red" stroke-width="6.660000" />
<circle cx="863.960022" cy="1238.959961" r="19.980000" fill="red">
  <title>New York</title>
</circle><line x1="2005.959961" y1="1551.959961" x2="863.960022" y2="1238.959961" stroke="red" stroke-width="6.660000" />
<circle cx="735.960022" cy="1058.959961" r="19.980000" fill="red">
  <title>Osaka</title>
</circle><line x1="863.960022" y1="1238.959961" x2="735.960022" y2="1058.959961" stroke="red" stroke-width="6.660000" />
</svg>
