<?xml version="1.0" encoding="UTF-8" standalone="no"?>
<svg width="500" height="500" viewBox="0 0 2074.000000 2074.000000" xmlns="http://www.w3.org/2000/svg">
<rect x="19.000000" y="19.000000" width="2036.000000" height="2036.000000" fill="black" />
<circle cx="1466.959961" cy="55.959999" r="19.980000" fill="red">
  <title>Tokyo</title>
</circle><line x1="1282.959961" y1="636.960022" x2="1466.959961" y2="55.959999" stroke="red" stroke-width="6.660000" />
<circle cx="695.960022" cy="115.959999" r="19.980000" fill="red">
  <title>Shanghai</title>
</circle><line x1="1466.959961" y1="55.959999" x2="695.960022" y2="115.959999" stroke="red" stroke-width="6.660000" />
<circle cx="209.959991" cy="290.959991" r="19.980000" fill="red">
  <title>Beijing</title>
</circle><line x1="695.960022" y1="115.959999" x2="209.959991" y2="290.959991" stroke="red" stroke-width="6.660000" />
<circle cx="180.959991" cy="1341.959961" r="19.980000" fill="red">
  <title>New York</title>
</circle><line x1="209.959991" y1="290.959991" x2="180.959991" y2="1341.959961" stroke="red" stroke-width="6.660000" />
<circle cx="344.959991" cy="1809.959961" r="19.980000" fill="red">
  <title>Cairo</title>
</circle><line x1="180.959991" y1="1341.959961" x2="344.959991" y2="1809.959961" stroke="red" stroke-width="6.660000" />
<circle cx="830.960022" cy="1213.959961" r="19.980000" fill="red">
  <title>Delhi</title>
</circle><line x1="344.959991" y1="1809.959961" x2="830.960022" y2="1213.959961" stroke="red" stroke-width="6.660000" />
<circle cx="1452.959961" cy="1636.959961" r="19.980000" fill="red">
  <title>Karachi</title>
</circle><line x1="830.960022" y1="1213.959961" x2="1452.959961" y2="1636.959961" stroke="red" stroke-width="6.660000" />
<circle cx="1497.959961" cy="1856.959961" r="19.980000" fill="red">
  <title>Mexico City</title>
</circle><line x1="1452.959961" y1="1636.959961" x2="1497.959961" y2="1856.959961" stroke="red" stroke-width="6.660000" />
<circle cx="1658.959961" cy="1769.959961" r="19.980000" fill="red">
  <title>Mumbai</title>
</circle><line x1="1497.959961" y1="1856.959961" x2="1658.959961" y2="1769.959961" stroke="red" stroke-width="6.660000" />
<circle cx="1593.959961" cy="1684.959961" r="19.980000" fill="red">
  <title>São Paulo</title>
</circle><line x1="1658.959961" y1="1769.959961" x2="1593.959961" y2="1684.959961" stroke="red" stroke-width="6.660000" />
<circle cx="1175.959961" cy="1034.959961" r="19.980000" fill="red">
  <title>Osaka</title>
</circle><line x1="1593.959961" y1="1684.959961" x2="1175.959961" y2="1034.959961" stroke="red" stroke-width="6.660000" />
<circle cx="1282.959961" cy="636.960022" r="19.980000" fill="red">
  <title>Dhaka</title>
</circle><line x1="1175.959961" y1="1034.959961" x2="1282.959961" y2="636.960022" stroke="red" stroke-width="6.660000" />
</svg>
