<?xml version="1.0" encoding="UTF-8" standalone="no"?>
<svg width="500" height="500" viewBox="0 0 2074.000000 2074.000000" xmlns="http://www.w3.org/2000/svg">
<rect x="19.000000" y="19.000000" width="2036.000000" height="2036.000000" fill="black" />
<circle cx="967.960022" cy="1974.959961" r="19.980000" fill="red">
  <title>Tokyo</title>
</circle><line x1="1080.959961" y1="1900.959961" x2="967.960022" y2="1974.959961" stroke="red" stroke-width="6.660000" />
<circle cx="689.960022" cy="1913.959961" r="19.980000" fill="red">
  <title>Lagos</title>
</circle><line x1="967.960022" y1="1974.959961" x2="689.960022" y2="1913.959961" stroke="red" stroke-width="6.660000" />
<circle cx="420.959991" cy="1980.959961" r="19.980000" fill="red">
  <title>Dhaka</title>
</circle><line x1="689.960022" y1="1913.959961" x2="420.959991" y2="1980.959961" stroke="red" stroke-width="6.660000" />
<circle cx="199.959991" cy="2023.959961" r="19.980000" fill="red">
  <title>Beijing</title>
</circle><line x1="420.959991" y1="1980.959961" x2="199.959991" y2="2023.959961" stroke="red" stroke-width="6.660000" />
<circle cx="547.960022" cy="1769.959961" r="19.980000" fill="red">
  <title>Chongqing</title>
</circle><line x1="199.959991" y1="2023.959961" x2="547.960022" y2="1769.959961" stroke="red" stroke-width="6.660000" />
<circle cx="505.959991" cy="1716.959961" r="19.980000" fill="red">
  <title>Mexico City</title>
</circle><line x1="547.960022" y1="1769.959961" x2="505.959991" y2="1716.959961" stroke="red" stroke-width="6.660000" />
<circle cx="804.960022" cy="1129.959961" r="19.980000" fill="red">
  <title>Osaka</title>
</circle><line x1="505.959991" y1="1716.959961" x2="804.960022" y2="1129.959961" stroke="red" stroke-width="6.660000" />
<circle cx="649.960022" cy="805.960022" r="19.980000" fill="red">
  <title>São Paulo</title>
</circle><line x1="804.960022" y1="1129.959961" x2="649.960022" y2="805.960022" stroke="red" stroke-width="6.660000" />
<circle cx="114.959999" cy="502.959991" r="19.980000" fill="red">
  <title>Shanghai</title>
</circle><line x1="649.960022" y1="805.960022" x2="114.959999" y2="502.959991" stroke="red" stroke-width="6.660000" />
<circle cx="938.960022" cy="719.960022" r="19.980000" fill="red">
  <title>Delhi</title>
</circle><line x1="114.959999" y1="502.959991" x2="938.960022" y2="719.960022" stroke="red" stroke-width="6.660000" />
<circle cx="1007.960022" cy="524.960022" r="19.980000" fill="red">
  <title>New York</title>
</circle><line x1="938.960022" y1="719.960022" x2="1007.960022" y2="524.960022" stroke="red" stroke-width="6.660000" />
<circle cx="1310.959961" cy="734.960022" r="19.980000" fill="red">
  <title>Buenos Aires</title>
</circle><line x1="1007.960022" y1="524.960022" x2="1310.959961" y2="734.960022" stroke="red" stroke-width="6.660000" />
<circle cx="1837.959961" cy="339.959991" r="19.980000" fill="red">
  <title>Manila</title>
</circle><line x1="1310.959961" y1="734.960022" x2="1837.959961" y2="339.959991" stroke="red" stroke-width="6.660000" />
<circle cx="1738.959961" cy="846.960022" r="19.980000" fill="red">
  <title>Cairo</title>
</circle><line x1="1837.959961" y1="339.959991" x2="1738.959961" y2="846.960022" stroke="red" stroke-width="6.660000" />
<circle cx="1872.959961" cy="1042.959961" r="19.980000" fill="red">
  <title>Mumbai</title>
</circle><line x1="1738.959961" y1="846.960022" x2="1872.959961" y2="1042.959961" stroke="red" stroke-width="6.660000" />
<circle cx="1554.959961" cy="1328.959961" r="19.980000" fill="red">
  <title>Karachi</title>
</circle><line x1="1872.959961" y1="1042.959961" x2="1554.959961" y2="1328.959961" stroke="red" stroke-width="6.660000" />
<circle cx="1439.959961" cy="2008.959961" r="19.980000" fill="red">
  <title>Kolkata</title>
</circle><line x1="1554.959961" y1="1328.959961" x2="1439.959961" y2="2008.959961" stroke="red" stroke-width="6.660000" />
<circle cx="1080.959961" cy="1900.959961" r="19.980000" fill="red">
  <title>Istanbul</title>
</circle><line x1="1439.959961" y1="2008.959961" x2="1080.959961" y2="1900.959961" stroke="red" stroke-width="6.660000" />
</svg>
