<?xml version="1.0" encoding="UTF-8" standalone="no"?>
<svg width="500" height="500" viewBox="0 0 2074.000000 2074.000000" xmlns="http://www.w3.org/2000/svg">
<rect x="19.000000" y="19.000000" width="2036.000000" height="2036.000000" fill="black" />
<circle cx="1530.959961" cy="1170.959961" r="19.980000" fill="red">
  <title>Tokyo</title>
</circle><line x1="1797.959961" y1="869.960022" x2="1530.959961" y2="1170.959961" stroke="red" stroke-width="6.660000" />
<circle cx="1212.959961" cy="991.960022" r="19.980000" fill="red">
  <title>São Paulo</title>
</circle><line x1="1530.959961" y1="1170.959961" x2="1212.959961" y2="991.960022" stroke="red" stroke-width="6.660000" />
<circle cx="844.960022" cy="696.960022" r="19.980000" fill="red">
  <title>Beijing</title>
</circle><line x1="1212.959961" y1="991.960022" x2="844.960022" y2="696.960022" stroke="red" stroke-width="6.660000" />
<circle cx="424.959991" cy="595.960022" r="19.980000" fill="red">
  <title>Buenos Aires</title>
</circle><line x1="844.960022" y1="696.960022" x2="424.959991" y2="595.960022" stroke="red" stroke-width="6.660000" />
<circle cx="506.959991" cy="44.959999" r="19.980000" fill="red">
  <title>Osaka</title>
</circle><line x1="424.959991" y1="595.960022" x2="506.959991" y2="44.959999" stroke="red" stroke-width="6.660000" />
<circle cx="173.959991" cy="590.960022" r="19.980000" fill="red">
  <title>Karachi</title>
</circle><line x1="506.959991" y1="44.959999" x2="173.959991" y2="590.960022" stroke="red" stroke-width="6.660000" />
<circle cx="395.959991" cy="600.960022" r="19.980000" fill="red">
  <title>Cairo</title>
</circle><line x1="173.959991" y1="590.960022" x2="395.959991" y2="600.960022" stroke="red" stroke-width="6.660000" />
<circle cx="705.960022" cy="707.960022" r="19.980000" fill="red">
  <title>Chongqing</title>
</circle><line x1="395.959991" y1="600.960022" x2="705.960022" y2="707.960022" stroke="red" stroke-width="6.660000" />
<circle cx="793.960022" cy="1520.959961" r="19.980000" fill="red">
  <title>Dhaka</title>
</circle><line x1="705.960022" y1="707.960022" x2="793.960022" y2="1520.959961" stroke="red" stroke-width="6.660000" />
<circle cx="722.960022" cy="1863.959961" r="19.980000" fill="red">
  <title>Mexico City</title>
</circle><line x1="793.960022" y1="1520.959961" x2="722.960022" y2="1863.959961" stroke="red" stroke-width="6.660000" />
<circle cx="1128.959961" cy="1602.959961" r="19.980000" fill="red">
  <title>Delhi</title>
</circle><line x1="722.960022" y1="1863.959961" x2="1128.959961" y2="1602.959961" stroke="red" stroke-width="6.660000" />
<circle cx="1388.959961" cy="1925.959961" r="19.980000" fill="red">
  <title>Shanghai</title>
</circle><line x1="1128.959961" y1="1602.959961" x2="1388.959961" y2="1925.959961" stroke="red" stroke-width="6.660000" />
<circle cx="1612.959961" cy="1255.959961" r="19.980000" fill="red">
  <title>New York</title>
</circle><line x1="1388.959961" y1="1925.959961" x2="1612.959961" y2="1255.959961" stroke="red" stroke-width="6.660000" />
<circle cx="1797.959961" cy="869.960022" r="19.980000" fill="red">
  <title>Mumbai</title>
</circle><line x1="1612.959961" y1="1255.959961" x2="1797.959961" y2="869.960022" stroke="red" stroke-width="6.660000" />
</svg>
