<?xml version="1.0" encoding="UTF-8" standalone="no"?>
<svg width="500" height="500" viewBox="0 0 2074.000000 2074.000000" xmlns="http://www.w3.org/2000/svg">
<rect x="19.000000" y="19.000000" width="2036.000000" height="2036.000000" fill="black" />
<circle cx="785.960022" cy="260.959991" r="19.980000" fill="red">
  <title>Tokyo</title>
</circle><line x1="936.960022" y1="180.959991" x2="785.960022" y2="260.959991" stroke="red" stroke-width="6.660000" />
<circle cx="1123.959961" cy="1203.959961" r="19.980000" fill="red">
  <title>Delhi</title>
</circle><line x1="785.960022" y1="260.959991" x2="1123.959961" y2="1203.959961" stroke="red" stroke-width="6.660000" />
<circle cx="1788.959961" cy="1650.959961" r="19.980000" fill="red">
  <title>São Paulo</title>
</circle><line x1="1123.959961" y1="1203.959961" x2="1788.959961" y2="1650.959961" stroke="red" stroke-width="6.660000" />
<circle cx="1721.959961" cy="1073.959961" r="19.980000" fill="red">
  <title>Mexico City</title>
</circle><line x1="1788.959961" y1="1650.959961" x2="1721.959961" y2="1073.959961" stroke="red" stroke-width="6.660000" />
<circle cx="936.960022" cy="180.959991" r="19.980000" fill="red">
  <title>Shanghai</title>
</circle><line x1="1721.959961" y1="1073.959961" x2="936.960022" y2="180.959991" stroke="red" stroke-width="6.660000" />
</svg>
