<?xml version="1.0" encoding="UTF-8" standalone="no"?>
<svg width="500" height="500" viewBox="0 0 2074.000000 2074.000000" xmlns="http://www.w3.org/2000/svg">
<rect x="19.000000" y="19.000000" width="2036.000000" height="2036.000000" fill="black" />
<circle cx="1977.959961" cy="1897.959961" r="19.980000" fill="red">
  <title>Tokyo</title>
</circle><line x1="1720.959961" y1="1229.959961" x2="1977.959961" y2="1897.959961" stroke="red" stroke-width="6.660000" />
<circle cx="1611.959961" cy="1991.959961" r="19.980000" fill="red">
  <title>Osaka</title>
</circle><line x1="1977.959961" y1="1897.959961" x2="1611.959961" y2="1991.959961" stroke="red" stroke-width="6.660000" />
<circle cx="1257.959961" cy="1702.959961" r="19.980000" fill="red">
  <title>Karachi</title>
</circle><line x1="1611.959961" y1="1991.959961" x2="1257.959961" y2="1702.959961" stroke="red" stroke-width="6.660000" />
<circle cx="925.960022" cy="1636.959961" r="19.980000" fill="red">
  <title>Delhi</title>
</circle><line x1="1257.959961" y1="1702.959961" x2="925.960022" y2="1636.959961" stroke="red" stroke-width="6.660000" />
<circle cx="611.960022" cy="1538.959961" r="19.980000" fill="red">
  <title>Buenos Aires</title>
</circle><line x1="925.960022" y1="1636.959961" x2="611.960022" y2="1538.959961" stroke="red" stroke-width="6.660000" />
<circle cx="109.959999" cy="1008.960022" r="19.980000" fill="red">
  <title>Chongqing</title>
</circle><line x1="611.960022" y1="1538.959961" x2="109.959999" y2="1008.960022" stroke="red" stroke-width="6.660000" />
<circle cx="719.960022" cy="1294.959961" r="19.980000" fill="red">
  <title>Dhaka</title>
</circle><line x1="109.959999" y1="1008.960022" x2="719.960022" y2="1294.959961" stroke="red" stroke-width="6.660000" />
<circle cx="846.960022" cy="1298.959961" r="19.980000" fill="red">
  <title>Shanghai</title>
</circle><line x1="719.960022" y1="1294.959961" x2="846.960022" y2="1298.959961" stroke="red" stroke-width="6.660000" />
<circle cx="1167.959961" cy="565.960022" r="19.980000" fill="red">
  <title>Beijing</title>
</circle><line x1="846.960022" y1="1298.959961" x2="1167.959961" y2="565.960022" stroke="red" stroke-width="6.660000" />
<circle cx="1127.959961" cy="434.959991" r="19.980000" fill="red">
  <title>Mexico City</title>
</circle><line x1="1167.959961" y1="565.960022" x2="1127.959961" y2="434.959991" stroke="red" stroke-width="6.660000" />
<circle cx="1679.959961" cy="464.959991" r="19.980000" fill="red">
  <title>Cairo</title>
</circle><line x1="1127.959961" y1="434.959991" x2="1679.959961" y2="464.959991" stroke="red" stroke-width="6.660000" />
<circle cx="1874.959961" cy="749.960022" r="19.980000" fill="red">
  <title>Mumbai</title>
</circle><line x1="1679.959961" y1="464.959991" x2="1874.959961" y2="749.960022" stroke="red" stroke-width="6.660000" />
<circle cx="1832.959961" cy="896.960022" r="19.980000" fill="red">
  <title>São Paulo</title>
</circle><line x1="1874.959961" y1="749.960022" x2="1832.959961" y2="896.960022" stroke="red" stroke-width="6.660000" />
<circle cx="1720.959961" cy="1229.959961" r="19.980000" fill="red">
  <title>New York</title>
</circle><line x1="1832.959961" y1="896.960022" x2="1720.959961" y2="1229.959961" stroke="red" stroke-width="6.660000" />
</svg>
