<?xml version="1.0" encoding="UTF-8" standalone="no"?>
<svg width="500" height="500" viewBox="0 0 2074.000000 2074.000000" xmlns="http://www.w3.org/2000/svg">
<rect x="19.000000" y="19.000000" width="2036.000000" height="2036.000000" fill="black" />
<circle cx="427.959991" cy="1499.959961" r="19.980000" fill="red">
  <title>Tokyo</title>
</circle><line x1="164.959991" y1="1765.959961" x2="427.959991" y2="1499.959961" stroke="red" stroke-width="6.660000" />
<circle cx="354.959991" cy="796.960022" r="19.980000" fill="red">
  <title>Istanbul</title>
</circle><line x1="427.959991" y1="1499.959961" x2="354.959991" y2="796.960022" stroke="red" stroke-width="6.660000" />
<circle cx="141.959991" cy="298.959991" r="19.980000" fill="red">
  <title>Dhaka</title>
</circle><line x1="354.959991" y1="796.960022" x2="141.959991" y2="298.959991" stroke="red" stroke-width="6.660000" />
<circle cx="257.959991" cy="472.959991" r="19.980000" fill="red">
  <title>Manila</title>
</circle><line x1="141.959991" y1="298.959991" x2="257.959991" y2="472.959991" stroke="red" stroke-width="6.660000" />
<circle cx="567.960022" cy="743.960022" r="19.980000" fill="red">
  <title>Kolkata</title>
</circle><line x1="257.959991" y1="472.959991" x2="567.960022" y2="743.960022" stroke="red" stroke-width="6.660000" />
<circle cx="688.960022" cy="587.960022" r="19.980000" fill="red">
  <title>Chongqing</title>
</circle><line x1="567.960022" y1="743.960022" x2="688.960022" y2="587.960022" stroke="red" stroke-width="6.660000" />
<circle cx="1073.959961" cy="434.959991" r="19.980000" fill="red">
  <title>Tianjin</title>
</circle><line x1="688.960022" y1="587.960022" x2="1073.959961" y2="434.959991" stroke="red" stroke-width="6.660000" />
<circle cx="1262.959961" cy="843.960022" r="19.980000" fill="red">
  <title>Mumbai</title>
</circle><line x1="1073.959961" y1="434.959991" x2="1262.959961" y2="843.960022" stroke="red" stroke-width="6.660000" />
<circle cx="1517.959961" cy="1145.959961" r="19.980000" fill="red">
  <title>Karachi</title>
</circle><line x1="1262.959961" y1="843.960022" x2="1517.959961" y2="1145.959961" stroke="red" stroke-width="6.660000" />
<circle cx="1770.959961" cy="827.960022" r="19.980000" fill="red">
  <title>New York</title>
</circle><line x1="1517.959961" y1="1145.959961" x2="1770.959961" y2="827.960022" stroke="red" stroke-width="6.660000" />
<circle cx="1912.959961" cy="1257.959961" r="19.980000" fill="red">
  <title>Rio de Janeiro</title>
</circle><line x1="1770.959961" y1="827.960022" x2="1912.959961" y2="1257.959961" stroke="red" stroke-width="6.660000" />
<circle cx="1942.959961" cy="1459.959961" r="19.980000" fill="red">
  <title>Delhi</title>
</circle><line x1="1912.959961" y1="1257.959961" x2="1942.959961" y2="1459.959961" stroke="red" stroke-width="6.660000" />
<circle cx="1735.959961" cy="1970.959961" r="19.980000" fill="red">
  <title>Beijing</title>
</circle><line x1="1942.959961" y1="1459.959961" x2="1735.959961" y2="1970.959961" stroke="red" stroke-width="6.660000" />
<circle cx="1547.959961" cy="1479.959961" r="19.980000" fill="red">
  <title>Shanghai</title>
</circle><line x1="1735.959961" y1="1970.959961" x2="1547.959961" y2="1479.959961" stroke="red" stroke-width="6.660000" />
<circle cx="1131.959961" cy="1345.959961" r="19.980000" fill="red">
  <title>São Paulo</title>
</circle><line x1="1547.959961" y1="1479.959961" x2="1131.959961" y2="1345.959961" stroke="red" stroke-width="6.660000" />
<circle cx="753.960022" cy="1504.959961" r="19.980000" fill="red">
  <title>Cairo</title>
</circle><line x1="1131.959961" y1="1345.959961" x2="753.960022" y2="1504.959961" stroke="red" stroke-width="6.660000" />
<circle cx="776.960022" cy="1635.959961" r="19.980000" fill="red">
  <title>Osaka</title>
</circle><line x1="753.960022" y1="1504.959961" x2="776.960022" y2="1635.959961" stroke="red" stroke-width="6.660000" />
<circle cx="919.960022" cy="1918.959961" r="19.980000" fill="red">
  <title>Buenos Aires</title>
</circle><line x1="776.960022" y1="1635.959961" x2="919.960022" y2="1918.959961" stroke="red" stroke-width="6.660000" />
<circle cx="560.960022" cy="1987.959961" r="19.980000" fill="red">
  <title>Mexico City</title>
</circle><line x1="919.960022" y1="1918.959961" x2="560.960022" y2="1987.959961" stroke="red" stroke-width="6.660000" />
<circle cx="164.959991" cy="1765.959961" r="19.980000" fill="red">
  <title>Lagos</title>
</circle><line x1="560.960022" y1="1987.959961" x2="164.959991" y2="1765.959961" stroke="red" stroke-width="6.660000" />
</svg>
