<?xml version="1.0" encoding="UTF-8" standalone="no"?>
<svg width="500" height="500" viewBox="0 0 2074.000000 2074.000000" xmlns="http://www.w3.org/2000/svg">
<rect x="19.000000" y="19.000000" width="2036.000000" height="2036.000000" fill="black" />
<circle cx="893.960022" cy="696.960022" r="19.980000" fill="red">
  <title>Tokyo</title>
</circle><line x1="1372.959961" y1="939.960022" x2="893.960022" y2="696.960022" stroke="red" stroke-width="6.660000" />
<circle cx="839.960022" cy="609.960022" r="19.980000" fill="red">
  <title>Delhi</title>
</circle><line x1="893.960022" y1="696.960022" x2="839.960022" y2="609.960022" stroke="red" stroke-width="6.660000" />
<circle cx="462.959991" cy="655.960022" r="19.980000" fill="red">
  <title>New York</title>
</circle><line x1="839.960022" y1="609.960022" x2="462.959991" y2="655.960022" stroke="red" stroke-width="6.660000" />
<circle cx="282.959991" cy="68.959999" r="19.980000" fill="red">
  <title>Cairo</title>
</circle><line x1="462.959991" y1="655.960022" x2="282.959991" y2="68.959999" stroke="red" stroke-width="6.660000" />
<circle cx="153.959991" cy="83.959999" r="19.980000" fill="red">
  <title>Dhaka</title>
</circle><line x1="282.959991" y1="68.959999" x2="153.959991" y2="83.959999" stroke="red" stroke-width="6.660000" />
<circle cx="56.959999" cy="406.959991" r="19.980000" fill="red">
  <title>Karachi</title>
</circle><line x1="153.959991" y1="83.959999" x2="56.959999" y2="406.959991" stroke="red" stroke-width="6.660000" />
<circle cx="142.959991" cy="537.960022" r="19.980000" fill="red">
  <title>Mumbai</title>
</circle><line x1="56.959999" y1="406.959991" x2="142.959991" y2="537.960022" stroke="red" stroke-width="6.660000" />
<circle cx="450.959991" cy="784.960022" r="19.980000" fill="red">
  <title>Beijing</title>
</circle><line x1="142.959991" y1="537.960022" x2="450.959991" y2="784.960022" stroke="red" stroke-width="6.660000" />
<circle cx="473.959991" cy="1739.959961" r="19.980000" fill="red">
  <title>Osaka</title>
</circle><line x1="450.959991" y1="784.960022" x2="473.959991" y2="1739.959961" stroke="red" stroke-width="6.660000" />
<circle cx="1380.959961" cy="1302.959961" r="19.980000" fill="red">
  <title>Mexico City</title>
</circle><line x1="473.959991" y1="1739.959961" x2="1380.959961" y2="1302.959961" stroke="red" stroke-width="6.660000" />
<circle cx="1975.959961" cy="1002.960022" r="19.980000" fill="red">
  <title>Shanghai</title>
</circle><line x1="1380.959961" y1="1302.959961" x2="1975.959961" y2="1002.960022" stroke="red" stroke-width="6.660000" />
<circle cx="1530.959961" cy="517.960022" r="19.980000" fill="red">
  <title>São Paulo</title>
</circle><line x1="1975.959961" y1="1002.960022" x2="1530.959961" y2="517.960022" stroke="red" stroke-width="6.660000" />
<circle cx="1372.959961" cy="939.960022" r="19.980000" fill="red">
  <title>Buenos Aires</title>
</circle><line x1="1530.959961" y1="517.960022" x2="1372.959961" y2="939.960022" stroke="red" stroke-width="6.660000" />
</svg>
