<?xml version="1.0" encoding="UTF-8" standalone="no"?>
<svg width="500" height="500" viewBox="0 0 2074.000000 2074.000000" xmlns="http://www.w3.org/2000/svg">
<rect x="19.000000" y="19.000000" width="2036.000000" height="2036.000000" fill="black" />
<circle cx="1507.959961" cy="391.959991" r="19.980000" fill="red">
  <title>Tokyo</title>
</circle><line x1="1993.959961" y1="1353.959961" x2="1507.959961" y2="391.959991" stroke="red" stroke-width="6.660000" />
<circle cx="574.960022" cy="179.959991" r="19.980000" fill="red">
  <title>Shanghai</title>
</circle><line x1="1507.959961" y1="391.959991" x2="574.960022" y2="179.959991" stroke="red" stroke-width="6.660000" />
<circle cx="110.959999" cy="1012.960022" r="19.980000" fill="red">
  <title>Mumbai</title>
</circle><line x1="574.960022" y1="179.959991" x2="110.959999" y2="1012.960022" stroke="red" stroke-width="6.660000" />
<circle cx="474.959991" cy="1811.959961" r="19.980000" fill="red">
  <title>Delhi</title>
</circle><line x1="110.959999" y1="1012.960022" x2="474.959991" y2="1811.959961" stroke="red" stroke-width="6.660000" />
<circle cx="1280.959961" cy="1874.959961" r="19.980000" fill="red">
  <title>Beijing</title>
</circle><line x1="474.959991" y1="1811.959961" x2="1280.959961" y2="1874.959961" stroke="red" stroke-width="6.660000" />
<circle cx="1538.959961" cy="1543.959961" r="19.980000" fill="red">
  <title>Mexico City</title>
</circle><line x1="1280.959961" y1="1874.959961" x2="1538.959961" y2="1543.959961" stroke="red" stroke-width="6.660000" />
<circle cx="1620.959961" cy="1564.959961" r="19.980000" fill="red">
  <title>Cairo</title>
</circle><line x1="1538.959961" y1="1543.959961" x2="1620.959961" y2="1564.959961" stroke="red" stroke-width="6.660000" />
<circle cx="1993.959961" cy="1353.959961" r="19.980000" fill="red">
  <title>São Paulo</title>
</circle><line x1="1620.959961" y1="1564.959961" x2="1993.959961" y2="1353.959961" stroke="red" stroke-width="6.660000" />
</svg>
