<?xml version="1.0" encoding="UTF-8" standalone="no"?>
<svg width="500" height="500" viewBox="0 0 2074.000000 2074.000000" xmlns="http://www.w3.org/2000/svg">
<rect x="19.000000" y="19.000000" width="2036.000000" height="2036.000000" fill="black" />
<circle cx="360.959991" cy="1134.959961" r="19.980000" fill="red">
  <title>Tokyo</title>
</circle><line x1="70.959999" y1="977.960022" x2="360.959991" y2="1134.959961" stroke="red" stroke-width="6.660000" />
<circle cx="279.959991" cy="1903.959961" r="19.980000" fill="red">
  <title>Shanghai</title>
</circle><line x1="360.959991" y1="1134.959961" x2="279.959991" y2="1903.959961" stroke="red" stroke-width="6.660000" />
<circle cx="1829.959961" cy="1889.959961" r="19.980000" fill="red">
  <title>Buenos Aires</title>
</circle><line x1="279.959991" y1="1903.959961" x2="1829.959961" y2="1889.959961" stroke="red" stroke-width="6.660000" />
<circle cx="1851.959961" cy="894.960022" r="19.980000" fill="red">
  <title>Dhaka</title>
</circle><line x1="1829.959961" y1="1889.959961" x2="1851.959961" y2="894.960022" stroke="red" stroke-width="6.660000" />
<circle cx="1562.959961" cy="693.960022" r="19.980000" fill="red">
  <title>Delhi</title>
</circle><line x1="1851.959961" y1="894.960022" x2="1562.959961" y2="693.960022" stroke="red" stroke-width="6.660000" />
<circle cx="1653.959961" cy="534.960022" r="19.980000" fill="red">
  <title>Chongqing</title>
</circle><line x1="1562.959961" y1="693.960022" x2="1653.959961" y2="534.960022" stroke="red" stroke-width="6.660000" />
<circle cx="1857.959961" cy="421.959991" r="19.980000" fill="red">
  <title>Karachi</title>
</circle><line x1="1653.959961" y1="534.960022" x2="1857.959961" y2="421.959991" stroke="red" stroke-width="6.660000" />
<circle cx="1683.959961" cy="156.959991" r="19.980000" fill="red">
  <title>Mumbai</title>
</circle><line x1="1857.959961" y1="421.959991" x2="1683.959961" y2="156.959991" stroke="red" stroke-width="6.660000" />
<circle cx="1570.959961" cy="49.959999" r="19.980000" fill="red">
  <title>Cairo</title>
</circle><line x1="1683.959961" y1="156.959991" x2="1570.959961" y2="49.959999" stroke="red" stroke-width="6.660000" />
<circle cx="1164.959961" cy="95.959999" r="19.980000" fill="red">
  <title>São Paulo</title>
</circle><line x1="1570.959961" y1="49.959999" x2="1164.959961" y2="95.959999" stroke="red" stroke-width="6.660000" />
<circle cx="1059.959961" cy="459.959991" r="19.980000" fill="red">
  <title>Mexico City</title>
</circle><line x1="1164.959961" y1="95.959999" x2="1059.959961" y2="459.959991" stroke="red" stroke-width="6.660000" />
<circle cx="417.959991" cy="270.959991" r="19.980000" fill="red">
  <title>Beijing</title>
</circle><line x1="1059.959961" y1="459.959991" x2="417.959991" y2="270.959991" stroke="red" stroke-width="6.660000" />
<circle cx="223.959991" cy="760.960022" r="19.980000" fill="red">
  <title>Osaka</title>
</circle><line x1="417.959991" y1="270.959991" x2="223.959991" y2="760.960022" stroke="red" stroke-width="6.660000" />
<circle cx="70.959999" cy="977.960022" r="19.980000" fill="red">
  <title>New York</title>
</circle><line x1="223.959991" y1="760.960022" x2="70.959999" y2="977.960022" stroke="red" stroke-width="6.660000" />
</svg>
