<?xml version="1.0" encoding="UTF-8" standalone="no"?>
<svg width="500" height="500" viewBox="0 0 2074.000000 2074.000000" xmlns="http://www.w3.org/2000/svg">
<rect x="19.000000" y="19.000000" width="2036.000000" height="2036.000000" fill="black" />
<circle cx="827.960022" cy="1949.959961" r="19.980000" fill="red">
  <title>Tokyo</title>
</circle><line x1="1450.959961" y1="1771.959961" x2="827.960022" y2="1949.959961" stroke="red" stroke-width="6.660000" />
<circle cx="315.959991" cy="1721.959961" r="19.980000" fill="red">
  <title>Shanghai</title>
</circle><line x1="827.960022" y1="1949.959961" x2="315.959991" y2="1721.959961" stroke="red" stroke-width="6.660000" />
<circle cx="221.959991" cy="1654.959961" r="19.980000" fill="red">
  <title>Mexico City</title>
</circle><line x1="315.959991" y1="1721.959961" x2="221.959991" y2="1654.959961" stroke="red" stroke-width="6.660000" />
<circle cx="246.959991" cy="1580.959961" r="19.980000" fill="red">
  <title>Karachi</title>
</circle><line x1="221.959991" y1="1654.959961" x2="246.959991" y2="1580.959961" stroke="red" stroke-width="6.660000" />
<circle cx="410.959991" cy="1197.959961" r="19.980000" fill="red">
  <title>Manila</title>
</circle><line x1="246.959991" y1="1580.959961" x2="410.959991" y2="1197.959961" stroke="red" stroke-width="6.660000" />
<circle cx="680.960022" cy="1081.959961" r="19.980000" fill="red">
  <title>New York</title>
</circle><line x1="410.959991" y1="1197.959961" x2="680.960022" y2="1081.959961" stroke="red" stroke-width="6.660000" />
<circle cx="1033.959961" cy="1038.959961" r="19.980000" fill="red">
  <title>Buenos Aires</title>
</circle><line x1="680.960022" y1="1081.959961" x2="1033.959961" y2="1038.959961" stroke="red" stroke-width="6.660000" />
<circle cx="1053.959961" cy="391.959991" r="19.980000" fill="red">
  <title>São Paulo</title>
</circle><line x1="1033.959961" y1="1038.959961" x2="1053.959961" y2="391.959991" stroke="red" stroke-width="6.660000" />
<circle cx="1073.959961" cy="68.959999" r="19.980000" fill="red">
  <title>Mumbai</title>
</circle><line x1="1053.959961" y1="391.959991" x2="1073.959961" y2="68.959999" stroke="red" stroke-width="6.660000" />
<circle cx="1363.959961" cy="119.959999" r="19.980000" fill="red">
  <title>Cairo</title>
</circle><line x1="1073.959961" y1="68.959999" x2="1363.959961" y2="119.959999" stroke="red" stroke-width="6.660000" />
<circle cx="1362.959961" cy="571.960022" r="19.980000" fill="red">
  <title>Osaka</title>
</circle><line x1="1363.959961" y1="119.959999" x2="1362.959961" y2="571.960022" stroke="red" stroke-width="6.660000" />
<circle cx="1582.959961" cy="687.960022" r="19.980000" fill="red">
  <title>Lagos</title>
</circle><line x1="1362.959961" y1="571.960022" x2="1582.959961" y2="687.960022" stroke="red" stroke-width="6.660000" />
<circle cx="1997.959961" cy="498.959991" r="19.980000" fill="red">
  <title>Istanbul</title>
</circle><line x1="1582.959961" y1="687.960022" x2="1997.959961" y2="498.959991" stroke="red" stroke-width="6.660000" />
<circle cx="1690.959961" cy="833.960022" r="19.980000" fill="red">
  <title>Delhi</title>
</circle><line x1="1997.959961" y1="498.959991" x2="1690.959961" y2="833.960022" stroke="red" stroke-width="6.660000" />
<circle cx="1545.959961" cy="787.960022" r="19.980000" fill="red">
  <title>Kolkata</title>
</circle><line x1="1690.959961" y1="833.960022" x2="1545.959961" y2="787.960022" stroke="red" stroke-width="6.660000" />
<circle cx="1244.959961" cy="1476.959961" r="19.980000" fill="red">
  <title>Beijing</title>
</circle><line x1="1545.959961" y1="787.960022" x2="1244.959961" y2="1476.959961" stroke="red" stroke-width="6.660000" />
<circle cx="1574.959961" cy="1653.959961" r="19.980000" fill="red">
  <title>Dhaka</title>
</circle><line x1="1244.959961" y1="1476.959961" x2="1574.959961" y2="1653.959961" stroke="red" stroke-width="6.660000" />
<circle cx="1450.959961" cy="1771.959961" r="19.980000" fill="red">
  <title>Chongqing</title>
</circle><line x1="1574.959961" y1="1653.959961" x2="1450.959961" y2="1771.959961" stroke="red" stroke-width="6.660000" />
</svg>
