<?xml version="1.0" encoding="UTF-8" standalone="no"?>
<svg width="500" height="500" viewBox="0 0 2074.000000 2074.000000" xmlns="http://www.w3.org/2000/svg">
<rect x="19.000000" y="19.000000" width="2036.000000" height="2036.000000" fill="black" />
<circle cx="1140.959961" cy="1034.959961" r="19.980000" fill="red">
  <title>Tokyo</title>
</circle><line x1="1175.959961" y1="1768.959961" x2="1140.959961" y2="1034.959961" stroke="red" stroke-width="6.660000" />
<circle cx="1346.959961" cy="1042.959961" r="19.980000" fill="red">
  <title>Delhi</title>
</circle><line x1="1140.959961" y1="1034.959961" x2="1346.959961" y2="1042.959961" stroke="red" stroke-width="6.660000" />
<circle cx="1625.959961" cy="1178.959961" r="19.980000" fill="red">
  <title>Karachi</title>
</circle><line x1="1346.959961" y1="1042.959961" x2="1625.959961" y2="1178.959961" stroke="red" stroke-width="6.660000" />
<circle cx="2035.959961" cy="1259.959961" r="19.980000" fill="red">
  <title>New York</title>
</circle><line x1="1625.959961" y1="1178.959961" x2="2035.959961" y2="1259.959961" stroke="red" stroke-width="6.660000" />
<circle cx="2001.959961" cy="618.960022" r="19.980000" fill="red">
  <title>Beijing</title>
</circle><line x1="2035.959961" y1="1259.959961" x2="2001.959961" y2="618.960022" stroke="red" stroke-width="6.660000" />
<circle cx="1763.959961" cy="423.959991" r="19.980000" fill="red">
  <title>Mumbai</title>
</circle><line x1="2001.959961" y1="618.960022" x2="1763.959961" y2="423.959991" stroke="red" stroke-width="6.660000" />
<circle cx="1239.959961" cy="39.959999" r="19.980000" fill="red">
  <title>São Paulo</title>
</circle><line x1="1763.959961" y1="423.959991" x2="1239.959961" y2="39.959999" stroke="red" stroke-width="6.660000" />
<circle cx="629.960022" cy="392.959991" r="19.980000" fill="red">
  <title>Chongqing</title>
</circle><line x1="1239.959961" y1="39.959999" x2="629.960022" y2="392.959991" stroke="red" stroke-width="6.660000" />
<circle cx="165.959991" cy="710.960022" r="19.980000" fill="red">
  <title>Cairo</title>
</circle><line x1="629.960022" y1="392.959991" x2="165.959991" y2="710.960022" stroke="red" stroke-width="6.660000" />
<circle cx="212.959991" cy="739.960022" r="19.980000" fill="red">
  <title>Dhaka</title>
</circle><line x1="165.959991" y1="710.960022" x2="212.959991" y2="739.960022" stroke="red" stroke-width="6.660000" />
<circle cx="384.959991" cy="838.960022" r="19.980000" fill="red">
  <title>Buenos Aires</title>
</circle><line x1="212.959991" y1="739.960022" x2="384.959991" y2="838.960022" stroke="red" stroke-width="6.660000" />
<circle cx="761.960022" cy="1296.959961" r="19.980000" fill="red">
  <title>Mexico City</title>
</circle><line x1="384.959991" y1="838.960022" x2="761.960022" y2="1296.959961" stroke="red" stroke-width="6.660000" />
<circle cx="725.960022" cy="1591.959961" r="19.980000" fill="red">
  <title>Shanghai</title>
</circle><line x1="761.960022" y1="1296.959961" x2="725.960022" y2="1591.959961" stroke="red" stroke-width="6.660000" />
<circle cx="1175.959961" cy="1768.959961" r="19.980000" fill="red">
  <title>Osaka</title>
</circle><line x1="725.960022" y1="1591.959961" x2="1175.959961" y2="1768.959961" stroke="red" stroke-width="6.660000" />
</svg>
