<?xml version="1.0" encoding="UTF-8" standalone="no"?>
<svg width="500" height="500" viewBox="0 0 2074.000000 2074.000000" xmlns="http://www.w3.org/2000/svg">
<rect x="19.000000" y="19.000000" width="2036.000000" height="2036.000000" fill="black" />
<circle cx="1158.959961" cy="1186.959961" r="19.980000" fill="red">
  <title>Tokyo</title>
</circle><line x1="1057.959961" y1="1026.959961" x2="1158.959961" y2="1186.959961" stroke="red" stroke-width="6.660000" />
<circle cx="1274.959961" cy="1375.959961" r="19.980000" fill="red">
  <title>Cairo</title>
</circle><line x1="1158.959961" y1="1186.959961" x2="1274.959961" y2="1375.959961" stroke="red" stroke-width="6.660000" />
<circle cx="1635.959961" cy="1956.959961" r="19.980000" fill="red">
  <title>São Paulo</title>
</circle><line x1="1274.959961" y1="1375.959961" x2="1635.959961" y2="1956.959961" stroke="red" stroke-width="6.660000" />
<circle cx="852.960022" cy="1523.959961" r="19.980000" fill="red">
  <title>Mexico City</title>
</circle><line x1="1635.959961" y1="1956.959961" x2="852.960022" y2="1523.959961" stroke="red" stroke-width="6.660000" />
<circle cx="211.959991" cy="1757.959961" r="19.980000" fill="red">
  <title>Karachi</title>
</circle><line x1="852.960022" y1="1523.959961" x2="211.959991" y2="1757.959961" stroke="red" stroke-width="6.660000" />
<circle cx="672.960022" cy="1603.959961" r="19.980000" fill="red">
  <title>Delhi</title>
</circle><line x1="211.959991" y1="1757.959961" x2="672.960022" y2="1603.959961" stroke="red" stroke-width="6.660000" />
<circle cx="834.960022" cy="814.960022" r="19.980000" fill="red">
  <title>Osaka</title>
</circle><line x1="672.960022" y1="1603.959961" x2="834.960022" y2="814.960022" stroke="red" stroke-width="6.660000" />
<circle cx="146.959991" cy="193.959991" r="19.980000" fill="red">
  <title>Beijing</title>
</circle><line x1="834.960022" y1="814.960022" x2="146.959991" y2="193.959991" stroke="red" stroke-width="6.660000" />
<circle cx="952.960022" cy="44.959999" r="19.980000" fill="red">
  <title>Dhaka</title>
</circle><line x1="146.959991" y1="193.959991" x2="952.960022" y2="44.959999" stroke="red" stroke-width="6.660000" />
<circle cx="1370.959961" cy="181.959991" r="19.980000" fill="red">
  <title>New York</title>
</circle><line x1="952.960022" y1="44.959999" x2="1370.959961" y2="181.959991" stroke="red" stroke-width="6.660000" />
<circle cx="989.960022" cy="579.960022" r="19.980000" fill="red">
  <title>Buenos Aires</title>
</circle><line x1="1370.959961" y1="181.959991" x2="989.960022" y2="579.960022" stroke="red" stroke-width="6.660000" />
<circle cx="977.960022" cy="791.960022" r="19.980000" fill="red">
  <title>Shanghai</title>
</circle><line x1="989.960022" y1="579.960022" x2="977.960022" y2="791.960022" stroke="red" stroke-width="6.660000" />
<circle cx="1057.959961" cy="1026.959961" r="19.980000" fill="red">
  <title>Mumbai</title>
</circle><line x1="977.960022" y1="791.960022" x2="1057.959961" y2="1026.959961" stroke="red" stroke-width="6.660000" />
</svg>
