<?xml version="1.0" encoding="UTF-8" standalone="no"?>
<svg width="500" height="500" viewBox="0 0 2074.000000 2074.000000" xmlns="http://www.w3.org/2000/svg">
<rect x="19.000000" y="19.000000" width="2036.000000" height="2036.000000" fill="black" />
<circle cx="39.959999" cy="1996.959961" r="19.980000" fill="red">
  <title>Tokyo</title>
</circle><line x1="582.960022" y1="1593.959961" x2="39.959999" y2="1996.959961" stroke="red" stroke-width="6.660000" />
<circle cx="543.960022" cy="1248.959961" r="19.980000" fill="red">
  <title>Osaka</title>
</circle><line x1="39.959999" y1="1996.959961" x2="543.960022" y2="1248.959961" stroke="red" stroke-width="6.660000" />
<circle cx="715.960022" cy="899.960022" r="19.980000" fill="red">
  <title>Mexico City</title>
</circle><line x1="543.960022" y1="1248.959961" x2="715.960022" y2="899.960022" stroke="red" stroke-width="6.660000" />
<circle cx="388.959991" cy="554.960022" r="19.980000" fill="red">
  <title>Dhaka</title>
</circle><line x1="715.960022" y1="899.960022" x2="388.959991" y2="554.960022" stroke="red" stroke-width="6.660000" />
<circle cx="819.960022" cy="318.959991" r="19.980000" fill="red">
  <title>Beijing</title>
</circle><line x1="388.959991" y1="554.960022" x2="819.960022" y2="318.959991" stroke="red" stroke-width="6.660000" />
<circle cx="1927.959961" cy="1097.959961" r="19.980000" fill="red">
  <title>Cairo</title>
</circle><line x1="819.960022" y1="318.959991" x2="1927.959961" y2="1097.959961" stroke="red" stroke-width="6.660000" />
<circle cx="1540.959961" cy="1492.959961" r="19.980000" fill="red">
  <title>Shanghai</title>
</circle><line x1="1927.959961" y1="1097.959961" x2="1540.959961" y2="1492.959961" stroke="red" stroke-width="6.660000" />
<circle cx="1618.959961" cy="2022.959961" r="19.980000" fill="red">
  <title>Delhi</title>
</circle><line x1="1540.959961" y1="1492.959961" x2="1618.959961" y2="2022.959961" stroke="red" stroke-width="6.660000" />
<circle cx="1284.959961" cy="1701.959961" r="19.980000" fill="red">
  <title>São Paulo</title>
</circle><line x1="1618.959961" y1="2022.959961" x2="1284.959961" y2="1701.959961" stroke="red" stroke-width="6.660000" />
<circle cx="952.960022" cy="1580.959961" r="19.980000" fill="red">
  <title>Mumbai</title>
</circle><line x1="1284.959961" y1="1701.959961" x2="952.960022" y2="1580.959961" stroke="red" stroke-width="6.660000" />
<circle cx="582.960022" cy="1593.959961" r="19.980000" fill="red">
  <title>New York</title>
</circle><line x1="952.960022" y1="1580.959961" x2="582.960022" y2="1593.959961" stroke="red" stroke-width="6.660000" />
</svg>
