<?xml version="1.0" encoding="UTF-8" standalone="no"?>
<svg width="500" height="500" viewBox="0 0 2074.000000 2074.000000" xmlns="http://www.w3.org/2000/svg">
<rect x="19.000000" y="19.000000" width="2036.000000" height="2036.000000" fill="black" />
<circle cx="588.960022" cy="329.959991" r="19.980000" fill="red">
  <title>Tokyo</title>
</circle><line x1="45.959999" y1="106.959999" x2="588.960022" y2="329.959991" stroke="red" stroke-width="6.660000" />
<circle cx="851.960022" cy="529.960022" r="19.980000" fill="red">
  <title>São Paulo</title>
</circle><line x1="588.960022" y1="329.959991" x2="851.960022" y2="529.960022" stroke="red" stroke-width="6.660000" />
<circle cx="1426.959961" cy="78.959999" r="19.980000" fill="red">
  <title>Shanghai</title>
</circle><line x1="851.960022" y1="529.960022" x2="1426.959961" y2="78.959999" stroke="red" stroke-width="6.660000" />
<circle cx="1703.959961" cy="1096.959961" r="19.980000" fill="red">
  <title>Karachi</title>
</circle><line x1="1426.959961" y1="78.959999" x2="1703.959961" y2="1096.959961" stroke="red" stroke-width="6.660000" />
<circle cx="1333.959961" cy="1499.959961" r="19.980000" fill="red">
  <title>New York</title>
</circle><line x1="1703.959961" y1="1096.959961" x2="1333.959961" y2="1499.959961" stroke="red" stroke-width="6.660000" />
<circle cx="1357.959961" cy="1796.959961" r="19.980000" fill="red">
  <title>Buenos Aires</title>
</circle><line x1="1333.959961" y1="1499.959961" x2="1357.959961" y2="1796.959961" stroke="red" stroke-width="6.660000" />
<circle cx="791.960022" cy="1773.959961" r="19.980000" fill="red">
  <title>Osaka</title>
</circle><line x1="1357.959961" y1="1796.959961" x2="791.960022" y2="1773.959961" stroke="red" stroke-width="6.660000" />
<circle cx="179.959991" cy="1917.959961" r="19.980000" fill="red">
  <title>Cairo</title>
</circle><line x1="791.960022" y1="1773.959961" x2="179.959991" y2="1917.959961" stroke="red" stroke-width="6.660000" />
<circle cx="389.959991" cy="1774.959961" r="19.980000" fill="red">
  <title>Delhi</title>
</circle><line x1="179.959991" y1="1917.959961" x2="389.959991" y2="1774.959961" stroke="red" stroke-width="6.660000" />
<circle cx="533.960022" cy="1065.959961" r="19.980000" fill="red">
  <title>Beijing</title>
</circle><line x1="389.959991" y1="1774.959961" x2="533.960022" y2="1065.959961" stroke="red" stroke-width="6.660000" />
<circle cx="586.960022" cy="885.960022" r="19.980000" fill="red">
  <title>Dhaka</title>
</circle><line x1="533.960022" y1="1065.959961" x2="586.960022" y2="885.960022" stroke="red" stroke-width="6.660000" />
<circle cx="340.959991" cy="593.960022" r="19.980000" fill="red">
  <title>Mumbai</title>
</circle><line x1="586.960022" y1="885.960022" x2="340.959991" y2="593.960022" stroke="red" stroke-width="6.660000" />
<circle cx="45.959999" cy="106.959999" r="19.980000" fill="red">
  <title>Mexico City</title>
</circle><line x1="340.959991" y1="593.960022" x2="45.959999" y2="106.959999" stroke="red" stroke-width="6.660000" />
</svg>
