<?xml version="1.0" encoding="UTF-8" standalone="no"?>
<svg width="500" height="500" viewBox="0 0 2074.000000 2074.000000" xmlns="http://www.w3.org/2000/svg">
<rect x="19.000000" y="19.000000" width="2036.000000" height="2036.000000" fill="black" />
<circle cx="358.959991" cy="309.959991" r="19.980000" fill="red">
  <title>Tokyo</title>
</circle><line x1="619.960022" y1="981.960022" x2="358.959991" y2="309.959991" stroke="red" stroke-width="6.660000" />
<circle cx="424.959991" cy="363.959991" r="19.980000" fill="red">
  <title>São Paulo</title>
</circle><line x1="358.959991" y1="309.959991" x2="424.959991" y2="363.959991" stroke="red" stroke-width="6.660000" />
<circle cx="1367.959961" cy="340.959991" r="19.980000" fill="red">
  <title>Mumbai</title>
</circle><line x1="424.959991" y1="363.959991" x2="1367.959961" y2="340.959991" stroke="red" stroke-width="6.660000" />
<circle cx="1952.959961" cy="517.960022" r="19.980000" fill="red">
  <title>Beijing</title>
</circle><line x1="1367.959961" y1="340.959991" x2="1952.959961" y2="517.960022" stroke="red" stroke-width="6.660000" />
<circle cx="1170.959961" cy="1173.959961" r="19.980000" fill="red">
  <title>Delhi</title>
</circle><line x1="1952.959961" y1="517.960022" x2="1170.959961" y2="1173.959961" stroke="red" stroke-width="6.660000" />
<circle cx="1409.959961" cy="1701.959961" r="19.980000" fill="red">
  <title>Mexico City</title>
</circle><line x1="1170.959961" y1="1173.959961" x2="1409.959961" y2="1701.959961" stroke="red" stroke-width="6.660000" />
<circle cx="826.960022" cy="1402.959961" r="19.980000" fill="red">
  <title>Shanghai</title>
</circle><line x1="1409.959961" y1="1701.959961" x2="826.960022" y2="1402.959961" stroke="red" stroke-width="6.660000" />
<circle cx="619.960022" cy="981.960022" r="19.980000" fill="red">
  <title>Cairo</title>
</circle><line x1="826.960022" y1="1402.959961" x2="619.960022" y2="981.960022" stroke="red" stroke-width="6.660000" />
</svg>
