<?xml version="1.0" encoding="UTF-8" standalone="no"?>
<svg width="500" height="500" viewBox="0 0 2074.000000 2074.000000" xmlns="http://www.w3.org/2000/svg">
<rect x="19.000000" y="19.000000" width="2036.000000" height="2036.000000" fill="black" />
<circle cx="1277.959961" cy="286.959991" r="19.980000" fill="red">
  <title>Tokyo</title>
</circle><line x1="1926.959961" y1="158.959991" x2="1277.959961" y2="286.959991" stroke="red" stroke-width="6.660000" />
<circle cx="1259.959961" cy="136.959991" r="19.980000" fill="red">
  <title>Dhaka</title>
</circle><line x1="1277.959961" y1="286.959991" x2="1259.959961" y2="136.959991" stroke="red" stroke-width="6.660000" />
<circle cx="975.960022" cy="104.959999" r="19.980000" fill="red">
  <title>Beijing</title>
</circle><line x1="1259.959961" y1="136.959991" x2="975.960022" y2="104.959999" stroke="red" stroke-width="6.660000" />
<circle cx="644.960022" cy="408.959991" r="19.980000" fill="red">
  <title>New York</title>
</circle><line x1="975.960022" y1="104.959999" x2="644.960022" y2="408.959991" stroke="red" stroke-width="6.660000" />
<circle cx="237.959991" cy="851.960022" r="19.980000" fill="red">
  <title>Mexico City</title>
</circle><line x1="644.960022" y1="408.959991" x2="237.959991" y2="851.960022" stroke="red" stroke-width="6.660000" />
<circle cx="283.959991" cy="2024.959961" r="19.980000" fill="red">
  <title>Delhi</title>
</circle><line x1="237.959991" y1="851.960022" x2="283.959991" y2="2024.959961" stroke="red" stroke-width="6.660000" />
<circle cx="909.960022" cy="1123.959961" r="19.980000" fill="red">
  <title>Osaka</title>
</circle><line x1="283.959991" y1="2024.959961" x2="909.960022" y2="1123.959961" stroke="red" stroke-width="6.660000" />
<circle cx="782.960022" cy="839.960022" r="19.980000" fill="red">
  <title>Shanghai</title>
</circle><line x1="909.960022" y1="1123.959961" x2="782.960022" y2="839.960022" stroke="red" stroke-width="6.660000" />
<circle cx="997.960022" cy="856.960022" r="19.980000" fill="red">
  <title>Cairo</title>
</circle><line x1="782.960022" y1="839.960022" x2="997.960022" y2="856.960022" stroke="red" stroke-width="6.660000" />
<circle cx="1260.959961" cy="1068.959961" r="19.980000" fill="red">
  <title>São Paulo</title>
</circle><line x1="997.960022" y1="856.960022" x2="1260.959961" y2="1068.959961" stroke="red" stroke-width="6.660000" />
<circle cx="2012.959961" cy="1215.959961" r="19.980000" fill="red">
  <title>Chongqing</title>
</circle><line x1="1260.959961" y1="1068.959961" x2="2012.959961" y2="1215.959961" stroke="red" stroke-width="6.660000" />
<circle cx="2003.959961" cy="1021.960022" r="19.980000" fill="red">
  <title>Mumbai</title>
</circle><line x1="2012.959961" y1="1215.959961" x2="2003.959961" y2="1021.960022" stroke="red" stroke-width="6.660000" />
<circle cx="2010.959961" cy="963.960022" r="19.980000" fill="red">
  <title>Buenos Aires</title>
</circle><line x1="2003.959961" y1="1021.960022" x2="2010.959961" y2="963.960022" stroke="red" stroke-width="6.660000" />
<circle cx="1926.959961" cy="158.959991" r="19.980000" fill="red">
  <title>Karachi</title>
</circle><line x1="2010.959961" y1="963.960022" x2="1926.959961" y2="158.959991" stroke="red" stroke-width="6.660000" />
</svg>
