<?xml version="1.0" encoding="UTF-8" standalone="no"?>
<svg width="500" height="500" viewBox="0 0 2074.000000 2074.000000" xmlns="http://www.w3.org/2000/svg">
<rect x="19.000000" y="19.000000" width="2036.000000" height="2036.000000" fill="black" />
<circle cx="1104.959961" cy="142.959991" r="19.980000" fill="red">
  <title>Tokyo</title>
</circle><line x1="594.960022" y1="137.959991" x2="1104.959961" y2="142.959991" stroke="red" stroke-width="6.660000" />
<circle cx="1647.959961" cy="803.960022" r="19.980000" fill="red">
  <title>Shanghai</title>
</circle><line x1="1104.959961" y1="142.959991" x2="1647.959961" y2="803.960022" stroke="red" stroke-width="6.660000" />
<circle cx="1888.959961" cy="1212.959961" r="19.980000" fill="red">
  <title>São Paulo</title>
</circle><line x1="1647.959961" y1="803.960022" x2="1888.959961" y2="1212.959961" stroke="red" stroke-width="6.660000" />
<circle cx="857.960022" cy="1497.959961" r="19.980000" fill="red">
  <title>Delhi</title>
</circle><line x1="1888.959961" y1="1212.959961" x2="857.960022" y2="1497.959961" stroke="red" stroke-width="6.660000" />
<circle cx="103.959999" cy="1910.959961" r="19.980000" fill="red">
  <title>Mexico City</title>
</circle><line x1="857.960022" y1="1497.959961" x2="103.959999" y2="1910.959961" stroke="red" stroke-width="6.660000" />
<circle cx="867.960022" cy="1264.959961" r="19.980000" fill="red">
  <title>Mumbai</title>
</circle><line x1="103.959999" y1="1910.959961" x2="867.960022" y2="1264.959961" stroke="red" stroke-width="6.660000" />
<circle cx="594.960022" cy="137.959991" r="19.980000" fill="red">
  <title>Cairo</title>
</circle><line x1="867.960022" y1="1264.959961" x2="594.960022" y2="137.959991" stroke="red" stroke-width="6.660000" />
</svg>
