<?xml version="1.0" encoding="UTF-8" standalone="no"?>
<svg width="500" height="500" viewBox="0 0 2074.000000 2074.000000" xmlns="http://www.w3.org/2000/svg">
<rect x="19.000000" y="19.000000" width="2036.000000" height="2036.000000" fill="black" />
<circle cx="602.960022" cy="1934.959961" r="19.980000" fill="red">
  <title>Tokyo</title>
</circle><line x1="556.960022" y1="1684.959961" x2="602.960022" y2="1934.959961" stroke="red" stroke-width="6.660000" />
<circle cx="1695.959961" cy="1957.959961" r="19.980000" fill="red">
  <title>São Paulo</title>
</circle><line x1="602.960022" y1="1934.959961" x2="1695.959961" y2="1957.959961" stroke="red" stroke-width="6.660000" />
<circle cx="1616.959961" cy="1139.959961" r="19.980000" fill="red">
  <title>Mumbai</title>
</circle><line x1="1695.959961" y1="1957.959961" x2="1616.959961" y2="1139.959961" stroke="red" stroke-width="6.660000" />
<circle cx="855.960022" cy="990.960022" r="19.980000" fill="red">
  <title>Shanghai</title>
</circle><line x1="1616.959961" y1="1139.959961" x2="855.960022" y2="990.960022" stroke="red" stroke-width="6.660000" />
<circle cx="1037.959961" cy="46.959999" r="19.980000" fill="red">
  <title>Beijing</title>
</circle><line x1="855.960022" y1="990.960022" x2="1037.959961" y2="46.959999" stroke="red" stroke-width="6.660000" />
<circle cx="142.959991" cy="223.959991" r="19.980000" fill="red">
  <title>Mexico City</title>
</circle><line x1="1037.959961" y1="46.959999" x2="142.959991" y2="223.959991" stroke="red" stroke-width="6.660000" />
<circle cx="472.959991" cy="868.960022" r="19.980000" fill="red">
  <title>Delhi</title>
</circle><line x1="142.959991" y1="223.959991" x2="472.959991" y2="868.960022" stroke="red" stroke-width="6.660000" />
<circle cx="556.960022" cy="1684.959961" r="19.980000" fill="red">
  <title>Cairo</title>
</circle><line x1="472.959991" y1="868.960022" x2="556.960022" y2="1684.959961" stroke="red" stroke-width="6.660000" />
</svg>
