<?xml version="1.0" encoding="UTF-8" standalone="no"?>
<svg width="500" height="500" viewBox="0 0 2074.000000 2074.000000" xmlns="http://www.w3.org/2000/svg">
<rect x="19.000000" y="19.000000" width="2036.000000" height="2036.000000" fill="black" />
<circle cx="1686.959961" cy="545.960022" r="19.980000" fill="red">
  <title>Tokyo</title>
</circle><line x1="1869.959961" y1="739.960022" x2="1686.959961" y2="545.960022" stroke="red" stroke-width="6.660000" />
<circle cx="1895.959961" cy="343.959991" r="19.980000" fill="red">
  <title>New York</title>
</circle><line x1="1686.959961" y1="545.960022" x2="1895.959961" y2="343.959991" stroke="red" stroke-width="6.660000" />
<circle cx="1905.959961" cy="107.959999" r="19.980000" fill="red">
  <title>Chongqing</title>
</circle><line x1="1895.959961" y1="343.959991" x2="1905.959961" y2="107.959999" stroke="red" stroke-width="6.660000" />
<circle cx="1323.959961" cy="276.959991" r="19.980000" fill="red">
  <title>Osaka</title>
</circle><line x1="1905.959961" y1="107.959999" x2="1323.959961" y2="276.959991" stroke="red" stroke-width="6.660000" />
<circle cx="1207.959961" cy="61.959999" r="19.980000" fill="red">
  <title>Delhi</title>
</circle><line x1="1323.959961" y1="276.959991" x2="1207.959961" y2="61.959999" stroke="red" stroke-width="6.660000" />
<circle cx="455.959991" cy="369.959991" r="19.980000" fill="red">
  <title>Shanghai</title>
</circle><line x1="1207.959961" y1="61.959999" x2="455.959991" y2="369.959991" stroke="red" stroke-width="6.660000" />
<circle cx="725.960022" cy="743.960022" r="19.980000" fill="red">
  <title>Beijing</title>
</circle><line x1="455.959991" y1="369.959991" x2="725.960022" y2="743.960022" stroke="red" stroke-width="6.660000" />
<circle cx="128.959991" cy="1320.959961" r="19.980000" fill="red">
  <title>Mumbai</title>
</circle><line x1="725.960022" y1="743.960022" x2="128.959991" y2="1320.959961" stroke="red" stroke-width="6.660000" />
<circle cx="357.959991" cy="1681.959961" r="19.980000" fill="red">
  <title>São Paulo</title>
</circle><line x1="128.959991" y1="1320.959961" x2="357.959991" y2="1681.959961" stroke="red" stroke-width="6.660000" />
<circle cx="535.960022" cy="1519.959961" r="19.980000" fill="red">
  <title>Mexico City</title>
</circle><line x1="357.959991" y1="1681.959961" x2="535.960022" y2="1519.959961" stroke="red" stroke-width="6.660000" />
<circle cx="1346.959961" cy="1822.959961" r="19.980000" fill="red">
  <title>Dhaka</title>
</circle><line x1="535.960022" y1="1519.959961" x2="1346.959961" y2="1822.959961" stroke="red" stroke-width="6.660000" />
<circle cx="1891.959961" cy="1557.959961" r="19.980000" fill="red">
  <title>Cairo</title>
</circle><line x1="1346.959961" y1="1822.959961" x2="1891.959961" y2="1557.959961" stroke="red" stroke-width="6.660000" />
<circle cx="1651.959961" cy="792.960022" r="19.980000" fill="red">
  <title>Karachi</title>
</circle><line x1="1891.959961" y1="1557.959961" x2="1651.959961" y2="792.960022" stroke="red" stroke-width="6.660000" />
<circle cx="1869.959961" cy="739.960022" r="19.980000" fill="red">
  <title>Buenos Aires</title>
</circle><line x1="1651.959961" y1="792.960022" x2="1869.959961" y2="739.960022" stroke="red" stroke-width="6.660000" />
</svg>
