<?xml version="1.0" encoding="UTF-8" standalone="no"?>
<svg width="500" height="500" viewBox="0 0 2074.000000 2074.000000" xmlns="http://www.w3.org/2000/svg">
<rect x="19.000000" y="19.000000" width="2036.000000" height="2036.000000" fill="black" />
<circle cx="776.960022" cy="1429.959961" r="19.980000" fill="red">
  <title>Tokyo</title>
</circle><line x1="770.960022" y1="1489.959961" x2="776.960022" y2="1429.959961" stroke="red" stroke-width="6.660000" />
<circle cx="270.959991" cy="1180.959961" r="19.980000" fill="red">
  <title>Cairo</title>
</circle><line x1="776.960022" y1="1429.959961" x2="270.959991" y2="1180.959961" stroke="red" stroke-width="6.660000" />
<circle cx="423.959991" cy="718.960022" r="19.980000" fill="red">
  <title>New York</title>
</circle><line x1="270.959991" y1="1180.959961" x2="423.959991" y2="718.960022" stroke="red" stroke-width="6.660000" />
<circle cx="230.959991" cy="522.960022" r="19.980000" fill="red">
  <title>Shanghai</title>
</circle><line x1="423.959991" y1="718.960022" x2="230.959991" y2="522.960022" stroke="red" stroke-width="6.660000" />
<circle cx="406.959991" cy="76.959999" r="19.980000" fill="red">
  <title>Mumbai</title>
</circle><line x1="230.959991" y1="522.960022" x2="406.959991" y2="76.959999" stroke="red" stroke-width="6.660000" />
<circle cx="487.959991" cy="122.959999" r="19.980000" fill="red">
  <title>Beijing</title>
</circle><line x1="406.959991" y1="76.959999" x2="487.959991" y2="122.959999" stroke="red" stroke-width="6.660000" />
<circle cx="1156.959961" cy="397.959991" r="19.980000" fill="red">
  <title>Dhaka</title>
</circle><line x1="487.959991" y1="122.959999" x2="1156.959961" y2="397.959991" stroke="red" stroke-width="6.660000" />
<circle cx="1920.959961" cy="514.960022" r="19.980000" fill="red">
  <title>São Paulo</title>
</circle><line x1="1156.959961" y1="397.959991" x2="1920.959961" y2="514.960022" stroke="red" stroke-width="6.660000" />
<circle cx="1741.959961" cy="1242.959961" r="19.980000" fill="red">
  <title>Delhi</title>
</circle><line x1="1920.959961" y1="514.960022" x2="1741.959961" y2="1242.959961" stroke="red" stroke-width="6.660000" />
<circle cx="1239.959961" cy="1730.959961" r="19.980000" fill="red">
  <title>Mexico City</title>
</circle><line x1="1741.959961" y1="1242.959961" x2="1239.959961" y2="1730.959961" stroke="red" stroke-width="6.660000" />
<circle cx="770.960022" cy="1489.959961" r="19.980000" fill="red">
  <title>Osaka</title>
</circle><line x1="1239.959961" y1="1730.959961" x2="770.960022" y2="1489.959961" stroke="red" stroke-width="6.660000" />
</svg>
