<?xml version="1.0" encoding="UTF-8" standalone="no"?>
<svg width="500" height="500" viewBox="0 0 2074.000000 2074.000000" xmlns="http://www.w3.org/2000/svg">
<rect x="19.000000" y="19.000000" width="2036.000000" height="2036.000000" fill="black" />
<circle cx="693.960022" cy="164.959991" r="19.980000" fill="red">
  <title>Tokyo</title>
</circle><line x1="899.960022" y1="98.959999" x2="693.960022" y2="164.959991" stroke="red" stroke-width="6.660000" />
<circle cx="661.960022" cy="312.959991" r="19.980000" fill="red">
  <title>Chongqing</title>
</circle><line x1="693.960022" y1="164.959991" x2="661.960022" y2="312.959991" stroke="red" stroke-width="6.660000" />
<circle cx="528.960022" cy="660.960022" r="19.980000" fill="red">
  <title>Mumbai</title>
</circle><line x1="661.960022" y1="312.959991" x2="528.960022" y2="660.960022" stroke="red" stroke-width="6.660000" />
<circle cx="74.959999" cy="662.960022" r="19.980000" fill="red">
  <title>Cairo</title>
</circle><line x1="528.960022" y1="660.960022" x2="74.959999" y2="662.960022" stroke="red" stroke-width="6.660000" />
<circle cx="484.959991" cy="850.960022" r="19.980000" fill="red">
  <title>Delhi</title>
</circle><line x1="74.959999" y1="662.960022" x2="484.959991" y2="850.960022" stroke="red" stroke-width="6.660000" />
<circle cx="559.960022" cy="1273.959961" r="19.980000" fill="red">
  <title>Mexico City</title>
</circle><line x1="484.959991" y1="850.960022" x2="559.960022" y2="1273.959961" stroke="red" stroke-width="6.660000" />
<circle cx="566.960022" cy="1900.959961" r="19.980000" fill="red">
  <title>Osaka</title>
</circle><line x1="559.960022" y1="1273.959961" x2="566.960022" y2="1900.959961" stroke="red" stroke-width="6.660000" />
<circle cx="1499.959961" cy="1537.959961" r="19.980000" fill="red">
  <title>Buenos Aires</title>
</circle><line x1="566.960022" y1="1900.959961" x2="1499.959961" y2="1537.959961" stroke="red" stroke-width="6.660000" />
<circle cx="1520.959961" cy="1010.960022" r="19.980000" fill="red">
  <title>Istanbul</title>
</circle><line x1="1499.959961" y1="1537.959961" x2="1520.959961" y2="1010.960022" stroke="red" stroke-width="6.660000" />
<circle cx="1787.959961" cy="377.959991" r="19.980000" fill="red">
  <title>Dhaka</title>
</circle><line x1="1520.959961" y1="1010.960022" x2="1787.959961" y2="377.959991" stroke="red" stroke-width="6.660000" />
<circle cx="1856.959961" cy="176.959991" r="19.980000" fill="red">
  <title>Kolkata</title>
</circle><line x1="1787.959961" y1="377.959991" x2="1856.959961" y2="176.959991" stroke="red" stroke-width="6.660000" />
<circle cx="1807.959961" cy="108.959999" r="19.980000" fill="red">
  <title>São Paulo</title>
</circle><line x1="1856.959961" y1="176.959991" x2="1807.959961" y2="108.959999" stroke="red" stroke-width="6.660000" />
<circle cx="1694.959961" cy="175.959991" r="19.980000" fill="red">
  <title>Beijing</title>
</circle><line x1="1807.959961" y1="108.959999" x2="1694.959961" y2="175.959991" stroke="red" stroke-width="6.660000" />
<circle cx="1519.959961" cy="461.959991" r="19.980000" fill="red">
  <title>New York</title>
</circle><line x1="1694.959961" y1="175.959991" x2="1519.959961" y2="461.959991" stroke="red" stroke-width="6.660000" />
<circle cx="1057.959961" cy="532.960022" r="19.980000" fill="red">
  <title>Karachi</title>
</circle><line x1="1519.959961" y1="461.959991" x2="1057.959961" y2="532.960022" stroke="red" stroke-width="6.660000" />
<circle cx="899.960022" cy="98.959999" r="19.980000" fill="red">
  <title>Shanghai</title>
</circle><line x1="1057.959961" y1="532.960022" x2="899.960022" y2="98.959999" stroke="red" stroke-width="6.660000" />
</svg>
