<?xml version="1.0" encoding="UTF-8" standalone="no"?>
<svg width="500" height="500" viewBox="0 0 2074.000000 2074.000000" xmlns="http://www.w3.org/2000/svg">
<rect x="19.000000" y="19.000000" width="2036.000000" height="2036.000000" fill="black" />
<circle cx="1377.959961" cy="1815.959961" r="19.980000" fill="red">
  <title>Tokyo</title>
</circle><line x1="1173.959961" y1="1735.959961" x2="1377.959961" y2="1815.959961" stroke="red" stroke-width="6.660000" />
<circle cx="928.960022" cy="1719.959961" r="19.980000" fill="red">
  <title>São Paulo</title>
</circle><line x1="1377.959961" y1="1815.959961" x2="928.960022" y2="1719.959961" stroke="red" stroke-width="6.660000" />
<circle cx="106.959999" cy="1139.959961" r="19.980000" fill="red">
  <title>Mumbai</title>
</circle><line x1="928.960022" y1="1719.959961" x2="106.959999" y2="1139.959961" stroke="red" stroke-width="6.660000" />
<circle cx="349.959991" cy="426.959991" r="19.980000" fill="red">
  <title>Delhi</title>
</circle><line x1="106.959999" y1="1139.959961" x2="349.959991" y2="426.959991" stroke="red" stroke-width="6.660000" />
<circle cx="1500.959961" cy="92.959999" r="19.980000" fill="red">
  <title>Mexico City</title>
</circle><line x1="349.959991" y1="426.959991" x2="1500.959961" y2="92.959999" stroke="red" stroke-width="6.660000" />
<circle cx="974.960022" cy="1339.959961" r="19.980000" fill="red">
  <title>Shanghai</title>
</circle><line x1="1500.959961" y1="92.959999" x2="974.960022" y2="1339.959961" stroke="red" stroke-width="6.660000" />
<circle cx="1173.959961" cy="1735.959961" r="19.980000" fill="red">
  <title>Cairo</title>
</circle><line x1="974.960022" y1="1339.959961" x2="1173.959961" y2="1735.959961" stroke="red" stroke-width="6.660000" />
</svg>
