<?xml version="1.0" encoding="UTF-8" standalone="no"?>
<svg width="500" height="500" viewBox="0 0 2074.000000 2074.000000" xmlns="http://www.w3.org/2000/svg">
<rect x="19.000000" y="19.000000" width="2036.000000" height="2036.000000" fill="black" />
<circle cx="1246.959961" cy="501.959991" r="19.980000" fill="red">
  <title>Tokyo</title>
</circle><line x1="364.959991" y1="71.959999" x2="1246.959961" y2="501.959991" stroke="red" stroke-width="6.660000" />
<circle cx="1432.959961" cy="506.959991" r="19.980000" fill="red">
  <title>Mexico City</title>
</circle><line x1="1246.959961" y1="501.959991" x2="1432.959961" y2="506.959991" stroke="red" stroke-width="6.660000" />
<circle cx="1577.959961" cy="324.959991" r="19.980000" fill="red">
  <title>Karachi</title>
</circle><line x1="1432.959961" y1="506.959991" x2="1577.959961" y2="324.959991" stroke="red" stroke-width="6.660000" />
<circle cx="1750.959961" cy="842.960022" r="19.980000" fill="red">
  <title>São Paulo</title>
</circle><line x1="1577.959961" y1="324.959991" x2="1750.959961" y2="842.960022" stroke="red" stroke-width="6.660000" />
<circle cx="1827.959961" cy="1059.959961" r="19.980000" fill="red">
  <title>Shanghai</title>
</circle><line x1="1750.959961" y1="842.960022" x2="1827.959961" y2="1059.959961" stroke="red" stroke-width="6.660000" />
<circle cx="1492.959961" cy="1199.959961" r="19.980000" fill="red">
  <title>Osaka</title>
</circle><line x1="1827.959961" y1="1059.959961" x2="1492.959961" y2="1199.959961" stroke="red" stroke-width="6.660000" />
<circle cx="1618.959961" cy="1525.959961" r="19.980000" fill="red">
  <title>New York</title>
</circle><line x1="1492.959961" y1="1199.959961" x2="1618.959961" y2="1525.959961" stroke="red" stroke-width="6.660000" />
<circle cx="1950.959961" cy="1914.959961" r="19.980000" fill="red">
  <title>Delhi</title>
</circle><line x1="1618.959961" y1="1525.959961" x2="1950.959961" y2="1914.959961" stroke="red" stroke-width="6.660000" />
<circle cx="1331.959961" cy="1477.959961" r="19.980000" fill="red">
  <title>Buenos Aires</title>
</circle><line x1="1950.959961" y1="1914.959961" x2="1331.959961" y2="1477.959961" stroke="red" stroke-width="6.660000" />
<circle cx="786.960022" cy="1498.959961" r="19.980000" fill="red">
  <title>Dhaka</title>
</circle><line x1="1331.959961" y1="1477.959961" x2="786.960022" y2="1498.959961" stroke="red" stroke-width="6.660000" />
<circle cx="172.959991" cy="1503.959961" r="19.980000" fill="red">
  <title>Mumbai</title>
</circle><line x1="786.960022" y1="1498.959961" x2="172.959991" y2="1503.959961" stroke="red" stroke-width="6.660000" />
<circle cx="179.959991" cy="727.960022" r="19.980000" fill="red">
  <title>Beijing</title>
</circle><line x1="172.959991" y1="1503.959961" x2="179.959991" y2="727.960022" stroke="red" stroke-width="6.660000" />
<circle cx="230.959991" cy="603.960022" r="19.980000" fill="red">
  <title>Cairo</title>
</circle><line x1="179.959991" y1="727.960022" x2="230.959991" y2="603.960022" stroke="red" stroke-width="6.660000" />
<circle cx="364.959991" cy="71.959999" r="19.980000" fill="red">
  <title>Chongqing</title>
</circle><line x1="230.959991" y1="603.960022" x2="364.959991" y2="71.959999" stroke="red" stroke-width="6.660000" />
</svg>
