<?xml version="1.0" encoding="UTF-8" standalone="no"?>
<svg width="500" height="500" viewBox="0 0 2074.000000 2074.000000" xmlns="http://www.w3.org/2000/svg">
<rect x="19.000000" y="19.000000" width="2036.000000" height="2036.000000" fill="black" />
<circle cx="1026.959961" cy="219.959991" r="19.980000" fill="red">
  <title>Tokyo</title>
</circle><line x1="1821.959961" y1="144.959991" x2="1026.959961" y2="219.959991" stroke="red" stroke-width="6.660000" />
<circle cx="803.960022" cy="872.960022" r="19.980000" fill="red">
  <title>São Paulo</title>
</circle><line x1="1026.959961" y1="219.959991" x2="803.960022" y2="872.960022" stroke="red" stroke-width="6.660000" />
<circle cx="1243.959961" cy="1895.959961" r="19.980000" fill="red">
  <title>Cairo</title>
</circle><line x1="803.960022" y1="872.960022" x2="1243.959961" y2="1895.959961" stroke="red" stroke-width="6.660000" />
<circle cx="1295.959961" cy="1938.959961" r="19.980000" fill="red">
  <title>Shanghai</title>
</circle><line x1="1243.959961" y1="1895.959961" x2="1295.959961" y2="1938.959961" stroke="red" stroke-width="6.660000" />
<circle cx="1921.959961" cy="1625.959961" r="19.980000" fill="red">
  <title>Mexico City</title>
</circle><line x1="1295.959961" y1="1938.959961" x2="1921.959961" y2="1625.959961" stroke="red" stroke-width="6.660000" />
<circle cx="1888.959961" cy="227.959991" r="19.980000" fill="red">
  <title>Delhi</title>
</circle><line x1="1921.959961" y1="1625.959961" x2="1888.959961" y2="227.959991" stroke="red" stroke-width="6.660000" />
<circle cx="1821.959961" cy="144.959991" r="19.980000" fill="red">
  <title>Mumbai</title>
</circle><line x1="1888.959961" y1="227.959991" x2="1821.959961" y2="144.959991" stroke="red" stroke-width="6.660000" />
</svg>
