<?xml version="1.0" encoding="UTF-8" standalone="no"?>
<svg width="500" height="500" viewBox="0 0 2074.000000 2074.000000" xmlns="http://www.w3.org/2000/svg">
<rect x="19.000000" y="19.000000" width="2036.000000" height="2036.000000" fill="black" />
<circle cx="1679.959961" cy="1131.959961" r="19.980000" fill="red">
  <title>Tokyo</title>
</circle><line x1="1938.959961" y1="1509.959961" x2="1679.959961" y2="1131.959961" stroke="red" stroke-width="6.660000" />
<circle cx="473.959991" cy="718.960022" r="19.980000" fill="red">
  <title>São Paulo</title>
</circle><line x1="1679.959961" y1="1131.959961" x2="473.959991" y2="718.960022" stroke="red" stroke-width="6.660000" />
<circle cx="1592.959961" cy="826.960022" r="19.980000" fill="red">
  <title>Mumbai</title>
</circle><line x1="473.959991" y1="718.960022" x2="1592.959961" y2="826.960022" stroke="red" stroke-width="6.660000" />
<circle cx="1828.959961" cy="358.959991" r="19.980000" fill="red">
  <title>Mexico City</title>
</circle><line x1="1592.959961" y1="826.960022" x2="1828.959961" y2="358.959991" stroke="red" stroke-width="6.660000" />
<circle cx="2021.959961" cy="185.959991" r="19.980000" fill="red">
  <title>Beijing</title>
</circle><line x1="1828.959961" y1="358.959991" x2="2021.959961" y2="185.959991" stroke="red" stroke-width="6.660000" />
<circle cx="1987.959961" cy="181.959991" r="19.980000" fill="red">
  <title>Shanghai</title>
</circle><line x1="2021.959961" y1="185.959991" x2="1987.959961" y2="181.959991" stroke="red" stroke-width="6.660000" />
<circle cx="1617.959961" cy="842.960022" r="19.980000" fill="red">
  <title>Delhi</title>
</circle><line x1="1987.959961" y1="181.959991" x2="1617.959961" y2="842.960022" stroke="red" stroke-width="6.660000" />
<circle cx="1938.959961" cy="1509.959961" r="19.980000" fill="red">
  <title>Cairo</title>
</circle><line x1="1617.959961" y1="842.960022" x2="1938.959961" y2="1509.959961" stroke="red" stroke-width="6.660000" />
</svg>
