<?xml version="1.0" encoding="UTF-8" standalone="no"?>
<svg width="500" height="500" viewBox="0 0 2074.000000 2074.000000" xmlns="http://www.w3.org/2000/svg">
<rect x="19.000000" y="19.000000" width="2036.000000" height="2036.000000" fill="black" />
<circle cx="1737.959961" cy="1170.959961" r="19.980000" fill="red">
  <title>Tokyo</title>
</circle><line x1="1942.959961" y1="346.959991" x2="1737.959961" y2="1170.959961" stroke="red" stroke-width="6.660000" />
<circle cx="1593.959961" cy="1399.959961" r="19.980000" fill="red">
  <title>Mumbai</title>
</circle><line x1="1737.959961" y1="1170.959961" x2="1593.959961" y2="1399.959961" stroke="red" stroke-width="6.660000" />
<circle cx="780.960022" cy="1576.959961" r="19.980000" fill="red">
  <title>Mexico City</title>
</circle><line x1="1593.959961" y1="1399.959961" x2="780.960022" y2="1576.959961" stroke="red" stroke-width="6.660000" />
<circle cx="58.959999" cy="1508.959961" r="19.980000" fill="red">
  <title>Dhaka</title>
</circle><line x1="780.960022" y1="1576.959961" x2="58.959999" y2="1508.959961" stroke="red" stroke-width="6.660000" />
<circle cx="323.959991" cy="714.960022" r="19.980000" fill="red">
  <title>São Paulo</title>
</circle><line x1="58.959999" y1="1508.959961" x2="323.959991" y2="714.960022" stroke="red" stroke-width="6.660000" />
<circle cx="272.959991" cy="200.959991" r="19.980000" fill="red">
  <title>New York</title>
</circle><line x1="323.959991" y1="714.960022" x2="272.959991" y2="200.959991" stroke="red" stroke-width="6.660000" />
<circle cx="475.959991" cy="302.959991" r="19.980000" fill="red">
  <title>Osaka</title>
</circle><line x1="272.959991" y1="200.959991" x2="475.959991" y2="302.959991" stroke="red" stroke-width="6.660000" />
<circle cx="656.960022" cy="317.959991" r="19.980000" fill="red">
  <title>Shanghai</title>
</circle><line x1="475.959991" y1="302.959991" x2="656.960022" y2="317.959991" stroke="red" stroke-width="6.660000" />
<circle cx="1535.959961" cy="85.959999" r="19.980000" fill="red">
  <title>Cairo</title>
</circle><line x1="656.960022" y1="317.959991" x2="1535.959961" y2="85.959999" stroke="red" stroke-width="6.660000" />
<circle cx="1560.959961" cy="234.959991" r="19.980000" fill="red">
  <title>Beijing</title>
</circle><line x1="1535.959961" y1="85.959999" x2="1560.959961" y2="234.959991" stroke="red" stroke-width="6.660000" />
<circle cx="1942.959961" cy="346.959991" r="19.980000" fill="red">
  <title>Delhi</title>
</circle><line x1="1560.959961" y1="234.959991" x2="1942.959961" y2="346.959991" stroke="red" stroke-width="6.660000" />
</svg>
