<?xml version="1.0" encoding="UTF-8" standalone="no"?>
<svg width="500" height="500" viewBox="0 0 2074.000000 2074.000000" xmlns="http://www.w3.org/2000/svg">
<rect x="19.000000" y="19.000000" width="2036.000000" height="2036.000000" fill="black" />
<circle cx="111.959999" cy="751.960022" r="19.980000" fill="red">
  <title>Tokyo</title>
</circle><line x1="95.959999" y1="667.960022" x2="111.959999" y2="751.960022" stroke="red" stroke-width="6.660000" />
<circle cx="467.959991" cy="1916.959961" r="19.980000" fill="red">
  <title>Delhi</title>
</circle><line x1="111.959999" y1="751.960022" x2="467.959991" y2="1916.959961" stroke="red" stroke-width="6.660000" />
<circle cx="1220.959961" cy="1394.959961" r="19.980000" fill="red">
  <title>Mumbai</title>
</circle><line x1="467.959991" y1="1916.959961" x2="1220.959961" y2="1394.959961" stroke="red" stroke-width="6.660000" />
<circle cx="1945.959961" cy="1957.959961" r="19.980000" fill="red">
  <title>São Paulo</title>
</circle><line x1="1220.959961" y1="1394.959961" x2="1945.959961" y2="1957.959961" stroke="red" stroke-width="6.660000" />
<circle cx="1738.959961" cy="1635.959961" r="19.980000" fill="red">
  <title>Cairo</title>
</circle><line x1="1945.959961" y1="1957.959961" x2="1738.959961" y2="1635.959961" stroke="red" stroke-width="6.660000" />
<circle cx="1531.959961" cy="872.960022" r="19.980000" fill="red">
  <title>Beijing</title>
</circle><line x1="1738.959961" y1="1635.959961" x2="1531.959961" y2="872.960022" stroke="red" stroke-width="6.660000" />
<circle cx="1013.960022" cy="1041.959961" r="19.980000" fill="red">
  <title>Shanghai</title>
</circle><line x1="1531.959961" y1="872.960022" x2="1013.960022" y2="1041.959961" stroke="red" stroke-width="6.660000" />
<circle cx="586.960022" cy="199.959991" r="19.980000" fill="red">
  <title>Dhaka</title>
</circle><line x1="1013.960022" y1="1041.959961" x2="586.960022" y2="199.959991" stroke="red" stroke-width="6.660000" />
<circle cx="95.959999" cy="667.960022" r="19.980000" fill="red">
  <title>Mexico City</title>
</circle><line x1="586.960022" y1="199.959991" x2="95.959999" y2="667.960022" stroke="red" stroke-width="6.660000" />
</svg>
