<?xml version="1.0" encoding="UTF-8" standalone="no"?>
<svg width="500" height="500" viewBox="0 0 2074.000000 2074.000000" xmlns="http://www.w3.org/2000/svg">
<rect x="19.000000" y="19.000000" width="2036.000000" height="2036.000000" fill="black" />
<circle cx="357.959991" cy="659.960022" r="19.980000" fill="red">
  <title>Tokyo</title>
</circle><line x1="964.960022" y1="1438.959961" x2="357.959991" y2="659.960022" stroke="red" stroke-width="6.660000" />
<circle cx="1244.959961" cy="1618.959961" r="19.980000" fill="red">
  <title>Delhi</title>
</circle><line x1="357.959991" y1="659.960022" x2="1244.959961" y2="1618.959961" stroke="red" stroke-width="6.660000" />
<circle cx="964.960022" cy="1438.959961" r="19.980000" fill="red">
  <title>Shanghai</title>
</circle><line x1="1244.959961" y1="1618.959961" x2="964.960022" y2="1438.959961" stroke="red" stroke-width="6.660000" />
</svg>
