<?xml version="1.0" encoding="UTF-8" standalone="no"?>
<svg width="500" height="500" viewBox="0 0 2074.000000 2074.000000" xmlns="http://www.w3.org/2000/svg">
<rect x="19.000000" y="19.000000" width="2036.000000" height="2036.000000" fill="black" />
<circle cx="690.960022" cy="1248.959961" r="19.980000" fill="red">
  <title>Tokyo</title>
</circle><line x1="551.960022" y1="1386.959961" x2="690.960022" y2="1248.959961" stroke="red" stroke-width="6.660000" />
<circle cx="745.960022" cy="1071.959961" r="19.980000" fill="red">
  <title>Shanghai</title>
</circle><line x1="690.960022" y1="1248.959961" x2="745.960022" y2="1071.959961" stroke="red" stroke-width="6.660000" />
<circle cx="885.960022" cy="1142.959961" r="19.980000" fill="red">
  <title>Dhaka</title>
</circle><line x1="745.960022" y1="1071.959961" x2="885.960022" y2="1142.959961" stroke="red" stroke-width="6.660000" />
<circle cx="1501.959961" cy="1754.959961" r="19.980000" fill="red">
  <title>Mumbai</title>
</circle><line x1="885.960022" y1="1142.959961" x2="1501.959961" y2="1754.959961" stroke="red" stroke-width="6.660000" />
<circle cx="1812.959961" cy="1913.959961" r="19.980000" fill="red">
  <title>Chongqing</title>
</circle><line x1="1501.959961" y1="1754.959961" x2="1812.959961" y2="1913.959961" stroke="red" stroke-width="6.660000" />
<circle cx="1794.959961" cy="1694.959961" r="19.980000" fill="red">
  <title>Istanbul</title>
</circle><line x1="1812.959961" y1="1913.959961" x2="1794.959961" y2="1694.959961" stroke="red" stroke-width="6.660000" />
<circle cx="1507.959961" cy="1300.959961" r="19.980000" fill="red">
  <title>São Paulo</title>
</circle><line x1="1794.959961" y1="1694.959961" x2="1507.959961" y2="1300.959961" stroke="red" stroke-width="6.660000" />
<circle cx="1928.959961" cy="715.960022" r="19.980000" fill="red">
  <title>Delhi</title>
</circle><line x1="1507.959961" y1="1300.959961" x2="1928.959961" y2="715.960022" stroke="red" stroke-width="6.660000" />
<circle cx="1150.959961" cy="158.959991" r="19.980000" fill="red">
  <title>Buenos Aires</title>
</circle><line x1="1928.959961" y1="715.960022" x2="1150.959961" y2="158.959991" stroke="red" stroke-width="6.660000" />
<circle cx="215.959991" cy="459.959991" r="19.980000" fill="red">
  <title>Beijing</title>
</circle><line x1="1150.959961" y1="158.959991" x2="215.959991" y2="459.959991" stroke="red" stroke-width="6.660000" />
<circle cx="76.959999" cy="514.960022" r="19.980000" fill="red">
  <title>Osaka</title>
</circle><line x1="215.959991" y1="459.959991" x2="76.959999" y2="514.960022" stroke="red" stroke-width="6.660000" />
<circle cx="132.959991" cy="1287.959961" r="19.980000" fill="red">
  <title>Karachi</title>
</circle><line x1="76.959999" y1="514.960022" x2="132.959991" y2="1287.959961" stroke="red" stroke-width="6.660000" />
<circle cx="489.959991" cy="1787.959961" r="19.980000" fill="red">
  <title>Mexico City</title>
</circle><line x1="132.959991" y1="1287.959961" x2="489.959991" y2="1787.959961" stroke="red" stroke-width="6.660000" />
<circle cx="643.960022" cy="1605.959961" r="19.980000" fill="red">
  <title>New York</title>
</circle><line x1="489.959991" y1="1787.959961" x2="643.960022" y2="1605.959961" stroke="red" stroke-width="6.660000" />
<circle cx="551.960022" cy="1386.959961" r="19.980000" fill="red">
  <title>Cairo</title>
</circle><line x1="643.960022" y1="1605.959961" x2="551.960022" y2="1386.959961" stroke="red" stroke-width="6.660000" />
</svg>
