<?xml version="1.0" encoding="UTF-8" standalone="no"?>
<svg width="500" height="500" viewBox="0 0 2074.000000 2074.000000" xmlns="http://www.w3.org/2000/svg">
<rect x="19.000000" y="19.000000" width="2036.000000" height="2036.000000" fill="black" />
<circle cx="1186.959961" cy="718.960022" r="19.980000" fill="red">
  <title>Tokyo</title>
</circle><line x1="601.960022" y1="660.960022" x2="1186.959961" y2="718.960022" stroke="red" stroke-width="6.660000" />
<circle cx="1800.959961" cy="649.960022" r="19.980000" fill="red">
  <title>Mexico City</title>
</circle><line x1="1186.959961" y1="718.960022" x2="1800.959961" y2="649.960022" stroke="red" stroke-width="6.660000" />
<circle cx="1963.959961" cy="909.960022" r="19.980000" fill="red">
  <title>Mumbai</title>
</circle><line x1="1800.959961" y1="649.960022" x2="1963.959961" y2="909.960022" stroke="red" stroke-width="6.660000" />
<circle cx="1848.959961" cy="1328.959961" r="19.980000" fill="red">
  <title>Beijing</title>
</circle><line x1="1963.959961" y1="909.960022" x2="1848.959961" y2="1328.959961" stroke="red" stroke-width="6.660000" />
<circle cx="1512.959961" cy="1088.959961" r="19.980000" fill="red">
  <title>Dhaka</title>
</circle><line x1="1848.959961" y1="1328.959961" x2="1512.959961" y2="1088.959961" stroke="red" stroke-width="6.660000" />
<circle cx="1258.959961" cy="1208.959961" r="19.980000" fill="red">
  <title>New York</title>
</circle><line x1="1512.959961" y1="1088.959961" x2="1258.959961" y2="1208.959961" stroke="red" stroke-width="6.660000" />
<circle cx="893.960022" cy="1014.960022" r="19.980000" fill="red">
  <title>São Paulo</title>
</circle><line x1="1258.959961" y1="1208.959961" x2="893.960022" y2="1014.960022" stroke="red" stroke-width="6.660000" />
<circle cx="195.959991" cy="2001.959961" r="19.980000" fill="red">
  <title>Shanghai</title>
</circle><line x1="893.960022" y1="1014.960022" x2="195.959991" y2="2001.959961" stroke="red" stroke-width="6.660000" />
<circle cx="226.959991" cy="1561.959961" r="19.980000" fill="red">
  <title>Cairo</title>
</circle><line x1="195.959991" y1="2001.959961" x2="226.959991" y2="1561.959961" stroke="red" stroke-width="6.660000" />
<circle cx="185.959991" cy="497.959991" r="19.980000" fill="red">
  <title>Delhi</title>
</circle><line x1="226.959991" y1="1561.959961" x2="185.959991" y2="497.959991" stroke="red" stroke-width="6.660000" />
<circle cx="601.960022" cy="660.960022" r="19.980000" fill="red">
  <title>Osaka</title>
</circle><line x1="185.959991" y1="497.959991" x2="601.960022" y2="660.960022" stroke="red" stroke-width="6.660000" />
</svg>
