<?xml version="1.0" encoding="UTF-8" standalone="no"?>
<svg width="500" height="500" viewBox="0 0 2074.000000 2074.000000" xmlns="http://www.w3.org/2000/svg">
<rect x="19.000000" y="19.000000" width="2036.000000" height="2036.000000" fill="black" />
<circle cx="458.959991" cy="397.959991" r="19.980000" fill="red">
  <title>Tokyo</title>
</circle><line x1="447.959991" y1="286.959991" x2="458.959991" y2="397.959991" stroke="red" stroke-width="6.660000" />
<circle cx="937.960022" cy="320.959991" r="19.980000" fill="red">
  <title>Delhi</title>
</circle><line x1="458.959991" y1="397.959991" x2="937.960022" y2="320.959991" stroke="red" stroke-width="6.660000" />
<circle cx="1132.959961" cy="540.960022" r="19.980000" fill="red">
  <title>São Paulo</title>
</circle><line x1="937.960022" y1="320.959991" x2="1132.959961" y2="540.960022" stroke="red" stroke-width="6.660000" />
<circle cx="1815.959961" cy="581.960022" r="19.980000" fill="red">
  <title>New York</title>
</circle><line x1="1132.959961" y1="540.960022" x2="1815.959961" y2="581.960022" stroke="red" stroke-width="6.660000" />
<circle cx="1660.959961" cy="777.960022" r="19.980000" fill="red">
  <title>Buenos Aires</title>
</circle><line x1="1815.959961" y1="581.960022" x2="1660.959961" y2="777.960022" stroke="red" stroke-width="6.660000" />
<circle cx="1398.959961" cy="1055.959961" r="19.980000" fill="red">
  <title>Karachi</title>
</circle><line x1="1660.959961" y1="777.960022" x2="1398.959961" y2="1055.959961" stroke="red" stroke-width="6.660000" />
<circle cx="1609.959961" cy="1737.959961" r="19.980000" fill="red">
  <title>Cairo</title>
</circle><line x1="1398.959961" y1="1055.959961" x2="1609.959961" y2="1737.959961" stroke="red" stroke-width="6.660000" />
<circle cx="512.960022" cy="1873.959961" r="19.980000" fill="red">
  <title>Beijing</title>
</circle><line x1="1609.959961" y1="1737.959961" x2="512.960022" y2="1873.959961" stroke="red" stroke-width="6.660000" />
<circle cx="584.960022" cy="1660.959961" r="19.980000" fill="red">
  <title>Mexico City</title>
</circle><line x1="512.960022" y1="1873.959961" x2="584.960022" y2="1660.959961" stroke="red" stroke-width="6.660000" />
<circle cx="645.960022" cy="1009.960022" r="19.980000" fill="red">
  <title>Osaka</title>
</circle><line x1="584.960022" y1="1660.959961" x2="645.960022" y2="1009.960022" stroke="red" stroke-width="6.660000" />
<circle cx="425.959991" cy="624.960022" r="19.980000" fill="red">
  <title>Mumbai</title>
</circle><line x1="645.960022" y1="1009.960022" x2="425.959991" y2="624.960022" stroke="red" stroke-width="6.660000" />
<circle cx="311.959991" cy="401.959991" r="19.980000" fill="red">
  <title>Shanghai</title>
</circle><line x1="425.959991" y1="624.960022" x2="311.959991" y2="401.959991" stroke="red" stroke-width="6.660000" />
<circle cx="447.959991" cy="286.959991" r="19.980000" fill="red">
  <title>Dhaka</title>
</circle><line x1="311.959991" y1="401.959991" x2="447.959991" y2="286.959991" stroke="red" stroke-width="6.660000" />
</svg>
