<?xml version="1.0" encoding="UTF-8" standalone="no"?>
<svg width="500" height="500" viewBox="0 0 2074.000000 2074.000000" xmlns="http://www.w3.org/2000/svg">
<rect x="19.000000" y="19.000000" width="2036.000000" height="2036.000000" fill="black" />
<circle cx="881.960022" cy="470.959991" r="19.980000" fill="red">
  <title>Tokyo</title>
</circle><line x1="308.959991" y1="42.959999" x2="881.960022" y2="470.959991" stroke="red" stroke-width="6.660000" />
<circle cx="983.960022" cy="773.960022" r="19.980000" fill="red">
  <title>Dhaka</title>
</circle><line x1="881.960022" y1="470.959991" x2="983.960022" y2="773.960022" stroke="red" stroke-width="6.660000" />
<circle cx="1792.959961" cy="560.960022" r="19.980000" fill="red">
  <title>Osaka</title>
</circle><line x1="983.960022" y1="773.960022" x2="1792.959961" y2="560.960022" stroke="red" stroke-width="6.660000" />
<circle cx="1978.959961" cy="749.960022" r="19.980000" fill="red">
  <title>Mexico City</title>
</circle><line x1="1792.959961" y1="560.960022" x2="1978.959961" y2="749.960022" stroke="red" stroke-width="6.660000" />
<circle cx="1075.959961" cy="1620.959961" r="19.980000" fill="red">
  <title>Beijing</title>
</circle><line x1="1978.959961" y1="749.960022" x2="1075.959961" y2="1620.959961" stroke="red" stroke-width="6.660000" />
<circle cx="849.960022" cy="1437.959961" r="19.980000" fill="red">
  <title>Delhi</title>
</circle><line x1="1075.959961" y1="1620.959961" x2="849.960022" y2="1437.959961" stroke="red" stroke-width="6.660000" />
<circle cx="208.959991" cy="1945.959961" r="19.980000" fill="red">
  <title>Shanghai</title>
</circle><line x1="849.960022" y1="1437.959961" x2="208.959991" y2="1945.959961" stroke="red" stroke-width="6.660000" />
<circle cx="391.959991" cy="1196.959961" r="19.980000" fill="red">
  <title>Cairo</title>
</circle><line x1="208.959991" y1="1945.959961" x2="391.959991" y2="1196.959961" stroke="red" stroke-width="6.660000" />
<circle cx="570.960022" cy="726.960022" r="19.980000" fill="red">
  <title>Mumbai</title>
</circle><line x1="391.959991" y1="1196.959961" x2="570.960022" y2="726.960022" stroke="red" stroke-width="6.660000" />
<circle cx="307.959991" cy="577.960022" r="19.980000" fill="red">
  <title>São Paulo</title>
</circle><line x1="570.960022" y1="726.960022" x2="307.959991" y2="577.960022" stroke="red" stroke-width="6.660000" />
<circle cx="308.959991" cy="42.959999" r="19.980000" fill="red">
  <title>New York</title>
</circle><line x1="307.959991" y1="577.960022" x2="308.959991" y2="42.959999" stroke="red" stroke-width="6.660000" />
</svg>
