<?xml version="1.0" encoding="UTF-8" standalone="no"?>
<svg width="500" height="500" viewBox="0 0 2074.000000 2074.000000" xmlns="http://www.w3.org/2000/svg">
<rect x="19.000000" y="19.000000" width="2036.000000" height="2036.000000" fill="black" />
<circle cx="927.960022" cy="1333.959961" r="19.980000" fill="red">
  <title>Tokyo</title>
</circle><line x1="1280.959961" y1="1256.959961" x2="927.960022" y2="1333.959961" stroke="red" stroke-width="6.660000" />
<circle cx="1254.959961" cy="1555.959961" r="19.980000" fill="red">
  <title>Shanghai</title>
</circle><line x1="927.960022" y1="1333.959961" x2="1254.959961" y2="1555.959961" stroke="red" stroke-width="6.660000" />
<circle cx="1900.959961" cy="1818.959961" r="19.980000" fill="red">
  <title>Osaka</title>
</circle><line x1="1254.959961" y1="1555.959961" x2="1900.959961" y2="1818.959961" stroke="red" stroke-width="6.660000" />
<circle cx="1556.959961" cy="1969.959961" r="19.980000" fill="red">
  <title>Karachi</title>
</circle><line x1="1900.959961" y1="1818.959961" x2="1556.959961" y2="1969.959961" stroke="red" stroke-width="6.660000" />
<circle cx="864.960022" cy="1988.959961" r="19.980000" fill="red">
  <title>Chongqing</title>
</circle><line x1="1556.959961" y1="1969.959961" x2="864.960022" y2="1988.959961" stroke="red" stroke-width="6.660000" />
<circle cx="191.959991" cy="1856.959961" r="19.980000" fill="red">
  <title>Delhi</title>
</circle><line x1="864.960022" y1="1988.959961" x2="191.959991" y2="1856.959961" stroke="red" stroke-width="6.660000" />
<circle cx="43.959999" cy="1337.959961" r="19.980000" fill="red">
  <title>Mexico City</title>
</circle><line x1="191.959991" y1="1856.959961" x2="43.959999" y2="1337.959961" stroke="red" stroke-width="6.660000" />
<circle cx="186.959991" cy="1131.959961" r="19.980000" fill="red">
  <title>New York</title>
</circle><line x1="43.959999" y1="1337.959961" x2="186.959991" y2="1131.959961" stroke="red" stroke-width="6.660000" />
<circle cx="192.959991" cy="962.960022" r="19.980000" fill="red">
  <title>Dhaka</title>
</circle><line x1="186.959991" y1="1131.959961" x2="192.959991" y2="962.960022" stroke="red" stroke-width="6.660000" />
<circle cx="751.960022" cy="417.959991" r="19.980000" fill="red">
  <title>Cairo</title>
</circle><line x1="192.959991" y1="962.960022" x2="751.960022" y2="417.959991" stroke="red" stroke-width="6.660000" />
<circle cx="1091.959961" cy="355.959991" r="19.980000" fill="red">
  <title>Beijing</title>
</circle><line x1="751.960022" y1="417.959991" x2="1091.959961" y2="355.959991" stroke="red" stroke-width="6.660000" />
<circle cx="1157.959961" cy="157.959991" r="19.980000" fill="red">
  <title>São Paulo</title>
</circle><line x1="1091.959961" y1="355.959991" x2="1157.959961" y2="157.959991" stroke="red" stroke-width="6.660000" />
<circle cx="1937.959961" cy="328.959991" r="19.980000" fill="red">
  <title>Buenos Aires</title>
</circle><line x1="1157.959961" y1="157.959991" x2="1937.959961" y2="328.959991" stroke="red" stroke-width="6.660000" />
<circle cx="1280.959961" cy="1256.959961" r="19.980000" fill="red">
  <title>Mumbai</title>
</circle><line x1="1937.959961" y1="328.959991" x2="1280.959961" y2="1256.959961" stroke="red" stroke-width="6.660000" />
</svg>
