<?xml version="1.0" encoding="UTF-8" standalone="no"?>
<svg width="500" height="500" viewBox="0 0 2074.000000 2074.000000" xmlns="http://www.w3.org/2000/svg">
<rect x="19.000000" y="19.000000" width="2036.000000" height="2036.000000" fill="black" />
<circle cx="1498.959961" cy="1382.959961" r="19.980000" fill="red">
  <title>Tokyo</title>
</circle><line x1="1332.959961" y1="1373.959961" x2="1498.959961" y2="1382.959961" stroke="red" stroke-width="6.660000" />
<circle cx="1283.959961" cy="1185.959961" r="19.980000" fill="red">
  <title>Chongqing</title>
</circle><line x1="1498.959961" y1="1382.959961" x2="1283.959961" y2="1185.959961" stroke="red" stroke-width="6.660000" />
<circle cx="1151.959961" cy="1079.959961" r="19.980000" fill="red">
  <title>São Paulo</title>
</circle><line x1="1283.959961" y1="1185.959961" x2="1151.959961" y2="1079.959961" stroke="red" stroke-width="6.660000" />
<circle cx="1553.959961" cy="494.959991" r="19.980000" fill="red">
  <title>New York</title>
</circle><line x1="1151.959961" y1="1079.959961" x2="1553.959961" y2="494.959991" stroke="red" stroke-width="6.660000" />
<circle cx="1925.959961" cy="479.959991" r="19.980000" fill="red">
  <title>Dhaka</title>
</circle><line x1="1553.959961" y1="494.959991" x2="1925.959961" y2="479.959991" stroke="red" stroke-width="6.660000" />
<circle cx="1435.959961" cy="111.959999" r="19.980000" fill="red">
  <title>Cairo</title>
</circle><line x1="1925.959961" y1="479.959991" x2="1435.959961" y2="111.959999" stroke="red" stroke-width="6.660000" />
<circle cx="1209.959961" cy="118.959999" r="19.980000" fill="red">
  <title>Beijing</title>
</circle><line x1="1435.959961" y1="111.959999" x2="1209.959961" y2="118.959999" stroke="red" stroke-width="6.660000" />
<circle cx="821.960022" cy="394.959991" r="19.980000" fill="red">
  <title>Buenos Aires</title>
</circle><line x1="1209.959961" y1="118.959999" x2="821.960022" y2="394.959991" stroke="red" stroke-width="6.660000" />
<circle cx="948.960022" cy="564.960022" r="19.980000" fill="red">
  <title>Karachi</title>
</circle><line x1="821.960022" y1="394.959991" x2="948.960022" y2="564.960022" stroke="red" stroke-width="6.660000" />
<circle cx="665.960022" cy="665.960022" r="19.980000" fill="red">
  <title>Shanghai</title>
</circle><line x1="948.960022" y1="564.960022" x2="665.960022" y2="665.960022" stroke="red" stroke-width="6.660000" />
<circle cx="357.959991" cy="909.960022" r="19.980000" fill="red">
  <title>Osaka</title>
</circle><line x1="665.960022" y1="665.960022" x2="357.959991" y2="909.960022" stroke="red" stroke-width="6.660000" />
<circle cx="625.960022" cy="1288.959961" r="19.980000" fill="red">
  <title>Delhi</title>
</circle><line x1="357.959991" y1="909.960022" x2="625.960022" y2="1288.959961" stroke="red" stroke-width="6.660000" />
<circle cx="332.959991" cy="1598.959961" r="19.980000" fill="red">
  <title>Mexico City</title>
</circle><line x1="625.960022" y1="1288.959961" x2="332.959991" y2="1598.959961" stroke="red" stroke-width="6.660000" />
<circle cx="375.959991" cy="1987.959961" r="19.980000" fill="red">
  <title>Istanbul</title>
</circle><line x1="332.959991" y1="1598.959961" x2="375.959991" y2="1987.959961" stroke="red" stroke-width="6.660000" />
<circle cx="786.960022" cy="1835.959961" r="19.980000" fill="red">
  <title>Kolkata</title>
</circle><line x1="375.959991" y1="1987.959961" x2="786.960022" y2="1835.959961" stroke="red" stroke-width="6.660000" />
<circle cx="1102.959961" cy="1755.959961" r="19.980000" fill="red">
  <title>Mumbai</title>
</circle><line x1="786.960022" y1="1835.959961" x2="1102.959961" y2="1755.959961" stroke="red" stroke-width="6.660000" />
<circle cx="1332.959961" cy="1373.959961" r="19.980000" fill="red">
  <title>Manila</title>
</circle><line x1="1102.959961" y1="1755.959961" x2="1332.959961" y2="1373.959961" stroke="red" stroke-width="6.660000" />
</svg>
