<?xml version="1.0" encoding="UTF-8" standalone="no"?>
<svg width="500" height="500" viewBox="0 0 2074.000000 2074.000000" xmlns="http://www.w3.org/2000/svg">
<rect x="19.000000" y="19.000000" width="2036.000000" height="2036.000000" fill="black" />
<circle cx="1217.959961" cy="538.960022" r="19.980000" fill="red">
  <title>Tokyo</title>
</circle><line x1="1566.959961" y1="91.959999" x2="1217.959961" y2="538.960022" stroke="red" stroke-width="6.660000" />
<circle cx="963.960022" cy="615.960022" r="19.980000" fill="red">
  <title>São Paulo</title>
</circle><line x1="1217.959961" y1="538.960022" x2="963.960022" y2="615.960022" stroke="red" stroke-width="6.660000" />
<circle cx="871.960022" cy="549.960022" r="19.980000" fill="red">
  <title>New York</title>
</circle><line x1="963.960022" y1="615.960022" x2="871.960022" y2="549.960022" stroke="red" stroke-width="6.660000" />
<circle cx="64.959999" cy="575.960022" r="19.980000" fill="red">
  <title>Mumbai</title>
</circle><line x1="871.960022" y1="549.960022" x2="64.959999" y2="575.960022" stroke="red" stroke-width="6.660000" />
<circle cx="870.960022" cy="1123.959961" r="19.980000" fill="red">
  <title>Delhi</title>
</circle><line x1="64.959999" y1="575.960022" x2="870.960022" y2="1123.959961" stroke="red" stroke-width="6.660000" />
<circle cx="389.959991" cy="1950.959961" r="19.980000" fill="red">
  <title>Beijing</title>
</circle><line x1="870.960022" y1="1123.959961" x2="389.959991" y2="1950.959961" stroke="red" stroke-width="6.660000" />
<circle cx="1396.959961" cy="1453.959961" r="19.980000" fill="red">
  <title>Osaka</title>
</circle><line x1="389.959991" y1="1950.959961" x2="1396.959961" y2="1453.959961" stroke="red" stroke-width="6.660000" />
<circle cx="1698.959961" cy="1938.959961" r="19.980000" fill="red">
  <title>Dhaka</title>
</circle><line x1="1396.959961" y1="1453.959961" x2="1698.959961" y2="1938.959961" stroke="red" stroke-width="6.660000" />
<circle cx="1740.959961" cy="1441.959961" r="19.980000" fill="red">
  <title>Cairo</title>
</circle><line x1="1698.959961" y1="1938.959961" x2="1740.959961" y2="1441.959961" stroke="red" stroke-width="6.660000" />
<circle cx="1549.959961" cy="924.960022" r="19.980000" fill="red">
  <title>Mexico City</title>
</circle><line x1="1740.959961" y1="1441.959961" x2="1549.959961" y2="924.960022" stroke="red" stroke-width="6.660000" />
<circle cx="1589.959961" cy="877.960022" r="19.980000" fill="red">
  <title>Buenos Aires</title>
</circle><line x1="1549.959961" y1="924.960022" x2="1589.959961" y2="877.960022" stroke="red" stroke-width="6.660000" />
<circle cx="1855.959961" cy="803.960022" r="19.980000" fill="red">
  <title>Shanghai</title>
</circle><line x1="1589.959961" y1="877.960022" x2="1855.959961" y2="803.960022" stroke="red" stroke-width="6.660000" />
<circle cx="1566.959961" cy="91.959999" r="19.980000" fill="red">
  <title>Karachi</title>
</circle><line x1="1855.959961" y1="803.960022" x2="1566.959961" y2="91.959999" stroke="red" stroke-width="6.660000" />
</svg>
