<?xml version="1.0" encoding="UTF-8" standalone="no"?>
<svg width="500" height="500" viewBox="0 0 2074.000000 2074.000000" xmlns="http://www.w3.org/2000/svg">
<rect x="19.000000" y="19.000000" width="2036.000000" height="2036.000000" fill="black" />
<circle cx="1642.959961" cy="212.959991" r="19.980000" fill="red">
  <title>Tokyo</title>
</circle><line x1="1005.960022" y1="252.959991" x2="1642.959961" y2="212.959991" stroke="red" stroke-width="6.660000" />
<circle cx="1665.959961" cy="296.959991" r="19.980000" fill="red">
  <title>Shanghai</title>
</circle><line x1="1642.959961" y1="212.959991" x2="1665.959961" y2="296.959991" stroke="red" stroke-width="6.660000" />
<circle cx="1834.959961" cy="489.959991" r="19.980000" fill="red">
  <title>New York</title>
</circle><line x1="1665.959961" y1="296.959991" x2="1834.959961" y2="489.959991" stroke="red" stroke-width="6.660000" />
<circle cx="1444.959961" cy="1261.959961" r="19.980000" fill="red">
  <title>Dhaka</title>
</circle><line x1="1834.959961" y1="489.959991" x2="1444.959961" y2="1261.959961" stroke="red" stroke-width="6.660000" />
<circle cx="1163.959961" cy="1090.959961" r="19.980000" fill="red">
  <title>Chongqing</title>
</circle><line x1="1444.959961" y1="1261.959961" x2="1163.959961" y2="1090.959961" stroke="red" stroke-width="6.660000" />
<circle cx="832.960022" cy="1011.960022" r="19.980000" fill="red">
  <title>Mumbai</title>
</circle><line x1="1163.959961" y1="1090.959961" x2="832.960022" y2="1011.960022" stroke="red" stroke-width="6.660000" />
<circle cx="792.960022" cy="1250.959961" r="19.980000" fill="red">
  <title>São Paulo</title>
</circle><line x1="832.960022" y1="1011.960022" x2="792.960022" y2="1250.959961" stroke="red" stroke-width="6.660000" />
<circle cx="1058.959961" cy="1561.959961" r="19.980000" fill="red">
  <title>Istanbul</title>
</circle><line x1="792.960022" y1="1250.959961" x2="1058.959961" y2="1561.959961" stroke="red" stroke-width="6.660000" />
<circle cx="1178.959961" cy="1660.959961" r="19.980000" fill="red">
  <title>Karachi</title>
</circle><line x1="1058.959961" y1="1561.959961" x2="1178.959961" y2="1660.959961" stroke="red" stroke-width="6.660000" />
<circle cx="998.960022" cy="1942.959961" r="19.980000" fill="red">
  <title>Osaka</title>
</circle><line x1="1178.959961" y1="1660.959961" x2="998.960022" y2="1942.959961" stroke="red" stroke-width="6.660000" />
<circle cx="111.959999" cy="2028.959961" r="19.980000" fill="red">
  <title>Beijing</title>
</circle><line x1="998.960022" y1="1942.959961" x2="111.959999" y2="2028.959961" stroke="red" stroke-width="6.660000" />
<circle cx="70.959999" cy="1549.959961" r="19.980000" fill="red">
  <title>Delhi</title>
</circle><line x1="111.959999" y1="2028.959961" x2="70.959999" y2="1549.959961" stroke="red" stroke-width="6.660000" />
<circle cx="363.959991" cy="951.960022" r="19.980000" fill="red">
  <title>Cairo</title>
</circle><line x1="70.959999" y1="1549.959961" x2="363.959991" y2="951.960022" stroke="red" stroke-width="6.660000" />
<circle cx="42.959999" cy="489.959991" r="19.980000" fill="red">
  <title>Buenos Aires</title>
</circle><line x1="363.959991" y1="951.960022" x2="42.959999" y2="489.959991" stroke="red" stroke-width="6.660000" />
<circle cx="1005.960022" cy="252.959991" r="19.980000" fill="red">
  <title>Mexico City</title>
</circle><line x1="42.959999" y1="489.959991" x2="1005.960022" y2="252.959991" stroke="red" stroke-width="6.660000" />
</svg>
