<?xml version="1.0" encoding="UTF-8" standalone="no"?>
<svg width="500" height="500" viewBox="0 0 2074.000000 2074.000000" xmlns="http://www.w3.org/2000/svg">
<rect x="19.000000" y="19.000000" width="2036.000000" height="2036.000000" fill="black" />
<circle cx="914.960022" cy="932.960022" r="19.980000" fill="red">
  <title>Tokyo</title>
</circle><line x1="1062.959961" y1="1123.959961" x2="914.960022" y2="932.960022" stroke="red" stroke-width="6.660000" />
<circle cx="268.959991" cy="370.959991" r="19.980000" fill="red">
  <title>São Paulo</title>
</circle><line x1="914.960022" y1="932.960022" x2="268.959991" y2="370.959991" stroke="red" stroke-width="6.660000" />
<circle cx="87.959999" cy="494.959991" r="19.980000" fill="red">
  <title>Cairo</title>
</circle><line x1="268.959991" y1="370.959991" x2="87.959999" y2="494.959991" stroke="red" stroke-width="6.660000" />
<circle cx="200.959991" cy="282.959991" r="19.980000" fill="red">
  <title>Delhi</title>
</circle><line x1="87.959999" y1="494.959991" x2="200.959991" y2="282.959991" stroke="red" stroke-width="6.660000" />
<circle cx="240.959991" cy="313.959991" r="19.980000" fill="red">
  <title>Chongqing</title>
</circle><line x1="200.959991" y1="282.959991" x2="240.959991" y2="313.959991" stroke="red" stroke-width="6.660000" />
<circle cx="558.960022" cy="448.959991" r="19.980000" fill="red">
  <title>Beijing</title>
</circle><line x1="240.959991" y1="313.959991" x2="558.960022" y2="448.959991" stroke="red" stroke-width="6.660000" />
<circle cx="1102.959961" cy="596.960022" r="19.980000" fill="red">
  <title>Mexico City</title>
</circle><line x1="558.960022" y1="448.959991" x2="1102.959961" y2="596.960022" stroke="red" stroke-width="6.660000" />
<circle cx="1247.959961" cy="336.959991" r="19.980000" fill="red">
  <title>Buenos Aires</title>
</circle><line x1="1102.959961" y1="596.960022" x2="1247.959961" y2="336.959991" stroke="red" stroke-width="6.660000" />
<circle cx="1148.959961" cy="180.959991" r="19.980000" fill="red">
  <title>Dhaka</title>
</circle><line x1="1247.959961" y1="336.959991" x2="1148.959961" y2="180.959991" stroke="red" stroke-width="6.660000" />
<circle cx="1527.959961" cy="49.959999" r="19.980000" fill="red">
  <title>Manila</title>
</circle><line x1="1148.959961" y1="180.959991" x2="1527.959961" y2="49.959999" stroke="red" stroke-width="6.660000" />
<circle cx="1929.959961" cy="204.959991" r="19.980000" fill="red">
  <title>Osaka</title>
</circle><line x1="1527.959961" y1="49.959999" x2="1929.959961" y2="204.959991" stroke="red" stroke-width="6.660000" />
<circle cx="1910.959961" cy="228.959991" r="19.980000" fill="red">
  <title>Mumbai</title>
</circle><line x1="1929.959961" y1="204.959991" x2="1910.959961" y2="228.959991" stroke="red" stroke-width="6.660000" />
<circle cx="1712.959961" cy="405.959991" r="19.980000" fill="red">
  <title>Shanghai</title>
</circle><line x1="1910.959961" y1="228.959991" x2="1712.959961" y2="405.959991" stroke="red" stroke-width="6.660000" />
<circle cx="1928.959961" cy="634.960022" r="19.980000" fill="red">
  <title>Istanbul</title>
</circle><line x1="1712.959961" y1="405.959991" x2="1928.959961" y2="634.960022" stroke="red" stroke-width="6.660000" />
<circle cx="1886.959961" cy="804.960022" r="19.980000" fill="red">
  <title>Kolkata</title>
</circle><line x1="1928.959961" y1="634.960022" x2="1886.959961" y2="804.960022" stroke="red" stroke-width="6.660000" />
<circle cx="1189.959961" cy="1105.959961" r="19.980000" fill="red">
  <title>Karachi</title>
</circle><line x1="1886.959961" y1="804.960022" x2="1189.959961" y2="1105.959961" stroke="red" stroke-width="6.660000" />
<circle cx="1062.959961" cy="1123.959961" r="19.980000" fill="red">
  <title>New York</title>
</circle><line x1="1189.959961" y1="1105.959961" x2="1062.959961" y2="1123.959961" stroke="red" stroke-width="6.660000" />
</svg>
