<?xml version="1.0" encoding="UTF-8" standalone="no"?>
<svg width="500" height="500" viewBox="0 0 2074.000000 2074.000000" xmlns="http://www.w3.org/2000/svg">
<rect x="19.000000" y="19.000000" width="2036.000000" height="2036.000000" fill="black" />
<circle cx="1631.959961" cy="1920.959961" r="19.980000" fill="red">
  <title>Tokyo</title>
</circle><line x1="1963.959961" y1="987.960022" x2="1631.959961" y2="1920.959961" stroke="red" stroke-width="6.660000" />
<circle cx="1087.959961" cy="1428.959961" r="19.980000" fill="red">
  <title>Delhi</title>
</circle><line x1="1631.959961" y1="1920.959961" x2="1087.959961" y2="1428.959961" stroke="red" stroke-width="6.660000" />
<circle cx="924.960022" cy="1524.959961" r="19.980000" fill="red">
  <title>Cairo</title>
</circle><line x1="1087.959961" y1="1428.959961" x2="924.960022" y2="1524.959961" stroke="red" stroke-width="6.660000" />
<circle cx="628.960022" cy="364.959991" r="19.980000" fill="red">
  <title>São Paulo</title>
</circle><line x1="924.960022" y1="1524.959961" x2="628.960022" y2="364.959991" stroke="red" stroke-width="6.660000" />
<circle cx="1441.959961" cy="609.960022" r="19.980000" fill="red">
  <title>Shanghai</title>
</circle><line x1="628.960022" y1="364.959991" x2="1441.959961" y2="609.960022" stroke="red" stroke-width="6.660000" />
<circle cx="1963.959961" cy="987.960022" r="19.980000" fill="red">
  <title>Mexico City</title>
</circle><line x1="1441.959961" y1="609.960022" x2="1963.959961" y2="987.960022" stroke="red" stroke-width="6.660000" />
</svg>
