<?xml version="1.0" encoding="UTF-8" standalone="no"?>
<svg width="500" height="500" viewBox="0 0 2074.000000 2074.000000" xmlns="http://www.w3.org/2000/svg">
<rect x="19.000000" y="19.000000" width="2036.000000" height="2036.000000" fill="black" />
<circle cx="1644.959961" cy="1258.959961" r="19.980000" fill="red">
  <title>Tokyo</title>
</circle><line x1="1280.959961" y1="1916.959961" x2="1644.959961" y2="1258.959961" stroke="red" stroke-width="6.660000" />
<circle cx="1942.959961" cy="993.960022" r="19.980000" fill="red">
  <title>São Paulo</title>
</circle><line x1="1644.959961" y1="1258.959961" x2="1942.959961" y2="993.960022" stroke="red" stroke-width="6.660000" />
<circle cx="1598.959961" cy="195.959991" r="19.980000" fill="red">
  <title>Shanghai</title>
</circle><line x1="1942.959961" y1="993.960022" x2="1598.959961" y2="195.959991" stroke="red" stroke-width="6.660000" />
<circle cx="581.960022" cy="1268.959961" r="19.980000" fill="red">
  <title>Mexico City</title>
</circle><line x1="1598.959961" y1="195.959991" x2="581.960022" y2="1268.959961" stroke="red" stroke-width="6.660000" />
<circle cx="192.959991" cy="1599.959961" r="19.980000" fill="red">
  <title>Delhi</title>
</circle><line x1="581.960022" y1="1268.959961" x2="192.959991" y2="1599.959961" stroke="red" stroke-width="6.660000" />
<circle cx="798.960022" cy="1412.959961" r="19.980000" fill="red">
  <title>Mumbai</title>
</circle><line x1="192.959991" y1="1599.959961" x2="798.960022" y2="1412.959961" stroke="red" stroke-width="6.660000" />
<circle cx="1280.959961" cy="1916.959961" r="19.980000" fill="red">
  <title>Cairo</title>
</circle><line x1="798.960022" y1="1412.959961" x2="1280.959961" y2="1916.959961" stroke="red" stroke-width="6.660000" />
</svg>
