<?xml version="1.0" encoding="UTF-8" standalone="no"?>
<svg width="500" height="500" viewBox="0 0 2074.000000 2074.000000" xmlns="http://www.w3.org/2000/svg">
<rect x="19.000000" y="19.000000" width="2036.000000" height="2036.000000" fill="black" />
<circle cx="1671.959961" cy="989.960022" r="19.980000" fill="red">
  <title>Tokyo</title>
</circle><line x1="1910.959961" y1="664.960022" x2="1671.959961" y2="989.960022" stroke="red" stroke-width="6.660000" />
<circle cx="1615.959961" cy="1200.959961" r="19.980000" fill="red">
  <title>Manila</title>
</circle><line x1="1671.959961" y1="989.960022" x2="1615.959961" y2="1200.959961" stroke="red" stroke-width="6.660000" />
<circle cx="1656.959961" cy="1486.959961" r="19.980000" fill="red">
  <title>Beijing</title>
</circle><line x1="1615.959961" y1="1200.959961" x2="1656.959961" y2="1486.959961" stroke="red" stroke-width="6.660000" />
<circle cx="1794.959961" cy="1773.959961" r="19.980000" fill="red">
  <title>Mexico City</title>
</circle><line x1="1656.959961" y1="1486.959961" x2="1794.959961" y2="1773.959961" stroke="red" stroke-width="6.660000" />
<circle cx="1133.959961" cy="1610.959961" r="19.980000" fill="red">
  <title>Lagos</title>
</circle><line x1="1794.959961" y1="1773.959961" x2="1133.959961" y2="1610.959961" stroke="red" stroke-width="6.660000" />
<circle cx="922.960022" cy="1627.959961" r="19.980000" fill="red">
  <title>Delhi</title>
</circle><line x1="1133.959961" y1="1610.959961" x2="922.960022" y2="1627.959961" stroke="red" stroke-width="6.660000" />
<circle cx="715.960022" cy="1510.959961" r="19.980000" fill="red">
  <title>Cairo</title>
</circle><line x1="922.960022" y1="1627.959961" x2="715.960022" y2="1510.959961" stroke="red" stroke-width="6.660000" />
<circle cx="317.959991" cy="1543.959961" r="19.980000" fill="red">
  <title>Kolkata</title>
</circle><line x1="715.960022" y1="1510.959961" x2="317.959991" y2="1543.959961" stroke="red" stroke-width="6.660000" />
<circle cx="93.959999" cy="1567.959961" r="19.980000" fill="red">
  <title>New York</title>
</circle><line x1="317.959991" y1="1543.959961" x2="93.959999" y2="1567.959961" stroke="red" stroke-width="6.660000" />
<circle cx="517.960022" cy="1357.959961" r="19.980000" fill="red">
  <title>Osaka</title>
</circle><line x1="93.959999" y1="1567.959961" x2="517.960022" y2="1357.959961" stroke="red" stroke-width="6.660000" />
<circle cx="648.960022" cy="1229.959961" r="19.980000" fill="red">
  <title>Dhaka</title>
</circle><line x1="517.960022" y1="1357.959961" x2="648.960022" y2="1229.959961" stroke="red" stroke-width="6.660000" />
<circle cx="566.960022" cy="864.960022" r="19.980000" fill="red">
  <title>Mumbai</title>
</circle><line x1="648.960022" y1="1229.959961" x2="566.960022" y2="864.960022" stroke="red" stroke-width="6.660000" />
<circle cx="748.960022" cy="1058.959961" r="19.980000" fill="red">
  <title>Karachi</title>
</circle><line x1="566.960022" y1="864.960022" x2="748.960022" y2="1058.959961" stroke="red" stroke-width="6.660000" />
<circle cx="1355.959961" cy="1200.959961" r="19.980000" fill="red">
  <title>São Paulo</title>
</circle><line x1="748.960022" y1="1058.959961" x2="1355.959961" y2="1200.959961" stroke="red" stroke-width="6.660000" />
<circle cx="1485.959961" cy="644.960022" r="19.980000" fill="red">
  <title>Chongqing</title>
</circle><line x1="1355.959961" y1="1200.959961" x2="1485.959961" y2="644.960022" stroke="red" stroke-width="6.660000" />
<circle cx="1301.959961" cy="115.959999" r="19.980000" fill="red">
  <title>Buenos Aires</title>
</circle><line x1="1485.959961" y1="644.960022" x2="1301.959961" y2="115.959999" stroke="red" stroke-width="6.660000" />
<circle cx="2032.959961" cy="438.959991" r="19.980000" fill="red">
  <title>Shanghai</title>
</circle><line x1="1301.959961" y1="115.959999" x2="2032.959961" y2="438.959991" stroke="red" stroke-width="6.660000" />
<circle cx="1910.959961" cy="664.960022" r="19.980000" fill="red">
  <title>Istanbul</title>
</circle><line x1="2032.959961" y1="438.959991" x2="1910.959961" y2="664.960022" stroke="red" stroke-width="6.660000" />
</svg>
