<?xml version="1.0" encoding="UTF-8" standalone="no"?>
<svg width="500" height="500" viewBox="0 0 2074.000000 2074.000000" xmlns="http://www.w3.org/2000/svg">
<rect x="19.000000" y="19.000000" width="2036.000000" height="2036.000000" fill="black" />
<circle cx="278.959991" cy="413.959991" r="19.980000" fill="red">
  <title>Tokyo</title>
</circle><line x1="1018.960022" y1="741.960022" x2="278.959991" y2="413.959991" stroke="red" stroke-width="6.660000" />
<circle cx="47.959999" cy="974.960022" r="19.980000" fill="red">
  <title>New York</title>
</circle><line x1="278.959991" y1="413.959991" x2="47.959999" y2="974.960022" stroke="red" stroke-width="6.660000" />
<circle cx="340.959991" cy="1451.959961" r="19.980000" fill="red">
  <title>Buenos Aires</title>
</circle><line x1="47.959999" y1="974.960022" x2="340.959991" y2="1451.959961" stroke="red" stroke-width="6.660000" />
<circle cx="213.959991" cy="1810.959961" r="19.980000" fill="red">
  <title>Dhaka</title>
</circle><line x1="340.959991" y1="1451.959961" x2="213.959991" y2="1810.959961" stroke="red" stroke-width="6.660000" />
<circle cx="669.960022" cy="1937.959961" r="19.980000" fill="red">
  <title>Beijing</title>
</circle><line x1="213.959991" y1="1810.959961" x2="669.960022" y2="1937.959961" stroke="red" stroke-width="6.660000" />
<circle cx="930.960022" cy="1782.959961" r="19.980000" fill="red">
  <title>Mumbai</title>
</circle><line x1="669.960022" y1="1937.959961" x2="930.960022" y2="1782.959961" stroke="red" stroke-width="6.660000" />
<circle cx="1763.959961" cy="1552.959961" r="19.980000" fill="red">
  <title>Shanghai</title>
</circle><line x1="930.960022" y1="1782.959961" x2="1763.959961" y2="1552.959961" stroke="red" stroke-width="6.660000" />
<circle cx="1674.959961" cy="1408.959961" r="19.980000" fill="red">
  <title>Delhi</title>
</circle><line x1="1763.959961" y1="1552.959961" x2="1674.959961" y2="1408.959961" stroke="red" stroke-width="6.660000" />
<circle cx="1265.959961" cy="1090.959961" r="19.980000" fill="red">
  <title>Mexico City</title>
</circle><line x1="1674.959961" y1="1408.959961" x2="1265.959961" y2="1090.959961" stroke="red" stroke-width="6.660000" />
<circle cx="1653.959961" cy="658.960022" r="19.980000" fill="red">
  <title>Cairo</title>
</circle><line x1="1265.959961" y1="1090.959961" x2="1653.959961" y2="658.960022" stroke="red" stroke-width="6.660000" />
<circle cx="1978.959961" cy="652.960022" r="19.980000" fill="red">
  <title>São Paulo</title>
</circle><line x1="1653.959961" y1="658.960022" x2="1978.959961" y2="652.960022" stroke="red" stroke-width="6.660000" />
<circle cx="1562.959961" cy="188.959991" r="19.980000" fill="red">
  <title>Osaka</title>
</circle><line x1="1978.959961" y1="652.960022" x2="1562.959961" y2="188.959991" stroke="red" stroke-width="6.660000" />
<circle cx="1018.960022" cy="741.960022" r="19.980000" fill="red">
  <title>Karachi</title>
</circle><line x1="1562.959961" y1="188.959991" x2="1018.960022" y2="741.960022" stroke="red" stroke-width="6.660000" />
</svg>
