<?xml version="1.0" encoding="UTF-8" standalone="no"?>
<svg width="500" height="500" viewBox="0 0 2074.000000 2074.000000" xmlns="http://www.w3.org/2000/svg">
<rect x="19.000000" y="19.000000" width="2036.000000" height="2036.000000" fill="black" />
<circle cx="638.960022" cy="1671.959961" r="19.980000" fill="red">
  <title>Tokyo</title>
</circle><line x1="804.960022" y1="804.960022" x2="638.960022" y2="1671.959961" stroke="red" stroke-width="6.660000" />
<circle cx="1464.959961" cy="1569.959961" r="19.980000" fill="red">
  <title>Delhi</title>
</circle><line x1="638.960022" y1="1671.959961" x2="1464.959961" y2="1569.959961" stroke="red" stroke-width="6.660000" />
<circle cx="1701.959961" cy="891.960022" r="19.980000" fill="red">
  <title>Shanghai</title>
</circle><line x1="1464.959961" y1="1569.959961" x2="1701.959961" y2="891.960022" stroke="red" stroke-width="6.660000" />
<circle cx="1707.959961" cy="99.959999" r="19.980000" fill="red">
  <title>Mexico City</title>
</circle><line x1="1701.959961" y1="891.960022" x2="1707.959961" y2="99.959999" stroke="red" stroke-width="6.660000" />
<circle cx="383.959991" cy="260.959991" r="19.980000" fill="red">
  <title>São Paulo</title>
</circle><line x1="1707.959961" y1="99.959999" x2="383.959991" y2="260.959991" stroke="red" stroke-width="6.660000" />
<circle cx="622.960022" cy="741.960022" r="19.980000" fill="red">
  <title>Mumbai</title>
</circle><line x1="383.959991" y1="260.959991" x2="622.960022" y2="741.960022" stroke="red" stroke-width="6.660000" />
<circle cx="804.960022" cy="804.960022" r="19.980000" fill="red">
  <title>Cairo</title>
</circle><line x1="622.960022" y1="741.960022" x2="804.960022" y2="804.960022" stroke="red" stroke-width="6.660000" />
</svg>
