<?xml version="1.0" encoding="UTF-8" standalone="no"?>
<svg width="500" height="500" viewBox="0 0 2074.000000 2074.000000" xmlns="http://www.w3.org/2000/svg">
<rect x="19.000000" y="19.000000" width="2036.000000" height="2036.000000" fill="black" />
<circle cx="424.959991" cy="1743.959961" r="19.980000" fill="red">
  <title>Tokyo</title>
</circle><line x1="1854.959961" y1="286.959991" x2="424.959991" y2="1743.959961" stroke="red" stroke-width="6.660000" />
<circle cx="326.959991" cy="1902.959961" r="19.980000" fill="red">
  <title>Delhi</title>
</circle><line x1="424.959991" y1="1743.959961" x2="326.959991" y2="1902.959961" stroke="red" stroke-width="6.660000" />
<circle cx="881.960022" cy="646.960022" r="19.980000" fill="red">
  <title>São Paulo</title>
</circle><line x1="326.959991" y1="1902.959961" x2="881.960022" y2="646.960022" stroke="red" stroke-width="6.660000" />
<circle cx="1854.959961" cy="286.959991" r="19.980000" fill="red">
  <title>Shanghai</title>
</circle><line x1="881.960022" y1="646.960022" x2="1854.959961" y2="286.959991" stroke="red" stroke-width="6.660000" />
</svg>
