<?xml version="1.0" encoding="UTF-8" standalone="no"?>
<svg width="500" height="500" viewBox="0 0 2074.000000 2074.000000" xmlns="http://www.w3.org/2000/svg">
<rect x="19.000000" y="19.000000" width="2036.000000" height="2036.000000" fill="black" />
<circle cx="1380.959961" cy="388.959991" r="19.980000" fill="red">
  <title>Tokyo</title>
</circle><line x1="1477.959961" y1="337.959991" x2="1380.959961" y2="388.959991" stroke="red" stroke-width="6.660000" />
<circle cx="1274.959961" cy="500.959991" r="19.980000" fill="red">
  <title>Cairo</title>
</circle><line x1="1380.959961" y1="388.959991" x2="1274.959961" y2="500.959991" stroke="red" stroke-width="6.660000" />
<circle cx="972.960022" cy="924.960022" r="19.980000" fill="red">
  <title>Mumbai</title>
</circle><line x1="1274.959961" y1="500.959991" x2="972.960022" y2="924.960022" stroke="red" stroke-width="6.660000" />
<circle cx="821.960022" cy="756.960022" r="19.980000" fill="red">
  <title>São Paulo</title>
</circle><line x1="972.960022" y1="924.960022" x2="821.960022" y2="756.960022" stroke="red" stroke-width="6.660000" />
<circle cx="547.960022" cy="613.960022" r="19.980000" fill="red">
  <title>Delhi</title>
</circle><line x1="821.960022" y1="756.960022" x2="547.960022" y2="613.960022" stroke="red" stroke-width="6.660000" />
<circle cx="212.959991" cy="974.960022" r="19.980000" fill="red">
  <title>Shanghai</title>
</circle><line x1="547.960022" y1="613.960022" x2="212.959991" y2="974.960022" stroke="red" stroke-width="6.660000" />
<circle cx="253.959991" cy="1127.959961" r="19.980000" fill="red">
  <title>Istanbul</title>
</circle><line x1="212.959991" y1="974.960022" x2="253.959991" y2="1127.959961" stroke="red" stroke-width="6.660000" />
<circle cx="191.959991" cy="1648.959961" r="19.980000" fill="red">
  <title>Beijing</title>
</circle><line x1="253.959991" y1="1127.959961" x2="191.959991" y2="1648.959961" stroke="red" stroke-width="6.660000" />
<circle cx="577.960022" cy="1753.959961" r="19.980000" fill="red">
  <title>Mexico City</title>
</circle><line x1="191.959991" y1="1648.959961" x2="577.960022" y2="1753.959961" stroke="red" stroke-width="6.660000" />
<circle cx="1481.959961" cy="1897.959961" r="19.980000" fill="red">
  <title>New York</title>
</circle><line x1="577.960022" y1="1753.959961" x2="1481.959961" y2="1897.959961" stroke="red" stroke-width="6.660000" />
<circle cx="1557.959961" cy="1622.959961" r="19.980000" fill="red">
  <title>Osaka</title>
</circle><line x1="1481.959961" y1="1897.959961" x2="1557.959961" y2="1622.959961" stroke="red" stroke-width="6.660000" />
<circle cx="1979.959961" cy="1763.959961" r="19.980000" fill="red">
  <title>Buenos Aires</title>
</circle><line x1="1557.959961" y1="1622.959961" x2="1979.959961" y2="1763.959961" stroke="red" stroke-width="6.660000" />
<circle cx="1828.959961" cy="1594.959961" r="19.980000" fill="red">
  <title>Kolkata</title>
</circle><line x1="1979.959961" y1="1763.959961" x2="1828.959961" y2="1594.959961" stroke="red" stroke-width="6.660000" />
<circle cx="1618.959961" cy="685.960022" r="19.980000" fill="red">
  <title>Dhaka</title>
</circle><line x1="1828.959961" y1="1594.959961" x2="1618.959961" y2="685.960022" stroke="red" stroke-width="6.660000" />
<circle cx="1942.959961" cy="252.959991" r="19.980000" fill="red">
  <title>Chongqing</title>
</circle><line x1="1618.959961" y1="685.960022" x2="1942.959961" y2="252.959991" stroke="red" stroke-width="6.660000" />
<circle cx="1846.959961" cy="110.959999" r="19.980000" fill="red">
  <title>Karachi</title>
</circle><line x1="1942.959961" y1="252.959991" x2="1846.959961" y2="110.959999" stroke="red" stroke-width="6.660000" />
<circle cx="1477.959961" cy="337.959991" r="19.980000" fill="red">
  <title>Manila</title>
</circle><line x1="1846.959961" y1="110.959999" x2="1477.959961" y2="337.959991" stroke="red" stroke-width="6.660000" />
</svg>
