<?xml version="1.0" encoding="UTF-8" standalone="no"?>
<svg width="500" height="500" viewBox="0 0 2074.000000 2074.000000" xmlns="http://www.w3.org/2000/svg">
<rect x="19.000000" y="19.000000" width="2036.000000" height="2036.000000" fill="black" />
<circle cx="911.960022" cy="1949.959961" r="19.980000" fill="red">
  <title>Tokyo</title>
</circle><line x1="1215.959961" y1="1989.959961" x2="911.960022" y2="1949.959961" stroke="red" stroke-width="6.660000" />
<circle cx="811.960022" cy="1888.959961" r="19.980000" fill="red">
  <title>Lagos</title>
</circle><line x1="911.960022" y1="1949.959961" x2="811.960022" y2="1888.959961" stroke="red" stroke-width="6.660000" />
<circle cx="594.960022" cy="1646.959961" r="19.980000" fill="red">
  <title>New York</title>
</circle><line x1="811.960022" y1="1888.959961" x2="594.960022" y2="1646.959961" stroke="red" stroke-width="6.660000" />
<circle cx="733.960022" cy="1362.959961" r="19.980000" fill="red">
  <title>São Paulo</title>
</circle><line x1="594.960022" y1="1646.959961" x2="733.960022" y2="1362.959961" stroke="red" stroke-width="6.660000" />
<circle cx="581.960022" cy="998.960022" r="19.980000" fill="red">
  <title>Manila</title>
</circle><line x1="733.960022" y1="1362.959961" x2="581.960022" y2="998.960022" stroke="red" stroke-width="6.660000" />
<circle cx="368.959991" cy="949.960022" r="19.980000" fill="red">
  <title>Dhaka</title>
</circle><line x1="581.960022" y1="998.960022" x2="368.959991" y2="949.960022" stroke="red" stroke-width="6.660000" />
<circle cx="594.960022" cy="516.960022" r="19.980000" fill="red">
  <title>Mexico City</title>
</circle><line x1="368.959991" y1="949.960022" x2="594.960022" y2="516.960022" stroke="red" stroke-width="6.660000" />
<circle cx="1111.959961" cy="232.959991" r="19.980000" fill="red">
  <title>Chongqing</title>
</circle><line x1="594.960022" y1="516.960022" x2="1111.959961" y2="232.959991" stroke="red" stroke-width="6.660000" />
<circle cx="1766.959961" cy="195.959991" r="19.980000" fill="red">
  <title>Osaka</title>
</circle><line x1="1111.959961" y1="232.959991" x2="1766.959961" y2="195.959991" stroke="red" stroke-width="6.660000" />
<circle cx="1521.959961" cy="415.959991" r="19.980000" fill="red">
  <title>Beijing</title>
</circle><line x1="1766.959961" y1="195.959991" x2="1521.959961" y2="415.959991" stroke="red" stroke-width="6.660000" />
<circle cx="990.960022" cy="669.960022" r="19.980000" fill="red">
  <title>Istanbul</title>
</circle><line x1="1521.959961" y1="415.959991" x2="990.960022" y2="669.960022" stroke="red" stroke-width="6.660000" />
<circle cx="988.960022" cy="850.960022" r="19.980000" fill="red">
  <title>Karachi</title>
</circle><line x1="990.960022" y1="669.960022" x2="988.960022" y2="850.960022" stroke="red" stroke-width="6.660000" />
<circle cx="1108.959961" cy="986.960022" r="19.980000" fill="red">
  <title>Delhi</title>
</circle><line x1="988.960022" y1="850.960022" x2="1108.959961" y2="986.960022" stroke="red" stroke-width="6.660000" />
<circle cx="1355.959961" cy="1174.959961" r="19.980000" fill="red">
  <title>Buenos Aires</title>
</circle><line x1="1108.959961" y1="986.960022" x2="1355.959961" y2="1174.959961" stroke="red" stroke-width="6.660000" />
<circle cx="1672.959961" cy="1690.959961" r="19.980000" fill="red">
  <title>Mumbai</title>
</circle><line x1="1355.959961" y1="1174.959961" x2="1672.959961" y2="1690.959961" stroke="red" stroke-width="6.660000" />
<circle cx="1928.959961" cy="1863.959961" r="19.980000" fill="red">
  <title>Kolkata</title>
</circle><line x1="1672.959961" y1="1690.959961" x2="1928.959961" y2="1863.959961" stroke="red" stroke-width="6.660000" />
<circle cx="1346.959961" cy="1734.959961" r="19.980000" fill="red">
  <title>Shanghai</title>
</circle><line x1="1928.959961" y1="1863.959961" x2="1346.959961" y2="1734.959961" stroke="red" stroke-width="6.660000" />
<circle cx="1215.959961" cy="1989.959961" r="19.980000" fill="red">
  <title>Cairo</title>
</circle><line x1="1346.959961" y1="1734.959961" x2="1215.959961" y2="1989.959961" stroke="red" stroke-width="6.660000" />
</svg>
