<?xml version="1.0" encoding="UTF-8" standalone="no"?>
<svg width="500" height="500" viewBox="0 0 2074.000000 2074.000000" xmlns="http://www.w3.org/2000/svg">
<rect x="19.000000" y="19.000000" width="2036.000000" height="2036.000000" fill="black" />
<circle cx="1442.959961" cy="620.960022" r="19.980000" fill="red">
  <title>Tokyo</title>
</circle><line x1="1840.959961" y1="53.959999" x2="1442.959961" y2="620.960022" stroke="red" stroke-width="6.660000" />
<circle cx="1232.959961" cy="1259.959961" r="19.980000" fill="red">
  <title>Istanbul</title>
</circle><line x1="1442.959961" y1="620.960022" x2="1232.959961" y2="1259.959961" stroke="red" stroke-width="6.660000" />
<circle cx="1253.959961" cy="1692.959961" r="19.980000" fill="red">
  <title>Mumbai</title>
</circle><line x1="1232.959961" y1="1259.959961" x2="1253.959961" y2="1692.959961" stroke="red" stroke-width="6.660000" />
<circle cx="1072.959961" cy="1796.959961" r="19.980000" fill="red">
  <title>Dhaka</title>
</circle><line x1="1253.959961" y1="1692.959961" x2="1072.959961" y2="1796.959961" stroke="red" stroke-width="6.660000" />
<circle cx="866.960022" cy="1722.959961" r="19.980000" fill="red">
  <title>Chongqing</title>
</circle><line x1="1072.959961" y1="1796.959961" x2="866.960022" y2="1722.959961" stroke="red" stroke-width="6.660000" />
<circle cx="112.959999" cy="1675.959961" r="19.980000" fill="red">
  <title>New York</title>
</circle><line x1="866.960022" y1="1722.959961" x2="112.959999" y2="1675.959961" stroke="red" stroke-width="6.660000" />
<circle cx="80.959999" cy="1045.959961" r="19.980000" fill="red">
  <title>Karachi</title>
</circle><line x1="112.959999" y1="1675.959961" x2="80.959999" y2="1045.959961" stroke="red" stroke-width="6.660000" />
<circle cx="95.959999" cy="652.960022" r="19.980000" fill="red">
  <title>Osaka</title>
</circle><line x1="80.959999" y1="1045.959961" x2="95.959999" y2="652.960022" stroke="red" stroke-width="6.660000" />
<circle cx="320.959991" cy="673.960022" r="19.980000" fill="red">
  <title>Mexico City</title>
</circle><line x1="95.959999" y1="652.960022" x2="320.959991" y2="673.960022" stroke="red" stroke-width="6.660000" />
<circle cx="393.959991" cy="307.959991" r="19.980000" fill="red">
  <title>Buenos Aires</title>
</circle><line x1="320.959991" y1="673.960022" x2="393.959991" y2="307.959991" stroke="red" stroke-width="6.660000" />
<circle cx="485.959991" cy="127.959999" r="19.980000" fill="red">
  <title>Shanghai</title>
</circle><line x1="393.959991" y1="307.959991" x2="485.959991" y2="127.959999" stroke="red" stroke-width="6.660000" />
<circle cx="616.960022" cy="614.960022" r="19.980000" fill="red">
  <title>São Paulo</title>
</circle><line x1="485.959991" y1="127.959999" x2="616.960022" y2="614.960022" stroke="red" stroke-width="6.660000" />
<circle cx="771.960022" cy="804.960022" r="19.980000" fill="red">
  <title>Delhi</title>
</circle><line x1="616.960022" y1="614.960022" x2="771.960022" y2="804.960022" stroke="red" stroke-width="6.660000" />
<circle cx="1320.959961" cy="637.960022" r="19.980000" fill="red">
  <title>Kolkata</title>
</circle><line x1="771.960022" y1="804.960022" x2="1320.959961" y2="637.960022" stroke="red" stroke-width="6.660000" />
<circle cx="1571.959961" cy="570.960022" r="19.980000" fill="red">
  <title>Cairo</title>
</circle><line x1="1320.959961" y1="637.960022" x2="1571.959961" y2="570.960022" stroke="red" stroke-width="6.660000" />
<circle cx="1986.959961" cy="90.959999" r="19.980000" fill="red">
  <title>Beijing</title>
</circle><line x1="1571.959961" y1="570.960022" x2="1986.959961" y2="90.959999" stroke="red" stroke-width="6.660000" />
<circle cx="1840.959961" cy="53.959999" r="19.980000" fill="red">
  <title>Manila</title>
</circle><line x1="1986.959961" y1="90.959999" x2="1840.959961" y2="53.959999" stroke="red" stroke-width="6.660000" />
</svg>
