<?xml version="1.0" encoding="UTF-8" standalone="no"?>
<svg width="500" height="500" viewBox="0 0 2074.000000 2074.000000" xmlns="http://www.w3.org/2000/svg">
<rect x="19.000000" y="19.000000" width="2036.000000" height="2036.000000" fill="black" />
<circle cx="1796.959961" cy="519.960022" r="19.980000" fill="red">
  <title>Tokyo</title>
</circle><line x1="1725.959961" y1="1437.959961" x2="1796.959961" y2="519.960022" stroke="red" stroke-width="6.660000" />
<circle cx="1161.959961" cy="938.960022" r="19.980000" fill="red">
  <title>Delhi</title>
</circle><line x1="1796.959961" y1="519.960022" x2="1161.959961" y2="938.960022" stroke="red" stroke-width="6.660000" />
<circle cx="851.960022" cy="822.960022" r="19.980000" fill="red">
  <title>Mexico City</title>
</circle><line x1="1161.959961" y1="938.960022" x2="851.960022" y2="822.960022" stroke="red" stroke-width="6.660000" />
<circle cx="345.959991" cy="217.959991" r="19.980000" fill="red">
  <title>Osaka</title>
</circle><line x1="851.960022" y1="822.960022" x2="345.959991" y2="217.959991" stroke="red" stroke-width="6.660000" />
<circle cx="557.960022" cy="863.960022" r="19.980000" fill="red">
  <title>Beijing</title>
</circle><line x1="345.959991" y1="217.959991" x2="557.960022" y2="863.960022" stroke="red" stroke-width="6.660000" />
<circle cx="487.959991" cy="1145.959961" r="19.980000" fill="red">
  <title>New York</title>
</circle><line x1="557.960022" y1="863.960022" x2="487.959991" y2="1145.959961" stroke="red" stroke-width="6.660000" />
<circle cx="317.959991" cy="1617.959961" r="19.980000" fill="red">
  <title>Shanghai</title>
</circle><line x1="487.959991" y1="1145.959961" x2="317.959991" y2="1617.959961" stroke="red" stroke-width="6.660000" />
<circle cx="176.959991" cy="1972.959961" r="19.980000" fill="red">
  <title>Cairo</title>
</circle><line x1="317.959991" y1="1617.959961" x2="176.959991" y2="1972.959961" stroke="red" stroke-width="6.660000" />
<circle cx="579.960022" cy="1752.959961" r="19.980000" fill="red">
  <title>Dhaka</title>
</circle><line x1="176.959991" y1="1972.959961" x2="579.960022" y2="1752.959961" stroke="red" stroke-width="6.660000" />
<circle cx="1509.959961" cy="1840.959961" r="19.980000" fill="red">
  <title>Mumbai</title>
</circle><line x1="579.960022" y1="1752.959961" x2="1509.959961" y2="1840.959961" stroke="red" stroke-width="6.660000" />
<circle cx="1807.959961" cy="1780.959961" r="19.980000" fill="red">
  <title>São Paulo</title>
</circle><line x1="1509.959961" y1="1840.959961" x2="1807.959961" y2="1780.959961" stroke="red" stroke-width="6.660000" />
<circle cx="1725.959961" cy="1437.959961" r="19.980000" fill="red">
  <title>Karachi</title>
</circle><line x1="1807.959961" y1="1780.959961" x2="1725.959961" y2="1437.959961" stroke="red" stroke-width="6.660000" />
</svg>
