<?xml version="1.0" encoding="UTF-8" standalone="no"?>
<svg width="500" height="500" viewBox="0 0 2074.000000 2074.000000" xmlns="http://www.w3.org/2000/svg">
<rect x="19.000000" y="19.000000" width="2036.000000" height="2036.000000" fill="black" />
<circle cx="1199.959961" cy="1164.959961" r="19.980000" fill="red">
  <title>Tokyo</title>
</circle><line x1="586.960022" y1="147.959991" x2="1199.959961" y2="1164.959961" stroke="red" stroke-width="6.660000" />
<circle cx="1400.959961" cy="1276.959961" r="19.980000" fill="red">
  <title>Delhi</title>
</circle><line x1="1199.959961" y1="1164.959961" x2="1400.959961" y2="1276.959961" stroke="red" stroke-width="6.660000" />
<circle cx="1776.959961" cy="1485.959961" r="19.980000" fill="red">
  <title>Mumbai</title>
</circle><line x1="1400.959961" y1="1276.959961" x2="1776.959961" y2="1485.959961" stroke="red" stroke-width="6.660000" />
<circle cx="1004.960022" cy="2035.959961" r="19.980000" fill="red">
  <title>Cairo</title>
</circle><line x1="1776.959961" y1="1485.959961" x2="1004.960022" y2="2035.959961" stroke="red" stroke-width="6.660000" />
<circle cx="59.959999" cy="1363.959961" r="19.980000" fill="red">
  <title>São Paulo</title>
</circle><line x1="1004.960022" y1="2035.959961" x2="59.959999" y2="1363.959961" stroke="red" stroke-width="6.660000" />
<circle cx="348.959991" cy="941.960022" r="19.980000" fill="red">
  <title>Shanghai</title>
</circle><line x1="59.959999" y1="1363.959961" x2="348.959991" y2="941.960022" stroke="red" stroke-width="6.660000" />
<circle cx="586.960022" cy="147.959991" r="19.980000" fill="red">
  <title>Mexico City</title>
</circle><line x1="348.959991" y1="941.960022" x2="586.960022" y2="147.959991" stroke="red" stroke-width="6.660000" />
</svg>
