<?xml version="1.0" encoding="UTF-8" standalone="no"?>
<svg width="500" height="500" viewBox="0 0 2074.000000 2074.000000" xmlns="http://www.w3.org/2000/svg">
<rect x="19.000000" y="19.000000" width="2036.000000" height="2036.000000" fill="black" />
<circle cx="1704.959961" cy="1115.959961" r="19.980000" fill="red">
  <title>Tokyo</title>
</circle><line x1="1684.959961" y1="961.960022" x2="1704.959961" y2="1115.959961" stroke="red" stroke-width="6.660000" />
<circle cx="1977.959961" cy="1327.959961" r="19.980000" fill="red">
  <title>São Paulo</title>
</circle><line x1="1704.959961" y1="1115.959961" x2="1977.959961" y2="1327.959961" stroke="red" stroke-width="6.660000" />
<circle cx="1834.959961" cy="1435.959961" r="19.980000" fill="red">
  <title>Chongqing</title>
</circle><line x1="1977.959961" y1="1327.959961" x2="1834.959961" y2="1435.959961" stroke="red" stroke-width="6.660000" />
<circle cx="1940.959961" cy="1793.959961" r="19.980000" fill="red">
  <title>Osaka</title>
</circle><line x1="1834.959961" y1="1435.959961" x2="1940.959961" y2="1793.959961" stroke="red" stroke-width="6.660000" />
<circle cx="1589.959961" cy="2027.959961" r="19.980000" fill="red">
  <title>Dhaka</title>
</circle><line x1="1940.959961" y1="1793.959961" x2="1589.959961" y2="2027.959961" stroke="red" stroke-width="6.660000" />
<circle cx="925.960022" cy="2028.959961" r="19.980000" fill="red">
  <title>Rio de Janeiro</title>
</circle><line x1="1589.959961" y1="2027.959961" x2="925.960022" y2="2028.959961" stroke="red" stroke-width="6.660000" />
<circle cx="727.960022" cy="1930.959961" r="19.980000" fill="red">
  <title>Karachi</title>
</circle><line x1="925.960022" y1="2028.959961" x2="727.960022" y2="1930.959961" stroke="red" stroke-width="6.660000" />
<circle cx="883.960022" cy="1803.959961" r="19.980000" fill="red">
  <title>Mumbai</title>
</circle><line x1="727.960022" y1="1930.959961" x2="883.960022" y2="1803.959961" stroke="red" stroke-width="6.660000" />
<circle cx="796.960022" cy="1718.959961" r="19.980000" fill="red">
  <title>Delhi</title>
</circle><line x1="883.960022" y1="1803.959961" x2="796.960022" y2="1718.959961" stroke="red" stroke-width="6.660000" />
<circle cx="89.959999" cy="1552.959961" r="19.980000" fill="red">
  <title>Lagos</title>
</circle><line x1="796.960022" y1="1718.959961" x2="89.959999" y2="1552.959961" stroke="red" stroke-width="6.660000" />
<circle cx="742.960022" cy="1325.959961" r="19.980000" fill="red">
  <title>Istanbul</title>
</circle><line x1="89.959999" y1="1552.959961" x2="742.960022" y2="1325.959961" stroke="red" stroke-width="6.660000" />
<circle cx="900.960022" cy="1083.959961" r="19.980000" fill="red">
  <title>Beijing</title>
</circle><line x1="742.960022" y1="1325.959961" x2="900.960022" y2="1083.959961" stroke="red" stroke-width="6.660000" />
<circle cx="1187.959961" cy="901.960022" r="19.980000" fill="red">
  <title>Shanghai</title>
</circle><line x1="900.960022" y1="1083.959961" x2="1187.959961" y2="901.960022" stroke="red" stroke-width="6.660000" />
<circle cx="768.960022" cy="385.959991" r="19.980000" fill="red">
  <title>New York</title>
</circle><line x1="1187.959961" y1="901.960022" x2="768.960022" y2="385.959991" stroke="red" stroke-width="6.660000" />
<circle cx="168.959991" cy="226.959991" r="19.980000" fill="red">
  <title>Cairo</title>
</circle><line x1="768.960022" y1="385.959991" x2="168.959991" y2="226.959991" stroke="red" stroke-width="6.660000" />
<circle cx="403.959991" cy="63.959999" r="19.980000" fill="red">
  <title>Manila</title>
</circle><line x1="168.959991" y1="226.959991" x2="403.959991" y2="63.959999" stroke="red" stroke-width="6.660000" />
<circle cx="1305.959961" cy="408.959991" r="19.980000" fill="red">
  <title>Kolkata</title>
</circle><line x1="403.959991" y1="63.959999" x2="1305.959961" y2="408.959991" stroke="red" stroke-width="6.660000" />
<circle cx="1809.959961" cy="716.960022" r="19.980000" fill="red">
  <title>Mexico City</title>
</circle><line x1="1305.959961" y1="408.959991" x2="1809.959961" y2="716.960022" stroke="red" stroke-width="6.660000" />
<circle cx="1684.959961" cy="961.960022" r="19.980000" fill="red">
  <title>Buenos Aires</title>
</circle><line x1="1809.959961" y1="716.960022" x2="1684.959961" y2="961.960022" stroke="red" stroke-width="6.660000" />
</svg>
