<?xml version="1.0" encoding="UTF-8" standalone="no"?>
<svg width="500" height="500" viewBox="0 0 2074.000000 2074.000000" xmlns="http://www.w3.org/2000/svg">
<rect x="19.000000" y="19.000000" width="2036.000000" height="2036.000000" fill="black" />
<circle cx="721.960022" cy="1231.959961" r="19.980000" fill="red">
  <title>Tokyo</title>
</circle><line x1="902.960022" y1="1276.959961" x2="721.960022" y2="1231.959961" stroke="red" stroke-width="6.660000" />
<circle cx="76.959999" cy="1942.959961" r="19.980000" fill="red">
  <title>Mumbai</title>
</circle><line x1="721.960022" y1="1231.959961" x2="76.959999" y2="1942.959961" stroke="red" stroke-width="6.660000" />
<circle cx="903.960022" cy="1729.959961" r="19.980000" fill="red">
  <title>Osaka</title>
</circle><line x1="76.959999" y1="1942.959961" x2="903.960022" y2="1729.959961" stroke="red" stroke-width="6.660000" />
<circle cx="1194.959961" cy="1998.959961" r="19.980000" fill="red">
  <title>Chongqing</title>
</circle><line x1="903.960022" y1="1729.959961" x2="1194.959961" y2="1998.959961" stroke="red" stroke-width="6.660000" />
<circle cx="1387.959961" cy="1644.959961" r="19.980000" fill="red">
  <title>Shanghai</title>
</circle><line x1="1194.959961" y1="1998.959961" x2="1387.959961" y2="1644.959961" stroke="red" stroke-width="6.660000" />
<circle cx="1946.959961" cy="1576.959961" r="19.980000" fill="red">
  <title>Manila</title>
</circle><line x1="1387.959961" y1="1644.959961" x2="1946.959961" y2="1576.959961" stroke="red" stroke-width="6.660000" />
<circle cx="1863.959961" cy="884.960022" r="19.980000" fill="red">
  <title>Delhi</title>
</circle><line x1="1946.959961" y1="1576.959961" x2="1863.959961" y2="884.960022" stroke="red" stroke-width="6.660000" />
<circle cx="1733.959961" cy="754.960022" r="19.980000" fill="red">
  <title>Istanbul</title>
</circle><line x1="1863.959961" y1="884.960022" x2="1733.959961" y2="754.960022" stroke="red" stroke-width="6.660000" />
<circle cx="1999.959961" cy="540.960022" r="19.980000" fill="red">
  <title>Buenos Aires</title>
</circle><line x1="1733.959961" y1="754.960022" x2="1999.959961" y2="540.960022" stroke="red" stroke-width="6.660000" />
<circle cx="1751.959961" cy="417.959991" r="19.980000" fill="red">
  <title>Kolkata</title>
</circle><line x1="1999.959961" y1="540.960022" x2="1751.959961" y2="417.959991" stroke="red" stroke-width="6.660000" />
<circle cx="1605.959961" cy="186.959991" r="19.980000" fill="red">
  <title>Cairo</title>
</circle><line x1="1751.959961" y1="417.959991" x2="1605.959961" y2="186.959991" stroke="red" stroke-width="6.660000" />
<circle cx="907.960022" cy="225.959991" r="19.980000" fill="red">
  <title>Beijing</title>
</circle><line x1="1605.959961" y1="186.959991" x2="907.960022" y2="225.959991" stroke="red" stroke-width="6.660000" />
<circle cx="59.959999" cy="297.959991" r="19.980000" fill="red">
  <title>Mexico City</title>
</circle><line x1="907.960022" y1="225.959991" x2="59.959999" y2="297.959991" stroke="red" stroke-width="6.660000" />
<circle cx="329.959991" cy="1042.959961" r="19.980000" fill="red">
  <title>Dhaka</title>
</circle><line x1="59.959999" y1="297.959991" x2="329.959991" y2="1042.959961" stroke="red" stroke-width="6.660000" />
<circle cx="809.960022" cy="1110.959961" r="19.980000" fill="red">
  <title>New York</title>
</circle><line x1="329.959991" y1="1042.959961" x2="809.960022" y2="1110.959961" stroke="red" stroke-width="6.660000" />
<circle cx="892.960022" cy="1185.959961" r="19.980000" fill="red">
  <title>São Paulo</title>
</circle><line x1="809.960022" y1="1110.959961" x2="892.960022" y2="1185.959961" stroke="red" stroke-width="6.660000" />
<circle cx="1262.959961" cy="1296.959961" r="19.980000" fill="red">
  <title>Lagos</title>
</circle><line x1="892.960022" y1="1185.959961" x2="1262.959961" y2="1296.959961" stroke="red" stroke-width="6.660000" />
<circle cx="902.960022" cy="1276.959961" r="19.980000" fill="red">
  <title>Karachi</title>
</circle><line x1="1262.959961" y1="1296.959961" x2="902.960022" y2="1276.959961" stroke="red" stroke-width="6.660000" />
</svg>
