<?xml version="1.0" encoding="UTF-8" standalone="no"?>
<svg width="500" height="500" viewBox="0 0 2074.000000 2074.000000" xmlns="http://www.w3.org/2000/svg">
<rect x="19.000000" y="19.000000" width="2036.000000" height="2036.000000" fill="black" />
<circle cx="763.960022" cy="122.959999" r="19.980000" fill="red">
  <title>Tokyo</title>
</circle><line x1="513.960022" y1="757.960022" x2="763.960022" y2="122.959999" stroke="red" stroke-width="6.660000" />
<circle cx="1645.959961" cy="318.959991" r="19.980000" fill="red">
  <title>Delhi</title>
</circle><line x1="763.960022" y1="122.959999" x2="1645.959961" y2="318.959991" stroke="red" stroke-width="6.660000" />
<circle cx="1665.959961" cy="546.960022" r="19.980000" fill="red">
  <title>São Paulo</title>
</circle><line x1="1645.959961" y1="318.959991" x2="1665.959961" y2="546.960022" stroke="red" stroke-width="6.660000" />
<circle cx="1591.959961" cy="1615.959961" r="19.980000" fill="red">
  <title>New York</title>
</circle><line x1="1665.959961" y1="546.960022" x2="1591.959961" y2="1615.959961" stroke="red" stroke-width="6.660000" />
<circle cx="1031.959961" cy="1872.959961" r="19.980000" fill="red">
  <title>Mexico City</title>
</circle><line x1="1591.959961" y1="1615.959961" x2="1031.959961" y2="1872.959961" stroke="red" stroke-width="6.660000" />
<circle cx="599.960022" cy="1681.959961" r="19.980000" fill="red">
  <title>Beijing</title>
</circle><line x1="1031.959961" y1="1872.959961" x2="599.960022" y2="1681.959961" stroke="red" stroke-width="6.660000" />
<circle cx="240.959991" cy="1806.959961" r="19.980000" fill="red">
  <title>Osaka</title>
</circle><line x1="599.960022" y1="1681.959961" x2="240.959991" y2="1806.959961" stroke="red" stroke-width="6.660000" />
<circle cx="142.959991" cy="1068.959961" r="19.980000" fill="red">
  <title>Cairo</title>
</circle><line x1="240.959991" y1="1806.959961" x2="142.959991" y2="1068.959961" stroke="red" stroke-width="6.660000" />
<circle cx="216.959991" cy="672.960022" r="19.980000" fill="red">
  <title>Shanghai</title>
</circle><line x1="142.959991" y1="1068.959961" x2="216.959991" y2="672.960022" stroke="red" stroke-width="6.660000" />
<circle cx="316.959991" cy="636.960022" r="19.980000" fill="red">
  <title>Dhaka</title>
</circle><line x1="216.959991" y1="672.960022" x2="316.959991" y2="636.960022" stroke="red" stroke-width="6.660000" />
<circle cx="513.960022" cy="757.960022" r="19.980000" fill="red">
  <title>Mumbai</title>
</circle><line x1="316.959991" y1="636.960022" x2="513.960022" y2="757.960022" stroke="red" stroke-width="6.660000" />
</svg>
