<?xml version="1.0" encoding="UTF-8" standalone="no"?>
<svg width="500" height="500" viewBox="0 0 2074.000000 2074.000000" xmlns="http://www.w3.org/2000/svg">
<rect x="19.000000" y="19.000000" width="2036.000000" height="2036.000000" fill="black" />
<circle cx="1748.959961" cy="640.960022" r="19.980000" fill="red">
  <title>Tokyo</title>
</circle><line x1="1943.959961" y1="527.960022" x2="1748.959961" y2="640.960022" stroke="red" stroke-width="6.660000" />
<circle cx="1669.959961" cy="1362.959961" r="19.980000" fill="red">
  <title>Delhi</title>
</circle><line x1="1748.959961" y1="640.960022" x2="1669.959961" y2="1362.959961" stroke="red" stroke-width="6.660000" />
<circle cx="1721.959961" cy="1848.959961" r="19.980000" fill="red">
  <title>Shanghai</title>
</circle><line x1="1669.959961" y1="1362.959961" x2="1721.959961" y2="1848.959961" stroke="red" stroke-width="6.660000" />
<circle cx="1468.959961" cy="1637.959961" r="19.980000" fill="red">
  <title>Cairo</title>
</circle><line x1="1721.959961" y1="1848.959961" x2="1468.959961" y2="1637.959961" stroke="red" stroke-width="6.660000" />
<circle cx="1216.959961" cy="1378.959961" r="19.980000" fill="red">
  <title>Mumbai</title>
</circle><line x1="1468.959961" y1="1637.959961" x2="1216.959961" y2="1378.959961" stroke="red" stroke-width="6.660000" />
<circle cx="1219.959961" cy="951.960022" r="19.980000" fill="red">
  <title>São Paulo</title>
</circle><line x1="1216.959961" y1="1378.959961" x2="1219.959961" y2="951.960022" stroke="red" stroke-width="6.660000" />
<circle cx="1250.959961" cy="560.960022" r="19.980000" fill="red">
  <title>Mexico City</title>
</circle><line x1="1219.959961" y1="951.960022" x2="1250.959961" y2="560.960022" stroke="red" stroke-width="6.660000" />
<circle cx="1943.959961" cy="527.960022" r="19.980000" fill="red">
  <title>Beijing</title>
</circle><line x1="1250.959961" y1="560.960022" x2="1943.959961" y2="527.960022" stroke="red" stroke-width="6.660000" />
</svg>
