<?xml version="1.0" encoding="UTF-8" standalone="no"?>
<svg width="500" height="500" viewBox="0 0 2074.000000 2074.000000" xmlns="http://www.w3.org/2000/svg">
<rect x="19.000000" y="19.000000" width="2036.000000" height="2036.000000" fill="black" />
<circle cx="130.959991" cy="487.959991" r="19.980000" fill="red">
  <title>Tokyo</title>
</circle><line x1="720.960022" y1="505.959991" x2="130.959991" y2="487.959991" stroke="red" stroke-width="6.660000" />
<circle cx="199.959991" cy="868.960022" r="19.980000" fill="red">
  <title>Shanghai</title>
</circle><line x1="130.959991" y1="487.959991" x2="199.959991" y2="868.960022" stroke="red" stroke-width="6.660000" />
<circle cx="732.960022" cy="1090.959961" r="19.980000" fill="red">
  <title>Dhaka</title>
</circle><line x1="199.959991" y1="868.960022" x2="732.960022" y2="1090.959961" stroke="red" stroke-width="6.660000" />
<circle cx="1053.959961" cy="1127.959961" r="19.980000" fill="red">
  <title>Delhi</title>
</circle><line x1="732.960022" y1="1090.959961" x2="1053.959961" y2="1127.959961" stroke="red" stroke-width="6.660000" />
<circle cx="1308.959961" cy="713.960022" r="19.980000" fill="red">
  <title>Mexico City</title>
</circle><line x1="1053.959961" y1="1127.959961" x2="1308.959961" y2="713.960022" stroke="red" stroke-width="6.660000" />
<circle cx="1356.959961" cy="550.960022" r="19.980000" fill="red">
  <title>São Paulo</title>
</circle><line x1="1308.959961" y1="713.960022" x2="1356.959961" y2="550.960022" stroke="red" stroke-width="6.660000" />
<circle cx="1497.959961" cy="109.959999" r="19.980000" fill="red">
  <title>Osaka</title>
</circle><line x1="1356.959961" y1="550.960022" x2="1497.959961" y2="109.959999" stroke="red" stroke-width="6.660000" />
<circle cx="1201.959961" cy="235.959991" r="19.980000" fill="red">
  <title>Cairo</title>
</circle><line x1="1497.959961" y1="109.959999" x2="1201.959961" y2="235.959991" stroke="red" stroke-width="6.660000" />
<circle cx="1056.959961" cy="253.959991" r="19.980000" fill="red">
  <title>Beijing</title>
</circle><line x1="1201.959961" y1="235.959991" x2="1056.959961" y2="253.959991" stroke="red" stroke-width="6.660000" />
<circle cx="720.960022" cy="505.959991" r="19.980000" fill="red">
  <title>Mumbai</title>
</circle><line x1="1056.959961" y1="253.959991" x2="720.960022" y2="505.959991" stroke="red" stroke-width="6.660000" />
</svg>
