<?xml version="1.0" encoding="UTF-8" standalone="no"?>
<svg width="500" height="500" viewBox="0 0 2074.000000 2074.000000" xmlns="http://www.w3.org/2000/svg">
<rect x="19.000000" y="19.000000" width="2036.000000" height="2036.000000" fill="black" />
<circle cx="810.960022" cy="573.960022" r="19.980000" fill="red">
  <title>Tokyo</title>
</circle><line x1="872.960022" y1="515.960022" x2="810.960022" y2="573.960022" stroke="red" stroke-width="6.660000" />
<circle cx="367.959991" cy="222.959991" r="19.980000" fill="red">
  <title>Dhaka</title>
</circle><line x1="810.960022" y1="573.960022" x2="367.959991" y2="222.959991" stroke="red" stroke-width="6.660000" />
<circle cx="224.959991" cy="766.960022" r="19.980000" fill="red">
  <title>Karachi</title>
</circle><line x1="367.959991" y1="222.959991" x2="224.959991" y2="766.960022" stroke="red" stroke-width="6.660000" />
<circle cx="70.959999" cy="821.960022" r="19.980000" fill="red">
  <title>New York</title>
</circle><line x1="224.959991" y1="766.960022" x2="70.959999" y2="821.960022" stroke="red" stroke-width="6.660000" />
<circle cx="384.959991" cy="984.960022" r="19.980000" fill="red">
  <title>Buenos Aires</title>
</circle><line x1="70.959999" y1="821.960022" x2="384.959991" y2="984.960022" stroke="red" stroke-width="6.660000" />
<circle cx="274.959991" cy="1487.959961" r="19.980000" fill="red">
  <title>Manila</title>
</circle><line x1="384.959991" y1="984.960022" x2="274.959991" y2="1487.959961" stroke="red" stroke-width="6.660000" />
<circle cx="95.959999" cy="1734.959961" r="19.980000" fill="red">
  <title>Kolkata</title>
</circle><line x1="274.959991" y1="1487.959961" x2="95.959999" y2="1734.959961" stroke="red" stroke-width="6.660000" />
<circle cx="445.959991" cy="1964.959961" r="19.980000" fill="red">
  <title>São Paulo</title>
</circle><line x1="95.959999" y1="1734.959961" x2="445.959991" y2="1964.959961" stroke="red" stroke-width="6.660000" />
<circle cx="963.960022" cy="1739.959961" r="19.980000" fill="red">
  <title>Istanbul</title>
</circle><line x1="445.959991" y1="1964.959961" x2="963.960022" y2="1739.959961" stroke="red" stroke-width="6.660000" />
<circle cx="1169.959961" cy="2001.959961" r="19.980000" fill="red">
  <title>Shanghai</title>
</circle><line x1="963.960022" y1="1739.959961" x2="1169.959961" y2="2001.959961" stroke="red" stroke-width="6.660000" />
<circle cx="1204.959961" cy="1568.959961" r="19.980000" fill="red">
  <title>Beijing</title>
</circle><line x1="1169.959961" y1="2001.959961" x2="1204.959961" y2="1568.959961" stroke="red" stroke-width="6.660000" />
<circle cx="656.960022" cy="1466.959961" r="19.980000" fill="red">
  <title>Osaka</title>
</circle><line x1="1204.959961" y1="1568.959961" x2="656.960022" y2="1466.959961" stroke="red" stroke-width="6.660000" />
<circle cx="774.960022" cy="1115.959961" r="19.980000" fill="red">
  <title>Cairo</title>
</circle><line x1="656.960022" y1="1466.959961" x2="774.960022" y2="1115.959961" stroke="red" stroke-width="6.660000" />
<circle cx="919.960022" cy="661.960022" r="19.980000" fill="red">
  <title>Mexico City</title>
</circle><line x1="774.960022" y1="1115.959961" x2="919.960022" y2="661.960022" stroke="red" stroke-width="6.660000" />
<circle cx="1430.959961" cy="601.960022" r="19.980000" fill="red">
  <title>Delhi</title>
</circle><line x1="919.960022" y1="661.960022" x2="1430.959961" y2="601.960022" stroke="red" stroke-width="6.660000" />
<circle cx="1481.959961" cy="315.959991" r="19.980000" fill="red">
  <title>Mumbai</title>
</circle><line x1="1430.959961" y1="601.960022" x2="1481.959961" y2="315.959991" stroke="red" stroke-width="6.660000" />
<circle cx="872.960022" cy="515.960022" r="19.980000" fill="red">
  <title>Chongqing</title>
</circle><line x1="1481.959961" y1="315.959991" x2="872.960022" y2="515.960022" stroke="red" stroke-width="6.660000" />
</svg>
