<?xml version="1.0" encoding="UTF-8" standalone="no"?>
<svg width="500" height="500" viewBox="0 0 2074.000000 2074.000000" xmlns="http://www.w3.org/2000/svg">
<rect x="19.000000" y="19.000000" width="2036.000000" height="2036.000000" fill="black" />
<circle cx="1540.959961" cy="830.960022" r="19.980000" fill="red">
  <title>Tokyo</title>
</circle><line x1="1187.959961" y1="940.960022" x2="1540.959961" y2="830.960022" stroke="red" stroke-width="6.660000" />
<circle cx="1813.959961" cy="937.960022" r="19.980000" fill="red">
  <title>Shanghai</title>
</circle><line x1="1540.959961" y1="830.960022" x2="1813.959961" y2="937.960022" stroke="red" stroke-width="6.660000" />
<circle cx="1805.959961" cy="1014.960022" r="19.980000" fill="red">
  <title>São Paulo</title>
</circle><line x1="1813.959961" y1="937.960022" x2="1805.959961" y2="1014.960022" stroke="red" stroke-width="6.660000" />
<circle cx="1905.959961" cy="1218.959961" r="19.980000" fill="red">
  <title>Beijing</title>
</circle><line x1="1805.959961" y1="1014.960022" x2="1905.959961" y2="1218.959961" stroke="red" stroke-width="6.660000" />
<circle cx="1953.959961" cy="1719.959961" r="19.980000" fill="red">
  <title>Mumbai</title>
</circle><line x1="1905.959961" y1="1218.959961" x2="1953.959961" y2="1719.959961" stroke="red" stroke-width="6.660000" />
<circle cx="1447.959961" cy="1486.959961" r="19.980000" fill="red">
  <title>Dhaka</title>
</circle><line x1="1953.959961" y1="1719.959961" x2="1447.959961" y2="1486.959961" stroke="red" stroke-width="6.660000" />
<circle cx="1211.959961" cy="1591.959961" r="19.980000" fill="red">
  <title>Cairo</title>
</circle><line x1="1447.959961" y1="1486.959961" x2="1211.959961" y2="1591.959961" stroke="red" stroke-width="6.660000" />
<circle cx="406.959991" cy="1901.959961" r="19.980000" fill="red">
  <title>New York</title>
</circle><line x1="1211.959961" y1="1591.959961" x2="406.959991" y2="1901.959961" stroke="red" stroke-width="6.660000" />
<circle cx="1136.959961" cy="1643.959961" r="19.980000" fill="red">
  <title>Delhi</title>
</circle><line x1="406.959991" y1="1901.959961" x2="1136.959961" y2="1643.959961" stroke="red" stroke-width="6.660000" />
<circle cx="1128.959961" cy="1208.959961" r="19.980000" fill="red">
  <title>Mexico City</title>
</circle><line x1="1136.959961" y1="1643.959961" x2="1128.959961" y2="1208.959961" stroke="red" stroke-width="6.660000" />
<circle cx="506.959991" cy="274.959991" r="19.980000" fill="red">
  <title>Karachi</title>
</circle><line x1="1128.959961" y1="1208.959961" x2="506.959991" y2="274.959991" stroke="red" stroke-width="6.660000" />
<circle cx="1187.959961" cy="940.960022" r="19.980000" fill="red">
  <title>Osaka</title>
</circle><line x1="506.959991" y1="274.959991" x2="1187.959961" y2="940.960022" stroke="red" stroke-width="6.660000" />
</svg>
