<?xml version="1.0" encoding="UTF-8" standalone="no"?>
<svg width="500" height="500" viewBox="0 0 2074.000000 2074.000000" xmlns="http://www.w3.org/2000/svg">
<rect x="19.000000" y="19.000000" width="2036.000000" height="2036.000000" fill="black" />
<circle cx="309.959991" cy="474.959991" r="19.980000" fill="red">
  <title>Tokyo</title>
</circle><line x1="255.959991" y1="641.960022" x2="309.959991" y2="474.959991" stroke="red" stroke-width="6.660000" />
<circle cx="44.959999" cy="427.959991" r="19.980000" fill="red">
  <title>Osaka</title>
</circle><line x1="309.959991" y1="474.959991" x2="44.959999" y2="427.959991" stroke="red" stroke-width="6.660000" />
<circle cx="207.959991" cy="271.959991" r="19.980000" fill="red">
  <title>Mexico City</title>
</circle><line x1="44.959999" y1="427.959991" x2="207.959991" y2="271.959991" stroke="red" stroke-width="6.660000" />
<circle cx="856.960022" cy="79.959999" r="19.980000" fill="red">
  <title>Delhi</title>
</circle><line x1="207.959991" y1="271.959991" x2="856.960022" y2="79.959999" stroke="red" stroke-width="6.660000" />
<circle cx="948.960022" cy="463.959991" r="19.980000" fill="red">
  <title>Cairo</title>
</circle><line x1="856.960022" y1="79.959999" x2="948.960022" y2="463.959991" stroke="red" stroke-width="6.660000" />
<circle cx="1545.959961" cy="519.960022" r="19.980000" fill="red">
  <title>Chongqing</title>
</circle><line x1="948.960022" y1="463.959991" x2="1545.959961" y2="519.960022" stroke="red" stroke-width="6.660000" />
<circle cx="1726.959961" cy="842.960022" r="19.980000" fill="red">
  <title>Karachi</title>
</circle><line x1="1545.959961" y1="519.960022" x2="1726.959961" y2="842.960022" stroke="red" stroke-width="6.660000" />
<circle cx="1985.959961" cy="930.960022" r="19.980000" fill="red">
  <title>Kolkata</title>
</circle><line x1="1726.959961" y1="842.960022" x2="1985.959961" y2="930.960022" stroke="red" stroke-width="6.660000" />
<circle cx="1755.959961" cy="1528.959961" r="19.980000" fill="red">
  <title>Shanghai</title>
</circle><line x1="1985.959961" y1="930.960022" x2="1755.959961" y2="1528.959961" stroke="red" stroke-width="6.660000" />
<circle cx="1599.959961" cy="1662.959961" r="19.980000" fill="red">
  <title>São Paulo</title>
</circle><line x1="1755.959961" y1="1528.959961" x2="1599.959961" y2="1662.959961" stroke="red" stroke-width="6.660000" />
<circle cx="1422.959961" cy="1884.959961" r="19.980000" fill="red">
  <title>Dhaka</title>
</circle><line x1="1599.959961" y1="1662.959961" x2="1422.959961" y2="1884.959961" stroke="red" stroke-width="6.660000" />
<circle cx="659.960022" cy="1757.959961" r="19.980000" fill="red">
  <title>Istanbul</title>
</circle><line x1="1422.959961" y1="1884.959961" x2="659.960022" y2="1757.959961" stroke="red" stroke-width="6.660000" />
<circle cx="380.959991" cy="2008.959961" r="19.980000" fill="red">
  <title>Beijing</title>
</circle><line x1="659.960022" y1="1757.959961" x2="380.959991" y2="2008.959961" stroke="red" stroke-width="6.660000" />
<circle cx="393.959991" cy="1828.959961" r="19.980000" fill="red">
  <title>Buenos Aires</title>
</circle><line x1="380.959991" y1="2008.959961" x2="393.959991" y2="1828.959961" stroke="red" stroke-width="6.660000" />
<circle cx="621.960022" cy="721.960022" r="19.980000" fill="red">
  <title>Mumbai</title>
</circle><line x1="393.959991" y1="1828.959961" x2="621.960022" y2="721.960022" stroke="red" stroke-width="6.660000" />
<circle cx="255.959991" cy="641.960022" r="19.980000" fill="red">
  <title>New York</title>
</circle><line x1="621.960022" y1="721.960022" x2="255.959991" y2="641.960022" stroke="red" stroke-width="6.660000" />
</svg>
