<?xml version="1.0" encoding="UTF-8" standalone="no"?>
<svg width="500" height="500" viewBox="0 0 2074.000000 2074.000000" xmlns="http://www.w3.org/2000/svg">
<rect x="19.000000" y="19.000000" width="2036.000000" height="2036.000000" fill="black" />
<circle cx="850.960022" cy="636.960022" r="19.980000" fill="red">
  <title>Tokyo</title>
</circle><line x1="1017.960022" y1="618.960022" x2="850.960022" y2="636.960022" stroke="red" stroke-width="6.660000" />
<circle cx="781.960022" cy="726.960022" r="19.980000" fill="red">
  <title>Istanbul</title>
</circle><line x1="850.960022" y1="636.960022" x2="781.960022" y2="726.960022" stroke="red" stroke-width="6.660000" />
<circle cx="548.960022" cy="734.960022" r="19.980000" fill="red">
  <title>Beijing</title>
</circle><line x1="781.960022" y1="726.960022" x2="548.960022" y2="734.960022" stroke="red" stroke-width="6.660000" />
<circle cx="534.960022" cy="1020.960022" r="19.980000" fill="red">
  <title>Buenos Aires</title>
</circle><line x1="548.960022" y1="734.960022" x2="534.960022" y2="1020.960022" stroke="red" stroke-width="6.660000" />
<circle cx="604.960022" cy="1191.959961" r="19.980000" fill="red">
  <title>Osaka</title>
</circle><line x1="534.960022" y1="1020.960022" x2="604.960022" y2="1191.959961" stroke="red" stroke-width="6.660000" />
<circle cx="722.960022" cy="1412.959961" r="19.980000" fill="red">
  <title>Chongqing</title>
</circle><line x1="604.960022" y1="1191.959961" x2="722.960022" y2="1412.959961" stroke="red" stroke-width="6.660000" />
<circle cx="1050.959961" cy="1593.959961" r="19.980000" fill="red">
  <title>Kolkata</title>
</circle><line x1="722.960022" y1="1412.959961" x2="1050.959961" y2="1593.959961" stroke="red" stroke-width="6.660000" />
<circle cx="1687.959961" cy="1665.959961" r="19.980000" fill="red">
  <title>São Paulo</title>
</circle><line x1="1050.959961" y1="1593.959961" x2="1687.959961" y2="1665.959961" stroke="red" stroke-width="6.660000" />
<circle cx="1783.959961" cy="1465.959961" r="19.980000" fill="red">
  <title>Mexico City</title>
</circle><line x1="1687.959961" y1="1665.959961" x2="1783.959961" y2="1465.959961" stroke="red" stroke-width="6.660000" />
<circle cx="1651.959961" cy="1319.959961" r="19.980000" fill="red">
  <title>Shanghai</title>
</circle><line x1="1783.959961" y1="1465.959961" x2="1651.959961" y2="1319.959961" stroke="red" stroke-width="6.660000" />
<circle cx="1953.959961" cy="746.960022" r="19.980000" fill="red">
  <title>Dhaka</title>
</circle><line x1="1651.959961" y1="1319.959961" x2="1953.959961" y2="746.960022" stroke="red" stroke-width="6.660000" />
<circle cx="1186.959961" cy="961.960022" r="19.980000" fill="red">
  <title>New York</title>
</circle><line x1="1953.959961" y1="746.960022" x2="1186.959961" y2="961.960022" stroke="red" stroke-width="6.660000" />
<circle cx="1100.959961" cy="750.960022" r="19.980000" fill="red">
  <title>Karachi</title>
</circle><line x1="1186.959961" y1="961.960022" x2="1100.959961" y2="750.960022" stroke="red" stroke-width="6.660000" />
<circle cx="1189.959961" cy="514.960022" r="19.980000" fill="red">
  <title>Delhi</title>
</circle><line x1="1100.959961" y1="750.960022" x2="1189.959961" y2="514.960022" stroke="red" stroke-width="6.660000" />
<circle cx="1324.959961" cy="201.959991" r="19.980000" fill="red">
  <title>Manila</title>
</circle><line x1="1189.959961" y1="514.960022" x2="1324.959961" y2="201.959991" stroke="red" stroke-width="6.660000" />
<circle cx="1102.959961" cy="472.959991" r="19.980000" fill="red">
  <title>Cairo</title>
</circle><line x1="1324.959961" y1="201.959991" x2="1102.959961" y2="472.959991" stroke="red" stroke-width="6.660000" />
<circle cx="1017.960022" cy="618.960022" r="19.980000" fill="red">
  <title>Mumbai</title>
</circle><line x1="1102.959961" y1="472.959991" x2="1017.960022" y2="618.960022" stroke="red" stroke-width="6.660000" />
</svg>
