<?xml version="1.0" encoding="UTF-8" standalone="no"?>
<svg width="500" height="500" viewBox="0 0 2074.000000 2074.000000" xmlns="http://www.w3.org/2000/svg">
<rect x="19.000000" y="19.000000" width="2036.000000" height="2036.000000" fill="black" />
<circle cx="588.960022" cy="283.959991" r="19.980000" fill="red">
  <title>Tokyo</title>
</circle><line x1="539.960022" y1="295.959991" x2="588.960022" y2="283.959991" stroke="red" stroke-width="6.660000" />
<circle cx="871.960022" cy="493.959991" r="19.980000" fill="red">
  <title>Osaka</title>
</circle><line x1="588.960022" y1="283.959991" x2="871.960022" y2="493.959991" stroke="red" stroke-width="6.660000" />
<circle cx="1406.959961" cy="507.959991" r="19.980000" fill="red">
  <title>New York</title>
</circle><line x1="871.960022" y1="493.959991" x2="1406.959961" y2="507.959991" stroke="red" stroke-width="6.660000" />
<circle cx="1558.959961" cy="121.959999" r="19.980000" fill="red">
  <title>Shanghai</title>
</circle><line x1="1406.959961" y1="507.959991" x2="1558.959961" y2="121.959999" stroke="red" stroke-width="6.660000" />
<circle cx="1634.959961" cy="404.959991" r="19.980000" fill="red">
  <title>Manila</title>
</circle><line x1="1558.959961" y1="121.959999" x2="1634.959961" y2="404.959991" stroke="red" stroke-width="6.660000" />
<circle cx="1849.959961" cy="877.960022" r="19.980000" fill="red">
  <title>Buenos Aires</title>
</circle><line x1="1634.959961" y1="404.959991" x2="1849.959961" y2="877.960022" stroke="red" stroke-width="6.660000" />
<circle cx="1845.959961" cy="1114.959961" r="19.980000" fill="red">
  <title>Dhaka</title>
</circle><line x1="1849.959961" y1="877.960022" x2="1845.959961" y2="1114.959961" stroke="red" stroke-width="6.660000" />
<circle cx="1985.959961" cy="1149.959961" r="19.980000" fill="red">
  <title>Beijing</title>
</circle><line x1="1845.959961" y1="1114.959961" x2="1985.959961" y2="1149.959961" stroke="red" stroke-width="6.660000" />
<circle cx="1995.959961" cy="1835.959961" r="19.980000" fill="red">
  <title>Kolkata</title>
</circle><line x1="1985.959961" y1="1149.959961" x2="1995.959961" y2="1835.959961" stroke="red" stroke-width="6.660000" />
<circle cx="1571.959961" cy="1440.959961" r="19.980000" fill="red">
  <title>Mumbai</title>
</circle><line x1="1995.959961" y1="1835.959961" x2="1571.959961" y2="1440.959961" stroke="red" stroke-width="6.660000" />
<circle cx="1286.959961" cy="1390.959961" r="19.980000" fill="red">
  <title>Istanbul</title>
</circle><line x1="1571.959961" y1="1440.959961" x2="1286.959961" y2="1390.959961" stroke="red" stroke-width="6.660000" />
<circle cx="1019.960022" cy="1155.959961" r="19.980000" fill="red">
  <title>Lagos</title>
</circle><line x1="1286.959961" y1="1390.959961" x2="1019.960022" y2="1155.959961" stroke="red" stroke-width="6.660000" />
<circle cx="1006.960022" cy="1195.959961" r="19.980000" fill="red">
  <title>Karachi</title>
</circle><line x1="1019.960022" y1="1155.959961" x2="1006.960022" y2="1195.959961" stroke="red" stroke-width="6.660000" />
<circle cx="1072.959961" cy="1767.959961" r="19.980000" fill="red">
  <title>Mexico City</title>
</circle><line x1="1006.960022" y1="1195.959961" x2="1072.959961" y2="1767.959961" stroke="red" stroke-width="6.660000" />
<circle cx="1200.959961" cy="1854.959961" r="19.980000" fill="red">
  <title>Cairo</title>
</circle><line x1="1072.959961" y1="1767.959961" x2="1200.959961" y2="1854.959961" stroke="red" stroke-width="6.660000" />
<circle cx="698.960022" cy="1780.959961" r="19.980000" fill="red">
  <title>São Paulo</title>
</circle><line x1="1200.959961" y1="1854.959961" x2="698.960022" y2="1780.959961" stroke="red" stroke-width="6.660000" />
<circle cx="446.959991" cy="1221.959961" r="19.980000" fill="red">
  <title>Delhi</title>
</circle><line x1="698.960022" y1="1780.959961" x2="446.959991" y2="1221.959961" stroke="red" stroke-width="6.660000" />
<circle cx="539.960022" cy="295.959991" r="19.980000" fill="red">
  <title>Chongqing</title>
</circle><line x1="446.959991" y1="1221.959961" x2="539.960022" y2="295.959991" stroke="red" stroke-width="6.660000" />
</svg>
