<?xml version="1.0" encoding="UTF-8" standalone="no"?>
<svg width="500" height="500" viewBox="0 0 2074.000000 2074.000000" xmlns="http://www.w3.org/2000/svg">
<rect x="19.000000" y="19.000000" width="2036.000000" height="2036.000000" fill="black" />
<circle cx="1097.959961" cy="1738.959961" r="19.980000" fill="red">
  <title>Tokyo</title>
</circle><line x1="866.960022" y1="1458.959961" x2="1097.959961" y2="1738.959961" stroke="red" stroke-width="6.660000" />
<circle cx="771.960022" cy="1857.959961" r="19.980000" fill="red">
  <title>Mexico City</title>
</circle><line x1="1097.959961" y1="1738.959961" x2="771.960022" y2="1857.959961" stroke="red" stroke-width="6.660000" />
<circle cx="367.959991" cy="1990.959961" r="19.980000" fill="red">
  <title>Lagos</title>
</circle><line x1="771.960022" y1="1857.959961" x2="367.959991" y2="1990.959961" stroke="red" stroke-width="6.660000" />
<circle cx="349.959991" cy="1629.959961" r="19.980000" fill="red">
  <title>Rio de Janeiro</title>
</circle><line x1="367.959991" y1="1990.959961" x2="349.959991" y2="1629.959961" stroke="red" stroke-width="6.660000" />
<circle cx="232.959991" cy="1562.959961" r="19.980000" fill="red">
  <title>Shanghai</title>
</circle><line x1="349.959991" y1="1629.959961" x2="232.959991" y2="1562.959961" stroke="red" stroke-width="6.660000" />
<circle cx="666.960022" cy="1210.959961" r="19.980000" fill="red">
  <title>Dhaka</title>
</circle><line x1="232.959991" y1="1562.959961" x2="666.960022" y2="1210.959961" stroke="red" stroke-width="6.660000" />
<circle cx="542.960022" cy="637.960022" r="19.980000" fill="red">
  <title>New York</title>
</circle><line x1="666.960022" y1="1210.959961" x2="542.960022" y2="637.960022" stroke="red" stroke-width="6.660000" />
<circle cx="259.959991" cy="275.959991" r="19.980000" fill="red">
  <title>Delhi</title>
</circle><line x1="542.960022" y1="637.960022" x2="259.959991" y2="275.959991" stroke="red" stroke-width="6.660000" />
<circle cx="554.960022" cy="189.959991" r="19.980000" fill="red">
  <title>Karachi</title>
</circle><line x1="259.959991" y1="275.959991" x2="554.960022" y2="189.959991" stroke="red" stroke-width="6.660000" />
<circle cx="518.960022" cy="41.959999" r="19.980000" fill="red">
  <title>Beijing</title>
</circle><line x1="554.960022" y1="189.959991" x2="518.960022" y2="41.959999" stroke="red" stroke-width="6.660000" />
<circle cx="604.960022" cy="130.959991" r="19.980000" fill="red">
  <title>Kolkata</title>
</circle><line x1="518.960022" y1="41.959999" x2="604.960022" y2="130.959991" stroke="red" stroke-width="6.660000" />
<circle cx="1070.959961" cy="97.959999" r="19.980000" fill="red">
  <title>Istanbul</title>
</circle><line x1="604.960022" y1="130.959991" x2="1070.959961" y2="97.959999" stroke="red" stroke-width="6.660000" />
<circle cx="1301.959961" cy="784.960022" r="19.980000" fill="red">
  <title>São Paulo</title>
</circle><line x1="1070.959961" y1="97.959999" x2="1301.959961" y2="784.960022" stroke="red" stroke-width="6.660000" />
<circle cx="1797.959961" cy="825.960022" r="19.980000" fill="red">
  <title>Manila</title>
</circle><line x1="1301.959961" y1="784.960022" x2="1797.959961" y2="825.960022" stroke="red" stroke-width="6.660000" />
<circle cx="1984.959961" cy="784.960022" r="19.980000" fill="red">
  <title>Chongqing</title>
</circle><line x1="1797.959961" y1="825.960022" x2="1984.959961" y2="784.960022" stroke="red" stroke-width="6.660000" />
<circle cx="1420.959961" cy="1094.959961" r="19.980000" fill="red">
  <title>Cairo</title>
</circle><line x1="1984.959961" y1="784.960022" x2="1420.959961" y2="1094.959961" stroke="red" stroke-width="6.660000" />
<circle cx="959.960022" cy="1121.959961" r="19.980000" fill="red">
  <title>Buenos Aires</title>
</circle><line x1="1420.959961" y1="1094.959961" x2="959.960022" y2="1121.959961" stroke="red" stroke-width="6.660000" />
<circle cx="1044.959961" cy="1327.959961" r="19.980000" fill="red">
  <title>Mumbai</title>
</circle><line x1="959.960022" y1="1121.959961" x2="1044.959961" y2="1327.959961" stroke="red" stroke-width="6.660000" />
<circle cx="866.960022" cy="1458.959961" r="19.980000" fill="red">
  <title>Osaka</title>
</circle><line x1="1044.959961" y1="1327.959961" x2="866.960022" y2="1458.959961" stroke="red" stroke-width="6.660000" />
</svg>
