<?xml version="1.0" encoding="UTF-8" standalone="no"?>
<svg width="500" height="500" viewBox="0 0 2074.000000 2074.000000" xmlns="http://www.w3.org/2000/svg">
<rect x="19.000000" y="19.000000" width="2036.000000" height="2036.000000" fill="black" />
<circle cx="1449.959961" cy="1041.959961" r="19.980000" fill="red">
  <title>Tokyo</title>
</circle><line x1="1589.959961" y1="531.960022" x2="1449.959961" y2="1041.959961" stroke="red" stroke-width="6.660000" />
<circle cx="363.959991" cy="1395.959961" r="19.980000" fill="red">
  <title>Shanghai</title>
</circle><line x1="1449.959961" y1="1041.959961" x2="363.959991" y2="1395.959961" stroke="red" stroke-width="6.660000" />
<circle cx="424.959991" cy="1691.959961" r="19.980000" fill="red">
  <title>São Paulo</title>
</circle><line x1="363.959991" y1="1395.959961" x2="424.959991" y2="1691.959961" stroke="red" stroke-width="6.660000" />
<circle cx="1532.959961" cy="1415.959961" r="19.980000" fill="red">
  <title>Delhi</title>
</circle><line x1="424.959991" y1="1691.959961" x2="1532.959961" y2="1415.959961" stroke="red" stroke-width="6.660000" />
<circle cx="1690.959961" cy="851.960022" r="19.980000" fill="red">
  <title>Cairo</title>
</circle><line x1="1532.959961" y1="1415.959961" x2="1690.959961" y2="851.960022" stroke="red" stroke-width="6.660000" />
<circle cx="1589.959961" cy="531.960022" r="19.980000" fill="red">
  <title>Mexico City</title>
</circle><line x1="1690.959961" y1="851.960022" x2="1589.959961" y2="531.960022" stroke="red" stroke-width="6.660000" />
</svg>
