<?xml version="1.0" encoding="UTF-8" standalone="no"?>
<svg width="500" height="500" viewBox="0 0 2074.000000 2074.000000" xmlns="http://www.w3.org/2000/svg">
<rect x="19.000000" y="19.000000" width="2036.000000" height="2036.000000" fill="black" />
<circle cx="798.960022" cy="1843.959961" r="19.980000" fill="red">
  <title>Tokyo</title>
</circle><line x1="968.960022" y1="2035.959961" x2="798.960022" y2="1843.959961" stroke="red" stroke-width="6.660000" />
<circle cx="359.959991" cy="1979.959961" r="19.980000" fill="red">
  <title>Dhaka</title>
</circle><line x1="798.960022" y1="1843.959961" x2="359.959991" y2="1979.959961" stroke="red" stroke-width="6.660000" />
<circle cx="712.960022" cy="1337.959961" r="19.980000" fill="red">
  <title>Mexico City</title>
</circle><line x1="359.959991" y1="1979.959961" x2="712.960022" y2="1337.959961" stroke="red" stroke-width="6.660000" />
<circle cx="73.959999" cy="578.960022" r="19.980000" fill="red">
  <title>Osaka</title>
</circle><line x1="712.960022" y1="1337.959961" x2="73.959999" y2="578.960022" stroke="red" stroke-width="6.660000" />
<circle cx="432.959991" cy="534.960022" r="19.980000" fill="red">
  <title>São Paulo</title>
</circle><line x1="73.959999" y1="578.960022" x2="432.959991" y2="534.960022" stroke="red" stroke-width="6.660000" />
<circle cx="884.960022" cy="164.959991" r="19.980000" fill="red">
  <title>Mumbai</title>
</circle><line x1="432.959991" y1="534.960022" x2="884.960022" y2="164.959991" stroke="red" stroke-width="6.660000" />
<circle cx="1968.959961" cy="112.959999" r="19.980000" fill="red">
  <title>Cairo</title>
</circle><line x1="884.960022" y1="164.959991" x2="1968.959961" y2="112.959999" stroke="red" stroke-width="6.660000" />
<circle cx="1443.959961" cy="1031.959961" r="19.980000" fill="red">
  <title>Shanghai</title>
</circle><line x1="1968.959961" y1="112.959999" x2="1443.959961" y2="1031.959961" stroke="red" stroke-width="6.660000" />
<circle cx="1220.959961" cy="1043.959961" r="19.980000" fill="red">
  <title>Delhi</title>
</circle><line x1="1443.959961" y1="1031.959961" x2="1220.959961" y2="1043.959961" stroke="red" stroke-width="6.660000" />
<circle cx="2017.959961" cy="1521.959961" r="19.980000" fill="red">
  <title>Karachi</title>
</circle><line x1="1220.959961" y1="1043.959961" x2="2017.959961" y2="1521.959961" stroke="red" stroke-width="6.660000" />
<circle cx="1016.960022" cy="1825.959961" r="19.980000" fill="red">
  <title>Beijing</title>
</circle><line x1="2017.959961" y1="1521.959961" x2="1016.960022" y2="1825.959961" stroke="red" stroke-width="6.660000" />
<circle cx="968.960022" cy="2035.959961" r="19.980000" fill="red">
  <title>New York</title>
</circle><line x1="1016.960022" y1="1825.959961" x2="968.960022" y2="2035.959961" stroke="red" stroke-width="6.660000" />
</svg>
