<?xml version="1.0" encoding="UTF-8" standalone="no"?>
<svg width="500" height="500" viewBox="0 0 2074.000000 2074.000000" xmlns="http://www.w3.org/2000/svg">
<rect x="19.000000" y="19.000000" width="2036.000000" height="2036.000000" fill="black" />
<circle cx="871.960022" cy="937.960022" r="19.980000" fill="red">
  <title>Tokyo</title>
</circle><line x1="1210.959961" y1="812.960022" x2="871.960022" y2="937.960022" stroke="red" stroke-width="6.660000" />
<circle cx="667.960022" cy="842.960022" r="19.980000" fill="red">
  <title>Cairo</title>
</circle><line x1="871.960022" y1="937.960022" x2="667.960022" y2="842.960022" stroke="red" stroke-width="6.660000" />
<circle cx="182.959991" cy="963.960022" r="19.980000" fill="red">
  <title>Dhaka</title>
</circle><line x1="667.960022" y1="842.960022" x2="182.959991" y2="963.960022" stroke="red" stroke-width="6.660000" />
<circle cx="293.959991" cy="1449.959961" r="19.980000" fill="red">
  <title>Shanghai</title>
</circle><line x1="182.959991" y1="963.960022" x2="293.959991" y2="1449.959961" stroke="red" stroke-width="6.660000" />
<circle cx="340.959991" cy="1783.959961" r="19.980000" fill="red">
  <title>Chongqing</title>
</circle><line x1="293.959991" y1="1449.959961" x2="340.959991" y2="1783.959961" stroke="red" stroke-width="6.660000" />
<circle cx="260.959991" cy="1924.959961" r="19.980000" fill="red">
  <title>New York</title>
</circle><line x1="340.959991" y1="1783.959961" x2="260.959991" y2="1924.959961" stroke="red" stroke-width="6.660000" />
<circle cx="633.960022" cy="1741.959961" r="19.980000" fill="red">
  <title>Mexico City</title>
</circle><line x1="260.959991" y1="1924.959961" x2="633.960022" y2="1741.959961" stroke="red" stroke-width="6.660000" />
<circle cx="928.960022" cy="1910.959961" r="19.980000" fill="red">
  <title>Osaka</title>
</circle><line x1="633.960022" y1="1741.959961" x2="928.960022" y2="1910.959961" stroke="red" stroke-width="6.660000" />
<circle cx="915.960022" cy="1871.959961" r="19.980000" fill="red">
  <title>São Paulo</title>
</circle><line x1="928.960022" y1="1910.959961" x2="915.960022" y2="1871.959961" stroke="red" stroke-width="6.660000" />
<circle cx="766.960022" cy="1444.959961" r="19.980000" fill="red">
  <title>Beijing</title>
</circle><line x1="915.960022" y1="1871.959961" x2="766.960022" y2="1444.959961" stroke="red" stroke-width="6.660000" />
<circle cx="1373.959961" cy="1084.959961" r="19.980000" fill="red">
  <title>Buenos Aires</title>
</circle><line x1="766.960022" y1="1444.959961" x2="1373.959961" y2="1084.959961" stroke="red" stroke-width="6.660000" />
<circle cx="1637.959961" cy="1384.959961" r="19.980000" fill="red">
  <title>Manila</title>
</circle><line x1="1373.959961" y1="1084.959961" x2="1637.959961" y2="1384.959961" stroke="red" stroke-width="6.660000" />
<circle cx="1724.959961" cy="1110.959961" r="19.980000" fill="red">
  <title>Karachi</title>
</circle><line x1="1637.959961" y1="1384.959961" x2="1724.959961" y2="1110.959961" stroke="red" stroke-width="6.660000" />
<circle cx="2002.959961" cy="946.960022" r="19.980000" fill="red">
  <title>Delhi</title>
</circle><line x1="1724.959961" y1="1110.959961" x2="2002.959961" y2="946.960022" stroke="red" stroke-width="6.660000" />
<circle cx="1420.959961" cy="121.959999" r="19.980000" fill="red">
  <title>Kolkata</title>
</circle><line x1="2002.959961" y1="946.960022" x2="1420.959961" y2="121.959999" stroke="red" stroke-width="6.660000" />
<circle cx="1287.959961" cy="738.960022" r="19.980000" fill="red">
  <title>Istanbul</title>
</circle><line x1="1420.959961" y1="121.959999" x2="1287.959961" y2="738.960022" stroke="red" stroke-width="6.660000" />
<circle cx="1210.959961" cy="812.960022" r="19.980000" fill="red">
  <title>Mumbai</title>
</circle><line x1="1287.959961" y1="738.960022" x2="1210.959961" y2="812.960022" stroke="red" stroke-width="6.660000" />
</svg>
