<?xml version="1.0" encoding="UTF-8" standalone="no"?>
<svg width="500" height="500" viewBox="0 0 2074.000000 2074.000000" xmlns="http://www.w3.org/2000/svg">
<rect x="19.000000" y="19.000000" width="2036.000000" height="2036.000000" fill="black" />
<circle cx="1360.959961" cy="1240.959961" r="19.980000" fill="red">
  <title>Tokyo</title>
</circle><line x1="1283.959961" y1="2023.959961" x2="1360.959961" y2="1240.959961" stroke="red" stroke-width="6.660000" />
<circle cx="1505.959961" cy="1180.959961" r="19.980000" fill="red">
  <title>Mumbai</title>
</circle><line x1="1360.959961" y1="1240.959961" x2="1505.959961" y2="1180.959961" stroke="red" stroke-width="6.660000" />
<circle cx="1834.959961" cy="1229.959961" r="19.980000" fill="red">
  <title>Istanbul</title>
</circle><line x1="1505.959961" y1="1180.959961" x2="1834.959961" y2="1229.959961" stroke="red" stroke-width="6.660000" />
<circle cx="2033.959961" cy="1156.959961" r="19.980000" fill="red">
  <title>Kolkata</title>
</circle><line x1="1834.959961" y1="1229.959961" x2="2033.959961" y2="1156.959961" stroke="red" stroke-width="6.660000" />
<circle cx="1984.959961" cy="473.959991" r="19.980000" fill="red">
  <title>Chongqing</title>
</circle><line x1="2033.959961" y1="1156.959961" x2="1984.959961" y2="473.959991" stroke="red" stroke-width="6.660000" />
<circle cx="1926.959961" cy="141.959991" r="19.980000" fill="red">
  <title>Shanghai</title>
</circle><line x1="1984.959961" y1="473.959991" x2="1926.959961" y2="141.959991" stroke="red" stroke-width="6.660000" />
<circle cx="1218.959961" cy="210.959991" r="19.980000" fill="red">
  <title>Beijing</title>
</circle><line x1="1926.959961" y1="141.959991" x2="1218.959961" y2="210.959991" stroke="red" stroke-width="6.660000" />
<circle cx="1058.959961" cy="233.959991" r="19.980000" fill="red">
  <title>New York</title>
</circle><line x1="1218.959961" y1="210.959991" x2="1058.959961" y2="233.959991" stroke="red" stroke-width="6.660000" />
<circle cx="1119.959961" cy="440.959991" r="19.980000" fill="red">
  <title>Delhi</title>
</circle><line x1="1058.959961" y1="233.959991" x2="1119.959961" y2="440.959991" stroke="red" stroke-width="6.660000" />
<circle cx="1439.959961" cy="715.960022" r="19.980000" fill="red">
  <title>Cairo</title>
</circle><line x1="1119.959961" y1="440.959991" x2="1439.959961" y2="715.960022" stroke="red" stroke-width="6.660000" />
<circle cx="1106.959961" cy="661.960022" r="19.980000" fill="red">
  <title>Dhaka</title>
</circle><line x1="1439.959961" y1="715.960022" x2="1106.959961" y2="661.960022" stroke="red" stroke-width="6.660000" />
<circle cx="640.960022" cy="1198.959961" r="19.980000" fill="red">
  <title>Osaka</title>
</circle><line x1="1106.959961" y1="661.960022" x2="640.960022" y2="1198.959961" stroke="red" stroke-width="6.660000" />
<circle cx="432.959991" cy="1114.959961" r="19.980000" fill="red">
  <title>Manila</title>
</circle><line x1="640.960022" y1="1198.959961" x2="432.959991" y2="1114.959961" stroke="red" stroke-width="6.660000" />
<circle cx="360.959991" cy="1617.959961" r="19.980000" fill="red">
  <title>São Paulo</title>
</circle><line x1="432.959991" y1="1114.959961" x2="360.959991" y2="1617.959961" stroke="red" stroke-width="6.660000" />
<circle cx="721.960022" cy="1518.959961" r="19.980000" fill="red">
  <title>Buenos Aires</title>
</circle><line x1="360.959991" y1="1617.959961" x2="721.960022" y2="1518.959961" stroke="red" stroke-width="6.660000" />
<circle cx="900.960022" cy="1440.959961" r="19.980000" fill="red">
  <title>Mexico City</title>
</circle><line x1="721.960022" y1="1518.959961" x2="900.960022" y2="1440.959961" stroke="red" stroke-width="6.660000" />
<circle cx="1283.959961" cy="2023.959961" r="19.980000" fill="red">
  <title>Karachi</title>
</circle><line x1="900.960022" y1="1440.959961" x2="1283.959961" y2="2023.959961" stroke="red" stroke-width="6.660000" />
</svg>
