<?xml version="1.0" encoding="UTF-8" standalone="no"?>
<svg width="500" height="500" viewBox="0 0 2074.000000 2074.000000" xmlns="http://www.w3.org/2000/svg">
<rect x="19.000000" y="19.000000" width="2036.000000" height="2036.000000" fill="black" />
<circle cx="1069.959961" cy="1738.959961" r="19.980000" fill="red">
  <title>Tokyo</title>
</circle><line x1="1019.960022" y1="2000.959961" x2="1069.959961" y2="1738.959961" stroke="red" stroke-width="6.660000" />
<circle cx="1273.959961" cy="1638.959961" r="19.980000" fill="red">
  <title>Mexico City</title>
</circle><line x1="1069.959961" y1="1738.959961" x2="1273.959961" y2="1638.959961" stroke="red" stroke-width="6.660000" />
<circle cx="1608.959961" cy="1896.959961" r="19.980000" fill="red">
  <title>Delhi</title>
</circle><line x1="1273.959961" y1="1638.959961" x2="1608.959961" y2="1896.959961" stroke="red" stroke-width="6.660000" />
<circle cx="1730.959961" cy="1890.959961" r="19.980000" fill="red">
  <title>Beijing</title>
</circle><line x1="1608.959961" y1="1896.959961" x2="1730.959961" y2="1890.959961" stroke="red" stroke-width="6.660000" />
<circle cx="1622.959961" cy="1045.959961" r="19.980000" fill="red">
  <title>Rio de Janeiro</title>
</circle><line x1="1730.959961" y1="1890.959961" x2="1622.959961" y2="1045.959961" stroke="red" stroke-width="6.660000" />
<circle cx="1650.959961" cy="905.960022" r="19.980000" fill="red">
  <title>Mumbai</title>
</circle><line x1="1622.959961" y1="1045.959961" x2="1650.959961" y2="905.960022" stroke="red" stroke-width="6.660000" />
<circle cx="1914.959961" cy="370.959991" r="19.980000" fill="red">
  <title>Osaka</title>
</circle><line x1="1650.959961" y1="905.960022" x2="1914.959961" y2="370.959991" stroke="red" stroke-width="6.660000" />
<circle cx="1939.959961" cy="251.959991" r="19.980000" fill="red">
  <title>Manila</title>
</circle><line x1="1914.959961" y1="370.959991" x2="1939.959961" y2="251.959991" stroke="red" stroke-width="6.660000" />
<circle cx="1617.959961" cy="144.959991" r="19.980000" fill="red">
  <title>Lagos</title>
</circle><line x1="1939.959961" y1="251.959991" x2="1617.959961" y2="144.959991" stroke="red" stroke-width="6.660000" />
<circle cx="1345.959961" cy="667.960022" r="19.980000" fill="red">
  <title>Karachi</title>
</circle><line x1="1617.959961" y1="144.959991" x2="1345.959961" y2="667.960022" stroke="red" stroke-width="6.660000" />
<circle cx="1465.959961" cy="764.960022" r="19.980000" fill="red">
  <title>São Paulo</title>
</circle><line x1="1345.959961" y1="667.960022" x2="1465.959961" y2="764.960022" stroke="red" stroke-width="6.660000" />
<circle cx="1268.959961" cy="769.960022" r="19.980000" fill="red">
  <title>Cairo</title>
</circle><line x1="1465.959961" y1="764.960022" x2="1268.959961" y2="769.960022" stroke="red" stroke-width="6.660000" />
<circle cx="869.960022" cy="858.960022" r="19.980000" fill="red">
  <title>Tianjin</title>
</circle><line x1="1268.959961" y1="769.960022" x2="869.960022" y2="858.960022" stroke="red" stroke-width="6.660000" />
<circle cx="729.960022" cy="239.959991" r="19.980000" fill="red">
  <title>Istanbul</title>
</circle><line x1="869.960022" y1="858.960022" x2="729.960022" y2="239.959991" stroke="red" stroke-width="6.660000" />
<circle cx="349.959991" cy="744.960022" r="19.980000" fill="red">
  <title>Chongqing</title>
</circle><line x1="729.960022" y1="239.959991" x2="349.959991" y2="744.960022" stroke="red" stroke-width="6.660000" />
<circle cx="122.959999" cy="690.960022" r="19.980000" fill="red">
  <title>New York</title>
</circle><line x1="349.959991" y1="744.960022" x2="122.959999" y2="690.960022" stroke="red" stroke-width="6.660000" />
<circle cx="242.959991" cy="1410.959961" r="19.980000" fill="red">
  <title>Shanghai</title>
</circle><line x1="122.959999" y1="690.960022" x2="242.959991" y2="1410.959961" stroke="red" stroke-width="6.660000" />
<circle cx="680.960022" cy="1759.959961" r="19.980000" fill="red">
  <title>Kolkata</title>
</circle><line x1="242.959991" y1="1410.959961" x2="680.960022" y2="1759.959961" stroke="red" stroke-width="6.660000" />
<circle cx="1005.960022" cy="1937.959961" r="19.980000" fill="red">
  <title>Dhaka</title>
</circle><line x1="680.960022" y1="1759.959961" x2="1005.960022" y2="1937.959961" stroke="red" stroke-width="6.660000" />
<circle cx="1019.960022" cy="2000.959961" r="19.980000" fill="red">
  <title>Buenos Aires</title>
</circle><line x1="1005.960022" y1="1937.959961" x2="1019.960022" y2="2000.959961" stroke="red" stroke-width="6.660000" />
</svg>
