<?xml version="1.0" encoding="UTF-8" standalone="no"?>
<svg width="500" height="500" viewBox="0 0 2074.000000 2074.000000" xmlns="http://www.w3.org/2000/svg">
<rect x="19.000000" y="19.000000" width="2036.000000" height="2036.000000" fill="black" />
<circle cx="492.959991" cy="371.959991" r="19.980000" fill="red">
  <title>Tokyo</title>
</circle><line x1="334.959991" y1="836.960022" x2="492.959991" y2="371.959991" stroke="red" stroke-width="6.660000" />
<circle cx="923.960022" cy="855.960022" r="19.980000" fill="red">
  <title>Delhi</title>
</circle><line x1="492.959991" y1="371.959991" x2="923.960022" y2="855.960022" stroke="red" stroke-width="6.660000" />
<circle cx="933.960022" cy="878.960022" r="19.980000" fill="red">
  <title>Buenos Aires</title>
</circle><line x1="923.960022" y1="855.960022" x2="933.960022" y2="878.960022" stroke="red" stroke-width="6.660000" />
<circle cx="1101.959961" cy="1085.959961" r="19.980000" fill="red">
  <title>Mumbai</title>
</circle><line x1="933.960022" y1="878.960022" x2="1101.959961" y2="1085.959961" stroke="red" stroke-width="6.660000" />
<circle cx="1811.959961" cy="622.960022" r="19.980000" fill="red">
  <title>São Paulo</title>
</circle><line x1="1101.959961" y1="1085.959961" x2="1811.959961" y2="622.960022" stroke="red" stroke-width="6.660000" />
<circle cx="1961.959961" cy="1048.959961" r="19.980000" fill="red">
  <title>New York</title>
</circle><line x1="1811.959961" y1="622.960022" x2="1961.959961" y2="1048.959961" stroke="red" stroke-width="6.660000" />
<circle cx="1648.959961" cy="1652.959961" r="19.980000" fill="red">
  <title>Cairo</title>
</circle><line x1="1961.959961" y1="1048.959961" x2="1648.959961" y2="1652.959961" stroke="red" stroke-width="6.660000" />
<circle cx="1881.959961" cy="1922.959961" r="19.980000" fill="red">
  <title>Beijing</title>
</circle><line x1="1648.959961" y1="1652.959961" x2="1881.959961" y2="1922.959961" stroke="red" stroke-width="6.660000" />
<circle cx="1492.959961" cy="1813.959961" r="19.980000" fill="red">
  <title>Shanghai</title>
</circle><line x1="1881.959961" y1="1922.959961" x2="1492.959961" y2="1813.959961" stroke="red" stroke-width="6.660000" />
<circle cx="647.960022" cy="1905.959961" r="19.980000" fill="red">
  <title>Mexico City</title>
</circle><line x1="1492.959961" y1="1813.959961" x2="647.960022" y2="1905.959961" stroke="red" stroke-width="6.660000" />
<circle cx="660.960022" cy="1422.959961" r="19.980000" fill="red">
  <title>Karachi</title>
</circle><line x1="647.960022" y1="1905.959961" x2="660.960022" y2="1422.959961" stroke="red" stroke-width="6.660000" />
<circle cx="615.960022" cy="957.960022" r="19.980000" fill="red">
  <title>Dhaka</title>
</circle><line x1="660.960022" y1="1422.959961" x2="615.960022" y2="957.960022" stroke="red" stroke-width="6.660000" />
<circle cx="334.959991" cy="836.960022" r="19.980000" fill="red">
  <title>Osaka</title>
</circle><line x1="615.960022" y1="957.960022" x2="334.959991" y2="836.960022" stroke="red" stroke-width="6.660000" />
</svg>
