<?xml version="1.0" encoding="UTF-8" standalone="no"?>
<svg width="500" height="500" viewBox="0 0 2074.000000 2074.000000" xmlns="http://www.w3.org/2000/svg">
<rect x="19.000000" y="19.000000" width="2036.000000" height="2036.000000" fill="black" />
<circle cx="1427.959961" cy="156.959991" r="19.980000" fill="red">
  <title>Tokyo</title>
</circle><line x1="593.960022" y1="1592.959961" x2="1427.959961" y2="156.959991" stroke="red" stroke-width="6.660000" />
<circle cx="1769.959961" cy="1004.960022" r="19.980000" fill="red">
  <title>Delhi</title>
</circle><line x1="1427.959961" y1="156.959991" x2="1769.959961" y2="1004.960022" stroke="red" stroke-width="6.660000" />
<circle cx="1790.959961" cy="1675.959961" r="19.980000" fill="red">
  <title>São Paulo</title>
</circle><line x1="1769.959961" y1="1004.960022" x2="1790.959961" y2="1675.959961" stroke="red" stroke-width="6.660000" />
<circle cx="593.960022" cy="1592.959961" r="19.980000" fill="red">
  <title>Shanghai</title>
</circle><line x1="1790.959961" y1="1675.959961" x2="593.960022" y2="1592.959961" stroke="red" stroke-width="6.660000" />
</svg>
