<?xml version="1.0" encoding="UTF-8" standalone="no"?>
<svg width="500" height="500" viewBox="0 0 2074.000000 2074.000000" xmlns="http://www.w3.org/2000/svg">
<rect x="19.000000" y="19.000000" width="2036.000000" height="2036.000000" fill="black" />
<circle cx="364.959991" cy="885.960022" r="19.980000" fill="red">
  <title>Tokyo</title>
</circle><line x1="675.960022" y1="428.959991" x2="364.959991" y2="885.960022" stroke="red" stroke-width="6.660000" />
<circle cx="293.959991" cy="1258.959961" r="19.980000" fill="red">
  <title>Mumbai</title>
</circle><line x1="364.959991" y1="885.960022" x2="293.959991" y2="1258.959961" stroke="red" stroke-width="6.660000" />
<circle cx="490.959991" cy="1059.959961" r="19.980000" fill="red">
  <title>Shanghai</title>
</circle><line x1="293.959991" y1="1258.959961" x2="490.959991" y2="1059.959961" stroke="red" stroke-width="6.660000" />
<circle cx="1919.959961" cy="841.960022" r="19.980000" fill="red">
  <title>São Paulo</title>
</circle><line x1="490.959991" y1="1059.959961" x2="1919.959961" y2="841.960022" stroke="red" stroke-width="6.660000" />
<circle cx="1997.959961" cy="846.960022" r="19.980000" fill="red">
  <title>Mexico City</title>
</circle><line x1="1919.959961" y1="841.960022" x2="1997.959961" y2="846.960022" stroke="red" stroke-width="6.660000" />
<circle cx="1887.959961" cy="697.960022" r="19.980000" fill="red">
  <title>Cairo</title>
</circle><line x1="1997.959961" y1="846.960022" x2="1887.959961" y2="697.960022" stroke="red" stroke-width="6.660000" />
<circle cx="1110.959961" cy="57.959999" r="19.980000" fill="red">
  <title>Delhi</title>
</circle><line x1="1887.959961" y1="697.960022" x2="1110.959961" y2="57.959999" stroke="red" stroke-width="6.660000" />
<circle cx="675.960022" cy="428.959991" r="19.980000" fill="red">
  <title>Beijing</title>
</circle><line x1="1110.959961" y1="57.959999" x2="675.960022" y2="428.959991" stroke="red" stroke-width="6.660000" />
</svg>
