<?xml version="1.0" encoding="UTF-8" standalone="no"?>
<svg width="500" height="500" viewBox="0 0 2074.000000 2074.000000" xmlns="http://www.w3.org/2000/svg">
<rect x="19.000000" y="19.000000" width="2036.000000" height="2036.000000" fill="black" />
<circle cx="1814.959961" cy="317.959991" r="19.980000" fill="red">
  <title>Tokyo</title>
</circle><line x1="1654.959961" y1="486.959991" x2="1814.959961" y2="317.959991" stroke="red" stroke-width="6.660000" />
<circle cx="1171.959961" cy="429.959991" r="19.980000" fill="red">
  <title>Cairo</title>
</circle><line x1="1814.959961" y1="317.959991" x2="1171.959961" y2="429.959991" stroke="red" stroke-width="6.660000" />
<circle cx="1068.959961" cy="167.959991" r="19.980000" fill="red">
  <title>Buenos Aires</title>
</circle><line x1="1171.959961" y1="429.959991" x2="1068.959961" y2="167.959991" stroke="red" stroke-width="6.660000" />
<circle cx="72.959999" cy="45.959999" r="19.980000" fill="red">
  <title>São Paulo</title>
</circle><line x1="1068.959961" y1="167.959991" x2="72.959999" y2="45.959999" stroke="red" stroke-width="6.660000" />
<circle cx="118.959999" cy="1005.960022" r="19.980000" fill="red">
  <title>Dhaka</title>
</circle><line x1="72.959999" y1="45.959999" x2="118.959999" y2="1005.960022" stroke="red" stroke-width="6.660000" />
<circle cx="531.960022" cy="731.960022" r="19.980000" fill="red">
  <title>Karachi</title>
</circle><line x1="118.959999" y1="1005.960022" x2="531.960022" y2="731.960022" stroke="red" stroke-width="6.660000" />
<circle cx="1167.959961" cy="1101.959961" r="19.980000" fill="red">
  <title>Mexico City</title>
</circle><line x1="531.960022" y1="731.960022" x2="1167.959961" y2="1101.959961" stroke="red" stroke-width="6.660000" />
<circle cx="966.960022" cy="1325.959961" r="19.980000" fill="red">
  <title>Delhi</title>
</circle><line x1="1167.959961" y1="1101.959961" x2="966.960022" y2="1325.959961" stroke="red" stroke-width="6.660000" />
<circle cx="811.960022" cy="1893.959961" r="19.980000" fill="red">
  <title>Chongqing</title>
</circle><line x1="966.960022" y1="1325.959961" x2="811.960022" y2="1893.959961" stroke="red" stroke-width="6.660000" />
<circle cx="985.960022" cy="2027.959961" r="19.980000" fill="red">
  <title>Shanghai</title>
</circle><line x1="811.960022" y1="1893.959961" x2="985.960022" y2="2027.959961" stroke="red" stroke-width="6.660000" />
<circle cx="1369.959961" cy="1831.959961" r="19.980000" fill="red">
  <title>Osaka</title>
</circle><line x1="985.960022" y1="2027.959961" x2="1369.959961" y2="1831.959961" stroke="red" stroke-width="6.660000" />
<circle cx="1266.959961" cy="1316.959961" r="19.980000" fill="red">
  <title>New York</title>
</circle><line x1="1369.959961" y1="1831.959961" x2="1266.959961" y2="1316.959961" stroke="red" stroke-width="6.660000" />
<circle cx="1845.959961" cy="1096.959961" r="19.980000" fill="red">
  <title>Beijing</title>
</circle><line x1="1266.959961" y1="1316.959961" x2="1845.959961" y2="1096.959961" stroke="red" stroke-width="6.660000" />
<circle cx="1654.959961" cy="486.959991" r="19.980000" fill="red">
  <title>Mumbai</title>
</circle><line x1="1845.959961" y1="1096.959961" x2="1654.959961" y2="486.959991" stroke="red" stroke-width="6.660000" />
</svg>
