<?xml version="1.0" encoding="UTF-8" standalone="no"?>
<svg width="500" height="500" viewBox="0 0 2074.000000 2074.000000" xmlns="http://www.w3.org/2000/svg">
<rect x="19.000000" y="19.000000" width="2036.000000" height="2036.000000" fill="black" />
<circle cx="267.959991" cy="128.959991" r="19.980000" fill="red">
  <title>Tokyo</title>
</circle><line x1="324.959991" y1="378.959991" x2="267.959991" y2="128.959991" stroke="red" stroke-width="6.660000" />
<circle cx="298.959991" cy="343.959991" r="19.980000" fill="red">
  <title>São Paulo</title>
</circle><line x1="267.959991" y1="128.959991" x2="298.959991" y2="343.959991" stroke="red" stroke-width="6.660000" />
<circle cx="1081.959961" cy="760.960022" r="19.980000" fill="red">
  <title>Osaka</title>
</circle><line x1="298.959991" y1="343.959991" x2="1081.959961" y2="760.960022" stroke="red" stroke-width="6.660000" />
<circle cx="1670.959961" cy="633.960022" r="19.980000" fill="red">
  <title>Mexico City</title>
</circle><line x1="1081.959961" y1="760.960022" x2="1670.959961" y2="633.960022" stroke="red" stroke-width="6.660000" />
<circle cx="1177.959961" cy="1083.959961" r="19.980000" fill="red">
  <title>Shanghai</title>
</circle><line x1="1670.959961" y1="633.960022" x2="1177.959961" y2="1083.959961" stroke="red" stroke-width="6.660000" />
<circle cx="1768.959961" cy="1787.959961" r="19.980000" fill="red">
  <title>Dhaka</title>
</circle><line x1="1177.959961" y1="1083.959961" x2="1768.959961" y2="1787.959961" stroke="red" stroke-width="6.660000" />
<circle cx="1308.959961" cy="2021.959961" r="19.980000" fill="red">
  <title>New York</title>
</circle><line x1="1768.959961" y1="1787.959961" x2="1308.959961" y2="2021.959961" stroke="red" stroke-width="6.660000" />
<circle cx="1097.959961" cy="1794.959961" r="19.980000" fill="red">
  <title>Cairo</title>
</circle><line x1="1308.959961" y1="2021.959961" x2="1097.959961" y2="1794.959961" stroke="red" stroke-width="6.660000" />
<circle cx="940.960022" cy="1879.959961" r="19.980000" fill="red">
  <title>Mumbai</title>
</circle><line x1="1097.959961" y1="1794.959961" x2="940.960022" y2="1879.959961" stroke="red" stroke-width="6.660000" />
<circle cx="646.960022" cy="1470.959961" r="19.980000" fill="red">
  <title>Delhi</title>
</circle><line x1="940.960022" y1="1879.959961" x2="646.960022" y2="1470.959961" stroke="red" stroke-width="6.660000" />
<circle cx="324.959991" cy="378.959991" r="19.980000" fill="red">
  <title>Beijing</title>
</circle><line x1="646.960022" y1="1470.959961" x2="324.959991" y2="378.959991" stroke="red" stroke-width="6.660000" />
</svg>
