<?xml version="1.0" encoding="UTF-8" standalone="no"?>
<svg width="500" height="500" viewBox="0 0 2074.000000 2074.000000" xmlns="http://www.w3.org/2000/svg">
<rect x="19.000000" y="19.000000" width="2036.000000" height="2036.000000" fill="black" />
<circle cx="1426.959961" cy="1915.959961" r="19.980000" fill="red">
  <title>Tokyo</title>
</circle><line x1="1221.959961" y1="1858.959961" x2="1426.959961" y2="1915.959961" stroke="red" stroke-width="6.660000" />
<circle cx="1851.959961" cy="1321.959961" r="19.980000" fill="red">
  <title>Shanghai</title>
</circle><line x1="1426.959961" y1="1915.959961" x2="1851.959961" y2="1321.959961" stroke="red" stroke-width="6.660000" />
<circle cx="1639.959961" cy="1080.959961" r="19.980000" fill="red">
  <title>Mumbai</title>
</circle><line x1="1851.959961" y1="1321.959961" x2="1639.959961" y2="1080.959961" stroke="red" stroke-width="6.660000" />
<circle cx="1797.959961" cy="1128.959961" r="19.980000" fill="red">
  <title>Chongqing</title>
</circle><line x1="1639.959961" y1="1080.959961" x2="1797.959961" y2="1128.959961" stroke="red" stroke-width="6.660000" />
<circle cx="2014.959961" cy="907.960022" r="19.980000" fill="red">
  <title>New York</title>
</circle><line x1="1797.959961" y1="1128.959961" x2="2014.959961" y2="907.960022" stroke="red" stroke-width="6.660000" />
<circle cx="1577.959961" cy="123.959999" r="19.980000" fill="red">
  <title>Osaka</title>
</circle><line x1="2014.959961" y1="907.960022" x2="1577.959961" y2="123.959999" stroke="red" stroke-width="6.660000" />
<circle cx="733.960022" cy="533.960022" r="19.980000" fill="red">
  <title>Dhaka</title>
</circle><line x1="1577.959961" y1="123.959999" x2="733.960022" y2="533.960022" stroke="red" stroke-width="6.660000" />
<circle cx="391.959991" cy="147.959991" r="19.980000" fill="red">
  <title>Mexico City</title>
</circle><line x1="733.960022" y1="533.960022" x2="391.959991" y2="147.959991" stroke="red" stroke-width="6.660000" />
<circle cx="155.959991" cy="772.960022" r="19.980000" fill="red">
  <title>Delhi</title>
</circle><line x1="391.959991" y1="147.959991" x2="155.959991" y2="772.960022" stroke="red" stroke-width="6.660000" />
<circle cx="444.959991" cy="1040.959961" r="19.980000" fill="red">
  <title>Istanbul</title>
</circle><line x1="155.959991" y1="772.960022" x2="444.959991" y2="1040.959961" stroke="red" stroke-width="6.660000" />
<circle cx="566.960022" cy="731.960022" r="19.980000" fill="red">
  <title>Lagos</title>
</circle><line x1="444.959991" y1="1040.959961" x2="566.960022" y2="731.960022" stroke="red" stroke-width="6.660000" />
<circle cx="918.960022" cy="973.960022" r="19.980000" fill="red">
  <title>Manila</title>
</circle><line x1="566.960022" y1="731.960022" x2="918.960022" y2="973.960022" stroke="red" stroke-width="6.660000" />
<circle cx="1195.959961" cy="1095.959961" r="19.980000" fill="red">
  <title>São Paulo</title>
</circle><line x1="918.960022" y1="973.960022" x2="1195.959961" y2="1095.959961" stroke="red" stroke-width="6.660000" />
<circle cx="1245.959961" cy="1236.959961" r="19.980000" fill="red">
  <title>Karachi</title>
</circle><line x1="1195.959961" y1="1095.959961" x2="1245.959961" y2="1236.959961" stroke="red" stroke-width="6.660000" />
<circle cx="911.960022" cy="1222.959961" r="19.980000" fill="red">
  <title>Cairo</title>
</circle><line x1="1245.959961" y1="1236.959961" x2="911.960022" y2="1222.959961" stroke="red" stroke-width="6.660000" />
<circle cx="759.960022" cy="1311.959961" r="19.980000" fill="red">
  <title>Buenos Aires</title>
</circle><line x1="911.960022" y1="1222.959961" x2="759.960022" y2="1311.959961" stroke="red" stroke-width="6.660000" />
<circle cx="857.960022" cy="1832.959961" r="19.980000" fill="red">
  <title>Kolkata</title>
</circle><line x1="759.960022" y1="1311.959961" x2="857.960022" y2="1832.959961" stroke="red" stroke-width="6.660000" />
<circle cx="1221.959961" cy="1858.959961" r="19.980000" fill="red">
  <title>Beijing</title>
</circle><line x1="857.960022" y1="1832.959961" x2="1221.959961" y2="1858.959961" stroke="red" stroke-width="6.660000" />
</svg>
