<?xml version="1.0" encoding="UTF-8" standalone="no"?>
<svg width="500" height="500" viewBox="0 0 2074.000000 2074.000000" xmlns="http://www.w3.org/2000/svg">
<rect x="19.000000" y="19.000000" width="2036.000000" height="2036.000000" fill="black" />
<circle cx="1374.959961" cy="153.959991" r="19.980000" fill="red">
  <title>Tokyo</title>
</circle><line x1="1743.959961" y1="433.959991" x2="1374.959961" y2="153.959991" stroke="red" stroke-width="6.660000" />
<circle cx="941.960022" cy="289.959991" r="19.980000" fill="red">
  <title>São Paulo</title>
</circle><line x1="1374.959961" y1="153.959991" x2="941.960022" y2="289.959991" stroke="red" stroke-width="6.660000" />
<circle cx="878.960022" cy="1215.959961" r="19.980000" fill="red">
  <title>Mumbai</title>
</circle><line x1="941.960022" y1="289.959991" x2="878.960022" y2="1215.959961" stroke="red" stroke-width="6.660000" />
<circle cx="786.960022" cy="1248.959961" r="19.980000" fill="red">
  <title>Delhi</title>
</circle><line x1="878.960022" y1="1215.959961" x2="786.960022" y2="1248.959961" stroke="red" stroke-width="6.660000" />
<circle cx="81.959999" cy="1659.959961" r="19.980000" fill="red">
  <title>Beijing</title>
</circle><line x1="786.960022" y1="1248.959961" x2="81.959999" y2="1659.959961" stroke="red" stroke-width="6.660000" />
<circle cx="782.960022" cy="1483.959961" r="19.980000" fill="red">
  <title>Cairo</title>
</circle><line x1="81.959999" y1="1659.959961" x2="782.960022" y2="1483.959961" stroke="red" stroke-width="6.660000" />
<circle cx="1151.959961" cy="1554.959961" r="19.980000" fill="red">
  <title>Shanghai</title>
</circle><line x1="782.960022" y1="1483.959961" x2="1151.959961" y2="1554.959961" stroke="red" stroke-width="6.660000" />
<circle cx="1743.959961" cy="433.959991" r="19.980000" fill="red">
  <title>Mexico City</title>
</circle><line x1="1151.959961" y1="1554.959961" x2="1743.959961" y2="433.959991" stroke="red" stroke-width="6.660000" />
</svg>
