<?xml version="1.0" encoding="UTF-8" standalone="no"?>
<svg width="500" height="500" viewBox="0 0 2074.000000 2074.000000" xmlns="http://www.w3.org/2000/svg">
<rect x="19.000000" y="19.000000" width="2036.000000" height="2036.000000" fill="black" />
<circle cx="1224.959961" cy="1928.959961" r="19.980000" fill="red">
  <title>Tokyo</title>
</circle><line x1="899.960022" y1="1748.959961" x2="1224.959961" y2="1928.959961" stroke="red" stroke-width="6.660000" />
<circle cx="1758.959961" cy="1894.959961" r="19.980000" fill="red">
  <title>Dhaka</title>
</circle><line x1="1224.959961" y1="1928.959961" x2="1758.959961" y2="1894.959961" stroke="red" stroke-width="6.660000" />
<circle cx="1221.959961" cy="1736.959961" r="19.980000" fill="red">
  <title>Shanghai</title>
</circle><line x1="1758.959961" y1="1894.959961" x2="1221.959961" y2="1736.959961" stroke="red" stroke-width="6.660000" />
<circle cx="847.960022" cy="1554.959961" r="19.980000" fill="red">
  <title>Mumbai</title>
</circle><line x1="1221.959961" y1="1736.959961" x2="847.960022" y2="1554.959961" stroke="red" stroke-width="6.660000" />
<circle cx="981.960022" cy="1340.959961" r="19.980000" fill="red">
  <title>Kolkata</title>
</circle><line x1="847.960022" y1="1554.959961" x2="981.960022" y2="1340.959961" stroke="red" stroke-width="6.660000" />
<circle cx="1634.959961" cy="726.960022" r="19.980000" fill="red">
  <title>Delhi</title>
</circle><line x1="981.960022" y1="1340.959961" x2="1634.959961" y2="726.960022" stroke="red" stroke-width="6.660000" />
<circle cx="2027.959961" cy="238.959991" r="19.980000" fill="red">
  <title>Lagos</title>
</circle><line x1="1634.959961" y1="726.960022" x2="2027.959961" y2="238.959991" stroke="red" stroke-width="6.660000" />
<circle cx="1494.959961" cy="552.960022" r="19.980000" fill="red">
  <title>São Paulo</title>
</circle><line x1="2027.959961" y1="238.959991" x2="1494.959961" y2="552.960022" stroke="red" stroke-width="6.660000" />
<circle cx="1055.959961" cy="578.960022" r="19.980000" fill="red">
  <title>Manila</title>
</circle><line x1="1494.959961" y1="552.960022" x2="1055.959961" y2="578.960022" stroke="red" stroke-width="6.660000" />
<circle cx="808.960022" cy="59.959999" r="19.980000" fill="red">
  <title>Mexico City</title>
</circle><line x1="1055.959961" y1="578.960022" x2="808.960022" y2="59.959999" stroke="red" stroke-width="6.660000" />
<circle cx="480.959991" cy="196.959991" r="19.980000" fill="red">
  <title>Karachi</title>
</circle><line x1="808.960022" y1="59.959999" x2="480.959991" y2="196.959991" stroke="red" stroke-width="6.660000" />
<circle cx="177.959991" cy="42.959999" r="19.980000" fill="red">
  <title>New York</title>
</circle><line x1="480.959991" y1="196.959991" x2="177.959991" y2="42.959999" stroke="red" stroke-width="6.660000" />
<circle cx="155.959991" cy="1165.959961" r="19.980000" fill="red">
  <title>Istanbul</title>
</circle><line x1="177.959991" y1="42.959999" x2="155.959991" y2="1165.959961" stroke="red" stroke-width="6.660000" />
<circle cx="368.959991" cy="1295.959961" r="19.980000" fill="red">
  <title>Chongqing</title>
</circle><line x1="155.959991" y1="1165.959961" x2="368.959991" y2="1295.959961" stroke="red" stroke-width="6.660000" />
<circle cx="606.960022" cy="1575.959961" r="19.980000" fill="red">
  <title>Cairo</title>
</circle><line x1="368.959991" y1="1295.959961" x2="606.960022" y2="1575.959961" stroke="red" stroke-width="6.660000" />
<circle cx="692.960022" cy="1646.959961" r="19.980000" fill="red">
  <title>Beijing</title>
</circle><line x1="606.960022" y1="1575.959961" x2="692.960022" y2="1646.959961" stroke="red" stroke-width="6.660000" />
<circle cx="761.960022" cy="1778.959961" r="19.980000" fill="red">
  <title>Buenos Aires</title>
</circle><line x1="692.960022" y1="1646.959961" x2="761.960022" y2="1778.959961" stroke="red" stroke-width="6.660000" />
<circle cx="899.960022" cy="1748.959961" r="19.980000" fill="red">
  <title>Osaka</title>
</circle><line x1="761.960022" y1="1778.959961" x2="899.960022" y2="1748.959961" stroke="red" stroke-width="6.660000" />
</svg>
