<?xml version="1.0" encoding="UTF-8" standalone="no"?>
<svg width="500" height="500" viewBox="0 0 2074.000000 2074.000000" xmlns="http://www.w3.org/2000/svg">
<rect x="19.000000" y="19.000000" width="2036.000000" height="2036.000000" fill="black" />
<circle cx="362.959991" cy="516.960022" r="19.980000" fill="red">
  <title>Tokyo</title>
</circle><line x1="879.960022" y1="1071.959961" x2="362.959991" y2="516.960022" stroke="red" stroke-width="6.660000" />
<circle cx="526.960022" cy="76.959999" r="19.980000" fill="red">
  <title>Shanghai</title>
</circle><line x1="362.959991" y1="516.960022" x2="526.960022" y2="76.959999" stroke="red" stroke-width="6.660000" />
<circle cx="719.960022" cy="230.959991" r="19.980000" fill="red">
  <title>New York</title>
</circle><line x1="526.960022" y1="76.959999" x2="719.960022" y2="230.959991" stroke="red" stroke-width="6.660000" />
<circle cx="1221.959961" cy="313.959991" r="19.980000" fill="red">
  <title>Mexico City</title>
</circle><line x1="719.960022" y1="230.959991" x2="1221.959961" y2="313.959991" stroke="red" stroke-width="6.660000" />
<circle cx="1389.959961" cy="288.959991" r="19.980000" fill="red">
  <title>Kolkata</title>
</circle><line x1="1221.959961" y1="313.959991" x2="1389.959961" y2="288.959991" stroke="red" stroke-width="6.660000" />
<circle cx="1701.959961" cy="480.959991" r="19.980000" fill="red">
  <title>Beijing</title>
</circle><line x1="1389.959961" y1="288.959991" x2="1701.959961" y2="480.959991" stroke="red" stroke-width="6.660000" />
<circle cx="1827.959961" cy="917.960022" r="19.980000" fill="red">
  <title>São Paulo</title>
</circle><line x1="1701.959961" y1="480.959991" x2="1827.959961" y2="917.960022" stroke="red" stroke-width="6.660000" />
<circle cx="1890.959961" cy="1804.959961" r="19.980000" fill="red">
  <title>Chongqing</title>
</circle><line x1="1827.959961" y1="917.960022" x2="1890.959961" y2="1804.959961" stroke="red" stroke-width="6.660000" />
<circle cx="1964.959961" cy="1893.959961" r="19.980000" fill="red">
  <title>Istanbul</title>
</circle><line x1="1890.959961" y1="1804.959961" x2="1964.959961" y2="1893.959961" stroke="red" stroke-width="6.660000" />
<circle cx="1425.959961" cy="1608.959961" r="19.980000" fill="red">
  <title>Osaka</title>
</circle><line x1="1964.959961" y1="1893.959961" x2="1425.959961" y2="1608.959961" stroke="red" stroke-width="6.660000" />
<circle cx="1414.959961" cy="1646.959961" r="19.980000" fill="red">
  <title>Buenos Aires</title>
</circle><line x1="1425.959961" y1="1608.959961" x2="1414.959961" y2="1646.959961" stroke="red" stroke-width="6.660000" />
<circle cx="520.960022" cy="1804.959961" r="19.980000" fill="red">
  <title>Cairo</title>
</circle><line x1="1414.959961" y1="1646.959961" x2="520.960022" y2="1804.959961" stroke="red" stroke-width="6.660000" />
<circle cx="372.959991" cy="1863.959961" r="19.980000" fill="red">
  <title>Manila</title>
</circle><line x1="520.960022" y1="1804.959961" x2="372.959991" y2="1863.959961" stroke="red" stroke-width="6.660000" />
<circle cx="104.959999" cy="1713.959961" r="19.980000" fill="red">
  <title>Dhaka</title>
</circle><line x1="372.959991" y1="1863.959961" x2="104.959999" y2="1713.959961" stroke="red" stroke-width="6.660000" />
<circle cx="293.959991" cy="1458.959961" r="19.980000" fill="red">
  <title>Karachi</title>
</circle><line x1="104.959999" y1="1713.959961" x2="293.959991" y2="1458.959961" stroke="red" stroke-width="6.660000" />
<circle cx="513.960022" cy="1316.959961" r="19.980000" fill="red">
  <title>Delhi</title>
</circle><line x1="293.959991" y1="1458.959961" x2="513.960022" y2="1316.959961" stroke="red" stroke-width="6.660000" />
<circle cx="879.960022" cy="1071.959961" r="19.980000" fill="red">
  <title>Mumbai</title>
</circle><line x1="513.960022" y1="1316.959961" x2="879.960022" y2="1071.959961" stroke="red" stroke-width="6.660000" />
</svg>
