<?xml version="1.0" encoding="UTF-8" standalone="no"?>
<svg width="500" height="500" viewBox="0 0 2074.000000 2074.000000" xmlns="http://www.w3.org/2000/svg">
<rect x="19.000000" y="19.000000" width="2036.000000" height="2036.000000" fill="black" />
<circle cx="267.959991" cy="104.959999" r="19.980000" fill="red">
  <title>Tokyo</title>
</circle><line x1="390.959991" y1="941.960022" x2="267.959991" y2="104.959999" stroke="red" stroke-width="6.660000" />
<circle cx="634.960022" cy="335.959991" r="19.980000" fill="red">
  <title>New York</title>
</circle><line x1="267.959991" y1="104.959999" x2="634.960022" y2="335.959991" stroke="red" stroke-width="6.660000" />
<circle cx="1086.959961" cy="701.960022" r="19.980000" fill="red">
  <title>Mumbai</title>
</circle><line x1="634.960022" y1="335.959991" x2="1086.959961" y2="701.960022" stroke="red" stroke-width="6.660000" />
<circle cx="1384.959961" cy="605.960022" r="19.980000" fill="red">
  <title>Beijing</title>
</circle><line x1="1086.959961" y1="701.960022" x2="1384.959961" y2="605.960022" stroke="red" stroke-width="6.660000" />
<circle cx="1745.959961" cy="93.959999" r="19.980000" fill="red">
  <title>Osaka</title>
</circle><line x1="1384.959961" y1="605.960022" x2="1745.959961" y2="93.959999" stroke="red" stroke-width="6.660000" />
<circle cx="1751.959961" cy="978.960022" r="19.980000" fill="red">
  <title>Delhi</title>
</circle><line x1="1745.959961" y1="93.959999" x2="1751.959961" y2="978.960022" stroke="red" stroke-width="6.660000" />
<circle cx="1612.959961" cy="1716.959961" r="19.980000" fill="red">
  <title>São Paulo</title>
</circle><line x1="1751.959961" y1="978.960022" x2="1612.959961" y2="1716.959961" stroke="red" stroke-width="6.660000" />
<circle cx="1467.959961" cy="1683.959961" r="19.980000" fill="red">
  <title>Shanghai</title>
</circle><line x1="1612.959961" y1="1716.959961" x2="1467.959961" y2="1683.959961" stroke="red" stroke-width="6.660000" />
<circle cx="505.959991" cy="1730.959961" r="19.980000" fill="red">
  <title>Cairo</title>
</circle><line x1="1467.959961" y1="1683.959961" x2="505.959991" y2="1730.959961" stroke="red" stroke-width="6.660000" />
<circle cx="436.959991" cy="1453.959961" r="19.980000" fill="red">
  <title>Dhaka</title>
</circle><line x1="505.959991" y1="1730.959961" x2="436.959991" y2="1453.959961" stroke="red" stroke-width="6.660000" />
<circle cx="390.959991" cy="941.960022" r="19.980000" fill="red">
  <title>Mexico City</title>
</circle><line x1="436.959991" y1="1453.959961" x2="390.959991" y2="941.960022" stroke="red" stroke-width="6.660000" />
</svg>
