<?xml version="1.0" encoding="UTF-8" standalone="no"?>
<svg width="500" height="500" viewBox="0 0 2074.000000 2074.000000" xmlns="http://www.w3.org/2000/svg">
<rect x="19.000000" y="19.000000" width="2036.000000" height="2036.000000" fill="black" />
<circle cx="1770.959961" cy="1771.959961" r="19.980000" fill="red">
  <title>Tokyo</title>
</circle><line x1="1986.959961" y1="1000.960022" x2="1770.959961" y2="1771.959961" stroke="red" stroke-width="6.660000" />
<circle cx="904.960022" cy="2030.959961" r="19.980000" fill="red">
  <title>Mumbai</title>
</circle><line x1="1770.959961" y1="1771.959961" x2="904.960022" y2="2030.959961" stroke="red" stroke-width="6.660000" />
<circle cx="634.960022" cy="1747.959961" r="19.980000" fill="red">
  <title>Cairo</title>
</circle><line x1="904.960022" y1="2030.959961" x2="634.960022" y2="1747.959961" stroke="red" stroke-width="6.660000" />
<circle cx="481.959991" cy="1996.959961" r="19.980000" fill="red">
  <title>Shanghai</title>
</circle><line x1="634.960022" y1="1747.959961" x2="481.959991" y2="1996.959961" stroke="red" stroke-width="6.660000" />
<circle cx="221.959991" cy="1761.959961" r="19.980000" fill="red">
  <title>São Paulo</title>
</circle><line x1="481.959991" y1="1996.959961" x2="221.959991" y2="1761.959961" stroke="red" stroke-width="6.660000" />
<circle cx="546.960022" cy="1412.959961" r="19.980000" fill="red">
  <title>Mexico City</title>
</circle><line x1="221.959991" y1="1761.959961" x2="546.960022" y2="1412.959961" stroke="red" stroke-width="6.660000" />
<circle cx="653.960022" cy="1025.959961" r="19.980000" fill="red">
  <title>Delhi</title>
</circle><line x1="546.960022" y1="1412.959961" x2="653.960022" y2="1025.959961" stroke="red" stroke-width="6.660000" />
<circle cx="715.960022" cy="866.960022" r="19.980000" fill="red">
  <title>Beijing</title>
</circle><line x1="653.960022" y1="1025.959961" x2="715.960022" y2="866.960022" stroke="red" stroke-width="6.660000" />
<circle cx="1986.959961" cy="1000.960022" r="19.980000" fill="red">
  <title>Dhaka</title>
</circle><line x1="715.960022" y1="866.960022" x2="1986.959961" y2="1000.960022" stroke="red" stroke-width="6.660000" />
</svg>
