<?xml version="1.0" encoding="UTF-8" standalone="no"?>
<svg width="500" height="500" viewBox="0 0 2074.000000 2074.000000" xmlns="http://www.w3.org/2000/svg">
<rect x="19.000000" y="19.000000" width="2036.000000" height="2036.000000" fill="black" />
<circle cx="850.960022" cy="1346.959961" r="19.980000" fill="red">
  <title>Tokyo</title>
</circle><line x1="693.960022" y1="1925.959961" x2="850.960022" y2="1346.959961" stroke="red" stroke-width="6.660000" />
<circle cx="996.960022" cy="985.960022" r="19.980000" fill="red">
  <title>Mexico City</title>
</circle><line x1="850.960022" y1="1346.959961" x2="996.960022" y2="985.960022" stroke="red" stroke-width="6.660000" />
<circle cx="1247.959961" cy="929.960022" r="19.980000" fill="red">
  <title>Beijing</title>
</circle><line x1="996.960022" y1="985.960022" x2="1247.959961" y2="929.960022" stroke="red" stroke-width="6.660000" />
<circle cx="1369.959961" cy="1350.959961" r="19.980000" fill="red">
  <title>Delhi</title>
</circle><line x1="1247.959961" y1="929.960022" x2="1369.959961" y2="1350.959961" stroke="red" stroke-width="6.660000" />
<circle cx="1997.959961" cy="1563.959961" r="19.980000" fill="red">
  <title>Shanghai</title>
</circle><line x1="1369.959961" y1="1350.959961" x2="1997.959961" y2="1563.959961" stroke="red" stroke-width="6.660000" />
<circle cx="1856.959961" cy="1972.959961" r="19.980000" fill="red">
  <title>São Paulo</title>
</circle><line x1="1997.959961" y1="1563.959961" x2="1856.959961" y2="1972.959961" stroke="red" stroke-width="6.660000" />
<circle cx="1473.959961" cy="2006.959961" r="19.980000" fill="red">
  <title>Cairo</title>
</circle><line x1="1856.959961" y1="1972.959961" x2="1473.959961" y2="2006.959961" stroke="red" stroke-width="6.660000" />
<circle cx="693.960022" cy="1925.959961" r="19.980000" fill="red">
  <title>Mumbai</title>
</circle><line x1="1473.959961" y1="2006.959961" x2="693.960022" y2="1925.959961" stroke="red" stroke-width="6.660000" />
</svg>
