<?xml version="1.0" encoding="UTF-8" standalone="no"?>
<svg width="500" height="500" viewBox="0 0 2074.000000 2074.000000" xmlns="http://www.w3.org/2000/svg">
<rect x="19.000000" y="19.000000" width="2036.000000" height="2036.000000" fill="black" />
<circle cx="770.960022" cy="1166.959961" r="19.980000" fill="red">
  <title>Tokyo</title>
</circle><line x1="1913.959961" y1="396.959991" x2="770.960022" y2="1166.959961" stroke="red" stroke-width="6.660000" />
<circle cx="375.959991" cy="726.960022" r="19.980000" fill="red">
  <title>Delhi</title>
</circle><line x1="770.960022" y1="1166.959961" x2="375.959991" y2="726.960022" stroke="red" stroke-width="6.660000" />
<circle cx="1913.959961" cy="396.959991" r="19.980000" fill="red">
  <title>Shanghai</title>
</circle><line x1="375.959991" y1="726.960022" x2="1913.959961" y2="396.959991" stroke="red" stroke-width="6.660000" />
</svg>
