<?xml version="1.0" encoding="UTF-8" standalone="no"?>
<svg width="500" height="500" viewBox="0 0 2074.000000 2074.000000" xmlns="http://www.w3.org/2000/svg">
<rect x="19.000000" y="19.000000" width="2036.000000" height="2036.000000" fill="black" />
<circle cx="538.960022" cy="974.960022" r="19.980000" fill="red">
  <title>Tokyo</title>
</circle><line x1="251.959991" y1="664.960022" x2="538.960022" y2="974.960022" stroke="red" stroke-width="6.660000" />
<circle cx="86.959999" cy="1921.959961" r="19.980000" fill="red">
  <title>Delhi</title>
</circle><line x1="538.960022" y1="974.960022" x2="86.959999" y2="1921.959961" stroke="red" stroke-width="6.660000" />
<circle cx="632.960022" cy="1421.959961" r="19.980000" fill="red">
  <title>Beijing</title>
</circle><line x1="86.959999" y1="1921.959961" x2="632.960022" y2="1421.959961" stroke="red" stroke-width="6.660000" />
<circle cx="2014.959961" cy="1714.959961" r="19.980000" fill="red">
  <title>Osaka</title>
</circle><line x1="632.960022" y1="1421.959961" x2="2014.959961" y2="1714.959961" stroke="red" stroke-width="6.660000" />
<circle cx="1206.959961" cy="1474.959961" r="19.980000" fill="red">
  <title>Shanghai</title>
</circle><line x1="2014.959961" y1="1714.959961" x2="1206.959961" y2="1474.959961" stroke="red" stroke-width="6.660000" />
<circle cx="754.960022" cy="863.960022" r="19.980000" fill="red">
  <title>Mumbai</title>
</circle><line x1="1206.959961" y1="1474.959961" x2="754.960022" y2="863.960022" stroke="red" stroke-width="6.660000" />
<circle cx="772.960022" cy="530.960022" r="19.980000" fill="red">
  <title>Cairo</title>
</circle><line x1="754.960022" y1="863.960022" x2="772.960022" y2="530.960022" stroke="red" stroke-width="6.660000" />
<circle cx="651.960022" cy="87.959999" r="19.980000" fill="red">
  <title>Mexico City</title>
</circle><line x1="772.960022" y1="530.960022" x2="651.960022" y2="87.959999" stroke="red" stroke-width="6.660000" />
<circle cx="584.960022" cy="228.959991" r="19.980000" fill="red">
  <title>Dhaka</title>
</circle><line x1="651.960022" y1="87.959999" x2="584.960022" y2="228.959991" stroke="red" stroke-width="6.660000" />
<circle cx="251.959991" cy="664.960022" r="19.980000" fill="red">
  <title>São Paulo</title>
</circle><line x1="584.960022" y1="228.959991" x2="251.959991" y2="664.960022" stroke="red" stroke-width="6.660000" />
</svg>
