<?xml version="1.0" encoding="UTF-8" standalone="no"?>
<svg width="500" height="500" viewBox="0 0 2074.000000 2074.000000" xmlns="http://www.w3.org/2000/svg">
<rect x="19.000000" y="19.000000" width="2036.000000" height="2036.000000" fill="black" />
<circle cx="1782.959961" cy="190.959991" r="19.980000" fill="red">
  <title>Tokyo</title>
</circle><line x1="1683.959961" y1="422.959991" x2="1782.959961" y2="190.959991" stroke="red" stroke-width="6.660000" />
<circle cx="1680.959961" cy="119.959999" r="19.980000" fill="red">
  <title>Beijing</title>
</circle><line x1="1782.959961" y1="190.959991" x2="1680.959961" y2="119.959999" stroke="red" stroke-width="6.660000" />
<circle cx="1444.959961" cy="482.959991" r="19.980000" fill="red">
  <title>Karachi</title>
</circle><line x1="1680.959961" y1="119.959999" x2="1444.959961" y2="482.959991" stroke="red" stroke-width="6.660000" />
<circle cx="682.960022" cy="93.959999" r="19.980000" fill="red">
  <title>Chongqing</title>
</circle><line x1="1444.959961" y1="482.959991" x2="682.960022" y2="93.959999" stroke="red" stroke-width="6.660000" />
<circle cx="536.960022" cy="334.959991" r="19.980000" fill="red">
  <title>Delhi</title>
</circle><line x1="682.960022" y1="93.959999" x2="536.960022" y2="334.959991" stroke="red" stroke-width="6.660000" />
<circle cx="405.959991" cy="263.959991" r="19.980000" fill="red">
  <title>Shanghai</title>
</circle><line x1="536.960022" y1="334.959991" x2="405.959991" y2="263.959991" stroke="red" stroke-width="6.660000" />
<circle cx="66.959999" cy="723.960022" r="19.980000" fill="red">
  <title>Mexico City</title>
</circle><line x1="405.959991" y1="263.959991" x2="66.959999" y2="723.960022" stroke="red" stroke-width="6.660000" />
<circle cx="303.959991" cy="1988.959961" r="19.980000" fill="red">
  <title>Mumbai</title>
</circle><line x1="66.959999" y1="723.960022" x2="303.959991" y2="1988.959961" stroke="red" stroke-width="6.660000" />
<circle cx="905.960022" cy="1511.959961" r="19.980000" fill="red">
  <title>Buenos Aires</title>
</circle><line x1="303.959991" y1="1988.959961" x2="905.960022" y2="1511.959961" stroke="red" stroke-width="6.660000" />
<circle cx="1210.959961" cy="1560.959961" r="19.980000" fill="red">
  <title>Osaka</title>
</circle><line x1="905.960022" y1="1511.959961" x2="1210.959961" y2="1560.959961" stroke="red" stroke-width="6.660000" />
<circle cx="1268.959961" cy="1718.959961" r="19.980000" fill="red">
  <title>São Paulo</title>
</circle><line x1="1210.959961" y1="1560.959961" x2="1268.959961" y2="1718.959961" stroke="red" stroke-width="6.660000" />
<circle cx="1700.959961" cy="1914.959961" r="19.980000" fill="red">
  <title>New York</title>
</circle><line x1="1268.959961" y1="1718.959961" x2="1700.959961" y2="1914.959961" stroke="red" stroke-width="6.660000" />
<circle cx="1630.959961" cy="1427.959961" r="19.980000" fill="red">
  <title>Kolkata</title>
</circle><line x1="1700.959961" y1="1914.959961" x2="1630.959961" y2="1427.959961" stroke="red" stroke-width="6.660000" />
<circle cx="1274.959961" cy="1115.959961" r="19.980000" fill="red">
  <title>Cairo</title>
</circle><line x1="1630.959961" y1="1427.959961" x2="1274.959961" y2="1115.959961" stroke="red" stroke-width="6.660000" />
<circle cx="2015.959961" cy="880.960022" r="19.980000" fill="red">
  <title>Dhaka</title>
</circle><line x1="1274.959961" y1="1115.959961" x2="2015.959961" y2="880.960022" stroke="red" stroke-width="6.660000" />
<circle cx="1683.959961" cy="422.959991" r="19.980000" fill="red">
  <title>Istanbul</title>
</circle><line x1="2015.959961" y1="880.960022" x2="1683.959961" y2="422.959991" stroke="red" stroke-width="6.660000" />
</svg>
