<?xml version="1.0" encoding="UTF-8" standalone="no"?>
<svg width="500" height="500" viewBox="0 0 2074.000000 2074.000000" xmlns="http://www.w3.org/2000/svg">
<rect x="19.000000" y="19.000000" width="2036.000000" height="2036.000000" fill="black" />
<circle cx="768.960022" cy="1818.959961" r="19.980000" fill="red">
  <title>Tokyo</title>
</circle><line x1="1658.959961" y1="1967.959961" x2="768.960022" y2="1818.959961" stroke="red" stroke-width="6.660000" />
<circle cx="571.960022" cy="1835.959961" r="19.980000" fill="red">
  <title>Buenos Aires</title>
</circle><line x1="768.960022" y1="1818.959961" x2="571.960022" y2="1835.959961" stroke="red" stroke-width="6.660000" />
<circle cx="246.959991" cy="1731.959961" r="19.980000" fill="red">
  <title>Chongqing</title>
</circle><line x1="571.960022" y1="1835.959961" x2="246.959991" y2="1731.959961" stroke="red" stroke-width="6.660000" />
<circle cx="713.960022" cy="1334.959961" r="19.980000" fill="red">
  <title>Shanghai</title>
</circle><line x1="246.959991" y1="1731.959961" x2="713.960022" y2="1334.959961" stroke="red" stroke-width="6.660000" />
<circle cx="616.960022" cy="1014.960022" r="19.980000" fill="red">
  <title>São Paulo</title>
</circle><line x1="713.960022" y1="1334.959961" x2="616.960022" y2="1014.960022" stroke="red" stroke-width="6.660000" />
<circle cx="119.959999" cy="923.960022" r="19.980000" fill="red">
  <title>Delhi</title>
</circle><line x1="616.960022" y1="1014.960022" x2="119.959999" y2="923.960022" stroke="red" stroke-width="6.660000" />
<circle cx="769.960022" cy="559.960022" r="19.980000" fill="red">
  <title>Mexico City</title>
</circle><line x1="119.959999" y1="923.960022" x2="769.960022" y2="559.960022" stroke="red" stroke-width="6.660000" />
<circle cx="597.960022" cy="129.959991" r="19.980000" fill="red">
  <title>Osaka</title>
</circle><line x1="769.960022" y1="559.960022" x2="597.960022" y2="129.959991" stroke="red" stroke-width="6.660000" />
<circle cx="1107.959961" cy="152.959991" r="19.980000" fill="red">
  <title>Mumbai</title>
</circle><line x1="597.960022" y1="129.959991" x2="1107.959961" y2="152.959991" stroke="red" stroke-width="6.660000" />
<circle cx="1646.959961" cy="342.959991" r="19.980000" fill="red">
  <title>Cairo</title>
</circle><line x1="1107.959961" y1="152.959991" x2="1646.959961" y2="342.959991" stroke="red" stroke-width="6.660000" />
<circle cx="1643.959961" cy="551.960022" r="19.980000" fill="red">
  <title>Beijing</title>
</circle><line x1="1646.959961" y1="342.959991" x2="1643.959961" y2="551.960022" stroke="red" stroke-width="6.660000" />
<circle cx="1243.959961" cy="617.960022" r="19.980000" fill="red">
  <title>Kolkata</title>
</circle><line x1="1643.959961" y1="551.960022" x2="1243.959961" y2="617.960022" stroke="red" stroke-width="6.660000" />
<circle cx="1438.959961" cy="1017.960022" r="19.980000" fill="red">
  <title>Karachi</title>
</circle><line x1="1243.959961" y1="617.960022" x2="1438.959961" y2="1017.960022" stroke="red" stroke-width="6.660000" />
<circle cx="1607.959961" cy="1037.959961" r="19.980000" fill="red">
  <title>New York</title>
</circle><line x1="1438.959961" y1="1017.960022" x2="1607.959961" y2="1037.959961" stroke="red" stroke-width="6.660000" />
<circle cx="1887.959961" cy="1223.959961" r="19.980000" fill="red">
  <title>Istanbul</title>
</circle><line x1="1607.959961" y1="1037.959961" x2="1887.959961" y2="1223.959961" stroke="red" stroke-width="6.660000" />
<circle cx="1658.959961" cy="1967.959961" r="19.980000" fill="red">
  <title>Dhaka</title>
</circle><line x1="1887.959961" y1="1223.959961" x2="1658.959961" y2="1967.959961" stroke="red" stroke-width="6.660000" />
</svg>
