<?xml version="1.0" encoding="UTF-8" standalone="no"?>
<svg width="500" height="500" viewBox="0 0 2074.000000 2074.000000" xmlns="http://www.w3.org/2000/svg">
<rect x="19.000000" y="19.000000" width="2036.000000" height="2036.000000" fill="black" />
<circle cx="566.960022" cy="834.960022" r="19.980000" fill="red">
  <title>Tokyo</title>
</circle><line x1="479.959991" y1="1198.959961" x2="566.960022" y2="834.960022" stroke="red" stroke-width="6.660000" />
<circle cx="161.959991" cy="572.960022" r="19.980000" fill="red">
  <title>Shanghai</title>
</circle><line x1="566.960022" y1="834.960022" x2="161.959991" y2="572.960022" stroke="red" stroke-width="6.660000" />
<circle cx="677.960022" cy="794.960022" r="19.980000" fill="red">
  <title>São Paulo</title>
</circle><line x1="161.959991" y1="572.960022" x2="677.960022" y2="794.960022" stroke="red" stroke-width="6.660000" />
<circle cx="1484.959961" cy="1176.959961" r="19.980000" fill="red">
  <title>Mexico City</title>
</circle><line x1="677.960022" y1="794.960022" x2="1484.959961" y2="1176.959961" stroke="red" stroke-width="6.660000" />
<circle cx="1429.959961" cy="1515.959961" r="19.980000" fill="red">
  <title>Delhi</title>
</circle><line x1="1484.959961" y1="1176.959961" x2="1429.959961" y2="1515.959961" stroke="red" stroke-width="6.660000" />
<circle cx="460.959991" cy="1356.959961" r="19.980000" fill="red">
  <title>Mumbai</title>
</circle><line x1="1429.959961" y1="1515.959961" x2="460.959991" y2="1356.959961" stroke="red" stroke-width="6.660000" />
<circle cx="479.959991" cy="1198.959961" r="19.980000" fill="red">
  <title>Cairo</title>
</circle><line x1="460.959991" y1="1356.959961" x2="479.959991" y2="1198.959961" stroke="red" stroke-width="6.660000" />
</svg>
