<?xml version="1.0" encoding="UTF-8" standalone="no"?>
<svg width="500" height="500" viewBox="0 0 2074.000000 2074.000000" xmlns="http://www.w3.org/2000/svg">
<rect x="19.000000" y="19.000000" width="2036.000000" height="2036.000000" fill="black" />
<circle cx="1199.959961" cy="1390.959961" r="19.980000" fill="red">
  <title>Tokyo</title>
</circle><line x1="1150.959961" y1="1064.959961" x2="1199.959961" y2="1390.959961" stroke="red" stroke-width="6.660000" />
<circle cx="1443.959961" cy="1159.959961" r="19.980000" fill="red">
  <title>Karachi</title>
</circle><line x1="1199.959961" y1="1390.959961" x2="1443.959961" y2="1159.959961" stroke="red" stroke-width="6.660000" />
<circle cx="1963.959961" cy="862.960022" r="19.980000" fill="red">
  <title>Istanbul</title>
</circle><line x1="1443.959961" y1="1159.959961" x2="1963.959961" y2="862.960022" stroke="red" stroke-width="6.660000" />
<circle cx="1869.959961" cy="641.960022" r="19.980000" fill="red">
  <title>Delhi</title>
</circle><line x1="1963.959961" y1="862.960022" x2="1869.959961" y2="641.960022" stroke="red" stroke-width="6.660000" />
<circle cx="1955.959961" cy="325.959991" r="19.980000" fill="red">
  <title>Beijing</title>
</circle><line x1="1869.959961" y1="641.960022" x2="1955.959961" y2="325.959991" stroke="red" stroke-width="6.660000" />
<circle cx="1414.959961" cy="334.959991" r="19.980000" fill="red">
  <title>Dhaka</title>
</circle><line x1="1955.959961" y1="325.959991" x2="1414.959961" y2="334.959991" stroke="red" stroke-width="6.660000" />
<circle cx="899.960022" cy="322.959991" r="19.980000" fill="red">
  <title>New York</title>
</circle><line x1="1414.959961" y1="334.959991" x2="899.960022" y2="322.959991" stroke="red" stroke-width="6.660000" />
<circle cx="767.960022" cy="447.959991" r="19.980000" fill="red">
  <title>Shanghai</title>
</circle><line x1="899.960022" y1="322.959991" x2="767.960022" y2="447.959991" stroke="red" stroke-width="6.660000" />
<circle cx="868.960022" cy="642.960022" r="19.980000" fill="red">
  <title>Mumbai</title>
</circle><line x1="767.960022" y1="447.959991" x2="868.960022" y2="642.960022" stroke="red" stroke-width="6.660000" />
<circle cx="937.960022" cy="907.960022" r="19.980000" fill="red">
  <title>Mexico City</title>
</circle><line x1="868.960022" y1="642.960022" x2="937.960022" y2="907.960022" stroke="red" stroke-width="6.660000" />
<circle cx="478.959991" cy="1198.959961" r="19.980000" fill="red">
  <title>Cairo</title>
</circle><line x1="937.960022" y1="907.960022" x2="478.959991" y2="1198.959961" stroke="red" stroke-width="6.660000" />
<circle cx="297.959991" cy="1552.959961" r="19.980000" fill="red">
  <title>Buenos Aires</title>
</circle><line x1="478.959991" y1="1198.959961" x2="297.959991" y2="1552.959961" stroke="red" stroke-width="6.660000" />
<circle cx="361.959991" cy="1444.959961" r="19.980000" fill="red">
  <title>Osaka</title>
</circle><line x1="297.959991" y1="1552.959961" x2="361.959991" y2="1444.959961" stroke="red" stroke-width="6.660000" />
<circle cx="728.960022" cy="1186.959961" r="19.980000" fill="red">
  <title>São Paulo</title>
</circle><line x1="361.959991" y1="1444.959961" x2="728.960022" y2="1186.959961" stroke="red" stroke-width="6.660000" />
<circle cx="1150.959961" cy="1064.959961" r="19.980000" fill="red">
  <title>Chongqing</title>
</circle><line x1="728.960022" y1="1186.959961" x2="1150.959961" y2="1064.959961" stroke="red" stroke-width="6.660000" />
</svg>
