<?xml version="1.0" encoding="UTF-8" standalone="no"?>
<svg width="500" height="500" viewBox="0 0 2074.000000 2074.000000" xmlns="http://www.w3.org/2000/svg">
<rect x="19.000000" y="19.000000" width="2036.000000" height="2036.000000" fill="black" />
<circle cx="1425.959961" cy="1289.959961" r="19.980000" fill="red">
  <title>Tokyo</title>
</circle><line x1="1963.959961" y1="1422.959961" x2="1425.959961" y2="1289.959961" stroke="red" stroke-width="6.660000" />
<circle cx="1595.959961" cy="699.960022" r="19.980000" fill="red">
  <title>Mumbai</title>
</circle><line x1="1425.959961" y1="1289.959961" x2="1595.959961" y2="699.960022" stroke="red" stroke-width="6.660000" />
<circle cx="1979.959961" cy="117.959999" r="19.980000" fill="red">
  <title>Delhi</title>
</circle><line x1="1595.959961" y1="699.960022" x2="1979.959961" y2="117.959999" stroke="red" stroke-width="6.660000" />
<circle cx="1154.959961" cy="210.959991" r="19.980000" fill="red">
  <title>Dhaka</title>
</circle><line x1="1979.959961" y1="117.959999" x2="1154.959961" y2="210.959991" stroke="red" stroke-width="6.660000" />
<circle cx="1117.959961" cy="159.959991" r="19.980000" fill="red">
  <title>Cairo</title>
</circle><line x1="1154.959961" y1="210.959991" x2="1117.959961" y2="159.959991" stroke="red" stroke-width="6.660000" />
<circle cx="198.959991" cy="575.960022" r="19.980000" fill="red">
  <title>Mexico City</title>
</circle><line x1="1117.959961" y1="159.959991" x2="198.959991" y2="575.960022" stroke="red" stroke-width="6.660000" />
<circle cx="580.960022" cy="939.960022" r="19.980000" fill="red">
  <title>Karachi</title>
</circle><line x1="198.959991" y1="575.960022" x2="580.960022" y2="939.960022" stroke="red" stroke-width="6.660000" />
<circle cx="424.959991" cy="1045.959961" r="19.980000" fill="red">
  <title>Istanbul</title>
</circle><line x1="580.960022" y1="939.960022" x2="424.959991" y2="1045.959961" stroke="red" stroke-width="6.660000" />
<circle cx="447.959991" cy="1131.959961" r="19.980000" fill="red">
  <title>São Paulo</title>
</circle><line x1="424.959991" y1="1045.959961" x2="447.959991" y2="1131.959961" stroke="red" stroke-width="6.660000" />
<circle cx="110.959999" cy="1889.959961" r="19.980000" fill="red">
  <title>Shanghai</title>
</circle><line x1="447.959991" y1="1131.959961" x2="110.959999" y2="1889.959961" stroke="red" stroke-width="6.660000" />
<circle cx="810.960022" cy="1567.959961" r="19.980000" fill="red">
  <title>New York</title>
</circle><line x1="110.959999" y1="1889.959961" x2="810.960022" y2="1567.959961" stroke="red" stroke-width="6.660000" />
<circle cx="909.960022" cy="1205.959961" r="19.980000" fill="red">
  <title>Beijing</title>
</circle><line x1="810.960022" y1="1567.959961" x2="909.960022" y2="1205.959961" stroke="red" stroke-width="6.660000" />
<circle cx="1232.959961" cy="1810.959961" r="19.980000" fill="red">
  <title>Kolkata</title>
</circle><line x1="909.960022" y1="1205.959961" x2="1232.959961" y2="1810.959961" stroke="red" stroke-width="6.660000" />
<circle cx="1841.959961" cy="1698.959961" r="19.980000" fill="red">
  <title>Chongqing</title>
</circle><line x1="1232.959961" y1="1810.959961" x2="1841.959961" y2="1698.959961" stroke="red" stroke-width="6.660000" />
<circle cx="1825.959961" cy="1626.959961" r="19.980000" fill="red">
  <title>Buenos Aires</title>
</circle><line x1="1841.959961" y1="1698.959961" x2="1825.959961" y2="1626.959961" stroke="red" stroke-width="6.660000" />
<circle cx="1963.959961" cy="1422.959961" r="19.980000" fill="red">
  <title>Osaka</title>
</circle><line x1="1825.959961" y1="1626.959961" x2="1963.959961" y2="1422.959961" stroke="red" stroke-width="6.660000" />
</svg>
