<?xml version="1.0" encoding="UTF-8" standalone="no"?>
<svg width="500" height="500" viewBox="0 0 2074.000000 2074.000000" xmlns="http://www.w3.org/2000/svg">
<rect x="19.000000" y="19.000000" width="2036.000000" height="2036.000000" fill="black" />
<circle cx="57.959999" cy="646.960022" r="19.980000" fill="red">
  <title>Tokyo</title>
</circle><line x1="396.959991" y1="294.959991" x2="57.959999" y2="646.960022" stroke="red" stroke-width="6.660000" />
<circle cx="353.959991" cy="780.960022" r="19.980000" fill="red">
  <title>Chongqing</title>
</circle><line x1="57.959999" y1="646.960022" x2="353.959991" y2="780.960022" stroke="red" stroke-width="6.660000" />
<circle cx="526.960022" cy="845.960022" r="19.980000" fill="red">
  <title>Shanghai</title>
</circle><line x1="353.959991" y1="780.960022" x2="526.960022" y2="845.960022" stroke="red" stroke-width="6.660000" />
<circle cx="119.959999" cy="1774.959961" r="19.980000" fill="red">
  <title>Dhaka</title>
</circle><line x1="526.960022" y1="845.960022" x2="119.959999" y2="1774.959961" stroke="red" stroke-width="6.660000" />
<circle cx="232.959991" cy="1872.959961" r="19.980000" fill="red">
  <title>Istanbul</title>
</circle><line x1="119.959999" y1="1774.959961" x2="232.959991" y2="1872.959961" stroke="red" stroke-width="6.660000" />
<circle cx="1522.959961" cy="1812.959961" r="19.980000" fill="red">
  <title>Buenos Aires</title>
</circle><line x1="232.959991" y1="1872.959961" x2="1522.959961" y2="1812.959961" stroke="red" stroke-width="6.660000" />
<circle cx="2021.959961" cy="1819.959961" r="19.980000" fill="red">
  <title>Mexico City</title>
</circle><line x1="1522.959961" y1="1812.959961" x2="2021.959961" y2="1819.959961" stroke="red" stroke-width="6.660000" />
<circle cx="1618.959961" cy="1001.960022" r="19.980000" fill="red">
  <title>Mumbai</title>
</circle><line x1="2021.959961" y1="1819.959961" x2="1618.959961" y2="1001.960022" stroke="red" stroke-width="6.660000" />
<circle cx="1888.959961" cy="759.960022" r="19.980000" fill="red">
  <title>Delhi</title>
</circle><line x1="1618.959961" y1="1001.960022" x2="1888.959961" y2="759.960022" stroke="red" stroke-width="6.660000" />
<circle cx="1700.959961" cy="586.960022" r="19.980000" fill="red">
  <title>Cairo</title>
</circle><line x1="1888.959961" y1="759.960022" x2="1700.959961" y2="586.960022" stroke="red" stroke-width="6.660000" />
<circle cx="1723.959961" cy="452.959991" r="19.980000" fill="red">
  <title>São Paulo</title>
</circle><line x1="1700.959961" y1="586.960022" x2="1723.959961" y2="452.959991" stroke="red" stroke-width="6.660000" />
<circle cx="1484.959961" cy="251.959991" r="19.980000" fill="red">
  <title>Karachi</title>
</circle><line x1="1723.959961" y1="452.959991" x2="1484.959961" y2="251.959991" stroke="red" stroke-width="6.660000" />
<circle cx="971.960022" cy="969.960022" r="19.980000" fill="red">
  <title>Lagos</title>
</circle><line x1="1484.959961" y1="251.959991" x2="971.960022" y2="969.960022" stroke="red" stroke-width="6.660000" />
<circle cx="620.960022" cy="716.960022" r="19.980000" fill="red">
  <title>Beijing</title>
</circle><line x1="971.960022" y1="969.960022" x2="620.960022" y2="716.960022" stroke="red" stroke-width="6.660000" />
<circle cx="481.959991" cy="303.959991" r="19.980000" fill="red">
  <title>Manila</title>
</circle><line x1="620.960022" y1="716.960022" x2="481.959991" y2="303.959991" stroke="red" stroke-width="6.660000" />
<circle cx="610.960022" cy="103.959999" r="19.980000" fill="red">
  <title>New York</title>
</circle><line x1="481.959991" y1="303.959991" x2="610.960022" y2="103.959999" stroke="red" stroke-width="6.660000" />
<circle cx="452.959991" cy="251.959991" r="19.980000" fill="red">
  <title>Kolkata</title>
</circle><line x1="610.960022" y1="103.959999" x2="452.959991" y2="251.959991" stroke="red" stroke-width="6.660000" />
<circle cx="396.959991" cy="294.959991" r="19.980000" fill="red">
  <title>Osaka</title>
</circle><line x1="452.959991" y1="251.959991" x2="396.959991" y2="294.959991" stroke="red" stroke-width="6.660000" />
</svg>
