<?xml version="1.0" encoding="UTF-8" standalone="no"?>
<svg width="500" height="500" viewBox="0 0 2074.000000 2074.000000" xmlns="http://www.w3.org/2000/svg">
<rect x="19.000000" y="19.000000" width="2036.000000" height="2036.000000" fill="black" />
<circle cx="52.959999" cy="84.959999" r="19.980000" fill="red">
  <title>Tokyo</title>
</circle><line x1="808.960022" y1="537.960022" x2="52.959999" y2="84.959999" stroke="red" stroke-width="6.660000" />
<circle cx="347.959991" cy="733.960022" r="19.980000" fill="red">
  <title>Mumbai</title>
</circle><line x1="52.959999" y1="84.959999" x2="347.959991" y2="733.960022" stroke="red" stroke-width="6.660000" />
<circle cx="70.959999" cy="1088.959961" r="19.980000" fill="red">
  <title>Cairo</title>
</circle><line x1="347.959991" y1="733.960022" x2="70.959999" y2="1088.959961" stroke="red" stroke-width="6.660000" />
<circle cx="338.959991" cy="1877.959961" r="19.980000" fill="red">
  <title>Osaka</title>
</circle><line x1="70.959999" y1="1088.959961" x2="338.959991" y2="1877.959961" stroke="red" stroke-width="6.660000" />
<circle cx="1044.959961" cy="1941.959961" r="19.980000" fill="red">
  <title>Shanghai</title>
</circle><line x1="338.959991" y1="1877.959961" x2="1044.959961" y2="1941.959961" stroke="red" stroke-width="6.660000" />
<circle cx="1307.959961" cy="1519.959961" r="19.980000" fill="red">
  <title>São Paulo</title>
</circle><line x1="1044.959961" y1="1941.959961" x2="1307.959961" y2="1519.959961" stroke="red" stroke-width="6.660000" />
<circle cx="1945.959961" cy="748.960022" r="19.980000" fill="red">
  <title>Mexico City</title>
</circle><line x1="1307.959961" y1="1519.959961" x2="1945.959961" y2="748.960022" stroke="red" stroke-width="6.660000" />
<circle cx="1281.959961" cy="367.959991" r="19.980000" fill="red">
  <title>Delhi</title>
</circle><line x1="1945.959961" y1="748.960022" x2="1281.959961" y2="367.959991" stroke="red" stroke-width="6.660000" />
<circle cx="1084.959961" cy="662.960022" r="19.980000" fill="red">
  <title>Beijing</title>
</circle><line x1="1281.959961" y1="367.959991" x2="1084.959961" y2="662.960022" stroke="red" stroke-width="6.660000" />
<circle cx="808.960022" cy="537.960022" r="19.980000" fill="red">
  <title>Dhaka</title>
</circle><line x1="1084.959961" y1="662.960022" x2="808.960022" y2="537.960022" stroke="red" stroke-width="6.660000" />
</svg>
