<?xml version="1.0" encoding="UTF-8" standalone="no"?>
<svg width="500" height="500" viewBox="0 0 2074.000000 2074.000000" xmlns="http://www.w3.org/2000/svg">
<rect x="19.000000" y="19.000000" width="2036.000000" height="2036.000000" fill="black" />
<circle cx="1635.959961" cy="1983.959961" r="19.980000" fill="red">
  <title>Tokyo</title>
</circle><line x1="1681.959961" y1="780.960022" x2="1635.959961" y2="1983.959961" stroke="red" stroke-width="6.660000" />
<circle cx="1574.959961" cy="848.960022" r="19.980000" fill="red">
  <title>Shanghai</title>
</circle><line x1="1635.959961" y1="1983.959961" x2="1574.959961" y2="848.960022" stroke="red" stroke-width="6.660000" />
<circle cx="1369.959961" cy="763.960022" r="19.980000" fill="red">
  <title>Delhi</title>
</circle><line x1="1574.959961" y1="848.960022" x2="1369.959961" y2="763.960022" stroke="red" stroke-width="6.660000" />
<circle cx="1681.959961" cy="780.960022" r="19.980000" fill="red">
  <title>São Paulo</title>
</circle><line x1="1369.959961" y1="763.960022" x2="1681.959961" y2="780.960022" stroke="red" stroke-width="6.660000" />
</svg>
