<?xml version="1.0" encoding="UTF-8" standalone="no"?>
<svg width="500" height="500" viewBox="0 0 2074.000000 2074.000000" xmlns="http://www.w3.org/2000/svg">
<rect x="19.000000" y="19.000000" width="2036.000000" height="2036.000000" fill="black" />
<circle cx="673.960022" cy="491.959991" r="19.980000" fill="red">
  <title>Tokyo</title>
</circle><line x1="567.960022" y1="1379.959961" x2="673.960022" y2="491.959991" stroke="red" stroke-width="6.660000" />
<circle cx="1484.959961" cy="302.959991" r="19.980000" fill="red">
  <title>Mexico City</title>
</circle><line x1="673.960022" y1="491.959991" x2="1484.959961" y2="302.959991" stroke="red" stroke-width="6.660000" />
<circle cx="1685.959961" cy="253.959991" r="19.980000" fill="red">
  <title>Shanghai</title>
</circle><line x1="1484.959961" y1="302.959991" x2="1685.959961" y2="253.959991" stroke="red" stroke-width="6.660000" />
<circle cx="1855.959961" cy="709.960022" r="19.980000" fill="red">
  <title>Osaka</title>
</circle><line x1="1685.959961" y1="253.959991" x2="1855.959961" y2="709.960022" stroke="red" stroke-width="6.660000" />
<circle cx="1547.959961" cy="892.960022" r="19.980000" fill="red">
  <title>New York</title>
</circle><line x1="1855.959961" y1="709.960022" x2="1547.959961" y2="892.960022" stroke="red" stroke-width="6.660000" />
<circle cx="1434.959961" cy="841.960022" r="19.980000" fill="red">
  <title>Cairo</title>
</circle><line x1="1547.959961" y1="892.960022" x2="1434.959961" y2="841.960022" stroke="red" stroke-width="6.660000" />
<circle cx="1717.959961" cy="984.960022" r="19.980000" fill="red">
  <title>Delhi</title>
</circle><line x1="1434.959961" y1="841.960022" x2="1717.959961" y2="984.960022" stroke="red" stroke-width="6.660000" />
<circle cx="1339.959961" cy="1742.959961" r="19.980000" fill="red">
  <title>São Paulo</title>
</circle><line x1="1717.959961" y1="984.960022" x2="1339.959961" y2="1742.959961" stroke="red" stroke-width="6.660000" />
<circle cx="937.960022" cy="1898.959961" r="19.980000" fill="red">
  <title>Beijing</title>
</circle><line x1="1339.959961" y1="1742.959961" x2="937.960022" y2="1898.959961" stroke="red" stroke-width="6.660000" />
<circle cx="512.960022" cy="1899.959961" r="19.980000" fill="red">
  <title>Karachi</title>
</circle><line x1="937.960022" y1="1898.959961" x2="512.960022" y2="1899.959961" stroke="red" stroke-width="6.660000" />
<circle cx="641.960022" cy="1751.959961" r="19.980000" fill="red">
  <title>Mumbai</title>
</circle><line x1="512.960022" y1="1899.959961" x2="641.960022" y2="1751.959961" stroke="red" stroke-width="6.660000" />
<circle cx="567.960022" cy="1379.959961" r="19.980000" fill="red">
  <title>Dhaka</title>
</circle><line x1="641.960022" y1="1751.959961" x2="567.960022" y2="1379.959961" stroke="red" stroke-width="6.660000" />
</svg>
