<?xml version="1.0" encoding="UTF-8" standalone="no"?>
<svg width="500" height="500" viewBox="0 0 2074.000000 2074.000000" xmlns="http://www.w3.org/2000/svg">
<rect x="19.000000" y="19.000000" width="2036.000000" height="2036.000000" fill="black" />
<circle cx="1192.959961" cy="1170.959961" r="19.980000" fill="red">
  <title>Tokyo</title>
</circle><line x1="997.960022" y1="977.960022" x2="1192.959961" y2="1170.959961" stroke="red" stroke-width="6.660000" />
<circle cx="817.960022" cy="1224.959961" r="19.980000" fill="red">
  <title>Mumbai</title>
</circle><line x1="1192.959961" y1="1170.959961" x2="817.960022" y2="1224.959961" stroke="red" stroke-width="6.660000" />
<circle cx="353.959991" cy="1762.959961" r="19.980000" fill="red">
  <title>Istanbul</title>
</circle><line x1="817.960022" y1="1224.959961" x2="353.959991" y2="1762.959961" stroke="red" stroke-width="6.660000" />
<circle cx="405.959991" cy="1761.959961" r="19.980000" fill="red">
  <title>Osaka</title>
</circle><line x1="353.959991" y1="1762.959961" x2="405.959991" y2="1761.959961" stroke="red" stroke-width="6.660000" />
<circle cx="845.960022" cy="1589.959961" r="19.980000" fill="red">
  <title>Beijing</title>
</circle><line x1="405.959991" y1="1761.959961" x2="845.960022" y2="1589.959961" stroke="red" stroke-width="6.660000" />
<circle cx="1024.959961" cy="1475.959961" r="19.980000" fill="red">
  <title>Buenos Aires</title>
</circle><line x1="845.960022" y1="1589.959961" x2="1024.959961" y2="1475.959961" stroke="red" stroke-width="6.660000" />
<circle cx="1062.959961" cy="1547.959961" r="19.980000" fill="red">
  <title>Karachi</title>
</circle><line x1="1024.959961" y1="1475.959961" x2="1062.959961" y2="1547.959961" stroke="red" stroke-width="6.660000" />
<circle cx="1435.959961" cy="1948.959961" r="19.980000" fill="red">
  <title>Cairo</title>
</circle><line x1="1062.959961" y1="1547.959961" x2="1435.959961" y2="1948.959961" stroke="red" stroke-width="6.660000" />
<circle cx="1629.959961" cy="1864.959961" r="19.980000" fill="red">
  <title>Chongqing</title>
</circle><line x1="1435.959961" y1="1948.959961" x2="1629.959961" y2="1864.959961" stroke="red" stroke-width="6.660000" />
<circle cx="1765.959961" cy="1507.959961" r="19.980000" fill="red">
  <title>Kolkata</title>
</circle><line x1="1629.959961" y1="1864.959961" x2="1765.959961" y2="1507.959961" stroke="red" stroke-width="6.660000" />
<circle cx="1734.959961" cy="889.960022" r="19.980000" fill="red">
  <title>Dhaka</title>
</circle><line x1="1765.959961" y1="1507.959961" x2="1734.959961" y2="889.960022" stroke="red" stroke-width="6.660000" />
<circle cx="1354.959961" cy="851.960022" r="19.980000" fill="red">
  <title>São Paulo</title>
</circle><line x1="1734.959961" y1="889.960022" x2="1354.959961" y2="851.960022" stroke="red" stroke-width="6.660000" />
<circle cx="1407.959961" cy="626.960022" r="19.980000" fill="red">
  <title>Tianjin</title>
</circle><line x1="1354.959961" y1="851.960022" x2="1407.959961" y2="626.960022" stroke="red" stroke-width="6.660000" />
<circle cx="1661.959961" cy="594.960022" r="19.980000" fill="red">
  <title>Lagos</title>
</circle><line x1="1407.959961" y1="626.960022" x2="1661.959961" y2="594.960022" stroke="red" stroke-width="6.660000" />
<circle cx="1666.959961" cy="562.960022" r="19.980000" fill="red">
  <title>Mexico City</title>
</circle><line x1="1661.959961" y1="594.960022" x2="1666.959961" y2="562.960022" stroke="red" stroke-width="6.660000" />
<circle cx="1738.959961" cy="164.959991" r="19.980000" fill="red">
  <title>Shanghai</title>
</circle><line x1="1666.959961" y1="562.960022" x2="1738.959961" y2="164.959991" stroke="red" stroke-width="6.660000" />
<circle cx="1145.959961" cy="192.959991" r="19.980000" fill="red">
  <title>Delhi</title>
</circle><line x1="1738.959961" y1="164.959991" x2="1145.959961" y2="192.959991" stroke="red" stroke-width="6.660000" />
<circle cx="304.959991" cy="149.959991" r="19.980000" fill="red">
  <title>New York</title>
</circle><line x1="1145.959961" y1="192.959991" x2="304.959991" y2="149.959991" stroke="red" stroke-width="6.660000" />
<circle cx="894.960022" cy="872.960022" r="19.980000" fill="red">
  <title>Manila</title>
</circle><line x1="304.959991" y1="149.959991" x2="894.960022" y2="872.960022" stroke="red" stroke-width="6.660000" />
<circle cx="997.960022" cy="977.960022" r="19.980000" fill="red">
  <title>Rio de Janeiro</title>
</circle><line x1="894.960022" y1="872.960022" x2="997.960022" y2="977.960022" stroke="red" stroke-width="6.660000" />
</svg>
