<?xml version="1.0" encoding="UTF-8" standalone="no"?>
<svg width="500" height="500" viewBox="0 0 2074.000000 2074.000000" xmlns="http://www.w3.org/2000/svg">
<rect x="19.000000" y="19.000000" width="2036.000000" height="2036.000000" fill="black" />
<circle cx="1445.959961" cy="783.960022" r="19.980000" fill="red">
  <title>Tokyo</title>
</circle><line x1="1567.959961" y1="699.960022" x2="1445.959961" y2="783.960022" stroke="red" stroke-width="6.660000" />
<circle cx="1865.959961" cy="1844.959961" r="19.980000" fill="red">
  <title>Cairo</title>
</circle><line x1="1445.959961" y1="783.960022" x2="1865.959961" y2="1844.959961" stroke="red" stroke-width="6.660000" />
<circle cx="860.960022" cy="1230.959961" r="19.980000" fill="red">
  <title>Mexico City</title>
</circle><line x1="1865.959961" y1="1844.959961" x2="860.960022" y2="1230.959961" stroke="red" stroke-width="6.660000" />
<circle cx="258.959991" cy="1491.959961" r="19.980000" fill="red">
  <title>Beijing</title>
</circle><line x1="860.960022" y1="1230.959961" x2="258.959991" y2="1491.959961" stroke="red" stroke-width="6.660000" />
<circle cx="227.959991" cy="1698.959961" r="19.980000" fill="red">
  <title>São Paulo</title>
</circle><line x1="258.959991" y1="1491.959961" x2="227.959991" y2="1698.959961" stroke="red" stroke-width="6.660000" />
<circle cx="298.959991" cy="1313.959961" r="19.980000" fill="red">
  <title>New York</title>
</circle><line x1="227.959991" y1="1698.959961" x2="298.959991" y2="1313.959961" stroke="red" stroke-width="6.660000" />
<circle cx="660.960022" cy="344.959991" r="19.980000" fill="red">
  <title>Osaka</title>
</circle><line x1="298.959991" y1="1313.959961" x2="660.960022" y2="344.959991" stroke="red" stroke-width="6.660000" />
<circle cx="555.960022" cy="95.959999" r="19.980000" fill="red">
  <title>Mumbai</title>
</circle><line x1="660.960022" y1="344.959991" x2="555.960022" y2="95.959999" stroke="red" stroke-width="6.660000" />
<circle cx="1118.959961" cy="377.959991" r="19.980000" fill="red">
  <title>Buenos Aires</title>
</circle><line x1="555.960022" y1="95.959999" x2="1118.959961" y2="377.959991" stroke="red" stroke-width="6.660000" />
<circle cx="1660.959961" cy="92.959999" r="19.980000" fill="red">
  <title>Shanghai</title>
</circle><line x1="1118.959961" y1="377.959991" x2="1660.959961" y2="92.959999" stroke="red" stroke-width="6.660000" />
<circle cx="1999.959961" cy="112.959999" r="19.980000" fill="red">
  <title>Karachi</title>
</circle><line x1="1660.959961" y1="92.959999" x2="1999.959961" y2="112.959999" stroke="red" stroke-width="6.660000" />
<circle cx="1955.959961" cy="179.959991" r="19.980000" fill="red">
  <title>Delhi</title>
</circle><line x1="1999.959961" y1="112.959999" x2="1955.959961" y2="179.959991" stroke="red" stroke-width="6.660000" />
<circle cx="1567.959961" cy="699.960022" r="19.980000" fill="red">
  <title>Dhaka</title>
</circle><line x1="1955.959961" y1="179.959991" x2="1567.959961" y2="699.960022" stroke="red" stroke-width="6.660000" />
</svg>
