<?xml version="1.0" encoding="UTF-8" standalone="no"?>
<svg width="500" height="500" viewBox="0 0 2074.000000 2074.000000" xmlns="http://www.w3.org/2000/svg">
<rect x="19.000000" y="19.000000" width="2036.000000" height="2036.000000" fill="black" />
<circle cx="1629.959961" cy="1279.959961" r="19.980000" fill="red">
  <title>Tokyo</title>
</circle><line x1="1017.960022" y1="1045.959961" x2="1629.959961" y2="1279.959961" stroke="red" stroke-width="6.660000" />
<circle cx="1629.959961" cy="1408.959961" r="19.980000" fill="red">
  <title>New York</title>
</circle><line x1="1629.959961" y1="1279.959961" x2="1629.959961" y2="1408.959961" stroke="red" stroke-width="6.660000" />
<circle cx="1996.959961" cy="1211.959961" r="19.980000" fill="red">
  <title>Dhaka</title>
</circle><line x1="1629.959961" y1="1408.959961" x2="1996.959961" y2="1211.959961" stroke="red" stroke-width="6.660000" />
<circle cx="1868.959961" cy="431.959991" r="19.980000" fill="red">
  <title>Delhi</title>
</circle><line x1="1996.959961" y1="1211.959961" x2="1868.959961" y2="431.959991" stroke="red" stroke-width="6.660000" />
<circle cx="1720.959961" cy="457.959991" r="19.980000" fill="red">
  <title>Manila</title>
</circle><line x1="1868.959961" y1="431.959991" x2="1720.959961" y2="457.959991" stroke="red" stroke-width="6.660000" />
<circle cx="1381.959961" cy="345.959991" r="19.980000" fill="red">
  <title>São Paulo</title>
</circle><line x1="1720.959961" y1="457.959991" x2="1381.959961" y2="345.959991" stroke="red" stroke-width="6.660000" />
<circle cx="627.960022" cy="183.959991" r="19.980000" fill="red">
  <title>Kolkata</title>
</circle><line x1="1381.959961" y1="345.959991" x2="627.960022" y2="183.959991" stroke="red" stroke-width="6.660000" />
<circle cx="591.960022" cy="480.959991" r="19.980000" fill="red">
  <title>Istanbul</title>
</circle><line x1="627.960022" y1="183.959991" x2="591.960022" y2="480.959991" stroke="red" stroke-width="6.660000" />
<circle cx="569.960022" cy="820.960022" r="19.980000" fill="red">
  <title>Osaka</title>
</circle><line x1="591.960022" y1="480.959991" x2="569.960022" y2="820.960022" stroke="red" stroke-width="6.660000" />
<circle cx="389.959991" cy="804.960022" r="19.980000" fill="red">
  <title>Karachi</title>
</circle><line x1="569.960022" y1="820.960022" x2="389.959991" y2="804.960022" stroke="red" stroke-width="6.660000" />
<circle cx="207.959991" cy="970.960022" r="19.980000" fill="red">
  <title>Shanghai</title>
</circle><line x1="389.959991" y1="804.960022" x2="207.959991" y2="970.960022" stroke="red" stroke-width="6.660000" />
<circle cx="84.959999" cy="1423.959961" r="19.980000" fill="red">
  <title>Cairo</title>
</circle><line x1="207.959991" y1="970.960022" x2="84.959999" y2="1423.959961" stroke="red" stroke-width="6.660000" />
<circle cx="614.960022" cy="1736.959961" r="19.980000" fill="red">
  <title>Mumbai</title>
</circle><line x1="84.959999" y1="1423.959961" x2="614.960022" y2="1736.959961" stroke="red" stroke-width="6.660000" />
<circle cx="952.960022" cy="1996.959961" r="19.980000" fill="red">
  <title>Beijing</title>
</circle><line x1="614.960022" y1="1736.959961" x2="952.960022" y2="1996.959961" stroke="red" stroke-width="6.660000" />
<circle cx="983.960022" cy="1948.959961" r="19.980000" fill="red">
  <title>Mexico City</title>
</circle><line x1="952.960022" y1="1996.959961" x2="983.960022" y2="1948.959961" stroke="red" stroke-width="6.660000" />
<circle cx="715.960022" cy="1394.959961" r="19.980000" fill="red">
  <title>Buenos Aires</title>
</circle><line x1="983.960022" y1="1948.959961" x2="715.960022" y2="1394.959961" stroke="red" stroke-width="6.660000" />
<circle cx="1017.960022" cy="1045.959961" r="19.980000" fill="red">
  <title>Chongqing</title>
</circle><line x1="715.960022" y1="1394.959961" x2="1017.960022" y2="1045.959961" stroke="red" stroke-width="6.660000" />
</svg>
