<?xml version="1.0" encoding="UTF-8" standalone="no"?>
<svg width="500" height="500" viewBox="0 0 2074.000000 2074.000000" xmlns="http://www.w3.org/2000/svg">
<rect x="19.000000" y="19.000000" width="2036.000000" height="2036.000000" fill="black" />
<circle cx="1618.959961" cy="1346.959961" r="19.980000" fill="red">
  <title>Tokyo</title>
</circle><line x1="1636.959961" y1="912.960022" x2="1618.959961" y2="1346.959961" stroke="red" stroke-width="6.660000" />
<circle cx="1379.959961" cy="1640.959961" r="19.980000" fill="red">
  <title>Shanghai</title>
</circle><line x1="1618.959961" y1="1346.959961" x2="1379.959961" y2="1640.959961" stroke="red" stroke-width="6.660000" />
<circle cx="686.960022" cy="2020.959961" r="19.980000" fill="red">
  <title>Delhi</title>
</circle><line x1="1379.959961" y1="1640.959961" x2="686.960022" y2="2020.959961" stroke="red" stroke-width="6.660000" />
<circle cx="348.959991" cy="1393.959961" r="19.980000" fill="red">
  <title>Mexico City</title>
</circle><line x1="686.960022" y1="2020.959961" x2="348.959991" y2="1393.959961" stroke="red" stroke-width="6.660000" />
<circle cx="351.959991" cy="1014.960022" r="19.980000" fill="red">
  <title>Beijing</title>
</circle><line x1="348.959991" y1="1393.959961" x2="351.959991" y2="1014.960022" stroke="red" stroke-width="6.660000" />
<circle cx="83.959999" cy="326.959991" r="19.980000" fill="red">
  <title>Mumbai</title>
</circle><line x1="351.959991" y1="1014.960022" x2="83.959999" y2="326.959991" stroke="red" stroke-width="6.660000" />
<circle cx="135.959991" cy="171.959991" r="19.980000" fill="red">
  <title>Dhaka</title>
</circle><line x1="83.959999" y1="326.959991" x2="135.959991" y2="171.959991" stroke="red" stroke-width="6.660000" />
<circle cx="1926.959961" cy="68.959999" r="19.980000" fill="red">
  <title>São Paulo</title>
</circle><line x1="135.959991" y1="171.959991" x2="1926.959961" y2="68.959999" stroke="red" stroke-width="6.660000" />
<circle cx="1636.959961" cy="912.960022" r="19.980000" fill="red">
  <title>Cairo</title>
</circle><line x1="1926.959961" y1="68.959999" x2="1636.959961" y2="912.960022" stroke="red" stroke-width="6.660000" />
</svg>
