<?xml version="1.0" encoding="UTF-8" standalone="no"?>
<svg width="500" height="500" viewBox="0 0 2074.000000 2074.000000" xmlns="http://www.w3.org/2000/svg">
<rect x="19.000000" y="19.000000" width="2036.000000" height="2036.000000" fill="black" />
<circle cx="911.960022" cy="1023.960022" r="19.980000" fill="red">
  <title>Tokyo</title>
</circle><line x1="536.960022" y1="884.960022" x2="911.960022" y2="1023.960022" stroke="red" stroke-width="6.660000" />
<circle cx="802.960022" cy="1426.959961" r="19.980000" fill="red">
  <title>Karachi</title>
</circle><line x1="911.960022" y1="1023.960022" x2="802.960022" y2="1426.959961" stroke="red" stroke-width="6.660000" />
<circle cx="522.960022" cy="1481.959961" r="19.980000" fill="red">
  <title>Cairo</title>
</circle><line x1="802.960022" y1="1426.959961" x2="522.960022" y2="1481.959961" stroke="red" stroke-width="6.660000" />
<circle cx="518.960022" cy="1759.959961" r="19.980000" fill="red">
  <title>Buenos Aires</title>
</circle><line x1="522.960022" y1="1481.959961" x2="518.960022" y2="1759.959961" stroke="red" stroke-width="6.660000" />
<circle cx="358.959991" cy="1787.959961" r="19.980000" fill="red">
  <title>Mumbai</title>
</circle><line x1="518.960022" y1="1759.959961" x2="358.959991" y2="1787.959961" stroke="red" stroke-width="6.660000" />
<circle cx="598.960022" cy="1997.959961" r="19.980000" fill="red">
  <title>Chongqing</title>
</circle><line x1="358.959991" y1="1787.959961" x2="598.960022" y2="1997.959961" stroke="red" stroke-width="6.660000" />
<circle cx="911.960022" cy="2020.959961" r="19.980000" fill="red">
  <title>Delhi</title>
</circle><line x1="598.960022" y1="1997.959961" x2="911.960022" y2="2020.959961" stroke="red" stroke-width="6.660000" />
<circle cx="1162.959961" cy="1342.959961" r="19.980000" fill="red">
  <title>Beijing</title>
</circle><line x1="911.960022" y1="2020.959961" x2="1162.959961" y2="1342.959961" stroke="red" stroke-width="6.660000" />
<circle cx="1945.959961" cy="1428.959961" r="19.980000" fill="red">
  <title>Dhaka</title>
</circle><line x1="1162.959961" y1="1342.959961" x2="1945.959961" y2="1428.959961" stroke="red" stroke-width="6.660000" />
<circle cx="1948.959961" cy="1156.959961" r="19.980000" fill="red">
  <title>Istanbul</title>
</circle><line x1="1945.959961" y1="1428.959961" x2="1948.959961" y2="1156.959961" stroke="red" stroke-width="6.660000" />
<circle cx="1805.959961" cy="1157.959961" r="19.980000" fill="red">
  <title>São Paulo</title>
</circle><line x1="1948.959961" y1="1156.959961" x2="1805.959961" y2="1157.959961" stroke="red" stroke-width="6.660000" />
<circle cx="1506.959961" cy="598.960022" r="19.980000" fill="red">
  <title>New York</title>
</circle><line x1="1805.959961" y1="1157.959961" x2="1506.959961" y2="598.960022" stroke="red" stroke-width="6.660000" />
<circle cx="1503.959961" cy="44.959999" r="19.980000" fill="red">
  <title>Shanghai</title>
</circle><line x1="1506.959961" y1="598.960022" x2="1503.959961" y2="44.959999" stroke="red" stroke-width="6.660000" />
<circle cx="596.960022" cy="356.959991" r="19.980000" fill="red">
  <title>Osaka</title>
</circle><line x1="1503.959961" y1="44.959999" x2="596.960022" y2="356.959991" stroke="red" stroke-width="6.660000" />
<circle cx="536.960022" cy="884.960022" r="19.980000" fill="red">
  <title>Mexico City</title>
</circle><line x1="596.960022" y1="356.959991" x2="536.960022" y2="884.960022" stroke="red" stroke-width="6.660000" />
</svg>
