<?xml version="1.0" encoding="UTF-8" standalone="no"?>
<svg width="500" height="500" viewBox="0 0 2074.000000 2074.000000" xmlns="http://www.w3.org/2000/svg">
<rect x="19.000000" y="19.000000" width="2036.000000" height="2036.000000" fill="black" />
<circle cx="897.960022" cy="532.960022" r="19.980000" fill="red">
  <title>Tokyo</title>
</circle><line x1="1240.959961" y1="255.959991" x2="897.960022" y2="532.960022" stroke="red" stroke-width="6.660000" />
<circle cx="615.960022" cy="539.960022" r="19.980000" fill="red">
  <title>Delhi</title>
</circle><line x1="897.960022" y1="532.960022" x2="615.960022" y2="539.960022" stroke="red" stroke-width="6.660000" />
<circle cx="210.959991" cy="722.960022" r="19.980000" fill="red">
  <title>Cairo</title>
</circle><line x1="615.960022" y1="539.960022" x2="210.959991" y2="722.960022" stroke="red" stroke-width="6.660000" />
<circle cx="492.959991" cy="1255.959961" r="19.980000" fill="red">
  <title>Karachi</title>
</circle><line x1="210.959991" y1="722.960022" x2="492.959991" y2="1255.959961" stroke="red" stroke-width="6.660000" />
<circle cx="173.959991" cy="1728.959961" r="19.980000" fill="red">
  <title>Chongqing</title>
</circle><line x1="492.959991" y1="1255.959961" x2="173.959991" y2="1728.959961" stroke="red" stroke-width="6.660000" />
<circle cx="202.959991" cy="1780.959961" r="19.980000" fill="red">
  <title>New York</title>
</circle><line x1="173.959991" y1="1728.959961" x2="202.959991" y2="1780.959961" stroke="red" stroke-width="6.660000" />
<circle cx="704.960022" cy="1692.959961" r="19.980000" fill="red">
  <title>Mumbai</title>
</circle><line x1="202.959991" y1="1780.959961" x2="704.960022" y2="1692.959961" stroke="red" stroke-width="6.660000" />
<circle cx="707.960022" cy="1716.959961" r="19.980000" fill="red">
  <title>Shanghai</title>
</circle><line x1="704.960022" y1="1692.959961" x2="707.960022" y2="1716.959961" stroke="red" stroke-width="6.660000" />
<circle cx="1362.959961" cy="1688.959961" r="19.980000" fill="red">
  <title>Beijing</title>
</circle><line x1="707.960022" y1="1716.959961" x2="1362.959961" y2="1688.959961" stroke="red" stroke-width="6.660000" />
<circle cx="1653.959961" cy="1513.959961" r="19.980000" fill="red">
  <title>Dhaka</title>
</circle><line x1="1362.959961" y1="1688.959961" x2="1653.959961" y2="1513.959961" stroke="red" stroke-width="6.660000" />
<circle cx="1690.959961" cy="1252.959961" r="19.980000" fill="red">
  <title>Buenos Aires</title>
</circle><line x1="1653.959961" y1="1513.959961" x2="1690.959961" y2="1252.959961" stroke="red" stroke-width="6.660000" />
<circle cx="1395.959961" cy="1025.959961" r="19.980000" fill="red">
  <title>Istanbul</title>
</circle><line x1="1690.959961" y1="1252.959961" x2="1395.959961" y2="1025.959961" stroke="red" stroke-width="6.660000" />
<circle cx="866.960022" cy="1151.959961" r="19.980000" fill="red">
  <title>Mexico City</title>
</circle><line x1="1395.959961" y1="1025.959961" x2="866.960022" y2="1151.959961" stroke="red" stroke-width="6.660000" />
<circle cx="1076.959961" cy="879.960022" r="19.980000" fill="red">
  <title>Osaka</title>
</circle><line x1="866.960022" y1="1151.959961" x2="1076.959961" y2="879.960022" stroke="red" stroke-width="6.660000" />
<circle cx="1553.959961" cy="590.960022" r="19.980000" fill="red">
  <title>São Paulo</title>
</circle><line x1="1076.959961" y1="879.960022" x2="1553.959961" y2="590.960022" stroke="red" stroke-width="6.660000" />
<circle cx="1240.959961" cy="255.959991" r="19.980000" fill="red">
  <title>Kolkata</title>
</circle><line x1="1553.959961" y1="590.960022" x2="1240.959961" y2="255.959991" stroke="red" stroke-width="6.660000" />
</svg>
