<?xml version="1.0" encoding="UTF-8" standalone="no"?>
<svg width="500" height="500" viewBox="0 0 2074.000000 2074.000000" xmlns="http://www.w3.org/2000/svg">
<rect x="19.000000" y="19.000000" width="2036.000000" height="2036.000000" fill="black" />
<circle cx="843.960022" cy="1022.960022" r="19.980000" fill="red">
  <title>Tokyo</title>
</circle><line x1="97.959999" y1="1829.959961" x2="843.960022" y2="1022.960022" stroke="red" stroke-width="6.660000" />
<circle cx="364.959991" cy="460.959991" r="19.980000" fill="red">
  <title>São Paulo</title>
</circle><line x1="843.960022" y1="1022.960022" x2="364.959991" y2="460.959991" stroke="red" stroke-width="6.660000" />
<circle cx="839.960022" cy="133.959991" r="19.980000" fill="red">
  <title>Cairo</title>
</circle><line x1="364.959991" y1="460.959991" x2="839.960022" y2="133.959991" stroke="red" stroke-width="6.660000" />
<circle cx="1399.959961" cy="226.959991" r="19.980000" fill="red">
  <title>Dhaka</title>
</circle><line x1="839.960022" y1="133.959991" x2="1399.959961" y2="226.959991" stroke="red" stroke-width="6.660000" />
<circle cx="1487.959961" cy="1099.959961" r="19.980000" fill="red">
  <title>New York</title>
</circle><line x1="1399.959961" y1="226.959991" x2="1487.959961" y2="1099.959961" stroke="red" stroke-width="6.660000" />
<circle cx="1601.959961" cy="1383.959961" r="19.980000" fill="red">
  <title>Beijing</title>
</circle><line x1="1487.959961" y1="1099.959961" x2="1601.959961" y2="1383.959961" stroke="red" stroke-width="6.660000" />
<circle cx="1983.959961" cy="1859.959961" r="19.980000" fill="red">
  <title>Osaka</title>
</circle><line x1="1601.959961" y1="1383.959961" x2="1983.959961" y2="1859.959961" stroke="red" stroke-width="6.660000" />
<circle cx="1871.959961" cy="1859.959961" r="19.980000" fill="red">
  <title>Mexico City</title>
</circle><line x1="1983.959961" y1="1859.959961" x2="1871.959961" y2="1859.959961" stroke="red" stroke-width="6.660000" />
<circle cx="1238.959961" cy="1943.959961" r="19.980000" fill="red">
  <title>Shanghai</title>
</circle><line x1="1871.959961" y1="1859.959961" x2="1238.959961" y2="1943.959961" stroke="red" stroke-width="6.660000" />
<circle cx="1150.959961" cy="1691.959961" r="19.980000" fill="red">
  <title>Delhi</title>
</circle><line x1="1238.959961" y1="1943.959961" x2="1150.959961" y2="1691.959961" stroke="red" stroke-width="6.660000" />
<circle cx="97.959999" cy="1829.959961" r="19.980000" fill="red">
  <title>Mumbai</title>
</circle><line x1="1150.959961" y1="1691.959961" x2="97.959999" y2="1829.959961" stroke="red" stroke-width="6.660000" />
</svg>
