<?xml version="1.0" encoding="UTF-8" standalone="no"?>
<svg width="500" height="500" viewBox="0 0 2074.000000 2074.000000" xmlns="http://www.w3.org/2000/svg">
<rect x="19.000000" y="19.000000" width="2036.000000" height="2036.000000" fill="black" />
<circle cx="764.960022" cy="1495.959961" r="19.980000" fill="red">
  <title>Tokyo</title>
</circle><line x1="195.959991" y1="1574.959961" x2="764.960022" y2="1495.959961" stroke="red" stroke-width="6.660000" />
<circle cx="938.960022" cy="1839.959961" r="19.980000" fill="red">
  <title>Manila</title>
</circle><line x1="764.960022" y1="1495.959961" x2="938.960022" y2="1839.959961" stroke="red" stroke-width="6.660000" />
<circle cx="1322.959961" cy="1868.959961" r="19.980000" fill="red">
  <title>Kolkata</title>
</circle><line x1="938.960022" y1="1839.959961" x2="1322.959961" y2="1868.959961" stroke="red" stroke-width="6.660000" />
<circle cx="1596.959961" cy="2006.959961" r="19.980000" fill="red">
  <title>São Paulo</title>
</circle><line x1="1322.959961" y1="1868.959961" x2="1596.959961" y2="2006.959961" stroke="red" stroke-width="6.660000" />
<circle cx="1419.959961" cy="1587.959961" r="19.980000" fill="red">
  <title>Buenos Aires</title>
</circle><line x1="1596.959961" y1="2006.959961" x2="1419.959961" y2="1587.959961" stroke="red" stroke-width="6.660000" />
<circle cx="1218.959961" cy="1492.959961" r="19.980000" fill="red">
  <title>Chongqing</title>
</circle><line x1="1419.959961" y1="1587.959961" x2="1218.959961" y2="1492.959961" stroke="red" stroke-width="6.660000" />
<circle cx="1142.959961" cy="1481.959961" r="19.980000" fill="red">
  <title>Istanbul</title>
</circle><line x1="1218.959961" y1="1492.959961" x2="1142.959961" y2="1481.959961" stroke="red" stroke-width="6.660000" />
<circle cx="1012.960022" cy="1363.959961" r="19.980000" fill="red">
  <title>Cairo</title>
</circle><line x1="1142.959961" y1="1481.959961" x2="1012.960022" y2="1363.959961" stroke="red" stroke-width="6.660000" />
<circle cx="1329.959961" cy="1291.959961" r="19.980000" fill="red">
  <title>Beijing</title>
</circle><line x1="1012.960022" y1="1363.959961" x2="1329.959961" y2="1291.959961" stroke="red" stroke-width="6.660000" />
<circle cx="1558.959961" cy="1369.959961" r="19.980000" fill="red">
  <title>Dhaka</title>
</circle><line x1="1329.959961" y1="1291.959961" x2="1558.959961" y2="1369.959961" stroke="red" stroke-width="6.660000" />
<circle cx="1453.959961" cy="1124.959961" r="19.980000" fill="red">
  <title>Mumbai</title>
</circle><line x1="1558.959961" y1="1369.959961" x2="1453.959961" y2="1124.959961" stroke="red" stroke-width="6.660000" />
<circle cx="1959.959961" cy="211.959991" r="19.980000" fill="red">
  <title>Rio de Janeiro</title>
</circle><line x1="1453.959961" y1="1124.959961" x2="1959.959961" y2="211.959991" stroke="red" stroke-width="6.660000" />
<circle cx="1834.959961" cy="159.959991" r="19.980000" fill="red">
  <title>Shanghai</title>
</circle><line x1="1959.959961" y1="211.959991" x2="1834.959961" y2="159.959991" stroke="red" stroke-width="6.660000" />
<circle cx="1063.959961" cy="510.959991" r="19.980000" fill="red">
  <title>Karachi</title>
</circle><line x1="1834.959961" y1="159.959991" x2="1063.959961" y2="510.959991" stroke="red" stroke-width="6.660000" />
<circle cx="589.960022" cy="239.959991" r="19.980000" fill="red">
  <title>New York</title>
</circle><line x1="1063.959961" y1="510.959991" x2="589.960022" y2="239.959991" stroke="red" stroke-width="6.660000" />
<circle cx="461.959991" cy="459.959991" r="19.980000" fill="red">
  <title>Mexico City</title>
</circle><line x1="589.960022" y1="239.959991" x2="461.959991" y2="459.959991" stroke="red" stroke-width="6.660000" />
<circle cx="653.960022" cy="734.960022" r="19.980000" fill="red">
  <title>Lagos</title>
</circle><line x1="461.959991" y1="459.959991" x2="653.960022" y2="734.960022" stroke="red" stroke-width="6.660000" />
<circle cx="556.960022" cy="823.960022" r="19.980000" fill="red">
  <title>Delhi</title>
</circle><line x1="653.960022" y1="734.960022" x2="556.960022" y2="823.960022" stroke="red" stroke-width="6.660000" />
<circle cx="195.959991" cy="1574.959961" r="19.980000" fill="red">
  <title>Osaka</title>
</circle><line x1="556.960022" y1="823.960022" x2="195.959991" y2="1574.959961" stroke="red" stroke-width="6.660000" />
</svg>
