<?xml version="1.0" encoding="UTF-8" standalone="no"?>
<svg width="500" height="500" viewBox="0 0 2074.000000 2074.000000" xmlns="http://www.w3.org/2000/svg">
<rect x="19.000000" y="19.000000" width="2036.000000" height="2036.000000" fill="black" />
<circle cx="1404.959961" cy="1257.959961" r="19.980000" fill="red">
  <title>Tokyo</title>
</circle><line x1="1810.959961" y1="1370.959961" x2="1404.959961" y2="1257.959961" stroke="red" stroke-width="6.660000" />
<circle cx="1474.959961" cy="1007.960022" r="19.980000" fill="red">
  <title>Manila</title>
</circle><line x1="1404.959961" y1="1257.959961" x2="1474.959961" y2="1007.960022" stroke="red" stroke-width="6.660000" />
<circle cx="1485.959961" cy="546.960022" r="19.980000" fill="red">
  <title>Lagos</title>
</circle><line x1="1474.959961" y1="1007.960022" x2="1485.959961" y2="546.960022" stroke="red" stroke-width="6.660000" />
<circle cx="1492.959961" cy="500.959991" r="19.980000" fill="red">
  <title>Tianjin</title>
</circle><line x1="1485.959961" y1="546.960022" x2="1492.959961" y2="500.959991" stroke="red" stroke-width="6.660000" />
<circle cx="2035.959961" cy="464.959991" r="19.980000" fill="red">
  <title>Osaka</title>
</circle><line x1="1492.959961" y1="500.959991" x2="2035.959961" y2="464.959991" stroke="red" stroke-width="6.660000" />
<circle cx="1953.959961" cy="96.959999" r="19.980000" fill="red">
  <title>Karachi</title>
</circle><line x1="2035.959961" y1="464.959991" x2="1953.959961" y2="96.959999" stroke="red" stroke-width="6.660000" />
<circle cx="1353.959961" cy="51.959999" r="19.980000" fill="red">
  <title>Dhaka</title>
</circle><line x1="1953.959961" y1="96.959999" x2="1353.959961" y2="51.959999" stroke="red" stroke-width="6.660000" />
<circle cx="975.960022" cy="65.959999" r="19.980000" fill="red">
  <title>Mumbai</title>
</circle><line x1="1353.959961" y1="51.959999" x2="975.960022" y2="65.959999" stroke="red" stroke-width="6.660000" />
<circle cx="505.959991" cy="256.959991" r="19.980000" fill="red">
  <title>Istanbul</title>
</circle><line x1="975.960022" y1="65.959999" x2="505.959991" y2="256.959991" stroke="red" stroke-width="6.660000" />
<circle cx="918.960022" cy="907.960022" r="19.980000" fill="red">
  <title>Buenos Aires</title>
</circle><line x1="505.959991" y1="256.959991" x2="918.960022" y2="907.960022" stroke="red" stroke-width="6.660000" />
<circle cx="969.960022" cy="919.960022" r="19.980000" fill="red">
  <title>Chongqing</title>
</circle><line x1="918.960022" y1="907.960022" x2="969.960022" y2="919.960022" stroke="red" stroke-width="6.660000" />
<circle cx="505.959991" cy="920.960022" r="19.980000" fill="red">
  <title>Cairo</title>
</circle><line x1="969.960022" y1="919.960022" x2="505.959991" y2="920.960022" stroke="red" stroke-width="6.660000" />
<circle cx="505.959991" cy="984.960022" r="19.980000" fill="red">
  <title>São Paulo</title>
</circle><line x1="505.959991" y1="920.960022" x2="505.959991" y2="984.960022" stroke="red" stroke-width="6.660000" />
<circle cx="132.959991" cy="1652.959961" r="19.980000" fill="red">
  <title>Delhi</title>
</circle><line x1="505.959991" y1="984.960022" x2="132.959991" y2="1652.959961" stroke="red" stroke-width="6.660000" />
<circle cx="727.960022" cy="1951.959961" r="19.980000" fill="red">
  <title>Rio de Janeiro</title>
</circle><line x1="132.959991" y1="1652.959961" x2="727.960022" y2="1951.959961" stroke="red" stroke-width="6.660000" />
<circle cx="914.960022" cy="1870.959961" r="19.980000" fill="red">
  <title>Kolkata</title>
</circle><line x1="727.960022" y1="1951.959961" x2="914.960022" y2="1870.959961" stroke="red" stroke-width="6.660000" />
<circle cx="1131.959961" cy="2034.959961" r="19.980000" fill="red">
  <title>Beijing</title>
</circle><line x1="914.960022" y1="1870.959961" x2="1131.959961" y2="2034.959961" stroke="red" stroke-width="6.660000" />
<circle cx="1109.959961" cy="1757.959961" r="19.980000" fill="red">
  <title>Shanghai</title>
</circle><line x1="1131.959961" y1="2034.959961" x2="1109.959961" y2="1757.959961" stroke="red" stroke-width="6.660000" />
<circle cx="1436.959961" cy="1459.959961" r="19.980000" fill="red">
  <title>New York</title>
</circle><line x1="1109.959961" y1="1757.959961" x2="1436.959961" y2="1459.959961" stroke="red" stroke-width="6.660000" />
<circle cx="1810.959961" cy="1370.959961" r="19.980000" fill="red">
  <title>Mexico City</title>
</circle><line x1="1436.959961" y1="1459.959961" x2="1810.959961" y2="1370.959961" stroke="red" stroke-width="6.660000" />
</svg>
