<?xml version="1.0" encoding="UTF-8" standalone="no"?>
<svg width="500" height="500" viewBox="0 0 2074.000000 2074.000000" xmlns="http://www.w3.org/2000/svg">
<rect x="19.000000" y="19.000000" width="2036.000000" height="2036.000000" fill="black" />
<circle cx="92.959999" cy="780.960022" r="19.980000" fill="red">
  <title>Tokyo</title>
</circle><line x1="633.960022" y1="1444.959961" x2="92.959999" y2="780.960022" stroke="red" stroke-width="6.660000" />
<circle cx="89.959999" cy="139.959991" r="19.980000" fill="red">
  <title>São Paulo</title>
</circle><line x1="92.959999" y1="780.960022" x2="89.959999" y2="139.959991" stroke="red" stroke-width="6.660000" />
<circle cx="1056.959961" cy="680.960022" r="19.980000" fill="red">
  <title>Delhi</title>
</circle><line x1="89.959999" y1="139.959991" x2="1056.959961" y2="680.960022" stroke="red" stroke-width="6.660000" />
<circle cx="1786.959961" cy="223.959991" r="19.980000" fill="red">
  <title>Dhaka</title>
</circle><line x1="1056.959961" y1="680.960022" x2="1786.959961" y2="223.959991" stroke="red" stroke-width="6.660000" />
<circle cx="1919.959961" cy="258.959991" r="19.980000" fill="red">
  <title>Mumbai</title>
</circle><line x1="1786.959961" y1="223.959991" x2="1919.959961" y2="258.959991" stroke="red" stroke-width="6.660000" />
<circle cx="1300.959961" cy="864.960022" r="19.980000" fill="red">
  <title>Buenos Aires</title>
</circle><line x1="1919.959961" y1="258.959991" x2="1300.959961" y2="864.960022" stroke="red" stroke-width="6.660000" />
<circle cx="1162.959961" cy="979.960022" r="19.980000" fill="red">
  <title>Chongqing</title>
</circle><line x1="1300.959961" y1="864.960022" x2="1162.959961" y2="979.960022" stroke="red" stroke-width="6.660000" />
<circle cx="1281.959961" cy="1028.959961" r="19.980000" fill="red">
  <title>Shanghai</title>
</circle><line x1="1162.959961" y1="979.960022" x2="1281.959961" y2="1028.959961" stroke="red" stroke-width="6.660000" />
<circle cx="1989.959961" cy="1527.959961" r="19.980000" fill="red">
  <title>Karachi</title>
</circle><line x1="1281.959961" y1="1028.959961" x2="1989.959961" y2="1527.959961" stroke="red" stroke-width="6.660000" />
<circle cx="2015.959961" cy="1825.959961" r="19.980000" fill="red">
  <title>New York</title>
</circle><line x1="1989.959961" y1="1527.959961" x2="2015.959961" y2="1825.959961" stroke="red" stroke-width="6.660000" />
<circle cx="1340.959961" cy="1743.959961" r="19.980000" fill="red">
  <title>Istanbul</title>
</circle><line x1="2015.959961" y1="1825.959961" x2="1340.959961" y2="1743.959961" stroke="red" stroke-width="6.660000" />
<circle cx="1099.959961" cy="1845.959961" r="19.980000" fill="red">
  <title>Beijing</title>
</circle><line x1="1340.959961" y1="1743.959961" x2="1099.959961" y2="1845.959961" stroke="red" stroke-width="6.660000" />
<circle cx="722.960022" cy="1687.959961" r="19.980000" fill="red">
  <title>Cairo</title>
</circle><line x1="1099.959961" y1="1845.959961" x2="722.960022" y2="1687.959961" stroke="red" stroke-width="6.660000" />
<circle cx="198.959991" cy="1835.959961" r="19.980000" fill="red">
  <title>Osaka</title>
</circle><line x1="722.960022" y1="1687.959961" x2="198.959991" y2="1835.959961" stroke="red" stroke-width="6.660000" />
<circle cx="633.960022" cy="1444.959961" r="19.980000" fill="red">
  <title>Mexico City</title>
</circle><line x1="198.959991" y1="1835.959961" x2="633.960022" y2="1444.959961" stroke="red" stroke-width="6.660000" />
</svg>
