<?xml version="1.0" encoding="UTF-8" standalone="no"?>
<svg width="500" height="500" viewBox="0 0 2074.000000 2074.000000" xmlns="http://www.w3.org/2000/svg">
<rect x="19.000000" y="19.000000" width="2036.000000" height="2036.000000" fill="black" />
<circle cx="114.959999" cy="627.960022" r="19.980000" fill="red">
  <title>Tokyo</title>
</circle><line x1="442.959991" y1="302.959991" x2="114.959999" y2="627.960022" stroke="red" stroke-width="6.660000" />
<circle cx="81.959999" cy="1073.959961" r="19.980000" fill="red">
  <title>Mexico City</title>
</circle><line x1="114.959999" y1="627.960022" x2="81.959999" y2="1073.959961" stroke="red" stroke-width="6.660000" />
<circle cx="84.959999" cy="1776.959961" r="19.980000" fill="red">
  <title>Karachi</title>
</circle><line x1="81.959999" y1="1073.959961" x2="84.959999" y2="1776.959961" stroke="red" stroke-width="6.660000" />
<circle cx="499.959991" cy="843.960022" r="19.980000" fill="red">
  <title>New York</title>
</circle><line x1="84.959999" y1="1776.959961" x2="499.959991" y2="843.960022" stroke="red" stroke-width="6.660000" />
<circle cx="717.960022" cy="766.960022" r="19.980000" fill="red">
  <title>Delhi</title>
</circle><line x1="499.959991" y1="843.960022" x2="717.960022" y2="766.960022" stroke="red" stroke-width="6.660000" />
<circle cx="961.960022" cy="1167.959961" r="19.980000" fill="red">
  <title>Buenos Aires</title>
</circle><line x1="717.960022" y1="766.960022" x2="961.960022" y2="1167.959961" stroke="red" stroke-width="6.660000" />
<circle cx="1199.959961" cy="1408.959961" r="19.980000" fill="red">
  <title>Istanbul</title>
</circle><line x1="961.960022" y1="1167.959961" x2="1199.959961" y2="1408.959961" stroke="red" stroke-width="6.660000" />
<circle cx="1488.959961" cy="1166.959961" r="19.980000" fill="red">
  <title>Chongqing</title>
</circle><line x1="1199.959961" y1="1408.959961" x2="1488.959961" y2="1166.959961" stroke="red" stroke-width="6.660000" />
<circle cx="1924.959961" cy="1932.959961" r="19.980000" fill="red">
  <title>Beijing</title>
</circle><line x1="1488.959961" y1="1166.959961" x2="1924.959961" y2="1932.959961" stroke="red" stroke-width="6.660000" />
<circle cx="2028.959961" cy="1892.959961" r="19.980000" fill="red">
  <title>São Paulo</title>
</circle><line x1="1924.959961" y1="1932.959961" x2="2028.959961" y2="1892.959961" stroke="red" stroke-width="6.660000" />
<circle cx="1969.959961" cy="1387.959961" r="19.980000" fill="red">
  <title>Mumbai</title>
</circle><line x1="2028.959961" y1="1892.959961" x2="1969.959961" y2="1387.959961" stroke="red" stroke-width="6.660000" />
<circle cx="1983.959961" cy="759.960022" r="19.980000" fill="red">
  <title>Shanghai</title>
</circle><line x1="1969.959961" y1="1387.959961" x2="1983.959961" y2="759.960022" stroke="red" stroke-width="6.660000" />
<circle cx="1734.959961" cy="378.959991" r="19.980000" fill="red">
  <title>Dhaka</title>
</circle><line x1="1983.959961" y1="759.960022" x2="1734.959961" y2="378.959991" stroke="red" stroke-width="6.660000" />
<circle cx="623.960022" cy="187.959991" r="19.980000" fill="red">
  <title>Cairo</title>
</circle><line x1="1734.959961" y1="378.959991" x2="623.960022" y2="187.959991" stroke="red" stroke-width="6.660000" />
<circle cx="442.959991" cy="302.959991" r="19.980000" fill="red">
  <title>Osaka</title>
</circle><line x1="623.960022" y1="187.959991" x2="442.959991" y2="302.959991" stroke="red" stroke-width="6.660000" />
</svg>
