<?xml version="1.0" encoding="UTF-8" standalone="no"?>
<svg width="500" height="500" viewBox="0 0 2074.000000 2074.000000" xmlns="http://www.w3.org/2000/svg">
<rect x="19.000000" y="19.000000" width="2036.000000" height="2036.000000" fill="black" />
<circle cx="272.959991" cy="85.959999" r="19.980000" fill="red">
  <title>Tokyo</title>
</circle><line x1="43.959999" y1="297.959991" x2="272.959991" y2="85.959999" stroke="red" stroke-width="6.660000" />
<circle cx="618.960022" cy="232.959991" r="19.980000" fill="red">
  <title>Mexico City</title>
</circle><line x1="272.959991" y1="85.959999" x2="618.960022" y2="232.959991" stroke="red" stroke-width="6.660000" />
<circle cx="1072.959961" cy="67.959999" r="19.980000" fill="red">
  <title>Chongqing</title>
</circle><line x1="618.960022" y1="232.959991" x2="1072.959961" y2="67.959999" stroke="red" stroke-width="6.660000" />
<circle cx="1142.959961" cy="537.960022" r="19.980000" fill="red">
  <title>Karachi</title>
</circle><line x1="1072.959961" y1="67.959999" x2="1142.959961" y2="537.960022" stroke="red" stroke-width="6.660000" />
<circle cx="901.960022" cy="682.960022" r="19.980000" fill="red">
  <title>Osaka</title>
</circle><line x1="1142.959961" y1="537.960022" x2="901.960022" y2="682.960022" stroke="red" stroke-width="6.660000" />
<circle cx="854.960022" cy="1289.959961" r="19.980000" fill="red">
  <title>Cairo</title>
</circle><line x1="901.960022" y1="682.960022" x2="854.960022" y2="1289.959961" stroke="red" stroke-width="6.660000" />
<circle cx="1372.959961" cy="1762.959961" r="19.980000" fill="red">
  <title>São Paulo</title>
</circle><line x1="854.960022" y1="1289.959961" x2="1372.959961" y2="1762.959961" stroke="red" stroke-width="6.660000" />
<circle cx="1586.959961" cy="1767.959961" r="19.980000" fill="red">
  <title>Delhi</title>
</circle><line x1="1372.959961" y1="1762.959961" x2="1586.959961" y2="1767.959961" stroke="red" stroke-width="6.660000" />
<circle cx="1445.959961" cy="1808.959961" r="19.980000" fill="red">
  <title>Mumbai</title>
</circle><line x1="1586.959961" y1="1767.959961" x2="1445.959961" y2="1808.959961" stroke="red" stroke-width="6.660000" />
<circle cx="1159.959961" cy="1536.959961" r="19.980000" fill="red">
  <title>Beijing</title>
</circle><line x1="1445.959961" y1="1808.959961" x2="1159.959961" y2="1536.959961" stroke="red" stroke-width="6.660000" />
<circle cx="753.960022" cy="1168.959961" r="19.980000" fill="red">
  <title>Buenos Aires</title>
</circle><line x1="1159.959961" y1="1536.959961" x2="753.960022" y2="1168.959961" stroke="red" stroke-width="6.660000" />
<circle cx="324.959991" cy="863.960022" r="19.980000" fill="red">
  <title>Dhaka</title>
</circle><line x1="753.960022" y1="1168.959961" x2="324.959991" y2="863.960022" stroke="red" stroke-width="6.660000" />
<circle cx="447.959991" cy="536.960022" r="19.980000" fill="red">
  <title>New York</title>
</circle><line x1="324.959991" y1="863.960022" x2="447.959991" y2="536.960022" stroke="red" stroke-width="6.660000" />
<circle cx="193.959991" cy="485.959991" r="19.980000" fill="red">
  <title>Shanghai</title>
</circle><line x1="447.959991" y1="536.960022" x2="193.959991" y2="485.959991" stroke="red" stroke-width="6.660000" />
<circle cx="43.959999" cy="297.959991" r="19.980000" fill="red">
  <title>Istanbul</title>
</circle><line x1="193.959991" y1="485.959991" x2="43.959999" y2="297.959991" stroke="red" stroke-width="6.660000" />
</svg>
