<?xml version="1.0" encoding="UTF-8" standalone="no"?>
<svg width="500" height="500" viewBox="0 0 2074.000000 2074.000000" xmlns="http://www.w3.org/2000/svg">
<rect x="19.000000" y="19.000000" width="2036.000000" height="2036.000000" fill="black" />
<circle cx="1267.959961" cy="1570.959961" r="19.980000" fill="red">
  <title>Tokyo</title>
</circle><line x1="1066.959961" y1="1507.959961" x2="1267.959961" y2="1570.959961" stroke="red" stroke-width="6.660000" />
<circle cx="2023.959961" cy="1532.959961" r="19.980000" fill="red">
  <title>Mumbai</title>
</circle><line x1="1267.959961" y1="1570.959961" x2="2023.959961" y2="1532.959961" stroke="red" stroke-width="6.660000" />
<circle cx="1725.959961" cy="832.960022" r="19.980000" fill="red">
  <title>Manila</title>
</circle><line x1="2023.959961" y1="1532.959961" x2="1725.959961" y2="832.960022" stroke="red" stroke-width="6.660000" />
<circle cx="1963.959961" cy="466.959991" r="19.980000" fill="red">
  <title>Kolkata</title>
</circle><line x1="1725.959961" y1="832.960022" x2="1963.959961" y2="466.959991" stroke="red" stroke-width="6.660000" />
<circle cx="1870.959961" cy="534.960022" r="19.980000" fill="red">
  <title>Karachi</title>
</circle><line x1="1963.959961" y1="466.959991" x2="1870.959961" y2="534.960022" stroke="red" stroke-width="6.660000" />
<circle cx="1230.959961" cy="338.959991" r="19.980000" fill="red">
  <title>Shanghai</title>
</circle><line x1="1870.959961" y1="534.960022" x2="1230.959961" y2="338.959991" stroke="red" stroke-width="6.660000" />
<circle cx="1237.959961" cy="193.959991" r="19.980000" fill="red">
  <title>Istanbul</title>
</circle><line x1="1230.959961" y1="338.959991" x2="1237.959961" y2="193.959991" stroke="red" stroke-width="6.660000" />
<circle cx="1132.959961" cy="390.959991" r="19.980000" fill="red">
  <title>Rio de Janeiro</title>
</circle><line x1="1237.959961" y1="193.959991" x2="1132.959961" y2="390.959991" stroke="red" stroke-width="6.660000" />
<circle cx="1218.959961" cy="959.960022" r="19.980000" fill="red">
  <title>Osaka</title>
</circle><line x1="1132.959961" y1="390.959991" x2="1218.959961" y2="959.960022" stroke="red" stroke-width="6.660000" />
<circle cx="796.960022" cy="690.960022" r="19.980000" fill="red">
  <title>Beijing</title>
</circle><line x1="1218.959961" y1="959.960022" x2="796.960022" y2="690.960022" stroke="red" stroke-width="6.660000" />
<circle cx="338.959991" cy="968.960022" r="19.980000" fill="red">
  <title>Dhaka</title>
</circle><line x1="796.960022" y1="690.960022" x2="338.959991" y2="968.960022" stroke="red" stroke-width="6.660000" />
<circle cx="92.959999" cy="917.960022" r="19.980000" fill="red">
  <title>Lagos</title>
</circle><line x1="338.959991" y1="968.960022" x2="92.959999" y2="917.960022" stroke="red" stroke-width="6.660000" />
<circle cx="255.959991" cy="1122.959961" r="19.980000" fill="red">
  <title>Mexico City</title>
</circle><line x1="92.959999" y1="917.960022" x2="255.959991" y2="1122.959961" stroke="red" stroke-width="6.660000" />
<circle cx="550.960022" cy="1267.959961" r="19.980000" fill="red">
  <title>New York</title>
</circle><line x1="255.959991" y1="1122.959961" x2="550.960022" y2="1267.959961" stroke="red" stroke-width="6.660000" />
<circle cx="718.960022" cy="1348.959961" r="19.980000" fill="red">
  <title>Tianjin</title>
</circle><line x1="550.960022" y1="1267.959961" x2="718.960022" y2="1348.959961" stroke="red" stroke-width="6.660000" />
<circle cx="399.959991" cy="1437.959961" r="19.980000" fill="red">
  <title>Cairo</title>
</circle><line x1="718.960022" y1="1348.959961" x2="399.959991" y2="1437.959961" stroke="red" stroke-width="6.660000" />
<circle cx="336.959991" cy="1838.959961" r="19.980000" fill="red">
  <title>São Paulo</title>
</circle><line x1="399.959991" y1="1437.959961" x2="336.959991" y2="1838.959961" stroke="red" stroke-width="6.660000" />
<circle cx="442.959991" cy="2036.959961" r="19.980000" fill="red">
  <title>Chongqing</title>
</circle><line x1="336.959991" y1="1838.959961" x2="442.959991" y2="2036.959961" stroke="red" stroke-width="6.660000" />
<circle cx="907.960022" cy="1663.959961" r="19.980000" fill="red">
  <title>Delhi</title>
</circle><line x1="442.959991" y1="2036.959961" x2="907.960022" y2="1663.959961" stroke="red" stroke-width="6.660000" />
<circle cx="1066.959961" cy="1507.959961" r="19.980000" fill="red">
  <title>Buenos Aires</title>
</circle><line x1="907.960022" y1="1663.959961" x2="1066.959961" y2="1507.959961" stroke="red" stroke-width="6.660000" />
</svg>
