<?xml version="1.0" encoding="UTF-8" standalone="no"?>
<svg width="500" height="500" viewBox="0 0 2074.000000 2074.000000" xmlns="http://www.w3.org/2000/svg">
<rect x="19.000000" y="19.000000" width="2036.000000" height="2036.000000" fill="black" />
<circle cx="1225.959961" cy="1521.959961" r="19.980000" fill="red">
  <title>Tokyo</title>
</circle><line x1="1634.959961" y1="1662.959961" x2="1225.959961" y2="1521.959961" stroke="red" stroke-width="6.660000" />
<circle cx="1231.959961" cy="1194.959961" r="19.980000" fill="red">
  <title>Cairo</title>
</circle><line x1="1225.959961" y1="1521.959961" x2="1231.959961" y2="1194.959961" stroke="red" stroke-width="6.660000" />
<circle cx="1248.959961" cy="1047.959961" r="19.980000" fill="red">
  <title>Kolkata</title>
</circle><line x1="1231.959961" y1="1194.959961" x2="1248.959961" y2="1047.959961" stroke="red" stroke-width="6.660000" />
<circle cx="1439.959961" cy="979.960022" r="19.980000" fill="red">
  <title>São Paulo</title>
</circle><line x1="1248.959961" y1="1047.959961" x2="1439.959961" y2="979.960022" stroke="red" stroke-width="6.660000" />
<circle cx="1859.959961" cy="991.960022" r="19.980000" fill="red">
  <title>Istanbul</title>
</circle><line x1="1439.959961" y1="979.960022" x2="1859.959961" y2="991.960022" stroke="red" stroke-width="6.660000" />
<circle cx="1866.959961" cy="683.960022" r="19.980000" fill="red">
  <title>Osaka</title>
</circle><line x1="1859.959961" y1="991.960022" x2="1866.959961" y2="683.960022" stroke="red" stroke-width="6.660000" />
<circle cx="1502.959961" cy="586.960022" r="19.980000" fill="red">
  <title>Karachi</title>
</circle><line x1="1866.959961" y1="683.960022" x2="1502.959961" y2="586.960022" stroke="red" stroke-width="6.660000" />
<circle cx="831.960022" cy="285.959991" r="19.980000" fill="red">
  <title>Mexico City</title>
</circle><line x1="1502.959961" y1="586.960022" x2="831.960022" y2="285.959991" stroke="red" stroke-width="6.660000" />
<circle cx="675.960022" cy="899.960022" r="19.980000" fill="red">
  <title>New York</title>
</circle><line x1="831.960022" y1="285.959991" x2="675.960022" y2="899.960022" stroke="red" stroke-width="6.660000" />
<circle cx="152.959991" cy="793.960022" r="19.980000" fill="red">
  <title>Buenos Aires</title>
</circle><line x1="675.960022" y1="899.960022" x2="152.959991" y2="793.960022" stroke="red" stroke-width="6.660000" />
<circle cx="51.959999" cy="1032.959961" r="19.980000" fill="red">
  <title>Dhaka</title>
</circle><line x1="152.959991" y1="793.960022" x2="51.959999" y2="1032.959961" stroke="red" stroke-width="6.660000" />
<circle cx="148.959991" cy="1710.959961" r="19.980000" fill="red">
  <title>Delhi</title>
</circle><line x1="51.959999" y1="1032.959961" x2="148.959991" y2="1710.959961" stroke="red" stroke-width="6.660000" />
<circle cx="884.960022" cy="1405.959961" r="19.980000" fill="red">
  <title>Mumbai</title>
</circle><line x1="148.959991" y1="1710.959961" x2="884.960022" y2="1405.959961" stroke="red" stroke-width="6.660000" />
<circle cx="1194.959961" cy="1528.959961" r="19.980000" fill="red">
  <title>Shanghai</title>
</circle><line x1="884.960022" y1="1405.959961" x2="1194.959961" y2="1528.959961" stroke="red" stroke-width="6.660000" />
<circle cx="1561.959961" cy="1758.959961" r="19.980000" fill="red">
  <title>Chongqing</title>
</circle><line x1="1194.959961" y1="1528.959961" x2="1561.959961" y2="1758.959961" stroke="red" stroke-width="6.660000" />
<circle cx="1634.959961" cy="1662.959961" r="19.980000" fill="red">
  <title>Beijing</title>
</circle><line x1="1561.959961" y1="1758.959961" x2="1634.959961" y2="1662.959961" stroke="red" stroke-width="6.660000" />
</svg>
