<?xml version="1.0" encoding="UTF-8" standalone="no"?>
<svg width="500" height="500" viewBox="0 0 2074.000000 2074.000000" xmlns="http://www.w3.org/2000/svg">
<rect x="19.000000" y="19.000000" width="2036.000000" height="2036.000000" fill="black" />
<circle cx="302.959991" cy="393.959991" r="19.980000" fill="red">
  <title>Tokyo</title>
</circle><line x1="876.960022" y1="82.959999" x2="302.959991" y2="393.959991" stroke="red" stroke-width="6.660000" />
<circle cx="533.960022" cy="931.960022" r="19.980000" fill="red">
  <title>Delhi</title>
</circle><line x1="302.959991" y1="393.959991" x2="533.960022" y2="931.960022" stroke="red" stroke-width="6.660000" />
<circle cx="338.959991" cy="1633.959961" r="19.980000" fill="red">
  <title>New York</title>
</circle><line x1="533.960022" y1="931.960022" x2="338.959991" y2="1633.959961" stroke="red" stroke-width="6.660000" />
<circle cx="288.959991" cy="1847.959961" r="19.980000" fill="red">
  <title>Cairo</title>
</circle><line x1="338.959991" y1="1633.959961" x2="288.959991" y2="1847.959961" stroke="red" stroke-width="6.660000" />
<circle cx="745.960022" cy="1310.959961" r="19.980000" fill="red">
  <title>Dhaka</title>
</circle><line x1="288.959991" y1="1847.959961" x2="745.960022" y2="1310.959961" stroke="red" stroke-width="6.660000" />
<circle cx="1127.959961" cy="1499.959961" r="19.980000" fill="red">
  <title>Shanghai</title>
</circle><line x1="745.960022" y1="1310.959961" x2="1127.959961" y2="1499.959961" stroke="red" stroke-width="6.660000" />
<circle cx="1047.959961" cy="563.960022" r="19.980000" fill="red">
  <title>Mumbai</title>
</circle><line x1="1127.959961" y1="1499.959961" x2="1047.959961" y2="563.960022" stroke="red" stroke-width="6.660000" />
<circle cx="1021.960022" cy="450.959991" r="19.980000" fill="red">
  <title>Beijing</title>
</circle><line x1="1047.959961" y1="563.960022" x2="1021.960022" y2="450.959991" stroke="red" stroke-width="6.660000" />
<circle cx="1075.959961" cy="493.959991" r="19.980000" fill="red">
  <title>Karachi</title>
</circle><line x1="1021.960022" y1="450.959991" x2="1075.959961" y2="493.959991" stroke="red" stroke-width="6.660000" />
<circle cx="1911.959961" cy="59.959999" r="19.980000" fill="red">
  <title>Osaka</title>
</circle><line x1="1075.959961" y1="493.959991" x2="1911.959961" y2="59.959999" stroke="red" stroke-width="6.660000" />
<circle cx="1554.959961" cy="121.959999" r="19.980000" fill="red">
  <title>Mexico City</title>
</circle><line x1="1911.959961" y1="59.959999" x2="1554.959961" y2="121.959999" stroke="red" stroke-width="6.660000" />
<circle cx="876.960022" cy="82.959999" r="19.980000" fill="red">
  <title>São Paulo</title>
</circle><line x1="1554.959961" y1="121.959999" x2="876.960022" y2="82.959999" stroke="red" stroke-width="6.660000" />
</svg>
