<?xml version="1.0" encoding="UTF-8" standalone="no"?>
<svg width="500" height="500" viewBox="0 0 2074.000000 2074.000000" xmlns="http://www.w3.org/2000/svg">
<rect x="19.000000" y="19.000000" width="2036.000000" height="2036.000000" fill="black" />
<circle cx="398.959991" cy="678.960022" r="19.980000" fill="red">
  <title>Tokyo</title>
</circle><line x1="1062.959961" y1="563.960022" x2="398.959991" y2="678.960022" stroke="red" stroke-width="6.660000" />
<circle cx="510.959991" cy="1058.959961" r="19.980000" fill="red">
  <title>São Paulo</title>
</circle><line x1="398.959991" y1="678.960022" x2="510.959991" y2="1058.959961" stroke="red" stroke-width="6.660000" />
<circle cx="167.959991" cy="1250.959961" r="19.980000" fill="red">
  <title>Mexico City</title>
</circle><line x1="510.959991" y1="1058.959961" x2="167.959991" y2="1250.959961" stroke="red" stroke-width="6.660000" />
<circle cx="126.959999" cy="2034.959961" r="19.980000" fill="red">
  <title>Beijing</title>
</circle><line x1="167.959991" y1="1250.959961" x2="126.959999" y2="2034.959961" stroke="red" stroke-width="6.660000" />
<circle cx="546.960022" cy="1779.959961" r="19.980000" fill="red">
  <title>Mumbai</title>
</circle><line x1="126.959999" y1="2034.959961" x2="546.960022" y2="1779.959961" stroke="red" stroke-width="6.660000" />
<circle cx="1849.959961" cy="1460.959961" r="19.980000" fill="red">
  <title>Cairo</title>
</circle><line x1="546.960022" y1="1779.959961" x2="1849.959961" y2="1460.959961" stroke="red" stroke-width="6.660000" />
<circle cx="1781.959961" cy="265.959991" r="19.980000" fill="red">
  <title>Delhi</title>
</circle><line x1="1849.959961" y1="1460.959961" x2="1781.959961" y2="265.959991" stroke="red" stroke-width="6.660000" />
<circle cx="1206.959961" cy="582.960022" r="19.980000" fill="red">
  <title>Shanghai</title>
</circle><line x1="1781.959961" y1="265.959991" x2="1206.959961" y2="582.960022" stroke="red" stroke-width="6.660000" />
<circle cx="1062.959961" cy="563.960022" r="19.980000" fill="red">
  <title>Dhaka</title>
</circle><line x1="1206.959961" y1="582.960022" x2="1062.959961" y2="563.960022" stroke="red" stroke-width="6.660000" />
</svg>
