<?xml version="1.0" encoding="UTF-8" standalone="no"?>
<svg width="500" height="500" viewBox="0 0 2074.000000 2074.000000" xmlns="http://www.w3.org/2000/svg">
<rect x="19.000000" y="19.000000" width="2036.000000" height="2036.000000" fill="black" />
<circle cx="1103.959961" cy="1823.959961" r="19.980000" fill="red">
  <title>Tokyo</title>
</circle><line x1="1192.959961" y1="1251.959961" x2="1103.959961" y2="1823.959961" stroke="red" stroke-width="6.660000" />
<circle cx="1796.959961" cy="1565.959961" r="19.980000" fill="red">
  <title>Delhi</title>
</circle><line x1="1103.959961" y1="1823.959961" x2="1796.959961" y2="1565.959961" stroke="red" stroke-width="6.660000" />
<circle cx="1398.959961" cy="1126.959961" r="19.980000" fill="red">
  <title>Shanghai</title>
</circle><line x1="1796.959961" y1="1565.959961" x2="1398.959961" y2="1126.959961" stroke="red" stroke-width="6.660000" />
<circle cx="1797.959961" cy="957.960022" r="19.980000" fill="red">
  <title>Cairo</title>
</circle><line x1="1398.959961" y1="1126.959961" x2="1797.959961" y2="957.960022" stroke="red" stroke-width="6.660000" />
<circle cx="1524.959961" cy="664.960022" r="19.980000" fill="red">
  <title>Mexico City</title>
</circle><line x1="1797.959961" y1="957.960022" x2="1524.959961" y2="664.960022" stroke="red" stroke-width="6.660000" />
<circle cx="1155.959961" cy="101.959999" r="19.980000" fill="red">
  <title>Beijing</title>
</circle><line x1="1524.959961" y1="664.960022" x2="1155.959961" y2="101.959999" stroke="red" stroke-width="6.660000" />
<circle cx="1005.960022" cy="359.959991" r="19.980000" fill="red">
  <title>Osaka</title>
</circle><line x1="1155.959961" y1="101.959999" x2="1005.960022" y2="359.959991" stroke="red" stroke-width="6.660000" />
<circle cx="425.959991" cy="402.959991" r="19.980000" fill="red">
  <title>São Paulo</title>
</circle><line x1="1005.960022" y1="359.959991" x2="425.959991" y2="402.959991" stroke="red" stroke-width="6.660000" />
<circle cx="42.959999" cy="556.960022" r="19.980000" fill="red">
  <title>Mumbai</title>
</circle><line x1="425.959991" y1="402.959991" x2="42.959999" y2="556.960022" stroke="red" stroke-width="6.660000" />
<circle cx="349.959991" cy="857.960022" r="19.980000" fill="red">
  <title>New York</title>
</circle><line x1="42.959999" y1="556.960022" x2="349.959991" y2="857.960022" stroke="red" stroke-width="6.660000" />
<circle cx="1192.959961" cy="1251.959961" r="19.980000" fill="red">
  <title>Dhaka</title>
</circle><line x1="349.959991" y1="857.960022" x2="1192.959961" y2="1251.959961" stroke="red" stroke-width="6.660000" />
</svg>
