<?xml version="1.0" encoding="UTF-8" standalone="no"?>
<svg width="500" height="500" viewBox="0 0 2074.000000 2074.000000" xmlns="http://www.w3.org/2000/svg">
<rect x="19.000000" y="19.000000" width="2036.000000" height="2036.000000" fill="black" />
<circle cx="1369.959961" cy="1824.959961" r="19.980000" fill="red">
  <title>Tokyo</title>
</circle><line x1="1878.959961" y1="1856.959961" x2="1369.959961" y2="1824.959961" stroke="red" stroke-width="6.660000" />
<circle cx="505.959991" cy="1842.959961" r="19.980000" fill="red">
  <title>Delhi</title>
</circle><line x1="1369.959961" y1="1824.959961" x2="505.959991" y2="1842.959961" stroke="red" stroke-width="6.660000" />
<circle cx="211.959991" cy="2031.959961" r="19.980000" fill="red">
  <title>Cairo</title>
</circle><line x1="505.959991" y1="1842.959961" x2="211.959991" y2="2031.959961" stroke="red" stroke-width="6.660000" />
<circle cx="379.959991" cy="1495.959961" r="19.980000" fill="red">
  <title>Mumbai</title>
</circle><line x1="211.959991" y1="2031.959961" x2="379.959991" y2="1495.959961" stroke="red" stroke-width="6.660000" />
<circle cx="875.960022" cy="1238.959961" r="19.980000" fill="red">
  <title>Beijing</title>
</circle><line x1="379.959991" y1="1495.959961" x2="875.960022" y2="1238.959961" stroke="red" stroke-width="6.660000" />
<circle cx="1299.959961" cy="271.959991" r="19.980000" fill="red">
  <title>Osaka</title>
</circle><line x1="875.960022" y1="1238.959961" x2="1299.959961" y2="271.959991" stroke="red" stroke-width="6.660000" />
<circle cx="1311.959961" cy="248.959991" r="19.980000" fill="red">
  <title>Mexico City</title>
</circle><line x1="1299.959961" y1="271.959991" x2="1311.959961" y2="248.959991" stroke="red" stroke-width="6.660000" />
<circle cx="1501.959961" cy="177.959991" r="19.980000" fill="red">
  <title>Dhaka</title>
</circle><line x1="1311.959961" y1="248.959991" x2="1501.959961" y2="177.959991" stroke="red" stroke-width="6.660000" />
<circle cx="1624.959961" cy="798.960022" r="19.980000" fill="red">
  <title>Shanghai</title>
</circle><line x1="1501.959961" y1="177.959991" x2="1624.959961" y2="798.960022" stroke="red" stroke-width="6.660000" />
<circle cx="1878.959961" cy="1856.959961" r="19.980000" fill="red">
  <title>São Paulo</title>
</circle><line x1="1624.959961" y1="798.960022" x2="1878.959961" y2="1856.959961" stroke="red" stroke-width="6.660000" />
</svg>
