<?xml version="1.0" encoding="UTF-8" standalone="no"?>
<svg width="500" height="500" viewBox="0 0 2074.000000 2074.000000" xmlns="http://www.w3.org/2000/svg">
<rect x="19.000000" y="19.000000" width="2036.000000" height="2036.000000" fill="black" />
<circle cx="136.959991" cy="1900.959961" r="19.980000" fill="red">
  <title>Tokyo</title>
</circle><line x1="559.960022" y1="2030.959961" x2="136.959991" y2="1900.959961" stroke="red" stroke-width="6.660000" />
<circle cx="279.959991" cy="1619.959961" r="19.980000" fill="red">
  <title>New York</title>
</circle><line x1="136.959991" y1="1900.959961" x2="279.959991" y2="1619.959961" stroke="red" stroke-width="6.660000" />
<circle cx="287.959991" cy="1364.959961" r="19.980000" fill="red">
  <title>Mexico City</title>
</circle><line x1="279.959991" y1="1619.959961" x2="287.959991" y2="1364.959961" stroke="red" stroke-width="6.660000" />
<circle cx="580.960022" cy="740.960022" r="19.980000" fill="red">
  <title>Istanbul</title>
</circle><line x1="287.959991" y1="1364.959961" x2="580.960022" y2="740.960022" stroke="red" stroke-width="6.660000" />
<circle cx="741.960022" cy="678.960022" r="19.980000" fill="red">
  <title>Kolkata</title>
</circle><line x1="580.960022" y1="740.960022" x2="741.960022" y2="678.960022" stroke="red" stroke-width="6.660000" />
<circle cx="543.960022" cy="651.960022" r="19.980000" fill="red">
  <title>Dhaka</title>
</circle><line x1="741.960022" y1="678.960022" x2="543.960022" y2="651.960022" stroke="red" stroke-width="6.660000" />
<circle cx="99.959999" cy="363.959991" r="19.980000" fill="red">
  <title>Karachi</title>
</circle><line x1="543.960022" y1="651.960022" x2="99.959999" y2="363.959991" stroke="red" stroke-width="6.660000" />
<circle cx="118.959999" cy="113.959999" r="19.980000" fill="red">
  <title>Rio de Janeiro</title>
</circle><line x1="99.959999" y1="363.959991" x2="118.959999" y2="113.959999" stroke="red" stroke-width="6.660000" />
<circle cx="670.960022" cy="111.959999" r="19.980000" fill="red">
  <title>Mumbai</title>
</circle><line x1="118.959999" y1="113.959999" x2="670.960022" y2="111.959999" stroke="red" stroke-width="6.660000" />
<circle cx="1466.959961" cy="129.959991" r="19.980000" fill="red">
  <title>Shanghai</title>
</circle><line x1="670.960022" y1="111.959999" x2="1466.959961" y2="129.959991" stroke="red" stroke-width="6.660000" />
<circle cx="1149.959961" cy="366.959991" r="19.980000" fill="red">
  <title>Tianjin</title>
</circle><line x1="1466.959961" y1="129.959991" x2="1149.959961" y2="366.959991" stroke="red" stroke-width="6.660000" />
<circle cx="909.960022" cy="615.960022" r="19.980000" fill="red">
  <title>Cairo</title>
</circle><line x1="1149.959961" y1="366.959991" x2="909.960022" y2="615.960022" stroke="red" stroke-width="6.660000" />
<circle cx="951.960022" cy="633.960022" r="19.980000" fill="red">
  <title>Osaka</title>
</circle><line x1="909.960022" y1="615.960022" x2="951.960022" y2="633.960022" stroke="red" stroke-width="6.660000" />
<circle cx="1120.959961" cy="867.960022" r="19.980000" fill="red">
  <title>Beijing</title>
</circle><line x1="951.960022" y1="633.960022" x2="1120.959961" y2="867.960022" stroke="red" stroke-width="6.660000" />
<circle cx="1249.959961" cy="892.960022" r="19.980000" fill="red">
  <title>Buenos Aires</title>
</circle><line x1="1120.959961" y1="867.960022" x2="1249.959961" y2="892.960022" stroke="red" stroke-width="6.660000" />
<circle cx="1983.959961" cy="819.960022" r="19.980000" fill="red">
  <title>Chongqing</title>
</circle><line x1="1249.959961" y1="892.960022" x2="1983.959961" y2="819.960022" stroke="red" stroke-width="6.660000" />
<circle cx="1591.959961" cy="1156.959961" r="19.980000" fill="red">
  <title>São Paulo</title>
</circle><line x1="1983.959961" y1="819.960022" x2="1591.959961" y2="1156.959961" stroke="red" stroke-width="6.660000" />
<circle cx="1324.959961" cy="1918.959961" r="19.980000" fill="red">
  <title>Delhi</title>
</circle><line x1="1591.959961" y1="1156.959961" x2="1324.959961" y2="1918.959961" stroke="red" stroke-width="6.660000" />
<circle cx="603.960022" cy="2027.959961" r="19.980000" fill="red">
  <title>Manila</title>
</circle><line x1="1324.959961" y1="1918.959961" x2="603.960022" y2="2027.959961" stroke="red" stroke-width="6.660000" />
<circle cx="559.960022" cy="2030.959961" r="19.980000" fill="red">
  <title>Lagos</title>
</circle><line x1="603.960022" y1="2027.959961" x2="559.960022" y2="2030.959961" stroke="red" stroke-width="6.660000" />
</svg>
