<?xml version="1.0" encoding="UTF-8" standalone="no"?>
<svg width="500" height="500" viewBox="0 0 2074.000000 2074.000000" xmlns="http://www.w3.org/2000/svg">
<rect x="19.000000" y="19.000000" width="2036.000000" height="2036.000000" fill="black" />
<circle cx="909.960022" cy="1213.959961" r="19.980000" fill="red">
  <title>Tokyo</title>
</circle><line x1="45.959999" y1="1544.959961" x2="909.960022" y2="1213.959961" stroke="red" stroke-width="6.660000" />
<circle cx="1409.959961" cy="696.960022" r="19.980000" fill="red">
  <title>Delhi</title>
</circle><line x1="909.960022" y1="1213.959961" x2="1409.959961" y2="696.960022" stroke="red" stroke-width="6.660000" />
<circle cx="1942.959961" cy="541.960022" r="19.980000" fill="red">
  <title>Cairo</title>
</circle><line x1="1409.959961" y1="696.960022" x2="1942.959961" y2="541.960022" stroke="red" stroke-width="6.660000" />
<circle cx="1741.959961" cy="580.960022" r="19.980000" fill="red">
  <title>Shanghai</title>
</circle><line x1="1942.959961" y1="541.960022" x2="1741.959961" y2="580.960022" stroke="red" stroke-width="6.660000" />
<circle cx="941.960022" cy="1147.959961" r="19.980000" fill="red">
  <title>São Paulo</title>
</circle><line x1="1741.959961" y1="580.960022" x2="941.960022" y2="1147.959961" stroke="red" stroke-width="6.660000" />
<circle cx="45.959999" cy="1544.959961" r="19.980000" fill="red">
  <title>Mexico City</title>
</circle><line x1="941.960022" y1="1147.959961" x2="45.959999" y2="1544.959961" stroke="red" stroke-width="6.660000" />
</svg>
