<?xml version="1.0" encoding="UTF-8" standalone="no"?>
<svg width="500" height="500" viewBox="0 0 2074.000000 2074.000000" xmlns="http://www.w3.org/2000/svg">
<rect x="19.000000" y="19.000000" width="2036.000000" height="2036.000000" fill="black" />
<circle cx="1413.959961" cy="1415.959961" r="19.980000" fill="red">
  <title>Tokyo</title>
</circle><line x1="1737.959961" y1="1695.959961" x2="1413.959961" y2="1415.959961" stroke="red" stroke-width="6.660000" />
<circle cx="1309.959961" cy="1079.959961" r="19.980000" fill="red">
  <title>Mexico City</title>
</circle><line x1="1413.959961" y1="1415.959961" x2="1309.959961" y2="1079.959961" stroke="red" stroke-width="6.660000" />
<circle cx="1036.959961" cy="997.960022" r="19.980000" fill="red">
  <title>New York</title>
</circle><line x1="1309.959961" y1="1079.959961" x2="1036.959961" y2="997.960022" stroke="red" stroke-width="6.660000" />
<circle cx="893.960022" cy="1158.959961" r="19.980000" fill="red">
  <title>Istanbul</title>
</circle><line x1="1036.959961" y1="997.960022" x2="893.960022" y2="1158.959961" stroke="red" stroke-width="6.660000" />
<circle cx="939.960022" cy="1536.959961" r="19.980000" fill="red">
  <title>São Paulo</title>
</circle><line x1="893.960022" y1="1158.959961" x2="939.960022" y2="1536.959961" stroke="red" stroke-width="6.660000" />
<circle cx="733.960022" cy="1875.959961" r="19.980000" fill="red">
  <title>Mumbai</title>
</circle><line x1="939.960022" y1="1536.959961" x2="733.960022" y2="1875.959961" stroke="red" stroke-width="6.660000" />
<circle cx="98.959999" cy="1913.959961" r="19.980000" fill="red">
  <title>Buenos Aires</title>
</circle><line x1="733.960022" y1="1875.959961" x2="98.959999" y2="1913.959961" stroke="red" stroke-width="6.660000" />
<circle cx="151.959991" cy="645.960022" r="19.980000" fill="red">
  <title>Beijing</title>
</circle><line x1="98.959999" y1="1913.959961" x2="151.959991" y2="645.960022" stroke="red" stroke-width="6.660000" />
<circle cx="536.960022" cy="146.959991" r="19.980000" fill="red">
  <title>Manila</title>
</circle><line x1="151.959991" y1="645.960022" x2="536.960022" y2="146.959991" stroke="red" stroke-width="6.660000" />
<circle cx="492.959991" cy="41.959999" r="19.980000" fill="red">
  <title>Delhi</title>
</circle><line x1="536.960022" y1="146.959991" x2="492.959991" y2="41.959999" stroke="red" stroke-width="6.660000" />
<circle cx="885.960022" cy="55.959999" r="19.980000" fill="red">
  <title>Chongqing</title>
</circle><line x1="492.959991" y1="41.959999" x2="885.960022" y2="55.959999" stroke="red" stroke-width="6.660000" />
<circle cx="1546.959961" cy="271.959991" r="19.980000" fill="red">
  <title>Cairo</title>
</circle><line x1="885.960022" y1="55.959999" x2="1546.959961" y2="271.959991" stroke="red" stroke-width="6.660000" />
<circle cx="1692.959961" cy="269.959991" r="19.980000" fill="red">
  <title>Kolkata</title>
</circle><line x1="1546.959961" y1="271.959991" x2="1692.959961" y2="269.959991" stroke="red" stroke-width="6.660000" />
<circle cx="1843.959961" cy="818.960022" r="19.980000" fill="red">
  <title>Shanghai</title>
</circle><line x1="1692.959961" y1="269.959991" x2="1843.959961" y2="818.960022" stroke="red" stroke-width="6.660000" />
<circle cx="1551.959961" cy="1505.959961" r="19.980000" fill="red">
  <title>Osaka</title>
</circle><line x1="1843.959961" y1="818.960022" x2="1551.959961" y2="1505.959961" stroke="red" stroke-width="6.660000" />
<circle cx="1977.959961" cy="1839.959961" r="19.980000" fill="red">
  <title>Dhaka</title>
</circle><line x1="1551.959961" y1="1505.959961" x2="1977.959961" y2="1839.959961" stroke="red" stroke-width="6.660000" />
<circle cx="1737.959961" cy="1695.959961" r="19.980000" fill="red">
  <title>Karachi</title>
</circle><line x1="1977.959961" y1="1839.959961" x2="1737.959961" y2="1695.959961" stroke="red" stroke-width="6.660000" />
</svg>
