<?xml version="1.0" encoding="UTF-8" standalone="no"?>
<svg width="500" height="500" viewBox="0 0 2074.000000 2074.000000" xmlns="http://www.w3.org/2000/svg">
<rect x="19.000000" y="19.000000" width="2036.000000" height="2036.000000" fill="black" />
<circle cx="749.960022" cy="1233.959961" r="19.980000" fill="red">
  <title>Tokyo</title>
</circle><line x1="245.959991" y1="1623.959961" x2="749.960022" y2="1233.959961" stroke="red" stroke-width="6.660000" />
<circle cx="787.960022" cy="937.960022" r="19.980000" fill="red">
  <title>Mumbai</title>
</circle><line x1="749.960022" y1="1233.959961" x2="787.960022" y2="937.960022" stroke="red" stroke-width="6.660000" />
<circle cx="544.960022" cy="961.960022" r="19.980000" fill="red">
  <title>Buenos Aires</title>
</circle><line x1="787.960022" y1="937.960022" x2="544.960022" y2="961.960022" stroke="red" stroke-width="6.660000" />
<circle cx="79.959999" cy="705.960022" r="19.980000" fill="red">
  <title>São Paulo</title>
</circle><line x1="544.960022" y1="961.960022" x2="79.959999" y2="705.960022" stroke="red" stroke-width="6.660000" />
<circle cx="574.960022" cy="622.960022" r="19.980000" fill="red">
  <title>Delhi</title>
</circle><line x1="79.959999" y1="705.960022" x2="574.960022" y2="622.960022" stroke="red" stroke-width="6.660000" />
<circle cx="767.960022" cy="315.959991" r="19.980000" fill="red">
  <title>Dhaka</title>
</circle><line x1="574.960022" y1="622.960022" x2="767.960022" y2="315.959991" stroke="red" stroke-width="6.660000" />
<circle cx="947.960022" cy="172.959991" r="19.980000" fill="red">
  <title>Mexico City</title>
</circle><line x1="767.960022" y1="315.959991" x2="947.960022" y2="172.959991" stroke="red" stroke-width="6.660000" />
<circle cx="1122.959961" cy="144.959991" r="19.980000" fill="red">
  <title>Chongqing</title>
</circle><line x1="947.960022" y1="172.959991" x2="1122.959961" y2="144.959991" stroke="red" stroke-width="6.660000" />
<circle cx="1830.959961" cy="331.959991" r="19.980000" fill="red">
  <title>Manila</title>
</circle><line x1="1122.959961" y1="144.959991" x2="1830.959961" y2="331.959991" stroke="red" stroke-width="6.660000" />
<circle cx="1795.959961" cy="406.959991" r="19.980000" fill="red">
  <title>Kolkata</title>
</circle><line x1="1830.959961" y1="331.959991" x2="1795.959961" y2="406.959991" stroke="red" stroke-width="6.660000" />
<circle cx="1694.959961" cy="636.960022" r="19.980000" fill="red">
  <title>Istanbul</title>
</circle><line x1="1795.959961" y1="406.959991" x2="1694.959961" y2="636.960022" stroke="red" stroke-width="6.660000" />
<circle cx="1535.959961" cy="1302.959961" r="19.980000" fill="red">
  <title>Cairo</title>
</circle><line x1="1694.959961" y1="636.960022" x2="1535.959961" y2="1302.959961" stroke="red" stroke-width="6.660000" />
<circle cx="1872.959961" cy="1654.959961" r="19.980000" fill="red">
  <title>Osaka</title>
</circle><line x1="1535.959961" y1="1302.959961" x2="1872.959961" y2="1654.959961" stroke="red" stroke-width="6.660000" />
<circle cx="898.960022" cy="1404.959961" r="19.980000" fill="red">
  <title>Shanghai</title>
</circle><line x1="1872.959961" y1="1654.959961" x2="898.960022" y2="1404.959961" stroke="red" stroke-width="6.660000" />
<circle cx="214.959991" cy="1696.959961" r="19.980000" fill="red">
  <title>Beijing</title>
</circle><line x1="898.960022" y1="1404.959961" x2="214.959991" y2="1696.959961" stroke="red" stroke-width="6.660000" />
<circle cx="181.959991" cy="1812.959961" r="19.980000" fill="red">
  <title>Karachi</title>
</circle><line x1="214.959991" y1="1696.959961" x2="181.959991" y2="1812.959961" stroke="red" stroke-width="6.660000" />
<circle cx="245.959991" cy="1623.959961" r="19.980000" fill="red">
  <title>New York</title>
</circle><line x1="181.959991" y1="1812.959961" x2="245.959991" y2="1623.959961" stroke="red" stroke-width="6.660000" />
</svg>
