<?xml version="1.0" encoding="UTF-8" standalone="no"?>
<svg width="500" height="500" viewBox="0 0 2074.000000 2074.000000" xmlns="http://www.w3.org/2000/svg">
<rect x="19.000000" y="19.000000" width="2036.000000" height="2036.000000" fill="black" />
<circle cx="118.959999" cy="1114.959961" r="19.980000" fill="red">
  <title>Tokyo</title>
</circle><line x1="283.959991" y1="1446.959961" x2="118.959999" y2="1114.959961" stroke="red" stroke-width="6.660000" />
<circle cx="218.959991" cy="842.960022" r="19.980000" fill="red">
  <title>Karachi</title>
</circle><line x1="118.959999" y1="1114.959961" x2="218.959991" y2="842.960022" stroke="red" stroke-width="6.660000" />
<circle cx="278.959991" cy="358.959991" r="19.980000" fill="red">
  <title>Osaka</title>
</circle><line x1="218.959991" y1="842.960022" x2="278.959991" y2="358.959991" stroke="red" stroke-width="6.660000" />
<circle cx="367.959991" cy="50.959999" r="19.980000" fill="red">
  <title>Delhi</title>
</circle><line x1="278.959991" y1="358.959991" x2="367.959991" y2="50.959999" stroke="red" stroke-width="6.660000" />
<circle cx="1264.959961" cy="735.960022" r="19.980000" fill="red">
  <title>Mumbai</title>
</circle><line x1="367.959991" y1="50.959999" x2="1264.959961" y2="735.960022" stroke="red" stroke-width="6.660000" />
<circle cx="1468.959961" cy="386.959991" r="19.980000" fill="red">
  <title>Buenos Aires</title>
</circle><line x1="1264.959961" y1="735.960022" x2="1468.959961" y2="386.959991" stroke="red" stroke-width="6.660000" />
<circle cx="1624.959961" cy="510.959991" r="19.980000" fill="red">
  <title>Chongqing</title>
</circle><line x1="1468.959961" y1="386.959991" x2="1624.959961" y2="510.959991" stroke="red" stroke-width="6.660000" />
<circle cx="1680.959961" cy="817.960022" r="19.980000" fill="red">
  <title>Istanbul</title>
</circle><line x1="1624.959961" y1="510.959991" x2="1680.959961" y2="817.960022" stroke="red" stroke-width="6.660000" />
<circle cx="1491.959961" cy="997.960022" r="19.980000" fill="red">
  <title>New York</title>
</circle><line x1="1680.959961" y1="817.960022" x2="1491.959961" y2="997.960022" stroke="red" stroke-width="6.660000" />
<circle cx="1729.959961" cy="1462.959961" r="19.980000" fill="red">
  <title>Shanghai</title>
</circle><line x1="1491.959961" y1="997.960022" x2="1729.959961" y2="1462.959961" stroke="red" stroke-width="6.660000" />
<circle cx="2022.959961" cy="1563.959961" r="19.980000" fill="red">
  <title>Dhaka</title>
</circle><line x1="1729.959961" y1="1462.959961" x2="2022.959961" y2="1563.959961" stroke="red" stroke-width="6.660000" />
<circle cx="2029.959961" cy="1759.959961" r="19.980000" fill="red">
  <title>Kolkata</title>
</circle><line x1="2022.959961" y1="1563.959961" x2="2029.959961" y2="1759.959961" stroke="red" stroke-width="6.660000" />
<circle cx="1294.959961" cy="1530.959961" r="19.980000" fill="red">
  <title>São Paulo</title>
</circle><line x1="2029.959961" y1="1759.959961" x2="1294.959961" y2="1530.959961" stroke="red" stroke-width="6.660000" />
<circle cx="656.960022" cy="1103.959961" r="19.980000" fill="red">
  <title>Mexico City</title>
</circle><line x1="1294.959961" y1="1530.959961" x2="656.960022" y2="1103.959961" stroke="red" stroke-width="6.660000" />
<circle cx="297.959991" cy="1718.959961" r="19.980000" fill="red">
  <title>Beijing</title>
</circle><line x1="656.960022" y1="1103.959961" x2="297.959991" y2="1718.959961" stroke="red" stroke-width="6.660000" />
<circle cx="283.959991" cy="1446.959961" r="19.980000" fill="red">
  <title>Cairo</title>
</circle><line x1="297.959991" y1="1718.959961" x2="283.959991" y2="1446.959961" stroke="red" stroke-width="6.660000" />
</svg>
