<?xml version="1.0" encoding="UTF-8" standalone="no"?>
<svg width="500" height="500" viewBox="0 0 2074.000000 2074.000000" xmlns="http://www.w3.org/2000/svg">
<rect x="19.000000" y="19.000000" width="2036.000000" height="2036.000000" fill="black" />
<circle cx="1318.959961" cy="609.960022" r="19.980000" fill="red">
  <title>Tokyo</title>
</circle><line x1="718.960022" y1="323.959991" x2="1318.959961" y2="609.960022" stroke="red" stroke-width="6.660000" />
<circle cx="1579.959961" cy="545.960022" r="19.980000" fill="red">
  <title>Manila</title>
</circle><line x1="1318.959961" y1="609.960022" x2="1579.959961" y2="545.960022" stroke="red" stroke-width="6.660000" />
<circle cx="1864.959961" cy="407.959991" r="19.980000" fill="red">
  <title>Kolkata</title>
</circle><line x1="1579.959961" y1="545.960022" x2="1864.959961" y2="407.959991" stroke="red" stroke-width="6.660000" />
<circle cx="1825.959961" cy="1018.960022" r="19.980000" fill="red">
  <title>Mexico City</title>
</circle><line x1="1864.959961" y1="407.959991" x2="1825.959961" y2="1018.960022" stroke="red" stroke-width="6.660000" />
<circle cx="1991.959961" cy="1164.959961" r="19.980000" fill="red">
  <title>São Paulo</title>
</circle><line x1="1825.959961" y1="1018.960022" x2="1991.959961" y2="1164.959961" stroke="red" stroke-width="6.660000" />
<circle cx="1414.959961" cy="1916.959961" r="19.980000" fill="red">
  <title>Cairo</title>
</circle><line x1="1991.959961" y1="1164.959961" x2="1414.959961" y2="1916.959961" stroke="red" stroke-width="6.660000" />
<circle cx="1200.959961" cy="1754.959961" r="19.980000" fill="red">
  <title>Buenos Aires</title>
</circle><line x1="1414.959961" y1="1916.959961" x2="1200.959961" y2="1754.959961" stroke="red" stroke-width="6.660000" />
<circle cx="519.960022" cy="1666.959961" r="19.980000" fill="red">
  <title>Karachi</title>
</circle><line x1="1200.959961" y1="1754.959961" x2="519.960022" y2="1666.959961" stroke="red" stroke-width="6.660000" />
<circle cx="73.959999" cy="1516.959961" r="19.980000" fill="red">
  <title>Dhaka</title>
</circle><line x1="519.960022" y1="1666.959961" x2="73.959999" y2="1516.959961" stroke="red" stroke-width="6.660000" />
<circle cx="641.960022" cy="1383.959961" r="19.980000" fill="red">
  <title>Osaka</title>
</circle><line x1="73.959999" y1="1516.959961" x2="641.960022" y2="1383.959961" stroke="red" stroke-width="6.660000" />
<circle cx="1117.959961" cy="1158.959961" r="19.980000" fill="red">
  <title>New York</title>
</circle><line x1="641.960022" y1="1383.959961" x2="1117.959961" y2="1158.959961" stroke="red" stroke-width="6.660000" />
<circle cx="1127.959961" cy="1008.960022" r="19.980000" fill="red">
  <title>Istanbul</title>
</circle><line x1="1117.959961" y1="1158.959961" x2="1127.959961" y2="1008.960022" stroke="red" stroke-width="6.660000" />
<circle cx="1105.959961" cy="940.960022" r="19.980000" fill="red">
  <title>Shanghai</title>
</circle><line x1="1127.959961" y1="1008.960022" x2="1105.959961" y2="940.960022" stroke="red" stroke-width="6.660000" />
<circle cx="703.960022" cy="690.960022" r="19.980000" fill="red">
  <title>Mumbai</title>
</circle><line x1="1105.959961" y1="940.960022" x2="703.960022" y2="690.960022" stroke="red" stroke-width="6.660000" />
<circle cx="491.959991" cy="207.959991" r="19.980000" fill="red">
  <title>Chongqing</title>
</circle><line x1="703.960022" y1="690.960022" x2="491.959991" y2="207.959991" stroke="red" stroke-width="6.660000" />
<circle cx="733.960022" cy="101.959999" r="19.980000" fill="red">
  <title>Beijing</title>
</circle><line x1="491.959991" y1="207.959991" x2="733.960022" y2="101.959999" stroke="red" stroke-width="6.660000" />
<circle cx="718.960022" cy="323.959991" r="19.980000" fill="red">
  <title>Delhi</title>
</circle><line x1="733.960022" y1="101.959999" x2="718.960022" y2="323.959991" stroke="red" stroke-width="6.660000" />
</svg>
