<?xml version="1.0" encoding="UTF-8" standalone="no"?>
<svg width="500" height="500" viewBox="0 0 2074.000000 2074.000000" xmlns="http://www.w3.org/2000/svg">
<rect x="19.000000" y="19.000000" width="2036.000000" height="2036.000000" fill="black" />
<circle cx="1723.959961" cy="380.959991" r="19.980000" fill="red">
  <title>Tokyo</title>
</circle><line x1="1433.959961" y1="334.959991" x2="1723.959961" y2="380.959991" stroke="red" stroke-width="6.660000" />
<circle cx="1978.959961" cy="526.960022" r="19.980000" fill="red">
  <title>Shanghai</title>
</circle><line x1="1723.959961" y1="380.959991" x2="1978.959961" y2="526.960022" stroke="red" stroke-width="6.660000" />
<circle cx="1909.959961" cy="726.960022" r="19.980000" fill="red">
  <title>Delhi</title>
</circle><line x1="1978.959961" y1="526.960022" x2="1909.959961" y2="726.960022" stroke="red" stroke-width="6.660000" />
<circle cx="1887.959961" cy="852.960022" r="19.980000" fill="red">
  <title>Mumbai</title>
</circle><line x1="1909.959961" y1="726.960022" x2="1887.959961" y2="852.960022" stroke="red" stroke-width="6.660000" />
<circle cx="1654.959961" cy="1156.959961" r="19.980000" fill="red">
  <title>São Paulo</title>
</circle><line x1="1887.959961" y1="852.960022" x2="1654.959961" y2="1156.959961" stroke="red" stroke-width="6.660000" />
<circle cx="1962.959961" cy="1819.959961" r="19.980000" fill="red">
  <title>Istanbul</title>
</circle><line x1="1654.959961" y1="1156.959961" x2="1962.959961" y2="1819.959961" stroke="red" stroke-width="6.660000" />
<circle cx="1729.959961" cy="1647.959961" r="19.980000" fill="red">
  <title>Kolkata</title>
</circle><line x1="1962.959961" y1="1819.959961" x2="1729.959961" y2="1647.959961" stroke="red" stroke-width="6.660000" />
<circle cx="1013.960022" cy="1122.959961" r="19.980000" fill="red">
  <title>Cairo</title>
</circle><line x1="1729.959961" y1="1647.959961" x2="1013.960022" y2="1122.959961" stroke="red" stroke-width="6.660000" />
<circle cx="617.960022" cy="1214.959961" r="19.980000" fill="red">
  <title>Mexico City</title>
</circle><line x1="1013.960022" y1="1122.959961" x2="617.960022" y2="1214.959961" stroke="red" stroke-width="6.660000" />
<circle cx="204.959991" cy="2035.959961" r="19.980000" fill="red">
  <title>Beijing</title>
</circle><line x1="617.960022" y1="1214.959961" x2="204.959991" y2="2035.959961" stroke="red" stroke-width="6.660000" />
<circle cx="110.959999" cy="1146.959961" r="19.980000" fill="red">
  <title>Karachi</title>
</circle><line x1="204.959991" y1="2035.959961" x2="110.959999" y2="1146.959961" stroke="red" stroke-width="6.660000" />
<circle cx="46.959999" cy="257.959991" r="19.980000" fill="red">
  <title>Buenos Aires</title>
</circle><line x1="110.959999" y1="1146.959961" x2="46.959999" y2="257.959991" stroke="red" stroke-width="6.660000" />
<circle cx="592.960022" cy="268.959991" r="19.980000" fill="red">
  <title>Chongqing</title>
</circle><line x1="46.959999" y1="257.959991" x2="592.960022" y2="268.959991" stroke="red" stroke-width="6.660000" />
<circle cx="818.960022" cy="620.960022" r="19.980000" fill="red">
  <title>Osaka</title>
</circle><line x1="592.960022" y1="268.959991" x2="818.960022" y2="620.960022" stroke="red" stroke-width="6.660000" />
<circle cx="1030.959961" cy="731.960022" r="19.980000" fill="red">
  <title>New York</title>
</circle><line x1="818.960022" y1="620.960022" x2="1030.959961" y2="731.960022" stroke="red" stroke-width="6.660000" />
<circle cx="1433.959961" cy="334.959991" r="19.980000" fill="red">
  <title>Dhaka</title>
</circle><line x1="1030.959961" y1="731.960022" x2="1433.959961" y2="334.959991" stroke="red" stroke-width="6.660000" />
</svg>
