<?xml version="1.0" encoding="UTF-8" standalone="no"?>
<svg width="500" height="500" viewBox="0 0 2074.000000 2074.000000" xmlns="http://www.w3.org/2000/svg">
<rect x="19.000000" y="19.000000" width="2036.000000" height="2036.000000" fill="black" />
<circle cx="103.959999" cy="144.959991" r="19.980000" fill="red">
  <title>Tokyo</title>
</circle><line x1="578.960022" y1="288.959991" x2="103.959999" y2="144.959991" stroke="red" stroke-width="6.660000" />
<circle cx="104.959999" cy="54.959999" r="19.980000" fill="red">
  <title>Osaka</title>
</circle><line x1="103.959999" y1="144.959991" x2="104.959999" y2="54.959999" stroke="red" stroke-width="6.660000" />
<circle cx="788.960022" cy="51.959999" r="19.980000" fill="red">
  <title>Dhaka</title>
</circle><line x1="104.959999" y1="54.959999" x2="788.960022" y2="51.959999" stroke="red" stroke-width="6.660000" />
<circle cx="1412.959961" cy="39.959999" r="19.980000" fill="red">
  <title>Karachi</title>
</circle><line x1="788.960022" y1="51.959999" x2="1412.959961" y2="39.959999" stroke="red" stroke-width="6.660000" />
<circle cx="1221.959961" cy="409.959991" r="19.980000" fill="red">
  <title>Mumbai</title>
</circle><line x1="1412.959961" y1="39.959999" x2="1221.959961" y2="409.959991" stroke="red" stroke-width="6.660000" />
<circle cx="1055.959961" cy="876.960022" r="19.980000" fill="red">
  <title>Kolkata</title>
</circle><line x1="1221.959961" y1="409.959991" x2="1055.959961" y2="876.960022" stroke="red" stroke-width="6.660000" />
<circle cx="1070.959961" cy="896.960022" r="19.980000" fill="red">
  <title>New York</title>
</circle><line x1="1055.959961" y1="876.960022" x2="1070.959961" y2="896.960022" stroke="red" stroke-width="6.660000" />
<circle cx="1578.959961" cy="1156.959961" r="19.980000" fill="red">
  <title>Manila</title>
</circle><line x1="1070.959961" y1="896.960022" x2="1578.959961" y2="1156.959961" stroke="red" stroke-width="6.660000" />
<circle cx="1617.959961" cy="1247.959961" r="19.980000" fill="red">
  <title>Chongqing</title>
</circle><line x1="1578.959961" y1="1156.959961" x2="1617.959961" y2="1247.959961" stroke="red" stroke-width="6.660000" />
<circle cx="1765.959961" cy="1480.959961" r="19.980000" fill="red">
  <title>Mexico City</title>
</circle><line x1="1617.959961" y1="1247.959961" x2="1765.959961" y2="1480.959961" stroke="red" stroke-width="6.660000" />
<circle cx="1827.959961" cy="1923.959961" r="19.980000" fill="red">
  <title>Buenos Aires</title>
</circle><line x1="1765.959961" y1="1480.959961" x2="1827.959961" y2="1923.959961" stroke="red" stroke-width="6.660000" />
<circle cx="811.960022" cy="1473.959961" r="19.980000" fill="red">
  <title>Istanbul</title>
</circle><line x1="1827.959961" y1="1923.959961" x2="811.960022" y2="1473.959961" stroke="red" stroke-width="6.660000" />
<circle cx="139.959991" cy="1740.959961" r="19.980000" fill="red">
  <title>Delhi</title>
</circle><line x1="811.960022" y1="1473.959961" x2="139.959991" y2="1740.959961" stroke="red" stroke-width="6.660000" />
<circle cx="275.959991" cy="1362.959961" r="19.980000" fill="red">
  <title>Rio de Janeiro</title>
</circle><line x1="139.959991" y1="1740.959961" x2="275.959991" y2="1362.959961" stroke="red" stroke-width="6.660000" />
<circle cx="221.959991" cy="1255.959961" r="19.980000" fill="red">
  <title>Cairo</title>
</circle><line x1="275.959991" y1="1362.959961" x2="221.959991" y2="1255.959961" stroke="red" stroke-width="6.660000" />
<circle cx="747.960022" cy="1157.959961" r="19.980000" fill="red">
  <title>Shanghai</title>
</circle><line x1="221.959991" y1="1255.959961" x2="747.960022" y2="1157.959961" stroke="red" stroke-width="6.660000" />
<circle cx="823.960022" cy="1070.959961" r="19.980000" fill="red">
  <title>São Paulo</title>
</circle><line x1="747.960022" y1="1157.959961" x2="823.960022" y2="1070.959961" stroke="red" stroke-width="6.660000" />
<circle cx="778.960022" cy="758.960022" r="19.980000" fill="red">
  <title>Beijing</title>
</circle><line x1="823.960022" y1="1070.959961" x2="778.960022" y2="758.960022" stroke="red" stroke-width="6.660000" />
<circle cx="578.960022" cy="288.959991" r="19.980000" fill="red">
  <title>Lagos</title>
</circle><line x1="778.960022" y1="758.960022" x2="578.960022" y2="288.959991" stroke="red" stroke-width="6.660000" />
</svg>
