<?xml version="1.0" encoding="UTF-8" standalone="no"?>
<svg width="500" height="500" viewBox="0 0 2074.000000 2074.000000" xmlns="http://www.w3.org/2000/svg">
<rect x="19.000000" y="19.000000" width="2036.000000" height="2036.000000" fill="black" />
<circle cx="236.959991" cy="1675.959961" r="19.980000" fill="red">
  <title>Tokyo</title>
</circle><line x1="813.960022" y1="1179.959961" x2="236.959991" y2="1675.959961" stroke="red" stroke-width="6.660000" />
<circle cx="908.960022" cy="1585.959961" r="19.980000" fill="red">
  <title>Delhi</title>
</circle><line x1="236.959991" y1="1675.959961" x2="908.960022" y2="1585.959961" stroke="red" stroke-width="6.660000" />
<circle cx="1687.959961" cy="1137.959961" r="19.980000" fill="red">
  <title>Cairo</title>
</circle><line x1="908.960022" y1="1585.959961" x2="1687.959961" y2="1137.959961" stroke="red" stroke-width="6.660000" />
<circle cx="1170.959961" cy="902.960022" r="19.980000" fill="red">
  <title>São Paulo</title>
</circle><line x1="1687.959961" y1="1137.959961" x2="1170.959961" y2="902.960022" stroke="red" stroke-width="6.660000" />
<circle cx="775.960022" cy="801.960022" r="19.980000" fill="red">
  <title>Mexico City</title>
</circle><line x1="1170.959961" y1="902.960022" x2="775.960022" y2="801.960022" stroke="red" stroke-width="6.660000" />
<circle cx="394.959991" cy="477.959991" r="19.980000" fill="red">
  <title>Shanghai</title>
</circle><line x1="775.960022" y1="801.960022" x2="394.959991" y2="477.959991" stroke="red" stroke-width="6.660000" />
<circle cx="813.960022" cy="1179.959961" r="19.980000" fill="red">
  <title>Mumbai</title>
</circle><line x1="394.959991" y1="477.959991" x2="813.960022" y2="1179.959961" stroke="red" stroke-width="6.660000" />
</svg>
