<?xml version="1.0" encoding="UTF-8" standalone="no"?>
<svg width="500" height="500" viewBox="0 0 2074.000000 2074.000000" xmlns="http://www.w3.org/2000/svg">
<rect x="19.000000" y="19.000000" width="2036.000000" height="2036.000000" fill="black" />
<circle cx="486.959991" cy="472.959991" r="19.980000" fill="red">
  <title>Tokyo</title>
</circle><line x1="479.959991" y1="116.959999" x2="486.959991" y2="472.959991" stroke="red" stroke-width="6.660000" />
<circle cx="394.959991" cy="536.960022" r="19.980000" fill="red">
  <title>Shanghai</title>
</circle><line x1="486.959991" y1="472.959991" x2="394.959991" y2="536.960022" stroke="red" stroke-width="6.660000" />
<circle cx="810.960022" cy="921.960022" r="19.980000" fill="red">
  <title>Osaka</title>
</circle><line x1="394.959991" y1="536.960022" x2="810.960022" y2="921.960022" stroke="red" stroke-width="6.660000" />
<circle cx="840.960022" cy="1092.959961" r="19.980000" fill="red">
  <title>New York</title>
</circle><line x1="810.960022" y1="921.960022" x2="840.960022" y2="1092.959961" stroke="red" stroke-width="6.660000" />
<circle cx="1040.959961" cy="891.960022" r="19.980000" fill="red">
  <title>Beijing</title>
</circle><line x1="840.960022" y1="1092.959961" x2="1040.959961" y2="891.960022" stroke="red" stroke-width="6.660000" />
<circle cx="1307.959961" cy="400.959991" r="19.980000" fill="red">
  <title>Mumbai</title>
</circle><line x1="1040.959961" y1="891.960022" x2="1307.959961" y2="400.959991" stroke="red" stroke-width="6.660000" />
<circle cx="2026.959961" cy="446.959991" r="19.980000" fill="red">
  <title>Mexico City</title>
</circle><line x1="1307.959961" y1="400.959991" x2="2026.959961" y2="446.959991" stroke="red" stroke-width="6.660000" />
<circle cx="1568.959961" cy="801.960022" r="19.980000" fill="red">
  <title>Kolkata</title>
</circle><line x1="2026.959961" y1="446.959991" x2="1568.959961" y2="801.960022" stroke="red" stroke-width="6.660000" />
<circle cx="1442.959961" cy="914.960022" r="19.980000" fill="red">
  <title>Lagos</title>
</circle><line x1="1568.959961" y1="801.960022" x2="1442.959961" y2="914.960022" stroke="red" stroke-width="6.660000" />
<circle cx="1832.959961" cy="1525.959961" r="19.980000" fill="red">
  <title>Karachi</title>
</circle><line x1="1442.959961" y1="914.960022" x2="1832.959961" y2="1525.959961" stroke="red" stroke-width="6.660000" />
<circle cx="939.960022" cy="1603.959961" r="19.980000" fill="red">
  <title>São Paulo</title>
</circle><line x1="1832.959961" y1="1525.959961" x2="939.960022" y2="1603.959961" stroke="red" stroke-width="6.660000" />
<circle cx="823.960022" cy="1766.959961" r="19.980000" fill="red">
  <title>Buenos Aires</title>
</circle><line x1="939.960022" y1="1603.959961" x2="823.960022" y2="1766.959961" stroke="red" stroke-width="6.660000" />
<circle cx="558.960022" cy="1629.959961" r="19.980000" fill="red">
  <title>Manila</title>
</circle><line x1="823.960022" y1="1766.959961" x2="558.960022" y2="1629.959961" stroke="red" stroke-width="6.660000" />
<circle cx="160.959991" cy="1611.959961" r="19.980000" fill="red">
  <title>Chongqing</title>
</circle><line x1="558.960022" y1="1629.959961" x2="160.959991" y2="1611.959961" stroke="red" stroke-width="6.660000" />
<circle cx="269.959991" cy="1324.959961" r="19.980000" fill="red">
  <title>Cairo</title>
</circle><line x1="160.959991" y1="1611.959961" x2="269.959991" y2="1324.959961" stroke="red" stroke-width="6.660000" />
<circle cx="291.959991" cy="1206.959961" r="19.980000" fill="red">
  <title>Dhaka</title>
</circle><line x1="269.959991" y1="1324.959961" x2="291.959991" y2="1206.959961" stroke="red" stroke-width="6.660000" />
<circle cx="99.959999" cy="679.960022" r="19.980000" fill="red">
  <title>Delhi</title>
</circle><line x1="291.959991" y1="1206.959961" x2="99.959999" y2="679.960022" stroke="red" stroke-width="6.660000" />
<circle cx="128.959991" cy="343.959991" r="19.980000" fill="red">
  <title>Rio de Janeiro</title>
</circle><line x1="99.959999" y1="679.960022" x2="128.959991" y2="343.959991" stroke="red" stroke-width="6.660000" />
<circle cx="354.959991" cy="125.959999" r="19.980000" fill="red">
  <title>Istanbul</title>
</circle><line x1="128.959991" y1="343.959991" x2="354.959991" y2="125.959999" stroke="red" stroke-width="6.660000" />
<circle cx="479.959991" cy="116.959999" r="19.980000" fill="red">
  <title>Tianjin</title>
</circle><line x1="354.959991" y1="125.959999" x2="479.959991" y2="116.959999" stroke="red" stroke-width="6.660000" />
</svg>
