<?xml version="1.0" encoding="UTF-8" standalone="no"?>
<svg width="500" height="500" viewBox="0 0 2074.000000 2074.000000" xmlns="http://www.w3.org/2000/svg">
<rect x="19.000000" y="19.000000" width="2036.000000" height="2036.000000" fill="black" />
<circle cx="661.960022" cy="958.960022" r="19.980000" fill="red">
  <title>Tokyo</title>
</circle><line x1="783.960022" y1="1228.959961" x2="661.960022" y2="958.960022" stroke="red" stroke-width="6.660000" />
<circle cx="588.960022" cy="817.960022" r="19.980000" fill="red">
  <title>Shanghai</title>
</circle><line x1="661.960022" y1="958.960022" x2="588.960022" y2="817.960022" stroke="red" stroke-width="6.660000" />
<circle cx="508.959991" cy="733.960022" r="19.980000" fill="red">
  <title>Kolkata</title>
</circle><line x1="588.960022" y1="817.960022" x2="508.959991" y2="733.960022" stroke="red" stroke-width="6.660000" />
<circle cx="111.959999" cy="1078.959961" r="19.980000" fill="red">
  <title>Istanbul</title>
</circle><line x1="508.959991" y1="733.960022" x2="111.959999" y2="1078.959961" stroke="red" stroke-width="6.660000" />
<circle cx="121.959999" cy="1843.959961" r="19.980000" fill="red">
  <title>Cairo</title>
</circle><line x1="111.959999" y1="1078.959961" x2="121.959999" y2="1843.959961" stroke="red" stroke-width="6.660000" />
<circle cx="901.960022" cy="1677.959961" r="19.980000" fill="red">
  <title>Mexico City</title>
</circle><line x1="121.959999" y1="1843.959961" x2="901.960022" y2="1677.959961" stroke="red" stroke-width="6.660000" />
<circle cx="1486.959961" cy="1916.959961" r="19.980000" fill="red">
  <title>São Paulo</title>
</circle><line x1="901.960022" y1="1677.959961" x2="1486.959961" y2="1916.959961" stroke="red" stroke-width="6.660000" />
<circle cx="1415.959961" cy="1621.959961" r="19.980000" fill="red">
  <title>Mumbai</title>
</circle><line x1="1486.959961" y1="1916.959961" x2="1415.959961" y2="1621.959961" stroke="red" stroke-width="6.660000" />
<circle cx="1470.959961" cy="1082.959961" r="19.980000" fill="red">
  <title>Karachi</title>
</circle><line x1="1415.959961" y1="1621.959961" x2="1470.959961" y2="1082.959961" stroke="red" stroke-width="6.660000" />
<circle cx="1937.959961" cy="1143.959961" r="19.980000" fill="red">
  <title>Delhi</title>
</circle><line x1="1470.959961" y1="1082.959961" x2="1937.959961" y2="1143.959961" stroke="red" stroke-width="6.660000" />
<circle cx="1732.959961" cy="704.960022" r="19.980000" fill="red">
  <title>Osaka</title>
</circle><line x1="1937.959961" y1="1143.959961" x2="1732.959961" y2="704.960022" stroke="red" stroke-width="6.660000" />
<circle cx="1837.959961" cy="547.960022" r="19.980000" fill="red">
  <title>Lagos</title>
</circle><line x1="1732.959961" y1="704.960022" x2="1837.959961" y2="547.960022" stroke="red" stroke-width="6.660000" />
<circle cx="1997.959961" cy="407.959991" r="19.980000" fill="red">
  <title>Manila</title>
</circle><line x1="1837.959961" y1="547.960022" x2="1997.959961" y2="407.959991" stroke="red" stroke-width="6.660000" />
<circle cx="1694.959961" cy="75.959999" r="19.980000" fill="red">
  <title>New York</title>
</circle><line x1="1997.959961" y1="407.959991" x2="1694.959961" y2="75.959999" stroke="red" stroke-width="6.660000" />
<circle cx="1614.959961" cy="636.960022" r="19.980000" fill="red">
  <title>Dhaka</title>
</circle><line x1="1694.959961" y1="75.959999" x2="1614.959961" y2="636.960022" stroke="red" stroke-width="6.660000" />
<circle cx="931.960022" cy="612.960022" r="19.980000" fill="red">
  <title>Buenos Aires</title>
</circle><line x1="1614.959961" y1="636.960022" x2="931.960022" y2="612.960022" stroke="red" stroke-width="6.660000" />
<circle cx="1017.960022" cy="778.960022" r="19.980000" fill="red">
  <title>Chongqing</title>
</circle><line x1="931.960022" y1="612.960022" x2="1017.960022" y2="778.960022" stroke="red" stroke-width="6.660000" />
<circle cx="783.960022" cy="1228.959961" r="19.980000" fill="red">
  <title>Beijing</title>
</circle><line x1="1017.960022" y1="778.960022" x2="783.960022" y2="1228.959961" stroke="red" stroke-width="6.660000" />
</svg>
