<?xml version="1.0" encoding="UTF-8" standalone="no"?>
<svg width="500" height="500" viewBox="0 0 2074.000000 2074.000000" xmlns="http://www.w3.org/2000/svg">
<rect x="19.000000" y="19.000000" width="2036.000000" height="2036.000000" fill="black" />
<circle cx="1257.959961" cy="1959.959961" r="19.980000" fill="red">
  <title>Tokyo</title>
</circle><line x1="81.959999" y1="1489.959961" x2="1257.959961" y2="1959.959961" stroke="red" stroke-width="6.660000" />
<circle cx="1782.959961" cy="1184.959961" r="19.980000" fill="red">
  <title>Mexico City</title>
</circle><line x1="1257.959961" y1="1959.959961" x2="1782.959961" y2="1184.959961" stroke="red" stroke-width="6.660000" />
<circle cx="2011.959961" cy="1184.959961" r="19.980000" fill="red">
  <title>Delhi</title>
</circle><line x1="1782.959961" y1="1184.959961" x2="2011.959961" y2="1184.959961" stroke="red" stroke-width="6.660000" />
<circle cx="1922.959961" cy="356.959991" r="19.980000" fill="red">
  <title>Cairo</title>
</circle><line x1="2011.959961" y1="1184.959961" x2="1922.959961" y2="356.959991" stroke="red" stroke-width="6.660000" />
<circle cx="912.960022" cy="1092.959961" r="19.980000" fill="red">
  <title>São Paulo</title>
</circle><line x1="1922.959961" y1="356.959991" x2="912.960022" y2="1092.959961" stroke="red" stroke-width="6.660000" />
<circle cx="578.960022" cy="706.960022" r="19.980000" fill="red">
  <title>Shanghai</title>
</circle><line x1="912.960022" y1="1092.959961" x2="578.960022" y2="706.960022" stroke="red" stroke-width="6.660000" />
<circle cx="81.959999" cy="1489.959961" r="19.980000" fill="red">
  <title>Mumbai</title>
</circle><line x1="578.960022" y1="706.960022" x2="81.959999" y2="1489.959961" stroke="red" stroke-width="6.660000" />
</svg>
