<?xml version="1.0" encoding="UTF-8" standalone="no"?>
<svg width="500" height="500" viewBox="0 0 2074.000000 2074.000000" xmlns="http://www.w3.org/2000/svg">
<rect x="19.000000" y="19.000000" width="2036.000000" height="2036.000000" fill="black" />
<circle cx="486.959991" cy="580.960022" r="19.980000" fill="red">
  <title>Tokyo</title>
</circle><line x1="972.960022" y1="465.959991" x2="486.959991" y2="580.960022" stroke="red" stroke-width="6.660000" />
<circle cx="458.959991" cy="768.960022" r="19.980000" fill="red">
  <title>Karachi</title>
</circle><line x1="486.959991" y1="580.960022" x2="458.959991" y2="768.960022" stroke="red" stroke-width="6.660000" />
<circle cx="354.959991" cy="904.960022" r="19.980000" fill="red">
  <title>Dhaka</title>
</circle><line x1="458.959991" y1="768.960022" x2="354.959991" y2="904.960022" stroke="red" stroke-width="6.660000" />
<circle cx="247.959991" cy="947.960022" r="19.980000" fill="red">
  <title>Chongqing</title>
</circle><line x1="354.959991" y1="904.960022" x2="247.959991" y2="947.960022" stroke="red" stroke-width="6.660000" />
<circle cx="145.959991" cy="1467.959961" r="19.980000" fill="red">
  <title>Shanghai</title>
</circle><line x1="247.959991" y1="947.960022" x2="145.959991" y2="1467.959961" stroke="red" stroke-width="6.660000" />
<circle cx="286.959991" cy="1761.959961" r="19.980000" fill="red">
  <title>São Paulo</title>
</circle><line x1="145.959991" y1="1467.959961" x2="286.959991" y2="1761.959961" stroke="red" stroke-width="6.660000" />
<circle cx="433.959991" cy="1609.959961" r="19.980000" fill="red">
  <title>New York</title>
</circle><line x1="286.959991" y1="1761.959961" x2="433.959991" y2="1609.959961" stroke="red" stroke-width="6.660000" />
<circle cx="633.960022" cy="1608.959961" r="19.980000" fill="red">
  <title>Mexico City</title>
</circle><line x1="433.959991" y1="1609.959961" x2="633.960022" y2="1608.959961" stroke="red" stroke-width="6.660000" />
<circle cx="724.960022" cy="2012.959961" r="19.980000" fill="red">
  <title>Kolkata</title>
</circle><line x1="633.960022" y1="1608.959961" x2="724.960022" y2="2012.959961" stroke="red" stroke-width="6.660000" />
<circle cx="1641.959961" cy="2023.959961" r="19.980000" fill="red">
  <title>Osaka</title>
</circle><line x1="724.960022" y1="2012.959961" x2="1641.959961" y2="2023.959961" stroke="red" stroke-width="6.660000" />
<circle cx="1779.959961" cy="989.960022" r="19.980000" fill="red">
  <title>Delhi</title>
</circle><line x1="1641.959961" y1="2023.959961" x2="1779.959961" y2="989.960022" stroke="red" stroke-width="6.660000" />
<circle cx="2004.959961" cy="743.960022" r="19.980000" fill="red">
  <title>Beijing</title>
</circle><line x1="1779.959961" y1="989.960022" x2="2004.959961" y2="743.960022" stroke="red" stroke-width="6.660000" />
<circle cx="1975.959961" cy="687.960022" r="19.980000" fill="red">
  <title>Cairo</title>
</circle><line x1="2004.959961" y1="743.960022" x2="1975.959961" y2="687.960022" stroke="red" stroke-width="6.660000" />
<circle cx="2003.959961" cy="244.959991" r="19.980000" fill="red">
  <title>Buenos Aires</title>
</circle><line x1="1975.959961" y1="687.960022" x2="2003.959961" y2="244.959991" stroke="red" stroke-width="6.660000" />
<circle cx="1565.959961" cy="430.959991" r="19.980000" fill="red">
  <title>Istanbul</title>
</circle><line x1="2003.959961" y1="244.959991" x2="1565.959961" y2="430.959991" stroke="red" stroke-width="6.660000" />
<circle cx="1407.959961" cy="890.960022" r="19.980000" fill="red">
  <title>Mumbai</title>
</circle><line x1="1565.959961" y1="430.959991" x2="1407.959961" y2="890.960022" stroke="red" stroke-width="6.660000" />
<circle cx="964.960022" cy="1079.959961" r="19.980000" fill="red">
  <title>Lagos</title>
</circle><line x1="1407.959961" y1="890.960022" x2="964.960022" y2="1079.959961" stroke="red" stroke-width="6.660000" />
<circle cx="972.960022" cy="465.959991" r="19.980000" fill="red">
  <title>Manila</title>
</circle><line x1="964.960022" y1="1079.959961" x2="972.960022" y2="465.959991" stroke="red" stroke-width="6.660000" />
</svg>
