<?xml version="1.0" encoding="UTF-8" standalone="no"?>
<svg width="500" height="500" viewBox="0 0 2074.000000 2074.000000" xmlns="http://www.w3.org/2000/svg">
<rect x="19.000000" y="19.000000" width="2036.000000" height="2036.000000" fill="black" />
<circle cx="1422.959961" cy="508.959991" r="19.980000" fill="red">
  <title>Tokyo</title>
</circle><line x1="1609.959961" y1="547.960022" x2="1422.959961" y2="508.959991" stroke="red" stroke-width="6.660000" />
<circle cx="1232.959961" cy="628.960022" r="19.980000" fill="red">
  <title>Shanghai</title>
</circle><line x1="1422.959961" y1="508.959991" x2="1232.959961" y2="628.960022" stroke="red" stroke-width="6.660000" />
<circle cx="1141.959961" cy="382.959991" r="19.980000" fill="red">
  <title>Mexico City</title>
</circle><line x1="1232.959961" y1="628.960022" x2="1141.959961" y2="382.959991" stroke="red" stroke-width="6.660000" />
<circle cx="508.959991" cy="120.959999" r="19.980000" fill="red">
  <title>Delhi</title>
</circle><line x1="1141.959961" y1="382.959991" x2="508.959991" y2="120.959999" stroke="red" stroke-width="6.660000" />
<circle cx="84.959999" cy="1370.959961" r="19.980000" fill="red">
  <title>São Paulo</title>
</circle><line x1="508.959991" y1="120.959999" x2="84.959999" y2="1370.959961" stroke="red" stroke-width="6.660000" />
<circle cx="1135.959961" cy="1701.959961" r="19.980000" fill="red">
  <title>Cairo</title>
</circle><line x1="84.959999" y1="1370.959961" x2="1135.959961" y2="1701.959961" stroke="red" stroke-width="6.660000" />
<circle cx="1705.959961" cy="1936.959961" r="19.980000" fill="red">
  <title>Beijing</title>
</circle><line x1="1135.959961" y1="1701.959961" x2="1705.959961" y2="1936.959961" stroke="red" stroke-width="6.660000" />
<circle cx="2006.959961" cy="1641.959961" r="19.980000" fill="red">
  <title>Mumbai</title>
</circle><line x1="1705.959961" y1="1936.959961" x2="2006.959961" y2="1641.959961" stroke="red" stroke-width="6.660000" />
<circle cx="1866.959961" cy="1120.959961" r="19.980000" fill="red">
  <title>Dhaka</title>
</circle><line x1="2006.959961" y1="1641.959961" x2="1866.959961" y2="1120.959961" stroke="red" stroke-width="6.660000" />
<circle cx="1859.959961" cy="1000.960022" r="19.980000" fill="red">
  <title>Osaka</title>
</circle><line x1="1866.959961" y1="1120.959961" x2="1859.959961" y2="1000.960022" stroke="red" stroke-width="6.660000" />
<circle cx="1616.959961" cy="1027.959961" r="19.980000" fill="red">
  <title>New York</title>
</circle><line x1="1859.959961" y1="1000.960022" x2="1616.959961" y2="1027.959961" stroke="red" stroke-width="6.660000" />
<circle cx="1609.959961" cy="547.960022" r="19.980000" fill="red">
  <title>Karachi</title>
</circle><line x1="1616.959961" y1="1027.959961" x2="1609.959961" y2="547.960022" stroke="red" stroke-width="6.660000" />
</svg>
