<?xml version="1.0" encoding="UTF-8" standalone="no"?>
<svg width="500" height="500" viewBox="0 0 2074.000000 2074.000000" xmlns="http://www.w3.org/2000/svg">
<rect x="19.000000" y="19.000000" width="2036.000000" height="2036.000000" fill="black" />
<circle cx="1246.959961" cy="777.960022" r="19.980000" fill="red">
  <title>Tokyo</title>
</circle><line x1="923.960022" y1="1044.959961" x2="1246.959961" y2="777.960022" stroke="red" stroke-width="6.660000" />
<circle cx="1477.959961" cy="362.959991" r="19.980000" fill="red">
  <title>Beijing</title>
</circle><line x1="1246.959961" y1="777.960022" x2="1477.959961" y2="362.959991" stroke="red" stroke-width="6.660000" />
<circle cx="1534.959961" cy="544.960022" r="19.980000" fill="red">
  <title>São Paulo</title>
</circle><line x1="1477.959961" y1="362.959991" x2="1534.959961" y2="544.960022" stroke="red" stroke-width="6.660000" />
<circle cx="1331.959961" cy="876.960022" r="19.980000" fill="red">
  <title>Dhaka</title>
</circle><line x1="1534.959961" y1="544.960022" x2="1331.959961" y2="876.960022" stroke="red" stroke-width="6.660000" />
<circle cx="1901.959961" cy="1551.959961" r="19.980000" fill="red">
  <title>Delhi</title>
</circle><line x1="1331.959961" y1="876.960022" x2="1901.959961" y2="1551.959961" stroke="red" stroke-width="6.660000" />
<circle cx="1946.959961" cy="1969.959961" r="19.980000" fill="red">
  <title>Buenos Aires</title>
</circle><line x1="1901.959961" y1="1551.959961" x2="1946.959961" y2="1969.959961" stroke="red" stroke-width="6.660000" />
<circle cx="1303.959961" cy="2032.959961" r="19.980000" fill="red">
  <title>Cairo</title>
</circle><line x1="1946.959961" y1="1969.959961" x2="1303.959961" y2="2032.959961" stroke="red" stroke-width="6.660000" />
<circle cx="1294.959961" cy="1631.959961" r="19.980000" fill="red">
  <title>Shanghai</title>
</circle><line x1="1303.959961" y1="2032.959961" x2="1294.959961" y2="1631.959961" stroke="red" stroke-width="6.660000" />
<circle cx="442.959991" cy="1513.959961" r="19.980000" fill="red">
  <title>Chongqing</title>
</circle><line x1="1294.959961" y1="1631.959961" x2="442.959991" y2="1513.959961" stroke="red" stroke-width="6.660000" />
<circle cx="329.959991" cy="1201.959961" r="19.980000" fill="red">
  <title>Mumbai</title>
</circle><line x1="442.959991" y1="1513.959961" x2="329.959991" y2="1201.959961" stroke="red" stroke-width="6.660000" />
<circle cx="263.959991" cy="569.960022" r="19.980000" fill="red">
  <title>Karachi</title>
</circle><line x1="329.959991" y1="1201.959961" x2="263.959991" y2="569.960022" stroke="red" stroke-width="6.660000" />
<circle cx="42.959999" cy="39.959999" r="19.980000" fill="red">
  <title>Osaka</title>
</circle><line x1="263.959991" y1="569.960022" x2="42.959999" y2="39.959999" stroke="red" stroke-width="6.660000" />
<circle cx="291.959991" cy="638.960022" r="19.980000" fill="red">
  <title>Mexico City</title>
</circle><line x1="42.959999" y1="39.959999" x2="291.959991" y2="638.960022" stroke="red" stroke-width="6.660000" />
<circle cx="923.960022" cy="1044.959961" r="19.980000" fill="red">
  <title>New York</title>
</circle><line x1="291.959991" y1="638.960022" x2="923.960022" y2="1044.959961" stroke="red" stroke-width="6.660000" />
</svg>
