<?xml version="1.0" encoding="UTF-8" standalone="no"?>
<svg width="500" height="500" viewBox="0 0 2074.000000 2074.000000" xmlns="http://www.w3.org/2000/svg">
<rect x="19.000000" y="19.000000" width="2036.000000" height="2036.000000" fill="black" />
<circle cx="323.959991" cy="166.959991" r="19.980000" fill="red">
  <title>Tokyo</title>
</circle><line x1="371.959991" y1="47.959999" x2="323.959991" y2="166.959991" stroke="red" stroke-width="6.660000" />
<circle cx="174.959991" cy="565.960022" r="19.980000" fill="red">
  <title>Manila</title>
</circle><line x1="323.959991" y1="166.959991" x2="174.959991" y2="565.960022" stroke="red" stroke-width="6.660000" />
<circle cx="325.959991" cy="729.960022" r="19.980000" fill="red">
  <title>Buenos Aires</title>
</circle><line x1="174.959991" y1="565.960022" x2="325.959991" y2="729.960022" stroke="red" stroke-width="6.660000" />
<circle cx="127.959999" cy="1176.959961" r="19.980000" fill="red">
  <title>Osaka</title>
</circle><line x1="325.959991" y1="729.960022" x2="127.959999" y2="1176.959961" stroke="red" stroke-width="6.660000" />
<circle cx="265.959991" cy="1229.959961" r="19.980000" fill="red">
  <title>Mumbai</title>
</circle><line x1="127.959999" y1="1176.959961" x2="265.959991" y2="1229.959961" stroke="red" stroke-width="6.660000" />
<circle cx="995.960022" cy="1402.959961" r="19.980000" fill="red">
  <title>Rio de Janeiro</title>
</circle><line x1="265.959991" y1="1229.959961" x2="995.960022" y2="1402.959961" stroke="red" stroke-width="6.660000" />
<circle cx="1414.959961" cy="1990.959961" r="19.980000" fill="red">
  <title>New York</title>
</circle><line x1="995.960022" y1="1402.959961" x2="1414.959961" y2="1990.959961" stroke="red" stroke-width="6.660000" />
<circle cx="2011.959961" cy="1922.959961" r="19.980000" fill="red">
  <title>Mexico City</title>
</circle><line x1="1414.959961" y1="1990.959961" x2="2011.959961" y2="1922.959961" stroke="red" stroke-width="6.660000" />
<circle cx="1987.959961" cy="1902.959961" r="19.980000" fill="red">
  <title>São Paulo</title>
</circle><line x1="2011.959961" y1="1922.959961" x2="1987.959961" y2="1902.959961" stroke="red" stroke-width="6.660000" />
<circle cx="1949.959961" cy="1240.959961" r="19.980000" fill="red">
  <title>Beijing</title>
</circle><line x1="1987.959961" y1="1902.959961" x2="1949.959961" y2="1240.959961" stroke="red" stroke-width="6.660000" />
<circle cx="1768.959961" cy="1297.959961" r="19.980000" fill="red">
  <title>Chongqing</title>
</circle><line x1="1949.959961" y1="1240.959961" x2="1768.959961" y2="1297.959961" stroke="red" stroke-width="6.660000" />
<circle cx="1453.959961" cy="1298.959961" r="19.980000" fill="red">
  <title>Lagos</title>
</circle><line x1="1768.959961" y1="1297.959961" x2="1453.959961" y2="1298.959961" stroke="red" stroke-width="6.660000" />
<circle cx="1715.959961" cy="987.960022" r="19.980000" fill="red">
  <title>Karachi</title>
</circle><line x1="1453.959961" y1="1298.959961" x2="1715.959961" y2="987.960022" stroke="red" stroke-width="6.660000" />
<circle cx="2010.959961" cy="426.959991" r="19.980000" fill="red">
  <title>Cairo</title>
</circle><line x1="1715.959961" y1="987.960022" x2="2010.959961" y2="426.959991" stroke="red" stroke-width="6.660000" />
<circle cx="1439.959961" cy="836.960022" r="19.980000" fill="red">
  <title>Delhi</title>
</circle><line x1="2010.959961" y1="426.959991" x2="1439.959961" y2="836.960022" stroke="red" stroke-width="6.660000" />
<circle cx="1368.959961" cy="748.960022" r="19.980000" fill="red">
  <title>Dhaka</title>
</circle><line x1="1439.959961" y1="836.960022" x2="1368.959961" y2="748.960022" stroke="red" stroke-width="6.660000" />
<circle cx="1164.959961" cy="656.960022" r="19.980000" fill="red">
  <title>Kolkata</title>
</circle><line x1="1368.959961" y1="748.960022" x2="1164.959961" y2="656.960022" stroke="red" stroke-width="6.660000" />
<circle cx="1163.959961" cy="468.959991" r="19.980000" fill="red">
  <title>Shanghai</title>
</circle><line x1="1164.959961" y1="656.960022" x2="1163.959961" y2="468.959991" stroke="red" stroke-width="6.660000" />
<circle cx="371.959991" cy="47.959999" r="19.980000" fill="red">
  <title>Istanbul</title>
</circle><line x1="1163.959961" y1="468.959991" x2="371.959991" y2="47.959999" stroke="red" stroke-width="6.660000" />
</svg>
