<?xml version="1.0" encoding="UTF-8" standalone="no"?>
<svg width="500" height="500" viewBox="0 0 2074.000000 2074.000000" xmlns="http://www.w3.org/2000/svg">
<rect x="19.000000" y="19.000000" width="2036.000000" height="2036.000000" fill="black" />
<circle cx="1925.959961" cy="869.960022" r="19.980000" fill="red">
  <title>Tokyo</title>
</circle><line x1="1494.959961" y1="1616.959961" x2="1925.959961" y2="869.960022" stroke="red" stroke-width="6.660000" />
<circle cx="1852.959961" cy="863.960022" r="19.980000" fill="red">
  <title>Dhaka</title>
</circle><line x1="1925.959961" y1="869.960022" x2="1852.959961" y2="863.960022" stroke="red" stroke-width="6.660000" />
<circle cx="1229.959961" cy="520.960022" r="19.980000" fill="red">
  <title>Mumbai</title>
</circle><line x1="1852.959961" y1="863.960022" x2="1229.959961" y2="520.960022" stroke="red" stroke-width="6.660000" />
<circle cx="803.960022" cy="489.959991" r="19.980000" fill="red">
  <title>Mexico City</title>
</circle><line x1="1229.959961" y1="520.960022" x2="803.960022" y2="489.959991" stroke="red" stroke-width="6.660000" />
<circle cx="651.960022" cy="298.959991" r="19.980000" fill="red">
  <title>Delhi</title>
</circle><line x1="803.960022" y1="489.959991" x2="651.960022" y2="298.959991" stroke="red" stroke-width="6.660000" />
<circle cx="166.959991" cy="193.959991" r="19.980000" fill="red">
  <title>São Paulo</title>
</circle><line x1="651.960022" y1="298.959991" x2="166.959991" y2="193.959991" stroke="red" stroke-width="6.660000" />
<circle cx="274.959991" cy="1193.959961" r="19.980000" fill="red">
  <title>Shanghai</title>
</circle><line x1="166.959991" y1="193.959991" x2="274.959991" y2="1193.959961" stroke="red" stroke-width="6.660000" />
<circle cx="117.959999" cy="1395.959961" r="19.980000" fill="red">
  <title>Cairo</title>
</circle><line x1="274.959991" y1="1193.959961" x2="117.959999" y2="1395.959961" stroke="red" stroke-width="6.660000" />
<circle cx="1494.959961" cy="1616.959961" r="19.980000" fill="red">
  <title>Beijing</title>
</circle><line x1="117.959999" y1="1395.959961" x2="1494.959961" y2="1616.959961" stroke="red" stroke-width="6.660000" />
</svg>
