<?xml version="1.0" encoding="UTF-8" standalone="no"?>
<svg width="500" height="500" viewBox="0 0 2074.000000 2074.000000" xmlns="http://www.w3.org/2000/svg">
<rect x="19.000000" y="19.000000" width="2036.000000" height="2036.000000" fill="black" />
<circle cx="981.960022" cy="627.960022" r="19.980000" fill="red">
  <title>Tokyo</title>
</circle><line x1="460.959991" y1="364.959991" x2="981.960022" y2="627.960022" stroke="red" stroke-width="6.660000" />
<circle cx="1271.959961" cy="917.960022" r="19.980000" fill="red">
  <title>Cairo</title>
</circle><line x1="981.960022" y1="627.960022" x2="1271.959961" y2="917.960022" stroke="red" stroke-width="6.660000" />
<circle cx="1839.959961" cy="702.960022" r="19.980000" fill="red">
  <title>Karachi</title>
</circle><line x1="1271.959961" y1="917.960022" x2="1839.959961" y2="702.960022" stroke="red" stroke-width="6.660000" />
<circle cx="1879.959961" cy="938.960022" r="19.980000" fill="red">
  <title>Buenos Aires</title>
</circle><line x1="1839.959961" y1="702.960022" x2="1879.959961" y2="938.960022" stroke="red" stroke-width="6.660000" />
<circle cx="1974.959961" cy="1624.959961" r="19.980000" fill="red">
  <title>Mexico City</title>
</circle><line x1="1879.959961" y1="938.960022" x2="1974.959961" y2="1624.959961" stroke="red" stroke-width="6.660000" />
<circle cx="1796.959961" cy="1761.959961" r="19.980000" fill="red">
  <title>New York</title>
</circle><line x1="1974.959961" y1="1624.959961" x2="1796.959961" y2="1761.959961" stroke="red" stroke-width="6.660000" />
<circle cx="1426.959961" cy="1885.959961" r="19.980000" fill="red">
  <title>Shanghai</title>
</circle><line x1="1796.959961" y1="1761.959961" x2="1426.959961" y2="1885.959961" stroke="red" stroke-width="6.660000" />
<circle cx="464.959991" cy="1132.959961" r="19.980000" fill="red">
  <title>Beijing</title>
</circle><line x1="1426.959961" y1="1885.959961" x2="464.959991" y2="1132.959961" stroke="red" stroke-width="6.660000" />
<circle cx="360.959991" cy="1370.959961" r="19.980000" fill="red">
  <title>Delhi</title>
</circle><line x1="464.959991" y1="1132.959961" x2="360.959991" y2="1370.959961" stroke="red" stroke-width="6.660000" />
<circle cx="102.959999" cy="1340.959961" r="19.980000" fill="red">
  <title>Dhaka</title>
</circle><line x1="360.959991" y1="1370.959961" x2="102.959999" y2="1340.959961" stroke="red" stroke-width="6.660000" />
<circle cx="63.959999" cy="1200.959961" r="19.980000" fill="red">
  <title>São Paulo</title>
</circle><line x1="102.959999" y1="1340.959961" x2="63.959999" y2="1200.959961" stroke="red" stroke-width="6.660000" />
<circle cx="107.959999" cy="978.960022" r="19.980000" fill="red">
  <title>Mumbai</title>
</circle><line x1="63.959999" y1="1200.959961" x2="107.959999" y2="978.960022" stroke="red" stroke-width="6.660000" />
<circle cx="460.959991" cy="364.959991" r="19.980000" fill="red">
  <title>Osaka</title>
</circle><line x1="107.959999" y1="978.960022" x2="460.959991" y2="364.959991" stroke="red" stroke-width="6.660000" />
</svg>
