<?xml version="1.0" encoding="UTF-8" standalone="no"?>
<svg width="500" height="500" viewBox="0 0 2074.000000 2074.000000" xmlns="http://www.w3.org/2000/svg">
<rect x="19.000000" y="19.000000" width="2036.000000" height="2036.000000" fill="black" />
<circle cx="1460.959961" cy="1679.959961" r="19.980000" fill="red">
  <title>Tokyo</title>
</circle><line x1="964.960022" y1="1934.959961" x2="1460.959961" y2="1679.959961" stroke="red" stroke-width="6.660000" />
<circle cx="1929.959961" cy="1779.959961" r="19.980000" fill="red">
  <title>Delhi</title>
</circle><line x1="1460.959961" y1="1679.959961" x2="1929.959961" y2="1779.959961" stroke="red" stroke-width="6.660000" />
<circle cx="1850.959961" cy="1528.959961" r="19.980000" fill="red">
  <title>Osaka</title>
</circle><line x1="1929.959961" y1="1779.959961" x2="1850.959961" y2="1528.959961" stroke="red" stroke-width="6.660000" />
<circle cx="1583.959961" cy="447.959991" r="19.980000" fill="red">
  <title>Mexico City</title>
</circle><line x1="1850.959961" y1="1528.959961" x2="1583.959961" y2="447.959991" stroke="red" stroke-width="6.660000" />
<circle cx="797.960022" cy="301.959991" r="19.980000" fill="red">
  <title>New York</title>
</circle><line x1="1583.959961" y1="447.959991" x2="797.960022" y2="301.959991" stroke="red" stroke-width="6.660000" />
<circle cx="694.960022" cy="69.959999" r="19.980000" fill="red">
  <title>Karachi</title>
</circle><line x1="797.960022" y1="301.959991" x2="694.960022" y2="69.959999" stroke="red" stroke-width="6.660000" />
<circle cx="366.959991" cy="610.960022" r="19.980000" fill="red">
  <title>Cairo</title>
</circle><line x1="694.960022" y1="69.959999" x2="366.959991" y2="610.960022" stroke="red" stroke-width="6.660000" />
<circle cx="633.960022" cy="840.960022" r="19.980000" fill="red">
  <title>São Paulo</title>
</circle><line x1="366.959991" y1="610.960022" x2="633.960022" y2="840.960022" stroke="red" stroke-width="6.660000" />
<circle cx="389.959991" cy="893.960022" r="19.980000" fill="red">
  <title>Dhaka</title>
</circle><line x1="633.960022" y1="840.960022" x2="389.959991" y2="893.960022" stroke="red" stroke-width="6.660000" />
<circle cx="129.959991" cy="1175.959961" r="19.980000" fill="red">
  <title>Shanghai</title>
</circle><line x1="389.959991" y1="893.960022" x2="129.959991" y2="1175.959961" stroke="red" stroke-width="6.660000" />
<circle cx="245.959991" cy="2019.959961" r="19.980000" fill="red">
  <title>Mumbai</title>
</circle><line x1="129.959991" y1="1175.959961" x2="245.959991" y2="2019.959961" stroke="red" stroke-width="6.660000" />
<circle cx="964.960022" cy="1934.959961" r="19.980000" fill="red">
  <title>Beijing</title>
</circle><line x1="245.959991" y1="2019.959961" x2="964.960022" y2="1934.959961" stroke="red" stroke-width="6.660000" />
</svg>
