<?xml version="1.0" encoding="UTF-8" standalone="no"?>
<svg width="500" height="500" viewBox="0 0 2074.000000 2074.000000" xmlns="http://www.w3.org/2000/svg">
<rect x="19.000000" y="19.000000" width="2036.000000" height="2036.000000" fill="black" />
<circle cx="1655.959961" cy="1638.959961" r="19.980000" fill="red">
  <title>Tokyo</title>
</circle><line x1="1946.959961" y1="1447.959961" x2="1655.959961" y2="1638.959961" stroke="red" stroke-width="6.660000" />
<circle cx="1531.959961" cy="1773.959961" r="19.980000" fill="red">
  <title>Mumbai</title>
</circle><line x1="1655.959961" y1="1638.959961" x2="1531.959961" y2="1773.959961" stroke="red" stroke-width="6.660000" />
<circle cx="1105.959961" cy="1789.959961" r="19.980000" fill="red">
  <title>Shanghai</title>
</circle><line x1="1531.959961" y1="1773.959961" x2="1105.959961" y2="1789.959961" stroke="red" stroke-width="6.660000" />
<circle cx="948.960022" cy="1794.959961" r="19.980000" fill="red">
  <title>Buenos Aires</title>
</circle><line x1="1105.959961" y1="1789.959961" x2="948.960022" y2="1794.959961" stroke="red" stroke-width="6.660000" />
<circle cx="589.960022" cy="1407.959961" r="19.980000" fill="red">
  <title>Karachi</title>
</circle><line x1="948.960022" y1="1794.959961" x2="589.960022" y2="1407.959961" stroke="red" stroke-width="6.660000" />
<circle cx="779.960022" cy="884.960022" r="19.980000" fill="red">
  <title>Osaka</title>
</circle><line x1="589.960022" y1="1407.959961" x2="779.960022" y2="884.960022" stroke="red" stroke-width="6.660000" />
<circle cx="632.960022" cy="831.960022" r="19.980000" fill="red">
  <title>Delhi</title>
</circle><line x1="779.960022" y1="884.960022" x2="632.960022" y2="831.960022" stroke="red" stroke-width="6.660000" />
<circle cx="603.960022" cy="830.960022" r="19.980000" fill="red">
  <title>New York</title>
</circle><line x1="632.960022" y1="831.960022" x2="603.960022" y2="830.960022" stroke="red" stroke-width="6.660000" />
<circle cx="527.960022" cy="483.959991" r="19.980000" fill="red">
  <title>Dhaka</title>
</circle><line x1="603.960022" y1="830.960022" x2="527.960022" y2="483.959991" stroke="red" stroke-width="6.660000" />
<circle cx="681.960022" cy="408.959991" r="19.980000" fill="red">
  <title>Mexico City</title>
</circle><line x1="527.960022" y1="483.959991" x2="681.960022" y2="408.959991" stroke="red" stroke-width="6.660000" />
<circle cx="1337.959961" cy="523.960022" r="19.980000" fill="red">
  <title>São Paulo</title>
</circle><line x1="681.960022" y1="408.959991" x2="1337.959961" y2="523.960022" stroke="red" stroke-width="6.660000" />
<circle cx="1807.959961" cy="342.959991" r="19.980000" fill="red">
  <title>Beijing</title>
</circle><line x1="1337.959961" y1="523.960022" x2="1807.959961" y2="342.959991" stroke="red" stroke-width="6.660000" />
<circle cx="1946.959961" cy="1447.959961" r="19.980000" fill="red">
  <title>Cairo</title>
</circle><line x1="1807.959961" y1="342.959991" x2="1946.959961" y2="1447.959961" stroke="red" stroke-width="6.660000" />
</svg>
