<?xml version="1.0" encoding="UTF-8" standalone="no"?>
<svg width="500" height="500" viewBox="0 0 2074.000000 2074.000000" xmlns="http://www.w3.org/2000/svg">
<rect x="19.000000" y="19.000000" width="2036.000000" height="2036.000000" fill="black" />
<circle cx="1439.959961" cy="287.959991" r="19.980000" fill="red">
  <title>Tokyo</title>
</circle><line x1="1893.959961" y1="398.959991" x2="1439.959961" y2="287.959991" stroke="red" stroke-width="6.660000" />
<circle cx="1224.959961" cy="402.959991" r="19.980000" fill="red">
  <title>Mexico City</title>
</circle><line x1="1439.959961" y1="287.959991" x2="1224.959961" y2="402.959991" stroke="red" stroke-width="6.660000" />
<circle cx="52.959999" cy="1067.959961" r="19.980000" fill="red">
  <title>Delhi</title>
</circle><line x1="1224.959961" y1="402.959991" x2="52.959999" y2="1067.959961" stroke="red" stroke-width="6.660000" />
<circle cx="782.960022" cy="1778.959961" r="19.980000" fill="red">
  <title>Shanghai</title>
</circle><line x1="52.959999" y1="1067.959961" x2="782.960022" y2="1778.959961" stroke="red" stroke-width="6.660000" />
<circle cx="1171.959961" cy="1953.959961" r="19.980000" fill="red">
  <title>Mumbai</title>
</circle><line x1="782.960022" y1="1778.959961" x2="1171.959961" y2="1953.959961" stroke="red" stroke-width="6.660000" />
<circle cx="1436.959961" cy="1418.959961" r="19.980000" fill="red">
  <title>Dhaka</title>
</circle><line x1="1171.959961" y1="1953.959961" x2="1436.959961" y2="1418.959961" stroke="red" stroke-width="6.660000" />
<circle cx="1919.959961" cy="1114.959961" r="19.980000" fill="red">
  <title>Cairo</title>
</circle><line x1="1436.959961" y1="1418.959961" x2="1919.959961" y2="1114.959961" stroke="red" stroke-width="6.660000" />
<circle cx="1932.959961" cy="665.960022" r="19.980000" fill="red">
  <title>São Paulo</title>
</circle><line x1="1919.959961" y1="1114.959961" x2="1932.959961" y2="665.960022" stroke="red" stroke-width="6.660000" />
<circle cx="1893.959961" cy="398.959991" r="19.980000" fill="red">
  <title>Beijing</title>
</circle><line x1="1932.959961" y1="665.960022" x2="1893.959961" y2="398.959991" stroke="red" stroke-width="6.660000" />
</svg>
