<?xml version="1.0" encoding="UTF-8" standalone="no"?>
<svg width="500" height="500" viewBox="0 0 2074.000000 2074.000000" xmlns="http://www.w3.org/2000/svg">
<rect x="19.000000" y="19.000000" width="2036.000000" height="2036.000000" fill="black" />
<circle cx="914.960022" cy="67.959999" r="19.980000" fill="red">
  <title>Tokyo</title>
</circle><line x1="778.960022" y1="54.959999" x2="914.960022" y2="67.959999" stroke="red" stroke-width="6.660000" />
<circle cx="1782.959961" cy="202.959991" r="19.980000" fill="red">
  <title>Mumbai</title>
</circle><line x1="914.960022" y1="67.959999" x2="1782.959961" y2="202.959991" stroke="red" stroke-width="6.660000" />
<circle cx="2013.959961" cy="390.959991" r="19.980000" fill="red">
  <title>Manila</title>
</circle><line x1="1782.959961" y1="202.959991" x2="2013.959961" y2="390.959991" stroke="red" stroke-width="6.660000" />
<circle cx="1854.959961" cy="401.959991" r="19.980000" fill="red">
  <title>Mexico City</title>
</circle><line x1="2013.959961" y1="390.959991" x2="1854.959961" y2="401.959991" stroke="red" stroke-width="6.660000" />
<circle cx="1543.959961" cy="921.960022" r="19.980000" fill="red">
  <title>Beijing</title>
</circle><line x1="1854.959961" y1="401.959991" x2="1543.959961" y2="921.960022" stroke="red" stroke-width="6.660000" />
<circle cx="1847.959961" cy="1227.959961" r="19.980000" fill="red">
  <title>Shanghai</title>
</circle><line x1="1543.959961" y1="921.960022" x2="1847.959961" y2="1227.959961" stroke="red" stroke-width="6.660000" />
<circle cx="1731.959961" cy="1830.959961" r="19.980000" fill="red">
  <title>Cairo</title>
</circle><line x1="1847.959961" y1="1227.959961" x2="1731.959961" y2="1830.959961" stroke="red" stroke-width="6.660000" />
<circle cx="1604.959961" cy="1702.959961" r="19.980000" fill="red">
  <title>Delhi</title>
</circle><line x1="1731.959961" y1="1830.959961" x2="1604.959961" y2="1702.959961" stroke="red" stroke-width="6.660000" />
<circle cx="896.960022" cy="1822.959961" r="19.980000" fill="red">
  <title>Lagos</title>
</circle><line x1="1604.959961" y1="1702.959961" x2="896.960022" y2="1822.959961" stroke="red" stroke-width="6.660000" />
<circle cx="356.959991" cy="1985.959961" r="19.980000" fill="red">
  <title>Istanbul</title>
</circle><line x1="896.960022" y1="1822.959961" x2="356.959991" y2="1985.959961" stroke="red" stroke-width="6.660000" />
<circle cx="223.959991" cy="1269.959961" r="19.980000" fill="red">
  <title>New York</title>
</circle><line x1="356.959991" y1="1985.959961" x2="223.959991" y2="1269.959961" stroke="red" stroke-width="6.660000" />
<circle cx="435.959991" cy="1086.959961" r="19.980000" fill="red">
  <title>Chongqing</title>
</circle><line x1="223.959991" y1="1269.959961" x2="435.959991" y2="1086.959961" stroke="red" stroke-width="6.660000" />
<circle cx="731.960022" cy="1106.959961" r="19.980000" fill="red">
  <title>São Paulo</title>
</circle><line x1="435.959991" y1="1086.959961" x2="731.960022" y2="1106.959961" stroke="red" stroke-width="6.660000" />
<circle cx="823.960022" cy="1232.959961" r="19.980000" fill="red">
  <title>Kolkata</title>
</circle><line x1="731.960022" y1="1106.959961" x2="823.960022" y2="1232.959961" stroke="red" stroke-width="6.660000" />
<circle cx="1250.959961" cy="848.960022" r="19.980000" fill="red">
  <title>Dhaka</title>
</circle><line x1="823.960022" y1="1232.959961" x2="1250.959961" y2="848.960022" stroke="red" stroke-width="6.660000" />
<circle cx="1329.959961" cy="548.960022" r="19.980000" fill="red">
  <title>Buenos Aires</title>
</circle><line x1="1250.959961" y1="848.960022" x2="1329.959961" y2="548.960022" stroke="red" stroke-width="6.660000" />
<circle cx="684.960022" cy="192.959991" r="19.980000" fill="red">
  <title>Osaka</title>
</circle><line x1="1329.959961" y1="548.960022" x2="684.960022" y2="192.959991" stroke="red" stroke-width="6.660000" />
<circle cx="778.960022" cy="54.959999" r="19.980000" fill="red">
  <title>Karachi</title>
</circle><line x1="684.960022" y1="192.959991" x2="778.960022" y2="54.959999" stroke="red" stroke-width="6.660000" />
</svg>
