<?xml version="1.0" encoding="UTF-8" standalone="no"?>
<svg width="500" height="500" viewBox="0 0 2074.000000 2074.000000" xmlns="http://www.w3.org/2000/svg">
<rect x="19.000000" y="19.000000" width="2036.000000" height="2036.000000" fill="black" />
<circle cx="1188.959961" cy="487.959991" r="19.980000" fill="red">
  <title>Tokyo</title>
</circle><line x1="611.960022" y1="522.960022" x2="1188.959961" y2="487.959991" stroke="red" stroke-width="6.660000" />
<circle cx="1679.959961" cy="88.959999" r="19.980000" fill="red">
  <title>Kolkata</title>
</circle><line x1="1188.959961" y1="487.959991" x2="1679.959961" y2="88.959999" stroke="red" stroke-width="6.660000" />
<circle cx="1437.959961" cy="616.960022" r="19.980000" fill="red">
  <title>Lagos</title>
</circle><line x1="1679.959961" y1="88.959999" x2="1437.959961" y2="616.960022" stroke="red" stroke-width="6.660000" />
<circle cx="1488.959961" cy="1107.959961" r="19.980000" fill="red">
  <title>Manila</title>
</circle><line x1="1437.959961" y1="616.960022" x2="1488.959961" y2="1107.959961" stroke="red" stroke-width="6.660000" />
<circle cx="1650.959961" cy="1194.959961" r="19.980000" fill="red">
  <title>Karachi</title>
</circle><line x1="1488.959961" y1="1107.959961" x2="1650.959961" y2="1194.959961" stroke="red" stroke-width="6.660000" />
<circle cx="1465.959961" cy="1387.959961" r="19.980000" fill="red">
  <title>Delhi</title>
</circle><line x1="1650.959961" y1="1194.959961" x2="1465.959961" y2="1387.959961" stroke="red" stroke-width="6.660000" />
<circle cx="1596.959961" cy="1457.959961" r="19.980000" fill="red">
  <title>Mumbai</title>
</circle><line x1="1465.959961" y1="1387.959961" x2="1596.959961" y2="1457.959961" stroke="red" stroke-width="6.660000" />
<circle cx="1566.959961" cy="1553.959961" r="19.980000" fill="red">
  <title>Buenos Aires</title>
</circle><line x1="1596.959961" y1="1457.959961" x2="1566.959961" y2="1553.959961" stroke="red" stroke-width="6.660000" />
<circle cx="1296.959961" cy="1808.959961" r="19.980000" fill="red">
  <title>Dhaka</title>
</circle><line x1="1566.959961" y1="1553.959961" x2="1296.959961" y2="1808.959961" stroke="red" stroke-width="6.660000" />
<circle cx="1166.959961" cy="1542.959961" r="19.980000" fill="red">
  <title>Shanghai</title>
</circle><line x1="1296.959961" y1="1808.959961" x2="1166.959961" y2="1542.959961" stroke="red" stroke-width="6.660000" />
<circle cx="1123.959961" cy="1506.959961" r="19.980000" fill="red">
  <title>São Paulo</title>
</circle><line x1="1166.959961" y1="1542.959961" x2="1123.959961" y2="1506.959961" stroke="red" stroke-width="6.660000" />
<circle cx="190.959991" cy="1987.959961" r="19.980000" fill="red">
  <title>New York</title>
</circle><line x1="1123.959961" y1="1506.959961" x2="190.959991" y2="1987.959961" stroke="red" stroke-width="6.660000" />
<circle cx="57.959999" cy="1813.959961" r="19.980000" fill="red">
  <title>Chongqing</title>
</circle><line x1="190.959991" y1="1987.959961" x2="57.959999" y2="1813.959961" stroke="red" stroke-width="6.660000" />
<circle cx="746.960022" cy="1272.959961" r="19.980000" fill="red">
  <title>Osaka</title>
</circle><line x1="57.959999" y1="1813.959961" x2="746.960022" y2="1272.959961" stroke="red" stroke-width="6.660000" />
<circle cx="938.960022" cy="1040.959961" r="19.980000" fill="red">
  <title>Istanbul</title>
</circle><line x1="746.960022" y1="1272.959961" x2="938.960022" y2="1040.959961" stroke="red" stroke-width="6.660000" />
<circle cx="1067.959961" cy="909.960022" r="19.980000" fill="red">
  <title>Mexico City</title>
</circle><line x1="938.960022" y1="1040.959961" x2="1067.959961" y2="909.960022" stroke="red" stroke-width="6.660000" />
<circle cx="606.960022" cy="864.960022" r="19.980000" fill="red">
  <title>Beijing</title>
</circle><line x1="1067.959961" y1="909.960022" x2="606.960022" y2="864.960022" stroke="red" stroke-width="6.660000" />
<circle cx="429.959991" cy="832.960022" r="19.980000" fill="red">
  <title>Cairo</title>
</circle><line x1="606.960022" y1="864.960022" x2="429.959991" y2="832.960022" stroke="red" stroke-width="6.660000" />
<circle cx="611.960022" cy="522.960022" r="19.980000" fill="red">
  <title>Rio de Janeiro</title>
</circle><line x1="429.959991" y1="832.960022" x2="611.960022" y2="522.960022" stroke="red" stroke-width="6.660000" />
</svg>
