<?xml version="1.0" encoding="UTF-8" standalone="no"?>
<svg width="500" height="500" viewBox="0 0 2074.000000 2074.000000" xmlns="http://www.w3.org/2000/svg">
<rect x="19.000000" y="19.000000" width="2036.000000" height="2036.000000" fill="black" />
<circle cx="776.960022" cy="630.960022" r="19.980000" fill="red">
  <title>Tokyo</title>
</circle><line x1="712.960022" y1="640.960022" x2="776.960022" y2="630.960022" stroke="red" stroke-width="6.660000" />
<circle cx="1248.959961" cy="1009.960022" r="19.980000" fill="red">
  <title>Cairo</title>
</circle><line x1="776.960022" y1="630.960022" x2="1248.959961" y2="1009.960022" stroke="red" stroke-width="6.660000" />
<circle cx="1535.959961" cy="1243.959961" r="19.980000" fill="red">
  <title>Osaka</title>
</circle><line x1="1248.959961" y1="1009.960022" x2="1535.959961" y2="1243.959961" stroke="red" stroke-width="6.660000" />
<circle cx="1739.959961" cy="834.960022" r="19.980000" fill="red">
  <title>New York</title>
</circle><line x1="1535.959961" y1="1243.959961" x2="1739.959961" y2="834.960022" stroke="red" stroke-width="6.660000" />
<circle cx="1792.959961" cy="897.960022" r="19.980000" fill="red">
  <title>Shanghai</title>
</circle><line x1="1739.959961" y1="834.960022" x2="1792.959961" y2="897.960022" stroke="red" stroke-width="6.660000" />
<circle cx="1829.959961" cy="1260.959961" r="19.980000" fill="red">
  <title>Mexico City</title>
</circle><line x1="1792.959961" y1="897.960022" x2="1829.959961" y2="1260.959961" stroke="red" stroke-width="6.660000" />
<circle cx="1700.959961" cy="1598.959961" r="19.980000" fill="red">
  <title>Buenos Aires</title>
</circle><line x1="1829.959961" y1="1260.959961" x2="1700.959961" y2="1598.959961" stroke="red" stroke-width="6.660000" />
<circle cx="1431.959961" cy="1791.959961" r="19.980000" fill="red">
  <title>Mumbai</title>
</circle><line x1="1700.959961" y1="1598.959961" x2="1431.959961" y2="1791.959961" stroke="red" stroke-width="6.660000" />
<circle cx="532.960022" cy="1990.959961" r="19.980000" fill="red">
  <title>Dhaka</title>
</circle><line x1="1431.959961" y1="1791.959961" x2="532.960022" y2="1990.959961" stroke="red" stroke-width="6.660000" />
<circle cx="176.959991" cy="1538.959961" r="19.980000" fill="red">
  <title>Beijing</title>
</circle><line x1="532.960022" y1="1990.959961" x2="176.959991" y2="1538.959961" stroke="red" stroke-width="6.660000" />
<circle cx="207.959991" cy="634.960022" r="19.980000" fill="red">
  <title>São Paulo</title>
</circle><line x1="176.959991" y1="1538.959961" x2="207.959991" y2="634.960022" stroke="red" stroke-width="6.660000" />
<circle cx="186.959991" cy="89.959999" r="19.980000" fill="red">
  <title>Chongqing</title>
</circle><line x1="207.959991" y1="634.960022" x2="186.959991" y2="89.959999" stroke="red" stroke-width="6.660000" />
<circle cx="1096.959961" cy="150.959991" r="19.980000" fill="red">
  <title>Delhi</title>
</circle><line x1="186.959991" y1="89.959999" x2="1096.959961" y2="150.959991" stroke="red" stroke-width="6.660000" />
<circle cx="712.960022" cy="640.960022" r="19.980000" fill="red">
  <title>Karachi</title>
</circle><line x1="1096.959961" y1="150.959991" x2="712.960022" y2="640.960022" stroke="red" stroke-width="6.660000" />
</svg>
