<?xml version="1.0" encoding="UTF-8" standalone="no"?>
<svg width="500" height="500" viewBox="0 0 2074.000000 2074.000000" xmlns="http://www.w3.org/2000/svg">
<rect x="19.000000" y="19.000000" width="2036.000000" height="2036.000000" fill="black" />
<circle cx="455.959991" cy="271.959991" r="19.980000" fill="red">
  <title>Tokyo</title>
</circle><line x1="222.959991" y1="686.960022" x2="455.959991" y2="271.959991" stroke="red" stroke-width="6.660000" />
<circle cx="1732.959961" cy="964.960022" r="19.980000" fill="red">
  <title>Delhi</title>
</circle><line x1="455.959991" y1="271.959991" x2="1732.959961" y2="964.960022" stroke="red" stroke-width="6.660000" />
<circle cx="537.960022" cy="434.959991" r="19.980000" fill="red">
  <title>São Paulo</title>
</circle><line x1="1732.959961" y1="964.960022" x2="537.960022" y2="434.959991" stroke="red" stroke-width="6.660000" />
<circle cx="222.959991" cy="686.960022" r="19.980000" fill="red">
  <title>Shanghai</title>
</circle><line x1="537.960022" y1="434.959991" x2="222.959991" y2="686.960022" stroke="red" stroke-width="6.660000" />
</svg>
