<?xml version="1.0" encoding="UTF-8" standalone="no"?>
<svg width="500" height="500" viewBox="0 0 2074.000000 2074.000000" xmlns="http://www.w3.org/2000/svg">
<rect x="19.000000" y="19.000000" width="2036.000000" height="2036.000000" fill="black" />
<circle cx="224.959991" cy="787.960022" r="19.980000" fill="red">
  <title>Tokyo</title>
</circle><line x1="913.960022" y1="172.959991" x2="224.959991" y2="787.960022" stroke="red" stroke-width="6.660000" />
<circle cx="294.959991" cy="1123.959961" r="19.980000" fill="red">
  <title>Dhaka</title>
</circle><line x1="224.959991" y1="787.960022" x2="294.959991" y2="1123.959961" stroke="red" stroke-width="6.660000" />
<circle cx="272.959991" cy="1372.959961" r="19.980000" fill="red">
  <title>New York</title>
</circle><line x1="294.959991" y1="1123.959961" x2="272.959991" y2="1372.959961" stroke="red" stroke-width="6.660000" />
<circle cx="353.959991" cy="1624.959961" r="19.980000" fill="red">
  <title>Beijing</title>
</circle><line x1="272.959991" y1="1372.959961" x2="353.959991" y2="1624.959961" stroke="red" stroke-width="6.660000" />
<circle cx="301.959991" cy="1779.959961" r="19.980000" fill="red">
  <title>São Paulo</title>
</circle><line x1="353.959991" y1="1624.959961" x2="301.959991" y2="1779.959961" stroke="red" stroke-width="6.660000" />
<circle cx="363.959991" cy="1648.959961" r="19.980000" fill="red">
  <title>Istanbul</title>
</circle><line x1="301.959991" y1="1779.959961" x2="363.959991" y2="1648.959961" stroke="red" stroke-width="6.660000" />
<circle cx="1087.959961" cy="1392.959961" r="19.980000" fill="red">
  <title>Karachi</title>
</circle><line x1="363.959991" y1="1648.959961" x2="1087.959961" y2="1392.959961" stroke="red" stroke-width="6.660000" />
<circle cx="1270.959961" cy="1347.959961" r="19.980000" fill="red">
  <title>Buenos Aires</title>
</circle><line x1="1087.959961" y1="1392.959961" x2="1270.959961" y2="1347.959961" stroke="red" stroke-width="6.660000" />
<circle cx="1176.959961" cy="802.960022" r="19.980000" fill="red">
  <title>Mumbai</title>
</circle><line x1="1270.959961" y1="1347.959961" x2="1176.959961" y2="802.960022" stroke="red" stroke-width="6.660000" />
<circle cx="1355.959961" cy="943.960022" r="19.980000" fill="red">
  <title>Delhi</title>
</circle><line x1="1176.959961" y1="802.960022" x2="1355.959961" y2="943.960022" stroke="red" stroke-width="6.660000" />
<circle cx="1869.959961" cy="1101.959961" r="19.980000" fill="red">
  <title>Shanghai</title>
</circle><line x1="1355.959961" y1="943.960022" x2="1869.959961" y2="1101.959961" stroke="red" stroke-width="6.660000" />
<circle cx="1881.959961" cy="549.960022" r="19.980000" fill="red">
  <title>Kolkata</title>
</circle><line x1="1869.959961" y1="1101.959961" x2="1881.959961" y2="549.960022" stroke="red" stroke-width="6.660000" />
<circle cx="1863.959961" cy="423.959991" r="19.980000" fill="red">
  <title>Chongqing</title>
</circle><line x1="1881.959961" y1="549.960022" x2="1863.959961" y2="423.959991" stroke="red" stroke-width="6.660000" />
<circle cx="1531.959961" cy="378.959991" r="19.980000" fill="red">
  <title>Cairo</title>
</circle><line x1="1863.959961" y1="423.959991" x2="1531.959961" y2="378.959991" stroke="red" stroke-width="6.660000" />
<circle cx="1258.959961" cy="548.960022" r="19.980000" fill="red">
  <title>Mexico City</title>
</circle><line x1="1531.959961" y1="378.959991" x2="1258.959961" y2="548.960022" stroke="red" stroke-width="6.660000" />
<circle cx="913.960022" cy="172.959991" r="19.980000" fill="red">
  <title>Osaka</title>
</circle><line x1="1258.959961" y1="548.960022" x2="913.960022" y2="172.959991" stroke="red" stroke-width="6.660000" />
</svg>
