<?xml version="1.0" encoding="UTF-8" standalone="no"?>
<svg width="500" height="500" viewBox="0 0 2074.000000 2074.000000" xmlns="http://www.w3.org/2000/svg">
<rect x="19.000000" y="19.000000" width="2036.000000" height="2036.000000" fill="black" />
<circle cx="954.960022" cy="1217.959961" r="19.980000" fill="red">
  <title>Tokyo</title>
</circle><line x1="594.960022" y1="984.960022" x2="954.960022" y2="1217.959961" stroke="red" stroke-width="6.660000" />
<circle cx="1033.959961" cy="1533.959961" r="19.980000" fill="red">
  <title>Mumbai</title>
</circle><line x1="954.960022" y1="1217.959961" x2="1033.959961" y2="1533.959961" stroke="red" stroke-width="6.660000" />
<circle cx="736.960022" cy="1683.959961" r="19.980000" fill="red">
  <title>Lagos</title>
</circle><line x1="1033.959961" y1="1533.959961" x2="736.960022" y2="1683.959961" stroke="red" stroke-width="6.660000" />
<circle cx="668.960022" cy="1822.959961" r="19.980000" fill="red">
  <title>Rio de Janeiro</title>
</circle><line x1="736.960022" y1="1683.959961" x2="668.960022" y2="1822.959961" stroke="red" stroke-width="6.660000" />
<circle cx="1330.959961" cy="1838.959961" r="19.980000" fill="red">
  <title>New York</title>
</circle><line x1="668.960022" y1="1822.959961" x2="1330.959961" y2="1838.959961" stroke="red" stroke-width="6.660000" />
<circle cx="1538.959961" cy="1789.959961" r="19.980000" fill="red">
  <title>Delhi</title>
</circle><line x1="1330.959961" y1="1838.959961" x2="1538.959961" y2="1789.959961" stroke="red" stroke-width="6.660000" />
<circle cx="1608.959961" cy="1604.959961" r="19.980000" fill="red">
  <title>Buenos Aires</title>
</circle><line x1="1538.959961" y1="1789.959961" x2="1608.959961" y2="1604.959961" stroke="red" stroke-width="6.660000" />
<circle cx="1568.959961" cy="1461.959961" r="19.980000" fill="red">
  <title>Karachi</title>
</circle><line x1="1608.959961" y1="1604.959961" x2="1568.959961" y2="1461.959961" stroke="red" stroke-width="6.660000" />
<circle cx="2010.959961" cy="657.960022" r="19.980000" fill="red">
  <title>Mexico City</title>
</circle><line x1="1568.959961" y1="1461.959961" x2="2010.959961" y2="657.960022" stroke="red" stroke-width="6.660000" />
<circle cx="1969.959961" cy="611.960022" r="19.980000" fill="red">
  <title>Shanghai</title>
</circle><line x1="2010.959961" y1="657.960022" x2="1969.959961" y2="611.960022" stroke="red" stroke-width="6.660000" />
<circle cx="1751.959961" cy="95.959999" r="19.980000" fill="red">
  <title>Manila</title>
</circle><line x1="1969.959961" y1="611.960022" x2="1751.959961" y2="95.959999" stroke="red" stroke-width="6.660000" />
<circle cx="1468.959961" cy="315.959991" r="19.980000" fill="red">
  <title>Cairo</title>
</circle><line x1="1751.959961" y1="95.959999" x2="1468.959961" y2="315.959991" stroke="red" stroke-width="6.660000" />
<circle cx="1003.960022" cy="259.959991" r="19.980000" fill="red">
  <title>Beijing</title>
</circle><line x1="1468.959961" y1="315.959991" x2="1003.960022" y2="259.959991" stroke="red" stroke-width="6.660000" />
<circle cx="1125.959961" cy="678.960022" r="19.980000" fill="red">
  <title>São Paulo</title>
</circle><line x1="1003.960022" y1="259.959991" x2="1125.959961" y2="678.960022" stroke="red" stroke-width="6.660000" />
<circle cx="1187.959961" cy="764.960022" r="19.980000" fill="red">
  <title>Chongqing</title>
</circle><line x1="1125.959961" y1="678.960022" x2="1187.959961" y2="764.960022" stroke="red" stroke-width="6.660000" />
<circle cx="1132.959961" cy="844.960022" r="19.980000" fill="red">
  <title>Dhaka</title>
</circle><line x1="1187.959961" y1="764.960022" x2="1132.959961" y2="844.960022" stroke="red" stroke-width="6.660000" />
<circle cx="542.960022" cy="616.960022" r="19.980000" fill="red">
  <title>Osaka</title>
</circle><line x1="1132.959961" y1="844.960022" x2="542.960022" y2="616.960022" stroke="red" stroke-width="6.660000" />
<circle cx="68.959999" cy="572.960022" r="19.980000" fill="red">
  <title>Istanbul</title>
</circle><line x1="542.960022" y1="616.960022" x2="68.959999" y2="572.960022" stroke="red" stroke-width="6.660000" />
<circle cx="594.960022" cy="984.960022" r="19.980000" fill="red">
  <title>Kolkata</title>
</circle><line x1="68.959999" y1="572.960022" x2="594.960022" y2="984.960022" stroke="red" stroke-width="6.660000" />
</svg>
