<?xml version="1.0" encoding="UTF-8" standalone="no"?>
<svg width="500" height="500" viewBox="0 0 2074.000000 2074.000000" xmlns="http://www.w3.org/2000/svg">
<rect x="19.000000" y="19.000000" width="2036.000000" height="2036.000000" fill="black" />
<circle cx="450.959991" cy="1259.959961" r="19.980000" fill="red">
  <title>Tokyo</title>
</circle><line x1="279.959991" y1="1509.959961" x2="450.959991" y2="1259.959961" stroke="red" stroke-width="6.660000" />
<circle cx="60.959999" cy="948.960022" r="19.980000" fill="red">
  <title>Shanghai</title>
</circle><line x1="450.959991" y1="1259.959961" x2="60.959999" y2="948.960022" stroke="red" stroke-width="6.660000" />
<circle cx="68.959999" cy="830.960022" r="19.980000" fill="red">
  <title>Delhi</title>
</circle><line x1="60.959999" y1="948.960022" x2="68.959999" y2="830.960022" stroke="red" stroke-width="6.660000" />
<circle cx="738.960022" cy="408.959991" r="19.980000" fill="red">
  <title>Karachi</title>
</circle><line x1="68.959999" y1="830.960022" x2="738.960022" y2="408.959991" stroke="red" stroke-width="6.660000" />
<circle cx="769.960022" cy="483.959991" r="19.980000" fill="red">
  <title>São Paulo</title>
</circle><line x1="738.960022" y1="408.959991" x2="769.960022" y2="483.959991" stroke="red" stroke-width="6.660000" />
<circle cx="1015.960022" cy="869.960022" r="19.980000" fill="red">
  <title>Cairo</title>
</circle><line x1="769.960022" y1="483.959991" x2="1015.960022" y2="869.960022" stroke="red" stroke-width="6.660000" />
<circle cx="1034.959961" cy="809.960022" r="19.980000" fill="red">
  <title>Buenos Aires</title>
</circle><line x1="1015.960022" y1="869.960022" x2="1034.959961" y2="809.960022" stroke="red" stroke-width="6.660000" />
<circle cx="1413.959961" cy="523.960022" r="19.980000" fill="red">
  <title>New York</title>
</circle><line x1="1034.959961" y1="809.960022" x2="1413.959961" y2="523.960022" stroke="red" stroke-width="6.660000" />
<circle cx="1497.959961" cy="225.959991" r="19.980000" fill="red">
  <title>Kolkata</title>
</circle><line x1="1413.959961" y1="523.960022" x2="1497.959961" y2="225.959991" stroke="red" stroke-width="6.660000" />
<circle cx="1924.959961" cy="113.959999" r="19.980000" fill="red">
  <title>Osaka</title>
</circle><line x1="1497.959961" y1="225.959991" x2="1924.959961" y2="113.959999" stroke="red" stroke-width="6.660000" />
<circle cx="1981.959961" cy="189.959991" r="19.980000" fill="red">
  <title>Beijing</title>
</circle><line x1="1924.959961" y1="113.959999" x2="1981.959961" y2="189.959991" stroke="red" stroke-width="6.660000" />
<circle cx="1812.959961" cy="652.960022" r="19.980000" fill="red">
  <title>Istanbul</title>
</circle><line x1="1981.959961" y1="189.959991" x2="1812.959961" y2="652.960022" stroke="red" stroke-width="6.660000" />
<circle cx="1872.959961" cy="1527.959961" r="19.980000" fill="red">
  <title>Manila</title>
</circle><line x1="1812.959961" y1="652.960022" x2="1872.959961" y2="1527.959961" stroke="red" stroke-width="6.660000" />
<circle cx="1288.959961" cy="1555.959961" r="19.980000" fill="red">
  <title>Mexico City</title>
</circle><line x1="1872.959961" y1="1527.959961" x2="1288.959961" y2="1555.959961" stroke="red" stroke-width="6.660000" />
<circle cx="1016.960022" cy="1893.959961" r="19.980000" fill="red">
  <title>Lagos</title>
</circle><line x1="1288.959961" y1="1555.959961" x2="1016.960022" y2="1893.959961" stroke="red" stroke-width="6.660000" />
<circle cx="735.960022" cy="1739.959961" r="19.980000" fill="red">
  <title>Chongqing</title>
</circle><line x1="1016.960022" y1="1893.959961" x2="735.960022" y2="1739.959961" stroke="red" stroke-width="6.660000" />
<circle cx="254.959991" cy="1638.959961" r="19.980000" fill="red">
  <title>Dhaka</title>
</circle><line x1="735.960022" y1="1739.959961" x2="254.959991" y2="1638.959961" stroke="red" stroke-width="6.660000" />
<circle cx="279.959991" cy="1509.959961" r="19.980000" fill="red">
  <title>Mumbai</title>
</circle><line x1="254.959991" y1="1638.959961" x2="279.959991" y2="1509.959961" stroke="red" stroke-width="6.660000" />
</svg>
