<?xml version="1.0" encoding="UTF-8" standalone="no"?>
<svg width="500" height="500" viewBox="0 0 2074.000000 2074.000000" xmlns="http://www.w3.org/2000/svg">
<rect x="19.000000" y="19.000000" width="2036.000000" height="2036.000000" fill="black" />
<circle cx="707.960022" cy="1071.959961" r="19.980000" fill="red">
  <title>Tokyo</title>
</circle><line x1="707.960022" y1="1331.959961" x2="707.960022" y2="1071.959961" stroke="red" stroke-width="6.660000" />
<circle cx="353.959991" cy="877.960022" r="19.980000" fill="red">
  <title>Delhi</title>
</circle><line x1="707.960022" y1="1071.959961" x2="353.959991" y2="877.960022" stroke="red" stroke-width="6.660000" />
<circle cx="184.959991" cy="1269.959961" r="19.980000" fill="red">
  <title>Osaka</title>
</circle><line x1="353.959991" y1="877.960022" x2="184.959991" y2="1269.959961" stroke="red" stroke-width="6.660000" />
<circle cx="142.959991" cy="1323.959961" r="19.980000" fill="red">
  <title>Dhaka</title>
</circle><line x1="184.959991" y1="1269.959961" x2="142.959991" y2="1323.959961" stroke="red" stroke-width="6.660000" />
<circle cx="61.959999" cy="1949.959961" r="19.980000" fill="red">
  <title>Buenos Aires</title>
</circle><line x1="142.959991" y1="1323.959961" x2="61.959999" y2="1949.959961" stroke="red" stroke-width="6.660000" />
<circle cx="118.959999" cy="1999.959961" r="19.980000" fill="red">
  <title>Mexico City</title>
</circle><line x1="61.959999" y1="1949.959961" x2="118.959999" y2="1999.959961" stroke="red" stroke-width="6.660000" />
<circle cx="1150.959961" cy="1862.959961" r="19.980000" fill="red">
  <title>Beijing</title>
</circle><line x1="118.959999" y1="1999.959961" x2="1150.959961" y2="1862.959961" stroke="red" stroke-width="6.660000" />
<circle cx="1833.959961" cy="1688.959961" r="19.980000" fill="red">
  <title>New York</title>
</circle><line x1="1150.959961" y1="1862.959961" x2="1833.959961" y2="1688.959961" stroke="red" stroke-width="6.660000" />
<circle cx="1523.959961" cy="1192.959961" r="19.980000" fill="red">
  <title>Chongqing</title>
</circle><line x1="1833.959961" y1="1688.959961" x2="1523.959961" y2="1192.959961" stroke="red" stroke-width="6.660000" />
<circle cx="1363.959961" cy="1160.959961" r="19.980000" fill="red">
  <title>Mumbai</title>
</circle><line x1="1523.959961" y1="1192.959961" x2="1363.959961" y2="1160.959961" stroke="red" stroke-width="6.660000" />
<circle cx="1532.959961" cy="669.960022" r="19.980000" fill="red">
  <title>São Paulo</title>
</circle><line x1="1363.959961" y1="1160.959961" x2="1532.959961" y2="669.960022" stroke="red" stroke-width="6.660000" />
<circle cx="1163.959961" cy="521.960022" r="19.980000" fill="red">
  <title>Istanbul</title>
</circle><line x1="1532.959961" y1="669.960022" x2="1163.959961" y2="521.960022" stroke="red" stroke-width="6.660000" />
<circle cx="1133.959961" cy="944.960022" r="19.980000" fill="red">
  <title>Karachi</title>
</circle><line x1="1163.959961" y1="521.960022" x2="1133.959961" y2="944.960022" stroke="red" stroke-width="6.660000" />
<circle cx="817.960022" cy="1081.959961" r="19.980000" fill="red">
  <title>Cairo</title>
</circle><line x1="1133.959961" y1="944.960022" x2="817.960022" y2="1081.959961" stroke="red" stroke-width="6.660000" />
<circle cx="707.960022" cy="1331.959961" r="19.980000" fill="red">
  <title>Shanghai</title>
</circle><line x1="817.960022" y1="1081.959961" x2="707.960022" y2="1331.959961" stroke="red" stroke-width="6.660000" />
</svg>
