<?xml version="1.0" encoding="UTF-8" standalone="no"?>
<svg width="500" height="500" viewBox="0 0 2074.000000 2074.000000" xmlns="http://www.w3.org/2000/svg">
<rect x="19.000000" y="19.000000" width="2036.000000" height="2036.000000" fill="black" />
<circle cx="525.960022" cy="615.960022" r="19.980000" fill="red">
  <title>Tokyo</title>
</circle><line x1="659.960022" y1="836.960022" x2="525.960022" y2="615.960022" stroke="red" stroke-width="6.660000" />
<circle cx="196.959991" cy="829.960022" r="19.980000" fill="red">
  <title>Delhi</title>
</circle><line x1="525.960022" y1="615.960022" x2="196.959991" y2="829.960022" stroke="red" stroke-width="6.660000" />
<circle cx="124.959999" cy="1130.959961" r="19.980000" fill="red">
  <title>Istanbul</title>
</circle><line x1="196.959991" y1="829.960022" x2="124.959999" y2="1130.959961" stroke="red" stroke-width="6.660000" />
<circle cx="57.959999" cy="773.960022" r="19.980000" fill="red">
  <title>New York</title>
</circle><line x1="124.959999" y1="1130.959961" x2="57.959999" y2="773.960022" stroke="red" stroke-width="6.660000" />
<circle cx="343.959991" cy="598.960022" r="19.980000" fill="red">
  <title>Karachi</title>
</circle><line x1="57.959999" y1="773.960022" x2="343.959991" y2="598.960022" stroke="red" stroke-width="6.660000" />
<circle cx="440.959991" cy="320.959991" r="19.980000" fill="red">
  <title>Dhaka</title>
</circle><line x1="343.959991" y1="598.960022" x2="440.959991" y2="320.959991" stroke="red" stroke-width="6.660000" />
<circle cx="769.960022" cy="209.959991" r="19.980000" fill="red">
  <title>Osaka</title>
</circle><line x1="440.959991" y1="320.959991" x2="769.960022" y2="209.959991" stroke="red" stroke-width="6.660000" />
<circle cx="1306.959961" cy="63.959999" r="19.980000" fill="red">
  <title>Buenos Aires</title>
</circle><line x1="769.960022" y1="209.959991" x2="1306.959961" y2="63.959999" stroke="red" stroke-width="6.660000" />
<circle cx="1015.960022" cy="637.960022" r="19.980000" fill="red">
  <title>Chongqing</title>
</circle><line x1="1306.959961" y1="63.959999" x2="1015.960022" y2="637.960022" stroke="red" stroke-width="6.660000" />
<circle cx="927.960022" cy="646.960022" r="19.980000" fill="red">
  <title>Mumbai</title>
</circle><line x1="1015.960022" y1="637.960022" x2="927.960022" y2="646.960022" stroke="red" stroke-width="6.660000" />
<circle cx="924.960022" cy="776.960022" r="19.980000" fill="red">
  <title>Beijing</title>
</circle><line x1="927.960022" y1="646.960022" x2="924.960022" y2="776.960022" stroke="red" stroke-width="6.660000" />
<circle cx="1815.959961" cy="1266.959961" r="19.980000" fill="red">
  <title>Shanghai</title>
</circle><line x1="924.960022" y1="776.960022" x2="1815.959961" y2="1266.959961" stroke="red" stroke-width="6.660000" />
<circle cx="1724.959961" cy="2020.959961" r="19.980000" fill="red">
  <title>Cairo</title>
</circle><line x1="1815.959961" y1="1266.959961" x2="1724.959961" y2="2020.959961" stroke="red" stroke-width="6.660000" />
<circle cx="1072.959961" cy="1344.959961" r="19.980000" fill="red">
  <title>São Paulo</title>
</circle><line x1="1724.959961" y1="2020.959961" x2="1072.959961" y2="1344.959961" stroke="red" stroke-width="6.660000" />
<circle cx="659.960022" cy="836.960022" r="19.980000" fill="red">
  <title>Mexico City</title>
</circle><line x1="1072.959961" y1="1344.959961" x2="659.960022" y2="836.960022" stroke="red" stroke-width="6.660000" />
</svg>
