<?xml version="1.0" encoding="UTF-8" standalone="no"?>
<svg width="500" height="500" viewBox="0 0 2074.000000 2074.000000" xmlns="http://www.w3.org/2000/svg">
<rect x="19.000000" y="19.000000" width="2036.000000" height="2036.000000" fill="black" />
<circle cx="626.960022" cy="357.959991" r="19.980000" fill="red">
  <title>Tokyo</title>
</circle><line x1="1125.959961" y1="699.960022" x2="626.960022" y2="357.959991" stroke="red" stroke-width="6.660000" />
<circle cx="136.959991" cy="451.959991" r="19.980000" fill="red">
  <title>Mexico City</title>
</circle><line x1="626.960022" y1="357.959991" x2="136.959991" y2="451.959991" stroke="red" stroke-width="6.660000" />
<circle cx="573.960022" cy="523.960022" r="19.980000" fill="red">
  <title>Cairo</title>
</circle><line x1="136.959991" y1="451.959991" x2="573.960022" y2="523.960022" stroke="red" stroke-width="6.660000" />
<circle cx="681.960022" cy="846.960022" r="19.980000" fill="red">
  <title>Osaka</title>
</circle><line x1="573.960022" y1="523.960022" x2="681.960022" y2="846.960022" stroke="red" stroke-width="6.660000" />
<circle cx="731.960022" cy="1175.959961" r="19.980000" fill="red">
  <title>Shanghai</title>
</circle><line x1="681.960022" y1="846.960022" x2="731.960022" y2="1175.959961" stroke="red" stroke-width="6.660000" />
<circle cx="796.960022" cy="2034.959961" r="19.980000" fill="red">
  <title>Mumbai</title>
</circle><line x1="731.960022" y1="1175.959961" x2="796.960022" y2="2034.959961" stroke="red" stroke-width="6.660000" />
<circle cx="1057.959961" cy="1616.959961" r="19.980000" fill="red">
  <title>Delhi</title>
</circle><line x1="796.960022" y1="2034.959961" x2="1057.959961" y2="1616.959961" stroke="red" stroke-width="6.660000" />
<circle cx="1365.959961" cy="1016.960022" r="19.980000" fill="red">
  <title>Beijing</title>
</circle><line x1="1057.959961" y1="1616.959961" x2="1365.959961" y2="1016.960022" stroke="red" stroke-width="6.660000" />
<circle cx="1488.959961" cy="851.960022" r="19.980000" fill="red">
  <title>São Paulo</title>
</circle><line x1="1365.959961" y1="1016.960022" x2="1488.959961" y2="851.960022" stroke="red" stroke-width="6.660000" />
<circle cx="1125.959961" cy="699.960022" r="19.980000" fill="red">
  <title>Dhaka</title>
</circle><line x1="1488.959961" y1="851.960022" x2="1125.959961" y2="699.960022" stroke="red" stroke-width="6.660000" />
</svg>
