<?xml version="1.0" encoding="UTF-8" standalone="no"?>
<svg width="500" height="500" viewBox="0 0 2074.000000 2074.000000" xmlns="http://www.w3.org/2000/svg">
<rect x="19.000000" y="19.000000" width="2036.000000" height="2036.000000" fill="black" />
<circle cx="577.960022" cy="872.960022" r="19.980000" fill="red">
  <title>Tokyo</title>
</circle><line x1="241.959991" y1="371.959991" x2="577.960022" y2="872.960022" stroke="red" stroke-width="6.660000" />
<circle cx="622.960022" cy="903.960022" r="19.980000" fill="red">
  <title>Cairo</title>
</circle><line x1="577.960022" y1="872.960022" x2="622.960022" y2="903.960022" stroke="red" stroke-width="6.660000" />
<circle cx="170.959991" cy="1447.959961" r="19.980000" fill="red">
  <title>Shanghai</title>
</circle><line x1="622.960022" y1="903.960022" x2="170.959991" y2="1447.959961" stroke="red" stroke-width="6.660000" />
<circle cx="58.959999" cy="1870.959961" r="19.980000" fill="red">
  <title>Delhi</title>
</circle><line x1="170.959991" y1="1447.959961" x2="58.959999" y2="1870.959961" stroke="red" stroke-width="6.660000" />
<circle cx="435.959991" cy="1920.959961" r="19.980000" fill="red">
  <title>Mexico City</title>
</circle><line x1="58.959999" y1="1870.959961" x2="435.959991" y2="1920.959961" stroke="red" stroke-width="6.660000" />
<circle cx="607.960022" cy="1888.959961" r="19.980000" fill="red">
  <title>Buenos Aires</title>
</circle><line x1="435.959991" y1="1920.959961" x2="607.960022" y2="1888.959961" stroke="red" stroke-width="6.660000" />
<circle cx="1106.959961" cy="1841.959961" r="19.980000" fill="red">
  <title>Dhaka</title>
</circle><line x1="607.960022" y1="1888.959961" x2="1106.959961" y2="1841.959961" stroke="red" stroke-width="6.660000" />
<circle cx="1676.959961" cy="1874.959961" r="19.980000" fill="red">
  <title>Kolkata</title>
</circle><line x1="1106.959961" y1="1841.959961" x2="1676.959961" y2="1874.959961" stroke="red" stroke-width="6.660000" />
<circle cx="1335.959961" cy="1461.959961" r="19.980000" fill="red">
  <title>Istanbul</title>
</circle><line x1="1676.959961" y1="1874.959961" x2="1335.959961" y2="1461.959961" stroke="red" stroke-width="6.660000" />
<circle cx="1673.959961" cy="1131.959961" r="19.980000" fill="red">
  <title>Beijing</title>
</circle><line x1="1335.959961" y1="1461.959961" x2="1673.959961" y2="1131.959961" stroke="red" stroke-width="6.660000" />
<circle cx="1369.959961" cy="677.960022" r="19.980000" fill="red">
  <title>São Paulo</title>
</circle><line x1="1673.959961" y1="1131.959961" x2="1369.959961" y2="677.960022" stroke="red" stroke-width="6.660000" />
<circle cx="1658.959961" cy="338.959991" r="19.980000" fill="red">
  <title>Karachi</title>
</circle><line x1="1369.959961" y1="677.960022" x2="1658.959961" y2="338.959991" stroke="red" stroke-width="6.660000" />
<circle cx="1609.959961" cy="222.959991" r="19.980000" fill="red">
  <title>Mumbai</title>
</circle><line x1="1658.959961" y1="338.959991" x2="1609.959961" y2="222.959991" stroke="red" stroke-width="6.660000" />
<circle cx="1049.959961" cy="138.959991" r="19.980000" fill="red">
  <title>New York</title>
</circle><line x1="1609.959961" y1="222.959991" x2="1049.959961" y2="138.959991" stroke="red" stroke-width="6.660000" />
<circle cx="1007.960022" cy="220.959991" r="19.980000" fill="red">
  <title>Chongqing</title>
</circle><line x1="1049.959961" y1="138.959991" x2="1007.960022" y2="220.959991" stroke="red" stroke-width="6.660000" />
<circle cx="241.959991" cy="371.959991" r="19.980000" fill="red">
  <title>Osaka</title>
</circle><line x1="1007.960022" y1="220.959991" x2="241.959991" y2="371.959991" stroke="red" stroke-width="6.660000" />
</svg>
