<?xml version="1.0" encoding="UTF-8" standalone="no"?>
<svg width="500" height="500" viewBox="0 0 2074.000000 2074.000000" xmlns="http://www.w3.org/2000/svg">
<rect x="19.000000" y="19.000000" width="2036.000000" height="2036.000000" fill="black" />
<circle cx="1012.960022" cy="1252.959961" r="19.980000" fill="red">
  <title>Tokyo</title>
</circle><line x1="1203.959961" y1="1261.959961" x2="1012.960022" y2="1252.959961" stroke="red" stroke-width="6.660000" />
<circle cx="1221.959961" cy="1454.959961" r="19.980000" fill="red">
  <title>Shanghai</title>
</circle><line x1="1012.960022" y1="1252.959961" x2="1221.959961" y2="1454.959961" stroke="red" stroke-width="6.660000" />
<circle cx="1335.959961" cy="1586.959961" r="19.980000" fill="red">
  <title>Beijing</title>
</circle><line x1="1221.959961" y1="1454.959961" x2="1335.959961" y2="1586.959961" stroke="red" stroke-width="6.660000" />
<circle cx="967.960022" cy="1920.959961" r="19.980000" fill="red">
  <title>Delhi</title>
</circle><line x1="1335.959961" y1="1586.959961" x2="967.960022" y2="1920.959961" stroke="red" stroke-width="6.660000" />
<circle cx="883.960022" cy="1810.959961" r="19.980000" fill="red">
  <title>Lagos</title>
</circle><line x1="967.960022" y1="1920.959961" x2="883.960022" y2="1810.959961" stroke="red" stroke-width="6.660000" />
<circle cx="577.960022" cy="2031.959961" r="19.980000" fill="red">
  <title>Cairo</title>
</circle><line x1="883.960022" y1="1810.959961" x2="577.960022" y2="2031.959961" stroke="red" stroke-width="6.660000" />
<circle cx="627.960022" cy="1658.959961" r="19.980000" fill="red">
  <title>Manila</title>
</circle><line x1="577.960022" y1="2031.959961" x2="627.960022" y2="1658.959961" stroke="red" stroke-width="6.660000" />
<circle cx="435.959991" cy="1212.959961" r="19.980000" fill="red">
  <title>Mumbai</title>
</circle><line x1="627.960022" y1="1658.959961" x2="435.959991" y2="1212.959961" stroke="red" stroke-width="6.660000" />
<circle cx="730.960022" cy="1001.960022" r="19.980000" fill="red">
  <title>Kolkata</title>
</circle><line x1="435.959991" y1="1212.959961" x2="730.960022" y2="1001.960022" stroke="red" stroke-width="6.660000" />
<circle cx="550.960022" cy="674.960022" r="19.980000" fill="red">
  <title>Dhaka</title>
</circle><line x1="730.960022" y1="1001.960022" x2="550.960022" y2="674.960022" stroke="red" stroke-width="6.660000" />
<circle cx="928.960022" cy="442.959991" r="19.980000" fill="red">
  <title>Buenos Aires</title>
</circle><line x1="550.960022" y1="674.960022" x2="928.960022" y2="442.959991" stroke="red" stroke-width="6.660000" />
<circle cx="1326.959961" cy="314.959991" r="19.980000" fill="red">
  <title>Mexico City</title>
</circle><line x1="928.960022" y1="442.959991" x2="1326.959961" y2="314.959991" stroke="red" stroke-width="6.660000" />
<circle cx="1747.959961" cy="813.960022" r="19.980000" fill="red">
  <title>New York</title>
</circle><line x1="1326.959961" y1="314.959991" x2="1747.959961" y2="813.960022" stroke="red" stroke-width="6.660000" />
<circle cx="1802.959961" cy="1245.959961" r="19.980000" fill="red">
  <title>Karachi</title>
</circle><line x1="1747.959961" y1="813.960022" x2="1802.959961" y2="1245.959961" stroke="red" stroke-width="6.660000" />
<circle cx="2027.959961" cy="1413.959961" r="19.980000" fill="red">
  <title>Istanbul</title>
</circle><line x1="1802.959961" y1="1245.959961" x2="2027.959961" y2="1413.959961" stroke="red" stroke-width="6.660000" />
<circle cx="1761.959961" cy="1182.959961" r="19.980000" fill="red">
  <title>São Paulo</title>
</circle><line x1="2027.959961" y1="1413.959961" x2="1761.959961" y2="1182.959961" stroke="red" stroke-width="6.660000" />
<circle cx="1493.959961" cy="957.960022" r="19.980000" fill="red">
  <title>Chongqing</title>
</circle><line x1="1761.959961" y1="1182.959961" x2="1493.959961" y2="957.960022" stroke="red" stroke-width="6.660000" />
<circle cx="1203.959961" cy="1261.959961" r="19.980000" fill="red">
  <title>Osaka</title>
</circle><line x1="1493.959961" y1="957.960022" x2="1203.959961" y2="1261.959961" stroke="red" stroke-width="6.660000" />
</svg>
