<?xml version="1.0" encoding="UTF-8" standalone="no"?>
<svg width="500" height="500" viewBox="0 0 2074.000000 2074.000000" xmlns="http://www.w3.org/2000/svg">
<rect x="19.000000" y="19.000000" width="2036.000000" height="2036.000000" fill="black" />
<circle cx="820.960022" cy="651.960022" r="19.980000" fill="red">
  <title>Tokyo</title>
</circle><line x1="247.959991" y1="1119.959961" x2="820.960022" y2="651.960022" stroke="red" stroke-width="6.660000" />
<circle cx="611.960022" cy="411.959991" r="19.980000" fill="red">
  <title>Beijing</title>
</circle><line x1="820.960022" y1="651.960022" x2="611.960022" y2="411.959991" stroke="red" stroke-width="6.660000" />
<circle cx="236.959991" cy="227.959991" r="19.980000" fill="red">
  <title>Shanghai</title>
</circle><line x1="611.960022" y1="411.959991" x2="236.959991" y2="227.959991" stroke="red" stroke-width="6.660000" />
<circle cx="722.960022" cy="117.959999" r="19.980000" fill="red">
  <title>Mexico City</title>
</circle><line x1="236.959991" y1="227.959991" x2="722.960022" y2="117.959999" stroke="red" stroke-width="6.660000" />
<circle cx="873.960022" cy="263.959991" r="19.980000" fill="red">
  <title>Mumbai</title>
</circle><line x1="722.960022" y1="117.959999" x2="873.960022" y2="263.959991" stroke="red" stroke-width="6.660000" />
<circle cx="1051.959961" cy="601.960022" r="19.980000" fill="red">
  <title>Karachi</title>
</circle><line x1="873.960022" y1="263.959991" x2="1051.959961" y2="601.960022" stroke="red" stroke-width="6.660000" />
<circle cx="1796.959961" cy="348.959991" r="19.980000" fill="red">
  <title>New York</title>
</circle><line x1="1051.959961" y1="601.960022" x2="1796.959961" y2="348.959991" stroke="red" stroke-width="6.660000" />
<circle cx="1867.959961" cy="237.959991" r="19.980000" fill="red">
  <title>Chongqing</title>
</circle><line x1="1796.959961" y1="348.959991" x2="1867.959961" y2="237.959991" stroke="red" stroke-width="6.660000" />
<circle cx="2032.959961" cy="529.960022" r="19.980000" fill="red">
  <title>São Paulo</title>
</circle><line x1="1867.959961" y1="237.959991" x2="2032.959961" y2="529.960022" stroke="red" stroke-width="6.660000" />
<circle cx="1756.959961" cy="1335.959961" r="19.980000" fill="red">
  <title>Buenos Aires</title>
</circle><line x1="2032.959961" y1="529.960022" x2="1756.959961" y2="1335.959961" stroke="red" stroke-width="6.660000" />
<circle cx="2016.959961" cy="1569.959961" r="19.980000" fill="red">
  <title>Delhi</title>
</circle><line x1="1756.959961" y1="1335.959961" x2="2016.959961" y2="1569.959961" stroke="red" stroke-width="6.660000" />
<circle cx="1499.959961" cy="1221.959961" r="19.980000" fill="red">
  <title>Osaka</title>
</circle><line x1="2016.959961" y1="1569.959961" x2="1499.959961" y2="1221.959961" stroke="red" stroke-width="6.660000" />
<circle cx="1050.959961" cy="1857.959961" r="19.980000" fill="red">
  <title>Cairo</title>
</circle><line x1="1499.959961" y1="1221.959961" x2="1050.959961" y2="1857.959961" stroke="red" stroke-width="6.660000" />
<circle cx="247.959991" cy="1119.959961" r="19.980000" fill="red">
  <title>Dhaka</title>
</circle><line x1="1050.959961" y1="1857.959961" x2="247.959991" y2="1119.959961" stroke="red" stroke-width="6.660000" />
</svg>
