<?xml version="1.0" encoding="UTF-8" standalone="no"?>
<svg width="500" height="500" viewBox="0 0 2074.000000 2074.000000" xmlns="http://www.w3.org/2000/svg">
<rect x="19.000000" y="19.000000" width="2036.000000" height="2036.000000" fill="black" />
<circle cx="1453.959961" cy="1047.959961" r="19.980000" fill="red">
  <title>Tokyo</title>
</circle><line x1="1062.959961" y1="1042.959961" x2="1453.959961" y2="1047.959961" stroke="red" stroke-width="6.660000" />
<circle cx="1750.959961" cy="651.960022" r="19.980000" fill="red">
  <title>Buenos Aires</title>
</circle><line x1="1453.959961" y1="1047.959961" x2="1750.959961" y2="651.960022" stroke="red" stroke-width="6.660000" />
<circle cx="1185.959961" cy="619.960022" r="19.980000" fill="red">
  <title>Shanghai</title>
</circle><line x1="1750.959961" y1="651.960022" x2="1185.959961" y2="619.960022" stroke="red" stroke-width="6.660000" />
<circle cx="1135.959961" cy="542.960022" r="19.980000" fill="red">
  <title>Beijing</title>
</circle><line x1="1185.959961" y1="619.960022" x2="1135.959961" y2="542.960022" stroke="red" stroke-width="6.660000" />
<circle cx="824.960022" cy="264.959991" r="19.980000" fill="red">
  <title>Osaka</title>
</circle><line x1="1135.959961" y1="542.960022" x2="824.960022" y2="264.959991" stroke="red" stroke-width="6.660000" />
<circle cx="551.960022" cy="609.960022" r="19.980000" fill="red">
  <title>Delhi</title>
</circle><line x1="824.960022" y1="264.959991" x2="551.960022" y2="609.960022" stroke="red" stroke-width="6.660000" />
<circle cx="518.960022" cy="999.960022" r="19.980000" fill="red">
  <title>São Paulo</title>
</circle><line x1="551.960022" y1="609.960022" x2="518.960022" y2="999.960022" stroke="red" stroke-width="6.660000" />
<circle cx="335.959991" cy="1551.959961" r="19.980000" fill="red">
  <title>Cairo</title>
</circle><line x1="518.960022" y1="999.960022" x2="335.959991" y2="1551.959961" stroke="red" stroke-width="6.660000" />
<circle cx="281.959991" cy="1805.959961" r="19.980000" fill="red">
  <title>Dhaka</title>
</circle><line x1="335.959991" y1="1551.959961" x2="281.959991" y2="1805.959961" stroke="red" stroke-width="6.660000" />
<circle cx="283.959991" cy="1652.959961" r="19.980000" fill="red">
  <title>Mexico City</title>
</circle><line x1="281.959991" y1="1805.959961" x2="283.959991" y2="1652.959961" stroke="red" stroke-width="6.660000" />
<circle cx="721.960022" cy="1476.959961" r="19.980000" fill="red">
  <title>Karachi</title>
</circle><line x1="283.959991" y1="1652.959961" x2="721.960022" y2="1476.959961" stroke="red" stroke-width="6.660000" />
<circle cx="976.960022" cy="1575.959961" r="19.980000" fill="red">
  <title>Manila</title>
</circle><line x1="721.960022" y1="1476.959961" x2="976.960022" y2="1575.959961" stroke="red" stroke-width="6.660000" />
<circle cx="1181.959961" cy="1631.959961" r="19.980000" fill="red">
  <title>Mumbai</title>
</circle><line x1="976.960022" y1="1575.959961" x2="1181.959961" y2="1631.959961" stroke="red" stroke-width="6.660000" />
<circle cx="1627.959961" cy="1966.959961" r="19.980000" fill="red">
  <title>Istanbul</title>
</circle><line x1="1181.959961" y1="1631.959961" x2="1627.959961" y2="1966.959961" stroke="red" stroke-width="6.660000" />
<circle cx="1977.959961" cy="1551.959961" r="19.980000" fill="red">
  <title>New York</title>
</circle><line x1="1627.959961" y1="1966.959961" x2="1977.959961" y2="1551.959961" stroke="red" stroke-width="6.660000" />
<circle cx="1613.959961" cy="1427.959961" r="19.980000" fill="red">
  <title>Chongqing</title>
</circle><line x1="1977.959961" y1="1551.959961" x2="1613.959961" y2="1427.959961" stroke="red" stroke-width="6.660000" />
<circle cx="1062.959961" cy="1042.959961" r="19.980000" fill="red">
  <title>Kolkata</title>
</circle><line x1="1613.959961" y1="1427.959961" x2="1062.959961" y2="1042.959961" stroke="red" stroke-width="6.660000" />
</svg>
