<?xml version="1.0" encoding="UTF-8" standalone="no"?>
<svg width="500" height="500" viewBox="0 0 2074.000000 2074.000000" xmlns="http://www.w3.org/2000/svg">
<rect x="19.000000" y="19.000000" width="2036.000000" height="2036.000000" fill="black" />
<circle cx="1188.959961" cy="267.959991" r="19.980000" fill="red">
  <title>Tokyo</title>
</circle><line x1="935.960022" y1="272.959991" x2="1188.959961" y2="267.959991" stroke="red" stroke-width="6.660000" />
<circle cx="1296.959961" cy="241.959991" r="19.980000" fill="red">
  <title>Dhaka</title>
</circle><line x1="1188.959961" y1="267.959991" x2="1296.959961" y2="241.959991" stroke="red" stroke-width="6.660000" />
<circle cx="1927.959961" cy="319.959991" r="19.980000" fill="red">
  <title>Mexico City</title>
</circle><line x1="1296.959961" y1="241.959991" x2="1927.959961" y2="319.959991" stroke="red" stroke-width="6.660000" />
<circle cx="1185.959961" cy="575.960022" r="19.980000" fill="red">
  <title>Cairo</title>
</circle><line x1="1927.959961" y1="319.959991" x2="1185.959961" y2="575.960022" stroke="red" stroke-width="6.660000" />
<circle cx="1222.959961" cy="1017.960022" r="19.980000" fill="red">
  <title>Shanghai</title>
</circle><line x1="1185.959961" y1="575.960022" x2="1222.959961" y2="1017.960022" stroke="red" stroke-width="6.660000" />
<circle cx="1678.959961" cy="1106.959961" r="19.980000" fill="red">
  <title>Delhi</title>
</circle><line x1="1222.959961" y1="1017.960022" x2="1678.959961" y2="1106.959961" stroke="red" stroke-width="6.660000" />
<circle cx="1424.959961" cy="1317.959961" r="19.980000" fill="red">
  <title>São Paulo</title>
</circle><line x1="1678.959961" y1="1106.959961" x2="1424.959961" y2="1317.959961" stroke="red" stroke-width="6.660000" />
<circle cx="1437.959961" cy="1923.959961" r="19.980000" fill="red">
  <title>Istanbul</title>
</circle><line x1="1424.959961" y1="1317.959961" x2="1437.959961" y2="1923.959961" stroke="red" stroke-width="6.660000" />
<circle cx="1433.959961" cy="1955.959961" r="19.980000" fill="red">
  <title>Chongqing</title>
</circle><line x1="1437.959961" y1="1923.959961" x2="1433.959961" y2="1955.959961" stroke="red" stroke-width="6.660000" />
<circle cx="833.960022" cy="1824.959961" r="19.980000" fill="red">
  <title>Beijing</title>
</circle><line x1="1433.959961" y1="1955.959961" x2="833.960022" y2="1824.959961" stroke="red" stroke-width="6.660000" />
<circle cx="554.960022" cy="1561.959961" r="19.980000" fill="red">
  <title>Mumbai</title>
</circle><line x1="833.960022" y1="1824.959961" x2="554.960022" y2="1561.959961" stroke="red" stroke-width="6.660000" />
<circle cx="514.960022" cy="1143.959961" r="19.980000" fill="red">
  <title>Osaka</title>
</circle><line x1="554.960022" y1="1561.959961" x2="514.960022" y2="1143.959961" stroke="red" stroke-width="6.660000" />
<circle cx="326.959991" cy="653.960022" r="19.980000" fill="red">
  <title>Karachi</title>
</circle><line x1="514.960022" y1="1143.959961" x2="326.959991" y2="653.960022" stroke="red" stroke-width="6.660000" />
<circle cx="99.959999" cy="81.959999" r="19.980000" fill="red">
  <title>New York</title>
</circle><line x1="326.959991" y1="653.960022" x2="99.959999" y2="81.959999" stroke="red" stroke-width="6.660000" />
<circle cx="935.960022" cy="272.959991" r="19.980000" fill="red">
  <title>Buenos Aires</title>
</circle><line x1="99.959999" y1="81.959999" x2="935.960022" y2="272.959991" stroke="red" stroke-width="6.660000" />
</svg>
