<?xml version="1.0" encoding="UTF-8" standalone="no"?>
<svg width="500" height="500" viewBox="0 0 2074.000000 2074.000000" xmlns="http://www.w3.org/2000/svg">
<rect x="19.000000" y="19.000000" width="2036.000000" height="2036.000000" fill="black" />
<circle cx="2009.959961" cy="1335.959961" r="19.980000" fill="red">
  <title>Tokyo</title>
</circle><line x1="1641.959961" y1="946.960022" x2="2009.959961" y2="1335.959961" stroke="red" stroke-width="6.660000" />
<circle cx="1592.959961" cy="1360.959961" r="19.980000" fill="red">
  <title>Dhaka</title>
</circle><line x1="2009.959961" y1="1335.959961" x2="1592.959961" y2="1360.959961" stroke="red" stroke-width="6.660000" />
<circle cx="1054.959961" cy="1332.959961" r="19.980000" fill="red">
  <title>São Paulo</title>
</circle><line x1="1592.959961" y1="1360.959961" x2="1054.959961" y2="1332.959961" stroke="red" stroke-width="6.660000" />
<circle cx="1160.959961" cy="1869.959961" r="19.980000" fill="red">
  <title>Chongqing</title>
</circle><line x1="1054.959961" y1="1332.959961" x2="1160.959961" y2="1869.959961" stroke="red" stroke-width="6.660000" />
<circle cx="926.960022" cy="1781.959961" r="19.980000" fill="red">
  <title>Delhi</title>
</circle><line x1="1160.959961" y1="1869.959961" x2="926.960022" y2="1781.959961" stroke="red" stroke-width="6.660000" />
<circle cx="510.959991" cy="1895.959961" r="19.980000" fill="red">
  <title>Osaka</title>
</circle><line x1="926.960022" y1="1781.959961" x2="510.959991" y2="1895.959961" stroke="red" stroke-width="6.660000" />
<circle cx="94.959999" cy="1947.959961" r="19.980000" fill="red">
  <title>Istanbul</title>
</circle><line x1="510.959991" y1="1895.959961" x2="94.959999" y2="1947.959961" stroke="red" stroke-width="6.660000" />
<circle cx="505.959991" cy="1344.959961" r="19.980000" fill="red">
  <title>Shanghai</title>
</circle><line x1="94.959999" y1="1947.959961" x2="505.959991" y2="1344.959961" stroke="red" stroke-width="6.660000" />
<circle cx="402.959991" cy="846.960022" r="19.980000" fill="red">
  <title>Beijing</title>
</circle><line x1="505.959991" y1="1344.959961" x2="402.959991" y2="846.960022" stroke="red" stroke-width="6.660000" />
<circle cx="696.960022" cy="681.960022" r="19.980000" fill="red">
  <title>Mexico City</title>
</circle><line x1="402.959991" y1="846.960022" x2="696.960022" y2="681.960022" stroke="red" stroke-width="6.660000" />
<circle cx="1197.959961" cy="77.959999" r="19.980000" fill="red">
  <title>Mumbai</title>
</circle><line x1="696.960022" y1="681.960022" x2="1197.959961" y2="77.959999" stroke="red" stroke-width="6.660000" />
<circle cx="1252.959961" cy="126.959999" r="19.980000" fill="red">
  <title>Cairo</title>
</circle><line x1="1197.959961" y1="77.959999" x2="1252.959961" y2="126.959999" stroke="red" stroke-width="6.660000" />
<circle cx="1571.959961" cy="749.960022" r="19.980000" fill="red">
  <title>Karachi</title>
</circle><line x1="1252.959961" y1="126.959999" x2="1571.959961" y2="749.960022" stroke="red" stroke-width="6.660000" />
<circle cx="1840.959961" cy="623.960022" r="19.980000" fill="red">
  <title>Buenos Aires</title>
</circle><line x1="1571.959961" y1="749.960022" x2="1840.959961" y2="623.960022" stroke="red" stroke-width="6.660000" />
<circle cx="1641.959961" cy="946.960022" r="19.980000" fill="red">
  <title>New York</title>
</circle><line x1="1840.959961" y1="623.960022" x2="1641.959961" y2="946.960022" stroke="red" stroke-width="6.660000" />
</svg>
