<?xml version="1.0" encoding="UTF-8" standalone="no"?>
<svg width="500" height="500" viewBox="0 0 2074.000000 2074.000000" xmlns="http://www.w3.org/2000/svg">
<rect x="19.000000" y="19.000000" width="2036.000000" height="2036.000000" fill="black" />
<circle cx="338.959991" cy="1318.959961" r="19.980000" fill="red">
  <title>Tokyo</title>
</circle><line x1="318.959991" y1="620.960022" x2="338.959991" y2="1318.959961" stroke="red" stroke-width="6.660000" />
<circle cx="414.959991" cy="1471.959961" r="19.980000" fill="red">
  <title>Beijing</title>
</circle><line x1="338.959991" y1="1318.959961" x2="414.959991" y2="1471.959961" stroke="red" stroke-width="6.660000" />
<circle cx="841.960022" cy="1916.959961" r="19.980000" fill="red">
  <title>Osaka</title>
</circle><line x1="414.959991" y1="1471.959961" x2="841.960022" y2="1916.959961" stroke="red" stroke-width="6.660000" />
<circle cx="1047.959961" cy="1934.959961" r="19.980000" fill="red">
  <title>Chongqing</title>
</circle><line x1="841.960022" y1="1916.959961" x2="1047.959961" y2="1934.959961" stroke="red" stroke-width="6.660000" />
<circle cx="1821.959961" cy="1974.959961" r="19.980000" fill="red">
  <title>Cairo</title>
</circle><line x1="1047.959961" y1="1934.959961" x2="1821.959961" y2="1974.959961" stroke="red" stroke-width="6.660000" />
<circle cx="1545.959961" cy="1374.959961" r="19.980000" fill="red">
  <title>Karachi</title>
</circle><line x1="1821.959961" y1="1974.959961" x2="1545.959961" y2="1374.959961" stroke="red" stroke-width="6.660000" />
<circle cx="1779.959961" cy="1187.959961" r="19.980000" fill="red">
  <title>Mexico City</title>
</circle><line x1="1545.959961" y1="1374.959961" x2="1779.959961" y2="1187.959961" stroke="red" stroke-width="6.660000" />
<circle cx="1999.959961" cy="710.960022" r="19.980000" fill="red">
  <title>Buenos Aires</title>
</circle><line x1="1779.959961" y1="1187.959961" x2="1999.959961" y2="710.960022" stroke="red" stroke-width="6.660000" />
<circle cx="1928.959961" cy="308.959991" r="19.980000" fill="red">
  <title>Mumbai</title>
</circle><line x1="1999.959961" y1="710.960022" x2="1928.959961" y2="308.959991" stroke="red" stroke-width="6.660000" />
<circle cx="1580.959961" cy="267.959991" r="19.980000" fill="red">
  <title>Shanghai</title>
</circle><line x1="1928.959961" y1="308.959991" x2="1580.959961" y2="267.959991" stroke="red" stroke-width="6.660000" />
<circle cx="1530.959961" cy="867.960022" r="19.980000" fill="red">
  <title>New York</title>
</circle><line x1="1580.959961" y1="267.959991" x2="1530.959961" y2="867.960022" stroke="red" stroke-width="6.660000" />
<circle cx="1460.959961" cy="1367.959961" r="19.980000" fill="red">
  <title>Kolkata</title>
</circle><line x1="1530.959961" y1="867.960022" x2="1460.959961" y2="1367.959961" stroke="red" stroke-width="6.660000" />
<circle cx="1067.959961" cy="1262.959961" r="19.980000" fill="red">
  <title>Istanbul</title>
</circle><line x1="1460.959961" y1="1367.959961" x2="1067.959961" y2="1262.959961" stroke="red" stroke-width="6.660000" />
<circle cx="740.960022" cy="745.960022" r="19.980000" fill="red">
  <title>Delhi</title>
</circle><line x1="1067.959961" y1="1262.959961" x2="740.960022" y2="745.960022" stroke="red" stroke-width="6.660000" />
<circle cx="753.960022" cy="707.960022" r="19.980000" fill="red">
  <title>Dhaka</title>
</circle><line x1="740.960022" y1="745.960022" x2="753.960022" y2="707.960022" stroke="red" stroke-width="6.660000" />
<circle cx="318.959991" cy="620.960022" r="19.980000" fill="red">
  <title>São Paulo</title>
</circle><line x1="753.960022" y1="707.960022" x2="318.959991" y2="620.960022" stroke="red" stroke-width="6.660000" />
</svg>
