<?xml version="1.0" encoding="UTF-8" standalone="no"?>
<svg width="500" height="500" viewBox="0 0 2074.000000 2074.000000" xmlns="http://www.w3.org/2000/svg">
<rect x="19.000000" y="19.000000" width="2036.000000" height="2036.000000" fill="black" />
<circle cx="1564.959961" cy="478.959991" r="19.980000" fill="red">
  <title>Tokyo</title>
</circle><line x1="1505.959961" y1="45.959999" x2="1564.959961" y2="478.959991" stroke="red" stroke-width="6.660000" />
<circle cx="1310.959961" cy="660.960022" r="19.980000" fill="red">
  <title>Shanghai</title>
</circle><line x1="1564.959961" y1="478.959991" x2="1310.959961" y2="660.960022" stroke="red" stroke-width="6.660000" />
<circle cx="860.960022" cy="567.960022" r="19.980000" fill="red">
  <title>Delhi</title>
</circle><line x1="1310.959961" y1="660.960022" x2="860.960022" y2="567.960022" stroke="red" stroke-width="6.660000" />
<circle cx="230.959991" cy="490.959991" r="19.980000" fill="red">
  <title>Cairo</title>
</circle><line x1="860.960022" y1="567.960022" x2="230.959991" y2="490.959991" stroke="red" stroke-width="6.660000" />
<circle cx="1228.959961" cy="152.959991" r="19.980000" fill="red">
  <title>São Paulo</title>
</circle><line x1="230.959991" y1="490.959991" x2="1228.959961" y2="152.959991" stroke="red" stroke-width="6.660000" />
<circle cx="1505.959961" cy="45.959999" r="19.980000" fill="red">
  <title>Mexico City</title>
</circle><line x1="1228.959961" y1="152.959991" x2="1505.959961" y2="45.959999" stroke="red" stroke-width="6.660000" />
</svg>
