<?xml version="1.0" encoding="UTF-8" standalone="no"?>
<svg width="500" height="500" viewBox="0 0 2074.000000 2074.000000" xmlns="http://www.w3.org/2000/svg">
<rect x="19.000000" y="19.000000" width="2036.000000" height="2036.000000" fill="black" />
<circle cx="148.959991" cy="716.960022" r="19.980000" fill="red">
  <title>Tokyo</title>
</circle><line x1="155.959991" y1="754.960022" x2="148.959991" y2="716.960022" stroke="red" stroke-width="6.660000" />
<circle cx="165.959991" cy="161.959991" r="19.980000" fill="red">
  <title>Mexico City</title>
</circle><line x1="148.959991" y1="716.960022" x2="165.959991" y2="161.959991" stroke="red" stroke-width="6.660000" />
<circle cx="751.960022" cy="343.959991" r="19.980000" fill="red">
  <title>São Paulo</title>
</circle><line x1="165.959991" y1="161.959991" x2="751.960022" y2="343.959991" stroke="red" stroke-width="6.660000" />
<circle cx="1009.960022" cy="762.960022" r="19.980000" fill="red">
  <title>Mumbai</title>
</circle><line x1="751.960022" y1="343.959991" x2="1009.960022" y2="762.960022" stroke="red" stroke-width="6.660000" />
<circle cx="1997.959961" cy="618.960022" r="19.980000" fill="red">
  <title>Dhaka</title>
</circle><line x1="1009.960022" y1="762.960022" x2="1997.959961" y2="618.960022" stroke="red" stroke-width="6.660000" />
<circle cx="2005.959961" cy="344.959991" r="19.980000" fill="red">
  <title>Delhi</title>
</circle><line x1="1997.959961" y1="618.960022" x2="2005.959961" y2="344.959991" stroke="red" stroke-width="6.660000" />
<circle cx="1226.959961" cy="754.960022" r="19.980000" fill="red">
  <title>Cairo</title>
</circle><line x1="2005.959961" y1="344.959991" x2="1226.959961" y2="754.960022" stroke="red" stroke-width="6.660000" />
<circle cx="892.960022" cy="1698.959961" r="19.980000" fill="red">
  <title>Karachi</title>
</circle><line x1="1226.959961" y1="754.960022" x2="892.960022" y2="1698.959961" stroke="red" stroke-width="6.660000" />
<circle cx="921.960022" cy="1947.959961" r="19.980000" fill="red">
  <title>Shanghai</title>
</circle><line x1="892.960022" y1="1698.959961" x2="921.960022" y2="1947.959961" stroke="red" stroke-width="6.660000" />
<circle cx="506.959991" cy="1875.959961" r="19.980000" fill="red">
  <title>New York</title>
</circle><line x1="921.960022" y1="1947.959961" x2="506.959991" y2="1875.959961" stroke="red" stroke-width="6.660000" />
<circle cx="651.960022" cy="1190.959961" r="19.980000" fill="red">
  <title>Osaka</title>
</circle><line x1="506.959991" y1="1875.959961" x2="651.960022" y2="1190.959961" stroke="red" stroke-width="6.660000" />
<circle cx="155.959991" cy="754.960022" r="19.980000" fill="red">
  <title>Beijing</title>
</circle><line x1="651.960022" y1="1190.959961" x2="155.959991" y2="754.960022" stroke="red" stroke-width="6.660000" />
</svg>
