<?xml version="1.0" encoding="UTF-8" standalone="no"?>
<svg width="500" height="500" viewBox="0 0 2074.000000 2074.000000" xmlns="http://www.w3.org/2000/svg">
<rect x="19.000000" y="19.000000" width="2036.000000" height="2036.000000" fill="black" />
<circle cx="546.960022" cy="1217.959961" r="19.980000" fill="red">
  <title>Tokyo</title>
</circle><line x1="1139.959961" y1="1453.959961" x2="546.960022" y2="1217.959961" stroke="red" stroke-width="6.660000" />
<circle cx="370.959991" cy="154.959991" r="19.980000" fill="red">
  <title>Delhi</title>
</circle><line x1="546.960022" y1="1217.959961" x2="370.959991" y2="154.959991" stroke="red" stroke-width="6.660000" />
<circle cx="1329.959961" cy="646.960022" r="19.980000" fill="red">
  <title>Shanghai</title>
</circle><line x1="370.959991" y1="154.959991" x2="1329.959961" y2="646.960022" stroke="red" stroke-width="6.660000" />
<circle cx="1014.960022" cy="1073.959961" r="19.980000" fill="red">
  <title>Mexico City</title>
</circle><line x1="1329.959961" y1="646.960022" x2="1014.960022" y2="1073.959961" stroke="red" stroke-width="6.660000" />
<circle cx="1139.959961" cy="1453.959961" r="19.980000" fill="red">
  <title>São Paulo</title>
</circle><line x1="1014.960022" y1="1073.959961" x2="1139.959961" y2="1453.959961" stroke="red" stroke-width="6.660000" />
</svg>
