<?xml version="1.0" encoding="UTF-8" standalone="no"?>
<svg width="500" height="500" viewBox="0 0 2074.000000 2074.000000" xmlns="http://www.w3.org/2000/svg">
<rect x="19.000000" y="19.000000" width="2036.000000" height="2036.000000" fill="black" />
<circle cx="805.960022" cy="1068.959961" r="19.980000" fill="red">
  <title>Tokyo</title>
</circle><line x1="839.960022" y1="845.960022" x2="805.960022" y2="1068.959961" stroke="red" stroke-width="6.660000" />
<circle cx="224.959991" cy="1970.959961" r="19.980000" fill="red">
  <title>Shanghai</title>
</circle><line x1="805.960022" y1="1068.959961" x2="224.959991" y2="1970.959961" stroke="red" stroke-width="6.660000" />
<circle cx="795.960022" cy="1967.959961" r="19.980000" fill="red">
  <title>Delhi</title>
</circle><line x1="224.959991" y1="1970.959961" x2="795.960022" y2="1967.959961" stroke="red" stroke-width="6.660000" />
<circle cx="1627.959961" cy="2020.959961" r="19.980000" fill="red">
  <title>Cairo</title>
</circle><line x1="795.960022" y1="1967.959961" x2="1627.959961" y2="2020.959961" stroke="red" stroke-width="6.660000" />
<circle cx="1855.959961" cy="1014.960022" r="19.980000" fill="red">
  <title>São Paulo</title>
</circle><line x1="1627.959961" y1="2020.959961" x2="1855.959961" y2="1014.960022" stroke="red" stroke-width="6.660000" />
<circle cx="971.960022" cy="800.960022" r="19.980000" fill="red">
  <title>Mexico City</title>
</circle><line x1="1855.959961" y1="1014.960022" x2="971.960022" y2="800.960022" stroke="red" stroke-width="6.660000" />
<circle cx="839.960022" cy="845.960022" r="19.980000" fill="red">
  <title>Mumbai</title>
</circle><line x1="971.960022" y1="800.960022" x2="839.960022" y2="845.960022" stroke="red" stroke-width="6.660000" />
</svg>
