<?xml version="1.0" encoding="UTF-8" standalone="no"?>
<svg width="500" height="500" viewBox="0 0 2074.000000 2074.000000" xmlns="http://www.w3.org/2000/svg">
<rect x="19.000000" y="19.000000" width="2036.000000" height="2036.000000" fill="black" />
<circle cx="1081.959961" cy="261.959991" r="19.980000" fill="red">
  <title>Tokyo</title>
</circle><line x1="1349.959961" y1="1046.959961" x2="1081.959961" y2="261.959991" stroke="red" stroke-width="6.660000" />
<circle cx="1160.959961" cy="84.959999" r="19.980000" fill="red">
  <title>Delhi</title>
</circle><line x1="1081.959961" y1="261.959991" x2="1160.959961" y2="84.959999" stroke="red" stroke-width="6.660000" />
<circle cx="1973.959961" cy="167.959991" r="19.980000" fill="red">
  <title>Mumbai</title>
</circle><line x1="1160.959961" y1="84.959999" x2="1973.959961" y2="167.959991" stroke="red" stroke-width="6.660000" />
<circle cx="2010.959961" cy="566.960022" r="19.980000" fill="red">
  <title>Cairo</title>
</circle><line x1="1973.959961" y1="167.959991" x2="2010.959961" y2="566.960022" stroke="red" stroke-width="6.660000" />
<circle cx="1878.959961" cy="1202.959961" r="19.980000" fill="red">
  <title>Mexico City</title>
</circle><line x1="2010.959961" y1="566.960022" x2="1878.959961" y2="1202.959961" stroke="red" stroke-width="6.660000" />
<circle cx="1715.959961" cy="1672.959961" r="19.980000" fill="red">
  <title>Shanghai</title>
</circle><line x1="1878.959961" y1="1202.959961" x2="1715.959961" y2="1672.959961" stroke="red" stroke-width="6.660000" />
<circle cx="1354.959961" cy="1428.959961" r="19.980000" fill="red">
  <title>Beijing</title>
</circle><line x1="1715.959961" y1="1672.959961" x2="1354.959961" y2="1428.959961" stroke="red" stroke-width="6.660000" />
<circle cx="854.960022" cy="1482.959961" r="19.980000" fill="red">
  <title>São Paulo</title>
</circle><line x1="1354.959961" y1="1428.959961" x2="854.960022" y2="1482.959961" stroke="red" stroke-width="6.660000" />
<circle cx="1349.959961" cy="1046.959961" r="19.980000" fill="red">
  <title>Dhaka</title>
</circle><line x1="854.960022" y1="1482.959961" x2="1349.959961" y2="1046.959961" stroke="red" stroke-width="6.660000" />
</svg>
