<?xml version="1.0" encoding="UTF-8" standalone="no"?>
<svg width="500" height="500" viewBox="0 0 2074.000000 2074.000000" xmlns="http://www.w3.org/2000/svg">
<rect x="19.000000" y="19.000000" width="2036.000000" height="2036.000000" fill="black" />
<circle cx="1395.959961" cy="1216.959961" r="19.980000" fill="red">
  <title>Tokyo</title>
</circle><line x1="961.960022" y1="1892.959961" x2="1395.959961" y2="1216.959961" stroke="red" stroke-width="6.660000" />
<circle cx="1682.959961" cy="713.960022" r="19.980000" fill="red">
  <title>Delhi</title>
</circle><line x1="1395.959961" y1="1216.959961" x2="1682.959961" y2="713.960022" stroke="red" stroke-width="6.660000" />
<circle cx="1660.959961" cy="584.960022" r="19.980000" fill="red">
  <title>Dhaka</title>
</circle><line x1="1682.959961" y1="713.960022" x2="1660.959961" y2="584.960022" stroke="red" stroke-width="6.660000" />
<circle cx="1212.959961" cy="64.959999" r="19.980000" fill="red">
  <title>Cairo</title>
</circle><line x1="1660.959961" y1="584.960022" x2="1212.959961" y2="64.959999" stroke="red" stroke-width="6.660000" />
<circle cx="463.959991" cy="512.960022" r="19.980000" fill="red">
  <title>Mumbai</title>
</circle><line x1="1212.959961" y1="64.959999" x2="463.959991" y2="512.960022" stroke="red" stroke-width="6.660000" />
<circle cx="549.960022" cy="993.960022" r="19.980000" fill="red">
  <title>Mexico City</title>
</circle><line x1="463.959991" y1="512.960022" x2="549.960022" y2="993.960022" stroke="red" stroke-width="6.660000" />
<circle cx="695.960022" cy="1211.959961" r="19.980000" fill="red">
  <title>New York</title>
</circle><line x1="549.960022" y1="993.960022" x2="695.960022" y2="1211.959961" stroke="red" stroke-width="6.660000" />
<circle cx="334.959991" cy="1323.959961" r="19.980000" fill="red">
  <title>São Paulo</title>
</circle><line x1="695.960022" y1="1211.959961" x2="334.959991" y2="1323.959961" stroke="red" stroke-width="6.660000" />
<circle cx="129.959991" cy="1300.959961" r="19.980000" fill="red">
  <title>Osaka</title>
</circle><line x1="334.959991" y1="1323.959961" x2="129.959991" y2="1300.959961" stroke="red" stroke-width="6.660000" />
<circle cx="357.959991" cy="1791.959961" r="19.980000" fill="red">
  <title>Beijing</title>
</circle><line x1="129.959991" y1="1300.959961" x2="357.959991" y2="1791.959961" stroke="red" stroke-width="6.660000" />
<circle cx="961.960022" cy="1892.959961" r="19.980000" fill="red">
  <title>Shanghai</title>
</circle><line x1="357.959991" y1="1791.959961" x2="961.960022" y2="1892.959961" stroke="red" stroke-width="6.660000" />
</svg>
