<?xml version="1.0" encoding="UTF-8" standalone="no"?>
<svg width="500" height="500" viewBox="0 0 2074.000000 2074.000000" xmlns="http://www.w3.org/2000/svg">
<rect x="19.000000" y="19.000000" width="2036.000000" height="2036.000000" fill="black" />
<circle cx="923.960022" cy="135.959991" r="19.980000" fill="red">
  <title>Tokyo</title>
</circle><line x1="1364.959961" y1="340.959991" x2="923.960022" y2="135.959991" stroke="red" stroke-width="6.660000" />
<circle cx="223.959991" cy="202.959991" r="19.980000" fill="red">
  <title>Mexico City</title>
</circle><line x1="923.960022" y1="135.959991" x2="223.959991" y2="202.959991" stroke="red" stroke-width="6.660000" />
<circle cx="642.960022" cy="300.959991" r="19.980000" fill="red">
  <title>Dhaka</title>
</circle><line x1="223.959991" y1="202.959991" x2="642.960022" y2="300.959991" stroke="red" stroke-width="6.660000" />
<circle cx="972.960022" cy="518.960022" r="19.980000" fill="red">
  <title>São Paulo</title>
</circle><line x1="642.960022" y1="300.959991" x2="972.960022" y2="518.960022" stroke="red" stroke-width="6.660000" />
<circle cx="906.960022" cy="1117.959961" r="19.980000" fill="red">
  <title>Osaka</title>
</circle><line x1="972.960022" y1="518.960022" x2="906.960022" y2="1117.959961" stroke="red" stroke-width="6.660000" />
<circle cx="526.960022" cy="1951.959961" r="19.980000" fill="red">
  <title>Delhi</title>
</circle><line x1="906.960022" y1="1117.959961" x2="526.960022" y2="1951.959961" stroke="red" stroke-width="6.660000" />
<circle cx="1251.959961" cy="1836.959961" r="19.980000" fill="red">
  <title>Shanghai</title>
</circle><line x1="526.960022" y1="1951.959961" x2="1251.959961" y2="1836.959961" stroke="red" stroke-width="6.660000" />
<circle cx="1954.959961" cy="1891.959961" r="19.980000" fill="red">
  <title>Beijing</title>
</circle><line x1="1251.959961" y1="1836.959961" x2="1954.959961" y2="1891.959961" stroke="red" stroke-width="6.660000" />
<circle cx="1060.959961" cy="824.960022" r="19.980000" fill="red">
  <title>Cairo</title>
</circle><line x1="1954.959961" y1="1891.959961" x2="1060.959961" y2="824.960022" stroke="red" stroke-width="6.660000" />
<circle cx="1364.959961" cy="340.959991" r="19.980000" fill="red">
  <title>Mumbai</title>
</circle><line x1="1060.959961" y1="824.960022" x2="1364.959961" y2="340.959991" stroke="red" stroke-width="6.660000" />
</svg>
