<?xml version="1.0" encoding="UTF-8" standalone="no"?>
<svg width="500" height="500" viewBox="0 0 2074.000000 2074.000000" xmlns="http://www.w3.org/2000/svg">
<rect x="19.000000" y="19.000000" width="2036.000000" height="2036.000000" fill="black" />
<circle cx="467.959991" cy="1884.959961" r="19.980000" fill="red">
  <title>Tokyo</title>
</circle><line x1="76.959999" y1="1386.959961" x2="467.959991" y2="1884.959961" stroke="red" stroke-width="6.660000" />
<circle cx="289.959991" cy="1343.959961" r="19.980000" fill="red">
  <title>Cairo</title>
</circle><line x1="467.959991" y1="1884.959961" x2="289.959991" y2="1343.959961" stroke="red" stroke-width="6.660000" />
<circle cx="682.960022" cy="987.960022" r="19.980000" fill="red">
  <title>Delhi</title>
</circle><line x1="289.959991" y1="1343.959961" x2="682.960022" y2="987.960022" stroke="red" stroke-width="6.660000" />
<circle cx="957.960022" cy="807.960022" r="19.980000" fill="red">
  <title>Buenos Aires</title>
</circle><line x1="682.960022" y1="987.960022" x2="957.960022" y2="807.960022" stroke="red" stroke-width="6.660000" />
<circle cx="980.960022" cy="857.960022" r="19.980000" fill="red">
  <title>São Paulo</title>
</circle><line x1="957.960022" y1="807.960022" x2="980.960022" y2="857.960022" stroke="red" stroke-width="6.660000" />
<circle cx="1407.959961" cy="1294.959961" r="19.980000" fill="red">
  <title>Beijing</title>
</circle><line x1="980.960022" y1="857.960022" x2="1407.959961" y2="1294.959961" stroke="red" stroke-width="6.660000" />
<circle cx="1727.959961" cy="1328.959961" r="19.980000" fill="red">
  <title>Mexico City</title>
</circle><line x1="1407.959961" y1="1294.959961" x2="1727.959961" y2="1328.959961" stroke="red" stroke-width="6.660000" />
<circle cx="1982.959961" cy="1418.959961" r="19.980000" fill="red">
  <title>Shanghai</title>
</circle><line x1="1727.959961" y1="1328.959961" x2="1982.959961" y2="1418.959961" stroke="red" stroke-width="6.660000" />
<circle cx="2022.959961" cy="1352.959961" r="19.980000" fill="red">
  <title>Karachi</title>
</circle><line x1="1982.959961" y1="1418.959961" x2="2022.959961" y2="1352.959961" stroke="red" stroke-width="6.660000" />
<circle cx="2024.959961" cy="926.960022" r="19.980000" fill="red">
  <title>Mumbai</title>
</circle><line x1="2022.959961" y1="1352.959961" x2="2024.959961" y2="926.960022" stroke="red" stroke-width="6.660000" />
<circle cx="1416.959961" cy="215.959991" r="19.980000" fill="red">
  <title>Chongqing</title>
</circle><line x1="2024.959961" y1="926.960022" x2="1416.959961" y2="215.959991" stroke="red" stroke-width="6.660000" />
<circle cx="1177.959961" cy="247.959991" r="19.980000" fill="red">
  <title>New York</title>
</circle><line x1="1416.959961" y1="215.959991" x2="1177.959961" y2="247.959991" stroke="red" stroke-width="6.660000" />
<circle cx="114.959999" cy="419.959991" r="19.980000" fill="red">
  <title>Osaka</title>
</circle><line x1="1177.959961" y1="247.959991" x2="114.959999" y2="419.959991" stroke="red" stroke-width="6.660000" />
<circle cx="76.959999" cy="1386.959961" r="19.980000" fill="red">
  <title>Dhaka</title>
</circle><line x1="114.959999" y1="419.959991" x2="76.959999" y2="1386.959961" stroke="red" stroke-width="6.660000" />
</svg>
