<?xml version="1.0" encoding="UTF-8" standalone="no"?>
<svg width="500" height="500" viewBox="0 0 2074.000000 2074.000000" xmlns="http://www.w3.org/2000/svg">
<rect x="19.000000" y="19.000000" width="2036.000000" height="2036.000000" fill="black" />
<circle cx="647.960022" cy="1464.959961" r="19.980000" fill="red">
  <title>Tokyo</title>
</circle><line x1="193.959991" y1="1830.959961" x2="647.960022" y2="1464.959961" stroke="red" stroke-width="6.660000" />
<circle cx="889.960022" cy="965.960022" r="19.980000" fill="red">
  <title>Cairo</title>
</circle><line x1="647.960022" y1="1464.959961" x2="889.960022" y2="965.960022" stroke="red" stroke-width="6.660000" />
<circle cx="309.959991" cy="770.960022" r="19.980000" fill="red">
  <title>Shanghai</title>
</circle><line x1="889.960022" y1="965.960022" x2="309.959991" y2="770.960022" stroke="red" stroke-width="6.660000" />
<circle cx="409.959991" cy="614.960022" r="19.980000" fill="red">
  <title>Buenos Aires</title>
</circle><line x1="309.959991" y1="770.960022" x2="409.959991" y2="614.960022" stroke="red" stroke-width="6.660000" />
<circle cx="91.959999" cy="191.959991" r="19.980000" fill="red">
  <title>Karachi</title>
</circle><line x1="409.959991" y1="614.960022" x2="91.959999" y2="191.959991" stroke="red" stroke-width="6.660000" />
<circle cx="819.960022" cy="335.959991" r="19.980000" fill="red">
  <title>São Paulo</title>
</circle><line x1="91.959999" y1="191.959991" x2="819.960022" y2="335.959991" stroke="red" stroke-width="6.660000" />
<circle cx="1653.959961" cy="745.960022" r="19.980000" fill="red">
  <title>Mexico City</title>
</circle><line x1="819.960022" y1="335.959991" x2="1653.959961" y2="745.960022" stroke="red" stroke-width="6.660000" />
<circle cx="2007.959961" cy="825.960022" r="19.980000" fill="red">
  <title>Beijing</title>
</circle><line x1="1653.959961" y1="745.960022" x2="2007.959961" y2="825.960022" stroke="red" stroke-width="6.660000" />
<circle cx="1542.959961" cy="1214.959961" r="19.980000" fill="red">
  <title>Mumbai</title>
</circle><line x1="2007.959961" y1="825.960022" x2="1542.959961" y2="1214.959961" stroke="red" stroke-width="6.660000" />
<circle cx="1103.959961" cy="1373.959961" r="19.980000" fill="red">
  <title>Osaka</title>
</circle><line x1="1542.959961" y1="1214.959961" x2="1103.959961" y2="1373.959961" stroke="red" stroke-width="6.660000" />
<circle cx="1335.959961" cy="1999.959961" r="19.980000" fill="red">
  <title>Delhi</title>
</circle><line x1="1103.959961" y1="1373.959961" x2="1335.959961" y2="1999.959961" stroke="red" stroke-width="6.660000" />
<circle cx="901.960022" cy="1483.959961" r="19.980000" fill="red">
  <title>New York</title>
</circle><line x1="1335.959961" y1="1999.959961" x2="901.960022" y2="1483.959961" stroke="red" stroke-width="6.660000" />
<circle cx="193.959991" cy="1830.959961" r="19.980000" fill="red">
  <title>Dhaka</title>
</circle><line x1="901.960022" y1="1483.959961" x2="193.959991" y2="1830.959961" stroke="red" stroke-width="6.660000" />
</svg>
