<?xml version="1.0" encoding="UTF-8" standalone="no"?>
<svg width="500" height="500" viewBox="0 0 2074.000000 2074.000000" xmlns="http://www.w3.org/2000/svg">
<rect x="19.000000" y="19.000000" width="2036.000000" height="2036.000000" fill="black" />
<circle cx="843.960022" cy="449.959991" r="19.980000" fill="red">
  <title>Tokyo</title>
</circle><line x1="251.959991" y1="108.959999" x2="843.960022" y2="449.959991" stroke="red" stroke-width="6.660000" />
<circle cx="1016.960022" cy="747.960022" r="19.980000" fill="red">
  <title>Buenos Aires</title>
</circle><line x1="843.960022" y1="449.959991" x2="1016.960022" y2="747.960022" stroke="red" stroke-width="6.660000" />
<circle cx="1152.959961" cy="795.960022" r="19.980000" fill="red">
  <title>Chongqing</title>
</circle><line x1="1016.960022" y1="747.960022" x2="1152.959961" y2="795.960022" stroke="red" stroke-width="6.660000" />
<circle cx="1326.959961" cy="638.960022" r="19.980000" fill="red">
  <title>São Paulo</title>
</circle><line x1="1152.959961" y1="795.960022" x2="1326.959961" y2="638.960022" stroke="red" stroke-width="6.660000" />
<circle cx="1344.959961" cy="410.959991" r="19.980000" fill="red">
  <title>Mumbai</title>
</circle><line x1="1326.959961" y1="638.960022" x2="1344.959961" y2="410.959991" stroke="red" stroke-width="6.660000" />
<circle cx="1538.959961" cy="723.960022" r="19.980000" fill="red">
  <title>Delhi</title>
</circle><line x1="1344.959961" y1="410.959991" x2="1538.959961" y2="723.960022" stroke="red" stroke-width="6.660000" />
<circle cx="1460.959961" cy="1199.959961" r="19.980000" fill="red">
  <title>Mexico City</title>
</circle><line x1="1538.959961" y1="723.960022" x2="1460.959961" y2="1199.959961" stroke="red" stroke-width="6.660000" />
<circle cx="2011.959961" cy="1282.959961" r="19.980000" fill="red">
  <title>Osaka</title>
</circle><line x1="1460.959961" y1="1199.959961" x2="2011.959961" y2="1282.959961" stroke="red" stroke-width="6.660000" />
<circle cx="1599.959961" cy="1328.959961" r="19.980000" fill="red">
  <title>Cairo</title>
</circle><line x1="2011.959961" y1="1282.959961" x2="1599.959961" y2="1328.959961" stroke="red" stroke-width="6.660000" />
<circle cx="1193.959961" cy="1882.959961" r="19.980000" fill="red">
  <title>Beijing</title>
</circle><line x1="1599.959961" y1="1328.959961" x2="1193.959961" y2="1882.959961" stroke="red" stroke-width="6.660000" />
<circle cx="1203.959961" cy="1720.959961" r="19.980000" fill="red">
  <title>Shanghai</title>
</circle><line x1="1193.959961" y1="1882.959961" x2="1203.959961" y2="1720.959961" stroke="red" stroke-width="6.660000" />
<circle cx="936.960022" cy="1230.959961" r="19.980000" fill="red">
  <title>Dhaka</title>
</circle><line x1="1203.959961" y1="1720.959961" x2="936.960022" y2="1230.959961" stroke="red" stroke-width="6.660000" />
<circle cx="260.959991" cy="1388.959961" r="19.980000" fill="red">
  <title>New York</title>
</circle><line x1="936.960022" y1="1230.959961" x2="260.959991" y2="1388.959961" stroke="red" stroke-width="6.660000" />
<circle cx="474.959991" cy="751.960022" r="19.980000" fill="red">
  <title>Istanbul</title>
</circle><line x1="260.959991" y1="1388.959961" x2="474.959991" y2="751.960022" stroke="red" stroke-width="6.660000" />
<circle cx="251.959991" cy="108.959999" r="19.980000" fill="red">
  <title>Karachi</title>
</circle><line x1="474.959991" y1="751.960022" x2="251.959991" y2="108.959999" stroke="red" stroke-width="6.660000" />
</svg>
