<?xml version="1.0" encoding="UTF-8" standalone="no"?>
<svg width="500" height="500" viewBox="0 0 2074.000000 2074.000000" xmlns="http://www.w3.org/2000/svg">
<rect x="19.000000" y="19.000000" width="2036.000000" height="2036.000000" fill="black" />
<circle cx="809.960022" cy="982.960022" r="19.980000" fill="red">
  <title>Tokyo</title>
</circle><line x1="1138.959961" y1="1531.959961" x2="809.960022" y2="982.960022" stroke="red" stroke-width="6.660000" />
<circle cx="355.959991" cy="792.960022" r="19.980000" fill="red">
  <title>Beijing</title>
</circle><line x1="809.960022" y1="982.960022" x2="355.959991" y2="792.960022" stroke="red" stroke-width="6.660000" />
<circle cx="122.959999" cy="461.959991" r="19.980000" fill="red">
  <title>Dhaka</title>
</circle><line x1="355.959991" y1="792.960022" x2="122.959999" y2="461.959991" stroke="red" stroke-width="6.660000" />
<circle cx="140.959991" cy="380.959991" r="19.980000" fill="red">
  <title>Shanghai</title>
</circle><line x1="122.959999" y1="461.959991" x2="140.959991" y2="380.959991" stroke="red" stroke-width="6.660000" />
<circle cx="1114.959961" cy="718.960022" r="19.980000" fill="red">
  <title>Delhi</title>
</circle><line x1="140.959991" y1="380.959991" x2="1114.959961" y2="718.960022" stroke="red" stroke-width="6.660000" />
<circle cx="1733.959961" cy="241.959991" r="19.980000" fill="red">
  <title>Osaka</title>
</circle><line x1="1114.959961" y1="718.960022" x2="1733.959961" y2="241.959991" stroke="red" stroke-width="6.660000" />
<circle cx="1679.959961" cy="919.960022" r="19.980000" fill="red">
  <title>Mexico City</title>
</circle><line x1="1733.959961" y1="241.959991" x2="1679.959961" y2="919.960022" stroke="red" stroke-width="6.660000" />
<circle cx="1933.959961" cy="1764.959961" r="19.980000" fill="red">
  <title>Cairo</title>
</circle><line x1="1679.959961" y1="919.960022" x2="1933.959961" y2="1764.959961" stroke="red" stroke-width="6.660000" />
<circle cx="984.960022" cy="1836.959961" r="19.980000" fill="red">
  <title>São Paulo</title>
</circle><line x1="1933.959961" y1="1764.959961" x2="984.960022" y2="1836.959961" stroke="red" stroke-width="6.660000" />
<circle cx="1138.959961" cy="1531.959961" r="19.980000" fill="red">
  <title>Mumbai</title>
</circle><line x1="984.960022" y1="1836.959961" x2="1138.959961" y2="1531.959961" stroke="red" stroke-width="6.660000" />
</svg>
