<?xml version="1.0" encoding="UTF-8" standalone="no"?>
<svg width="500" height="500" viewBox="0 0 2074.000000 2074.000000" xmlns="http://www.w3.org/2000/svg">
<rect x="19.000000" y="19.000000" width="2036.000000" height="2036.000000" fill="black" />
<circle cx="836.960022" cy="860.960022" r="19.980000" fill="red">
  <title>Tokyo</title>
</circle><line x1="953.960022" y1="869.960022" x2="836.960022" y2="860.960022" stroke="red" stroke-width="6.660000" />
<circle cx="447.959991" cy="170.959991" r="19.980000" fill="red">
  <title>São Paulo</title>
</circle><line x1="836.960022" y1="860.960022" x2="447.959991" y2="170.959991" stroke="red" stroke-width="6.660000" />
<circle cx="759.960022" cy="514.960022" r="19.980000" fill="red">
  <title>Cairo</title>
</circle><line x1="447.959991" y1="170.959991" x2="759.960022" y2="514.960022" stroke="red" stroke-width="6.660000" />
<circle cx="1677.959961" cy="300.959991" r="19.980000" fill="red">
  <title>Karachi</title>
</circle><line x1="759.960022" y1="514.960022" x2="1677.959961" y2="300.959991" stroke="red" stroke-width="6.660000" />
<circle cx="1830.959961" cy="782.960022" r="19.980000" fill="red">
  <title>Delhi</title>
</circle><line x1="1677.959961" y1="300.959991" x2="1830.959961" y2="782.960022" stroke="red" stroke-width="6.660000" />
<circle cx="1744.959961" cy="844.960022" r="19.980000" fill="red">
  <title>Dhaka</title>
</circle><line x1="1830.959961" y1="782.960022" x2="1744.959961" y2="844.960022" stroke="red" stroke-width="6.660000" />
<circle cx="1458.959961" cy="1012.960022" r="19.980000" fill="red">
  <title>Osaka</title>
</circle><line x1="1744.959961" y1="844.960022" x2="1458.959961" y2="1012.960022" stroke="red" stroke-width="6.660000" />
<circle cx="1356.959961" cy="1359.959961" r="19.980000" fill="red">
  <title>Beijing</title>
</circle><line x1="1458.959961" y1="1012.960022" x2="1356.959961" y2="1359.959961" stroke="red" stroke-width="6.660000" />
<circle cx="1464.959961" cy="1413.959961" r="19.980000" fill="red">
  <title>Shanghai</title>
</circle><line x1="1356.959961" y1="1359.959961" x2="1464.959961" y2="1413.959961" stroke="red" stroke-width="6.660000" />
<circle cx="1527.959961" cy="1605.959961" r="19.980000" fill="red">
  <title>Mexico City</title>
</circle><line x1="1464.959961" y1="1413.959961" x2="1527.959961" y2="1605.959961" stroke="red" stroke-width="6.660000" />
<circle cx="1328.959961" cy="1584.959961" r="19.980000" fill="red">
  <title>Buenos Aires</title>
</circle><line x1="1527.959961" y1="1605.959961" x2="1328.959961" y2="1584.959961" stroke="red" stroke-width="6.660000" />
<circle cx="904.960022" cy="1488.959961" r="19.980000" fill="red">
  <title>Mumbai</title>
</circle><line x1="1328.959961" y1="1584.959961" x2="904.960022" y2="1488.959961" stroke="red" stroke-width="6.660000" />
<circle cx="953.960022" cy="869.960022" r="19.980000" fill="red">
  <title>New York</title>
</circle><line x1="904.960022" y1="1488.959961" x2="953.960022" y2="869.960022" stroke="red" stroke-width="6.660000" />
</svg>
