<?xml version="1.0" encoding="UTF-8" standalone="no"?>
<svg width="500" height="500" viewBox="0 0 2074.000000 2074.000000" xmlns="http://www.w3.org/2000/svg">
<rect x="19.000000" y="19.000000" width="2036.000000" height="2036.000000" fill="black" />
<circle cx="1008.960022" cy="1699.959961" r="19.980000" fill="red">
  <title>Tokyo</title>
</circle><line x1="1603.959961" y1="1452.959961" x2="1008.960022" y2="1699.959961" stroke="red" stroke-width="6.660000" />
<circle cx="333.959991" cy="1702.959961" r="19.980000" fill="red">
  <title>Shanghai</title>
</circle><line x1="1008.960022" y1="1699.959961" x2="333.959991" y2="1702.959961" stroke="red" stroke-width="6.660000" />
<circle cx="343.959991" cy="1578.959961" r="19.980000" fill="red">
  <title>New York</title>
</circle><line x1="333.959991" y1="1702.959961" x2="343.959991" y2="1578.959961" stroke="red" stroke-width="6.660000" />
<circle cx="497.959991" cy="1439.959961" r="19.980000" fill="red">
  <title>Delhi</title>
</circle><line x1="343.959991" y1="1578.959961" x2="497.959991" y2="1439.959961" stroke="red" stroke-width="6.660000" />
<circle cx="901.960022" cy="1050.959961" r="19.980000" fill="red">
  <title>Osaka</title>
</circle><line x1="497.959991" y1="1439.959961" x2="901.960022" y2="1050.959961" stroke="red" stroke-width="6.660000" />
<circle cx="510.959991" cy="1049.959961" r="19.980000" fill="red">
  <title>São Paulo</title>
</circle><line x1="901.960022" y1="1050.959961" x2="510.959991" y2="1049.959961" stroke="red" stroke-width="6.660000" />
<circle cx="421.959991" cy="693.960022" r="19.980000" fill="red">
  <title>Karachi</title>
</circle><line x1="510.959991" y1="1049.959961" x2="421.959991" y2="693.960022" stroke="red" stroke-width="6.660000" />
<circle cx="191.959991" cy="573.960022" r="19.980000" fill="red">
  <title>Kolkata</title>
</circle><line x1="421.959991" y1="693.960022" x2="191.959991" y2="573.960022" stroke="red" stroke-width="6.660000" />
<circle cx="43.959999" cy="475.959991" r="19.980000" fill="red">
  <title>Cairo</title>
</circle><line x1="191.959991" y1="573.960022" x2="43.959999" y2="475.959991" stroke="red" stroke-width="6.660000" />
<circle cx="51.959999" cy="125.959999" r="19.980000" fill="red">
  <title>Mumbai</title>
</circle><line x1="43.959999" y1="475.959991" x2="51.959999" y2="125.959999" stroke="red" stroke-width="6.660000" />
<circle cx="313.959991" cy="446.959991" r="19.980000" fill="red">
  <title>Rio de Janeiro</title>
</circle><line x1="51.959999" y1="125.959999" x2="313.959991" y2="446.959991" stroke="red" stroke-width="6.660000" />
<circle cx="740.960022" cy="314.959991" r="19.980000" fill="red">
  <title>Chongqing</title>
</circle><line x1="313.959991" y1="446.959991" x2="740.960022" y2="314.959991" stroke="red" stroke-width="6.660000" />
<circle cx="1113.959961" cy="649.960022" r="19.980000" fill="red">
  <title>Manila</title>
</circle><line x1="740.960022" y1="314.959991" x2="1113.959961" y2="649.960022" stroke="red" stroke-width="6.660000" />
<circle cx="1422.959961" cy="723.960022" r="19.980000" fill="red">
  <title>Dhaka</title>
</circle><line x1="1113.959961" y1="649.960022" x2="1422.959961" y2="723.960022" stroke="red" stroke-width="6.660000" />
<circle cx="1528.959961" cy="620.960022" r="19.980000" fill="red">
  <title>Beijing</title>
</circle><line x1="1422.959961" y1="723.960022" x2="1528.959961" y2="620.960022" stroke="red" stroke-width="6.660000" />
<circle cx="1697.959961" cy="81.959999" r="19.980000" fill="red">
  <title>Mexico City</title>
</circle><line x1="1528.959961" y1="620.960022" x2="1697.959961" y2="81.959999" stroke="red" stroke-width="6.660000" />
<circle cx="1968.959961" cy="390.959991" r="19.980000" fill="red">
  <title>Buenos Aires</title>
</circle><line x1="1697.959961" y1="81.959999" x2="1968.959961" y2="390.959991" stroke="red" stroke-width="6.660000" />
<circle cx="1973.959961" cy="1408.959961" r="19.980000" fill="red">
  <title>Lagos</title>
</circle><line x1="1968.959961" y1="390.959991" x2="1973.959961" y2="1408.959961" stroke="red" stroke-width="6.660000" />
<circle cx="1603.959961" cy="1452.959961" r="19.980000" fill="red">
  <title>Istanbul</title>
</circle><line x1="1973.959961" y1="1408.959961" x2="1603.959961" y2="1452.959961" stroke="red" stroke-width="6.660000" />
</svg>
