<?xml version="1.0" encoding="UTF-8" standalone="no"?>
<svg width="500" height="500" viewBox="0 0 2074.000000 2074.000000" xmlns="http://www.w3.org/2000/svg">
<rect x="19.000000" y="19.000000" width="2036.000000" height="2036.000000" fill="black" />
<circle cx="1058.959961" cy="1896.959961" r="19.980000" fill="red">
  <title>Tokyo</title>
</circle><line x1="1007.960022" y1="1654.959961" x2="1058.959961" y2="1896.959961" stroke="red" stroke-width="6.660000" />
<circle cx="1271.959961" cy="2027.959961" r="19.980000" fill="red">
  <title>Shanghai</title>
</circle><line x1="1058.959961" y1="1896.959961" x2="1271.959961" y2="2027.959961" stroke="red" stroke-width="6.660000" />
<circle cx="1986.959961" cy="1467.959961" r="19.980000" fill="red">
  <title>Beijing</title>
</circle><line x1="1271.959961" y1="2027.959961" x2="1986.959961" y2="1467.959961" stroke="red" stroke-width="6.660000" />
<circle cx="1553.959961" cy="1197.959961" r="19.980000" fill="red">
  <title>Mexico City</title>
</circle><line x1="1986.959961" y1="1467.959961" x2="1553.959961" y2="1197.959961" stroke="red" stroke-width="6.660000" />
<circle cx="1521.959961" cy="941.960022" r="19.980000" fill="red">
  <title>São Paulo</title>
</circle><line x1="1553.959961" y1="1197.959961" x2="1521.959961" y2="941.960022" stroke="red" stroke-width="6.660000" />
<circle cx="1570.959961" cy="692.960022" r="19.980000" fill="red">
  <title>Delhi</title>
</circle><line x1="1521.959961" y1="941.960022" x2="1570.959961" y2="692.960022" stroke="red" stroke-width="6.660000" />
<circle cx="1486.959961" cy="602.960022" r="19.980000" fill="red">
  <title>Mumbai</title>
</circle><line x1="1570.959961" y1="692.960022" x2="1486.959961" y2="602.960022" stroke="red" stroke-width="6.660000" />
<circle cx="1395.959961" cy="373.959991" r="19.980000" fill="red">
  <title>New York</title>
</circle><line x1="1486.959961" y1="602.960022" x2="1395.959961" y2="373.959991" stroke="red" stroke-width="6.660000" />
<circle cx="954.960022" cy="234.959991" r="19.980000" fill="red">
  <title>Dhaka</title>
</circle><line x1="1395.959961" y1="373.959991" x2="954.960022" y2="234.959991" stroke="red" stroke-width="6.660000" />
<circle cx="564.960022" cy="496.959991" r="19.980000" fill="red">
  <title>Osaka</title>
</circle><line x1="954.960022" y1="234.959991" x2="564.960022" y2="496.959991" stroke="red" stroke-width="6.660000" />
<circle cx="128.959991" cy="506.959991" r="19.980000" fill="red">
  <title>Buenos Aires</title>
</circle><line x1="564.960022" y1="496.959991" x2="128.959991" y2="506.959991" stroke="red" stroke-width="6.660000" />
<circle cx="578.960022" cy="1015.960022" r="19.980000" fill="red">
  <title>Karachi</title>
</circle><line x1="128.959991" y1="506.959991" x2="578.960022" y2="1015.960022" stroke="red" stroke-width="6.660000" />
<circle cx="1007.960022" cy="1654.959961" r="19.980000" fill="red">
  <title>Cairo</title>
</circle><line x1="578.960022" y1="1015.960022" x2="1007.960022" y2="1654.959961" stroke="red" stroke-width="6.660000" />
</svg>
