<?xml version="1.0" encoding="UTF-8" standalone="no"?>
<svg width="500" height="500" viewBox="0 0 2074.000000 2074.000000" xmlns="http://www.w3.org/2000/svg">
<rect x="19.000000" y="19.000000" width="2036.000000" height="2036.000000" fill="black" />
<circle cx="1612.959961" cy="1017.960022" r="19.980000" fill="red">
  <title>Tokyo</title>
</circle><line x1="1536.959961" y1="1005.960022" x2="1612.959961" y2="1017.960022" stroke="red" stroke-width="6.660000" />
<circle cx="1883.959961" cy="1052.959961" r="19.980000" fill="red">
  <title>Shanghai</title>
</circle><line x1="1612.959961" y1="1017.960022" x2="1883.959961" y2="1052.959961" stroke="red" stroke-width="6.660000" />
<circle cx="1612.959961" cy="1116.959961" r="19.980000" fill="red">
  <title>Beijing</title>
</circle><line x1="1883.959961" y1="1052.959961" x2="1612.959961" y2="1116.959961" stroke="red" stroke-width="6.660000" />
<circle cx="793.960022" cy="1520.959961" r="19.980000" fill="red">
  <title>Osaka</title>
</circle><line x1="1612.959961" y1="1116.959961" x2="793.960022" y2="1520.959961" stroke="red" stroke-width="6.660000" />
<circle cx="100.959999" cy="2025.959961" r="19.980000" fill="red">
  <title>Delhi</title>
</circle><line x1="793.960022" y1="1520.959961" x2="100.959999" y2="2025.959961" stroke="red" stroke-width="6.660000" />
<circle cx="84.959999" cy="1784.959961" r="19.980000" fill="red">
  <title>Mexico City</title>
</circle><line x1="100.959999" y1="2025.959961" x2="84.959999" y2="1784.959961" stroke="red" stroke-width="6.660000" />
<circle cx="507.959991" cy="1467.959961" r="19.980000" fill="red">
  <title>Mumbai</title>
</circle><line x1="84.959999" y1="1784.959961" x2="507.959991" y2="1467.959961" stroke="red" stroke-width="6.660000" />
<circle cx="224.959991" cy="110.959999" r="19.980000" fill="red">
  <title>Cairo</title>
</circle><line x1="507.959991" y1="1467.959961" x2="224.959991" y2="110.959999" stroke="red" stroke-width="6.660000" />
<circle cx="853.960022" cy="84.959999" r="19.980000" fill="red">
  <title>São Paulo</title>
</circle><line x1="224.959991" y1="110.959999" x2="853.960022" y2="84.959999" stroke="red" stroke-width="6.660000" />
<circle cx="1030.959961" cy="369.959991" r="19.980000" fill="red">
  <title>Dhaka</title>
</circle><line x1="853.960022" y1="84.959999" x2="1030.959961" y2="369.959991" stroke="red" stroke-width="6.660000" />
<circle cx="1536.959961" cy="1005.960022" r="19.980000" fill="red">
  <title>New York</title>
</circle><line x1="1030.959961" y1="369.959991" x2="1536.959961" y2="1005.960022" stroke="red" stroke-width="6.660000" />
</svg>
