<?xml version="1.0" encoding="UTF-8" standalone="no"?>
<svg width="500" height="500" viewBox="0 0 2074.000000 2074.000000" xmlns="http://www.w3.org/2000/svg">
<rect x="19.000000" y="19.000000" width="2036.000000" height="2036.000000" fill="black" />
<circle cx="1599.959961" cy="1512.959961" r="19.980000" fill="red">
  <title>Tokyo</title>
</circle><line x1="945.960022" y1="1060.959961" x2="1599.959961" y2="1512.959961" stroke="red" stroke-width="6.660000" />
<circle cx="1754.959961" cy="1497.959961" r="19.980000" fill="red">
  <title>Delhi</title>
</circle><line x1="1599.959961" y1="1512.959961" x2="1754.959961" y2="1497.959961" stroke="red" stroke-width="6.660000" />
<circle cx="1715.959961" cy="937.960022" r="19.980000" fill="red">
  <title>Osaka</title>
</circle><line x1="1754.959961" y1="1497.959961" x2="1715.959961" y2="937.960022" stroke="red" stroke-width="6.660000" />
<circle cx="1441.959961" cy="1048.959961" r="19.980000" fill="red">
  <title>New York</title>
</circle><line x1="1715.959961" y1="937.960022" x2="1441.959961" y2="1048.959961" stroke="red" stroke-width="6.660000" />
<circle cx="796.960022" cy="221.959991" r="19.980000" fill="red">
  <title>Beijing</title>
</circle><line x1="1441.959961" y1="1048.959961" x2="796.960022" y2="221.959991" stroke="red" stroke-width="6.660000" />
<circle cx="502.959991" cy="76.959999" r="19.980000" fill="red">
  <title>São Paulo</title>
</circle><line x1="796.960022" y1="221.959991" x2="502.959991" y2="76.959999" stroke="red" stroke-width="6.660000" />
<circle cx="487.959991" cy="199.959991" r="19.980000" fill="red">
  <title>Mumbai</title>
</circle><line x1="502.959991" y1="76.959999" x2="487.959991" y2="199.959991" stroke="red" stroke-width="6.660000" />
<circle cx="876.960022" cy="928.960022" r="19.980000" fill="red">
  <title>Dhaka</title>
</circle><line x1="487.959991" y1="199.959991" x2="876.960022" y2="928.960022" stroke="red" stroke-width="6.660000" />
<circle cx="66.959999" cy="1787.959961" r="19.980000" fill="red">
  <title>Mexico City</title>
</circle><line x1="876.960022" y1="928.960022" x2="66.959999" y2="1787.959961" stroke="red" stroke-width="6.660000" />
<circle cx="156.959991" cy="1809.959961" r="19.980000" fill="red">
  <title>Cairo</title>
</circle><line x1="66.959999" y1="1787.959961" x2="156.959991" y2="1809.959961" stroke="red" stroke-width="6.660000" />
<circle cx="945.960022" cy="1060.959961" r="19.980000" fill="red">
  <title>Shanghai</title>
</circle><line x1="156.959991" y1="1809.959961" x2="945.960022" y2="1060.959961" stroke="red" stroke-width="6.660000" />
</svg>
