<?xml version="1.0" encoding="UTF-8" standalone="no"?>
<svg width="500" height="500" viewBox="0 0 2074.000000 2074.000000" xmlns="http://www.w3.org/2000/svg">
<rect x="19.000000" y="19.000000" width="2036.000000" height="2036.000000" fill="black" />
<circle cx="1979.959961" cy="423.959991" r="19.980000" fill="red">
  <title>Tokyo</title>
</circle><line x1="1771.959961" y1="590.960022" x2="1979.959961" y2="423.959991" stroke="red" stroke-width="6.660000" />
<circle cx="1474.959961" cy="548.960022" r="19.980000" fill="red">
  <title>Shanghai</title>
</circle><line x1="1979.959961" y1="423.959991" x2="1474.959961" y2="548.960022" stroke="red" stroke-width="6.660000" />
<circle cx="1055.959961" cy="68.959999" r="19.980000" fill="red">
  <title>São Paulo</title>
</circle><line x1="1474.959961" y1="548.960022" x2="1055.959961" y2="68.959999" stroke="red" stroke-width="6.660000" />
<circle cx="661.960022" cy="384.959991" r="19.980000" fill="red">
  <title>Mumbai</title>
</circle><line x1="1055.959961" y1="68.959999" x2="661.960022" y2="384.959991" stroke="red" stroke-width="6.660000" />
<circle cx="114.959999" cy="331.959991" r="19.980000" fill="red">
  <title>Cairo</title>
</circle><line x1="661.960022" y1="384.959991" x2="114.959999" y2="331.959991" stroke="red" stroke-width="6.660000" />
<circle cx="116.959999" cy="520.960022" r="19.980000" fill="red">
  <title>Chongqing</title>
</circle><line x1="114.959999" y1="331.959991" x2="116.959999" y2="520.960022" stroke="red" stroke-width="6.660000" />
<circle cx="510.959991" cy="549.960022" r="19.980000" fill="red">
  <title>Dhaka</title>
</circle><line x1="116.959999" y1="520.960022" x2="510.959991" y2="549.960022" stroke="red" stroke-width="6.660000" />
<circle cx="545.960022" cy="1095.959961" r="19.980000" fill="red">
  <title>Osaka</title>
</circle><line x1="510.959991" y1="549.960022" x2="545.960022" y2="1095.959961" stroke="red" stroke-width="6.660000" />
<circle cx="254.959991" cy="1685.959961" r="19.980000" fill="red">
  <title>Kolkata</title>
</circle><line x1="545.960022" y1="1095.959961" x2="254.959991" y2="1685.959961" stroke="red" stroke-width="6.660000" />
<circle cx="779.960022" cy="1095.959961" r="19.980000" fill="red">
  <title>Buenos Aires</title>
</circle><line x1="254.959991" y1="1685.959961" x2="779.960022" y2="1095.959961" stroke="red" stroke-width="6.660000" />
<circle cx="1111.959961" cy="786.960022" r="19.980000" fill="red">
  <title>Lagos</title>
</circle><line x1="779.960022" y1="1095.959961" x2="1111.959961" y2="786.960022" stroke="red" stroke-width="6.660000" />
<circle cx="1276.959961" cy="1024.959961" r="19.980000" fill="red">
  <title>Karachi</title>
</circle><line x1="1111.959961" y1="786.960022" x2="1276.959961" y2="1024.959961" stroke="red" stroke-width="6.660000" />
<circle cx="1323.959961" cy="1597.959961" r="19.980000" fill="red">
  <title>Mexico City</title>
</circle><line x1="1276.959961" y1="1024.959961" x2="1323.959961" y2="1597.959961" stroke="red" stroke-width="6.660000" />
<circle cx="1349.959961" cy="1737.959961" r="19.980000" fill="red">
  <title>Manila</title>
</circle><line x1="1323.959961" y1="1597.959961" x2="1349.959961" y2="1737.959961" stroke="red" stroke-width="6.660000" />
<circle cx="1809.959961" cy="1839.959961" r="19.980000" fill="red">
  <title>Beijing</title>
</circle><line x1="1349.959961" y1="1737.959961" x2="1809.959961" y2="1839.959961" stroke="red" stroke-width="6.660000" />
<circle cx="1522.959961" cy="1463.959961" r="19.980000" fill="red">
  <title>Delhi</title>
</circle><line x1="1809.959961" y1="1839.959961" x2="1522.959961" y2="1463.959961" stroke="red" stroke-width="6.660000" />
<circle cx="1743.959961" cy="965.960022" r="19.980000" fill="red">
  <title>Istanbul</title>
</circle><line x1="1522.959961" y1="1463.959961" x2="1743.959961" y2="965.960022" stroke="red" stroke-width="6.660000" />
<circle cx="1771.959961" cy="590.960022" r="19.980000" fill="red">
  <title>New York</title>
</circle><line x1="1743.959961" y1="965.960022" x2="1771.959961" y2="590.960022" stroke="red" stroke-width="6.660000" />
</svg>
