<?xml version="1.0" encoding="UTF-8" standalone="no"?>
<svg width="500" height="500" viewBox="0 0 2074.000000 2074.000000" xmlns="http://www.w3.org/2000/svg">
<rect x="19.000000" y="19.000000" width="2036.000000" height="2036.000000" fill="black" />
<circle cx="1118.959961" cy="1840.959961" r="19.980000" fill="red">
  <title>Tokyo</title>
</circle><line x1="1365.959961" y1="1132.959961" x2="1118.959961" y2="1840.959961" stroke="red" stroke-width="6.660000" />
<circle cx="688.960022" cy="1665.959961" r="19.980000" fill="red">
  <title>Delhi</title>
</circle><line x1="1118.959961" y1="1840.959961" x2="688.960022" y2="1665.959961" stroke="red" stroke-width="6.660000" />
<circle cx="1365.959961" cy="1132.959961" r="19.980000" fill="red">
  <title>Shanghai</title>
</circle><line x1="688.960022" y1="1665.959961" x2="1365.959961" y2="1132.959961" stroke="red" stroke-width="6.660000" />
</svg>
