<?xml version="1.0" encoding="UTF-8" standalone="no"?>
<svg width="500" height="500" viewBox="0 0 2074.000000 2074.000000" xmlns="http://www.w3.org/2000/svg">
<rect x="19.000000" y="19.000000" width="2036.000000" height="2036.000000" fill="black" />
<circle cx="2037.959961" cy="646.960022" r="19.980000" fill="red">
  <title>Tokyo</title>
</circle><line x1="1101.959961" y1="1096.959961" x2="2037.959961" y2="646.960022" stroke="red" stroke-width="6.660000" />
<circle cx="1981.959961" cy="279.959991" r="19.980000" fill="red">
  <title>Mexico City</title>
</circle><line x1="2037.959961" y1="646.960022" x2="1981.959961" y2="279.959991" stroke="red" stroke-width="6.660000" />
<circle cx="1797.959961" cy="425.959991" r="19.980000" fill="red">
  <title>Beijing</title>
</circle><line x1="1981.959961" y1="279.959991" x2="1797.959961" y2="425.959991" stroke="red" stroke-width="6.660000" />
<circle cx="1443.959961" cy="391.959991" r="19.980000" fill="red">
  <title>Karachi</title>
</circle><line x1="1797.959961" y1="425.959991" x2="1443.959961" y2="391.959991" stroke="red" stroke-width="6.660000" />
<circle cx="1105.959961" cy="141.959991" r="19.980000" fill="red">
  <title>Cairo</title>
</circle><line x1="1443.959961" y1="391.959991" x2="1105.959961" y2="141.959991" stroke="red" stroke-width="6.660000" />
<circle cx="996.960022" cy="241.959991" r="19.980000" fill="red">
  <title>Istanbul</title>
</circle><line x1="1105.959961" y1="141.959991" x2="996.960022" y2="241.959991" stroke="red" stroke-width="6.660000" />
<circle cx="992.960022" cy="787.960022" r="19.980000" fill="red">
  <title>São Paulo</title>
</circle><line x1="996.960022" y1="241.959991" x2="992.960022" y2="787.960022" stroke="red" stroke-width="6.660000" />
<circle cx="388.959991" cy="996.960022" r="19.980000" fill="red">
  <title>Kolkata</title>
</circle><line x1="992.960022" y1="787.960022" x2="388.959991" y2="996.960022" stroke="red" stroke-width="6.660000" />
<circle cx="235.959991" cy="1088.959961" r="19.980000" fill="red">
  <title>Osaka</title>
</circle><line x1="388.959991" y1="996.960022" x2="235.959991" y2="1088.959961" stroke="red" stroke-width="6.660000" />
<circle cx="94.959999" cy="931.960022" r="19.980000" fill="red">
  <title>Chongqing</title>
</circle><line x1="235.959991" y1="1088.959961" x2="94.959999" y2="931.960022" stroke="red" stroke-width="6.660000" />
<circle cx="250.959991" cy="1101.959961" r="19.980000" fill="red">
  <title>Dhaka</title>
</circle><line x1="94.959999" y1="931.960022" x2="250.959991" y2="1101.959961" stroke="red" stroke-width="6.660000" />
<circle cx="264.959991" cy="1340.959961" r="19.980000" fill="red">
  <title>Buenos Aires</title>
</circle><line x1="250.959991" y1="1101.959961" x2="264.959991" y2="1340.959961" stroke="red" stroke-width="6.660000" />
<circle cx="421.959991" cy="1777.959961" r="19.980000" fill="red">
  <title>Shanghai</title>
</circle><line x1="264.959991" y1="1340.959961" x2="421.959991" y2="1777.959961" stroke="red" stroke-width="6.660000" />
<circle cx="521.960022" cy="1576.959961" r="19.980000" fill="red">
  <title>Mumbai</title>
</circle><line x1="421.959991" y1="1777.959961" x2="521.960022" y2="1576.959961" stroke="red" stroke-width="6.660000" />
<circle cx="1106.959961" cy="1484.959961" r="19.980000" fill="red">
  <title>New York</title>
</circle><line x1="521.960022" y1="1576.959961" x2="1106.959961" y2="1484.959961" stroke="red" stroke-width="6.660000" />
<circle cx="1101.959961" cy="1096.959961" r="19.980000" fill="red">
  <title>Delhi</title>
</circle><line x1="1106.959961" y1="1484.959961" x2="1101.959961" y2="1096.959961" stroke="red" stroke-width="6.660000" />
</svg>
