<?xml version="1.0" encoding="UTF-8" standalone="no"?>
<svg width="500" height="500" viewBox="0 0 2074.000000 2074.000000" xmlns="http://www.w3.org/2000/svg">
<rect x="19.000000" y="19.000000" width="2036.000000" height="2036.000000" fill="black" />
<circle cx="816.960022" cy="1517.959961" r="19.980000" fill="red">
  <title>Tokyo</title>
</circle><line x1="293.959991" y1="356.959991" x2="816.960022" y2="1517.959961" stroke="red" stroke-width="6.660000" />
<circle cx="432.959991" cy="2005.959961" r="19.980000" fill="red">
  <title>São Paulo</title>
</circle><line x1="816.960022" y1="1517.959961" x2="432.959991" y2="2005.959961" stroke="red" stroke-width="6.660000" />
<circle cx="983.960022" cy="1698.959961" r="19.980000" fill="red">
  <title>Delhi</title>
</circle><line x1="432.959991" y1="2005.959961" x2="983.960022" y2="1698.959961" stroke="red" stroke-width="6.660000" />
<circle cx="1260.959961" cy="1872.959961" r="19.980000" fill="red">
  <title>Mumbai</title>
</circle><line x1="983.960022" y1="1698.959961" x2="1260.959961" y2="1872.959961" stroke="red" stroke-width="6.660000" />
<circle cx="1417.959961" cy="1478.959961" r="19.980000" fill="red">
  <title>Shanghai</title>
</circle><line x1="1260.959961" y1="1872.959961" x2="1417.959961" y2="1478.959961" stroke="red" stroke-width="6.660000" />
<circle cx="1829.959961" cy="1584.959961" r="19.980000" fill="red">
  <title>New York</title>
</circle><line x1="1417.959961" y1="1478.959961" x2="1829.959961" y2="1584.959961" stroke="red" stroke-width="6.660000" />
<circle cx="1794.959961" cy="92.959999" r="19.980000" fill="red">
  <title>Dhaka</title>
</circle><line x1="1829.959961" y1="1584.959961" x2="1794.959961" y2="92.959999" stroke="red" stroke-width="6.660000" />
<circle cx="1586.959961" cy="59.959999" r="19.980000" fill="red">
  <title>Karachi</title>
</circle><line x1="1794.959961" y1="92.959999" x2="1586.959961" y2="59.959999" stroke="red" stroke-width="6.660000" />
<circle cx="995.960022" cy="43.959999" r="19.980000" fill="red">
  <title>Osaka</title>
</circle><line x1="1586.959961" y1="59.959999" x2="995.960022" y2="43.959999" stroke="red" stroke-width="6.660000" />
<circle cx="724.960022" cy="55.959999" r="19.980000" fill="red">
  <title>Mexico City</title>
</circle><line x1="995.960022" y1="43.959999" x2="724.960022" y2="55.959999" stroke="red" stroke-width="6.660000" />
<circle cx="96.959999" cy="82.959999" r="19.980000" fill="red">
  <title>Beijing</title>
</circle><line x1="724.960022" y1="55.959999" x2="96.959999" y2="82.959999" stroke="red" stroke-width="6.660000" />
<circle cx="293.959991" cy="356.959991" r="19.980000" fill="red">
  <title>Cairo</title>
</circle><line x1="96.959999" y1="82.959999" x2="293.959991" y2="356.959991" stroke="red" stroke-width="6.660000" />
</svg>
