<?xml version="1.0" encoding="UTF-8" standalone="no"?>
<svg width="500" height="500" viewBox="0 0 2074.000000 2074.000000" xmlns="http://www.w3.org/2000/svg">
<rect x="19.000000" y="19.000000" width="2036.000000" height="2036.000000" fill="black" />
<circle cx="54.959999" cy="1979.959961" r="19.980000" fill="red">
  <title>Tokyo</title>
</circle><line x1="41.959999" y1="1836.959961" x2="54.959999" y2="1979.959961" stroke="red" stroke-width="6.660000" />
<circle cx="345.959991" cy="1954.959961" r="19.980000" fill="red">
  <title>Dhaka</title>
</circle><line x1="54.959999" y1="1979.959961" x2="345.959991" y2="1954.959961" stroke="red" stroke-width="6.660000" />
<circle cx="914.960022" cy="1826.959961" r="19.980000" fill="red">
  <title>Cairo</title>
</circle><line x1="345.959991" y1="1954.959961" x2="914.960022" y2="1826.959961" stroke="red" stroke-width="6.660000" />
<circle cx="906.960022" cy="1241.959961" r="19.980000" fill="red">
  <title>Mexico City</title>
</circle><line x1="914.960022" y1="1826.959961" x2="906.960022" y2="1241.959961" stroke="red" stroke-width="6.660000" />
<circle cx="1159.959961" cy="1265.959961" r="19.980000" fill="red">
  <title>Buenos Aires</title>
</circle><line x1="906.960022" y1="1241.959961" x2="1159.959961" y2="1265.959961" stroke="red" stroke-width="6.660000" />
<circle cx="1181.959961" cy="1163.959961" r="19.980000" fill="red">
  <title>Karachi</title>
</circle><line x1="1159.959961" y1="1265.959961" x2="1181.959961" y2="1163.959961" stroke="red" stroke-width="6.660000" />
<circle cx="1682.959961" cy="707.960022" r="19.980000" fill="red">
  <title>São Paulo</title>
</circle><line x1="1181.959961" y1="1163.959961" x2="1682.959961" y2="707.960022" stroke="red" stroke-width="6.660000" />
<circle cx="1655.959961" cy="326.959991" r="19.980000" fill="red">
  <title>Shanghai</title>
</circle><line x1="1682.959961" y1="707.960022" x2="1655.959961" y2="326.959991" stroke="red" stroke-width="6.660000" />
<circle cx="852.960022" cy="231.959991" r="19.980000" fill="red">
  <title>Beijing</title>
</circle><line x1="1655.959961" y1="326.959991" x2="852.960022" y2="231.959991" stroke="red" stroke-width="6.660000" />
<circle cx="494.959991" cy="205.959991" r="19.980000" fill="red">
  <title>Delhi</title>
</circle><line x1="852.960022" y1="231.959991" x2="494.959991" y2="205.959991" stroke="red" stroke-width="6.660000" />
<circle cx="140.959991" cy="566.960022" r="19.980000" fill="red">
  <title>Mumbai</title>
</circle><line x1="494.959991" y1="205.959991" x2="140.959991" y2="566.960022" stroke="red" stroke-width="6.660000" />
<circle cx="448.959991" cy="783.960022" r="19.980000" fill="red">
  <title>Chongqing</title>
</circle><line x1="140.959991" y1="566.960022" x2="448.959991" y2="783.960022" stroke="red" stroke-width="6.660000" />
<circle cx="493.959991" cy="1163.959961" r="19.980000" fill="red">
  <title>Osaka</title>
</circle><line x1="448.959991" y1="783.960022" x2="493.959991" y2="1163.959961" stroke="red" stroke-width="6.660000" />
<circle cx="647.960022" cy="1534.959961" r="19.980000" fill="red">
  <title>Istanbul</title>
</circle><line x1="493.959991" y1="1163.959961" x2="647.960022" y2="1534.959961" stroke="red" stroke-width="6.660000" />
<circle cx="41.959999" cy="1836.959961" r="19.980000" fill="red">
  <title>New York</title>
</circle><line x1="647.960022" y1="1534.959961" x2="41.959999" y2="1836.959961" stroke="red" stroke-width="6.660000" />
</svg>
