<?xml version="1.0" encoding="UTF-8" standalone="no"?>
<svg width="500" height="500" viewBox="0 0 2074.000000 2074.000000" xmlns="http://www.w3.org/2000/svg">
<rect x="19.000000" y="19.000000" width="2036.000000" height="2036.000000" fill="black" />
<circle cx="1384.959961" cy="701.960022" r="19.980000" fill="red">
  <title>Tokyo</title>
</circle><line x1="1452.959961" y1="652.960022" x2="1384.959961" y2="701.960022" stroke="red" stroke-width="6.660000" />
<circle cx="1072.959961" cy="526.960022" r="19.980000" fill="red">
  <title>Mumbai</title>
</circle><line x1="1384.959961" y1="701.960022" x2="1072.959961" y2="526.960022" stroke="red" stroke-width="6.660000" />
<circle cx="772.960022" cy="178.959991" r="19.980000" fill="red">
  <title>Mexico City</title>
</circle><line x1="1072.959961" y1="526.960022" x2="772.960022" y2="178.959991" stroke="red" stroke-width="6.660000" />
<circle cx="282.959991" cy="307.959991" r="19.980000" fill="red">
  <title>Osaka</title>
</circle><line x1="772.960022" y1="178.959991" x2="282.959991" y2="307.959991" stroke="red" stroke-width="6.660000" />
<circle cx="180.959991" cy="357.959991" r="19.980000" fill="red">
  <title>Shanghai</title>
</circle><line x1="282.959991" y1="307.959991" x2="180.959991" y2="357.959991" stroke="red" stroke-width="6.660000" />
<circle cx="313.959991" cy="784.960022" r="19.980000" fill="red">
  <title>Dhaka</title>
</circle><line x1="180.959991" y1="357.959991" x2="313.959991" y2="784.960022" stroke="red" stroke-width="6.660000" />
<circle cx="64.959999" cy="866.960022" r="19.980000" fill="red">
  <title>Delhi</title>
</circle><line x1="313.959991" y1="784.960022" x2="64.959999" y2="866.960022" stroke="red" stroke-width="6.660000" />
<circle cx="152.959991" cy="1980.959961" r="19.980000" fill="red">
  <title>São Paulo</title>
</circle><line x1="64.959999" y1="866.960022" x2="152.959991" y2="1980.959961" stroke="red" stroke-width="6.660000" />
<circle cx="693.960022" cy="1872.959961" r="19.980000" fill="red">
  <title>Cairo</title>
</circle><line x1="152.959991" y1="1980.959961" x2="693.960022" y2="1872.959961" stroke="red" stroke-width="6.660000" />
<circle cx="1801.959961" cy="1632.959961" r="19.980000" fill="red">
  <title>Karachi</title>
</circle><line x1="693.960022" y1="1872.959961" x2="1801.959961" y2="1632.959961" stroke="red" stroke-width="6.660000" />
<circle cx="1447.959961" cy="662.960022" r="19.980000" fill="red">
  <title>Beijing</title>
</circle><line x1="1801.959961" y1="1632.959961" x2="1447.959961" y2="662.960022" stroke="red" stroke-width="6.660000" />
<circle cx="1452.959961" cy="652.960022" r="19.980000" fill="red">
  <title>New York</title>
</circle><line x1="1447.959961" y1="662.960022" x2="1452.959961" y2="652.960022" stroke="red" stroke-width="6.660000" />
</svg>
