<?xml version="1.0" encoding="UTF-8" standalone="no"?>
<svg width="500" height="500" viewBox="0 0 2074.000000 2074.000000" xmlns="http://www.w3.org/2000/svg">
<rect x="19.000000" y="19.000000" width="2036.000000" height="2036.000000" fill="black" />
<circle cx="801.960022" cy="508.959991" r="19.980000" fill="red">
  <title>Tokyo</title>
</circle><line x1="205.959991" y1="1492.959961" x2="801.960022" y2="508.959991" stroke="red" stroke-width="6.660000" />
<circle cx="1600.959961" cy="726.960022" r="19.980000" fill="red">
  <title>Cairo</title>
</circle><line x1="801.960022" y1="508.959991" x2="1600.959961" y2="726.960022" stroke="red" stroke-width="6.660000" />
<circle cx="1766.959961" cy="229.959991" r="19.980000" fill="red">
  <title>Mexico City</title>
</circle><line x1="1600.959961" y1="726.960022" x2="1766.959961" y2="229.959991" stroke="red" stroke-width="6.660000" />
<circle cx="1642.959961" cy="706.960022" r="19.980000" fill="red">
  <title>São Paulo</title>
</circle><line x1="1766.959961" y1="229.959991" x2="1642.959961" y2="706.960022" stroke="red" stroke-width="6.660000" />
<circle cx="1962.959961" cy="1465.959961" r="19.980000" fill="red">
  <title>Shanghai</title>
</circle><line x1="1642.959961" y1="706.960022" x2="1962.959961" y2="1465.959961" stroke="red" stroke-width="6.660000" />
<circle cx="1808.959961" cy="1309.959961" r="19.980000" fill="red">
  <title>Delhi</title>
</circle><line x1="1962.959961" y1="1465.959961" x2="1808.959961" y2="1309.959961" stroke="red" stroke-width="6.660000" />
<circle cx="205.959991" cy="1492.959961" r="19.980000" fill="red">
  <title>Mumbai</title>
</circle><line x1="1808.959961" y1="1309.959961" x2="205.959991" y2="1492.959961" stroke="red" stroke-width="6.660000" />
</svg>
