<?xml version="1.0" encoding="UTF-8" standalone="no"?>
<svg width="500" height="500" viewBox="0 0 2074.000000 2074.000000" xmlns="http://www.w3.org/2000/svg">
<rect x="19.000000" y="19.000000" width="2036.000000" height="2036.000000" fill="black" />
<circle cx="1974.959961" cy="1590.959961" r="19.980000" fill="red">
  <title>Tokyo</title>
</circle><line x1="1442.959961" y1="1507.959961" x2="1974.959961" y2="1590.959961" stroke="red" stroke-width="6.660000" />
<circle cx="2026.959961" cy="1799.959961" r="19.980000" fill="red">
  <title>Cairo</title>
</circle><line x1="1974.959961" y1="1590.959961" x2="2026.959961" y2="1799.959961" stroke="red" stroke-width="6.660000" />
<circle cx="1992.959961" cy="1554.959961" r="19.980000" fill="red">
  <title>Karachi</title>
</circle><line x1="2026.959961" y1="1799.959961" x2="1992.959961" y2="1554.959961" stroke="red" stroke-width="6.660000" />
<circle cx="1884.959961" cy="1281.959961" r="19.980000" fill="red">
  <title>Beijing</title>
</circle><line x1="1992.959961" y1="1554.959961" x2="1884.959961" y2="1281.959961" stroke="red" stroke-width="6.660000" />
<circle cx="1911.959961" cy="863.960022" r="19.980000" fill="red">
  <title>Shanghai</title>
</circle><line x1="1884.959961" y1="1281.959961" x2="1911.959961" y2="863.960022" stroke="red" stroke-width="6.660000" />
<circle cx="1904.959961" cy="101.959999" r="19.980000" fill="red">
  <title>New York</title>
</circle><line x1="1911.959961" y1="863.960022" x2="1904.959961" y2="101.959999" stroke="red" stroke-width="6.660000" />
<circle cx="1253.959961" cy="933.960022" r="19.980000" fill="red">
  <title>São Paulo</title>
</circle><line x1="1904.959961" y1="101.959999" x2="1253.959961" y2="933.960022" stroke="red" stroke-width="6.660000" />
<circle cx="667.960022" cy="884.960022" r="19.980000" fill="red">
  <title>Osaka</title>
</circle><line x1="1253.959961" y1="933.960022" x2="667.960022" y2="884.960022" stroke="red" stroke-width="6.660000" />
<circle cx="175.959991" cy="736.960022" r="19.980000" fill="red">
  <title>Mumbai</title>
</circle><line x1="667.960022" y1="884.960022" x2="175.959991" y2="736.960022" stroke="red" stroke-width="6.660000" />
<circle cx="1019.960022" cy="827.960022" r="19.980000" fill="red">
  <title>Mexico City</title>
</circle><line x1="175.959991" y1="736.960022" x2="1019.960022" y2="827.960022" stroke="red" stroke-width="6.660000" />
<circle cx="1319.959961" cy="1299.959961" r="19.980000" fill="red">
  <title>Delhi</title>
</circle><line x1="1019.960022" y1="827.960022" x2="1319.959961" y2="1299.959961" stroke="red" stroke-width="6.660000" />
<circle cx="1442.959961" cy="1507.959961" r="19.980000" fill="red">
  <title>Dhaka</title>
</circle><line x1="1319.959961" y1="1299.959961" x2="1442.959961" y2="1507.959961" stroke="red" stroke-width="6.660000" />
</svg>
