<?xml version="1.0" encoding="UTF-8" standalone="no"?>
<svg width="500" height="500" viewBox="0 0 2074.000000 2074.000000" xmlns="http://www.w3.org/2000/svg">
<rect x="19.000000" y="19.000000" width="2036.000000" height="2036.000000" fill="black" />
<circle cx="1442.959961" cy="1711.959961" r="19.980000" fill="red">
  <title>Tokyo</title>
</circle><line x1="1855.959961" y1="1851.959961" x2="1442.959961" y2="1711.959961" stroke="red" stroke-width="6.660000" />
<circle cx="1239.959961" cy="1516.959961" r="19.980000" fill="red">
  <title>Buenos Aires</title>
</circle><line x1="1442.959961" y1="1711.959961" x2="1239.959961" y2="1516.959961" stroke="red" stroke-width="6.660000" />
<circle cx="1519.959961" cy="1028.959961" r="19.980000" fill="red">
  <title>Delhi</title>
</circle><line x1="1239.959961" y1="1516.959961" x2="1519.959961" y2="1028.959961" stroke="red" stroke-width="6.660000" />
<circle cx="1532.959961" cy="864.960022" r="19.980000" fill="red">
  <title>Beijing</title>
</circle><line x1="1519.959961" y1="1028.959961" x2="1532.959961" y2="864.960022" stroke="red" stroke-width="6.660000" />
<circle cx="1810.959961" cy="749.960022" r="19.980000" fill="red">
  <title>Kolkata</title>
</circle><line x1="1532.959961" y1="864.960022" x2="1810.959961" y2="749.960022" stroke="red" stroke-width="6.660000" />
<circle cx="1959.959961" cy="610.960022" r="19.980000" fill="red">
  <title>Rio de Janeiro</title>
</circle><line x1="1810.959961" y1="749.960022" x2="1959.959961" y2="610.960022" stroke="red" stroke-width="6.660000" />
<circle cx="1803.959961" cy="706.960022" r="19.980000" fill="red">
  <title>Shanghai</title>
</circle><line x1="1959.959961" y1="610.960022" x2="1803.959961" y2="706.960022" stroke="red" stroke-width="6.660000" />
<circle cx="1404.959961" cy="705.960022" r="19.980000" fill="red">
  <title>Mexico City</title>
</circle><line x1="1803.959961" y1="706.960022" x2="1404.959961" y2="705.960022" stroke="red" stroke-width="6.660000" />
<circle cx="1345.959961" cy="574.960022" r="19.980000" fill="red">
  <title>Istanbul</title>
</circle><line x1="1404.959961" y1="705.960022" x2="1345.959961" y2="574.960022" stroke="red" stroke-width="6.660000" />
<circle cx="1234.959961" cy="650.960022" r="19.980000" fill="red">
  <title>New York</title>
</circle><line x1="1345.959961" y1="574.960022" x2="1234.959961" y2="650.960022" stroke="red" stroke-width="6.660000" />
<circle cx="909.960022" cy="675.960022" r="19.980000" fill="red">
  <title>São Paulo</title>
</circle><line x1="1234.959961" y1="650.960022" x2="909.960022" y2="675.960022" stroke="red" stroke-width="6.660000" />
<circle cx="919.960022" cy="772.960022" r="19.980000" fill="red">
  <title>Karachi</title>
</circle><line x1="909.960022" y1="675.960022" x2="919.960022" y2="772.960022" stroke="red" stroke-width="6.660000" />
<circle cx="420.959991" cy="756.960022" r="19.980000" fill="red">
  <title>Mumbai</title>
</circle><line x1="919.960022" y1="772.960022" x2="420.959991" y2="756.960022" stroke="red" stroke-width="6.660000" />
<circle cx="568.960022" cy="1131.959961" r="19.980000" fill="red">
  <title>Cairo</title>
</circle><line x1="420.959991" y1="756.960022" x2="568.960022" y2="1131.959961" stroke="red" stroke-width="6.660000" />
<circle cx="650.960022" cy="1326.959961" r="19.980000" fill="red">
  <title>Tianjin</title>
</circle><line x1="568.960022" y1="1131.959961" x2="650.960022" y2="1326.959961" stroke="red" stroke-width="6.660000" />
<circle cx="248.959991" cy="1292.959961" r="19.980000" fill="red">
  <title>Manila</title>
</circle><line x1="650.960022" y1="1326.959961" x2="248.959991" y2="1292.959961" stroke="red" stroke-width="6.660000" />
<circle cx="54.959999" cy="1945.959961" r="19.980000" fill="red">
  <title>Dhaka</title>
</circle><line x1="248.959991" y1="1292.959961" x2="54.959999" y2="1945.959961" stroke="red" stroke-width="6.660000" />
<circle cx="910.960022" cy="1971.959961" r="19.980000" fill="red">
  <title>Osaka</title>
</circle><line x1="54.959999" y1="1945.959961" x2="910.960022" y2="1971.959961" stroke="red" stroke-width="6.660000" />
<circle cx="1739.959961" cy="2012.959961" r="19.980000" fill="red">
  <title>Lagos</title>
</circle><line x1="910.960022" y1="1971.959961" x2="1739.959961" y2="2012.959961" stroke="red" stroke-width="6.660000" />
<circle cx="1855.959961" cy="1851.959961" r="19.980000" fill="red">
  <title>Chongqing</title>
</circle><line x1="1739.959961" y1="2012.959961" x2="1855.959961" y2="1851.959961" stroke="red" stroke-width="6.660000" />
</svg>
