<?xml version="1.0" encoding="UTF-8" standalone="no"?>
<svg width="500" height="500" viewBox="0 0 2074.000000 2074.000000" xmlns="http://www.w3.org/2000/svg">
<rect x="19.000000" y="19.000000" width="2036.000000" height="2036.000000" fill="black" />
<circle cx="1163.959961" cy="1587.959961" r="19.980000" fill="red">
  <title>Tokyo</title>
</circle><line x1="1274.959961" y1="1674.959961" x2="1163.959961" y2="1587.959961" stroke="red" stroke-width="6.660000" />
<circle cx="486.959991" cy="745.960022" r="19.980000" fill="red">
  <title>Delhi</title>
</circle><line x1="1163.959961" y1="1587.959961" x2="486.959991" y2="745.960022" stroke="red" stroke-width="6.660000" />
<circle cx="455.959991" cy="198.959991" r="19.980000" fill="red">
  <title>Shanghai</title>
</circle><line x1="486.959991" y1="745.960022" x2="455.959991" y2="198.959991" stroke="red" stroke-width="6.660000" />
<circle cx="1747.959961" cy="200.959991" r="19.980000" fill="red">
  <title>Mexico City</title>
</circle><line x1="455.959991" y1="198.959991" x2="1747.959961" y2="200.959991" stroke="red" stroke-width="6.660000" />
<circle cx="1274.959961" cy="1674.959961" r="19.980000" fill="red">
  <title>São Paulo</title>
</circle><line x1="1747.959961" y1="200.959991" x2="1274.959961" y2="1674.959961" stroke="red" stroke-width="6.660000" />
</svg>
