<?xml version="1.0" encoding="UTF-8" standalone="no"?>
<svg width="500" height="500" viewBox="0 0 2074.000000 2074.000000" xmlns="http://www.w3.org/2000/svg">
<rect x="19.000000" y="19.000000" width="2036.000000" height="2036.000000" fill="black" />
<circle cx="660.960022" cy="57.959999" r="19.980000" fill="red">
  <title>Tokyo</title>
</circle><line x1="939.960022" y1="184.959991" x2="660.960022" y2="57.959999" stroke="red" stroke-width="6.660000" />
<circle cx="115.959999" cy="369.959991" r="19.980000" fill="red">
  <title>Mumbai</title>
</circle><line x1="660.960022" y1="57.959999" x2="115.959999" y2="369.959991" stroke="red" stroke-width="6.660000" />
<circle cx="499.959991" cy="1044.959961" r="19.980000" fill="red">
  <title>Cairo</title>
</circle><line x1="115.959999" y1="369.959991" x2="499.959991" y2="1044.959961" stroke="red" stroke-width="6.660000" />
<circle cx="491.959991" cy="1423.959961" r="19.980000" fill="red">
  <title>Delhi</title>
</circle><line x1="499.959991" y1="1044.959961" x2="491.959991" y2="1423.959961" stroke="red" stroke-width="6.660000" />
<circle cx="138.959991" cy="1882.959961" r="19.980000" fill="red">
  <title>New York</title>
</circle><line x1="491.959991" y1="1423.959961" x2="138.959991" y2="1882.959961" stroke="red" stroke-width="6.660000" />
<circle cx="402.959991" cy="1839.959961" r="19.980000" fill="red">
  <title>Beijing</title>
</circle><line x1="138.959991" y1="1882.959961" x2="402.959991" y2="1839.959961" stroke="red" stroke-width="6.660000" />
<circle cx="1384.959961" cy="1312.959961" r="19.980000" fill="red">
  <title>Osaka</title>
</circle><line x1="402.959991" y1="1839.959961" x2="1384.959961" y2="1312.959961" stroke="red" stroke-width="6.660000" />
<circle cx="1739.959961" cy="1391.959961" r="19.980000" fill="red">
  <title>Shanghai</title>
</circle><line x1="1384.959961" y1="1312.959961" x2="1739.959961" y2="1391.959961" stroke="red" stroke-width="6.660000" />
<circle cx="1896.959961" cy="1594.959961" r="19.980000" fill="red">
  <title>São Paulo</title>
</circle><line x1="1739.959961" y1="1391.959961" x2="1896.959961" y2="1594.959961" stroke="red" stroke-width="6.660000" />
<circle cx="1539.959961" cy="1324.959961" r="19.980000" fill="red">
  <title>Dhaka</title>
</circle><line x1="1896.959961" y1="1594.959961" x2="1539.959961" y2="1324.959961" stroke="red" stroke-width="6.660000" />
<circle cx="1429.959961" cy="500.959991" r="19.980000" fill="red">
  <title>Mexico City</title>
</circle><line x1="1539.959961" y1="1324.959961" x2="1429.959961" y2="500.959991" stroke="red" stroke-width="6.660000" />
<circle cx="939.960022" cy="184.959991" r="19.980000" fill="red">
  <title>Karachi</title>
</circle><line x1="1429.959961" y1="500.959991" x2="939.960022" y2="184.959991" stroke="red" stroke-width="6.660000" />
</svg>
