<?xml version="1.0" encoding="UTF-8" standalone="no"?>
<svg width="500" height="500" viewBox="0 0 2074.000000 2074.000000" xmlns="http://www.w3.org/2000/svg">
<rect x="19.000000" y="19.000000" width="2036.000000" height="2036.000000" fill="black" />
<circle cx="1093.959961" cy="1835.959961" r="19.980000" fill="red">
  <title>Tokyo</title>
</circle><line x1="534.960022" y1="1998.959961" x2="1093.959961" y2="1835.959961" stroke="red" stroke-width="6.660000" />
<circle cx="1463.959961" cy="1222.959961" r="19.980000" fill="red">
  <title>Cairo</title>
</circle><line x1="1093.959961" y1="1835.959961" x2="1463.959961" y2="1222.959961" stroke="red" stroke-width="6.660000" />
<circle cx="1524.959961" cy="957.960022" r="19.980000" fill="red">
  <title>Istanbul</title>
</circle><line x1="1463.959961" y1="1222.959961" x2="1524.959961" y2="957.960022" stroke="red" stroke-width="6.660000" />
<circle cx="1906.959961" cy="1379.959961" r="19.980000" fill="red">
  <title>Osaka</title>
</circle><line x1="1524.959961" y1="957.960022" x2="1906.959961" y2="1379.959961" stroke="red" stroke-width="6.660000" />
<circle cx="1902.959961" cy="930.960022" r="19.980000" fill="red">
  <title>New York</title>
</circle><line x1="1906.959961" y1="1379.959961" x2="1902.959961" y2="930.960022" stroke="red" stroke-width="6.660000" />
<circle cx="1970.959961" cy="312.959991" r="19.980000" fill="red">
  <title>Shanghai</title>
</circle><line x1="1902.959961" y1="930.960022" x2="1970.959961" y2="312.959991" stroke="red" stroke-width="6.660000" />
<circle cx="1684.959961" cy="41.959999" r="19.980000" fill="red">
  <title>Mumbai</title>
</circle><line x1="1970.959961" y1="312.959991" x2="1684.959961" y2="41.959999" stroke="red" stroke-width="6.660000" />
<circle cx="1213.959961" cy="393.959991" r="19.980000" fill="red">
  <title>Delhi</title>
</circle><line x1="1684.959961" y1="41.959999" x2="1213.959961" y2="393.959991" stroke="red" stroke-width="6.660000" />
<circle cx="891.960022" cy="300.959991" r="19.980000" fill="red">
  <title>Karachi</title>
</circle><line x1="1213.959961" y1="393.959991" x2="891.960022" y2="300.959991" stroke="red" stroke-width="6.660000" />
<circle cx="497.959991" cy="202.959991" r="19.980000" fill="red">
  <title>Dhaka</title>
</circle><line x1="891.960022" y1="300.959991" x2="497.959991" y2="202.959991" stroke="red" stroke-width="6.660000" />
<circle cx="689.960022" cy="464.959991" r="19.980000" fill="red">
  <title>Mexico City</title>
</circle><line x1="497.959991" y1="202.959991" x2="689.960022" y2="464.959991" stroke="red" stroke-width="6.660000" />
<circle cx="747.960022" cy="667.960022" r="19.980000" fill="red">
  <title>São Paulo</title>
</circle><line x1="689.960022" y1="464.959991" x2="747.960022" y2="667.960022" stroke="red" stroke-width="6.660000" />
<circle cx="353.959991" cy="671.960022" r="19.980000" fill="red">
  <title>Beijing</title>
</circle><line x1="747.960022" y1="667.960022" x2="353.959991" y2="671.960022" stroke="red" stroke-width="6.660000" />
<circle cx="242.959991" cy="1862.959961" r="19.980000" fill="red">
  <title>Chongqing</title>
</circle><line x1="353.959991" y1="671.960022" x2="242.959991" y2="1862.959961" stroke="red" stroke-width="6.660000" />
<circle cx="534.960022" cy="1998.959961" r="19.980000" fill="red">
  <title>Buenos Aires</title>
</circle><line x1="242.959991" y1="1862.959961" x2="534.960022" y2="1998.959961" stroke="red" stroke-width="6.660000" />
</svg>
