<?xml version="1.0" encoding="UTF-8" standalone="no"?>
<svg width="500" height="500" viewBox="0 0 2074.000000 2074.000000" xmlns="http://www.w3.org/2000/svg">
<rect x="19.000000" y="19.000000" width="2036.000000" height="2036.000000" fill="black" />
<circle cx="1017.960022" cy="1391.959961" r="19.980000" fill="red">
  <title>Tokyo</title>
</circle><line x1="817.960022" y1="1924.959961" x2="1017.960022" y2="1391.959961" stroke="red" stroke-width="6.660000" />
<circle cx="904.960022" cy="1203.959961" r="19.980000" fill="red">
  <title>Buenos Aires</title>
</circle><line x1="1017.960022" y1="1391.959961" x2="904.960022" y2="1203.959961" stroke="red" stroke-width="6.660000" />
<circle cx="399.959991" cy="1080.959961" r="19.980000" fill="red">
  <title>Delhi</title>
</circle><line x1="904.960022" y1="1203.959961" x2="399.959991" y2="1080.959961" stroke="red" stroke-width="6.660000" />
<circle cx="770.960022" cy="276.959991" r="19.980000" fill="red">
  <title>Dhaka</title>
</circle><line x1="399.959991" y1="1080.959961" x2="770.960022" y2="276.959991" stroke="red" stroke-width="6.660000" />
<circle cx="898.960022" cy="397.959991" r="19.980000" fill="red">
  <title>Cairo</title>
</circle><line x1="770.960022" y1="276.959991" x2="898.960022" y2="397.959991" stroke="red" stroke-width="6.660000" />
<circle cx="1261.959961" cy="707.960022" r="19.980000" fill="red">
  <title>Karachi</title>
</circle><line x1="898.960022" y1="397.959991" x2="1261.959961" y2="707.960022" stroke="red" stroke-width="6.660000" />
<circle cx="1278.959961" cy="803.960022" r="19.980000" fill="red">
  <title>Beijing</title>
</circle><line x1="1261.959961" y1="707.960022" x2="1278.959961" y2="803.960022" stroke="red" stroke-width="6.660000" />
<circle cx="1328.959961" cy="715.960022" r="19.980000" fill="red">
  <title>Mexico City</title>
</circle><line x1="1278.959961" y1="803.960022" x2="1328.959961" y2="715.960022" stroke="red" stroke-width="6.660000" />
<circle cx="1636.959961" cy="561.960022" r="19.980000" fill="red">
  <title>Mumbai</title>
</circle><line x1="1328.959961" y1="715.960022" x2="1636.959961" y2="561.960022" stroke="red" stroke-width="6.660000" />
<circle cx="1970.959961" cy="495.959991" r="19.980000" fill="red">
  <title>São Paulo</title>
</circle><line x1="1636.959961" y1="561.960022" x2="1970.959961" y2="495.959991" stroke="red" stroke-width="6.660000" />
<circle cx="1734.959961" cy="1094.959961" r="19.980000" fill="red">
  <title>New York</title>
</circle><line x1="1970.959961" y1="495.959991" x2="1734.959961" y2="1094.959961" stroke="red" stroke-width="6.660000" />
<circle cx="2029.959961" cy="1177.959961" r="19.980000" fill="red">
  <title>Osaka</title>
</circle><line x1="1734.959961" y1="1094.959961" x2="2029.959961" y2="1177.959961" stroke="red" stroke-width="6.660000" />
<circle cx="1866.959961" cy="1961.959961" r="19.980000" fill="red">
  <title>Shanghai</title>
</circle><line x1="2029.959961" y1="1177.959961" x2="1866.959961" y2="1961.959961" stroke="red" stroke-width="6.660000" />
<circle cx="817.960022" cy="1924.959961" r="19.980000" fill="red">
  <title>Chongqing</title>
</circle><line x1="1866.959961" y1="1961.959961" x2="817.960022" y2="1924.959961" stroke="red" stroke-width="6.660000" />
</svg>
