<?xml version="1.0" encoding="UTF-8" standalone="no"?>
<svg width="500" height="500" viewBox="0 0 2074.000000 2074.000000" xmlns="http://www.w3.org/2000/svg">
<rect x="19.000000" y="19.000000" width="2036.000000" height="2036.000000" fill="black" />
<circle cx="711.960022" cy="926.960022" r="19.980000" fill="red">
  <title>Tokyo</title>
</circle><line x1="600.960022" y1="1308.959961" x2="711.960022" y2="926.960022" stroke="red" stroke-width="6.660000" />
<circle cx="1248.959961" cy="137.959991" r="19.980000" fill="red">
  <title>Mexico City</title>
</circle><line x1="711.960022" y1="926.960022" x2="1248.959961" y2="137.959991" stroke="red" stroke-width="6.660000" />
<circle cx="1270.959961" cy="234.959991" r="19.980000" fill="red">
  <title>Shanghai</title>
</circle><line x1="1248.959961" y1="137.959991" x2="1270.959961" y2="234.959991" stroke="red" stroke-width="6.660000" />
<circle cx="1365.959961" cy="831.960022" r="19.980000" fill="red">
  <title>Delhi</title>
</circle><line x1="1270.959961" y1="234.959991" x2="1365.959961" y2="831.960022" stroke="red" stroke-width="6.660000" />
<circle cx="1909.959961" cy="1424.959961" r="19.980000" fill="red">
  <title>Osaka</title>
</circle><line x1="1365.959961" y1="831.960022" x2="1909.959961" y2="1424.959961" stroke="red" stroke-width="6.660000" />
<circle cx="1782.959961" cy="1475.959961" r="19.980000" fill="red">
  <title>São Paulo</title>
</circle><line x1="1909.959961" y1="1424.959961" x2="1782.959961" y2="1475.959961" stroke="red" stroke-width="6.660000" />
<circle cx="1180.959961" cy="1601.959961" r="19.980000" fill="red">
  <title>Buenos Aires</title>
</circle><line x1="1782.959961" y1="1475.959961" x2="1180.959961" y2="1601.959961" stroke="red" stroke-width="6.660000" />
<circle cx="1198.959961" cy="1803.959961" r="19.980000" fill="red">
  <title>Cairo</title>
</circle><line x1="1180.959961" y1="1601.959961" x2="1198.959961" y2="1803.959961" stroke="red" stroke-width="6.660000" />
<circle cx="924.960022" cy="1642.959961" r="19.980000" fill="red">
  <title>Mumbai</title>
</circle><line x1="1198.959961" y1="1803.959961" x2="924.960022" y2="1642.959961" stroke="red" stroke-width="6.660000" />
<circle cx="201.959991" cy="1927.959961" r="19.980000" fill="red">
  <title>Karachi</title>
</circle><line x1="924.960022" y1="1642.959961" x2="201.959991" y2="1927.959961" stroke="red" stroke-width="6.660000" />
<circle cx="466.959991" cy="1499.959961" r="19.980000" fill="red">
  <title>Beijing</title>
</circle><line x1="201.959991" y1="1927.959961" x2="466.959991" y2="1499.959961" stroke="red" stroke-width="6.660000" />
<circle cx="418.959991" cy="1297.959961" r="19.980000" fill="red">
  <title>Dhaka</title>
</circle><line x1="466.959991" y1="1499.959961" x2="418.959991" y2="1297.959961" stroke="red" stroke-width="6.660000" />
<circle cx="600.960022" cy="1308.959961" r="19.980000" fill="red">
  <title>New York</title>
</circle><line x1="418.959991" y1="1297.959961" x2="600.960022" y2="1308.959961" stroke="red" stroke-width="6.660000" />
</svg>
