<?xml version="1.0" encoding="UTF-8" standalone="no"?>
<svg width="500" height="500" viewBox="0 0 2074.000000 2074.000000" xmlns="http://www.w3.org/2000/svg">
<rect x="19.000000" y="19.000000" width="2036.000000" height="2036.000000" fill="black" />
<circle cx="1699.959961" cy="1888.959961" r="19.980000" fill="red">
  <title>Tokyo</title>
</circle><line x1="1814.959961" y1="1166.959961" x2="1699.959961" y2="1888.959961" stroke="red" stroke-width="6.660000" />
<circle cx="1388.959961" cy="1653.959961" r="19.980000" fill="red">
  <title>Delhi</title>
</circle><line x1="1699.959961" y1="1888.959961" x2="1388.959961" y2="1653.959961" stroke="red" stroke-width="6.660000" />
<circle cx="411.959991" cy="1938.959961" r="19.980000" fill="red">
  <title>Dhaka</title>
</circle><line x1="1388.959961" y1="1653.959961" x2="411.959991" y2="1938.959961" stroke="red" stroke-width="6.660000" />
<circle cx="842.960022" cy="1049.959961" r="19.980000" fill="red">
  <title>Osaka</title>
</circle><line x1="411.959991" y1="1938.959961" x2="842.960022" y2="1049.959961" stroke="red" stroke-width="6.660000" />
<circle cx="281.959991" cy="587.960022" r="19.980000" fill="red">
  <title>São Paulo</title>
</circle><line x1="842.960022" y1="1049.959961" x2="281.959991" y2="587.960022" stroke="red" stroke-width="6.660000" />
<circle cx="134.959991" cy="479.959991" r="19.980000" fill="red">
  <title>Mexico City</title>
</circle><line x1="281.959991" y1="587.960022" x2="134.959991" y2="479.959991" stroke="red" stroke-width="6.660000" />
<circle cx="481.959991" cy="438.959991" r="19.980000" fill="red">
  <title>Beijing</title>
</circle><line x1="134.959991" y1="479.959991" x2="481.959991" y2="438.959991" stroke="red" stroke-width="6.660000" />
<circle cx="1214.959961" cy="970.960022" r="19.980000" fill="red">
  <title>Cairo</title>
</circle><line x1="481.959991" y1="438.959991" x2="1214.959961" y2="970.960022" stroke="red" stroke-width="6.660000" />
<circle cx="1431.959961" cy="657.960022" r="19.980000" fill="red">
  <title>New York</title>
</circle><line x1="1214.959961" y1="970.960022" x2="1431.959961" y2="657.960022" stroke="red" stroke-width="6.660000" />
<circle cx="1860.959961" cy="595.960022" r="19.980000" fill="red">
  <title>Shanghai</title>
</circle><line x1="1431.959961" y1="657.960022" x2="1860.959961" y2="595.960022" stroke="red" stroke-width="6.660000" />
<circle cx="1814.959961" cy="1166.959961" r="19.980000" fill="red">
  <title>Mumbai</title>
</circle><line x1="1860.959961" y1="595.960022" x2="1814.959961" y2="1166.959961" stroke="red" stroke-width="6.660000" />
</svg>
