<?xml version="1.0" encoding="UTF-8" standalone="no"?>
<svg width="500" height="500" viewBox="0 0 2074.000000 2074.000000" xmlns="http://www.w3.org/2000/svg">
<rect x="19.000000" y="19.000000" width="2036.000000" height="2036.000000" fill="black" />
<circle cx="1561.959961" cy="900.960022" r="19.980000" fill="red">
  <title>Tokyo</title>
</circle><line x1="1734.959961" y1="771.960022" x2="1561.959961" y2="900.960022" stroke="red" stroke-width="6.660000" />
<circle cx="1189.959961" cy="965.960022" r="19.980000" fill="red">
  <title>Beijing</title>
</circle><line x1="1561.959961" y1="900.960022" x2="1189.959961" y2="965.960022" stroke="red" stroke-width="6.660000" />
<circle cx="1355.959961" cy="602.960022" r="19.980000" fill="red">
  <title>Rio de Janeiro</title>
</circle><line x1="1189.959961" y1="965.960022" x2="1355.959961" y2="602.960022" stroke="red" stroke-width="6.660000" />
<circle cx="1284.959961" cy="547.960022" r="19.980000" fill="red">
  <title>Cairo</title>
</circle><line x1="1355.959961" y1="602.960022" x2="1284.959961" y2="547.960022" stroke="red" stroke-width="6.660000" />
<circle cx="905.960022" cy="148.959991" r="19.980000" fill="red">
  <title>Lagos</title>
</circle><line x1="1284.959961" y1="547.960022" x2="905.960022" y2="148.959991" stroke="red" stroke-width="6.660000" />
<circle cx="676.960022" cy="640.960022" r="19.980000" fill="red">
  <title>Dhaka</title>
</circle><line x1="905.960022" y1="148.959991" x2="676.960022" y2="640.960022" stroke="red" stroke-width="6.660000" />
<circle cx="413.959991" cy="424.959991" r="19.980000" fill="red">
  <title>Manila</title>
</circle><line x1="676.960022" y1="640.960022" x2="413.959991" y2="424.959991" stroke="red" stroke-width="6.660000" />
<circle cx="86.959999" cy="987.960022" r="19.980000" fill="red">
  <title>Mexico City</title>
</circle><line x1="413.959991" y1="424.959991" x2="86.959999" y2="987.960022" stroke="red" stroke-width="6.660000" />
<circle cx="806.960022" cy="1003.960022" r="19.980000" fill="red">
  <title>Karachi</title>
</circle><line x1="86.959999" y1="987.960022" x2="806.960022" y2="1003.960022" stroke="red" stroke-width="6.660000" />
<circle cx="795.960022" cy="1281.959961" r="19.980000" fill="red">
  <title>Kolkata</title>
</circle><line x1="806.960022" y1="1003.960022" x2="795.960022" y2="1281.959961" stroke="red" stroke-width="6.660000" />
<circle cx="880.960022" cy="1402.959961" r="19.980000" fill="red">
  <title>Tianjin</title>
</circle><line x1="795.960022" y1="1281.959961" x2="880.960022" y2="1402.959961" stroke="red" stroke-width="6.660000" />
<circle cx="945.960022" cy="1280.959961" r="19.980000" fill="red">
  <title>Mumbai</title>
</circle><line x1="880.960022" y1="1402.959961" x2="945.960022" y2="1280.959961" stroke="red" stroke-width="6.660000" />
<circle cx="1158.959961" cy="1357.959961" r="19.980000" fill="red">
  <title>Buenos Aires</title>
</circle><line x1="945.960022" y1="1280.959961" x2="1158.959961" y2="1357.959961" stroke="red" stroke-width="6.660000" />
<circle cx="1667.959961" cy="1662.959961" r="19.980000" fill="red">
  <title>Delhi</title>
</circle><line x1="1158.959961" y1="1357.959961" x2="1667.959961" y2="1662.959961" stroke="red" stroke-width="6.660000" />
<circle cx="1869.959961" cy="1947.959961" r="19.980000" fill="red">
  <title>New York</title>
</circle><line x1="1667.959961" y1="1662.959961" x2="1869.959961" y2="1947.959961" stroke="red" stroke-width="6.660000" />
<circle cx="1757.959961" cy="1550.959961" r="19.980000" fill="red">
  <title>Istanbul</title>
</circle><line x1="1869.959961" y1="1947.959961" x2="1757.959961" y2="1550.959961" stroke="red" stroke-width="6.660000" />
<circle cx="1773.959961" cy="969.960022" r="19.980000" fill="red">
  <title>Shanghai</title>
</circle><line x1="1757.959961" y1="1550.959961" x2="1773.959961" y2="969.960022" stroke="red" stroke-width="6.660000" />
<circle cx="1937.959961" cy="888.960022" r="19.980000" fill="red">
  <title>Chongqing</title>
</circle><line x1="1773.959961" y1="969.960022" x2="1937.959961" y2="888.960022" stroke="red" stroke-width="6.660000" />
<circle cx="1883.959961" cy="254.959991" r="19.980000" fill="red">
  <title>Osaka</title>
</circle><line x1="1937.959961" y1="888.960022" x2="1883.959961" y2="254.959991" stroke="red" stroke-width="6.660000" />
<circle cx="1734.959961" cy="771.960022" r="19.980000" fill="red">
  <title>São Paulo</title>
</circle><line x1="1883.959961" y1="254.959991" x2="1734.959961" y2="771.960022" stroke="red" stroke-width="6.660000" />
</svg>
