<?xml version="1.0" encoding="UTF-8" standalone="no"?>
<svg width="500" height="500" viewBox="0 0 2074.000000 2074.000000" xmlns="http://www.w3.org/2000/svg">
<rect x="19.000000" y="19.000000" width="2036.000000" height="2036.000000" fill="black" />
<circle cx="1767.959961" cy="580.960022" r="19.980000" fill="red">
  <title>Tokyo</title>
</circle><line x1="1857.959961" y1="902.960022" x2="1767.959961" y2="580.960022" stroke="red" stroke-width="6.660000" />
<circle cx="1332.959961" cy="726.960022" r="19.980000" fill="red">
  <title>Delhi</title>
</circle><line x1="1767.959961" y1="580.960022" x2="1332.959961" y2="726.960022" stroke="red" stroke-width="6.660000" />
<circle cx="542.960022" cy="353.959991" r="19.980000" fill="red">
  <title>Shanghai</title>
</circle><line x1="1332.959961" y1="726.960022" x2="542.960022" y2="353.959991" stroke="red" stroke-width="6.660000" />
<circle cx="339.959991" cy="326.959991" r="19.980000" fill="red">
  <title>São Paulo</title>
</circle><line x1="542.960022" y1="353.959991" x2="339.959991" y2="326.959991" stroke="red" stroke-width="6.660000" />
<circle cx="408.959991" cy="1838.959961" r="19.980000" fill="red">
  <title>Mumbai</title>
</circle><line x1="339.959991" y1="326.959991" x2="408.959991" y2="1838.959961" stroke="red" stroke-width="6.660000" />
<circle cx="702.960022" cy="1146.959961" r="19.980000" fill="red">
  <title>Mexico City</title>
</circle><line x1="408.959991" y1="1838.959961" x2="702.960022" y2="1146.959961" stroke="red" stroke-width="6.660000" />
<circle cx="1857.959961" cy="902.960022" r="19.980000" fill="red">
  <title>Cairo</title>
</circle><line x1="702.960022" y1="1146.959961" x2="1857.959961" y2="902.960022" stroke="red" stroke-width="6.660000" />
</svg>
