<?xml version="1.0" encoding="UTF-8" standalone="no"?>
<svg width="500" height="500" viewBox="0 0 2074.000000 2074.000000" xmlns="http://www.w3.org/2000/svg">
<rect x="19.000000" y="19.000000" width="2036.000000" height="2036.000000" fill="black" />
<circle cx="1298.959961" cy="823.960022" r="19.980000" fill="red">
  <title>Tokyo</title>
</circle><line x1="1565.959961" y1="1277.959961" x2="1298.959961" y2="823.960022" stroke="red" stroke-width="6.660000" />
<circle cx="1550.959961" cy="663.960022" r="19.980000" fill="red">
  <title>Buenos Aires</title>
</circle><line x1="1298.959961" y1="823.960022" x2="1550.959961" y2="663.960022" stroke="red" stroke-width="6.660000" />
<circle cx="1466.959961" cy="366.959991" r="19.980000" fill="red">
  <title>São Paulo</title>
</circle><line x1="1550.959961" y1="663.960022" x2="1466.959961" y2="366.959991" stroke="red" stroke-width="6.660000" />
<circle cx="1016.960022" cy="635.960022" r="19.980000" fill="red">
  <title>Mexico City</title>
</circle><line x1="1466.959961" y1="366.959991" x2="1016.960022" y2="635.960022" stroke="red" stroke-width="6.660000" />
<circle cx="555.960022" cy="376.959991" r="19.980000" fill="red">
  <title>Karachi</title>
</circle><line x1="1016.960022" y1="635.960022" x2="555.960022" y2="376.959991" stroke="red" stroke-width="6.660000" />
<circle cx="66.959999" cy="283.959991" r="19.980000" fill="red">
  <title>Dhaka</title>
</circle><line x1="555.960022" y1="376.959991" x2="66.959999" y2="283.959991" stroke="red" stroke-width="6.660000" />
<circle cx="658.960022" cy="929.960022" r="19.980000" fill="red">
  <title>Osaka</title>
</circle><line x1="66.959999" y1="283.959991" x2="658.960022" y2="929.960022" stroke="red" stroke-width="6.660000" />
<circle cx="1007.960022" cy="1010.960022" r="19.980000" fill="red">
  <title>Beijing</title>
</circle><line x1="658.960022" y1="929.960022" x2="1007.960022" y2="1010.960022" stroke="red" stroke-width="6.660000" />
<circle cx="723.960022" cy="1004.960022" r="19.980000" fill="red">
  <title>New York</title>
</circle><line x1="1007.960022" y1="1010.960022" x2="723.960022" y2="1004.960022" stroke="red" stroke-width="6.660000" />
<circle cx="376.959991" cy="1202.959961" r="19.980000" fill="red">
  <title>Mumbai</title>
</circle><line x1="723.960022" y1="1004.960022" x2="376.959991" y2="1202.959961" stroke="red" stroke-width="6.660000" />
<circle cx="357.959991" cy="1900.959961" r="19.980000" fill="red">
  <title>Chongqing</title>
</circle><line x1="376.959991" y1="1202.959961" x2="357.959991" y2="1900.959961" stroke="red" stroke-width="6.660000" />
<circle cx="708.960022" cy="1893.959961" r="19.980000" fill="red">
  <title>Cairo</title>
</circle><line x1="357.959991" y1="1900.959961" x2="708.960022" y2="1893.959961" stroke="red" stroke-width="6.660000" />
<circle cx="1812.959961" cy="1768.959961" r="19.980000" fill="red">
  <title>Delhi</title>
</circle><line x1="708.960022" y1="1893.959961" x2="1812.959961" y2="1768.959961" stroke="red" stroke-width="6.660000" />
<circle cx="1565.959961" cy="1277.959961" r="19.980000" fill="red">
  <title>Shanghai</title>
</circle><line x1="1812.959961" y1="1768.959961" x2="1565.959961" y2="1277.959961" stroke="red" stroke-width="6.660000" />
</svg>
