<?xml version="1.0" encoding="UTF-8" standalone="no"?>
<svg width="500" height="500" viewBox="0 0 2074.000000 2074.000000" xmlns="http://www.w3.org/2000/svg">
<rect x="19.000000" y="19.000000" width="2036.000000" height="2036.000000" fill="black" />
<circle cx="1381.959961" cy="1758.959961" r="19.980000" fill="red">
  <title>Tokyo</title>
</circle><line x1="1597.959961" y1="2004.959961" x2="1381.959961" y2="1758.959961" stroke="red" stroke-width="6.660000" />
<circle cx="369.959991" cy="675.960022" r="19.980000" fill="red">
  <title>Shanghai</title>
</circle><line x1="1381.959961" y1="1758.959961" x2="369.959991" y2="675.960022" stroke="red" stroke-width="6.660000" />
<circle cx="725.960022" cy="750.960022" r="19.980000" fill="red">
  <title>Cairo</title>
</circle><line x1="369.959991" y1="675.960022" x2="725.960022" y2="750.960022" stroke="red" stroke-width="6.660000" />
<circle cx="1814.959961" cy="1035.959961" r="19.980000" fill="red">
  <title>São Paulo</title>
</circle><line x1="725.960022" y1="750.960022" x2="1814.959961" y2="1035.959961" stroke="red" stroke-width="6.660000" />
<circle cx="1728.959961" cy="1194.959961" r="19.980000" fill="red">
  <title>Delhi</title>
</circle><line x1="1814.959961" y1="1035.959961" x2="1728.959961" y2="1194.959961" stroke="red" stroke-width="6.660000" />
<circle cx="1679.959961" cy="1404.959961" r="19.980000" fill="red">
  <title>Mexico City</title>
</circle><line x1="1728.959961" y1="1194.959961" x2="1679.959961" y2="1404.959961" stroke="red" stroke-width="6.660000" />
<circle cx="1597.959961" cy="2004.959961" r="19.980000" fill="red">
  <title>Mumbai</title>
</circle><line x1="1679.959961" y1="1404.959961" x2="1597.959961" y2="2004.959961" stroke="red" stroke-width="6.660000" />
</svg>
