<?xml version="1.0" encoding="UTF-8" standalone="no"?>
<svg width="500" height="500" viewBox="0 0 2074.000000 2074.000000" xmlns="http://www.w3.org/2000/svg">
<rect x="19.000000" y="19.000000" width="2036.000000" height="2036.000000" fill="black" />
<circle cx="548.960022" cy="865.960022" r="19.980000" fill="red">
  <title>Tokyo</title>
</circle><line x1="410.959991" y1="324.959991" x2="548.960022" y2="865.960022" stroke="red" stroke-width="6.660000" />
<circle cx="1051.959961" cy="894.960022" r="19.980000" fill="red">
  <title>Osaka</title>
</circle><line x1="548.960022" y1="865.960022" x2="1051.959961" y2="894.960022" stroke="red" stroke-width="6.660000" />
<circle cx="718.960022" cy="1351.959961" r="19.980000" fill="red">
  <title>Dhaka</title>
</circle><line x1="1051.959961" y1="894.960022" x2="718.960022" y2="1351.959961" stroke="red" stroke-width="6.660000" />
<circle cx="573.960022" cy="1258.959961" r="19.980000" fill="red">
  <title>Karachi</title>
</circle><line x1="718.960022" y1="1351.959961" x2="573.960022" y2="1258.959961" stroke="red" stroke-width="6.660000" />
<circle cx="205.959991" cy="1896.959961" r="19.980000" fill="red">
  <title>Shanghai</title>
</circle><line x1="573.960022" y1="1258.959961" x2="205.959991" y2="1896.959961" stroke="red" stroke-width="6.660000" />
<circle cx="1152.959961" cy="1846.959961" r="19.980000" fill="red">
  <title>Mexico City</title>
</circle><line x1="205.959991" y1="1896.959961" x2="1152.959961" y2="1846.959961" stroke="red" stroke-width="6.660000" />
<circle cx="1915.959961" cy="1828.959961" r="19.980000" fill="red">
  <title>Beijing</title>
</circle><line x1="1152.959961" y1="1846.959961" x2="1915.959961" y2="1828.959961" stroke="red" stroke-width="6.660000" />
<circle cx="1623.959961" cy="950.960022" r="19.980000" fill="red">
  <title>Mumbai</title>
</circle><line x1="1915.959961" y1="1828.959961" x2="1623.959961" y2="950.960022" stroke="red" stroke-width="6.660000" />
<circle cx="1626.959961" cy="948.960022" r="19.980000" fill="red">
  <title>New York</title>
</circle><line x1="1623.959961" y1="950.960022" x2="1626.959961" y2="948.960022" stroke="red" stroke-width="6.660000" />
<circle cx="1502.959961" cy="309.959991" r="19.980000" fill="red">
  <title>Delhi</title>
</circle><line x1="1626.959961" y1="948.960022" x2="1502.959961" y2="309.959991" stroke="red" stroke-width="6.660000" />
<circle cx="1275.959961" cy="123.959999" r="19.980000" fill="red">
  <title>Buenos Aires</title>
</circle><line x1="1502.959961" y1="309.959991" x2="1275.959961" y2="123.959999" stroke="red" stroke-width="6.660000" />
<circle cx="1201.959961" cy="217.959991" r="19.980000" fill="red">
  <title>Chongqing</title>
</circle><line x1="1275.959961" y1="123.959999" x2="1201.959961" y2="217.959991" stroke="red" stroke-width="6.660000" />
<circle cx="731.960022" cy="416.959991" r="19.980000" fill="red">
  <title>São Paulo</title>
</circle><line x1="1201.959961" y1="217.959991" x2="731.960022" y2="416.959991" stroke="red" stroke-width="6.660000" />
<circle cx="410.959991" cy="324.959991" r="19.980000" fill="red">
  <title>Cairo</title>
</circle><line x1="731.960022" y1="416.959991" x2="410.959991" y2="324.959991" stroke="red" stroke-width="6.660000" />
</svg>
