<?xml version="1.0" encoding="UTF-8" standalone="no"?>
<svg width="500" height="500" viewBox="0 0 2074.000000 2074.000000" xmlns="http://www.w3.org/2000/svg">
<rect x="19.000000" y="19.000000" width="2036.000000" height="2036.000000" fill="black" />
<circle cx="236.959991" cy="1904.959961" r="19.980000" fill="red">
  <title>Tokyo</title>
</circle><line x1="914.960022" y1="1455.959961" x2="236.959991" y2="1904.959961" stroke="red" stroke-width="6.660000" />
<circle cx="128.959991" cy="1647.959961" r="19.980000" fill="red">
  <title>Osaka</title>
</circle><line x1="236.959991" y1="1904.959961" x2="128.959991" y2="1647.959961" stroke="red" stroke-width="6.660000" />
<circle cx="617.960022" cy="1107.959961" r="19.980000" fill="red">
  <title>Mexico City</title>
</circle><line x1="128.959991" y1="1647.959961" x2="617.960022" y2="1107.959961" stroke="red" stroke-width="6.660000" />
<circle cx="485.959991" cy="825.960022" r="19.980000" fill="red">
  <title>Beijing</title>
</circle><line x1="617.960022" y1="1107.959961" x2="485.959991" y2="825.960022" stroke="red" stroke-width="6.660000" />
<circle cx="467.959991" cy="693.960022" r="19.980000" fill="red">
  <title>Chongqing</title>
</circle><line x1="485.959991" y1="825.960022" x2="467.959991" y2="693.960022" stroke="red" stroke-width="6.660000" />
<circle cx="447.959991" cy="522.960022" r="19.980000" fill="red">
  <title>Kolkata</title>
</circle><line x1="467.959991" y1="693.960022" x2="447.959991" y2="522.960022" stroke="red" stroke-width="6.660000" />
<circle cx="456.959991" cy="501.959991" r="19.980000" fill="red">
  <title>Buenos Aires</title>
</circle><line x1="447.959991" y1="522.960022" x2="456.959991" y2="501.959991" stroke="red" stroke-width="6.660000" />
<circle cx="351.959991" cy="309.959991" r="19.980000" fill="red">
  <title>New York</title>
</circle><line x1="456.959991" y1="501.959991" x2="351.959991" y2="309.959991" stroke="red" stroke-width="6.660000" />
<circle cx="325.959991" cy="45.959999" r="19.980000" fill="red">
  <title>Istanbul</title>
</circle><line x1="351.959991" y1="309.959991" x2="325.959991" y2="45.959999" stroke="red" stroke-width="6.660000" />
<circle cx="637.960022" cy="452.959991" r="19.980000" fill="red">
  <title>Dhaka</title>
</circle><line x1="325.959991" y1="45.959999" x2="637.960022" y2="452.959991" stroke="red" stroke-width="6.660000" />
<circle cx="1318.959961" cy="656.960022" r="19.980000" fill="red">
  <title>Cairo</title>
</circle><line x1="637.960022" y1="452.959991" x2="1318.959961" y2="656.960022" stroke="red" stroke-width="6.660000" />
<circle cx="1614.959961" cy="1080.959961" r="19.980000" fill="red">
  <title>Delhi</title>
</circle><line x1="1318.959961" y1="656.960022" x2="1614.959961" y2="1080.959961" stroke="red" stroke-width="6.660000" />
<circle cx="1510.959961" cy="1194.959961" r="19.980000" fill="red">
  <title>Karachi</title>
</circle><line x1="1614.959961" y1="1080.959961" x2="1510.959961" y2="1194.959961" stroke="red" stroke-width="6.660000" />
<circle cx="1874.959961" cy="1687.959961" r="19.980000" fill="red">
  <title>Mumbai</title>
</circle><line x1="1510.959961" y1="1194.959961" x2="1874.959961" y2="1687.959961" stroke="red" stroke-width="6.660000" />
<circle cx="1911.959961" cy="2022.959961" r="19.980000" fill="red">
  <title>Manila</title>
</circle><line x1="1874.959961" y1="1687.959961" x2="1911.959961" y2="2022.959961" stroke="red" stroke-width="6.660000" />
<circle cx="1731.959961" cy="1889.959961" r="19.980000" fill="red">
  <title>Shanghai</title>
</circle><line x1="1911.959961" y1="2022.959961" x2="1731.959961" y2="1889.959961" stroke="red" stroke-width="6.660000" />
<circle cx="1563.959961" cy="1604.959961" r="19.980000" fill="red">
  <title>Lagos</title>
</circle><line x1="1731.959961" y1="1889.959961" x2="1563.959961" y2="1604.959961" stroke="red" stroke-width="6.660000" />
<circle cx="914.960022" cy="1455.959961" r="19.980000" fill="red">
  <title>São Paulo</title>
</circle><line x1="1563.959961" y1="1604.959961" x2="914.960022" y2="1455.959961" stroke="red" stroke-width="6.660000" />
</svg>
