<?xml version="1.0" encoding="UTF-8" standalone="no"?>
<svg width="500" height="500" viewBox="0 0 2074.000000 2074.000000" xmlns="http://www.w3.org/2000/svg">
<rect x="19.000000" y="19.000000" width="2036.000000" height="2036.000000" fill="black" />
<circle cx="1882.959961" cy="1477.959961" r="19.980000" fill="red">
  <title>Tokyo</title>
</circle><line x1="1348.959961" y1="1150.959961" x2="1882.959961" y2="1477.959961" stroke="red" stroke-width="6.660000" />
<circle cx="2036.959961" cy="1646.959961" r="19.980000" fill="red">
  <title>Osaka</title>
</circle><line x1="1882.959961" y1="1477.959961" x2="2036.959961" y2="1646.959961" stroke="red" stroke-width="6.660000" />
<circle cx="2037.959961" cy="1182.959961" r="19.980000" fill="red">
  <title>Chongqing</title>
</circle><line x1="2036.959961" y1="1646.959961" x2="2037.959961" y2="1182.959961" stroke="red" stroke-width="6.660000" />
<circle cx="1775.959961" cy="899.960022" r="19.980000" fill="red">
  <title>Delhi</title>
</circle><line x1="2037.959961" y1="1182.959961" x2="1775.959961" y2="899.960022" stroke="red" stroke-width="6.660000" />
<circle cx="1655.959961" cy="640.960022" r="19.980000" fill="red">
  <title>Dhaka</title>
</circle><line x1="1775.959961" y1="899.960022" x2="1655.959961" y2="640.960022" stroke="red" stroke-width="6.660000" />
<circle cx="1278.959961" cy="773.960022" r="19.980000" fill="red">
  <title>Mumbai</title>
</circle><line x1="1655.959961" y1="640.960022" x2="1278.959961" y2="773.960022" stroke="red" stroke-width="6.660000" />
<circle cx="1133.959961" cy="401.959991" r="19.980000" fill="red">
  <title>Cairo</title>
</circle><line x1="1278.959961" y1="773.960022" x2="1133.959961" y2="401.959991" stroke="red" stroke-width="6.660000" />
<circle cx="579.960022" cy="78.959999" r="19.980000" fill="red">
  <title>Mexico City</title>
</circle><line x1="1133.959961" y1="401.959991" x2="579.960022" y2="78.959999" stroke="red" stroke-width="6.660000" />
<circle cx="374.959991" cy="475.959991" r="19.980000" fill="red">
  <title>Shanghai</title>
</circle><line x1="579.960022" y1="78.959999" x2="374.959991" y2="475.959991" stroke="red" stroke-width="6.660000" />
<circle cx="709.960022" cy="806.960022" r="19.980000" fill="red">
  <title>Beijing</title>
</circle><line x1="374.959991" y1="475.959991" x2="709.960022" y2="806.960022" stroke="red" stroke-width="6.660000" />
<circle cx="235.959991" cy="1864.959961" r="19.980000" fill="red">
  <title>Karachi</title>
</circle><line x1="709.960022" y1="806.960022" x2="235.959991" y2="1864.959961" stroke="red" stroke-width="6.660000" />
<circle cx="480.959991" cy="1900.959961" r="19.980000" fill="red">
  <title>São Paulo</title>
</circle><line x1="235.959991" y1="1864.959961" x2="480.959991" y2="1900.959961" stroke="red" stroke-width="6.660000" />
<circle cx="1301.959961" cy="1209.959961" r="19.980000" fill="red">
  <title>Buenos Aires</title>
</circle><line x1="480.959991" y1="1900.959961" x2="1301.959961" y2="1209.959961" stroke="red" stroke-width="6.660000" />
<circle cx="1348.959961" cy="1150.959961" r="19.980000" fill="red">
  <title>New York</title>
</circle><line x1="1301.959961" y1="1209.959961" x2="1348.959961" y2="1150.959961" stroke="red" stroke-width="6.660000" />
</svg>
