<?xml version="1.0" encoding="UTF-8" standalone="no"?>
<svg width="500" height="500" viewBox="0 0 2074.000000 2074.000000" xmlns="http://www.w3.org/2000/svg">
<rect x="19.000000" y="19.000000" width="2036.000000" height="2036.000000" fill="black" />
<circle cx="1956.959961" cy="1534.959961" r="19.980000" fill="red">
  <title>Tokyo</title>
</circle><line x1="1781.959961" y1="310.959991" x2="1956.959961" y2="1534.959961" stroke="red" stroke-width="6.660000" />
<circle cx="1599.959961" cy="1894.959961" r="19.980000" fill="red">
  <title>Shanghai</title>
</circle><line x1="1956.959961" y1="1534.959961" x2="1599.959961" y2="1894.959961" stroke="red" stroke-width="6.660000" />
<circle cx="1640.959961" cy="822.960022" r="19.980000" fill="red">
  <title>São Paulo</title>
</circle><line x1="1599.959961" y1="1894.959961" x2="1640.959961" y2="822.960022" stroke="red" stroke-width="6.660000" />
<circle cx="1804.959961" cy="107.959999" r="19.980000" fill="red">
  <title>Delhi</title>
</circle><line x1="1640.959961" y1="822.960022" x2="1804.959961" y2="107.959999" stroke="red" stroke-width="6.660000" />
<circle cx="1781.959961" cy="310.959991" r="19.980000" fill="red">
  <title>Mexico City</title>
</circle><line x1="1804.959961" y1="107.959999" x2="1781.959961" y2="310.959991" stroke="red" stroke-width="6.660000" />
</svg>
