<?xml version="1.0" encoding="UTF-8" standalone="no"?>
<svg width="500" height="500" viewBox="0 0 2074.000000 2074.000000" xmlns="http://www.w3.org/2000/svg">
<rect x="19.000000" y="19.000000" width="2036.000000" height="2036.000000" fill="black" />
<circle cx="624.960022" cy="767.960022" r="19.980000" fill="red">
  <title>Tokyo</title>
</circle><line x1="502.959991" y1="258.959991" x2="624.960022" y2="767.960022" stroke="red" stroke-width="6.660000" />
<circle cx="295.959991" cy="731.960022" r="19.980000" fill="red">
  <title>Mumbai</title>
</circle><line x1="624.960022" y1="767.960022" x2="295.959991" y2="731.960022" stroke="red" stroke-width="6.660000" />
<circle cx="139.959991" cy="1909.959961" r="19.980000" fill="red">
  <title>Istanbul</title>
</circle><line x1="295.959991" y1="731.960022" x2="139.959991" y2="1909.959961" stroke="red" stroke-width="6.660000" />
<circle cx="698.960022" cy="1508.959961" r="19.980000" fill="red">
  <title>Beijing</title>
</circle><line x1="139.959991" y1="1909.959961" x2="698.960022" y2="1508.959961" stroke="red" stroke-width="6.660000" />
<circle cx="903.960022" cy="887.960022" r="19.980000" fill="red">
  <title>New York</title>
</circle><line x1="698.960022" y1="1508.959961" x2="903.960022" y2="887.960022" stroke="red" stroke-width="6.660000" />
<circle cx="996.960022" cy="1027.959961" r="19.980000" fill="red">
  <title>Buenos Aires</title>
</circle><line x1="903.960022" y1="887.960022" x2="996.960022" y2="1027.959961" stroke="red" stroke-width="6.660000" />
<circle cx="1451.959961" cy="1283.959961" r="19.980000" fill="red">
  <title>Osaka</title>
</circle><line x1="996.960022" y1="1027.959961" x2="1451.959961" y2="1283.959961" stroke="red" stroke-width="6.660000" />
<circle cx="1581.959961" cy="1568.959961" r="19.980000" fill="red">
  <title>Cairo</title>
</circle><line x1="1451.959961" y1="1283.959961" x2="1581.959961" y2="1568.959961" stroke="red" stroke-width="6.660000" />
<circle cx="1584.959961" cy="1231.959961" r="19.980000" fill="red">
  <title>Chongqing</title>
</circle><line x1="1581.959961" y1="1568.959961" x2="1584.959961" y2="1231.959961" stroke="red" stroke-width="6.660000" />
<circle cx="1636.959961" cy="850.960022" r="19.980000" fill="red">
  <title>Karachi</title>
</circle><line x1="1584.959961" y1="1231.959961" x2="1636.959961" y2="850.960022" stroke="red" stroke-width="6.660000" />
<circle cx="1601.959961" cy="731.960022" r="19.980000" fill="red">
  <title>Delhi</title>
</circle><line x1="1636.959961" y1="850.960022" x2="1601.959961" y2="731.960022" stroke="red" stroke-width="6.660000" />
<circle cx="1394.959961" cy="762.960022" r="19.980000" fill="red">
  <title>São Paulo</title>
</circle><line x1="1601.959961" y1="731.960022" x2="1394.959961" y2="762.960022" stroke="red" stroke-width="6.660000" />
<circle cx="1015.960022" cy="543.960022" r="19.980000" fill="red">
  <title>Mexico City</title>
</circle><line x1="1394.959961" y1="762.960022" x2="1015.960022" y2="543.960022" stroke="red" stroke-width="6.660000" />
<circle cx="733.960022" cy="342.959991" r="19.980000" fill="red">
  <title>Shanghai</title>
</circle><line x1="1015.960022" y1="543.960022" x2="733.960022" y2="342.959991" stroke="red" stroke-width="6.660000" />
<circle cx="502.959991" cy="258.959991" r="19.980000" fill="red">
  <title>Dhaka</title>
</circle><line x1="733.960022" y1="342.959991" x2="502.959991" y2="258.959991" stroke="red" stroke-width="6.660000" />
</svg>
