<?xml version="1.0" encoding="UTF-8" standalone="no"?>
<svg width="500" height="500" viewBox="0 0 2074.000000 2074.000000" xmlns="http://www.w3.org/2000/svg">
<rect x="19.000000" y="19.000000" width="2036.000000" height="2036.000000" fill="black" />
<circle cx="1794.959961" cy="1503.959961" r="19.980000" fill="red">
  <title>Tokyo</title>
</circle><line x1="1812.959961" y1="1477.959961" x2="1794.959961" y2="1503.959961" stroke="red" stroke-width="6.660000" />
<circle cx="1092.959961" cy="1184.959961" r="19.980000" fill="red">
  <title>Shanghai</title>
</circle><line x1="1794.959961" y1="1503.959961" x2="1092.959961" y2="1184.959961" stroke="red" stroke-width="6.660000" />
<circle cx="863.960022" cy="1489.959961" r="19.980000" fill="red">
  <title>New York</title>
</circle><line x1="1092.959961" y1="1184.959961" x2="863.960022" y2="1489.959961" stroke="red" stroke-width="6.660000" />
<circle cx="622.960022" cy="2003.959961" r="19.980000" fill="red">
  <title>Cairo</title>
</circle><line x1="863.960022" y1="1489.959961" x2="622.960022" y2="2003.959961" stroke="red" stroke-width="6.660000" />
<circle cx="651.960022" cy="1356.959961" r="19.980000" fill="red">
  <title>Mumbai</title>
</circle><line x1="622.960022" y1="2003.959961" x2="651.960022" y2="1356.959961" stroke="red" stroke-width="6.660000" />
<circle cx="469.959991" cy="1176.959961" r="19.980000" fill="red">
  <title>São Paulo</title>
</circle><line x1="651.960022" y1="1356.959961" x2="469.959991" y2="1176.959961" stroke="red" stroke-width="6.660000" />
<circle cx="949.960022" cy="263.959991" r="19.980000" fill="red">
  <title>Beijing</title>
</circle><line x1="469.959991" y1="1176.959961" x2="949.960022" y2="263.959991" stroke="red" stroke-width="6.660000" />
<circle cx="1048.959961" cy="118.959999" r="19.980000" fill="red">
  <title>Buenos Aires</title>
</circle><line x1="949.960022" y1="263.959991" x2="1048.959961" y2="118.959999" stroke="red" stroke-width="6.660000" />
<circle cx="1709.959961" cy="206.959991" r="19.980000" fill="red">
  <title>Osaka</title>
</circle><line x1="1048.959961" y1="118.959999" x2="1709.959961" y2="206.959991" stroke="red" stroke-width="6.660000" />
<circle cx="1698.959961" cy="366.959991" r="19.980000" fill="red">
  <title>Mexico City</title>
</circle><line x1="1709.959961" y1="206.959991" x2="1698.959961" y2="366.959991" stroke="red" stroke-width="6.660000" />
<circle cx="1544.959961" cy="409.959991" r="19.980000" fill="red">
  <title>Karachi</title>
</circle><line x1="1698.959961" y1="366.959991" x2="1544.959961" y2="409.959991" stroke="red" stroke-width="6.660000" />
<circle cx="1161.959961" cy="982.960022" r="19.980000" fill="red">
  <title>Delhi</title>
</circle><line x1="1544.959961" y1="409.959991" x2="1161.959961" y2="982.960022" stroke="red" stroke-width="6.660000" />
<circle cx="1812.959961" cy="1477.959961" r="19.980000" fill="red">
  <title>Dhaka</title>
</circle><line x1="1161.959961" y1="982.960022" x2="1812.959961" y2="1477.959961" stroke="red" stroke-width="6.660000" />
</svg>
