<?xml version="1.0" encoding="UTF-8" standalone="no"?>
<svg width="500" height="500" viewBox="0 0 2074.000000 2074.000000" xmlns="http://www.w3.org/2000/svg">
<rect x="19.000000" y="19.000000" width="2036.000000" height="2036.000000" fill="black" />
<circle cx="1616.959961" cy="1194.959961" r="19.980000" fill="red">
  <title>Tokyo</title>
</circle><line x1="1254.959961" y1="900.960022" x2="1616.959961" y2="1194.959961" stroke="red" stroke-width="6.660000" />
<circle cx="1423.959961" cy="1718.959961" r="19.980000" fill="red">
  <title>Shanghai</title>
</circle><line x1="1616.959961" y1="1194.959961" x2="1423.959961" y2="1718.959961" stroke="red" stroke-width="6.660000" />
<circle cx="1537.959961" cy="1900.959961" r="19.980000" fill="red">
  <title>Mumbai</title>
</circle><line x1="1423.959961" y1="1718.959961" x2="1537.959961" y2="1900.959961" stroke="red" stroke-width="6.660000" />
<circle cx="1046.959961" cy="1792.959961" r="19.980000" fill="red">
  <title>Dhaka</title>
</circle><line x1="1537.959961" y1="1900.959961" x2="1046.959961" y2="1792.959961" stroke="red" stroke-width="6.660000" />
<circle cx="744.960022" cy="1772.959961" r="19.980000" fill="red">
  <title>Lagos</title>
</circle><line x1="1046.959961" y1="1792.959961" x2="744.960022" y2="1772.959961" stroke="red" stroke-width="6.660000" />
<circle cx="323.959991" cy="1988.959961" r="19.980000" fill="red">
  <title>Cairo</title>
</circle><line x1="744.960022" y1="1772.959961" x2="323.959991" y2="1988.959961" stroke="red" stroke-width="6.660000" />
<circle cx="386.959991" cy="1687.959961" r="19.980000" fill="red">
  <title>Beijing</title>
</circle><line x1="323.959991" y1="1988.959961" x2="386.959991" y2="1687.959961" stroke="red" stroke-width="6.660000" />
<circle cx="562.960022" cy="1519.959961" r="19.980000" fill="red">
  <title>São Paulo</title>
</circle><line x1="386.959991" y1="1687.959961" x2="562.960022" y2="1519.959961" stroke="red" stroke-width="6.660000" />
<circle cx="665.960022" cy="1556.959961" r="19.980000" fill="red">
  <title>Karachi</title>
</circle><line x1="562.960022" y1="1519.959961" x2="665.960022" y2="1556.959961" stroke="red" stroke-width="6.660000" />
<circle cx="890.960022" cy="1232.959961" r="19.980000" fill="red">
  <title>Istanbul</title>
</circle><line x1="665.960022" y1="1556.959961" x2="890.960022" y2="1232.959961" stroke="red" stroke-width="6.660000" />
<circle cx="677.960022" cy="1267.959961" r="19.980000" fill="red">
  <title>Rio de Janeiro</title>
</circle><line x1="890.960022" y1="1232.959961" x2="677.960022" y2="1267.959961" stroke="red" stroke-width="6.660000" />
<circle cx="388.959991" cy="996.960022" r="19.980000" fill="red">
  <title>Manila</title>
</circle><line x1="677.960022" y1="1267.959961" x2="388.959991" y2="996.960022" stroke="red" stroke-width="6.660000" />
<circle cx="261.959991" cy="827.960022" r="19.980000" fill="red">
  <title>Mexico City</title>
</circle><line x1="388.959991" y1="996.960022" x2="261.959991" y2="827.960022" stroke="red" stroke-width="6.660000" />
<circle cx="41.959999" cy="469.959991" r="19.980000" fill="red">
  <title>Kolkata</title>
</circle><line x1="261.959991" y1="827.960022" x2="41.959999" y2="469.959991" stroke="red" stroke-width="6.660000" />
<circle cx="139.959991" cy="250.959991" r="19.980000" fill="red">
  <title>New York</title>
</circle><line x1="41.959999" y1="469.959991" x2="139.959991" y2="250.959991" stroke="red" stroke-width="6.660000" />
<circle cx="610.960022" cy="151.959991" r="19.980000" fill="red">
  <title>Chongqing</title>
</circle><line x1="139.959991" y1="250.959991" x2="610.960022" y2="151.959991" stroke="red" stroke-width="6.660000" />
<circle cx="993.960022" cy="314.959991" r="19.980000" fill="red">
  <title>Delhi</title>
</circle><line x1="610.960022" y1="151.959991" x2="993.960022" y2="314.959991" stroke="red" stroke-width="6.660000" />
<circle cx="914.960022" cy="478.959991" r="19.980000" fill="red">
  <title>Buenos Aires</title>
</circle><line x1="993.960022" y1="314.959991" x2="914.960022" y2="478.959991" stroke="red" stroke-width="6.660000" />
<circle cx="638.960022" cy="628.960022" r="19.980000" fill="red">
  <title>Osaka</title>
</circle><line x1="914.960022" y1="478.959991" x2="638.960022" y2="628.960022" stroke="red" stroke-width="6.660000" />
<circle cx="1254.959961" cy="900.960022" r="19.980000" fill="red">
  <title>Tianjin</title>
</circle><line x1="638.960022" y1="628.960022" x2="1254.959961" y2="900.960022" stroke="red" stroke-width="6.660000" />
</svg>
