<?xml version="1.0" encoding="UTF-8" standalone="no"?>
<svg width="500" height="500" viewBox="0 0 2074.000000 2074.000000" xmlns="http://www.w3.org/2000/svg">
<rect x="19.000000" y="19.000000" width="2036.000000" height="2036.000000" fill="black" />
<circle cx="329.959991" cy="1390.959961" r="19.980000" fill="red">
  <title>Tokyo</title>
</circle><line x1="163.959991" y1="1063.959961" x2="329.959991" y2="1390.959961" stroke="red" stroke-width="6.660000" />
<circle cx="230.959991" cy="1574.959961" r="19.980000" fill="red">
  <title>Karachi</title>
</circle><line x1="329.959991" y1="1390.959961" x2="230.959991" y2="1574.959961" stroke="red" stroke-width="6.660000" />
<circle cx="416.959991" cy="1886.959961" r="19.980000" fill="red">
  <title>Manila</title>
</circle><line x1="230.959991" y1="1574.959961" x2="416.959991" y2="1886.959961" stroke="red" stroke-width="6.660000" />
<circle cx="396.959991" cy="1930.959961" r="19.980000" fill="red">
  <title>Lagos</title>
</circle><line x1="416.959991" y1="1886.959961" x2="396.959991" y2="1930.959961" stroke="red" stroke-width="6.660000" />
<circle cx="976.960022" cy="1980.959961" r="19.980000" fill="red">
  <title>Delhi</title>
</circle><line x1="396.959991" y1="1930.959961" x2="976.960022" y2="1980.959961" stroke="red" stroke-width="6.660000" />
<circle cx="1375.959961" cy="1742.959961" r="19.980000" fill="red">
  <title>Buenos Aires</title>
</circle><line x1="976.960022" y1="1980.959961" x2="1375.959961" y2="1742.959961" stroke="red" stroke-width="6.660000" />
<circle cx="1740.959961" cy="2030.959961" r="19.980000" fill="red">
  <title>São Paulo</title>
</circle><line x1="1375.959961" y1="1742.959961" x2="1740.959961" y2="2030.959961" stroke="red" stroke-width="6.660000" />
<circle cx="1938.959961" cy="1645.959961" r="19.980000" fill="red">
  <title>Beijing</title>
</circle><line x1="1740.959961" y1="2030.959961" x2="1938.959961" y2="1645.959961" stroke="red" stroke-width="6.660000" />
<circle cx="1955.959961" cy="1279.959961" r="19.980000" fill="red">
  <title>Chongqing</title>
</circle><line x1="1938.959961" y1="1645.959961" x2="1955.959961" y2="1279.959961" stroke="red" stroke-width="6.660000" />
<circle cx="1553.959961" cy="1370.959961" r="19.980000" fill="red">
  <title>Shanghai</title>
</circle><line x1="1955.959961" y1="1279.959961" x2="1553.959961" y2="1370.959961" stroke="red" stroke-width="6.660000" />
<circle cx="1529.959961" cy="1498.959961" r="19.980000" fill="red">
  <title>Mumbai</title>
</circle><line x1="1553.959961" y1="1370.959961" x2="1529.959961" y2="1498.959961" stroke="red" stroke-width="6.660000" />
<circle cx="1244.959961" cy="1500.959961" r="19.980000" fill="red">
  <title>Mexico City</title>
</circle><line x1="1529.959961" y1="1498.959961" x2="1244.959961" y2="1500.959961" stroke="red" stroke-width="6.660000" />
<circle cx="1174.959961" cy="1225.959961" r="19.980000" fill="red">
  <title>Dhaka</title>
</circle><line x1="1244.959961" y1="1500.959961" x2="1174.959961" y2="1225.959961" stroke="red" stroke-width="6.660000" />
<circle cx="1571.959961" cy="1113.959961" r="19.980000" fill="red">
  <title>New York</title>
</circle><line x1="1174.959961" y1="1225.959961" x2="1571.959961" y2="1113.959961" stroke="red" stroke-width="6.660000" />
<circle cx="1827.959961" cy="404.959991" r="19.980000" fill="red">
  <title>Osaka</title>
</circle><line x1="1571.959961" y1="1113.959961" x2="1827.959961" y2="404.959991" stroke="red" stroke-width="6.660000" />
<circle cx="949.960022" cy="454.959991" r="19.980000" fill="red">
  <title>Kolkata</title>
</circle><line x1="1827.959961" y1="404.959991" x2="949.960022" y2="454.959991" stroke="red" stroke-width="6.660000" />
<circle cx="555.960022" cy="612.960022" r="19.980000" fill="red">
  <title>Cairo</title>
</circle><line x1="949.960022" y1="454.959991" x2="555.960022" y2="612.960022" stroke="red" stroke-width="6.660000" />
<circle cx="163.959991" cy="1063.959961" r="19.980000" fill="red">
  <title>Istanbul</title>
</circle><line x1="555.960022" y1="612.960022" x2="163.959991" y2="1063.959961" stroke="red" stroke-width="6.660000" />
</svg>
