<?xml version="1.0" encoding="UTF-8" standalone="no"?>
<svg width="500" height="500" viewBox="0 0 2074.000000 2074.000000" xmlns="http://www.w3.org/2000/svg">
<rect x="19.000000" y="19.000000" width="2036.000000" height="2036.000000" fill="black" />
<circle cx="1480.959961" cy="1887.959961" r="19.980000" fill="red">
  <title>Tokyo</title>
</circle><line x1="1531.959961" y1="2030.959961" x2="1480.959961" y2="1887.959961" stroke="red" stroke-width="6.660000" />
<circle cx="876.960022" cy="1628.959961" r="19.980000" fill="red">
  <title>Osaka</title>
</circle><line x1="1480.959961" y1="1887.959961" x2="876.960022" y2="1628.959961" stroke="red" stroke-width="6.660000" />
<circle cx="283.959991" cy="1562.959961" r="19.980000" fill="red">
  <title>São Paulo</title>
</circle><line x1="876.960022" y1="1628.959961" x2="283.959991" y2="1562.959961" stroke="red" stroke-width="6.660000" />
<circle cx="92.959999" cy="1360.959961" r="19.980000" fill="red">
  <title>New York</title>
</circle><line x1="283.959991" y1="1562.959961" x2="92.959999" y2="1360.959961" stroke="red" stroke-width="6.660000" />
<circle cx="683.960022" cy="1039.959961" r="19.980000" fill="red">
  <title>Mexico City</title>
</circle><line x1="92.959999" y1="1360.959961" x2="683.960022" y2="1039.959961" stroke="red" stroke-width="6.660000" />
<circle cx="844.960022" cy="736.960022" r="19.980000" fill="red">
  <title>Cairo</title>
</circle><line x1="683.960022" y1="1039.959961" x2="844.960022" y2="736.960022" stroke="red" stroke-width="6.660000" />
<circle cx="509.959991" cy="490.959991" r="19.980000" fill="red">
  <title>Chongqing</title>
</circle><line x1="844.960022" y1="736.960022" x2="509.959991" y2="490.959991" stroke="red" stroke-width="6.660000" />
<circle cx="685.960022" cy="556.960022" r="19.980000" fill="red">
  <title>Shanghai</title>
</circle><line x1="509.959991" y1="490.959991" x2="685.960022" y2="556.960022" stroke="red" stroke-width="6.660000" />
<circle cx="975.960022" cy="651.960022" r="19.980000" fill="red">
  <title>Buenos Aires</title>
</circle><line x1="685.960022" y1="556.960022" x2="975.960022" y2="651.960022" stroke="red" stroke-width="6.660000" />
<circle cx="1308.959961" cy="209.959991" r="19.980000" fill="red">
  <title>Mumbai</title>
</circle><line x1="975.960022" y1="651.960022" x2="1308.959961" y2="209.959991" stroke="red" stroke-width="6.660000" />
<circle cx="1763.959961" cy="1116.959961" r="19.980000" fill="red">
  <title>Delhi</title>
</circle><line x1="1308.959961" y1="209.959991" x2="1763.959961" y2="1116.959961" stroke="red" stroke-width="6.660000" />
<circle cx="1810.959961" cy="1321.959961" r="19.980000" fill="red">
  <title>Dhaka</title>
</circle><line x1="1763.959961" y1="1116.959961" x2="1810.959961" y2="1321.959961" stroke="red" stroke-width="6.660000" />
<circle cx="1985.959961" cy="1379.959961" r="19.980000" fill="red">
  <title>Karachi</title>
</circle><line x1="1810.959961" y1="1321.959961" x2="1985.959961" y2="1379.959961" stroke="red" stroke-width="6.660000" />
<circle cx="1531.959961" cy="2030.959961" r="19.980000" fill="red">
  <title>Beijing</title>
</circle><line x1="1985.959961" y1="1379.959961" x2="1531.959961" y2="2030.959961" stroke="red" stroke-width="6.660000" />
</svg>
