<?xml version="1.0" encoding="UTF-8" standalone="no"?>
<svg width="500" height="500" viewBox="0 0 2074.000000 2074.000000" xmlns="http://www.w3.org/2000/svg">
<rect x="19.000000" y="19.000000" width="2036.000000" height="2036.000000" fill="black" />
<circle cx="852.960022" cy="84.959999" r="19.980000" fill="red">
  <title>Tokyo</title>
</circle><line x1="1355.959961" y1="433.959991" x2="852.960022" y2="84.959999" stroke="red" stroke-width="6.660000" />
<circle cx="834.960022" cy="252.959991" r="19.980000" fill="red">
  <title>New York</title>
</circle><line x1="852.960022" y1="84.959999" x2="834.960022" y2="252.959991" stroke="red" stroke-width="6.660000" />
<circle cx="728.960022" cy="550.960022" r="19.980000" fill="red">
  <title>Istanbul</title>
</circle><line x1="834.960022" y1="252.959991" x2="728.960022" y2="550.960022" stroke="red" stroke-width="6.660000" />
<circle cx="795.960022" cy="561.960022" r="19.980000" fill="red">
  <title>Dhaka</title>
</circle><line x1="728.960022" y1="550.960022" x2="795.960022" y2="561.960022" stroke="red" stroke-width="6.660000" />
<circle cx="789.960022" cy="968.960022" r="19.980000" fill="red">
  <title>Beijing</title>
</circle><line x1="795.960022" y1="561.960022" x2="789.960022" y2="968.960022" stroke="red" stroke-width="6.660000" />
<circle cx="596.960022" cy="882.960022" r="19.980000" fill="red">
  <title>Manila</title>
</circle><line x1="789.960022" y1="968.960022" x2="596.960022" y2="882.960022" stroke="red" stroke-width="6.660000" />
<circle cx="92.959999" cy="1620.959961" r="19.980000" fill="red">
  <title>Buenos Aires</title>
</circle><line x1="596.960022" y1="882.960022" x2="92.959999" y2="1620.959961" stroke="red" stroke-width="6.660000" />
<circle cx="669.960022" cy="1511.959961" r="19.980000" fill="red">
  <title>São Paulo</title>
</circle><line x1="92.959999" y1="1620.959961" x2="669.960022" y2="1511.959961" stroke="red" stroke-width="6.660000" />
<circle cx="838.960022" cy="1519.959961" r="19.980000" fill="red">
  <title>Karachi</title>
</circle><line x1="669.960022" y1="1511.959961" x2="838.960022" y2="1519.959961" stroke="red" stroke-width="6.660000" />
<circle cx="963.960022" cy="1674.959961" r="19.980000" fill="red">
  <title>Chongqing</title>
</circle><line x1="838.960022" y1="1519.959961" x2="963.960022" y2="1674.959961" stroke="red" stroke-width="6.660000" />
<circle cx="1345.959961" cy="1838.959961" r="19.980000" fill="red">
  <title>Cairo</title>
</circle><line x1="963.960022" y1="1674.959961" x2="1345.959961" y2="1838.959961" stroke="red" stroke-width="6.660000" />
<circle cx="1315.959961" cy="1542.959961" r="19.980000" fill="red">
  <title>Kolkata</title>
</circle><line x1="1345.959961" y1="1838.959961" x2="1315.959961" y2="1542.959961" stroke="red" stroke-width="6.660000" />
<circle cx="1622.959961" cy="1321.959961" r="19.980000" fill="red">
  <title>Mexico City</title>
</circle><line x1="1315.959961" y1="1542.959961" x2="1622.959961" y2="1321.959961" stroke="red" stroke-width="6.660000" />
<circle cx="1266.959961" cy="1063.959961" r="19.980000" fill="red">
  <title>Osaka</title>
</circle><line x1="1622.959961" y1="1321.959961" x2="1266.959961" y2="1063.959961" stroke="red" stroke-width="6.660000" />
<circle cx="1431.959961" cy="1048.959961" r="19.980000" fill="red">
  <title>Shanghai</title>
</circle><line x1="1266.959961" y1="1063.959961" x2="1431.959961" y2="1048.959961" stroke="red" stroke-width="6.660000" />
<circle cx="1604.959961" cy="635.960022" r="19.980000" fill="red">
  <title>Delhi</title>
</circle><line x1="1431.959961" y1="1048.959961" x2="1604.959961" y2="635.960022" stroke="red" stroke-width="6.660000" />
<circle cx="1355.959961" cy="433.959991" r="19.980000" fill="red">
  <title>Mumbai</title>
</circle><line x1="1604.959961" y1="635.960022" x2="1355.959961" y2="433.959991" stroke="red" stroke-width="6.660000" />
</svg>
