<?xml version="1.0" encoding="UTF-8" standalone="no"?>
<svg width="500" height="500" viewBox="0 0 2074.000000 2074.000000" xmlns="http://www.w3.org/2000/svg">
<rect x="19.000000" y="19.000000" width="2036.000000" height="2036.000000" fill="black" />
<circle cx="1530.959961" cy="1743.959961" r="19.980000" fill="red">
  <title>Tokyo</title>
</circle><line x1="1503.959961" y1="1329.959961" x2="1530.959961" y2="1743.959961" stroke="red" stroke-width="6.660000" />
<circle cx="1174.959961" cy="1271.959961" r="19.980000" fill="red">
  <title>Mumbai</title>
</circle><line x1="1530.959961" y1="1743.959961" x2="1174.959961" y2="1271.959961" stroke="red" stroke-width="6.660000" />
<circle cx="530.960022" cy="2036.959961" r="19.980000" fill="red">
  <title>Karachi</title>
</circle><line x1="1174.959961" y1="1271.959961" x2="530.960022" y2="2036.959961" stroke="red" stroke-width="6.660000" />
<circle cx="295.959991" cy="1998.959961" r="19.980000" fill="red">
  <title>Chongqing</title>
</circle><line x1="530.960022" y1="2036.959961" x2="295.959991" y2="1998.959961" stroke="red" stroke-width="6.660000" />
<circle cx="361.959991" cy="1927.959961" r="19.980000" fill="red">
  <title>Dhaka</title>
</circle><line x1="295.959991" y1="1998.959961" x2="361.959991" y2="1927.959961" stroke="red" stroke-width="6.660000" />
<circle cx="309.959991" cy="1363.959961" r="19.980000" fill="red">
  <title>São Paulo</title>
</circle><line x1="361.959991" y1="1927.959961" x2="309.959991" y2="1363.959961" stroke="red" stroke-width="6.660000" />
<circle cx="662.960022" cy="697.960022" r="19.980000" fill="red">
  <title>Osaka</title>
</circle><line x1="309.959991" y1="1363.959961" x2="662.960022" y2="697.960022" stroke="red" stroke-width="6.660000" />
<circle cx="224.959991" cy="280.959991" r="19.980000" fill="red">
  <title>Buenos Aires</title>
</circle><line x1="662.960022" y1="697.960022" x2="224.959991" y2="280.959991" stroke="red" stroke-width="6.660000" />
<circle cx="842.960022" cy="688.960022" r="19.980000" fill="red">
  <title>Delhi</title>
</circle><line x1="224.959991" y1="280.959991" x2="842.960022" y2="688.960022" stroke="red" stroke-width="6.660000" />
<circle cx="1217.959961" cy="314.959991" r="19.980000" fill="red">
  <title>Shanghai</title>
</circle><line x1="842.960022" y1="688.960022" x2="1217.959961" y2="314.959991" stroke="red" stroke-width="6.660000" />
<circle cx="1141.959961" cy="59.959999" r="19.980000" fill="red">
  <title>Cairo</title>
</circle><line x1="1217.959961" y1="314.959991" x2="1141.959961" y2="59.959999" stroke="red" stroke-width="6.660000" />
<circle cx="1216.959961" cy="258.959991" r="19.980000" fill="red">
  <title>Beijing</title>
</circle><line x1="1141.959961" y1="59.959999" x2="1216.959961" y2="258.959991" stroke="red" stroke-width="6.660000" />
<circle cx="1278.959961" cy="423.959991" r="19.980000" fill="red">
  <title>Mexico City</title>
</circle><line x1="1216.959961" y1="258.959991" x2="1278.959961" y2="423.959991" stroke="red" stroke-width="6.660000" />
<circle cx="1836.959961" cy="412.959991" r="19.980000" fill="red">
  <title>Istanbul</title>
</circle><line x1="1278.959961" y1="423.959991" x2="1836.959961" y2="412.959991" stroke="red" stroke-width="6.660000" />
<circle cx="1861.959961" cy="701.960022" r="19.980000" fill="red">
  <title>New York</title>
</circle><line x1="1836.959961" y1="412.959991" x2="1861.959961" y2="701.960022" stroke="red" stroke-width="6.660000" />
<circle cx="1503.959961" cy="1329.959961" r="19.980000" fill="red">
  <title>Kolkata</title>
</circle><line x1="1861.959961" y1="701.960022" x2="1503.959961" y2="1329.959961" stroke="red" stroke-width="6.660000" />
</svg>
