<?xml version="1.0" encoding="UTF-8" standalone="no"?>
<svg width="500" height="500" viewBox="0 0 2074.000000 2074.000000" xmlns="http://www.w3.org/2000/svg">
<rect x="19.000000" y="19.000000" width="2036.000000" height="2036.000000" fill="black" />
<circle cx="273.959991" cy="1577.959961" r="19.980000" fill="red">
  <title>Tokyo</title>
</circle><line x1="684.960022" y1="99.959999" x2="273.959991" y2="1577.959961" stroke="red" stroke-width="6.660000" />
<circle cx="530.960022" cy="1419.959961" r="19.980000" fill="red">
  <title>Shanghai</title>
</circle><line x1="273.959991" y1="1577.959961" x2="530.960022" y2="1419.959961" stroke="red" stroke-width="6.660000" />
<circle cx="1908.959961" cy="352.959991" r="19.980000" fill="red">
  <title>Delhi</title>
</circle><line x1="530.960022" y1="1419.959961" x2="1908.959961" y2="352.959991" stroke="red" stroke-width="6.660000" />
<circle cx="684.960022" cy="99.959999" r="19.980000" fill="red">
  <title>São Paulo</title>
</circle><line x1="1908.959961" y1="352.959991" x2="684.960022" y2="99.959999" stroke="red" stroke-width="6.660000" />
</svg>
