<?xml version="1.0" encoding="UTF-8" standalone="no"?>
<svg width="500" height="500" viewBox="0 0 2074.000000 2074.000000" xmlns="http://www.w3.org/2000/svg">
<rect x="19.000000" y="19.000000" width="2036.000000" height="2036.000000" fill="black" />
<circle cx="792.960022" cy="1783.959961" r="19.980000" fill="red">
  <title>Tokyo</title>
</circle><line x1="759.960022" y1="1752.959961" x2="792.960022" y2="1783.959961" stroke="red" stroke-width="6.660000" />
<circle cx="1068.959961" cy="1591.959961" r="19.980000" fill="red">
  <title>Mumbai</title>
</circle><line x1="792.960022" y1="1783.959961" x2="1068.959961" y2="1591.959961" stroke="red" stroke-width="6.660000" />
<circle cx="1231.959961" cy="1591.959961" r="19.980000" fill="red">
  <title>Osaka</title>
</circle><line x1="1068.959961" y1="1591.959961" x2="1231.959961" y2="1591.959961" stroke="red" stroke-width="6.660000" />
<circle cx="1822.959961" cy="912.960022" r="19.980000" fill="red">
  <title>Mexico City</title>
</circle><line x1="1231.959961" y1="1591.959961" x2="1822.959961" y2="912.960022" stroke="red" stroke-width="6.660000" />
<circle cx="1995.959961" cy="882.960022" r="19.980000" fill="red">
  <title>Istanbul</title>
</circle><line x1="1822.959961" y1="912.960022" x2="1995.959961" y2="882.960022" stroke="red" stroke-width="6.660000" />
<circle cx="1971.959961" cy="749.960022" r="19.980000" fill="red">
  <title>Kolkata</title>
</circle><line x1="1995.959961" y1="882.960022" x2="1971.959961" y2="749.960022" stroke="red" stroke-width="6.660000" />
<circle cx="1754.959961" cy="48.959999" r="19.980000" fill="red">
  <title>Delhi</title>
</circle><line x1="1971.959961" y1="749.960022" x2="1754.959961" y2="48.959999" stroke="red" stroke-width="6.660000" />
<circle cx="1705.959961" cy="154.959991" r="19.980000" fill="red">
  <title>São Paulo</title>
</circle><line x1="1754.959961" y1="48.959999" x2="1705.959961" y2="154.959991" stroke="red" stroke-width="6.660000" />
<circle cx="1197.959961" cy="812.960022" r="19.980000" fill="red">
  <title>Buenos Aires</title>
</circle><line x1="1705.959961" y1="154.959991" x2="1197.959961" y2="812.960022" stroke="red" stroke-width="6.660000" />
<circle cx="1163.959961" cy="834.960022" r="19.980000" fill="red">
  <title>Shanghai</title>
</circle><line x1="1197.959961" y1="812.960022" x2="1163.959961" y2="834.960022" stroke="red" stroke-width="6.660000" />
<circle cx="484.959991" cy="426.959991" r="19.980000" fill="red">
  <title>Rio de Janeiro</title>
</circle><line x1="1163.959961" y1="834.960022" x2="484.959991" y2="426.959991" stroke="red" stroke-width="6.660000" />
<circle cx="344.959991" cy="95.959999" r="19.980000" fill="red">
  <title>Chongqing</title>
</circle><line x1="484.959991" y1="426.959991" x2="344.959991" y2="95.959999" stroke="red" stroke-width="6.660000" />
<circle cx="63.959999" cy="720.960022" r="19.980000" fill="red">
  <title>Cairo</title>
</circle><line x1="344.959991" y1="95.959999" x2="63.959999" y2="720.960022" stroke="red" stroke-width="6.660000" />
<circle cx="281.959991" cy="1101.959961" r="19.980000" fill="red">
  <title>New York</title>
</circle><line x1="63.959999" y1="720.960022" x2="281.959991" y2="1101.959961" stroke="red" stroke-width="6.660000" />
<circle cx="178.959991" cy="1427.959961" r="19.980000" fill="red">
  <title>Dhaka</title>
</circle><line x1="281.959991" y1="1101.959961" x2="178.959991" y2="1427.959961" stroke="red" stroke-width="6.660000" />
<circle cx="478.959991" cy="1478.959961" r="19.980000" fill="red">
  <title>Beijing</title>
</circle><line x1="178.959991" y1="1427.959961" x2="478.959991" y2="1478.959961" stroke="red" stroke-width="6.660000" />
<circle cx="305.959991" cy="1984.959961" r="19.980000" fill="red">
  <title>Karachi</title>
</circle><line x1="478.959991" y1="1478.959961" x2="305.959991" y2="1984.959961" stroke="red" stroke-width="6.660000" />
<circle cx="628.960022" cy="1688.959961" r="19.980000" fill="red">
  <title>Manila</title>
</circle><line x1="305.959991" y1="1984.959961" x2="628.960022" y2="1688.959961" stroke="red" stroke-width="6.660000" />
<circle cx="759.960022" cy="1752.959961" r="19.980000" fill="red">
  <title>Lagos</title>
</circle><line x1="628.960022" y1="1688.959961" x2="759.960022" y2="1752.959961" stroke="red" stroke-width="6.660000" />
</svg>
