<?xml version="1.0" encoding="UTF-8" standalone="no"?>
<svg width="500" height="500" viewBox="0 0 2074.000000 2074.000000" xmlns="http://www.w3.org/2000/svg">
<rect x="19.000000" y="19.000000" width="2036.000000" height="2036.000000" fill="black" />
<circle cx="123.959999" cy="1599.959961" r="19.980000" fill="red">
  <title>Tokyo</title>
</circle><line x1="1171.959961" y1="1322.959961" x2="123.959999" y2="1599.959961" stroke="red" stroke-width="6.660000" />
<circle cx="99.959999" cy="1241.959961" r="19.980000" fill="red">
  <title>São Paulo</title>
</circle><line x1="123.959999" y1="1599.959961" x2="99.959999" y2="1241.959961" stroke="red" stroke-width="6.660000" />
<circle cx="381.959991" cy="1128.959961" r="19.980000" fill="red">
  <title>Mumbai</title>
</circle><line x1="99.959999" y1="1241.959961" x2="381.959991" y2="1128.959961" stroke="red" stroke-width="6.660000" />
<circle cx="1090.959961" cy="1154.959961" r="19.980000" fill="red">
  <title>Dhaka</title>
</circle><line x1="381.959991" y1="1128.959961" x2="1090.959961" y2="1154.959961" stroke="red" stroke-width="6.660000" />
<circle cx="1402.959961" cy="139.959991" r="19.980000" fill="red">
  <title>Osaka</title>
</circle><line x1="1090.959961" y1="1154.959961" x2="1402.959961" y2="139.959991" stroke="red" stroke-width="6.660000" />
<circle cx="1725.959961" cy="1142.959961" r="19.980000" fill="red">
  <title>Delhi</title>
</circle><line x1="1402.959961" y1="139.959991" x2="1725.959961" y2="1142.959961" stroke="red" stroke-width="6.660000" />
<circle cx="1694.959961" cy="1458.959961" r="19.980000" fill="red">
  <title>Mexico City</title>
</circle><line x1="1725.959961" y1="1142.959961" x2="1694.959961" y2="1458.959961" stroke="red" stroke-width="6.660000" />
<circle cx="1923.959961" cy="1615.959961" r="19.980000" fill="red">
  <title>Shanghai</title>
</circle><line x1="1694.959961" y1="1458.959961" x2="1923.959961" y2="1615.959961" stroke="red" stroke-width="6.660000" />
<circle cx="1674.959961" cy="1674.959961" r="19.980000" fill="red">
  <title>New York</title>
</circle><line x1="1923.959961" y1="1615.959961" x2="1674.959961" y2="1674.959961" stroke="red" stroke-width="6.660000" />
<circle cx="1449.959961" cy="2025.959961" r="19.980000" fill="red">
  <title>Cairo</title>
</circle><line x1="1674.959961" y1="1674.959961" x2="1449.959961" y2="2025.959961" stroke="red" stroke-width="6.660000" />
<circle cx="1171.959961" cy="1322.959961" r="19.980000" fill="red">
  <title>Beijing</title>
</circle><line x1="1449.959961" y1="2025.959961" x2="1171.959961" y2="1322.959961" stroke="red" stroke-width="6.660000" />
</svg>
