<?xml version="1.0" encoding="UTF-8" standalone="no"?>
<svg width="500" height="500" viewBox="0 0 2074.000000 2074.000000" xmlns="http://www.w3.org/2000/svg">
<rect x="19.000000" y="19.000000" width="2036.000000" height="2036.000000" fill="black" />
<circle cx="494.959991" cy="1048.959961" r="19.980000" fill="red">
  <title>Tokyo</title>
</circle><line x1="1390.959961" y1="1736.959961" x2="494.959991" y2="1048.959961" stroke="red" stroke-width="6.660000" />
<circle cx="184.959991" cy="1019.960022" r="19.980000" fill="red">
  <title>Delhi</title>
</circle><line x1="494.959991" y1="1048.959961" x2="184.959991" y2="1019.960022" stroke="red" stroke-width="6.660000" />
<circle cx="678.960022" cy="768.960022" r="19.980000" fill="red">
  <title>Shanghai</title>
</circle><line x1="184.959991" y1="1019.960022" x2="678.960022" y2="768.960022" stroke="red" stroke-width="6.660000" />
<circle cx="1390.959961" cy="1736.959961" r="19.980000" fill="red">
  <title>São Paulo</title>
</circle><line x1="678.960022" y1="768.960022" x2="1390.959961" y2="1736.959961" stroke="red" stroke-width="6.660000" />
</svg>
