<?xml version="1.0" encoding="UTF-8" standalone="no"?>
<svg width="500" height="500" viewBox="0 0 2074.000000 2074.000000" xmlns="http://www.w3.org/2000/svg">
<rect x="19.000000" y="19.000000" width="2036.000000" height="2036.000000" fill="black" />
<circle cx="305.959991" cy="1395.959961" r="19.980000" fill="red">
  <title>Tokyo</title>
</circle><line x1="817.960022" y1="1272.959961" x2="305.959991" y2="1395.959961" stroke="red" stroke-width="6.660000" />
<circle cx="173.959991" cy="1853.959961" r="19.980000" fill="red">
  <title>Karachi</title>
</circle><line x1="305.959991" y1="1395.959961" x2="173.959991" y2="1853.959961" stroke="red" stroke-width="6.660000" />
<circle cx="635.960022" cy="1984.959961" r="19.980000" fill="red">
  <title>Chongqing</title>
</circle><line x1="173.959991" y1="1853.959961" x2="635.960022" y2="1984.959961" stroke="red" stroke-width="6.660000" />
<circle cx="1174.959961" cy="1966.959961" r="19.980000" fill="red">
  <title>Cairo</title>
</circle><line x1="635.960022" y1="1984.959961" x2="1174.959961" y2="1966.959961" stroke="red" stroke-width="6.660000" />
<circle cx="1550.959961" cy="1608.959961" r="19.980000" fill="red">
  <title>Mexico City</title>
</circle><line x1="1174.959961" y1="1966.959961" x2="1550.959961" y2="1608.959961" stroke="red" stroke-width="6.660000" />
<circle cx="1512.959961" cy="952.960022" r="19.980000" fill="red">
  <title>Delhi</title>
</circle><line x1="1550.959961" y1="1608.959961" x2="1512.959961" y2="952.960022" stroke="red" stroke-width="6.660000" />
<circle cx="1262.959961" cy="494.959991" r="19.980000" fill="red">
  <title>Dhaka</title>
</circle><line x1="1512.959961" y1="952.960022" x2="1262.959961" y2="494.959991" stroke="red" stroke-width="6.660000" />
<circle cx="1490.959961" cy="393.959991" r="19.980000" fill="red">
  <title>Kolkata</title>
</circle><line x1="1262.959961" y1="494.959991" x2="1490.959961" y2="393.959991" stroke="red" stroke-width="6.660000" />
<circle cx="1749.959961" cy="124.959999" r="19.980000" fill="red">
  <title>Shanghai</title>
</circle><line x1="1490.959961" y1="393.959991" x2="1749.959961" y2="124.959999" stroke="red" stroke-width="6.660000" />
<circle cx="989.960022" cy="93.959999" r="19.980000" fill="red">
  <title>Buenos Aires</title>
</circle><line x1="1749.959961" y1="124.959999" x2="989.960022" y2="93.959999" stroke="red" stroke-width="6.660000" />
<circle cx="707.960022" cy="412.959991" r="19.980000" fill="red">
  <title>São Paulo</title>
</circle><line x1="989.960022" y1="93.959999" x2="707.960022" y2="412.959991" stroke="red" stroke-width="6.660000" />
<circle cx="643.960022" cy="574.960022" r="19.980000" fill="red">
  <title>Beijing</title>
</circle><line x1="707.960022" y1="412.959991" x2="643.960022" y2="574.960022" stroke="red" stroke-width="6.660000" />
<circle cx="275.959991" cy="368.959991" r="19.980000" fill="red">
  <title>New York</title>
</circle><line x1="643.960022" y1="574.960022" x2="275.959991" y2="368.959991" stroke="red" stroke-width="6.660000" />
<circle cx="391.959991" cy="651.960022" r="19.980000" fill="red">
  <title>Mumbai</title>
</circle><line x1="275.959991" y1="368.959991" x2="391.959991" y2="651.960022" stroke="red" stroke-width="6.660000" />
<circle cx="126.959999" cy="962.960022" r="19.980000" fill="red">
  <title>Istanbul</title>
</circle><line x1="391.959991" y1="651.960022" x2="126.959999" y2="962.960022" stroke="red" stroke-width="6.660000" />
<circle cx="817.960022" cy="1272.959961" r="19.980000" fill="red">
  <title>Osaka</title>
</circle><line x1="126.959999" y1="962.960022" x2="817.960022" y2="1272.959961" stroke="red" stroke-width="6.660000" />
</svg>
