<?xml version="1.0" encoding="UTF-8" standalone="no"?>
<svg width="500" height="500" viewBox="0 0 2074.000000 2074.000000" xmlns="http://www.w3.org/2000/svg">
<rect x="19.000000" y="19.000000" width="2036.000000" height="2036.000000" fill="black" />
<circle cx="1468.959961" cy="1718.959961" r="19.980000" fill="red">
  <title>Tokyo</title>
</circle><line x1="1872.959961" y1="2017.959961" x2="1468.959961" y2="1718.959961" stroke="red" stroke-width="6.660000" />
<circle cx="1419.959961" cy="1560.959961" r="19.980000" fill="red">
  <title>Beijing</title>
</circle><line x1="1468.959961" y1="1718.959961" x2="1419.959961" y2="1560.959961" stroke="red" stroke-width="6.660000" />
<circle cx="1541.959961" cy="947.960022" r="19.980000" fill="red">
  <title>Delhi</title>
</circle><line x1="1419.959961" y1="1560.959961" x2="1541.959961" y2="947.960022" stroke="red" stroke-width="6.660000" />
<circle cx="1667.959961" cy="886.960022" r="19.980000" fill="red">
  <title>Chongqing</title>
</circle><line x1="1541.959961" y1="947.960022" x2="1667.959961" y2="886.960022" stroke="red" stroke-width="6.660000" />
<circle cx="1433.959961" cy="821.960022" r="19.980000" fill="red">
  <title>Dhaka</title>
</circle><line x1="1667.959961" y1="886.960022" x2="1433.959961" y2="821.960022" stroke="red" stroke-width="6.660000" />
<circle cx="1694.959961" cy="336.959991" r="19.980000" fill="red">
  <title>Karachi</title>
</circle><line x1="1433.959961" y1="821.960022" x2="1694.959961" y2="336.959991" stroke="red" stroke-width="6.660000" />
<circle cx="1214.959961" cy="340.959991" r="19.980000" fill="red">
  <title>Osaka</title>
</circle><line x1="1694.959961" y1="336.959991" x2="1214.959961" y2="340.959991" stroke="red" stroke-width="6.660000" />
<circle cx="1123.959961" cy="317.959991" r="19.980000" fill="red">
  <title>New York</title>
</circle><line x1="1214.959961" y1="340.959991" x2="1123.959961" y2="317.959991" stroke="red" stroke-width="6.660000" />
<circle cx="1038.959961" cy="589.960022" r="19.980000" fill="red">
  <title>São Paulo</title>
</circle><line x1="1123.959961" y1="317.959991" x2="1038.959961" y2="589.960022" stroke="red" stroke-width="6.660000" />
<circle cx="545.960022" cy="192.959991" r="19.980000" fill="red">
  <title>Istanbul</title>
</circle><line x1="1038.959961" y1="589.960022" x2="545.960022" y2="192.959991" stroke="red" stroke-width="6.660000" />
<circle cx="104.959999" cy="760.960022" r="19.980000" fill="red">
  <title>Mexico City</title>
</circle><line x1="545.960022" y1="192.959991" x2="104.959999" y2="760.960022" stroke="red" stroke-width="6.660000" />
<circle cx="383.959991" cy="820.960022" r="19.980000" fill="red">
  <title>Buenos Aires</title>
</circle><line x1="104.959999" y1="760.960022" x2="383.959991" y2="820.960022" stroke="red" stroke-width="6.660000" />
<circle cx="290.959991" cy="1777.959961" r="19.980000" fill="red">
  <title>Cairo</title>
</circle><line x1="383.959991" y1="820.960022" x2="290.959991" y2="1777.959961" stroke="red" stroke-width="6.660000" />
<circle cx="514.960022" cy="1974.959961" r="19.980000" fill="red">
  <title>Kolkata</title>
</circle><line x1="290.959991" y1="1777.959961" x2="514.960022" y2="1974.959961" stroke="red" stroke-width="6.660000" />
<circle cx="774.960022" cy="1649.959961" r="19.980000" fill="red">
  <title>Mumbai</title>
</circle><line x1="514.960022" y1="1974.959961" x2="774.960022" y2="1649.959961" stroke="red" stroke-width="6.660000" />
<circle cx="1426.959961" cy="1888.959961" r="19.980000" fill="red">
  <title>Shanghai</title>
</circle><line x1="774.960022" y1="1649.959961" x2="1426.959961" y2="1888.959961" stroke="red" stroke-width="6.660000" />
<circle cx="1872.959961" cy="2017.959961" r="19.980000" fill="red">
  <title>Manila</title>
</circle><line x1="1426.959961" y1="1888.959961" x2="1872.959961" y2="2017.959961" stroke="red" stroke-width="6.660000" />
</svg>
