<?xml version="1.0" encoding="UTF-8" standalone="no"?>
<svg width="500" height="500" viewBox="0 0 2074.000000 2074.000000" xmlns="http://www.w3.org/2000/svg">
<rect x="19.000000" y="19.000000" width="2036.000000" height="2036.000000" fill="black" />
<circle cx="361.959991" cy="1406.959961" r="19.980000" fill="red">
  <title>Tokyo</title>
</circle><line x1="514.960022" y1="1282.959961" x2="361.959991" y2="1406.959961" stroke="red" stroke-width="6.660000" />
<circle cx="193.959991" cy="1901.959961" r="19.980000" fill="red">
  <title>New York</title>
</circle><line x1="361.959991" y1="1406.959961" x2="193.959991" y2="1901.959961" stroke="red" stroke-width="6.660000" />
<circle cx="506.959991" cy="1436.959961" r="19.980000" fill="red">
  <title>Beijing</title>
</circle><line x1="193.959991" y1="1901.959961" x2="506.959991" y2="1436.959961" stroke="red" stroke-width="6.660000" />
<circle cx="917.960022" cy="1455.959961" r="19.980000" fill="red">
  <title>Istanbul</title>
</circle><line x1="506.959991" y1="1436.959961" x2="917.960022" y2="1455.959961" stroke="red" stroke-width="6.660000" />
<circle cx="929.960022" cy="1447.959961" r="19.980000" fill="red">
  <title>São Paulo</title>
</circle><line x1="917.960022" y1="1455.959961" x2="929.960022" y2="1447.959961" stroke="red" stroke-width="6.660000" />
<circle cx="1657.959961" cy="1473.959961" r="19.980000" fill="red">
  <title>Osaka</title>
</circle><line x1="929.960022" y1="1447.959961" x2="1657.959961" y2="1473.959961" stroke="red" stroke-width="6.660000" />
<circle cx="1516.959961" cy="858.960022" r="19.980000" fill="red">
  <title>Mexico City</title>
</circle><line x1="1657.959961" y1="1473.959961" x2="1516.959961" y2="858.960022" stroke="red" stroke-width="6.660000" />
<circle cx="1647.959961" cy="723.960022" r="19.980000" fill="red">
  <title>Delhi</title>
</circle><line x1="1516.959961" y1="858.960022" x2="1647.959961" y2="723.960022" stroke="red" stroke-width="6.660000" />
<circle cx="1849.959961" cy="814.960022" r="19.980000" fill="red">
  <title>Chongqing</title>
</circle><line x1="1647.959961" y1="723.960022" x2="1849.959961" y2="814.960022" stroke="red" stroke-width="6.660000" />
<circle cx="1807.959961" cy="233.959991" r="19.980000" fill="red">
  <title>Shanghai</title>
</circle><line x1="1849.959961" y1="814.960022" x2="1807.959961" y2="233.959991" stroke="red" stroke-width="6.660000" />
<circle cx="1184.959961" cy="98.959999" r="19.980000" fill="red">
  <title>Cairo</title>
</circle><line x1="1807.959961" y1="233.959991" x2="1184.959961" y2="98.959999" stroke="red" stroke-width="6.660000" />
<circle cx="718.960022" cy="455.959991" r="19.980000" fill="red">
  <title>Dhaka</title>
</circle><line x1="1184.959961" y1="98.959999" x2="718.960022" y2="455.959991" stroke="red" stroke-width="6.660000" />
<circle cx="486.959991" cy="462.959991" r="19.980000" fill="red">
  <title>Mumbai</title>
</circle><line x1="718.960022" y1="455.959991" x2="486.959991" y2="462.959991" stroke="red" stroke-width="6.660000" />
<circle cx="901.960022" cy="926.960022" r="19.980000" fill="red">
  <title>Karachi</title>
</circle><line x1="486.959991" y1="462.959991" x2="901.960022" y2="926.960022" stroke="red" stroke-width="6.660000" />
<circle cx="514.960022" cy="1282.959961" r="19.980000" fill="red">
  <title>Buenos Aires</title>
</circle><line x1="901.960022" y1="926.960022" x2="514.960022" y2="1282.959961" stroke="red" stroke-width="6.660000" />
</svg>
