<?xml version="1.0" encoding="UTF-8" standalone="no"?>
<svg width="500" height="500" viewBox="0 0 2074.000000 2074.000000" xmlns="http://www.w3.org/2000/svg">
<rect x="19.000000" y="19.000000" width="2036.000000" height="2036.000000" fill="black" />
<circle cx="1422.959961" cy="42.959999" r="19.980000" fill="red">
  <title>Tokyo</title>
</circle><line x1="1608.959961" y1="993.960022" x2="1422.959961" y2="42.959999" stroke="red" stroke-width="6.660000" />
<circle cx="397.959991" cy="691.960022" r="19.980000" fill="red">
  <title>Cairo</title>
</circle><line x1="1422.959961" y1="42.959999" x2="397.959991" y2="691.960022" stroke="red" stroke-width="6.660000" />
<circle cx="488.959991" cy="913.960022" r="19.980000" fill="red">
  <title>Dhaka</title>
</circle><line x1="397.959991" y1="691.960022" x2="488.959991" y2="913.960022" stroke="red" stroke-width="6.660000" />
<circle cx="229.959991" cy="1320.959961" r="19.980000" fill="red">
  <title>São Paulo</title>
</circle><line x1="488.959991" y1="913.960022" x2="229.959991" y2="1320.959961" stroke="red" stroke-width="6.660000" />
<circle cx="55.959999" cy="1745.959961" r="19.980000" fill="red">
  <title>Mexico City</title>
</circle><line x1="229.959991" y1="1320.959961" x2="55.959999" y2="1745.959961" stroke="red" stroke-width="6.660000" />
<circle cx="474.959991" cy="1926.959961" r="19.980000" fill="red">
  <title>Delhi</title>
</circle><line x1="55.959999" y1="1745.959961" x2="474.959991" y2="1926.959961" stroke="red" stroke-width="6.660000" />
<circle cx="477.959991" cy="1931.959961" r="19.980000" fill="red">
  <title>Shanghai</title>
</circle><line x1="474.959991" y1="1926.959961" x2="477.959991" y2="1931.959961" stroke="red" stroke-width="6.660000" />
<circle cx="920.960022" cy="1873.959961" r="19.980000" fill="red">
  <title>Osaka</title>
</circle><line x1="477.959991" y1="1931.959961" x2="920.960022" y2="1873.959961" stroke="red" stroke-width="6.660000" />
<circle cx="1256.959961" cy="1140.959961" r="19.980000" fill="red">
  <title>Beijing</title>
</circle><line x1="920.960022" y1="1873.959961" x2="1256.959961" y2="1140.959961" stroke="red" stroke-width="6.660000" />
<circle cx="1608.959961" cy="993.960022" r="19.980000" fill="red">
  <title>Mumbai</title>
</circle><line x1="1256.959961" y1="1140.959961" x2="1608.959961" y2="993.960022" stroke="red" stroke-width="6.660000" />
</svg>
