<?xml version="1.0" encoding="UTF-8" standalone="no"?>
<svg width="500" height="500" viewBox="0 0 2074.000000 2074.000000" xmlns="http://www.w3.org/2000/svg">
<rect x="19.000000" y="19.000000" width="2036.000000" height="2036.000000" fill="black" />
<circle cx="1758.959961" cy="1954.959961" r="19.980000" fill="red">
  <title>Tokyo</title>
</circle><line x1="1708.959961" y1="1371.959961" x2="1758.959961" y2="1954.959961" stroke="red" stroke-width="6.660000" />
<circle cx="1213.959961" cy="1756.959961" r="19.980000" fill="red">
  <title>Karachi</title>
</circle><line x1="1758.959961" y1="1954.959961" x2="1213.959961" y2="1756.959961" stroke="red" stroke-width="6.660000" />
<circle cx="756.960022" cy="1921.959961" r="19.980000" fill="red">
  <title>Cairo</title>
</circle><line x1="1213.959961" y1="1756.959961" x2="756.960022" y2="1921.959961" stroke="red" stroke-width="6.660000" />
<circle cx="322.959991" cy="2004.959961" r="19.980000" fill="red">
  <title>Kolkata</title>
</circle><line x1="756.960022" y1="1921.959961" x2="322.959991" y2="2004.959961" stroke="red" stroke-width="6.660000" />
<circle cx="285.959991" cy="1252.959961" r="19.980000" fill="red">
  <title>Istanbul</title>
</circle><line x1="322.959991" y1="2004.959961" x2="285.959991" y2="1252.959961" stroke="red" stroke-width="6.660000" />
<circle cx="654.960022" cy="788.960022" r="19.980000" fill="red">
  <title>Chongqing</title>
</circle><line x1="285.959991" y1="1252.959961" x2="654.960022" y2="788.960022" stroke="red" stroke-width="6.660000" />
<circle cx="848.960022" cy="563.960022" r="19.980000" fill="red">
  <title>Delhi</title>
</circle><line x1="654.960022" y1="788.960022" x2="848.960022" y2="563.960022" stroke="red" stroke-width="6.660000" />
<circle cx="475.959991" cy="57.959999" r="19.980000" fill="red">
  <title>Mumbai</title>
</circle><line x1="848.960022" y1="563.960022" x2="475.959991" y2="57.959999" stroke="red" stroke-width="6.660000" />
<circle cx="674.960022" cy="104.959999" r="19.980000" fill="red">
  <title>Dhaka</title>
</circle><line x1="475.959991" y1="57.959999" x2="674.960022" y2="104.959999" stroke="red" stroke-width="6.660000" />
<circle cx="1154.959961" cy="404.959991" r="19.980000" fill="red">
  <title>Osaka</title>
</circle><line x1="674.960022" y1="104.959999" x2="1154.959961" y2="404.959991" stroke="red" stroke-width="6.660000" />
<circle cx="1955.959961" cy="120.959999" r="19.980000" fill="red">
  <title>Beijing</title>
</circle><line x1="1154.959961" y1="404.959991" x2="1955.959961" y2="120.959999" stroke="red" stroke-width="6.660000" />
<circle cx="1585.959961" cy="303.959991" r="19.980000" fill="red">
  <title>Buenos Aires</title>
</circle><line x1="1955.959961" y1="120.959999" x2="1585.959961" y2="303.959991" stroke="red" stroke-width="6.660000" />
<circle cx="1103.959961" cy="668.960022" r="19.980000" fill="red">
  <title>São Paulo</title>
</circle><line x1="1585.959961" y1="303.959991" x2="1103.959961" y2="668.960022" stroke="red" stroke-width="6.660000" />
<circle cx="1211.959961" cy="1322.959961" r="19.980000" fill="red">
  <title>Mexico City</title>
</circle><line x1="1103.959961" y1="668.960022" x2="1211.959961" y2="1322.959961" stroke="red" stroke-width="6.660000" />
<circle cx="1718.959961" cy="1294.959961" r="19.980000" fill="red">
  <title>Shanghai</title>
</circle><line x1="1211.959961" y1="1322.959961" x2="1718.959961" y2="1294.959961" stroke="red" stroke-width="6.660000" />
<circle cx="1708.959961" cy="1371.959961" r="19.980000" fill="red">
  <title>New York</title>
</circle><line x1="1718.959961" y1="1294.959961" x2="1708.959961" y2="1371.959961" stroke="red" stroke-width="6.660000" />
</svg>
