<?xml version="1.0" encoding="UTF-8" standalone="no"?>
<svg width="500" height="500" viewBox="0 0 2074.000000 2074.000000" xmlns="http://www.w3.org/2000/svg">
<rect x="19.000000" y="19.000000" width="2036.000000" height="2036.000000" fill="black" />
<circle cx="715.960022" cy="911.960022" r="19.980000" fill="red">
  <title>Tokyo</title>
</circle><line x1="1686.959961" y1="1257.959961" x2="715.960022" y2="911.960022" stroke="red" stroke-width="6.660000" />
<circle cx="1017.960022" cy="668.960022" r="19.980000" fill="red">
  <title>Beijing</title>
</circle><line x1="715.960022" y1="911.960022" x2="1017.960022" y2="668.960022" stroke="red" stroke-width="6.660000" />
<circle cx="1236.959961" cy="413.959991" r="19.980000" fill="red">
  <title>Shanghai</title>
</circle><line x1="1017.960022" y1="668.960022" x2="1236.959961" y2="413.959991" stroke="red" stroke-width="6.660000" />
<circle cx="1814.959961" cy="282.959991" r="19.980000" fill="red">
  <title>Mexico City</title>
</circle><line x1="1236.959961" y1="413.959991" x2="1814.959961" y2="282.959991" stroke="red" stroke-width="6.660000" />
<circle cx="1948.959961" cy="1075.959961" r="19.980000" fill="red">
  <title>Delhi</title>
</circle><line x1="1814.959961" y1="282.959991" x2="1948.959961" y2="1075.959961" stroke="red" stroke-width="6.660000" />
<circle cx="2031.959961" cy="1137.959961" r="19.980000" fill="red">
  <title>São Paulo</title>
</circle><line x1="1948.959961" y1="1075.959961" x2="2031.959961" y2="1137.959961" stroke="red" stroke-width="6.660000" />
<circle cx="2028.959961" cy="1302.959961" r="19.980000" fill="red">
  <title>Cairo</title>
</circle><line x1="2031.959961" y1="1137.959961" x2="2028.959961" y2="1302.959961" stroke="red" stroke-width="6.660000" />
<circle cx="1686.959961" cy="1257.959961" r="19.980000" fill="red">
  <title>Mumbai</title>
</circle><line x1="2028.959961" y1="1302.959961" x2="1686.959961" y2="1257.959961" stroke="red" stroke-width="6.660000" />
</svg>
