<?xml version="1.0" encoding="UTF-8" standalone="no"?>
<svg width="500" height="500" viewBox="0 0 2074.000000 2074.000000" xmlns="http://www.w3.org/2000/svg">
<rect x="19.000000" y="19.000000" width="2036.000000" height="2036.000000" fill="black" />
<circle cx="1915.959961" cy="534.960022" r="19.980000" fill="red">
  <title>Tokyo</title>
</circle><line x1="1941.959961" y1="42.959999" x2="1915.959961" y2="534.960022" stroke="red" stroke-width="6.660000" />
<circle cx="1622.959961" cy="906.960022" r="19.980000" fill="red">
  <title>Beijing</title>
</circle><line x1="1915.959961" y1="534.960022" x2="1622.959961" y2="906.960022" stroke="red" stroke-width="6.660000" />
<circle cx="880.960022" cy="1210.959961" r="19.980000" fill="red">
  <title>Shanghai</title>
</circle><line x1="1622.959961" y1="906.960022" x2="880.960022" y2="1210.959961" stroke="red" stroke-width="6.660000" />
<circle cx="508.959991" cy="713.960022" r="19.980000" fill="red">
  <title>Cairo</title>
</circle><line x1="880.960022" y1="1210.959961" x2="508.959991" y2="713.960022" stroke="red" stroke-width="6.660000" />
<circle cx="156.959991" cy="837.960022" r="19.980000" fill="red">
  <title>Dhaka</title>
</circle><line x1="508.959991" y1="713.960022" x2="156.959991" y2="837.960022" stroke="red" stroke-width="6.660000" />
<circle cx="58.959999" cy="401.959991" r="19.980000" fill="red">
  <title>Osaka</title>
</circle><line x1="156.959991" y1="837.960022" x2="58.959999" y2="401.959991" stroke="red" stroke-width="6.660000" />
<circle cx="260.959991" cy="290.959991" r="19.980000" fill="red">
  <title>Mumbai</title>
</circle><line x1="58.959999" y1="401.959991" x2="260.959991" y2="290.959991" stroke="red" stroke-width="6.660000" />
<circle cx="495.959991" cy="420.959991" r="19.980000" fill="red">
  <title>Mexico City</title>
</circle><line x1="260.959991" y1="290.959991" x2="495.959991" y2="420.959991" stroke="red" stroke-width="6.660000" />
<circle cx="500.959991" cy="500.959991" r="19.980000" fill="red">
  <title>São Paulo</title>
</circle><line x1="495.959991" y1="420.959991" x2="500.959991" y2="500.959991" stroke="red" stroke-width="6.660000" />
<circle cx="802.960022" cy="883.960022" r="19.980000" fill="red">
  <title>Delhi</title>
</circle><line x1="500.959991" y1="500.959991" x2="802.960022" y2="883.960022" stroke="red" stroke-width="6.660000" />
<circle cx="1660.959961" cy="474.959991" r="19.980000" fill="red">
  <title>Karachi</title>
</circle><line x1="802.960022" y1="883.960022" x2="1660.959961" y2="474.959991" stroke="red" stroke-width="6.660000" />
<circle cx="1941.959961" cy="42.959999" r="19.980000" fill="red">
  <title>New York</title>
</circle><line x1="1660.959961" y1="474.959991" x2="1941.959961" y2="42.959999" stroke="red" stroke-width="6.660000" />
</svg>
