<?xml version="1.0" encoding="UTF-8" standalone="no"?>
<svg width="500" height="500" viewBox="0 0 2074.000000 2074.000000" xmlns="http://www.w3.org/2000/svg">
<rect x="19.000000" y="19.000000" width="2036.000000" height="2036.000000" fill="black" />
<circle cx="1566.959961" cy="479.959991" r="19.980000" fill="red">
  <title>Tokyo</title>
</circle><line x1="1173.959961" y1="468.959991" x2="1566.959961" y2="479.959991" stroke="red" stroke-width="6.660000" />
<circle cx="1660.959961" cy="1454.959961" r="19.980000" fill="red">
  <title>Delhi</title>
</circle><line x1="1566.959961" y1="479.959991" x2="1660.959961" y2="1454.959961" stroke="red" stroke-width="6.660000" />
<circle cx="1151.959961" cy="1519.959961" r="19.980000" fill="red">
  <title>São Paulo</title>
</circle><line x1="1660.959961" y1="1454.959961" x2="1151.959961" y2="1519.959961" stroke="red" stroke-width="6.660000" />
<circle cx="578.960022" cy="1699.959961" r="19.980000" fill="red">
  <title>Cairo</title>
</circle><line x1="1151.959961" y1="1519.959961" x2="578.960022" y2="1699.959961" stroke="red" stroke-width="6.660000" />
<circle cx="531.960022" cy="566.960022" r="19.980000" fill="red">
  <title>Shanghai</title>
</circle><line x1="578.960022" y1="1699.959961" x2="531.960022" y2="566.960022" stroke="red" stroke-width="6.660000" />
<circle cx="1173.959961" cy="468.959991" r="19.980000" fill="red">
  <title>Mexico City</title>
</circle><line x1="531.960022" y1="566.960022" x2="1173.959961" y2="468.959991" stroke="red" stroke-width="6.660000" />
</svg>
