<?xml version="1.0" encoding="UTF-8" standalone="no"?>
<svg width="500" height="500" viewBox="0 0 2074.000000 2074.000000" xmlns="http://www.w3.org/2000/svg">
<rect x="19.000000" y="19.000000" width="2036.000000" height="2036.000000" fill="black" />
<circle cx="424.959991" cy="1426.959961" r="19.980000" fill="red">
  <title>Tokyo</title>
</circle><line x1="209.959991" y1="1686.959961" x2="424.959991" y2="1426.959961" stroke="red" stroke-width="6.660000" />
<circle cx="521.960022" cy="1111.959961" r="19.980000" fill="red">
  <title>Dhaka</title>
</circle><line x1="424.959991" y1="1426.959961" x2="521.960022" y2="1111.959961" stroke="red" stroke-width="6.660000" />
<circle cx="705.960022" cy="1183.959961" r="19.980000" fill="red">
  <title>Osaka</title>
</circle><line x1="521.960022" y1="1111.959961" x2="705.960022" y2="1183.959961" stroke="red" stroke-width="6.660000" />
<circle cx="644.960022" cy="1006.960022" r="19.980000" fill="red">
  <title>New York</title>
</circle><line x1="705.960022" y1="1183.959961" x2="644.960022" y2="1006.960022" stroke="red" stroke-width="6.660000" />
<circle cx="535.960022" cy="126.959999" r="19.980000" fill="red">
  <title>Shanghai</title>
</circle><line x1="644.960022" y1="1006.960022" x2="535.960022" y2="126.959999" stroke="red" stroke-width="6.660000" />
<circle cx="1402.959961" cy="417.959991" r="19.980000" fill="red">
  <title>Delhi</title>
</circle><line x1="535.960022" y1="126.959999" x2="1402.959961" y2="417.959991" stroke="red" stroke-width="6.660000" />
<circle cx="2026.959961" cy="655.960022" r="19.980000" fill="red">
  <title>Mexico City</title>
</circle><line x1="1402.959961" y1="417.959991" x2="2026.959961" y2="655.960022" stroke="red" stroke-width="6.660000" />
<circle cx="1887.959961" cy="1510.959961" r="19.980000" fill="red">
  <title>Chongqing</title>
</circle><line x1="2026.959961" y1="655.960022" x2="1887.959961" y2="1510.959961" stroke="red" stroke-width="6.660000" />
<circle cx="1576.959961" cy="1492.959961" r="19.980000" fill="red">
  <title>Mumbai</title>
</circle><line x1="1887.959961" y1="1510.959961" x2="1576.959961" y2="1492.959961" stroke="red" stroke-width="6.660000" />
<circle cx="1523.959961" cy="1478.959961" r="19.980000" fill="red">
  <title>São Paulo</title>
</circle><line x1="1576.959961" y1="1492.959961" x2="1523.959961" y2="1478.959961" stroke="red" stroke-width="6.660000" />
<circle cx="1497.959961" cy="1914.959961" r="19.980000" fill="red">
  <title>Cairo</title>
</circle><line x1="1523.959961" y1="1478.959961" x2="1497.959961" y2="1914.959961" stroke="red" stroke-width="6.660000" />
<circle cx="1517.959961" cy="1961.959961" r="19.980000" fill="red">
  <title>Beijing</title>
</circle><line x1="1497.959961" y1="1914.959961" x2="1517.959961" y2="1961.959961" stroke="red" stroke-width="6.660000" />
<circle cx="798.960022" cy="1957.959961" r="19.980000" fill="red">
  <title>Karachi</title>
</circle><line x1="1517.959961" y1="1961.959961" x2="798.960022" y2="1957.959961" stroke="red" stroke-width="6.660000" />
<circle cx="209.959991" cy="1686.959961" r="19.980000" fill="red">
  <title>Buenos Aires</title>
</circle><line x1="798.960022" y1="1957.959961" x2="209.959991" y2="1686.959961" stroke="red" stroke-width="6.660000" />
</svg>
