<?xml version="1.0" encoding="UTF-8" standalone="no"?>
<svg width="500" height="500" viewBox="0 0 2074.000000 2074.000000" xmlns="http://www.w3.org/2000/svg">
<rect x="19.000000" y="19.000000" width="2036.000000" height="2036.000000" fill="black" />
<circle cx="2011.959961" cy="1850.959961" r="19.980000" fill="red">
  <title>Tokyo</title>
</circle><line x1="1660.959961" y1="1519.959961" x2="2011.959961" y2="1850.959961" stroke="red" stroke-width="6.660000" />
<circle cx="1716.959961" cy="1520.959961" r="19.980000" fill="red">
  <title>Beijing</title>
</circle><line x1="2011.959961" y1="1850.959961" x2="1716.959961" y2="1520.959961" stroke="red" stroke-width="6.660000" />
<circle cx="1730.959961" cy="1282.959961" r="19.980000" fill="red">
  <title>Tianjin</title>
</circle><line x1="1716.959961" y1="1520.959961" x2="1730.959961" y2="1282.959961" stroke="red" stroke-width="6.660000" />
<circle cx="1494.959961" cy="1145.959961" r="19.980000" fill="red">
  <title>Mumbai</title>
</circle><line x1="1730.959961" y1="1282.959961" x2="1494.959961" y2="1145.959961" stroke="red" stroke-width="6.660000" />
<circle cx="1602.959961" cy="631.960022" r="19.980000" fill="red">
  <title>Kolkata</title>
</circle><line x1="1494.959961" y1="1145.959961" x2="1602.959961" y2="631.960022" stroke="red" stroke-width="6.660000" />
<circle cx="1706.959961" cy="479.959991" r="19.980000" fill="red">
  <title>Dhaka</title>
</circle><line x1="1602.959961" y1="631.960022" x2="1706.959961" y2="479.959991" stroke="red" stroke-width="6.660000" />
<circle cx="1783.959961" cy="264.959991" r="19.980000" fill="red">
  <title>Manila</title>
</circle><line x1="1706.959961" y1="479.959991" x2="1783.959961" y2="264.959991" stroke="red" stroke-width="6.660000" />
<circle cx="1970.959961" cy="161.959991" r="19.980000" fill="red">
  <title>Cairo</title>
</circle><line x1="1783.959961" y1="264.959991" x2="1970.959961" y2="161.959991" stroke="red" stroke-width="6.660000" />
<circle cx="2029.959961" cy="431.959991" r="19.980000" fill="red">
  <title>Karachi</title>
</circle><line x1="1970.959961" y1="161.959991" x2="2029.959961" y2="431.959991" stroke="red" stroke-width="6.660000" />
<circle cx="1773.959961" cy="539.960022" r="19.980000" fill="red">
  <title>Shanghai</title>
</circle><line x1="2029.959961" y1="431.959991" x2="1773.959961" y2="539.960022" stroke="red" stroke-width="6.660000" />
<circle cx="1465.959961" cy="960.960022" r="19.980000" fill="red">
  <title>New York</title>
</circle><line x1="1773.959961" y1="539.960022" x2="1465.959961" y2="960.960022" stroke="red" stroke-width="6.660000" />
<circle cx="700.960022" cy="1068.959961" r="19.980000" fill="red">
  <title>Delhi</title>
</circle><line x1="1465.959961" y1="960.960022" x2="700.960022" y2="1068.959961" stroke="red" stroke-width="6.660000" />
<circle cx="556.960022" cy="1084.959961" r="19.980000" fill="red">
  <title>Mexico City</title>
</circle><line x1="700.960022" y1="1068.959961" x2="556.960022" y2="1084.959961" stroke="red" stroke-width="6.660000" />
<circle cx="223.959991" cy="542.960022" r="19.980000" fill="red">
  <title>Buenos Aires</title>
</circle><line x1="556.960022" y1="1084.959961" x2="223.959991" y2="542.960022" stroke="red" stroke-width="6.660000" />
<circle cx="49.959999" cy="249.959991" r="19.980000" fill="red">
  <title>São Paulo</title>
</circle><line x1="223.959991" y1="542.960022" x2="49.959999" y2="249.959991" stroke="red" stroke-width="6.660000" />
<circle cx="362.959991" cy="1149.959961" r="19.980000" fill="red">
  <title>Osaka</title>
</circle><line x1="49.959999" y1="249.959991" x2="362.959991" y2="1149.959961" stroke="red" stroke-width="6.660000" />
<circle cx="765.960022" cy="1671.959961" r="19.980000" fill="red">
  <title>Rio de Janeiro</title>
</circle><line x1="362.959991" y1="1149.959961" x2="765.960022" y2="1671.959961" stroke="red" stroke-width="6.660000" />
<circle cx="657.960022" cy="1971.959961" r="19.980000" fill="red">
  <title>Istanbul</title>
</circle><line x1="765.960022" y1="1671.959961" x2="657.960022" y2="1971.959961" stroke="red" stroke-width="6.660000" />
<circle cx="1151.959961" cy="1624.959961" r="19.980000" fill="red">
  <title>Chongqing</title>
</circle><line x1="657.960022" y1="1971.959961" x2="1151.959961" y2="1624.959961" stroke="red" stroke-width="6.660000" />
<circle cx="1660.959961" cy="1519.959961" r="19.980000" fill="red">
  <title>Lagos</title>
</circle><line x1="1151.959961" y1="1624.959961" x2="1660.959961" y2="1519.959961" stroke="red" stroke-width="6.660000" />
</svg>
