<?xml version="1.0" encoding="UTF-8" standalone="no"?>
<svg width="500" height="500" viewBox="0 0 2074.000000 2074.000000" xmlns="http://www.w3.org/2000/svg">
<rect x="19.000000" y="19.000000" width="2036.000000" height="2036.000000" fill="black" />
<circle cx="1625.959961" cy="652.960022" r="19.980000" fill="red">
  <title>Tokyo</title>
</circle><line x1="637.960022" y1="1778.959961" x2="1625.959961" y2="652.960022" stroke="red" stroke-width="6.660000" />
<circle cx="1095.959961" cy="302.959991" r="19.980000" fill="red">
  <title>São Paulo</title>
</circle><line x1="1625.959961" y1="652.960022" x2="1095.959961" y2="302.959991" stroke="red" stroke-width="6.660000" />
<circle cx="523.960022" cy="78.959999" r="19.980000" fill="red">
  <title>Mexico City</title>
</circle><line x1="1095.959961" y1="302.959991" x2="523.960022" y2="78.959999" stroke="red" stroke-width="6.660000" />
<circle cx="759.960022" cy="944.960022" r="19.980000" fill="red">
  <title>Delhi</title>
</circle><line x1="523.960022" y1="78.959999" x2="759.960022" y2="944.960022" stroke="red" stroke-width="6.660000" />
<circle cx="637.960022" cy="1778.959961" r="19.980000" fill="red">
  <title>Shanghai</title>
</circle><line x1="759.960022" y1="944.960022" x2="637.960022" y2="1778.959961" stroke="red" stroke-width="6.660000" />
</svg>
