<?xml version="1.0" encoding="UTF-8" standalone="no"?>
<svg width="500" height="500" viewBox="0 0 2074.000000 2074.000000" xmlns="http://www.w3.org/2000/svg">
<rect x="19.000000" y="19.000000" width="2036.000000" height="2036.000000" fill="black" />
<circle cx="1136.959961" cy="116.959999" r="19.980000" fill="red">
  <title>Tokyo</title>
</circle><line x1="1374.959961" y1="326.959991" x2="1136.959961" y2="116.959999" stroke="red" stroke-width="6.660000" />
<circle cx="955.960022" cy="61.959999" r="19.980000" fill="red">
  <title>Delhi</title>
</circle><line x1="1136.959961" y1="116.959999" x2="955.960022" y2="61.959999" stroke="red" stroke-width="6.660000" />
<circle cx="590.960022" cy="231.959991" r="19.980000" fill="red">
  <title>Mumbai</title>
</circle><line x1="955.960022" y1="61.959999" x2="590.960022" y2="231.959991" stroke="red" stroke-width="6.660000" />
<circle cx="498.959991" cy="540.960022" r="19.980000" fill="red">
  <title>São Paulo</title>
</circle><line x1="590.960022" y1="231.959991" x2="498.959991" y2="540.960022" stroke="red" stroke-width="6.660000" />
<circle cx="563.960022" cy="676.960022" r="19.980000" fill="red">
  <title>Cairo</title>
</circle><line x1="498.959991" y1="540.960022" x2="563.960022" y2="676.960022" stroke="red" stroke-width="6.660000" />
<circle cx="170.959991" cy="903.960022" r="19.980000" fill="red">
  <title>Dhaka</title>
</circle><line x1="563.960022" y1="676.960022" x2="170.959991" y2="903.960022" stroke="red" stroke-width="6.660000" />
<circle cx="222.959991" cy="1585.959961" r="19.980000" fill="red">
  <title>Mexico City</title>
</circle><line x1="170.959991" y1="903.960022" x2="222.959991" y2="1585.959961" stroke="red" stroke-width="6.660000" />
<circle cx="999.960022" cy="1593.959961" r="19.980000" fill="red">
  <title>Beijing</title>
</circle><line x1="222.959991" y1="1585.959961" x2="999.960022" y2="1593.959961" stroke="red" stroke-width="6.660000" />
<circle cx="1029.959961" cy="1255.959961" r="19.980000" fill="red">
  <title>New York</title>
</circle><line x1="999.960022" y1="1593.959961" x2="1029.959961" y2="1255.959961" stroke="red" stroke-width="6.660000" />
<circle cx="910.960022" cy="770.960022" r="19.980000" fill="red">
  <title>Shanghai</title>
</circle><line x1="1029.959961" y1="1255.959961" x2="910.960022" y2="770.960022" stroke="red" stroke-width="6.660000" />
<circle cx="1374.959961" cy="326.959991" r="19.980000" fill="red">
  <title>Osaka</title>
</circle><line x1="910.960022" y1="770.960022" x2="1374.959961" y2="326.959991" stroke="red" stroke-width="6.660000" />
</svg>
