<?xml version="1.0" encoding="UTF-8" standalone="no"?>
<svg width="500" height="500" viewBox="0 0 2074.000000 2074.000000" xmlns="http://www.w3.org/2000/svg">
<rect x="19.000000" y="19.000000" width="2036.000000" height="2036.000000" fill="black" />
<circle cx="1902.959961" cy="1599.959961" r="19.980000" fill="red">
  <title>Tokyo</title>
</circle><line x1="485.959991" y1="869.960022" x2="1902.959961" y2="1599.959961" stroke="red" stroke-width="6.660000" />
<circle cx="1447.959961" cy="561.960022" r="19.980000" fill="red">
  <title>Delhi</title>
</circle><line x1="1902.959961" y1="1599.959961" x2="1447.959961" y2="561.960022" stroke="red" stroke-width="6.660000" />
<circle cx="974.960022" cy="137.959991" r="19.980000" fill="red">
  <title>Shanghai</title>
</circle><line x1="1447.959961" y1="561.960022" x2="974.960022" y2="137.959991" stroke="red" stroke-width="6.660000" />
<circle cx="485.959991" cy="869.960022" r="19.980000" fill="red">
  <title>São Paulo</title>
</circle><line x1="974.960022" y1="137.959991" x2="485.959991" y2="869.960022" stroke="red" stroke-width="6.660000" />
</svg>
