<?xml version="1.0" encoding="UTF-8" standalone="no"?>
<svg width="500" height="500" viewBox="0 0 2074.000000 2074.000000" xmlns="http://www.w3.org/2000/svg">
<rect x="19.000000" y="19.000000" width="2036.000000" height="2036.000000" fill="black" />
<circle cx="1880.959961" cy="991.960022" r="19.980000" fill="red">
  <title>Tokyo</title>
</circle><line x1="1018.960022" y1="495.959991" x2="1880.959961" y2="991.960022" stroke="red" stroke-width="6.660000" />
<circle cx="556.960022" cy="1016.960022" r="19.980000" fill="red">
  <title>Delhi</title>
</circle><line x1="1880.959961" y1="991.960022" x2="556.960022" y2="1016.960022" stroke="red" stroke-width="6.660000" />
<circle cx="1018.960022" cy="495.959991" r="19.980000" fill="red">
  <title>Shanghai</title>
</circle><line x1="556.960022" y1="1016.960022" x2="1018.960022" y2="495.959991" stroke="red" stroke-width="6.660000" />
</svg>
