<?xml version="1.0" encoding="UTF-8" standalone="no"?>
<svg width="500" height="500" viewBox="0 0 2074.000000 2074.000000" xmlns="http://www.w3.org/2000/svg">
<rect x="19.000000" y="19.000000" width="2036.000000" height="2036.000000" fill="black" />
<circle cx="1404.959961" cy="1195.959961" r="19.980000" fill="red">
  <title>Tokyo</title>
</circle><line x1="1986.959961" y1="381.959991" x2="1404.959961" y2="1195.959961" stroke="red" stroke-width="6.660000" />
<circle cx="1829.959961" cy="1558.959961" r="19.980000" fill="red">
  <title>Karachi</title>
</circle><line x1="1404.959961" y1="1195.959961" x2="1829.959961" y2="1558.959961" stroke="red" stroke-width="6.660000" />
<circle cx="1768.959961" cy="1893.959961" r="19.980000" fill="red">
  <title>Osaka</title>
</circle><line x1="1829.959961" y1="1558.959961" x2="1768.959961" y2="1893.959961" stroke="red" stroke-width="6.660000" />
<circle cx="1347.959961" cy="1909.959961" r="19.980000" fill="red">
  <title>Shanghai</title>
</circle><line x1="1768.959961" y1="1893.959961" x2="1347.959961" y2="1909.959961" stroke="red" stroke-width="6.660000" />
<circle cx="762.960022" cy="1839.959961" r="19.980000" fill="red">
  <title>São Paulo</title>
</circle><line x1="1347.959961" y1="1909.959961" x2="762.960022" y2="1839.959961" stroke="red" stroke-width="6.660000" />
<circle cx="543.960022" cy="1640.959961" r="19.980000" fill="red">
  <title>Dhaka</title>
</circle><line x1="762.960022" y1="1839.959961" x2="543.960022" y2="1640.959961" stroke="red" stroke-width="6.660000" />
<circle cx="439.959991" cy="1886.959961" r="19.980000" fill="red">
  <title>Beijing</title>
</circle><line x1="543.960022" y1="1640.959961" x2="439.959991" y2="1886.959961" stroke="red" stroke-width="6.660000" />
<circle cx="427.959991" cy="1744.959961" r="19.980000" fill="red">
  <title>Istanbul</title>
</circle><line x1="439.959991" y1="1886.959961" x2="427.959991" y2="1744.959961" stroke="red" stroke-width="6.660000" />
<circle cx="187.959991" cy="1522.959961" r="19.980000" fill="red">
  <title>Delhi</title>
</circle><line x1="427.959991" y1="1744.959961" x2="187.959991" y2="1522.959961" stroke="red" stroke-width="6.660000" />
<circle cx="321.959991" cy="1422.959961" r="19.980000" fill="red">
  <title>Buenos Aires</title>
</circle><line x1="187.959991" y1="1522.959961" x2="321.959991" y2="1422.959961" stroke="red" stroke-width="6.660000" />
<circle cx="43.959999" cy="429.959991" r="19.980000" fill="red">
  <title>Cairo</title>
</circle><line x1="321.959991" y1="1422.959961" x2="43.959999" y2="429.959991" stroke="red" stroke-width="6.660000" />
<circle cx="810.960022" cy="933.960022" r="19.980000" fill="red">
  <title>Mexico City</title>
</circle><line x1="43.959999" y1="429.959991" x2="810.960022" y2="933.960022" stroke="red" stroke-width="6.660000" />
<circle cx="1496.959961" cy="565.960022" r="19.980000" fill="red">
  <title>Mumbai</title>
</circle><line x1="810.960022" y1="933.960022" x2="1496.959961" y2="565.960022" stroke="red" stroke-width="6.660000" />
<circle cx="1535.959961" cy="96.959999" r="19.980000" fill="red">
  <title>Chongqing</title>
</circle><line x1="1496.959961" y1="565.960022" x2="1535.959961" y2="96.959999" stroke="red" stroke-width="6.660000" />
<circle cx="1986.959961" cy="381.959991" r="19.980000" fill="red">
  <title>New York</title>
</circle><line x1="1535.959961" y1="96.959999" x2="1986.959961" y2="381.959991" stroke="red" stroke-width="6.660000" />
</svg>
