<?xml version="1.0" encoding="UTF-8" standalone="no"?>
<svg width="500" height="500" viewBox="0 0 2074.000000 2074.000000" xmlns="http://www.w3.org/2000/svg">
<rect x="19.000000" y="19.000000" width="2036.000000" height="2036.000000" fill="black" />
<circle cx="938.960022" cy="1203.959961" r="19.980000" fill="red">
  <title>Tokyo</title>
</circle><line x1="1704.959961" y1="375.959991" x2="938.960022" y2="1203.959961" stroke="red" stroke-width="6.660000" />
<circle cx="235.959991" cy="1103.959961" r="19.980000" fill="red">
  <title>Delhi</title>
</circle><line x1="938.960022" y1="1203.959961" x2="235.959991" y2="1103.959961" stroke="red" stroke-width="6.660000" />
<circle cx="326.959991" cy="1668.959961" r="19.980000" fill="red">
  <title>Cairo</title>
</circle><line x1="235.959991" y1="1103.959961" x2="326.959991" y2="1668.959961" stroke="red" stroke-width="6.660000" />
<circle cx="1420.959961" cy="1649.959961" r="19.980000" fill="red">
  <title>Shanghai</title>
</circle><line x1="326.959991" y1="1668.959961" x2="1420.959961" y2="1649.959961" stroke="red" stroke-width="6.660000" />
<circle cx="1849.959961" cy="1324.959961" r="19.980000" fill="red">
  <title>São Paulo</title>
</circle><line x1="1420.959961" y1="1649.959961" x2="1849.959961" y2="1324.959961" stroke="red" stroke-width="6.660000" />
<circle cx="1751.959961" cy="679.960022" r="19.980000" fill="red">
  <title>Mumbai</title>
</circle><line x1="1849.959961" y1="1324.959961" x2="1751.959961" y2="679.960022" stroke="red" stroke-width="6.660000" />
<circle cx="1704.959961" cy="375.959991" r="19.980000" fill="red">
  <title>Mexico City</title>
</circle><line x1="1751.959961" y1="679.960022" x2="1704.959961" y2="375.959991" stroke="red" stroke-width="6.660000" />
</svg>
