<?xml version="1.0" encoding="UTF-8" standalone="no"?>
<svg width="500" height="500" viewBox="0 0 2074.000000 2074.000000" xmlns="http://www.w3.org/2000/svg">
<rect x="19.000000" y="19.000000" width="2036.000000" height="2036.000000" fill="black" />
<circle cx="857.960022" cy="345.959991" r="19.980000" fill="red">
  <title>Tokyo</title>
</circle><line x1="509.959991" y1="212.959991" x2="857.960022" y2="345.959991" stroke="red" stroke-width="6.660000" />
<circle cx="1330.959961" cy="377.959991" r="19.980000" fill="red">
  <title>Delhi</title>
</circle><line x1="857.960022" y1="345.959991" x2="1330.959961" y2="377.959991" stroke="red" stroke-width="6.660000" />
<circle cx="1861.959961" cy="347.959991" r="19.980000" fill="red">
  <title>Shanghai</title>
</circle><line x1="1330.959961" y1="377.959991" x2="1861.959961" y2="347.959991" stroke="red" stroke-width="6.660000" />
<circle cx="1571.959961" cy="1023.960022" r="19.980000" fill="red">
  <title>Beijing</title>
</circle><line x1="1861.959961" y1="347.959991" x2="1571.959961" y2="1023.960022" stroke="red" stroke-width="6.660000" />
<circle cx="2011.959961" cy="1587.959961" r="19.980000" fill="red">
  <title>New York</title>
</circle><line x1="1571.959961" y1="1023.960022" x2="2011.959961" y2="1587.959961" stroke="red" stroke-width="6.660000" />
<circle cx="1927.959961" cy="1720.959961" r="19.980000" fill="red">
  <title>Mumbai</title>
</circle><line x1="2011.959961" y1="1587.959961" x2="1927.959961" y2="1720.959961" stroke="red" stroke-width="6.660000" />
<circle cx="862.960022" cy="1332.959961" r="19.980000" fill="red">
  <title>Dhaka</title>
</circle><line x1="1927.959961" y1="1720.959961" x2="862.960022" y2="1332.959961" stroke="red" stroke-width="6.660000" />
<circle cx="971.960022" cy="951.960022" r="19.980000" fill="red">
  <title>Osaka</title>
</circle><line x1="862.960022" y1="1332.959961" x2="971.960022" y2="951.960022" stroke="red" stroke-width="6.660000" />
<circle cx="1117.959961" cy="900.960022" r="19.980000" fill="red">
  <title>Cairo</title>
</circle><line x1="971.960022" y1="951.960022" x2="1117.959961" y2="900.960022" stroke="red" stroke-width="6.660000" />
<circle cx="904.960022" cy="946.960022" r="19.980000" fill="red">
  <title>Mexico City</title>
</circle><line x1="1117.959961" y1="900.960022" x2="904.960022" y2="946.960022" stroke="red" stroke-width="6.660000" />
<circle cx="509.959991" cy="212.959991" r="19.980000" fill="red">
  <title>São Paulo</title>
</circle><line x1="904.960022" y1="946.960022" x2="509.959991" y2="212.959991" stroke="red" stroke-width="6.660000" />
</svg>
