<?xml version="1.0" encoding="UTF-8" standalone="no"?>
<svg width="500" height="500" viewBox="0 0 2074.000000 2074.000000" xmlns="http://www.w3.org/2000/svg">
<rect x="19.000000" y="19.000000" width="2036.000000" height="2036.000000" fill="black" />
<circle cx="689.960022" cy="523.960022" r="19.980000" fill="red">
  <title>Tokyo</title>
</circle><line x1="440.959991" y1="179.959991" x2="689.960022" y2="523.960022" stroke="red" stroke-width="6.660000" />
<circle cx="72.959999" cy="1624.959961" r="19.980000" fill="red">
  <title>Delhi</title>
</circle><line x1="689.960022" y1="523.960022" x2="72.959999" y2="1624.959961" stroke="red" stroke-width="6.660000" />
<circle cx="636.960022" cy="1827.959961" r="19.980000" fill="red">
  <title>Beijing</title>
</circle><line x1="72.959999" y1="1624.959961" x2="636.960022" y2="1827.959961" stroke="red" stroke-width="6.660000" />
<circle cx="748.960022" cy="1881.959961" r="19.980000" fill="red">
  <title>Mexico City</title>
</circle><line x1="636.960022" y1="1827.959961" x2="748.960022" y2="1881.959961" stroke="red" stroke-width="6.660000" />
<circle cx="1405.959961" cy="1984.959961" r="19.980000" fill="red">
  <title>Mumbai</title>
</circle><line x1="748.960022" y1="1881.959961" x2="1405.959961" y2="1984.959961" stroke="red" stroke-width="6.660000" />
<circle cx="1698.959961" cy="1551.959961" r="19.980000" fill="red">
  <title>New York</title>
</circle><line x1="1405.959961" y1="1984.959961" x2="1698.959961" y2="1551.959961" stroke="red" stroke-width="6.660000" />
<circle cx="1360.959961" cy="650.960022" r="19.980000" fill="red">
  <title>Karachi</title>
</circle><line x1="1698.959961" y1="1551.959961" x2="1360.959961" y2="650.960022" stroke="red" stroke-width="6.660000" />
<circle cx="1831.959961" cy="326.959991" r="19.980000" fill="red">
  <title>Dhaka</title>
</circle><line x1="1360.959961" y1="650.960022" x2="1831.959961" y2="326.959991" stroke="red" stroke-width="6.660000" />
<circle cx="1800.959961" cy="288.959991" r="19.980000" fill="red">
  <title>São Paulo</title>
</circle><line x1="1831.959961" y1="326.959991" x2="1800.959961" y2="288.959991" stroke="red" stroke-width="6.660000" />
<circle cx="1586.959961" cy="234.959991" r="19.980000" fill="red">
  <title>Osaka</title>
</circle><line x1="1800.959961" y1="288.959991" x2="1586.959961" y2="234.959991" stroke="red" stroke-width="6.660000" />
<circle cx="692.960022" cy="130.959991" r="19.980000" fill="red">
  <title>Cairo</title>
</circle><line x1="1586.959961" y1="234.959991" x2="692.960022" y2="130.959991" stroke="red" stroke-width="6.660000" />
<circle cx="440.959991" cy="179.959991" r="19.980000" fill="red">
  <title>Shanghai</title>
</circle><line x1="692.960022" y1="130.959991" x2="440.959991" y2="179.959991" stroke="red" stroke-width="6.660000" />
</svg>
