<?xml version="1.0" encoding="UTF-8" standalone="no"?>
<svg width="500" height="500" viewBox="0 0 2074.000000 2074.000000" xmlns="http://www.w3.org/2000/svg">
<rect x="19.000000" y="19.000000" width="2036.000000" height="2036.000000" fill="black" />
<circle cx="1409.959961" cy="2003.959961" r="19.980000" fill="red">
  <title>Tokyo</title>
</circle><line x1="1044.959961" y1="1755.959961" x2="1409.959961" y2="2003.959961" stroke="red" stroke-width="6.660000" />
<circle cx="1195.959961" cy="1509.959961" r="19.980000" fill="red">
  <title>Mexico City</title>
</circle><line x1="1409.959961" y1="2003.959961" x2="1195.959961" y2="1509.959961" stroke="red" stroke-width="6.660000" />
<circle cx="1221.959961" cy="1232.959961" r="19.980000" fill="red">
  <title>Osaka</title>
</circle><line x1="1195.959961" y1="1509.959961" x2="1221.959961" y2="1232.959961" stroke="red" stroke-width="6.660000" />
<circle cx="1438.959961" cy="1142.959961" r="19.980000" fill="red">
  <title>New York</title>
</circle><line x1="1221.959961" y1="1232.959961" x2="1438.959961" y2="1142.959961" stroke="red" stroke-width="6.660000" />
<circle cx="1574.959961" cy="1216.959961" r="19.980000" fill="red">
  <title>Delhi</title>
</circle><line x1="1438.959961" y1="1142.959961" x2="1574.959961" y2="1216.959961" stroke="red" stroke-width="6.660000" />
<circle cx="1582.959961" cy="1136.959961" r="19.980000" fill="red">
  <title>Buenos Aires</title>
</circle><line x1="1574.959961" y1="1216.959961" x2="1582.959961" y2="1136.959961" stroke="red" stroke-width="6.660000" />
<circle cx="1345.959961" cy="918.960022" r="19.980000" fill="red">
  <title>Shanghai</title>
</circle><line x1="1582.959961" y1="1136.959961" x2="1345.959961" y2="918.960022" stroke="red" stroke-width="6.660000" />
<circle cx="1523.959961" cy="703.960022" r="19.980000" fill="red">
  <title>Beijing</title>
</circle><line x1="1345.959961" y1="918.960022" x2="1523.959961" y2="703.960022" stroke="red" stroke-width="6.660000" />
<circle cx="1301.959961" cy="668.960022" r="19.980000" fill="red">
  <title>Dhaka</title>
</circle><line x1="1523.959961" y1="703.960022" x2="1301.959961" y2="668.960022" stroke="red" stroke-width="6.660000" />
<circle cx="1187.959961" cy="351.959991" r="19.980000" fill="red">
  <title>Lagos</title>
</circle><line x1="1301.959961" y1="668.960022" x2="1187.959961" y2="351.959991" stroke="red" stroke-width="6.660000" />
<circle cx="483.959991" cy="142.959991" r="19.980000" fill="red">
  <title>Cairo</title>
</circle><line x1="1187.959961" y1="351.959991" x2="483.959991" y2="142.959991" stroke="red" stroke-width="6.660000" />
<circle cx="620.960022" cy="545.960022" r="19.980000" fill="red">
  <title>Chongqing</title>
</circle><line x1="483.959991" y1="142.959991" x2="620.960022" y2="545.960022" stroke="red" stroke-width="6.660000" />
<circle cx="638.960022" cy="1079.959961" r="19.980000" fill="red">
  <title>Istanbul</title>
</circle><line x1="620.960022" y1="545.960022" x2="638.960022" y2="1079.959961" stroke="red" stroke-width="6.660000" />
<circle cx="836.960022" cy="1441.959961" r="19.980000" fill="red">
  <title>Karachi</title>
</circle><line x1="638.960022" y1="1079.959961" x2="836.960022" y2="1441.959961" stroke="red" stroke-width="6.660000" />
<circle cx="550.960022" cy="1760.959961" r="19.980000" fill="red">
  <title>São Paulo</title>
</circle><line x1="836.960022" y1="1441.959961" x2="550.960022" y2="1760.959961" stroke="red" stroke-width="6.660000" />
<circle cx="220.959991" cy="2008.959961" r="19.980000" fill="red">
  <title>Kolkata</title>
</circle><line x1="550.960022" y1="1760.959961" x2="220.959991" y2="2008.959961" stroke="red" stroke-width="6.660000" />
<circle cx="1020.960022" cy="1704.959961" r="19.980000" fill="red">
  <title>Mumbai</title>
</circle><line x1="220.959991" y1="2008.959961" x2="1020.960022" y2="1704.959961" stroke="red" stroke-width="6.660000" />
<circle cx="1044.959961" cy="1755.959961" r="19.980000" fill="red">
  <title>Manila</title>
</circle><line x1="1020.960022" y1="1704.959961" x2="1044.959961" y2="1755.959961" stroke="red" stroke-width="6.660000" />
</svg>
