<?xml version="1.0" encoding="UTF-8" standalone="no"?>
<svg width="500" height="500" viewBox="0 0 2074.000000 2074.000000" xmlns="http://www.w3.org/2000/svg">
<rect x="19.000000" y="19.000000" width="2036.000000" height="2036.000000" fill="black" />
<circle cx="677.960022" cy="447.959991" r="19.980000" fill="red">
  <title>Tokyo</title>
</circle><line x1="532.960022" y1="415.959991" x2="677.960022" y2="447.959991" stroke="red" stroke-width="6.660000" />
<circle cx="967.960022" cy="696.960022" r="19.980000" fill="red">
  <title>Shanghai</title>
</circle><line x1="677.960022" y1="447.959991" x2="967.960022" y2="696.960022" stroke="red" stroke-width="6.660000" />
<circle cx="1617.959961" cy="367.959991" r="19.980000" fill="red">
  <title>São Paulo</title>
</circle><line x1="967.960022" y1="696.960022" x2="1617.959961" y2="367.959991" stroke="red" stroke-width="6.660000" />
<circle cx="1706.959961" cy="772.960022" r="19.980000" fill="red">
  <title>Mexico City</title>
</circle><line x1="1617.959961" y1="367.959991" x2="1706.959961" y2="772.960022" stroke="red" stroke-width="6.660000" />
<circle cx="1964.959961" cy="1188.959961" r="19.980000" fill="red">
  <title>Osaka</title>
</circle><line x1="1706.959961" y1="772.960022" x2="1964.959961" y2="1188.959961" stroke="red" stroke-width="6.660000" />
<circle cx="1979.959961" cy="1820.959961" r="19.980000" fill="red">
  <title>New York</title>
</circle><line x1="1964.959961" y1="1188.959961" x2="1979.959961" y2="1820.959961" stroke="red" stroke-width="6.660000" />
<circle cx="1068.959961" cy="1413.959961" r="19.980000" fill="red">
  <title>Dhaka</title>
</circle><line x1="1979.959961" y1="1820.959961" x2="1068.959961" y2="1413.959961" stroke="red" stroke-width="6.660000" />
<circle cx="819.960022" cy="1614.959961" r="19.980000" fill="red">
  <title>Delhi</title>
</circle><line x1="1068.959961" y1="1413.959961" x2="819.960022" y2="1614.959961" stroke="red" stroke-width="6.660000" />
<circle cx="339.959991" cy="1140.959961" r="19.980000" fill="red">
  <title>Mumbai</title>
</circle><line x1="819.960022" y1="1614.959961" x2="339.959991" y2="1140.959961" stroke="red" stroke-width="6.660000" />
<circle cx="190.959991" cy="903.960022" r="19.980000" fill="red">
  <title>Beijing</title>
</circle><line x1="339.959991" y1="1140.959961" x2="190.959991" y2="903.960022" stroke="red" stroke-width="6.660000" />
<circle cx="532.960022" cy="415.959991" r="19.980000" fill="red">
  <title>Cairo</title>
</circle><line x1="190.959991" y1="903.960022" x2="532.960022" y2="415.959991" stroke="red" stroke-width="6.660000" />
</svg>
