<?xml version="1.0" encoding="UTF-8" standalone="no"?>
<svg width="500" height="500" viewBox="0 0 2074.000000 2074.000000" xmlns="http://www.w3.org/2000/svg">
<rect x="19.000000" y="19.000000" width="2036.000000" height="2036.000000" fill="black" />
<circle cx="692.960022" cy="573.960022" r="19.980000" fill="red">
  <title>Tokyo</title>
</circle><line x1="326.959991" y1="399.959991" x2="692.960022" y2="573.960022" stroke="red" stroke-width="6.660000" />
<circle cx="1039.959961" cy="391.959991" r="19.980000" fill="red">
  <title>Shanghai</title>
</circle><line x1="692.960022" y1="573.960022" x2="1039.959961" y2="391.959991" stroke="red" stroke-width="6.660000" />
<circle cx="1576.959961" cy="589.960022" r="19.980000" fill="red">
  <title>Delhi</title>
</circle><line x1="1039.959961" y1="391.959991" x2="1576.959961" y2="589.960022" stroke="red" stroke-width="6.660000" />
<circle cx="1247.959961" cy="1674.959961" r="19.980000" fill="red">
  <title>São Paulo</title>
</circle><line x1="1576.959961" y1="589.960022" x2="1247.959961" y2="1674.959961" stroke="red" stroke-width="6.660000" />
<circle cx="973.960022" cy="1705.959961" r="19.980000" fill="red">
  <title>Cairo</title>
</circle><line x1="1247.959961" y1="1674.959961" x2="973.960022" y2="1705.959961" stroke="red" stroke-width="6.660000" />
<circle cx="262.959991" cy="763.960022" r="19.980000" fill="red">
  <title>Mexico City</title>
</circle><line x1="973.960022" y1="1705.959961" x2="262.959991" y2="763.960022" stroke="red" stroke-width="6.660000" />
<circle cx="326.959991" cy="399.959991" r="19.980000" fill="red">
  <title>Mumbai</title>
</circle><line x1="262.959991" y1="763.960022" x2="326.959991" y2="399.959991" stroke="red" stroke-width="6.660000" />
</svg>
