<?xml version="1.0" encoding="UTF-8" standalone="no"?>
<svg width="500" height="500" viewBox="0 0 2074.000000 2074.000000" xmlns="http://www.w3.org/2000/svg">
<rect x="19.000000" y="19.000000" width="2036.000000" height="2036.000000" fill="black" />
<circle cx="1769.959961" cy="1176.959961" r="19.980000" fill="red">
  <title>Tokyo</title>
</circle><line x1="1713.959961" y1="748.960022" x2="1769.959961" y2="1176.959961" stroke="red" stroke-width="6.660000" />
<circle cx="1874.959961" cy="1587.959961" r="19.980000" fill="red">
  <title>Shanghai</title>
</circle><line x1="1769.959961" y1="1176.959961" x2="1874.959961" y2="1587.959961" stroke="red" stroke-width="6.660000" />
<circle cx="1813.959961" cy="1950.959961" r="19.980000" fill="red">
  <title>Beijing</title>
</circle><line x1="1874.959961" y1="1587.959961" x2="1813.959961" y2="1950.959961" stroke="red" stroke-width="6.660000" />
<circle cx="1684.959961" cy="1703.959961" r="19.980000" fill="red">
  <title>Cairo</title>
</circle><line x1="1813.959961" y1="1950.959961" x2="1684.959961" y2="1703.959961" stroke="red" stroke-width="6.660000" />
<circle cx="1184.959961" cy="1550.959961" r="19.980000" fill="red">
  <title>Lagos</title>
</circle><line x1="1684.959961" y1="1703.959961" x2="1184.959961" y2="1550.959961" stroke="red" stroke-width="6.660000" />
<circle cx="951.960022" cy="1862.959961" r="19.980000" fill="red">
  <title>São Paulo</title>
</circle><line x1="1184.959961" y1="1550.959961" x2="951.960022" y2="1862.959961" stroke="red" stroke-width="6.660000" />
<circle cx="813.960022" cy="1543.959961" r="19.980000" fill="red">
  <title>New York</title>
</circle><line x1="951.960022" y1="1862.959961" x2="813.960022" y2="1543.959961" stroke="red" stroke-width="6.660000" />
<circle cx="667.960022" cy="650.960022" r="19.980000" fill="red">
  <title>Delhi</title>
</circle><line x1="813.960022" y1="1543.959961" x2="667.960022" y2="650.960022" stroke="red" stroke-width="6.660000" />
<circle cx="120.959999" cy="573.960022" r="19.980000" fill="red">
  <title>Kolkata</title>
</circle><line x1="667.960022" y1="650.960022" x2="120.959999" y2="573.960022" stroke="red" stroke-width="6.660000" />
<circle cx="297.959991" cy="98.959999" r="19.980000" fill="red">
  <title>Rio de Janeiro</title>
</circle><line x1="120.959999" y1="573.960022" x2="297.959991" y2="98.959999" stroke="red" stroke-width="6.660000" />
<circle cx="326.959991" cy="41.959999" r="19.980000" fill="red">
  <title>Buenos Aires</title>
</circle><line x1="297.959991" y1="98.959999" x2="326.959991" y2="41.959999" stroke="red" stroke-width="6.660000" />
<circle cx="568.960022" cy="445.959991" r="19.980000" fill="red">
  <title>Karachi</title>
</circle><line x1="326.959991" y1="41.959999" x2="568.960022" y2="445.959991" stroke="red" stroke-width="6.660000" />
<circle cx="841.960022" cy="575.960022" r="19.980000" fill="red">
  <title>Istanbul</title>
</circle><line x1="568.960022" y1="445.959991" x2="841.960022" y2="575.960022" stroke="red" stroke-width="6.660000" />
<circle cx="891.960022" cy="304.959991" r="19.980000" fill="red">
  <title>Mexico City</title>
</circle><line x1="841.960022" y1="575.960022" x2="891.960022" y2="304.959991" stroke="red" stroke-width="6.660000" />
<circle cx="1584.959961" cy="82.959999" r="19.980000" fill="red">
  <title>Mumbai</title>
</circle><line x1="891.960022" y1="304.959991" x2="1584.959961" y2="82.959999" stroke="red" stroke-width="6.660000" />
<circle cx="1624.959961" cy="327.959991" r="19.980000" fill="red">
  <title>Osaka</title>
</circle><line x1="1584.959961" y1="82.959999" x2="1624.959961" y2="327.959991" stroke="red" stroke-width="6.660000" />
<circle cx="1718.959961" cy="339.959991" r="19.980000" fill="red">
  <title>Chongqing</title>
</circle><line x1="1624.959961" y1="327.959991" x2="1718.959961" y2="339.959991" stroke="red" stroke-width="6.660000" />
<circle cx="1605.959961" cy="606.960022" r="19.980000" fill="red">
  <title>Dhaka</title>
</circle><line x1="1718.959961" y1="339.959991" x2="1605.959961" y2="606.960022" stroke="red" stroke-width="6.660000" />
<circle cx="1713.959961" cy="748.960022" r="19.980000" fill="red">
  <title>Manila</title>
</circle><line x1="1605.959961" y1="606.960022" x2="1713.959961" y2="748.960022" stroke="red" stroke-width="6.660000" />
</svg>
