<?xml version="1.0" encoding="UTF-8" standalone="no"?>
<svg width="500" height="500" viewBox="0 0 2074.000000 2074.000000" xmlns="http://www.w3.org/2000/svg">
<rect x="19.000000" y="19.000000" width="2036.000000" height="2036.000000" fill="black" />
<circle cx="1949.959961" cy="320.959991" r="19.980000" fill="red">
  <title>Tokyo</title>
</circle><line x1="1890.959961" y1="665.960022" x2="1949.959961" y2="320.959991" stroke="red" stroke-width="6.660000" />
<circle cx="1620.959961" cy="466.959991" r="19.980000" fill="red">
  <title>Shanghai</title>
</circle><line x1="1949.959961" y1="320.959991" x2="1620.959961" y2="466.959991" stroke="red" stroke-width="6.660000" />
<circle cx="1180.959961" cy="213.959991" r="19.980000" fill="red">
  <title>Cairo</title>
</circle><line x1="1620.959961" y1="466.959991" x2="1180.959961" y2="213.959991" stroke="red" stroke-width="6.660000" />
<circle cx="766.960022" cy="1139.959961" r="19.980000" fill="red">
  <title>Beijing</title>
</circle><line x1="1180.959961" y1="213.959991" x2="766.960022" y2="1139.959961" stroke="red" stroke-width="6.660000" />
<circle cx="236.959991" cy="1260.959961" r="19.980000" fill="red">
  <title>São Paulo</title>
</circle><line x1="766.960022" y1="1139.959961" x2="236.959991" y2="1260.959961" stroke="red" stroke-width="6.660000" />
<circle cx="253.959991" cy="1982.959961" r="19.980000" fill="red">
  <title>Dhaka</title>
</circle><line x1="236.959991" y1="1260.959961" x2="253.959991" y2="1982.959961" stroke="red" stroke-width="6.660000" />
<circle cx="622.960022" cy="1294.959961" r="19.980000" fill="red">
  <title>Delhi</title>
</circle><line x1="253.959991" y1="1982.959961" x2="622.960022" y2="1294.959961" stroke="red" stroke-width="6.660000" />
<circle cx="1602.959961" cy="1321.959961" r="19.980000" fill="red">
  <title>Mexico City</title>
</circle><line x1="622.960022" y1="1294.959961" x2="1602.959961" y2="1321.959961" stroke="red" stroke-width="6.660000" />
<circle cx="1998.959961" cy="1013.960022" r="19.980000" fill="red">
  <title>Mumbai</title>
</circle><line x1="1602.959961" y1="1321.959961" x2="1998.959961" y2="1013.960022" stroke="red" stroke-width="6.660000" />
<circle cx="1890.959961" cy="665.960022" r="19.980000" fill="red">
  <title>Osaka</title>
</circle><line x1="1998.959961" y1="1013.960022" x2="1890.959961" y2="665.960022" stroke="red" stroke-width="6.660000" />
</svg>
