<?xml version="1.0" encoding="UTF-8" standalone="no"?>
<svg width="500" height="500" viewBox="0 0 2074.000000 2074.000000" xmlns="http://www.w3.org/2000/svg">
<rect x="19.000000" y="19.000000" width="2036.000000" height="2036.000000" fill="black" />
<circle cx="221.959991" cy="499.959991" r="19.980000" fill="red">
  <title>Tokyo</title>
</circle><line x1="504.959991" y1="1679.959961" x2="221.959991" y2="499.959991" stroke="red" stroke-width="6.660000" />
<circle cx="1589.959961" cy="800.960022" r="19.980000" fill="red">
  <title>Delhi</title>
</circle><line x1="221.959991" y1="499.959991" x2="1589.959961" y2="800.960022" stroke="red" stroke-width="6.660000" />
<circle cx="2016.959961" cy="604.960022" r="19.980000" fill="red">
  <title>Shanghai</title>
</circle><line x1="1589.959961" y1="800.960022" x2="2016.959961" y2="604.960022" stroke="red" stroke-width="6.660000" />
<circle cx="1956.959961" cy="1535.959961" r="19.980000" fill="red">
  <title>Mexico City</title>
</circle><line x1="2016.959961" y1="604.960022" x2="1956.959961" y2="1535.959961" stroke="red" stroke-width="6.660000" />
<circle cx="1534.959961" cy="1381.959961" r="19.980000" fill="red">
  <title>Cairo</title>
</circle><line x1="1956.959961" y1="1535.959961" x2="1534.959961" y2="1381.959961" stroke="red" stroke-width="6.660000" />
<circle cx="504.959991" cy="1679.959961" r="19.980000" fill="red">
  <title>São Paulo</title>
</circle><line x1="1534.959961" y1="1381.959961" x2="504.959991" y2="1679.959961" stroke="red" stroke-width="6.660000" />
</svg>
