<?xml version="1.0" encoding="UTF-8" standalone="no"?>
<svg width="500" height="500" viewBox="0 0 2074.000000 2074.000000" xmlns="http://www.w3.org/2000/svg">
<rect x="19.000000" y="19.000000" width="2036.000000" height="2036.000000" fill="black" />
<circle cx="1098.959961" cy="1239.959961" r="19.980000" fill="red">
  <title>Tokyo</title>
</circle><line x1="1429.959961" y1="1587.959961" x2="1098.959961" y2="1239.959961" stroke="red" stroke-width="6.660000" />
<circle cx="891.960022" cy="1320.959961" r="19.980000" fill="red">
  <title>Delhi</title>
</circle><line x1="1098.959961" y1="1239.959961" x2="891.960022" y2="1320.959961" stroke="red" stroke-width="6.660000" />
<circle cx="731.960022" cy="1342.959961" r="19.980000" fill="red">
  <title>Mexico City</title>
</circle><line x1="891.960022" y1="1320.959961" x2="731.960022" y2="1342.959961" stroke="red" stroke-width="6.660000" />
<circle cx="497.959991" cy="1993.959961" r="19.980000" fill="red">
  <title>Osaka</title>
</circle><line x1="731.960022" y1="1342.959961" x2="497.959991" y2="1993.959961" stroke="red" stroke-width="6.660000" />
<circle cx="445.959991" cy="1668.959961" r="19.980000" fill="red">
  <title>Beijing</title>
</circle><line x1="497.959991" y1="1993.959961" x2="445.959991" y2="1668.959961" stroke="red" stroke-width="6.660000" />
<circle cx="46.959999" cy="907.960022" r="19.980000" fill="red">
  <title>Shanghai</title>
</circle><line x1="445.959991" y1="1668.959961" x2="46.959999" y2="907.960022" stroke="red" stroke-width="6.660000" />
<circle cx="350.959991" cy="199.959991" r="19.980000" fill="red">
  <title>São Paulo</title>
</circle><line x1="46.959999" y1="907.960022" x2="350.959991" y2="199.959991" stroke="red" stroke-width="6.660000" />
<circle cx="1662.959961" cy="790.960022" r="19.980000" fill="red">
  <title>Karachi</title>
</circle><line x1="350.959991" y1="199.959991" x2="1662.959961" y2="790.960022" stroke="red" stroke-width="6.660000" />
<circle cx="1804.959961" cy="1277.959961" r="19.980000" fill="red">
  <title>Cairo</title>
</circle><line x1="1662.959961" y1="790.960022" x2="1804.959961" y2="1277.959961" stroke="red" stroke-width="6.660000" />
<circle cx="1785.959961" cy="1414.959961" r="19.980000" fill="red">
  <title>New York</title>
</circle><line x1="1804.959961" y1="1277.959961" x2="1785.959961" y2="1414.959961" stroke="red" stroke-width="6.660000" />
<circle cx="1931.959961" cy="1889.959961" r="19.980000" fill="red">
  <title>Mumbai</title>
</circle><line x1="1785.959961" y1="1414.959961" x2="1931.959961" y2="1889.959961" stroke="red" stroke-width="6.660000" />
<circle cx="1429.959961" cy="1587.959961" r="19.980000" fill="red">
  <title>Dhaka</title>
</circle><line x1="1931.959961" y1="1889.959961" x2="1429.959961" y2="1587.959961" stroke="red" stroke-width="6.660000" />
</svg>
