<?xml version="1.0" encoding="UTF-8" standalone="no"?>
<svg width="500" height="500" viewBox="0 0 2074.000000 2074.000000" xmlns="http://www.w3.org/2000/svg">
<rect x="19.000000" y="19.000000" width="2036.000000" height="2036.000000" fill="black" />
<circle cx="1640.959961" cy="570.960022" r="19.980000" fill="red">
  <title>Tokyo</title>
</circle><line x1="1273.959961" y1="659.960022" x2="1640.959961" y2="570.960022" stroke="red" stroke-width="6.660000" />
<circle cx="1405.959961" cy="478.959991" r="19.980000" fill="red">
  <title>Cairo</title>
</circle><line x1="1640.959961" y1="570.960022" x2="1405.959961" y2="478.959991" stroke="red" stroke-width="6.660000" />
<circle cx="1120.959961" cy="282.959991" r="19.980000" fill="red">
  <title>Shanghai</title>
</circle><line x1="1405.959961" y1="478.959991" x2="1120.959961" y2="282.959991" stroke="red" stroke-width="6.660000" />
<circle cx="371.959991" cy="45.959999" r="19.980000" fill="red">
  <title>Mexico City</title>
</circle><line x1="1120.959961" y1="282.959991" x2="371.959991" y2="45.959999" stroke="red" stroke-width="6.660000" />
<circle cx="324.959991" cy="553.960022" r="19.980000" fill="red">
  <title>Mumbai</title>
</circle><line x1="371.959991" y1="45.959999" x2="324.959991" y2="553.960022" stroke="red" stroke-width="6.660000" />
<circle cx="169.959991" cy="1286.959961" r="19.980000" fill="red">
  <title>Beijing</title>
</circle><line x1="324.959991" y1="553.960022" x2="169.959991" y2="1286.959961" stroke="red" stroke-width="6.660000" />
<circle cx="1319.959961" cy="1353.959961" r="19.980000" fill="red">
  <title>Delhi</title>
</circle><line x1="169.959991" y1="1286.959961" x2="1319.959961" y2="1353.959961" stroke="red" stroke-width="6.660000" />
<circle cx="1273.959961" cy="659.960022" r="19.980000" fill="red">
  <title>São Paulo</title>
</circle><line x1="1319.959961" y1="1353.959961" x2="1273.959961" y2="659.960022" stroke="red" stroke-width="6.660000" />
</svg>
