<?xml version="1.0" encoding="UTF-8" standalone="no"?>
<svg width="500" height="500" viewBox="0 0 2074.000000 2074.000000" xmlns="http://www.w3.org/2000/svg">
<rect x="19.000000" y="19.000000" width="2036.000000" height="2036.000000" fill="black" />
<circle cx="1267.959961" cy="292.959991" r="19.980000" fill="red">
  <title>Tokyo</title>
</circle><line x1="1013.960022" y1="803.960022" x2="1267.959961" y2="292.959991" stroke="red" stroke-width="6.660000" />
<circle cx="592.960022" cy="593.960022" r="19.980000" fill="red">
  <title>Cairo</title>
</circle><line x1="1267.959961" y1="292.959991" x2="592.960022" y2="593.960022" stroke="red" stroke-width="6.660000" />
<circle cx="362.959991" cy="627.960022" r="19.980000" fill="red">
  <title>Osaka</title>
</circle><line x1="592.960022" y1="593.960022" x2="362.959991" y2="627.960022" stroke="red" stroke-width="6.660000" />
<circle cx="159.959991" cy="649.960022" r="19.980000" fill="red">
  <title>Mumbai</title>
</circle><line x1="362.959991" y1="627.960022" x2="159.959991" y2="649.960022" stroke="red" stroke-width="6.660000" />
<circle cx="265.959991" cy="1121.959961" r="19.980000" fill="red">
  <title>Delhi</title>
</circle><line x1="159.959991" y1="649.960022" x2="265.959991" y2="1121.959961" stroke="red" stroke-width="6.660000" />
<circle cx="537.960022" cy="1793.959961" r="19.980000" fill="red">
  <title>São Paulo</title>
</circle><line x1="265.959991" y1="1121.959961" x2="537.960022" y2="1793.959961" stroke="red" stroke-width="6.660000" />
<circle cx="823.960022" cy="2033.959961" r="19.980000" fill="red">
  <title>Mexico City</title>
</circle><line x1="537.960022" y1="1793.959961" x2="823.960022" y2="2033.959961" stroke="red" stroke-width="6.660000" />
<circle cx="611.960022" cy="1151.959961" r="19.980000" fill="red">
  <title>Shanghai</title>
</circle><line x1="823.960022" y1="2033.959961" x2="611.960022" y2="1151.959961" stroke="red" stroke-width="6.660000" />
<circle cx="589.960022" cy="1015.960022" r="19.980000" fill="red">
  <title>Beijing</title>
</circle><line x1="611.960022" y1="1151.959961" x2="589.960022" y2="1015.960022" stroke="red" stroke-width="6.660000" />
<circle cx="1013.960022" cy="803.960022" r="19.980000" fill="red">
  <title>Dhaka</title>
</circle><line x1="589.960022" y1="1015.960022" x2="1013.960022" y2="803.960022" stroke="red" stroke-width="6.660000" />
</svg>
