<?xml version="1.0" encoding="UTF-8" standalone="no"?>
<svg width="500" height="500" viewBox="0 0 2074.000000 2074.000000" xmlns="http://www.w3.org/2000/svg">
<rect x="19.000000" y="19.000000" width="2036.000000" height="2036.000000" fill="black" />
<circle cx="1496.959961" cy="1383.959961" r="19.980000" fill="red">
  <title>Tokyo</title>
</circle><line x1="1937.959961" y1="1960.959961" x2="1496.959961" y2="1383.959961" stroke="red" stroke-width="6.660000" />
<circle cx="1353.959961" cy="1295.959961" r="19.980000" fill="red">
  <title>Cairo</title>
</circle><line x1="1496.959961" y1="1383.959961" x2="1353.959961" y2="1295.959961" stroke="red" stroke-width="6.660000" />
<circle cx="1280.959961" cy="870.960022" r="19.980000" fill="red">
  <title>Karachi</title>
</circle><line x1="1353.959961" y1="1295.959961" x2="1280.959961" y2="870.960022" stroke="red" stroke-width="6.660000" />
<circle cx="1626.959961" cy="791.960022" r="19.980000" fill="red">
  <title>Mumbai</title>
</circle><line x1="1280.959961" y1="870.960022" x2="1626.959961" y2="791.960022" stroke="red" stroke-width="6.660000" />
<circle cx="1881.959961" cy="508.959991" r="19.980000" fill="red">
  <title>Dhaka</title>
</circle><line x1="1626.959961" y1="791.960022" x2="1881.959961" y2="508.959991" stroke="red" stroke-width="6.660000" />
<circle cx="1191.959961" cy="432.959991" r="19.980000" fill="red">
  <title>Kolkata</title>
</circle><line x1="1881.959961" y1="508.959991" x2="1191.959961" y2="432.959991" stroke="red" stroke-width="6.660000" />
<circle cx="1170.959961" cy="303.959991" r="19.980000" fill="red">
  <title>Delhi</title>
</circle><line x1="1191.959961" y1="432.959991" x2="1170.959961" y2="303.959991" stroke="red" stroke-width="6.660000" />
<circle cx="928.960022" cy="440.959991" r="19.980000" fill="red">
  <title>Mexico City</title>
</circle><line x1="1170.959961" y1="303.959991" x2="928.960022" y2="440.959991" stroke="red" stroke-width="6.660000" />
<circle cx="973.960022" cy="814.960022" r="19.980000" fill="red">
  <title>Istanbul</title>
</circle><line x1="928.960022" y1="440.959991" x2="973.960022" y2="814.960022" stroke="red" stroke-width="6.660000" />
<circle cx="72.959999" cy="932.960022" r="19.980000" fill="red">
  <title>Shanghai</title>
</circle><line x1="973.960022" y1="814.960022" x2="72.959999" y2="932.960022" stroke="red" stroke-width="6.660000" />
<circle cx="405.959991" cy="1284.959961" r="19.980000" fill="red">
  <title>New York</title>
</circle><line x1="72.959999" y1="932.960022" x2="405.959991" y2="1284.959961" stroke="red" stroke-width="6.660000" />
<circle cx="143.959991" cy="1656.959961" r="19.980000" fill="red">
  <title>Chongqing</title>
</circle><line x1="405.959991" y1="1284.959961" x2="143.959991" y2="1656.959961" stroke="red" stroke-width="6.660000" />
<circle cx="605.960022" cy="1706.959961" r="19.980000" fill="red">
  <title>Beijing</title>
</circle><line x1="143.959991" y1="1656.959961" x2="605.960022" y2="1706.959961" stroke="red" stroke-width="6.660000" />
<circle cx="1126.959961" cy="1930.959961" r="19.980000" fill="red">
  <title>Buenos Aires</title>
</circle><line x1="605.960022" y1="1706.959961" x2="1126.959961" y2="1930.959961" stroke="red" stroke-width="6.660000" />
<circle cx="1138.959961" cy="2009.959961" r="19.980000" fill="red">
  <title>Osaka</title>
</circle><line x1="1126.959961" y1="1930.959961" x2="1138.959961" y2="2009.959961" stroke="red" stroke-width="6.660000" />
<circle cx="1937.959961" cy="1960.959961" r="19.980000" fill="red">
  <title>São Paulo</title>
</circle><line x1="1138.959961" y1="2009.959961" x2="1937.959961" y2="1960.959961" stroke="red" stroke-width="6.660000" />
</svg>
