<?xml version="1.0" encoding="UTF-8" standalone="no"?>
<svg width="500" height="500" viewBox="0 0 2074.000000 2074.000000" xmlns="http://www.w3.org/2000/svg">
<rect x="19.000000" y="19.000000" width="2036.000000" height="2036.000000" fill="black" />
<circle cx="132.959991" cy="90.959999" r="19.980000" fill="red">
  <title>Tokyo</title>
</circle><line x1="828.960022" y1="183.959991" x2="132.959991" y2="90.959999" stroke="red" stroke-width="6.660000" />
<circle cx="759.960022" cy="425.959991" r="19.980000" fill="red">
  <title>Delhi</title>
</circle><line x1="132.959991" y1="90.959999" x2="759.960022" y2="425.959991" stroke="red" stroke-width="6.660000" />
<circle cx="1031.959961" cy="1560.959961" r="19.980000" fill="red">
  <title>São Paulo</title>
</circle><line x1="759.960022" y1="425.959991" x2="1031.959961" y2="1560.959961" stroke="red" stroke-width="6.660000" />
<circle cx="828.960022" cy="183.959991" r="19.980000" fill="red">
  <title>Shanghai</title>
</circle><line x1="1031.959961" y1="1560.959961" x2="828.960022" y2="183.959991" stroke="red" stroke-width="6.660000" />
</svg>
