<?xml version="1.0" encoding="UTF-8" standalone="no"?>
<svg width="500" height="500" viewBox="0 0 2074.000000 2074.000000" xmlns="http://www.w3.org/2000/svg">
<rect x="19.000000" y="19.000000" width="2036.000000" height="2036.000000" fill="black" />
<circle cx="1875.959961" cy="1144.959961" r="19.980000" fill="red">
  <title>Tokyo</title>
</circle><line x1="1616.959961" y1="1201.959961" x2="1875.959961" y2="1144.959961" stroke="red" stroke-width="6.660000" />
<circle cx="1558.959961" cy="981.960022" r="19.980000" fill="red">
  <title>Shanghai</title>
</circle><line x1="1875.959961" y1="1144.959961" x2="1558.959961" y2="981.960022" stroke="red" stroke-width="6.660000" />
<circle cx="1343.959961" cy="596.960022" r="19.980000" fill="red">
  <title>Beijing</title>
</circle><line x1="1558.959961" y1="981.960022" x2="1343.959961" y2="596.960022" stroke="red" stroke-width="6.660000" />
<circle cx="1532.959961" cy="384.959991" r="19.980000" fill="red">
  <title>São Paulo</title>
</circle><line x1="1343.959961" y1="596.960022" x2="1532.959961" y2="384.959991" stroke="red" stroke-width="6.660000" />
<circle cx="1159.959961" cy="272.959991" r="19.980000" fill="red">
  <title>New York</title>
</circle><line x1="1532.959961" y1="384.959991" x2="1159.959961" y2="272.959991" stroke="red" stroke-width="6.660000" />
<circle cx="836.960022" cy="692.960022" r="19.980000" fill="red">
  <title>Mumbai</title>
</circle><line x1="1159.959961" y1="272.959991" x2="836.960022" y2="692.960022" stroke="red" stroke-width="6.660000" />
<circle cx="388.959991" cy="199.959991" r="19.980000" fill="red">
  <title>Karachi</title>
</circle><line x1="836.960022" y1="692.960022" x2="388.959991" y2="199.959991" stroke="red" stroke-width="6.660000" />
<circle cx="48.959999" cy="1043.959961" r="19.980000" fill="red">
  <title>Dhaka</title>
</circle><line x1="388.959991" y1="199.959991" x2="48.959999" y2="1043.959961" stroke="red" stroke-width="6.660000" />
<circle cx="569.960022" cy="1764.959961" r="19.980000" fill="red">
  <title>Cairo</title>
</circle><line x1="48.959999" y1="1043.959961" x2="569.960022" y2="1764.959961" stroke="red" stroke-width="6.660000" />
<circle cx="699.960022" cy="1144.959961" r="19.980000" fill="red">
  <title>Osaka</title>
</circle><line x1="569.960022" y1="1764.959961" x2="699.960022" y2="1144.959961" stroke="red" stroke-width="6.660000" />
<circle cx="1242.959961" cy="1182.959961" r="19.980000" fill="red">
  <title>Delhi</title>
</circle><line x1="699.960022" y1="1144.959961" x2="1242.959961" y2="1182.959961" stroke="red" stroke-width="6.660000" />
<circle cx="1550.959961" cy="1619.959961" r="19.980000" fill="red">
  <title>Buenos Aires</title>
</circle><line x1="1242.959961" y1="1182.959961" x2="1550.959961" y2="1619.959961" stroke="red" stroke-width="6.660000" />
<circle cx="1616.959961" cy="1201.959961" r="19.980000" fill="red">
  <title>Mexico City</title>
</circle><line x1="1550.959961" y1="1619.959961" x2="1616.959961" y2="1201.959961" stroke="red" stroke-width="6.660000" />
</svg>
