<?xml version="1.0" encoding="UTF-8" standalone="no"?>
<svg width="500" height="500" viewBox="0 0 2074.000000 2074.000000" xmlns="http://www.w3.org/2000/svg">
<rect x="19.000000" y="19.000000" width="2036.000000" height="2036.000000" fill="black" />
<circle cx="605.960022" cy="1222.959961" r="19.980000" fill="red">
  <title>Tokyo</title>
</circle><line x1="581.960022" y1="794.960022" x2="605.960022" y2="1222.959961" stroke="red" stroke-width="6.660000" />
<circle cx="747.960022" cy="1749.959961" r="19.980000" fill="red">
  <title>Delhi</title>
</circle><line x1="605.960022" y1="1222.959961" x2="747.960022" y2="1749.959961" stroke="red" stroke-width="6.660000" />
<circle cx="1301.959961" cy="1498.959961" r="19.980000" fill="red">
  <title>São Paulo</title>
</circle><line x1="747.960022" y1="1749.959961" x2="1301.959961" y2="1498.959961" stroke="red" stroke-width="6.660000" />
<circle cx="1654.959961" cy="1684.959961" r="19.980000" fill="red">
  <title>Istanbul</title>
</circle><line x1="1301.959961" y1="1498.959961" x2="1654.959961" y2="1684.959961" stroke="red" stroke-width="6.660000" />
<circle cx="1755.959961" cy="1737.959961" r="19.980000" fill="red">
  <title>Dhaka</title>
</circle><line x1="1654.959961" y1="1684.959961" x2="1755.959961" y2="1737.959961" stroke="red" stroke-width="6.660000" />
<circle cx="2024.959961" cy="1601.959961" r="19.980000" fill="red">
  <title>Chongqing</title>
</circle><line x1="1755.959961" y1="1737.959961" x2="2024.959961" y2="1601.959961" stroke="red" stroke-width="6.660000" />
<circle cx="1868.959961" cy="1407.959961" r="19.980000" fill="red">
  <title>Shanghai</title>
</circle><line x1="2024.959961" y1="1601.959961" x2="1868.959961" y2="1407.959961" stroke="red" stroke-width="6.660000" />
<circle cx="1708.959961" cy="1399.959961" r="19.980000" fill="red">
  <title>Beijing</title>
</circle><line x1="1868.959961" y1="1407.959961" x2="1708.959961" y2="1399.959961" stroke="red" stroke-width="6.660000" />
<circle cx="2004.959961" cy="780.960022" r="19.980000" fill="red">
  <title>Cairo</title>
</circle><line x1="1708.959961" y1="1399.959961" x2="2004.959961" y2="780.960022" stroke="red" stroke-width="6.660000" />
<circle cx="1951.959961" cy="454.959991" r="19.980000" fill="red">
  <title>Karachi</title>
</circle><line x1="2004.959961" y1="780.960022" x2="1951.959961" y2="454.959991" stroke="red" stroke-width="6.660000" />
<circle cx="1598.959961" cy="156.959991" r="19.980000" fill="red">
  <title>Mumbai</title>
</circle><line x1="1951.959961" y1="454.959991" x2="1598.959961" y2="156.959991" stroke="red" stroke-width="6.660000" />
<circle cx="930.960022" cy="44.959999" r="19.980000" fill="red">
  <title>Mexico City</title>
</circle><line x1="1598.959961" y1="156.959991" x2="930.960022" y2="44.959999" stroke="red" stroke-width="6.660000" />
<circle cx="458.959991" cy="666.960022" r="19.980000" fill="red">
  <title>Osaka</title>
</circle><line x1="930.960022" y1="44.959999" x2="458.959991" y2="666.960022" stroke="red" stroke-width="6.660000" />
<circle cx="162.959991" cy="902.960022" r="19.980000" fill="red">
  <title>Buenos Aires</title>
</circle><line x1="458.959991" y1="666.960022" x2="162.959991" y2="902.960022" stroke="red" stroke-width="6.660000" />
<circle cx="581.960022" cy="794.960022" r="19.980000" fill="red">
  <title>New York</title>
</circle><line x1="162.959991" y1="902.960022" x2="581.960022" y2="794.960022" stroke="red" stroke-width="6.660000" />
</svg>
