<?xml version="1.0" encoding="UTF-8" standalone="no"?>
<svg width="500" height="500" viewBox="0 0 2074.000000 2074.000000" xmlns="http://www.w3.org/2000/svg">
<rect x="19.000000" y="19.000000" width="2036.000000" height="2036.000000" fill="black" />
<circle cx="1210.959961" cy="1414.959961" r="19.980000" fill="red">
  <title>Tokyo</title>
</circle><line x1="1917.959961" y1="1128.959961" x2="1210.959961" y2="1414.959961" stroke="red" stroke-width="6.660000" />
<circle cx="571.960022" cy="1702.959961" r="19.980000" fill="red">
  <title>Shanghai</title>
</circle><line x1="1210.959961" y1="1414.959961" x2="571.960022" y2="1702.959961" stroke="red" stroke-width="6.660000" />
<circle cx="403.959991" cy="1386.959961" r="19.980000" fill="red">
  <title>Beijing</title>
</circle><line x1="571.960022" y1="1702.959961" x2="403.959991" y2="1386.959961" stroke="red" stroke-width="6.660000" />
<circle cx="71.959999" cy="733.960022" r="19.980000" fill="red">
  <title>Delhi</title>
</circle><line x1="403.959991" y1="1386.959961" x2="71.959999" y2="733.960022" stroke="red" stroke-width="6.660000" />
<circle cx="250.959991" cy="80.959999" r="19.980000" fill="red">
  <title>Cairo</title>
</circle><line x1="71.959999" y1="733.960022" x2="250.959991" y2="80.959999" stroke="red" stroke-width="6.660000" />
<circle cx="698.960022" cy="450.959991" r="19.980000" fill="red">
  <title>Mumbai</title>
</circle><line x1="250.959991" y1="80.959999" x2="698.960022" y2="450.959991" stroke="red" stroke-width="6.660000" />
<circle cx="695.960022" cy="473.959991" r="19.980000" fill="red">
  <title>Mexico City</title>
</circle><line x1="698.960022" y1="450.959991" x2="695.960022" y2="473.959991" stroke="red" stroke-width="6.660000" />
<circle cx="1917.959961" cy="1128.959961" r="19.980000" fill="red">
  <title>São Paulo</title>
</circle><line x1="695.960022" y1="473.959991" x2="1917.959961" y2="1128.959961" stroke="red" stroke-width="6.660000" />
</svg>
