<?xml version="1.0" encoding="UTF-8" standalone="no"?>
<svg width="500" height="500" viewBox="0 0 2074.000000 2074.000000" xmlns="http://www.w3.org/2000/svg">
<rect x="19.000000" y="19.000000" width="2036.000000" height="2036.000000" fill="black" />
<circle cx="1571.959961" cy="138.959991" r="19.980000" fill="red">
  <title>Tokyo</title>
</circle><line x1="839.960022" y1="391.959991" x2="1571.959961" y2="138.959991" stroke="red" stroke-width="6.660000" />
<circle cx="1237.959961" cy="897.960022" r="19.980000" fill="red">
  <title>Shanghai</title>
</circle><line x1="1571.959961" y1="138.959991" x2="1237.959961" y2="897.960022" stroke="red" stroke-width="6.660000" />
<circle cx="1363.959961" cy="1098.959961" r="19.980000" fill="red">
  <title>Osaka</title>
</circle><line x1="1237.959961" y1="897.960022" x2="1363.959961" y2="1098.959961" stroke="red" stroke-width="6.660000" />
<circle cx="1825.959961" cy="1340.959961" r="19.980000" fill="red">
  <title>Dhaka</title>
</circle><line x1="1363.959961" y1="1098.959961" x2="1825.959961" y2="1340.959961" stroke="red" stroke-width="6.660000" />
<circle cx="1357.959961" cy="1576.959961" r="19.980000" fill="red">
  <title>Mexico City</title>
</circle><line x1="1825.959961" y1="1340.959961" x2="1357.959961" y2="1576.959961" stroke="red" stroke-width="6.660000" />
<circle cx="467.959991" cy="1603.959961" r="19.980000" fill="red">
  <title>São Paulo</title>
</circle><line x1="1357.959961" y1="1576.959961" x2="467.959991" y2="1603.959961" stroke="red" stroke-width="6.660000" />
<circle cx="693.960022" cy="1332.959961" r="19.980000" fill="red">
  <title>Beijing</title>
</circle><line x1="467.959991" y1="1603.959961" x2="693.960022" y2="1332.959961" stroke="red" stroke-width="6.660000" />
<circle cx="523.960022" cy="259.959991" r="19.980000" fill="red">
  <title>Cairo</title>
</circle><line x1="693.960022" y1="1332.959961" x2="523.960022" y2="259.959991" stroke="red" stroke-width="6.660000" />
<circle cx="425.959991" cy="156.959991" r="19.980000" fill="red">
  <title>Delhi</title>
</circle><line x1="523.960022" y1="259.959991" x2="425.959991" y2="156.959991" stroke="red" stroke-width="6.660000" />
<circle cx="839.960022" cy="391.959991" r="19.980000" fill="red">
  <title>Mumbai</title>
</circle><line x1="425.959991" y1="156.959991" x2="839.960022" y2="391.959991" stroke="red" stroke-width="6.660000" />
</svg>
