<?xml version="1.0" encoding="UTF-8" standalone="no"?>
<svg width="500" height="500" viewBox="0 0 2074.000000 2074.000000" xmlns="http://www.w3.org/2000/svg">
<rect x="19.000000" y="19.000000" width="2036.000000" height="2036.000000" fill="black" />
<circle cx="1885.959961" cy="1762.959961" r="19.980000" fill="red">
  <title>Tokyo</title>
</circle><line x1="2006.959961" y1="1148.959961" x2="1885.959961" y2="1762.959961" stroke="red" stroke-width="6.660000" />
<circle cx="1723.959961" cy="1686.959961" r="19.980000" fill="red">
  <title>Chongqing</title>
</circle><line x1="1885.959961" y1="1762.959961" x2="1723.959961" y2="1686.959961" stroke="red" stroke-width="6.660000" />
<circle cx="1615.959961" cy="1869.959961" r="19.980000" fill="red">
  <title>Mumbai</title>
</circle><line x1="1723.959961" y1="1686.959961" x2="1615.959961" y2="1869.959961" stroke="red" stroke-width="6.660000" />
<circle cx="1518.959961" cy="1854.959961" r="19.980000" fill="red">
  <title>Kolkata</title>
</circle><line x1="1615.959961" y1="1869.959961" x2="1518.959961" y2="1854.959961" stroke="red" stroke-width="6.660000" />
<circle cx="1269.959961" cy="1869.959961" r="19.980000" fill="red">
  <title>Shanghai</title>
</circle><line x1="1518.959961" y1="1854.959961" x2="1269.959961" y2="1869.959961" stroke="red" stroke-width="6.660000" />
<circle cx="1382.959961" cy="1439.959961" r="19.980000" fill="red">
  <title>São Paulo</title>
</circle><line x1="1269.959961" y1="1869.959961" x2="1382.959961" y2="1439.959961" stroke="red" stroke-width="6.660000" />
<circle cx="938.960022" cy="1616.959961" r="19.980000" fill="red">
  <title>Beijing</title>
</circle><line x1="1382.959961" y1="1439.959961" x2="938.960022" y2="1616.959961" stroke="red" stroke-width="6.660000" />
<circle cx="908.960022" cy="1707.959961" r="19.980000" fill="red">
  <title>Karachi</title>
</circle><line x1="938.960022" y1="1616.959961" x2="908.960022" y2="1707.959961" stroke="red" stroke-width="6.660000" />
<circle cx="727.960022" cy="1716.959961" r="19.980000" fill="red">
  <title>Rio de Janeiro</title>
</circle><line x1="908.960022" y1="1707.959961" x2="727.960022" y2="1716.959961" stroke="red" stroke-width="6.660000" />
<circle cx="299.959991" cy="1773.959961" r="19.980000" fill="red">
  <title>Osaka</title>
</circle><line x1="727.960022" y1="1716.959961" x2="299.959991" y2="1773.959961" stroke="red" stroke-width="6.660000" />
<circle cx="58.959999" cy="1445.959961" r="19.980000" fill="red">
  <title>Cairo</title>
</circle><line x1="299.959991" y1="1773.959961" x2="58.959999" y2="1445.959961" stroke="red" stroke-width="6.660000" />
<circle cx="77.959999" cy="661.960022" r="19.980000" fill="red">
  <title>Mexico City</title>
</circle><line x1="58.959999" y1="1445.959961" x2="77.959999" y2="661.960022" stroke="red" stroke-width="6.660000" />
<circle cx="373.959991" cy="104.959999" r="19.980000" fill="red">
  <title>Lagos</title>
</circle><line x1="77.959999" y1="661.960022" x2="373.959991" y2="104.959999" stroke="red" stroke-width="6.660000" />
<circle cx="720.960022" cy="687.960022" r="19.980000" fill="red">
  <title>Dhaka</title>
</circle><line x1="373.959991" y1="104.959999" x2="720.960022" y2="687.960022" stroke="red" stroke-width="6.660000" />
<circle cx="873.960022" cy="895.960022" r="19.980000" fill="red">
  <title>Manila</title>
</circle><line x1="720.960022" y1="687.960022" x2="873.960022" y2="895.960022" stroke="red" stroke-width="6.660000" />
<circle cx="1112.959961" cy="994.960022" r="19.980000" fill="red">
  <title>Buenos Aires</title>
</circle><line x1="873.960022" y1="895.960022" x2="1112.959961" y2="994.960022" stroke="red" stroke-width="6.660000" />
<circle cx="1234.959961" cy="744.960022" r="19.980000" fill="red">
  <title>New York</title>
</circle><line x1="1112.959961" y1="994.960022" x2="1234.959961" y2="744.960022" stroke="red" stroke-width="6.660000" />
<circle cx="1415.959961" cy="556.960022" r="19.980000" fill="red">
  <title>Delhi</title>
</circle><line x1="1234.959961" y1="744.960022" x2="1415.959961" y2="556.960022" stroke="red" stroke-width="6.660000" />
<circle cx="2006.959961" cy="1148.959961" r="19.980000" fill="red">
  <title>Istanbul</title>
</circle><line x1="1415.959961" y1="556.960022" x2="2006.959961" y2="1148.959961" stroke="red" stroke-width="6.660000" />
</svg>
