<?xml version="1.0" encoding="UTF-8" standalone="no"?>
<svg width="500" height="500" viewBox="0 0 2074.000000 2074.000000" xmlns="http://www.w3.org/2000/svg">
<rect x="19.000000" y="19.000000" width="2036.000000" height="2036.000000" fill="black" />
<circle cx="1485.959961" cy="1250.959961" r="19.980000" fill="red">
  <title>Tokyo</title>
</circle><line x1="614.960022" y1="1576.959961" x2="1485.959961" y2="1250.959961" stroke="red" stroke-width="6.660000" />
<circle cx="2025.959961" cy="829.960022" r="19.980000" fill="red">
  <title>São Paulo</title>
</circle><line x1="1485.959961" y1="1250.959961" x2="2025.959961" y2="829.960022" stroke="red" stroke-width="6.660000" />
<circle cx="877.960022" cy="305.959991" r="19.980000" fill="red">
  <title>Shanghai</title>
</circle><line x1="2025.959961" y1="829.960022" x2="877.960022" y2="305.959991" stroke="red" stroke-width="6.660000" />
<circle cx="170.959991" cy="265.959991" r="19.980000" fill="red">
  <title>Delhi</title>
</circle><line x1="877.960022" y1="305.959991" x2="170.959991" y2="265.959991" stroke="red" stroke-width="6.660000" />
<circle cx="99.959999" cy="393.959991" r="19.980000" fill="red">
  <title>Mexico City</title>
</circle><line x1="170.959991" y1="265.959991" x2="99.959999" y2="393.959991" stroke="red" stroke-width="6.660000" />
<circle cx="387.959991" cy="1169.959961" r="19.980000" fill="red">
  <title>Mumbai</title>
</circle><line x1="99.959999" y1="393.959991" x2="387.959991" y2="1169.959961" stroke="red" stroke-width="6.660000" />
<circle cx="614.960022" cy="1576.959961" r="19.980000" fill="red">
  <title>Cairo</title>
</circle><line x1="387.959991" y1="1169.959961" x2="614.960022" y2="1576.959961" stroke="red" stroke-width="6.660000" />
</svg>
