<?xml version="1.0" encoding="UTF-8" standalone="no"?>
<svg width="500" height="500" viewBox="0 0 2074.000000 2074.000000" xmlns="http://www.w3.org/2000/svg">
<rect x="19.000000" y="19.000000" width="2036.000000" height="2036.000000" fill="black" />
<circle cx="1291.959961" cy="1528.959961" r="19.980000" fill="red">
  <title>Tokyo</title>
</circle><line x1="1188.959961" y1="1360.959961" x2="1291.959961" y2="1528.959961" stroke="red" stroke-width="6.660000" />
<circle cx="1545.959961" cy="1741.959961" r="19.980000" fill="red">
  <title>Dhaka</title>
</circle><line x1="1291.959961" y1="1528.959961" x2="1545.959961" y2="1741.959961" stroke="red" stroke-width="6.660000" />
<circle cx="1681.959961" cy="1978.959961" r="19.980000" fill="red">
  <title>Manila</title>
</circle><line x1="1545.959961" y1="1741.959961" x2="1681.959961" y2="1978.959961" stroke="red" stroke-width="6.660000" />
<circle cx="1642.959961" cy="1638.959961" r="19.980000" fill="red">
  <title>Buenos Aires</title>
</circle><line x1="1681.959961" y1="1978.959961" x2="1642.959961" y2="1638.959961" stroke="red" stroke-width="6.660000" />
<circle cx="1501.959961" cy="1480.959961" r="19.980000" fill="red">
  <title>Mexico City</title>
</circle><line x1="1642.959961" y1="1638.959961" x2="1501.959961" y2="1480.959961" stroke="red" stroke-width="6.660000" />
<circle cx="1946.959961" cy="969.960022" r="19.980000" fill="red">
  <title>Delhi</title>
</circle><line x1="1501.959961" y1="1480.959961" x2="1946.959961" y2="969.960022" stroke="red" stroke-width="6.660000" />
<circle cx="1604.959961" cy="607.960022" r="19.980000" fill="red">
  <title>Osaka</title>
</circle><line x1="1946.959961" y1="969.960022" x2="1604.959961" y2="607.960022" stroke="red" stroke-width="6.660000" />
<circle cx="1716.959961" cy="226.959991" r="19.980000" fill="red">
  <title>Shanghai</title>
</circle><line x1="1604.959961" y1="607.960022" x2="1716.959961" y2="226.959991" stroke="red" stroke-width="6.660000" />
<circle cx="1754.959961" cy="195.959991" r="19.980000" fill="red">
  <title>Cairo</title>
</circle><line x1="1716.959961" y1="226.959991" x2="1754.959961" y2="195.959991" stroke="red" stroke-width="6.660000" />
<circle cx="1650.959961" cy="453.959991" r="19.980000" fill="red">
  <title>New York</title>
</circle><line x1="1754.959961" y1="195.959991" x2="1650.959961" y2="453.959991" stroke="red" stroke-width="6.660000" />
<circle cx="1147.959961" cy="625.960022" r="19.980000" fill="red">
  <title>Mumbai</title>
</circle><line x1="1650.959961" y1="453.959991" x2="1147.959961" y2="625.960022" stroke="red" stroke-width="6.660000" />
<circle cx="1154.959961" cy="340.959991" r="19.980000" fill="red">
  <title>Chongqing</title>
</circle><line x1="1147.959961" y1="625.960022" x2="1154.959961" y2="340.959991" stroke="red" stroke-width="6.660000" />
<circle cx="1004.960022" cy="192.959991" r="19.980000" fill="red">
  <title>Istanbul</title>
</circle><line x1="1154.959961" y1="340.959991" x2="1004.960022" y2="192.959991" stroke="red" stroke-width="6.660000" />
<circle cx="605.960022" cy="557.960022" r="19.980000" fill="red">
  <title>Karachi</title>
</circle><line x1="1004.960022" y1="192.959991" x2="605.960022" y2="557.960022" stroke="red" stroke-width="6.660000" />
<circle cx="71.959999" cy="258.959991" r="19.980000" fill="red">
  <title>Kolkata</title>
</circle><line x1="605.960022" y1="557.960022" x2="71.959999" y2="258.959991" stroke="red" stroke-width="6.660000" />
<circle cx="509.959991" cy="960.960022" r="19.980000" fill="red">
  <title>Beijing</title>
</circle><line x1="71.959999" y1="258.959991" x2="509.959991" y2="960.960022" stroke="red" stroke-width="6.660000" />
<circle cx="1067.959961" cy="1236.959961" r="19.980000" fill="red">
  <title>São Paulo</title>
</circle><line x1="509.959991" y1="960.960022" x2="1067.959961" y2="1236.959961" stroke="red" stroke-width="6.660000" />
<circle cx="1188.959961" cy="1360.959961" r="19.980000" fill="red">
  <title>Lagos</title>
</circle><line x1="1067.959961" y1="1236.959961" x2="1188.959961" y2="1360.959961" stroke="red" stroke-width="6.660000" />
</svg>
