<?xml version="1.0" encoding="UTF-8" standalone="no"?>
<svg width="500" height="500" viewBox="0 0 2074.000000 2074.000000" xmlns="http://www.w3.org/2000/svg">
<rect x="19.000000" y="19.000000" width="2036.000000" height="2036.000000" fill="black" />
<circle cx="1579.959961" cy="193.959991" r="19.980000" fill="red">
  <title>Tokyo</title>
</circle><line x1="1552.959961" y1="61.959999" x2="1579.959961" y2="193.959991" stroke="red" stroke-width="6.660000" />
<circle cx="1288.959961" cy="215.959991" r="19.980000" fill="red">
  <title>New York</title>
</circle><line x1="1579.959961" y1="193.959991" x2="1288.959961" y2="215.959991" stroke="red" stroke-width="6.660000" />
<circle cx="1008.960022" cy="193.959991" r="19.980000" fill="red">
  <title>Mumbai</title>
</circle><line x1="1288.959961" y1="215.959991" x2="1008.960022" y2="193.959991" stroke="red" stroke-width="6.660000" />
<circle cx="847.960022" cy="589.960022" r="19.980000" fill="red">
  <title>Buenos Aires</title>
</circle><line x1="1008.960022" y1="193.959991" x2="847.960022" y2="589.960022" stroke="red" stroke-width="6.660000" />
<circle cx="1040.959961" cy="1330.959961" r="19.980000" fill="red">
  <title>Delhi</title>
</circle><line x1="847.960022" y1="589.960022" x2="1040.959961" y2="1330.959961" stroke="red" stroke-width="6.660000" />
<circle cx="1836.959961" cy="1285.959961" r="19.980000" fill="red">
  <title>Beijing</title>
</circle><line x1="1040.959961" y1="1330.959961" x2="1836.959961" y2="1285.959961" stroke="red" stroke-width="6.660000" />
<circle cx="1846.959961" cy="1744.959961" r="19.980000" fill="red">
  <title>Shanghai</title>
</circle><line x1="1836.959961" y1="1285.959961" x2="1846.959961" y2="1744.959961" stroke="red" stroke-width="6.660000" />
<circle cx="1580.959961" cy="1863.959961" r="19.980000" fill="red">
  <title>Kolkata</title>
</circle><line x1="1846.959961" y1="1744.959961" x2="1580.959961" y2="1863.959961" stroke="red" stroke-width="6.660000" />
<circle cx="1156.959961" cy="1884.959961" r="19.980000" fill="red">
  <title>Lagos</title>
</circle><line x1="1580.959961" y1="1863.959961" x2="1156.959961" y2="1884.959961" stroke="red" stroke-width="6.660000" />
<circle cx="592.960022" cy="1901.959961" r="19.980000" fill="red">
  <title>Chongqing</title>
</circle><line x1="1156.959961" y1="1884.959961" x2="592.960022" y2="1901.959961" stroke="red" stroke-width="6.660000" />
<circle cx="388.959991" cy="1982.959961" r="19.980000" fill="red">
  <title>Mexico City</title>
</circle><line x1="592.960022" y1="1901.959961" x2="388.959991" y2="1982.959961" stroke="red" stroke-width="6.660000" />
<circle cx="323.959991" cy="1921.959961" r="19.980000" fill="red">
  <title>Istanbul</title>
</circle><line x1="388.959991" y1="1982.959961" x2="323.959991" y2="1921.959961" stroke="red" stroke-width="6.660000" />
<circle cx="237.959991" cy="1825.959961" r="19.980000" fill="red">
  <title>São Paulo</title>
</circle><line x1="323.959991" y1="1921.959961" x2="237.959991" y2="1825.959961" stroke="red" stroke-width="6.660000" />
<circle cx="253.959991" cy="1658.959961" r="19.980000" fill="red">
  <title>Dhaka</title>
</circle><line x1="237.959991" y1="1825.959961" x2="253.959991" y2="1658.959961" stroke="red" stroke-width="6.660000" />
<circle cx="77.959999" cy="582.960022" r="19.980000" fill="red">
  <title>Manila</title>
</circle><line x1="253.959991" y1="1658.959961" x2="77.959999" y2="582.960022" stroke="red" stroke-width="6.660000" />
<circle cx="399.959991" cy="265.959991" r="19.980000" fill="red">
  <title>Cairo</title>
</circle><line x1="77.959999" y1="582.960022" x2="399.959991" y2="265.959991" stroke="red" stroke-width="6.660000" />
<circle cx="972.960022" cy="57.959999" r="19.980000" fill="red">
  <title>Osaka</title>
</circle><line x1="399.959991" y1="265.959991" x2="972.960022" y2="57.959999" stroke="red" stroke-width="6.660000" />
<circle cx="1552.959961" cy="61.959999" r="19.980000" fill="red">
  <title>Karachi</title>
</circle><line x1="972.960022" y1="57.959999" x2="1552.959961" y2="61.959999" stroke="red" stroke-width="6.660000" />
</svg>
