<?xml version="1.0" encoding="UTF-8" standalone="no"?>
<svg width="500" height="500" viewBox="0 0 2074.000000 2074.000000" xmlns="http://www.w3.org/2000/svg">
<rect x="19.000000" y="19.000000" width="2036.000000" height="2036.000000" fill="black" />
<circle cx="720.960022" cy="837.960022" r="19.980000" fill="red">
  <title>Tokyo</title>
</circle><line x1="722.960022" y1="1163.959961" x2="720.960022" y2="837.960022" stroke="red" stroke-width="6.660000" />
<circle cx="1026.959961" cy="57.959999" r="19.980000" fill="red">
  <title>São Paulo</title>
</circle><line x1="720.960022" y1="837.960022" x2="1026.959961" y2="57.959999" stroke="red" stroke-width="6.660000" />
<circle cx="1537.959961" cy="132.959991" r="19.980000" fill="red">
  <title>Cairo</title>
</circle><line x1="1026.959961" y1="57.959999" x2="1537.959961" y2="132.959991" stroke="red" stroke-width="6.660000" />
<circle cx="1198.959961" cy="294.959991" r="19.980000" fill="red">
  <title>Beijing</title>
</circle><line x1="1537.959961" y1="132.959991" x2="1198.959961" y2="294.959991" stroke="red" stroke-width="6.660000" />
<circle cx="1097.959961" cy="655.960022" r="19.980000" fill="red">
  <title>Dhaka</title>
</circle><line x1="1198.959961" y1="294.959991" x2="1097.959961" y2="655.960022" stroke="red" stroke-width="6.660000" />
<circle cx="1796.959961" cy="1852.959961" r="19.980000" fill="red">
  <title>Delhi</title>
</circle><line x1="1097.959961" y1="655.960022" x2="1796.959961" y2="1852.959961" stroke="red" stroke-width="6.660000" />
<circle cx="768.960022" cy="1945.959961" r="19.980000" fill="red">
  <title>Shanghai</title>
</circle><line x1="1796.959961" y1="1852.959961" x2="768.960022" y2="1945.959961" stroke="red" stroke-width="6.660000" />
<circle cx="186.959991" cy="1675.959961" r="19.980000" fill="red">
  <title>Mumbai</title>
</circle><line x1="768.960022" y1="1945.959961" x2="186.959991" y2="1675.959961" stroke="red" stroke-width="6.660000" />
<circle cx="722.960022" cy="1163.959961" r="19.980000" fill="red">
  <title>Mexico City</title>
</circle><line x1="186.959991" y1="1675.959961" x2="722.960022" y2="1163.959961" stroke="red" stroke-width="6.660000" />
</svg>
