<?xml version="1.0" encoding="UTF-8" standalone="no"?>
<svg width="500" height="500" viewBox="0 0 2074.000000 2074.000000" xmlns="http://www.w3.org/2000/svg">
<rect x="19.000000" y="19.000000" width="2036.000000" height="2036.000000" fill="black" />
<circle cx="1755.959961" cy="549.960022" r="19.980000" fill="red">
  <title>Tokyo</title>
</circle><line x1="874.960022" y1="549.960022" x2="1755.959961" y2="549.960022" stroke="red" stroke-width="6.660000" />
<circle cx="1842.959961" cy="216.959991" r="19.980000" fill="red">
  <title>Shanghai</title>
</circle><line x1="1755.959961" y1="549.960022" x2="1842.959961" y2="216.959991" stroke="red" stroke-width="6.660000" />
<circle cx="1747.959961" cy="668.960022" r="19.980000" fill="red">
  <title>Cairo</title>
</circle><line x1="1842.959961" y1="216.959991" x2="1747.959961" y2="668.960022" stroke="red" stroke-width="6.660000" />
<circle cx="1696.959961" cy="707.960022" r="19.980000" fill="red">
  <title>São Paulo</title>
</circle><line x1="1747.959961" y1="668.960022" x2="1696.959961" y2="707.960022" stroke="red" stroke-width="6.660000" />
<circle cx="1383.959961" cy="987.960022" r="19.980000" fill="red">
  <title>Karachi</title>
</circle><line x1="1696.959961" y1="707.960022" x2="1383.959961" y2="987.960022" stroke="red" stroke-width="6.660000" />
<circle cx="1779.959961" cy="1616.959961" r="19.980000" fill="red">
  <title>New York</title>
</circle><line x1="1383.959961" y1="987.960022" x2="1779.959961" y2="1616.959961" stroke="red" stroke-width="6.660000" />
<circle cx="1446.959961" cy="1512.959961" r="19.980000" fill="red">
  <title>Beijing</title>
</circle><line x1="1779.959961" y1="1616.959961" x2="1446.959961" y2="1512.959961" stroke="red" stroke-width="6.660000" />
<circle cx="845.960022" cy="2002.959961" r="19.980000" fill="red">
  <title>Dhaka</title>
</circle><line x1="1446.959961" y1="1512.959961" x2="845.960022" y2="2002.959961" stroke="red" stroke-width="6.660000" />
<circle cx="465.959991" cy="1914.959961" r="19.980000" fill="red">
  <title>Istanbul</title>
</circle><line x1="845.960022" y1="2002.959961" x2="465.959991" y2="1914.959961" stroke="red" stroke-width="6.660000" />
<circle cx="792.960022" cy="1533.959961" r="19.980000" fill="red">
  <title>Buenos Aires</title>
</circle><line x1="465.959991" y1="1914.959961" x2="792.960022" y2="1533.959961" stroke="red" stroke-width="6.660000" />
<circle cx="931.960022" cy="1142.959961" r="19.980000" fill="red">
  <title>Chongqing</title>
</circle><line x1="792.960022" y1="1533.959961" x2="931.960022" y2="1142.959961" stroke="red" stroke-width="6.660000" />
<circle cx="394.959991" cy="633.960022" r="19.980000" fill="red">
  <title>Mumbai</title>
</circle><line x1="931.960022" y1="1142.959961" x2="394.959991" y2="633.960022" stroke="red" stroke-width="6.660000" />
<circle cx="424.959991" cy="560.960022" r="19.980000" fill="red">
  <title>Osaka</title>
</circle><line x1="394.959991" y1="633.960022" x2="424.959991" y2="560.960022" stroke="red" stroke-width="6.660000" />
<circle cx="197.959991" cy="178.959991" r="19.980000" fill="red">
  <title>Delhi</title>
</circle><line x1="424.959991" y1="560.960022" x2="197.959991" y2="178.959991" stroke="red" stroke-width="6.660000" />
<circle cx="628.960022" cy="183.959991" r="19.980000" fill="red">
  <title>Kolkata</title>
</circle><line x1="197.959991" y1="178.959991" x2="628.960022" y2="183.959991" stroke="red" stroke-width="6.660000" />
<circle cx="874.960022" cy="549.960022" r="19.980000" fill="red">
  <title>Mexico City</title>
</circle><line x1="628.960022" y1="183.959991" x2="874.960022" y2="549.960022" stroke="red" stroke-width="6.660000" />
</svg>
