<?xml version="1.0" encoding="UTF-8" standalone="no"?>
<svg width="500" height="500" viewBox="0 0 2074.000000 2074.000000" xmlns="http://www.w3.org/2000/svg">
<rect x="19.000000" y="19.000000" width="2036.000000" height="2036.000000" fill="black" />
<circle cx="1561.959961" cy="946.960022" r="19.980000" fill="red">
  <title>Tokyo</title>
</circle><line x1="1174.959961" y1="742.960022" x2="1561.959961" y2="946.960022" stroke="red" stroke-width="6.660000" />
<circle cx="1764.959961" cy="1153.959961" r="19.980000" fill="red">
  <title>Beijing</title>
</circle><line x1="1561.959961" y1="946.960022" x2="1764.959961" y2="1153.959961" stroke="red" stroke-width="6.660000" />
<circle cx="1710.959961" cy="1640.959961" r="19.980000" fill="red">
  <title>Osaka</title>
</circle><line x1="1764.959961" y1="1153.959961" x2="1710.959961" y2="1640.959961" stroke="red" stroke-width="6.660000" />
<circle cx="1665.959961" cy="2017.959961" r="19.980000" fill="red">
  <title>Mexico City</title>
</circle><line x1="1710.959961" y1="1640.959961" x2="1665.959961" y2="2017.959961" stroke="red" stroke-width="6.660000" />
<circle cx="1415.959961" cy="1598.959961" r="19.980000" fill="red">
  <title>São Paulo</title>
</circle><line x1="1665.959961" y1="2017.959961" x2="1415.959961" y2="1598.959961" stroke="red" stroke-width="6.660000" />
<circle cx="1334.959961" cy="1150.959961" r="19.980000" fill="red">
  <title>Karachi</title>
</circle><line x1="1415.959961" y1="1598.959961" x2="1334.959961" y2="1150.959961" stroke="red" stroke-width="6.660000" />
<circle cx="1201.959961" cy="1166.959961" r="19.980000" fill="red">
  <title>Delhi</title>
</circle><line x1="1334.959961" y1="1150.959961" x2="1201.959961" y2="1166.959961" stroke="red" stroke-width="6.660000" />
<circle cx="669.960022" cy="1000.960022" r="19.980000" fill="red">
  <title>Shanghai</title>
</circle><line x1="1201.959961" y1="1166.959961" x2="669.960022" y2="1000.960022" stroke="red" stroke-width="6.660000" />
<circle cx="257.959991" cy="1519.959961" r="19.980000" fill="red">
  <title>Dhaka</title>
</circle><line x1="669.960022" y1="1000.960022" x2="257.959991" y2="1519.959961" stroke="red" stroke-width="6.660000" />
<circle cx="298.959991" cy="1078.959961" r="19.980000" fill="red">
  <title>Mumbai</title>
</circle><line x1="257.959991" y1="1519.959961" x2="298.959991" y2="1078.959961" stroke="red" stroke-width="6.660000" />
<circle cx="170.959991" cy="619.960022" r="19.980000" fill="red">
  <title>Buenos Aires</title>
</circle><line x1="298.959991" y1="1078.959961" x2="170.959991" y2="619.960022" stroke="red" stroke-width="6.660000" />
<circle cx="864.960022" cy="280.959991" r="19.980000" fill="red">
  <title>Cairo</title>
</circle><line x1="170.959991" y1="619.960022" x2="864.960022" y2="280.959991" stroke="red" stroke-width="6.660000" />
<circle cx="920.960022" cy="433.959991" r="19.980000" fill="red">
  <title>New York</title>
</circle><line x1="864.960022" y1="280.959991" x2="920.960022" y2="433.959991" stroke="red" stroke-width="6.660000" />
<circle cx="1174.959961" cy="742.960022" r="19.980000" fill="red">
  <title>Chongqing</title>
</circle><line x1="920.960022" y1="433.959991" x2="1174.959961" y2="742.960022" stroke="red" stroke-width="6.660000" />
</svg>
