<?xml version="1.0" encoding="UTF-8" standalone="no"?>
<svg width="500" height="500" viewBox="0 0 2074.000000 2074.000000" xmlns="http://www.w3.org/2000/svg">
<rect x="19.000000" y="19.000000" width="2036.000000" height="2036.000000" fill="black" />
<circle cx="1276.959961" cy="1830.959961" r="19.980000" fill="red">
  <title>Tokyo</title>
</circle><line x1="1289.959961" y1="1457.959961" x2="1276.959961" y2="1830.959961" stroke="red" stroke-width="6.660000" />
<circle cx="1735.959961" cy="2037.959961" r="19.980000" fill="red">
  <title>Shanghai</title>
</circle><line x1="1276.959961" y1="1830.959961" x2="1735.959961" y2="2037.959961" stroke="red" stroke-width="6.660000" />
<circle cx="1961.959961" cy="830.960022" r="19.980000" fill="red">
  <title>Delhi</title>
</circle><line x1="1735.959961" y1="2037.959961" x2="1961.959961" y2="830.960022" stroke="red" stroke-width="6.660000" />
<circle cx="1118.959961" cy="516.960022" r="19.980000" fill="red">
  <title>Cairo</title>
</circle><line x1="1961.959961" y1="830.960022" x2="1118.959961" y2="516.960022" stroke="red" stroke-width="6.660000" />
<circle cx="827.960022" cy="515.960022" r="19.980000" fill="red">
  <title>Mexico City</title>
</circle><line x1="1118.959961" y1="516.960022" x2="827.960022" y2="515.960022" stroke="red" stroke-width="6.660000" />
<circle cx="1371.959961" cy="970.960022" r="19.980000" fill="red">
  <title>São Paulo</title>
</circle><line x1="827.960022" y1="515.960022" x2="1371.959961" y2="970.960022" stroke="red" stroke-width="6.660000" />
<circle cx="1289.959961" cy="1457.959961" r="19.980000" fill="red">
  <title>Mumbai</title>
</circle><line x1="1371.959961" y1="970.960022" x2="1289.959961" y2="1457.959961" stroke="red" stroke-width="6.660000" />
</svg>
