<?xml version="1.0" encoding="UTF-8" standalone="no"?>
<svg width="500" height="500" viewBox="0 0 2074.000000 2074.000000" xmlns="http://www.w3.org/2000/svg">
<rect x="19.000000" y="19.000000" width="2036.000000" height="2036.000000" fill="black" />
<circle cx="533.960022" cy="1793.959961" r="19.980000" fill="red">
  <title>Tokyo</title>
</circle><line x1="501.959991" y1="1072.959961" x2="533.960022" y2="1793.959961" stroke="red" stroke-width="6.660000" />
<circle cx="416.959991" cy="1923.959961" r="19.980000" fill="red">
  <title>Delhi</title>
</circle><line x1="533.960022" y1="1793.959961" x2="416.959991" y2="1923.959961" stroke="red" stroke-width="6.660000" />
<circle cx="1438.959961" cy="2002.959961" r="19.980000" fill="red">
  <title>Mumbai</title>
</circle><line x1="416.959991" y1="1923.959961" x2="1438.959961" y2="2002.959961" stroke="red" stroke-width="6.660000" />
<circle cx="1840.959961" cy="1993.959961" r="19.980000" fill="red">
  <title>Osaka</title>
</circle><line x1="1438.959961" y1="2002.959961" x2="1840.959961" y2="1993.959961" stroke="red" stroke-width="6.660000" />
<circle cx="1690.959961" cy="1197.959961" r="19.980000" fill="red">
  <title>Shanghai</title>
</circle><line x1="1840.959961" y1="1993.959961" x2="1690.959961" y2="1197.959961" stroke="red" stroke-width="6.660000" />
<circle cx="1453.959961" cy="1100.959961" r="19.980000" fill="red">
  <title>Dhaka</title>
</circle><line x1="1690.959961" y1="1197.959961" x2="1453.959961" y2="1100.959961" stroke="red" stroke-width="6.660000" />
<circle cx="1763.959961" cy="616.960022" r="19.980000" fill="red">
  <title>Beijing</title>
</circle><line x1="1453.959961" y1="1100.959961" x2="1763.959961" y2="616.960022" stroke="red" stroke-width="6.660000" />
<circle cx="1173.959961" cy="757.960022" r="19.980000" fill="red">
  <title>Mexico City</title>
</circle><line x1="1763.959961" y1="616.960022" x2="1173.959961" y2="757.960022" stroke="red" stroke-width="6.660000" />
<circle cx="966.960022" cy="1326.959961" r="19.980000" fill="red">
  <title>São Paulo</title>
</circle><line x1="1173.959961" y1="757.960022" x2="966.960022" y2="1326.959961" stroke="red" stroke-width="6.660000" />
<circle cx="501.959991" cy="1072.959961" r="19.980000" fill="red">
  <title>Cairo</title>
</circle><line x1="966.960022" y1="1326.959961" x2="501.959991" y2="1072.959961" stroke="red" stroke-width="6.660000" />
</svg>
