<?xml version="1.0" encoding="UTF-8" standalone="no"?>
<svg width="500" height="500" viewBox="0 0 2074.000000 2074.000000" xmlns="http://www.w3.org/2000/svg">
<rect x="19.000000" y="19.000000" width="2036.000000" height="2036.000000" fill="black" />
<circle cx="1611.959961" cy="675.960022" r="19.980000" fill="red">
  <title>Tokyo</title>
</circle><line x1="1225.959961" y1="778.960022" x2="1611.959961" y2="675.960022" stroke="red" stroke-width="6.660000" />
<circle cx="1847.959961" cy="902.960022" r="19.980000" fill="red">
  <title>Delhi</title>
</circle><line x1="1611.959961" y1="675.960022" x2="1847.959961" y2="902.960022" stroke="red" stroke-width="6.660000" />
<circle cx="1491.959961" cy="1322.959961" r="19.980000" fill="red">
  <title>São Paulo</title>
</circle><line x1="1847.959961" y1="902.960022" x2="1491.959961" y2="1322.959961" stroke="red" stroke-width="6.660000" />
<circle cx="1631.959961" cy="1449.959961" r="19.980000" fill="red">
  <title>Osaka</title>
</circle><line x1="1491.959961" y1="1322.959961" x2="1631.959961" y2="1449.959961" stroke="red" stroke-width="6.660000" />
<circle cx="1605.959961" cy="1872.959961" r="19.980000" fill="red">
  <title>Cairo</title>
</circle><line x1="1631.959961" y1="1449.959961" x2="1605.959961" y2="1872.959961" stroke="red" stroke-width="6.660000" />
<circle cx="572.960022" cy="1574.959961" r="19.980000" fill="red">
  <title>Dhaka</title>
</circle><line x1="1605.959961" y1="1872.959961" x2="572.960022" y2="1574.959961" stroke="red" stroke-width="6.660000" />
<circle cx="460.959991" cy="1183.959961" r="19.980000" fill="red">
  <title>New York</title>
</circle><line x1="572.960022" y1="1574.959961" x2="460.959991" y2="1183.959961" stroke="red" stroke-width="6.660000" />
<circle cx="283.959991" cy="1123.959961" r="19.980000" fill="red">
  <title>Mumbai</title>
</circle><line x1="460.959991" y1="1183.959961" x2="283.959991" y2="1123.959961" stroke="red" stroke-width="6.660000" />
<circle cx="674.960022" cy="1045.959961" r="19.980000" fill="red">
  <title>Beijing</title>
</circle><line x1="283.959991" y1="1123.959961" x2="674.960022" y2="1045.959961" stroke="red" stroke-width="6.660000" />
<circle cx="492.959991" cy="532.960022" r="19.980000" fill="red">
  <title>Mexico City</title>
</circle><line x1="674.960022" y1="1045.959961" x2="492.959991" y2="532.960022" stroke="red" stroke-width="6.660000" />
<circle cx="1200.959961" cy="109.959999" r="19.980000" fill="red">
  <title>Shanghai</title>
</circle><line x1="492.959991" y1="532.960022" x2="1200.959961" y2="109.959999" stroke="red" stroke-width="6.660000" />
<circle cx="1225.959961" cy="778.960022" r="19.980000" fill="red">
  <title>Karachi</title>
</circle><line x1="1200.959961" y1="109.959999" x2="1225.959961" y2="778.960022" stroke="red" stroke-width="6.660000" />
</svg>
