<?xml version="1.0" encoding="UTF-8" standalone="no"?>
<svg width="500" height="500" viewBox="0 0 2074.000000 2074.000000" xmlns="http://www.w3.org/2000/svg">
<rect x="19.000000" y="19.000000" width="2036.000000" height="2036.000000" fill="black" />
<circle cx="191.959991" cy="839.960022" r="19.980000" fill="red">
  <title>Tokyo</title>
</circle><line x1="302.959991" y1="1235.959961" x2="191.959991" y2="839.960022" stroke="red" stroke-width="6.660000" />
<circle cx="373.959991" cy="782.960022" r="19.980000" fill="red">
  <title>Delhi</title>
</circle><line x1="191.959991" y1="839.960022" x2="373.959991" y2="782.960022" stroke="red" stroke-width="6.660000" />
<circle cx="199.959991" cy="610.960022" r="19.980000" fill="red">
  <title>Osaka</title>
</circle><line x1="373.959991" y1="782.960022" x2="199.959991" y2="610.960022" stroke="red" stroke-width="6.660000" />
<circle cx="93.959999" cy="108.959999" r="19.980000" fill="red">
  <title>Karachi</title>
</circle><line x1="199.959991" y1="610.960022" x2="93.959999" y2="108.959999" stroke="red" stroke-width="6.660000" />
<circle cx="1565.959961" cy="135.959991" r="19.980000" fill="red">
  <title>Chongqing</title>
</circle><line x1="93.959999" y1="108.959999" x2="1565.959961" y2="135.959991" stroke="red" stroke-width="6.660000" />
<circle cx="1577.959961" cy="713.960022" r="19.980000" fill="red">
  <title>Dhaka</title>
</circle><line x1="1565.959961" y1="135.959991" x2="1577.959961" y2="713.960022" stroke="red" stroke-width="6.660000" />
<circle cx="1622.959961" cy="700.960022" r="19.980000" fill="red">
  <title>Mexico City</title>
</circle><line x1="1577.959961" y1="713.960022" x2="1622.959961" y2="700.960022" stroke="red" stroke-width="6.660000" />
<circle cx="1882.959961" cy="686.960022" r="19.980000" fill="red">
  <title>Cairo</title>
</circle><line x1="1622.959961" y1="700.960022" x2="1882.959961" y2="686.960022" stroke="red" stroke-width="6.660000" />
<circle cx="2020.959961" cy="1777.959961" r="19.980000" fill="red">
  <title>Beijing</title>
</circle><line x1="1882.959961" y1="686.960022" x2="2020.959961" y2="1777.959961" stroke="red" stroke-width="6.660000" />
<circle cx="1328.959961" cy="1846.959961" r="19.980000" fill="red">
  <title>Shanghai</title>
</circle><line x1="2020.959961" y1="1777.959961" x2="1328.959961" y2="1846.959961" stroke="red" stroke-width="6.660000" />
<circle cx="955.960022" cy="1833.959961" r="19.980000" fill="red">
  <title>São Paulo</title>
</circle><line x1="1328.959961" y1="1846.959961" x2="955.960022" y2="1833.959961" stroke="red" stroke-width="6.660000" />
<circle cx="473.959991" cy="1468.959961" r="19.980000" fill="red">
  <title>Mumbai</title>
</circle><line x1="955.960022" y1="1833.959961" x2="473.959991" y2="1468.959961" stroke="red" stroke-width="6.660000" />
<circle cx="104.959999" cy="1540.959961" r="19.980000" fill="red">
  <title>Buenos Aires</title>
</circle><line x1="473.959991" y1="1468.959961" x2="104.959999" y2="1540.959961" stroke="red" stroke-width="6.660000" />
<circle cx="302.959991" cy="1235.959961" r="19.980000" fill="red">
  <title>New York</title>
</circle><line x1="104.959999" y1="1540.959961" x2="302.959991" y2="1235.959961" stroke="red" stroke-width="6.660000" />
</svg>
