<?xml version="1.0" encoding="UTF-8" standalone="no"?>
<svg width="500" height="500" viewBox="0 0 2074.000000 2074.000000" xmlns="http://www.w3.org/2000/svg">
<rect x="19.000000" y="19.000000" width="2036.000000" height="2036.000000" fill="black" />
<circle cx="791.960022" cy="884.960022" r="19.980000" fill="red">
  <title>Tokyo</title>
</circle><line x1="1848.959961" y1="1671.959961" x2="791.960022" y2="884.960022" stroke="red" stroke-width="6.660000" />
<circle cx="620.960022" cy="1097.959961" r="19.980000" fill="red">
  <title>São Paulo</title>
</circle><line x1="791.960022" y1="884.960022" x2="620.960022" y2="1097.959961" stroke="red" stroke-width="6.660000" />
<circle cx="47.959999" cy="1875.959961" r="19.980000" fill="red">
  <title>Shanghai</title>
</circle><line x1="620.960022" y1="1097.959961" x2="47.959999" y2="1875.959961" stroke="red" stroke-width="6.660000" />
<circle cx="476.959991" cy="724.960022" r="19.980000" fill="red">
  <title>Mumbai</title>
</circle><line x1="47.959999" y1="1875.959961" x2="476.959991" y2="724.960022" stroke="red" stroke-width="6.660000" />
<circle cx="146.959991" cy="604.960022" r="19.980000" fill="red">
  <title>Delhi</title>
</circle><line x1="476.959991" y1="724.960022" x2="146.959991" y2="604.960022" stroke="red" stroke-width="6.660000" />
<circle cx="630.960022" cy="94.959999" r="19.980000" fill="red">
  <title>Dhaka</title>
</circle><line x1="146.959991" y1="604.960022" x2="630.960022" y2="94.959999" stroke="red" stroke-width="6.660000" />
<circle cx="2034.959961" cy="190.959991" r="19.980000" fill="red">
  <title>Cairo</title>
</circle><line x1="630.960022" y1="94.959999" x2="2034.959961" y2="190.959991" stroke="red" stroke-width="6.660000" />
<circle cx="1813.959961" cy="1315.959961" r="19.980000" fill="red">
  <title>Mexico City</title>
</circle><line x1="2034.959961" y1="190.959991" x2="1813.959961" y2="1315.959961" stroke="red" stroke-width="6.660000" />
<circle cx="1848.959961" cy="1671.959961" r="19.980000" fill="red">
  <title>Beijing</title>
</circle><line x1="1813.959961" y1="1315.959961" x2="1848.959961" y2="1671.959961" stroke="red" stroke-width="6.660000" />
</svg>
