<?xml version="1.0" encoding="UTF-8" standalone="no"?>
<svg width="500" height="500" viewBox="0 0 2074.000000 2074.000000" xmlns="http://www.w3.org/2000/svg">
<rect x="19.000000" y="19.000000" width="2036.000000" height="2036.000000" fill="black" />
<circle cx="1361.959961" cy="164.959991" r="19.980000" fill="red">
  <title>Tokyo</title>
</circle><line x1="283.959991" y1="395.959991" x2="1361.959961" y2="164.959991" stroke="red" stroke-width="6.660000" />
<circle cx="1767.959961" cy="96.959999" r="19.980000" fill="red">
  <title>Karachi</title>
</circle><line x1="1361.959961" y1="164.959991" x2="1767.959961" y2="96.959999" stroke="red" stroke-width="6.660000" />
<circle cx="1439.959961" cy="320.959991" r="19.980000" fill="red">
  <title>Dhaka</title>
</circle><line x1="1767.959961" y1="96.959999" x2="1439.959961" y2="320.959991" stroke="red" stroke-width="6.660000" />
<circle cx="1432.959961" cy="331.959991" r="19.980000" fill="red">
  <title>Osaka</title>
</circle><line x1="1439.959961" y1="320.959991" x2="1432.959961" y2="331.959991" stroke="red" stroke-width="6.660000" />
<circle cx="1578.959961" cy="643.960022" r="19.980000" fill="red">
  <title>Shanghai</title>
</circle><line x1="1432.959961" y1="331.959991" x2="1578.959961" y2="643.960022" stroke="red" stroke-width="6.660000" />
<circle cx="1213.959961" cy="1127.959961" r="19.980000" fill="red">
  <title>Cairo</title>
</circle><line x1="1578.959961" y1="643.960022" x2="1213.959961" y2="1127.959961" stroke="red" stroke-width="6.660000" />
<circle cx="1352.959961" cy="1684.959961" r="19.980000" fill="red">
  <title>Mumbai</title>
</circle><line x1="1213.959961" y1="1127.959961" x2="1352.959961" y2="1684.959961" stroke="red" stroke-width="6.660000" />
<circle cx="1658.959961" cy="1815.959961" r="19.980000" fill="red">
  <title>Mexico City</title>
</circle><line x1="1352.959961" y1="1684.959961" x2="1658.959961" y2="1815.959961" stroke="red" stroke-width="6.660000" />
<circle cx="1257.959961" cy="1620.959961" r="19.980000" fill="red">
  <title>Kolkata</title>
</circle><line x1="1658.959961" y1="1815.959961" x2="1257.959961" y2="1620.959961" stroke="red" stroke-width="6.660000" />
<circle cx="746.960022" cy="1751.959961" r="19.980000" fill="red">
  <title>Delhi</title>
</circle><line x1="1257.959961" y1="1620.959961" x2="746.960022" y2="1751.959961" stroke="red" stroke-width="6.660000" />
<circle cx="561.960022" cy="1714.959961" r="19.980000" fill="red">
  <title>Chongqing</title>
</circle><line x1="746.960022" y1="1751.959961" x2="561.960022" y2="1714.959961" stroke="red" stroke-width="6.660000" />
<circle cx="298.959991" cy="1946.959961" r="19.980000" fill="red">
  <title>Istanbul</title>
</circle><line x1="561.960022" y1="1714.959961" x2="298.959991" y2="1946.959961" stroke="red" stroke-width="6.660000" />
<circle cx="313.959991" cy="1477.959961" r="19.980000" fill="red">
  <title>New York</title>
</circle><line x1="298.959991" y1="1946.959961" x2="313.959991" y2="1477.959961" stroke="red" stroke-width="6.660000" />
<circle cx="42.959999" cy="1473.959961" r="19.980000" fill="red">
  <title>São Paulo</title>
</circle><line x1="313.959991" y1="1477.959961" x2="42.959999" y2="1473.959961" stroke="red" stroke-width="6.660000" />
<circle cx="266.959991" cy="747.960022" r="19.980000" fill="red">
  <title>Beijing</title>
</circle><line x1="42.959999" y1="1473.959961" x2="266.959991" y2="747.960022" stroke="red" stroke-width="6.660000" />
<circle cx="283.959991" cy="395.959991" r="19.980000" fill="red">
  <title>Buenos Aires</title>
</circle><line x1="266.959991" y1="747.960022" x2="283.959991" y2="395.959991" stroke="red" stroke-width="6.660000" />
</svg>
