<?xml version="1.0" encoding="UTF-8" standalone="no"?>
<svg width="500" height="500" viewBox="0 0 2074.000000 2074.000000" xmlns="http://www.w3.org/2000/svg">
<rect x="19.000000" y="19.000000" width="2036.000000" height="2036.000000" fill="black" />
<circle cx="438.959991" cy="316.959991" r="19.980000" fill="red">
  <title>Tokyo</title>
</circle><line x1="462.959991" y1="901.960022" x2="438.959991" y2="316.959991" stroke="red" stroke-width="6.660000" />
<circle cx="1279.959961" cy="1406.959961" r="19.980000" fill="red">
  <title>Delhi</title>
</circle><line x1="438.959991" y1="316.959991" x2="1279.959961" y2="1406.959961" stroke="red" stroke-width="6.660000" />
<circle cx="571.960022" cy="1669.959961" r="19.980000" fill="red">
  <title>Shanghai</title>
</circle><line x1="1279.959961" y1="1406.959961" x2="571.960022" y2="1669.959961" stroke="red" stroke-width="6.660000" />
<circle cx="522.960022" cy="1709.959961" r="19.980000" fill="red">
  <title>Mexico City</title>
</circle><line x1="571.960022" y1="1669.959961" x2="522.960022" y2="1709.959961" stroke="red" stroke-width="6.660000" />
<circle cx="462.959991" cy="901.960022" r="19.980000" fill="red">
  <title>São Paulo</title>
</circle><line x1="522.960022" y1="1709.959961" x2="462.959991" y2="901.960022" stroke="red" stroke-width="6.660000" />
</svg>
