<?xml version="1.0" encoding="UTF-8" standalone="no"?>
<svg width="500" height="500" viewBox="0 0 2074.000000 2074.000000" xmlns="http://www.w3.org/2000/svg">
<rect x="19.000000" y="19.000000" width="2036.000000" height="2036.000000" fill="black" />
<circle cx="77.959999" cy="1415.959961" r="19.980000" fill="red">
  <title>Tokyo</title>
</circle><line x1="145.959991" y1="1909.959961" x2="77.959999" y2="1415.959961" stroke="red" stroke-width="6.660000" />
<circle cx="217.959991" cy="1162.959961" r="19.980000" fill="red">
  <title>Mumbai</title>
</circle><line x1="77.959999" y1="1415.959961" x2="217.959991" y2="1162.959961" stroke="red" stroke-width="6.660000" />
<circle cx="744.960022" cy="1223.959961" r="19.980000" fill="red">
  <title>São Paulo</title>
</circle><line x1="217.959991" y1="1162.959961" x2="744.960022" y2="1223.959961" stroke="red" stroke-width="6.660000" />
<circle cx="701.960022" cy="647.960022" r="19.980000" fill="red">
  <title>Cairo</title>
</circle><line x1="744.960022" y1="1223.959961" x2="701.960022" y2="647.960022" stroke="red" stroke-width="6.660000" />
<circle cx="266.959991" cy="94.959999" r="19.980000" fill="red">
  <title>Beijing</title>
</circle><line x1="701.960022" y1="647.960022" x2="266.959991" y2="94.959999" stroke="red" stroke-width="6.660000" />
<circle cx="1383.959961" cy="156.959991" r="19.980000" fill="red">
  <title>Karachi</title>
</circle><line x1="266.959991" y1="94.959999" x2="1383.959961" y2="156.959991" stroke="red" stroke-width="6.660000" />
<circle cx="1417.959961" cy="56.959999" r="19.980000" fill="red">
  <title>Chongqing</title>
</circle><line x1="1383.959961" y1="156.959991" x2="1417.959961" y2="56.959999" stroke="red" stroke-width="6.660000" />
<circle cx="2030.959961" cy="350.959991" r="19.980000" fill="red">
  <title>New York</title>
</circle><line x1="1417.959961" y1="56.959999" x2="2030.959961" y2="350.959991" stroke="red" stroke-width="6.660000" />
<circle cx="1731.959961" cy="280.959991" r="19.980000" fill="red">
  <title>Dhaka</title>
</circle><line x1="2030.959961" y1="350.959991" x2="1731.959961" y2="280.959991" stroke="red" stroke-width="6.660000" />
<circle cx="1177.959961" cy="745.960022" r="19.980000" fill="red">
  <title>Shanghai</title>
</circle><line x1="1731.959961" y1="280.959991" x2="1177.959961" y2="745.960022" stroke="red" stroke-width="6.660000" />
<circle cx="1524.959961" cy="1098.959961" r="19.980000" fill="red">
  <title>Kolkata</title>
</circle><line x1="1177.959961" y1="745.960022" x2="1524.959961" y2="1098.959961" stroke="red" stroke-width="6.660000" />
<circle cx="1536.959961" cy="1636.959961" r="19.980000" fill="red">
  <title>Buenos Aires</title>
</circle><line x1="1524.959961" y1="1098.959961" x2="1536.959961" y2="1636.959961" stroke="red" stroke-width="6.660000" />
<circle cx="1612.959961" cy="1807.959961" r="19.980000" fill="red">
  <title>Delhi</title>
</circle><line x1="1536.959961" y1="1636.959961" x2="1612.959961" y2="1807.959961" stroke="red" stroke-width="6.660000" />
<circle cx="1549.959961" cy="1848.959961" r="19.980000" fill="red">
  <title>Osaka</title>
</circle><line x1="1612.959961" y1="1807.959961" x2="1549.959961" y2="1848.959961" stroke="red" stroke-width="6.660000" />
<circle cx="1059.959961" cy="1784.959961" r="19.980000" fill="red">
  <title>Istanbul</title>
</circle><line x1="1549.959961" y1="1848.959961" x2="1059.959961" y2="1784.959961" stroke="red" stroke-width="6.660000" />
<circle cx="145.959991" cy="1909.959961" r="19.980000" fill="red">
  <title>Mexico City</title>
</circle><line x1="1059.959961" y1="1784.959961" x2="145.959991" y2="1909.959961" stroke="red" stroke-width="6.660000" />
</svg>
