<?xml version="1.0" encoding="UTF-8" standalone="no"?>
<svg width="500" height="500" viewBox="0 0 2074.000000 2074.000000" xmlns="http://www.w3.org/2000/svg">
<rect x="19.000000" y="19.000000" width="2036.000000" height="2036.000000" fill="black" />
<circle cx="1339.959961" cy="516.960022" r="19.980000" fill="red">
  <title>Tokyo</title>
</circle><line x1="998.960022" y1="466.959991" x2="1339.959961" y2="516.960022" stroke="red" stroke-width="6.660000" />
<circle cx="1910.959961" cy="1429.959961" r="19.980000" fill="red">
  <title>Delhi</title>
</circle><line x1="1339.959961" y1="516.960022" x2="1910.959961" y2="1429.959961" stroke="red" stroke-width="6.660000" />
<circle cx="817.960022" cy="1906.959961" r="19.980000" fill="red">
  <title>São Paulo</title>
</circle><line x1="1910.959961" y1="1429.959961" x2="817.960022" y2="1906.959961" stroke="red" stroke-width="6.660000" />
<circle cx="385.959991" cy="1968.959961" r="19.980000" fill="red">
  <title>Shanghai</title>
</circle><line x1="817.960022" y1="1906.959961" x2="385.959991" y2="1968.959961" stroke="red" stroke-width="6.660000" />
<circle cx="688.960022" cy="432.959991" r="19.980000" fill="red">
  <title>Mexico City</title>
</circle><line x1="385.959991" y1="1968.959961" x2="688.960022" y2="432.959991" stroke="red" stroke-width="6.660000" />
<circle cx="234.959991" cy="103.959999" r="19.980000" fill="red">
  <title>Mumbai</title>
</circle><line x1="688.960022" y1="432.959991" x2="234.959991" y2="103.959999" stroke="red" stroke-width="6.660000" />
<circle cx="998.960022" cy="466.959991" r="19.980000" fill="red">
  <title>Cairo</title>
</circle><line x1="234.959991" y1="103.959999" x2="998.960022" y2="466.959991" stroke="red" stroke-width="6.660000" />
</svg>
