<?xml version="1.0" encoding="UTF-8" standalone="no"?>
<svg width="500" height="500" viewBox="0 0 2074.000000 2074.000000" xmlns="http://www.w3.org/2000/svg">
<rect x="19.000000" y="19.000000" width="2036.000000" height="2036.000000" fill="black" />
<circle cx="1307.959961" cy="1837.959961" r="19.980000" fill="red">
  <title>Tokyo</title>
</circle><line x1="1565.959961" y1="1723.959961" x2="1307.959961" y2="1837.959961" stroke="red" stroke-width="6.660000" />
<circle cx="811.960022" cy="1857.959961" r="19.980000" fill="red">
  <title>Mumbai</title>
</circle><line x1="1307.959961" y1="1837.959961" x2="811.960022" y2="1857.959961" stroke="red" stroke-width="6.660000" />
<circle cx="659.960022" cy="1442.959961" r="19.980000" fill="red">
  <title>Kolkata</title>
</circle><line x1="811.960022" y1="1857.959961" x2="659.960022" y2="1442.959961" stroke="red" stroke-width="6.660000" />
<circle cx="202.959991" cy="1244.959961" r="19.980000" fill="red">
  <title>Shanghai</title>
</circle><line x1="659.960022" y1="1442.959961" x2="202.959991" y2="1244.959961" stroke="red" stroke-width="6.660000" />
<circle cx="174.959991" cy="1166.959961" r="19.980000" fill="red">
  <title>Istanbul</title>
</circle><line x1="202.959991" y1="1244.959961" x2="174.959991" y2="1166.959961" stroke="red" stroke-width="6.660000" />
<circle cx="868.960022" cy="855.960022" r="19.980000" fill="red">
  <title>Mexico City</title>
</circle><line x1="174.959991" y1="1166.959961" x2="868.960022" y2="855.960022" stroke="red" stroke-width="6.660000" />
<circle cx="668.960022" cy="465.959991" r="19.980000" fill="red">
  <title>New York</title>
</circle><line x1="868.960022" y1="855.960022" x2="668.960022" y2="465.959991" stroke="red" stroke-width="6.660000" />
<circle cx="454.959991" cy="279.959991" r="19.980000" fill="red">
  <title>Karachi</title>
</circle><line x1="668.960022" y1="465.959991" x2="454.959991" y2="279.959991" stroke="red" stroke-width="6.660000" />
<circle cx="1114.959961" cy="254.959991" r="19.980000" fill="red">
  <title>Dhaka</title>
</circle><line x1="454.959991" y1="279.959991" x2="1114.959961" y2="254.959991" stroke="red" stroke-width="6.660000" />
<circle cx="1603.959961" cy="235.959991" r="19.980000" fill="red">
  <title>Beijing</title>
</circle><line x1="1114.959961" y1="254.959991" x2="1603.959961" y2="235.959991" stroke="red" stroke-width="6.660000" />
<circle cx="1887.959961" cy="191.959991" r="19.980000" fill="red">
  <title>Buenos Aires</title>
</circle><line x1="1603.959961" y1="235.959991" x2="1887.959961" y2="191.959991" stroke="red" stroke-width="6.660000" />
<circle cx="1705.959961" cy="732.960022" r="19.980000" fill="red">
  <title>São Paulo</title>
</circle><line x1="1887.959961" y1="191.959991" x2="1705.959961" y2="732.960022" stroke="red" stroke-width="6.660000" />
<circle cx="1564.959961" cy="624.960022" r="19.980000" fill="red">
  <title>Osaka</title>
</circle><line x1="1705.959961" y1="732.960022" x2="1564.959961" y2="624.960022" stroke="red" stroke-width="6.660000" />
<circle cx="1128.959961" cy="1148.959961" r="19.980000" fill="red">
  <title>Chongqing</title>
</circle><line x1="1564.959961" y1="624.960022" x2="1128.959961" y2="1148.959961" stroke="red" stroke-width="6.660000" />
<circle cx="1638.959961" cy="1475.959961" r="19.980000" fill="red">
  <title>Cairo</title>
</circle><line x1="1128.959961" y1="1148.959961" x2="1638.959961" y2="1475.959961" stroke="red" stroke-width="6.660000" />
<circle cx="1565.959961" cy="1723.959961" r="19.980000" fill="red">
  <title>Delhi</title>
</circle><line x1="1638.959961" y1="1475.959961" x2="1565.959961" y2="1723.959961" stroke="red" stroke-width="6.660000" />
</svg>
