<?xml version="1.0" encoding="UTF-8" standalone="no"?>
<svg width="500" height="500" viewBox="0 0 2074.000000 2074.000000" xmlns="http://www.w3.org/2000/svg">
<rect x="19.000000" y="19.000000" width="2036.000000" height="2036.000000" fill="black" />
<circle cx="1369.959961" cy="1989.959961" r="19.980000" fill="red">
  <title>Tokyo</title>
</circle><line x1="1052.959961" y1="1305.959961" x2="1369.959961" y2="1989.959961" stroke="red" stroke-width="6.660000" />
<circle cx="1527.959961" cy="1580.959961" r="19.980000" fill="red">
  <title>São Paulo</title>
</circle><line x1="1369.959961" y1="1989.959961" x2="1527.959961" y2="1580.959961" stroke="red" stroke-width="6.660000" />
<circle cx="1377.959961" cy="1185.959961" r="19.980000" fill="red">
  <title>Beijing</title>
</circle><line x1="1527.959961" y1="1580.959961" x2="1377.959961" y2="1185.959961" stroke="red" stroke-width="6.660000" />
<circle cx="1117.959961" cy="958.960022" r="19.980000" fill="red">
  <title>Shanghai</title>
</circle><line x1="1377.959961" y1="1185.959961" x2="1117.959961" y2="958.960022" stroke="red" stroke-width="6.660000" />
<circle cx="1466.959961" cy="546.960022" r="19.980000" fill="red">
  <title>Cairo</title>
</circle><line x1="1117.959961" y1="958.960022" x2="1466.959961" y2="546.960022" stroke="red" stroke-width="6.660000" />
<circle cx="1032.959961" cy="160.959991" r="19.980000" fill="red">
  <title>Delhi</title>
</circle><line x1="1466.959961" y1="546.960022" x2="1032.959961" y2="160.959991" stroke="red" stroke-width="6.660000" />
<circle cx="126.959999" cy="861.960022" r="19.980000" fill="red">
  <title>Mexico City</title>
</circle><line x1="1032.959961" y1="160.959991" x2="126.959999" y2="861.960022" stroke="red" stroke-width="6.660000" />
<circle cx="1052.959961" cy="1305.959961" r="19.980000" fill="red">
  <title>Mumbai</title>
</circle><line x1="126.959999" y1="861.960022" x2="1052.959961" y2="1305.959961" stroke="red" stroke-width="6.660000" />
</svg>
