<?xml version="1.0" encoding="UTF-8" standalone="no"?>
<svg width="500" height="500" viewBox="0 0 2074.000000 2074.000000" xmlns="http://www.w3.org/2000/svg">
<rect x="19.000000" y="19.000000" width="2036.000000" height="2036.000000" fill="black" />
<circle cx="254.959991" cy="1913.959961" r="19.980000" fill="red">
  <title>Tokyo</title>
</circle><line x1="276.959991" y1="827.960022" x2="254.959991" y2="1913.959961" stroke="red" stroke-width="6.660000" />
<circle cx="780.960022" cy="1101.959961" r="19.980000" fill="red">
  <title>Mexico City</title>
</circle><line x1="254.959991" y1="1913.959961" x2="780.960022" y2="1101.959961" stroke="red" stroke-width="6.660000" />
<circle cx="1841.959961" cy="1772.959961" r="19.980000" fill="red">
  <title>Mumbai</title>
</circle><line x1="780.960022" y1="1101.959961" x2="1841.959961" y2="1772.959961" stroke="red" stroke-width="6.660000" />
<circle cx="1440.959961" cy="557.960022" r="19.980000" fill="red">
  <title>Delhi</title>
</circle><line x1="1841.959961" y1="1772.959961" x2="1440.959961" y2="557.960022" stroke="red" stroke-width="6.660000" />
<circle cx="1308.959961" cy="541.960022" r="19.980000" fill="red">
  <title>Cairo</title>
</circle><line x1="1440.959961" y1="557.960022" x2="1308.959961" y2="541.960022" stroke="red" stroke-width="6.660000" />
<circle cx="769.960022" cy="380.959991" r="19.980000" fill="red">
  <title>Shanghai</title>
</circle><line x1="1308.959961" y1="541.960022" x2="769.960022" y2="380.959991" stroke="red" stroke-width="6.660000" />
<circle cx="105.959999" cy="621.960022" r="19.980000" fill="red">
  <title>São Paulo</title>
</circle><line x1="769.960022" y1="380.959991" x2="105.959999" y2="621.960022" stroke="red" stroke-width="6.660000" />
<circle cx="276.959991" cy="827.960022" r="19.980000" fill="red">
  <title>Beijing</title>
</circle><line x1="105.959999" y1="621.960022" x2="276.959991" y2="827.960022" stroke="red" stroke-width="6.660000" />
</svg>
