<?xml version="1.0" encoding="UTF-8" standalone="no"?>
<svg width="500" height="500" viewBox="0 0 2074.000000 2074.000000" xmlns="http://www.w3.org/2000/svg">
<rect x="19.000000" y="19.000000" width="2036.000000" height="2036.000000" fill="black" />
<circle cx="1496.959961" cy="384.959991" r="19.980000" fill="red">
  <title>Tokyo</title>
</circle><line x1="1644.959961" y1="818.960022" x2="1496.959961" y2="384.959991" stroke="red" stroke-width="6.660000" />
<circle cx="1395.959961" cy="410.959991" r="19.980000" fill="red">
  <title>Mexico City</title>
</circle><line x1="1496.959961" y1="384.959991" x2="1395.959961" y2="410.959991" stroke="red" stroke-width="6.660000" />
<circle cx="1379.959961" cy="403.959991" r="19.980000" fill="red">
  <title>Istanbul</title>
</circle><line x1="1395.959961" y1="410.959991" x2="1379.959961" y2="403.959991" stroke="red" stroke-width="6.660000" />
<circle cx="1408.959961" cy="183.959991" r="19.980000" fill="red">
  <title>Mumbai</title>
</circle><line x1="1379.959961" y1="403.959991" x2="1408.959961" y2="183.959991" stroke="red" stroke-width="6.660000" />
<circle cx="414.959991" cy="108.959999" r="19.980000" fill="red">
  <title>Cairo</title>
</circle><line x1="1408.959961" y1="183.959991" x2="414.959991" y2="108.959999" stroke="red" stroke-width="6.660000" />
<circle cx="474.959991" cy="745.960022" r="19.980000" fill="red">
  <title>Chongqing</title>
</circle><line x1="414.959991" y1="108.959999" x2="474.959991" y2="745.960022" stroke="red" stroke-width="6.660000" />
<circle cx="555.960022" cy="846.960022" r="19.980000" fill="red">
  <title>Buenos Aires</title>
</circle><line x1="474.959991" y1="745.960022" x2="555.960022" y2="846.960022" stroke="red" stroke-width="6.660000" />
<circle cx="575.960022" cy="838.960022" r="19.980000" fill="red">
  <title>Kolkata</title>
</circle><line x1="555.960022" y1="846.960022" x2="575.960022" y2="838.960022" stroke="red" stroke-width="6.660000" />
<circle cx="916.960022" cy="882.960022" r="19.980000" fill="red">
  <title>Osaka</title>
</circle><line x1="575.960022" y1="838.960022" x2="916.960022" y2="882.960022" stroke="red" stroke-width="6.660000" />
<circle cx="1110.959961" cy="1083.959961" r="19.980000" fill="red">
  <title>Shanghai</title>
</circle><line x1="916.960022" y1="882.960022" x2="1110.959961" y2="1083.959961" stroke="red" stroke-width="6.660000" />
<circle cx="586.960022" cy="1522.959961" r="19.980000" fill="red">
  <title>New York</title>
</circle><line x1="1110.959961" y1="1083.959961" x2="586.960022" y2="1522.959961" stroke="red" stroke-width="6.660000" />
<circle cx="265.959991" cy="1820.959961" r="19.980000" fill="red">
  <title>Lagos</title>
</circle><line x1="586.960022" y1="1522.959961" x2="265.959991" y2="1820.959961" stroke="red" stroke-width="6.660000" />
<circle cx="748.960022" cy="1946.959961" r="19.980000" fill="red">
  <title>Manila</title>
</circle><line x1="265.959991" y1="1820.959961" x2="748.960022" y2="1946.959961" stroke="red" stroke-width="6.660000" />
<circle cx="991.960022" cy="1715.959961" r="19.980000" fill="red">
  <title>Rio de Janeiro</title>
</circle><line x1="748.960022" y1="1946.959961" x2="991.960022" y2="1715.959961" stroke="red" stroke-width="6.660000" />
<circle cx="1378.959961" cy="1820.959961" r="19.980000" fill="red">
  <title>Dhaka</title>
</circle><line x1="991.960022" y1="1715.959961" x2="1378.959961" y2="1820.959961" stroke="red" stroke-width="6.660000" />
<circle cx="1409.959961" cy="1796.959961" r="19.980000" fill="red">
  <title>Karachi</title>
</circle><line x1="1378.959961" y1="1820.959961" x2="1409.959961" y2="1796.959961" stroke="red" stroke-width="6.660000" />
<circle cx="1410.959961" cy="1465.959961" r="19.980000" fill="red">
  <title>Delhi</title>
</circle><line x1="1409.959961" y1="1796.959961" x2="1410.959961" y2="1465.959961" stroke="red" stroke-width="6.660000" />
<circle cx="1488.959961" cy="1272.959961" r="19.980000" fill="red">
  <title>São Paulo</title>
</circle><line x1="1410.959961" y1="1465.959961" x2="1488.959961" y2="1272.959961" stroke="red" stroke-width="6.660000" />
<circle cx="1644.959961" cy="818.960022" r="19.980000" fill="red">
  <title>Beijing</title>
</circle><line x1="1488.959961" y1="1272.959961" x2="1644.959961" y2="818.960022" stroke="red" stroke-width="6.660000" />
</svg>
