<?xml version="1.0" encoding="UTF-8" standalone="no"?>
<svg width="500" height="500" viewBox="0 0 2074.000000 2074.000000" xmlns="http://www.w3.org/2000/svg">
<rect x="19.000000" y="19.000000" width="2036.000000" height="2036.000000" fill="black" />
<circle cx="1365.959961" cy="312.959991" r="19.980000" fill="red">
  <title>Tokyo</title>
</circle><line x1="975.960022" y1="371.959991" x2="1365.959961" y2="312.959991" stroke="red" stroke-width="6.660000" />
<circle cx="1833.959961" cy="1009.960022" r="19.980000" fill="red">
  <title>São Paulo</title>
</circle><line x1="1365.959961" y1="312.959991" x2="1833.959961" y2="1009.960022" stroke="red" stroke-width="6.660000" />
<circle cx="1911.959961" cy="1444.959961" r="19.980000" fill="red">
  <title>Cairo</title>
</circle><line x1="1833.959961" y1="1009.960022" x2="1911.959961" y2="1444.959961" stroke="red" stroke-width="6.660000" />
<circle cx="1482.959961" cy="1536.959961" r="19.980000" fill="red">
  <title>Osaka</title>
</circle><line x1="1911.959961" y1="1444.959961" x2="1482.959961" y2="1536.959961" stroke="red" stroke-width="6.660000" />
<circle cx="331.959991" cy="1848.959961" r="19.980000" fill="red">
  <title>Mumbai</title>
</circle><line x1="1482.959961" y1="1536.959961" x2="331.959991" y2="1848.959961" stroke="red" stroke-width="6.660000" />
<circle cx="86.959999" cy="780.960022" r="19.980000" fill="red">
  <title>Dhaka</title>
</circle><line x1="331.959991" y1="1848.959961" x2="86.959999" y2="780.960022" stroke="red" stroke-width="6.660000" />
<circle cx="419.959991" cy="680.960022" r="19.980000" fill="red">
  <title>Delhi</title>
</circle><line x1="86.959999" y1="780.960022" x2="419.959991" y2="680.960022" stroke="red" stroke-width="6.660000" />
<circle cx="663.960022" cy="405.959991" r="19.980000" fill="red">
  <title>Mexico City</title>
</circle><line x1="419.959991" y1="680.960022" x2="663.960022" y2="405.959991" stroke="red" stroke-width="6.660000" />
<circle cx="826.960022" cy="556.960022" r="19.980000" fill="red">
  <title>Shanghai</title>
</circle><line x1="663.960022" y1="405.959991" x2="826.960022" y2="556.960022" stroke="red" stroke-width="6.660000" />
<circle cx="1018.960022" cy="913.960022" r="19.980000" fill="red">
  <title>New York</title>
</circle><line x1="826.960022" y1="556.960022" x2="1018.960022" y2="913.960022" stroke="red" stroke-width="6.660000" />
<circle cx="975.960022" cy="371.959991" r="19.980000" fill="red">
  <title>Beijing</title>
</circle><line x1="1018.960022" y1="913.960022" x2="975.960022" y2="371.959991" stroke="red" stroke-width="6.660000" />
</svg>
