<?xml version="1.0" encoding="UTF-8" standalone="no"?>
<svg width="500" height="500" viewBox="0 0 2074.000000 2074.000000" xmlns="http://www.w3.org/2000/svg">
<rect x="19.000000" y="19.000000" width="2036.000000" height="2036.000000" fill="black" />
<circle cx="232.959991" cy="1787.959961" r="19.980000" fill="red">
  <title>Tokyo</title>
</circle><line x1="611.960022" y1="1421.959961" x2="232.959991" y2="1787.959961" stroke="red" stroke-width="6.660000" />
<circle cx="163.959991" cy="509.959991" r="19.980000" fill="red">
  <title>São Paulo</title>
</circle><line x1="232.959991" y1="1787.959961" x2="163.959991" y2="509.959991" stroke="red" stroke-width="6.660000" />
<circle cx="1212.959961" cy="1246.959961" r="19.980000" fill="red">
  <title>Delhi</title>
</circle><line x1="163.959991" y1="509.959991" x2="1212.959961" y2="1246.959961" stroke="red" stroke-width="6.660000" />
<circle cx="1864.959961" cy="1285.959961" r="19.980000" fill="red">
  <title>Shanghai</title>
</circle><line x1="1212.959961" y1="1246.959961" x2="1864.959961" y2="1285.959961" stroke="red" stroke-width="6.660000" />
<circle cx="1762.959961" cy="1623.959961" r="19.980000" fill="red">
  <title>Mumbai</title>
</circle><line x1="1864.959961" y1="1285.959961" x2="1762.959961" y2="1623.959961" stroke="red" stroke-width="6.660000" />
<circle cx="1689.959961" cy="1803.959961" r="19.980000" fill="red">
  <title>Mexico City</title>
</circle><line x1="1762.959961" y1="1623.959961" x2="1689.959961" y2="1803.959961" stroke="red" stroke-width="6.660000" />
<circle cx="611.960022" cy="1421.959961" r="19.980000" fill="red">
  <title>Cairo</title>
</circle><line x1="1689.959961" y1="1803.959961" x2="611.960022" y2="1421.959961" stroke="red" stroke-width="6.660000" />
</svg>
