<?xml version="1.0" encoding="UTF-8" standalone="no"?>
<svg width="500" height="500" viewBox="0 0 2074.000000 2074.000000" xmlns="http://www.w3.org/2000/svg">
<rect x="19.000000" y="19.000000" width="2036.000000" height="2036.000000" fill="black" />
<circle cx="658.960022" cy="1469.959961" r="19.980000" fill="red">
  <title>Tokyo</title>
</circle><line x1="1257.959961" y1="1242.959961" x2="658.960022" y2="1469.959961" stroke="red" stroke-width="6.660000" />
<circle cx="738.960022" cy="1141.959961" r="19.980000" fill="red">
  <title>Shanghai</title>
</circle><line x1="658.960022" y1="1469.959961" x2="738.960022" y2="1141.959961" stroke="red" stroke-width="6.660000" />
<circle cx="1426.959961" cy="1079.959961" r="19.980000" fill="red">
  <title>Delhi</title>
</circle><line x1="738.960022" y1="1141.959961" x2="1426.959961" y2="1079.959961" stroke="red" stroke-width="6.660000" />
<circle cx="1257.959961" cy="1242.959961" r="19.980000" fill="red">
  <title>São Paulo</title>
</circle><line x1="1426.959961" y1="1079.959961" x2="1257.959961" y2="1242.959961" stroke="red" stroke-width="6.660000" />
</svg>
