<?xml version="1.0" encoding="UTF-8" standalone="no"?>
<svg width="500" height="500" viewBox="0 0 2074.000000 2074.000000" xmlns="http://www.w3.org/2000/svg">
<rect x="19.000000" y="19.000000" width="2036.000000" height="2036.000000" fill="black" />
<circle cx="320.959991" cy="643.960022" r="19.980000" fill="red">
  <title>Tokyo</title>
</circle><line x1="492.959991" y1="962.960022" x2="320.959991" y2="643.960022" stroke="red" stroke-width="6.660000" />
<circle cx="445.959991" cy="700.960022" r="19.980000" fill="red">
  <title>Shanghai</title>
</circle><line x1="320.959991" y1="643.960022" x2="445.959991" y2="700.960022" stroke="red" stroke-width="6.660000" />
<circle cx="644.960022" cy="808.960022" r="19.980000" fill="red">
  <title>Istanbul</title>
</circle><line x1="445.959991" y1="700.960022" x2="644.960022" y2="808.960022" stroke="red" stroke-width="6.660000" />
<circle cx="836.960022" cy="558.960022" r="19.980000" fill="red">
  <title>Chongqing</title>
</circle><line x1="644.960022" y1="808.960022" x2="836.960022" y2="558.960022" stroke="red" stroke-width="6.660000" />
<circle cx="939.960022" cy="179.959991" r="19.980000" fill="red">
  <title>Delhi</title>
</circle><line x1="836.960022" y1="558.960022" x2="939.960022" y2="179.959991" stroke="red" stroke-width="6.660000" />
<circle cx="1158.959961" cy="647.960022" r="19.980000" fill="red">
  <title>São Paulo</title>
</circle><line x1="939.960022" y1="179.959991" x2="1158.959961" y2="647.960022" stroke="red" stroke-width="6.660000" />
<circle cx="1740.959961" cy="324.959991" r="19.980000" fill="red">
  <title>Dhaka</title>
</circle><line x1="1158.959961" y1="647.960022" x2="1740.959961" y2="324.959991" stroke="red" stroke-width="6.660000" />
<circle cx="1787.959961" cy="944.960022" r="19.980000" fill="red">
  <title>Mexico City</title>
</circle><line x1="1740.959961" y1="324.959991" x2="1787.959961" y2="944.960022" stroke="red" stroke-width="6.660000" />
<circle cx="1558.959961" cy="1508.959961" r="19.980000" fill="red">
  <title>New York</title>
</circle><line x1="1787.959961" y1="944.960022" x2="1558.959961" y2="1508.959961" stroke="red" stroke-width="6.660000" />
<circle cx="1142.959961" cy="1157.959961" r="19.980000" fill="red">
  <title>Beijing</title>
</circle><line x1="1558.959961" y1="1508.959961" x2="1142.959961" y2="1157.959961" stroke="red" stroke-width="6.660000" />
<circle cx="1248.959961" cy="1499.959961" r="19.980000" fill="red">
  <title>Buenos Aires</title>
</circle><line x1="1142.959961" y1="1157.959961" x2="1248.959961" y2="1499.959961" stroke="red" stroke-width="6.660000" />
<circle cx="519.960022" cy="1941.959961" r="19.980000" fill="red">
  <title>Osaka</title>
</circle><line x1="1248.959961" y1="1499.959961" x2="519.960022" y2="1941.959961" stroke="red" stroke-width="6.660000" />
<circle cx="368.959991" cy="1565.959961" r="19.980000" fill="red">
  <title>Karachi</title>
</circle><line x1="519.960022" y1="1941.959961" x2="368.959991" y2="1565.959961" stroke="red" stroke-width="6.660000" />
<circle cx="401.959991" cy="1476.959961" r="19.980000" fill="red">
  <title>Mumbai</title>
</circle><line x1="368.959991" y1="1565.959961" x2="401.959991" y2="1476.959961" stroke="red" stroke-width="6.660000" />
<circle cx="492.959991" cy="962.960022" r="19.980000" fill="red">
  <title>Cairo</title>
</circle><line x1="401.959991" y1="1476.959961" x2="492.959991" y2="962.960022" stroke="red" stroke-width="6.660000" />
</svg>
