<?xml version="1.0" encoding="UTF-8" standalone="no"?>
<svg width="500" height="500" viewBox="0 0 2074.000000 2074.000000" xmlns="http://www.w3.org/2000/svg">
<rect x="19.000000" y="19.000000" width="2036.000000" height="2036.000000" fill="black" />
<circle cx="71.959999" cy="1846.959961" r="19.980000" fill="red">
  <title>Tokyo</title>
</circle><line x1="88.959999" y1="1869.959961" x2="71.959999" y2="1846.959961" stroke="red" stroke-width="6.660000" />
<circle cx="69.959999" cy="1089.959961" r="19.980000" fill="red">
  <title>Osaka</title>
</circle><line x1="71.959999" y1="1846.959961" x2="69.959999" y2="1089.959961" stroke="red" stroke-width="6.660000" />
<circle cx="783.960022" cy="771.960022" r="19.980000" fill="red">
  <title>Lagos</title>
</circle><line x1="69.959999" y1="1089.959961" x2="783.960022" y2="771.960022" stroke="red" stroke-width="6.660000" />
<circle cx="893.960022" cy="772.960022" r="19.980000" fill="red">
  <title>Beijing</title>
</circle><line x1="783.960022" y1="771.960022" x2="893.960022" y2="772.960022" stroke="red" stroke-width="6.660000" />
<circle cx="950.960022" cy="980.960022" r="19.980000" fill="red">
  <title>Mexico City</title>
</circle><line x1="893.960022" y1="772.960022" x2="950.960022" y2="980.960022" stroke="red" stroke-width="6.660000" />
<circle cx="1132.959961" cy="976.960022" r="19.980000" fill="red">
  <title>Shanghai</title>
</circle><line x1="950.960022" y1="980.960022" x2="1132.959961" y2="976.960022" stroke="red" stroke-width="6.660000" />
<circle cx="1341.959961" cy="1087.959961" r="19.980000" fill="red">
  <title>São Paulo</title>
</circle><line x1="1132.959961" y1="976.960022" x2="1341.959961" y2="1087.959961" stroke="red" stroke-width="6.660000" />
<circle cx="1477.959961" cy="1545.959961" r="19.980000" fill="red">
  <title>Cairo</title>
</circle><line x1="1341.959961" y1="1087.959961" x2="1477.959961" y2="1545.959961" stroke="red" stroke-width="6.660000" />
<circle cx="1431.959961" cy="1173.959961" r="19.980000" fill="red">
  <title>Chongqing</title>
</circle><line x1="1477.959961" y1="1545.959961" x2="1431.959961" y2="1173.959961" stroke="red" stroke-width="6.660000" />
<circle cx="1522.959961" cy="701.960022" r="19.980000" fill="red">
  <title>Delhi</title>
</circle><line x1="1431.959961" y1="1173.959961" x2="1522.959961" y2="701.960022" stroke="red" stroke-width="6.660000" />
<circle cx="1996.959961" cy="321.959991" r="19.980000" fill="red">
  <title>Karachi</title>
</circle><line x1="1522.959961" y1="701.960022" x2="1996.959961" y2="321.959991" stroke="red" stroke-width="6.660000" />
<circle cx="1935.959961" cy="151.959991" r="19.980000" fill="red">
  <title>Mumbai</title>
</circle><line x1="1996.959961" y1="321.959991" x2="1935.959961" y2="151.959991" stroke="red" stroke-width="6.660000" />
<circle cx="1677.959961" cy="417.959991" r="19.980000" fill="red">
  <title>Manila</title>
</circle><line x1="1935.959961" y1="151.959991" x2="1677.959961" y2="417.959991" stroke="red" stroke-width="6.660000" />
<circle cx="933.960022" cy="120.959999" r="19.980000" fill="red">
  <title>Kolkata</title>
</circle><line x1="1677.959961" y1="417.959991" x2="933.960022" y2="120.959999" stroke="red" stroke-width="6.660000" />
<circle cx="816.960022" cy="285.959991" r="19.980000" fill="red">
  <title>New York</title>
</circle><line x1="933.960022" y1="120.959999" x2="816.960022" y2="285.959991" stroke="red" stroke-width="6.660000" />
<circle cx="593.960022" cy="388.959991" r="19.980000" fill="red">
  <title>Dhaka</title>
</circle><line x1="816.960022" y1="285.959991" x2="593.960022" y2="388.959991" stroke="red" stroke-width="6.660000" />
<circle cx="281.959991" cy="950.960022" r="19.980000" fill="red">
  <title>Buenos Aires</title>
</circle><line x1="593.960022" y1="388.959991" x2="281.959991" y2="950.960022" stroke="red" stroke-width="6.660000" />
<circle cx="88.959999" cy="1869.959961" r="19.980000" fill="red">
  <title>Istanbul</title>
</circle><line x1="281.959991" y1="950.960022" x2="88.959999" y2="1869.959961" stroke="red" stroke-width="6.660000" />
</svg>
