<?xml version="1.0" encoding="UTF-8" standalone="no"?>
<svg width="500" height="500" viewBox="0 0 2074.000000 2074.000000" xmlns="http://www.w3.org/2000/svg">
<rect x="19.000000" y="19.000000" width="2036.000000" height="2036.000000" fill="black" />
<circle cx="1922.959961" cy="852.960022" r="19.980000" fill="red">
  <title>Tokyo</title>
</circle><line x1="1181.959961" y1="96.959999" x2="1922.959961" y2="852.960022" stroke="red" stroke-width="6.660000" />
<circle cx="1747.959961" cy="1487.959961" r="19.980000" fill="red">
  <title>Delhi</title>
</circle><line x1="1922.959961" y1="852.960022" x2="1747.959961" y2="1487.959961" stroke="red" stroke-width="6.660000" />
<circle cx="1514.959961" cy="1984.959961" r="19.980000" fill="red">
  <title>Cairo</title>
</circle><line x1="1747.959961" y1="1487.959961" x2="1514.959961" y2="1984.959961" stroke="red" stroke-width="6.660000" />
<circle cx="1332.959961" cy="1315.959961" r="19.980000" fill="red">
  <title>Beijing</title>
</circle><line x1="1514.959961" y1="1984.959961" x2="1332.959961" y2="1315.959961" stroke="red" stroke-width="6.660000" />
<circle cx="529.960022" cy="843.960022" r="19.980000" fill="red">
  <title>Dhaka</title>
</circle><line x1="1332.959961" y1="1315.959961" x2="529.960022" y2="843.960022" stroke="red" stroke-width="6.660000" />
<circle cx="237.959991" cy="922.960022" r="19.980000" fill="red">
  <title>São Paulo</title>
</circle><line x1="529.960022" y1="843.960022" x2="237.959991" y2="922.960022" stroke="red" stroke-width="6.660000" />
<circle cx="582.960022" cy="745.960022" r="19.980000" fill="red">
  <title>Mexico City</title>
</circle><line x1="237.959991" y1="922.960022" x2="582.960022" y2="745.960022" stroke="red" stroke-width="6.660000" />
<circle cx="910.960022" cy="52.959999" r="19.980000" fill="red">
  <title>Mumbai</title>
</circle><line x1="582.960022" y1="745.960022" x2="910.960022" y2="52.959999" stroke="red" stroke-width="6.660000" />
<circle cx="1181.959961" cy="96.959999" r="19.980000" fill="red">
  <title>Shanghai</title>
</circle><line x1="910.960022" y1="52.959999" x2="1181.959961" y2="96.959999" stroke="red" stroke-width="6.660000" />
</svg>
