<?xml version="1.0" encoding="UTF-8" standalone="no"?>
<svg width="500" height="500" viewBox="0 0 2074.000000 2074.000000" xmlns="http://www.w3.org/2000/svg">
<rect x="19.000000" y="19.000000" width="2036.000000" height="2036.000000" fill="black" />
<circle cx="1134.959961" cy="1888.959961" r="19.980000" fill="red">
  <title>Tokyo</title>
</circle><line x1="844.960022" y1="1780.959961" x2="1134.959961" y2="1888.959961" stroke="red" stroke-width="6.660000" />
<circle cx="1425.959961" cy="1817.959961" r="19.980000" fill="red">
  <title>Dhaka</title>
</circle><line x1="1134.959961" y1="1888.959961" x2="1425.959961" y2="1817.959961" stroke="red" stroke-width="6.660000" />
<circle cx="1929.959961" cy="1960.959961" r="19.980000" fill="red">
  <title>Shanghai</title>
</circle><line x1="1425.959961" y1="1817.959961" x2="1929.959961" y2="1960.959961" stroke="red" stroke-width="6.660000" />
<circle cx="1896.959961" cy="1383.959961" r="19.980000" fill="red">
  <title>New York</title>
</circle><line x1="1929.959961" y1="1960.959961" x2="1896.959961" y2="1383.959961" stroke="red" stroke-width="6.660000" />
<circle cx="2034.959961" cy="781.960022" r="19.980000" fill="red">
  <title>Istanbul</title>
</circle><line x1="1896.959961" y1="1383.959961" x2="2034.959961" y2="781.960022" stroke="red" stroke-width="6.660000" />
<circle cx="1617.959961" cy="325.959991" r="19.980000" fill="red">
  <title>Chongqing</title>
</circle><line x1="2034.959961" y1="781.960022" x2="1617.959961" y2="325.959991" stroke="red" stroke-width="6.660000" />
<circle cx="1328.959961" cy="64.959999" r="19.980000" fill="red">
  <title>São Paulo</title>
</circle><line x1="1617.959961" y1="325.959991" x2="1328.959961" y2="64.959999" stroke="red" stroke-width="6.660000" />
<circle cx="1499.959961" cy="884.960022" r="19.980000" fill="red">
  <title>Mexico City</title>
</circle><line x1="1328.959961" y1="64.959999" x2="1499.959961" y2="884.960022" stroke="red" stroke-width="6.660000" />
<circle cx="1206.959961" cy="984.960022" r="19.980000" fill="red">
  <title>Karachi</title>
</circle><line x1="1499.959961" y1="884.960022" x2="1206.959961" y2="984.960022" stroke="red" stroke-width="6.660000" />
<circle cx="855.960022" cy="1006.960022" r="19.980000" fill="red">
  <title>Buenos Aires</title>
</circle><line x1="1206.959961" y1="984.960022" x2="855.960022" y2="1006.960022" stroke="red" stroke-width="6.660000" />
<circle cx="725.960022" cy="1074.959961" r="19.980000" fill="red">
  <title>Mumbai</title>
</circle><line x1="855.960022" y1="1006.960022" x2="725.960022" y2="1074.959961" stroke="red" stroke-width="6.660000" />
<circle cx="780.960022" cy="1516.959961" r="19.980000" fill="red">
  <title>Cairo</title>
</circle><line x1="725.960022" y1="1074.959961" x2="780.960022" y2="1516.959961" stroke="red" stroke-width="6.660000" />
<circle cx="753.960022" cy="1728.959961" r="19.980000" fill="red">
  <title>Delhi</title>
</circle><line x1="780.960022" y1="1516.959961" x2="753.960022" y2="1728.959961" stroke="red" stroke-width="6.660000" />
<circle cx="295.959991" cy="1870.959961" r="19.980000" fill="red">
  <title>Beijing</title>
</circle><line x1="753.960022" y1="1728.959961" x2="295.959991" y2="1870.959961" stroke="red" stroke-width="6.660000" />
<circle cx="844.960022" cy="1780.959961" r="19.980000" fill="red">
  <title>Osaka</title>
</circle><line x1="295.959991" y1="1870.959961" x2="844.960022" y2="1780.959961" stroke="red" stroke-width="6.660000" />
</svg>
