<?xml version="1.0" encoding="UTF-8" standalone="no"?>
<svg width="500" height="500" viewBox="0 0 2074.000000 2074.000000" xmlns="http://www.w3.org/2000/svg">
<rect x="19.000000" y="19.000000" width="2036.000000" height="2036.000000" fill="black" />
<circle cx="756.960022" cy="89.959999" r="19.980000" fill="red">
  <title>Tokyo</title>
</circle><line x1="564.960022" y1="108.959999" x2="756.960022" y2="89.959999" stroke="red" stroke-width="6.660000" />
<circle cx="1593.959961" cy="95.959999" r="19.980000" fill="red">
  <title>Cairo</title>
</circle><line x1="756.960022" y1="89.959999" x2="1593.959961" y2="95.959999" stroke="red" stroke-width="6.660000" />
<circle cx="1493.959961" cy="250.959991" r="19.980000" fill="red">
  <title>Delhi</title>
</circle><line x1="1593.959961" y1="95.959999" x2="1493.959961" y2="250.959991" stroke="red" stroke-width="6.660000" />
<circle cx="1936.959961" cy="965.960022" r="19.980000" fill="red">
  <title>Beijing</title>
</circle><line x1="1493.959961" y1="250.959991" x2="1936.959961" y2="965.960022" stroke="red" stroke-width="6.660000" />
<circle cx="2033.959961" cy="1740.959961" r="19.980000" fill="red">
  <title>Mexico City</title>
</circle><line x1="1936.959961" y1="965.960022" x2="2033.959961" y2="1740.959961" stroke="red" stroke-width="6.660000" />
<circle cx="505.959991" cy="950.960022" r="19.980000" fill="red">
  <title>São Paulo</title>
</circle><line x1="2033.959961" y1="1740.959961" x2="505.959991" y2="950.960022" stroke="red" stroke-width="6.660000" />
<circle cx="108.959999" cy="1379.959961" r="19.980000" fill="red">
  <title>Shanghai</title>
</circle><line x1="505.959991" y1="950.960022" x2="108.959999" y2="1379.959961" stroke="red" stroke-width="6.660000" />
<circle cx="54.959999" cy="232.959991" r="19.980000" fill="red">
  <title>Dhaka</title>
</circle><line x1="108.959999" y1="1379.959961" x2="54.959999" y2="232.959991" stroke="red" stroke-width="6.660000" />
<circle cx="564.960022" cy="108.959999" r="19.980000" fill="red">
  <title>Mumbai</title>
</circle><line x1="54.959999" y1="232.959991" x2="564.960022" y2="108.959999" stroke="red" stroke-width="6.660000" />
</svg>
