<?xml version="1.0" encoding="UTF-8" standalone="no"?>
<svg width="500" height="500" viewBox="0 0 2074.000000 2074.000000" xmlns="http://www.w3.org/2000/svg">
<rect x="19.000000" y="19.000000" width="2036.000000" height="2036.000000" fill="black" />
<circle cx="352.959991" cy="1783.959961" r="19.980000" fill="red">
  <title>Tokyo</title>
</circle><line x1="1477.959961" y1="2003.959961" x2="352.959991" y2="1783.959961" stroke="red" stroke-width="6.660000" />
<circle cx="387.959991" cy="667.960022" r="19.980000" fill="red">
  <title>Delhi</title>
</circle><line x1="352.959991" y1="1783.959961" x2="387.959991" y2="667.960022" stroke="red" stroke-width="6.660000" />
<circle cx="210.959991" cy="655.960022" r="19.980000" fill="red">
  <title>New York</title>
</circle><line x1="387.959991" y1="667.960022" x2="210.959991" y2="655.960022" stroke="red" stroke-width="6.660000" />
<circle cx="296.959991" cy="512.960022" r="19.980000" fill="red">
  <title>São Paulo</title>
</circle><line x1="210.959991" y1="655.960022" x2="296.959991" y2="512.960022" stroke="red" stroke-width="6.660000" />
<circle cx="357.959991" cy="388.959991" r="19.980000" fill="red">
  <title>Beijing</title>
</circle><line x1="296.959991" y1="512.960022" x2="357.959991" y2="388.959991" stroke="red" stroke-width="6.660000" />
<circle cx="655.960022" cy="598.960022" r="19.980000" fill="red">
  <title>Mumbai</title>
</circle><line x1="357.959991" y1="388.959991" x2="655.960022" y2="598.960022" stroke="red" stroke-width="6.660000" />
<circle cx="740.960022" cy="737.960022" r="19.980000" fill="red">
  <title>Buenos Aires</title>
</circle><line x1="655.960022" y1="598.960022" x2="740.960022" y2="737.960022" stroke="red" stroke-width="6.660000" />
<circle cx="657.960022" cy="633.960022" r="19.980000" fill="red">
  <title>Dhaka</title>
</circle><line x1="740.960022" y1="737.960022" x2="657.960022" y2="633.960022" stroke="red" stroke-width="6.660000" />
<circle cx="752.960022" cy="487.959991" r="19.980000" fill="red">
  <title>Chongqing</title>
</circle><line x1="657.960022" y1="633.960022" x2="752.960022" y2="487.959991" stroke="red" stroke-width="6.660000" />
<circle cx="1274.959961" cy="565.960022" r="19.980000" fill="red">
  <title>Shanghai</title>
</circle><line x1="752.960022" y1="487.959991" x2="1274.959961" y2="565.960022" stroke="red" stroke-width="6.660000" />
<circle cx="1483.959961" cy="490.959991" r="19.980000" fill="red">
  <title>Cairo</title>
</circle><line x1="1274.959961" y1="565.960022" x2="1483.959961" y2="490.959991" stroke="red" stroke-width="6.660000" />
<circle cx="1971.959961" cy="577.960022" r="19.980000" fill="red">
  <title>Mexico City</title>
</circle><line x1="1483.959961" y1="490.959991" x2="1971.959961" y2="577.960022" stroke="red" stroke-width="6.660000" />
<circle cx="1881.959961" cy="942.960022" r="19.980000" fill="red">
  <title>Istanbul</title>
</circle><line x1="1971.959961" y1="577.960022" x2="1881.959961" y2="942.960022" stroke="red" stroke-width="6.660000" />
<circle cx="1330.959961" cy="964.960022" r="19.980000" fill="red">
  <title>Karachi</title>
</circle><line x1="1881.959961" y1="942.960022" x2="1330.959961" y2="964.960022" stroke="red" stroke-width="6.660000" />
<circle cx="1477.959961" cy="2003.959961" r="19.980000" fill="red">
  <title>Osaka</title>
</circle><line x1="1330.959961" y1="964.960022" x2="1477.959961" y2="2003.959961" stroke="red" stroke-width="6.660000" />
</svg>
