<?xml version="1.0" encoding="UTF-8" standalone="no"?>
<svg width="500" height="500" viewBox="0 0 2074.000000 2074.000000" xmlns="http://www.w3.org/2000/svg">
<rect x="19.000000" y="19.000000" width="2036.000000" height="2036.000000" fill="black" />
<circle cx="1217.959961" cy="1856.959961" r="19.980000" fill="red">
  <title>Tokyo</title>
</circle><line x1="1779.959961" y1="1992.959961" x2="1217.959961" y2="1856.959961" stroke="red" stroke-width="6.660000" />
<circle cx="917.960022" cy="1670.959961" r="19.980000" fill="red">
  <title>Shanghai</title>
</circle><line x1="1217.959961" y1="1856.959961" x2="917.960022" y2="1670.959961" stroke="red" stroke-width="6.660000" />
<circle cx="700.960022" cy="1552.959961" r="19.980000" fill="red">
  <title>New York</title>
</circle><line x1="917.960022" y1="1670.959961" x2="700.960022" y2="1552.959961" stroke="red" stroke-width="6.660000" />
<circle cx="135.959991" cy="1518.959961" r="19.980000" fill="red">
  <title>Karachi</title>
</circle><line x1="700.960022" y1="1552.959961" x2="135.959991" y2="1518.959961" stroke="red" stroke-width="6.660000" />
<circle cx="757.960022" cy="1282.959961" r="19.980000" fill="red">
  <title>Dhaka</title>
</circle><line x1="135.959991" y1="1518.959961" x2="757.960022" y2="1282.959961" stroke="red" stroke-width="6.660000" />
<circle cx="848.960022" cy="1047.959961" r="19.980000" fill="red">
  <title>Osaka</title>
</circle><line x1="757.960022" y1="1282.959961" x2="848.960022" y2="1047.959961" stroke="red" stroke-width="6.660000" />
<circle cx="393.959991" cy="391.959991" r="19.980000" fill="red">
  <title>Delhi</title>
</circle><line x1="848.960022" y1="1047.959961" x2="393.959991" y2="391.959991" stroke="red" stroke-width="6.660000" />
<circle cx="776.960022" cy="248.959991" r="19.980000" fill="red">
  <title>Beijing</title>
</circle><line x1="393.959991" y1="391.959991" x2="776.960022" y2="248.959991" stroke="red" stroke-width="6.660000" />
<circle cx="811.960022" cy="206.959991" r="19.980000" fill="red">
  <title>Chongqing</title>
</circle><line x1="776.960022" y1="248.959991" x2="811.960022" y2="206.959991" stroke="red" stroke-width="6.660000" />
<circle cx="1319.959961" cy="895.960022" r="19.980000" fill="red">
  <title>São Paulo</title>
</circle><line x1="811.960022" y1="206.959991" x2="1319.959961" y2="895.960022" stroke="red" stroke-width="6.660000" />
<circle cx="2014.959961" cy="310.959991" r="19.980000" fill="red">
  <title>Mumbai</title>
</circle><line x1="1319.959961" y1="895.960022" x2="2014.959961" y2="310.959991" stroke="red" stroke-width="6.660000" />
<circle cx="1912.959961" cy="518.960022" r="19.980000" fill="red">
  <title>Buenos Aires</title>
</circle><line x1="2014.959961" y1="310.959991" x2="1912.959961" y2="518.960022" stroke="red" stroke-width="6.660000" />
<circle cx="1989.959961" cy="1705.959961" r="19.980000" fill="red">
  <title>Cairo</title>
</circle><line x1="1912.959961" y1="518.960022" x2="1989.959961" y2="1705.959961" stroke="red" stroke-width="6.660000" />
<circle cx="1779.959961" cy="1992.959961" r="19.980000" fill="red">
  <title>Mexico City</title>
</circle><line x1="1989.959961" y1="1705.959961" x2="1779.959961" y2="1992.959961" stroke="red" stroke-width="6.660000" />
</svg>
