<?xml version="1.0" encoding="UTF-8" standalone="no"?>
<svg width="500" height="500" viewBox="0 0 2074.000000 2074.000000" xmlns="http://www.w3.org/2000/svg">
<rect x="19.000000" y="19.000000" width="2036.000000" height="2036.000000" fill="black" />
<circle cx="1927.959961" cy="1848.959961" r="19.980000" fill="red">
  <title>Tokyo</title>
</circle><line x1="1630.959961" y1="1264.959961" x2="1927.959961" y2="1848.959961" stroke="red" stroke-width="6.660000" />
<circle cx="1692.959961" cy="1563.959961" r="19.980000" fill="red">
  <title>Shanghai</title>
</circle><line x1="1927.959961" y1="1848.959961" x2="1692.959961" y2="1563.959961" stroke="red" stroke-width="6.660000" />
<circle cx="1029.959961" cy="1315.959961" r="19.980000" fill="red">
  <title>Cairo</title>
</circle><line x1="1692.959961" y1="1563.959961" x2="1029.959961" y2="1315.959961" stroke="red" stroke-width="6.660000" />
<circle cx="859.960022" cy="1508.959961" r="19.980000" fill="red">
  <title>Beijing</title>
</circle><line x1="1029.959961" y1="1315.959961" x2="859.960022" y2="1508.959961" stroke="red" stroke-width="6.660000" />
<circle cx="365.959991" cy="1808.959961" r="19.980000" fill="red">
  <title>Dhaka</title>
</circle><line x1="859.960022" y1="1508.959961" x2="365.959991" y2="1808.959961" stroke="red" stroke-width="6.660000" />
<circle cx="465.959991" cy="1495.959961" r="19.980000" fill="red">
  <title>Mexico City</title>
</circle><line x1="365.959991" y1="1808.959961" x2="465.959991" y2="1495.959961" stroke="red" stroke-width="6.660000" />
<circle cx="392.959991" cy="886.960022" r="19.980000" fill="red">
  <title>São Paulo</title>
</circle><line x1="465.959991" y1="1495.959961" x2="392.959991" y2="886.960022" stroke="red" stroke-width="6.660000" />
<circle cx="152.959991" cy="148.959991" r="19.980000" fill="red">
  <title>Delhi</title>
</circle><line x1="392.959991" y1="886.960022" x2="152.959991" y2="148.959991" stroke="red" stroke-width="6.660000" />
<circle cx="1351.959961" cy="126.959999" r="19.980000" fill="red">
  <title>Osaka</title>
</circle><line x1="152.959991" y1="148.959991" x2="1351.959961" y2="126.959999" stroke="red" stroke-width="6.660000" />
<circle cx="1630.959961" cy="1264.959961" r="19.980000" fill="red">
  <title>Mumbai</title>
</circle><line x1="1351.959961" y1="126.959999" x2="1630.959961" y2="1264.959961" stroke="red" stroke-width="6.660000" />
</svg>
