<?xml version="1.0" encoding="UTF-8" standalone="no"?>
<svg width="500" height="500" viewBox="0 0 2074.000000 2074.000000" xmlns="http://www.w3.org/2000/svg">
<rect x="19.000000" y="19.000000" width="2036.000000" height="2036.000000" fill="black" />
<circle cx="1852.959961" cy="1129.959961" r="19.980000" fill="red">
  <title>Tokyo</title>
</circle><line x1="1889.959961" y1="928.960022" x2="1852.959961" y2="1129.959961" stroke="red" stroke-width="6.660000" />
<circle cx="1889.959961" cy="2006.959961" r="19.980000" fill="red">
  <title>São Paulo</title>
</circle><line x1="1852.959961" y1="1129.959961" x2="1889.959961" y2="2006.959961" stroke="red" stroke-width="6.660000" />
<circle cx="1230.959961" cy="1688.959961" r="19.980000" fill="red">
  <title>Karachi</title>
</circle><line x1="1889.959961" y1="2006.959961" x2="1230.959961" y2="1688.959961" stroke="red" stroke-width="6.660000" />
<circle cx="953.960022" cy="1634.959961" r="19.980000" fill="red">
  <title>New York</title>
</circle><line x1="1230.959961" y1="1688.959961" x2="953.960022" y2="1634.959961" stroke="red" stroke-width="6.660000" />
<circle cx="540.960022" cy="1994.959961" r="19.980000" fill="red">
  <title>Mumbai</title>
</circle><line x1="953.960022" y1="1634.959961" x2="540.960022" y2="1994.959961" stroke="red" stroke-width="6.660000" />
<circle cx="350.959991" cy="1648.959961" r="19.980000" fill="red">
  <title>Beijing</title>
</circle><line x1="540.960022" y1="1994.959961" x2="350.959991" y2="1648.959961" stroke="red" stroke-width="6.660000" />
<circle cx="797.960022" cy="1417.959961" r="19.980000" fill="red">
  <title>Buenos Aires</title>
</circle><line x1="350.959991" y1="1648.959961" x2="797.960022" y2="1417.959961" stroke="red" stroke-width="6.660000" />
<circle cx="937.960022" cy="1289.959961" r="19.980000" fill="red">
  <title>Cairo</title>
</circle><line x1="797.960022" y1="1417.959961" x2="937.960022" y2="1289.959961" stroke="red" stroke-width="6.660000" />
<circle cx="867.960022" cy="972.960022" r="19.980000" fill="red">
  <title>Istanbul</title>
</circle><line x1="937.960022" y1="1289.959961" x2="867.960022" y2="972.960022" stroke="red" stroke-width="6.660000" />
<circle cx="525.960022" cy="544.960022" r="19.980000" fill="red">
  <title>Delhi</title>
</circle><line x1="867.960022" y1="972.960022" x2="525.960022" y2="544.960022" stroke="red" stroke-width="6.660000" />
<circle cx="1174.959961" cy="758.960022" r="19.980000" fill="red">
  <title>Shanghai</title>
</circle><line x1="525.960022" y1="544.960022" x2="1174.959961" y2="758.960022" stroke="red" stroke-width="6.660000" />
<circle cx="1381.959961" cy="415.959991" r="19.980000" fill="red">
  <title>Osaka</title>
</circle><line x1="1174.959961" y1="758.960022" x2="1381.959961" y2="415.959991" stroke="red" stroke-width="6.660000" />
<circle cx="1507.959961" cy="963.960022" r="19.980000" fill="red">
  <title>Mexico City</title>
</circle><line x1="1381.959961" y1="415.959991" x2="1507.959961" y2="963.960022" stroke="red" stroke-width="6.660000" />
<circle cx="1623.959961" cy="1141.959961" r="19.980000" fill="red">
  <title>Dhaka</title>
</circle><line x1="1507.959961" y1="963.960022" x2="1623.959961" y2="1141.959961" stroke="red" stroke-width="6.660000" />
<circle cx="1889.959961" cy="928.960022" r="19.980000" fill="red">
  <title>Chongqing</title>
</circle><line x1="1623.959961" y1="1141.959961" x2="1889.959961" y2="928.960022" stroke="red" stroke-width="6.660000" />
</svg>
