<?xml version="1.0" encoding="UTF-8" standalone="no"?>
<svg width="500" height="500" viewBox="0 0 2074.000000 2074.000000" xmlns="http://www.w3.org/2000/svg">
<rect x="19.000000" y="19.000000" width="2036.000000" height="2036.000000" fill="black" />
<circle cx="1777.959961" cy="1763.959961" r="19.980000" fill="red">
  <title>Tokyo</title>
</circle><line x1="1430.959961" y1="712.960022" x2="1777.959961" y2="1763.959961" stroke="red" stroke-width="6.660000" />
<circle cx="935.960022" cy="1758.959961" r="19.980000" fill="red">
  <title>Shanghai</title>
</circle><line x1="1777.959961" y1="1763.959961" x2="935.960022" y2="1758.959961" stroke="red" stroke-width="6.660000" />
<circle cx="277.959991" cy="1689.959961" r="19.980000" fill="red">
  <title>Mumbai</title>
</circle><line x1="935.960022" y1="1758.959961" x2="277.959991" y2="1689.959961" stroke="red" stroke-width="6.660000" />
<circle cx="729.960022" cy="312.959991" r="19.980000" fill="red">
  <title>Cairo</title>
</circle><line x1="277.959991" y1="1689.959961" x2="729.960022" y2="312.959991" stroke="red" stroke-width="6.660000" />
<circle cx="1229.959961" cy="164.959991" r="19.980000" fill="red">
  <title>Mexico City</title>
</circle><line x1="729.960022" y1="312.959991" x2="1229.959961" y2="164.959991" stroke="red" stroke-width="6.660000" />
<circle cx="1460.959961" cy="590.960022" r="19.980000" fill="red">
  <title>Delhi</title>
</circle><line x1="1229.959961" y1="164.959991" x2="1460.959961" y2="590.960022" stroke="red" stroke-width="6.660000" />
<circle cx="1430.959961" cy="712.960022" r="19.980000" fill="red">
  <title>São Paulo</title>
</circle><line x1="1460.959961" y1="590.960022" x2="1430.959961" y2="712.960022" stroke="red" stroke-width="6.660000" />
</svg>
