<?xml version="1.0" encoding="UTF-8" standalone="no"?>
<svg width="500" height="500" viewBox="0 0 2074.000000 2074.000000" xmlns="http://www.w3.org/2000/svg">
<rect x="19.000000" y="19.000000" width="2036.000000" height="2036.000000" fill="black" />
<circle cx="1012.960022" cy="480.959991" r="19.980000" fill="red">
  <title>Tokyo</title>
</circle><line x1="541.960022" y1="620.960022" x2="1012.960022" y2="480.959991" stroke="red" stroke-width="6.660000" />
<circle cx="1051.959961" cy="327.959991" r="19.980000" fill="red">
  <title>Beijing</title>
</circle><line x1="1012.960022" y1="480.959991" x2="1051.959961" y2="327.959991" stroke="red" stroke-width="6.660000" />
<circle cx="1349.959961" cy="798.960022" r="19.980000" fill="red">
  <title>Mexico City</title>
</circle><line x1="1051.959961" y1="327.959991" x2="1349.959961" y2="798.960022" stroke="red" stroke-width="6.660000" />
<circle cx="1452.959961" cy="1469.959961" r="19.980000" fill="red">
  <title>Shanghai</title>
</circle><line x1="1349.959961" y1="798.960022" x2="1452.959961" y2="1469.959961" stroke="red" stroke-width="6.660000" />
<circle cx="1383.959961" cy="2026.959961" r="19.980000" fill="red">
  <title>Cairo</title>
</circle><line x1="1452.959961" y1="1469.959961" x2="1383.959961" y2="2026.959961" stroke="red" stroke-width="6.660000" />
<circle cx="103.959999" cy="1974.959961" r="19.980000" fill="red">
  <title>São Paulo</title>
</circle><line x1="1383.959961" y1="2026.959961" x2="103.959999" y2="1974.959961" stroke="red" stroke-width="6.660000" />
<circle cx="662.960022" cy="728.960022" r="19.980000" fill="red">
  <title>Delhi</title>
</circle><line x1="103.959999" y1="1974.959961" x2="662.960022" y2="728.960022" stroke="red" stroke-width="6.660000" />
<circle cx="541.960022" cy="620.960022" r="19.980000" fill="red">
  <title>Mumbai</title>
</circle><line x1="662.960022" y1="728.960022" x2="541.960022" y2="620.960022" stroke="red" stroke-width="6.660000" />
</svg>
