<?xml version="1.0" encoding="UTF-8" standalone="no"?>
<svg width="500" height="500" viewBox="0 0 2074.000000 2074.000000" xmlns="http://www.w3.org/2000/svg">
<rect x="19.000000" y="19.000000" width="2036.000000" height="2036.000000" fill="black" />
<circle cx="913.960022" cy="1034.959961" r="19.980000" fill="red">
  <title>Tokyo</title>
</circle><line x1="1047.959961" y1="1005.960022" x2="913.960022" y2="1034.959961" stroke="red" stroke-width="6.660000" />
<circle cx="959.960022" cy="1091.959961" r="19.980000" fill="red">
  <title>Delhi</title>
</circle><line x1="913.960022" y1="1034.959961" x2="959.960022" y2="1091.959961" stroke="red" stroke-width="6.660000" />
<circle cx="1231.959961" cy="894.960022" r="19.980000" fill="red">
  <title>Buenos Aires</title>
</circle><line x1="959.960022" y1="1091.959961" x2="1231.959961" y2="894.960022" stroke="red" stroke-width="6.660000" />
<circle cx="1546.959961" cy="423.959991" r="19.980000" fill="red">
  <title>Chongqing</title>
</circle><line x1="1231.959961" y1="894.960022" x2="1546.959961" y2="423.959991" stroke="red" stroke-width="6.660000" />
<circle cx="1589.959961" cy="204.959991" r="19.980000" fill="red">
  <title>São Paulo</title>
</circle><line x1="1546.959961" y1="423.959991" x2="1589.959961" y2="204.959991" stroke="red" stroke-width="6.660000" />
<circle cx="1402.959961" cy="140.959991" r="19.980000" fill="red">
  <title>New York</title>
</circle><line x1="1589.959961" y1="204.959991" x2="1402.959961" y2="140.959991" stroke="red" stroke-width="6.660000" />
<circle cx="953.960022" cy="51.959999" r="19.980000" fill="red">
  <title>Istanbul</title>
</circle><line x1="1402.959961" y1="140.959991" x2="953.960022" y2="51.959999" stroke="red" stroke-width="6.660000" />
<circle cx="186.959991" cy="106.959999" r="19.980000" fill="red">
  <title>Cairo</title>
</circle><line x1="953.960022" y1="51.959999" x2="186.959991" y2="106.959999" stroke="red" stroke-width="6.660000" />
<circle cx="122.959999" cy="849.960022" r="19.980000" fill="red">
  <title>Mexico City</title>
</circle><line x1="186.959991" y1="106.959999" x2="122.959999" y2="849.960022" stroke="red" stroke-width="6.660000" />
<circle cx="150.959991" cy="1413.959961" r="19.980000" fill="red">
  <title>Dhaka</title>
</circle><line x1="122.959999" y1="849.960022" x2="150.959991" y2="1413.959961" stroke="red" stroke-width="6.660000" />
<circle cx="84.959999" cy="1827.959961" r="19.980000" fill="red">
  <title>Kolkata</title>
</circle><line x1="150.959991" y1="1413.959961" x2="84.959999" y2="1827.959961" stroke="red" stroke-width="6.660000" />
<circle cx="597.960022" cy="1615.959961" r="19.980000" fill="red">
  <title>Mumbai</title>
</circle><line x1="84.959999" y1="1827.959961" x2="597.960022" y2="1615.959961" stroke="red" stroke-width="6.660000" />
<circle cx="1064.959961" cy="1834.959961" r="19.980000" fill="red">
  <title>Osaka</title>
</circle><line x1="597.960022" y1="1615.959961" x2="1064.959961" y2="1834.959961" stroke="red" stroke-width="6.660000" />
<circle cx="1293.959961" cy="1885.959961" r="19.980000" fill="red">
  <title>Karachi</title>
</circle><line x1="1064.959961" y1="1834.959961" x2="1293.959961" y2="1885.959961" stroke="red" stroke-width="6.660000" />
<circle cx="2026.959961" cy="1561.959961" r="19.980000" fill="red">
  <title>Shanghai</title>
</circle><line x1="1293.959961" y1="1885.959961" x2="2026.959961" y2="1561.959961" stroke="red" stroke-width="6.660000" />
<circle cx="1836.959961" cy="1287.959961" r="19.980000" fill="red">
  <title>Beijing</title>
</circle><line x1="2026.959961" y1="1561.959961" x2="1836.959961" y2="1287.959961" stroke="red" stroke-width="6.660000" />
<circle cx="1047.959961" cy="1005.960022" r="19.980000" fill="red">
  <title>Manila</title>
</circle><line x1="1836.959961" y1="1287.959961" x2="1047.959961" y2="1005.960022" stroke="red" stroke-width="6.660000" />
</svg>
