<?xml version="1.0" encoding="UTF-8" standalone="no"?>
<svg width="500" height="500" viewBox="0 0 2074.000000 2074.000000" xmlns="http://www.w3.org/2000/svg">
<rect x="19.000000" y="19.000000" width="2036.000000" height="2036.000000" fill="black" />
<circle cx="1834.959961" cy="1633.959961" r="19.980000" fill="red">
  <title>Tokyo</title>
</circle><line x1="2006.959961" y1="2026.959961" x2="1834.959961" y2="1633.959961" stroke="red" stroke-width="6.660000" />
<circle cx="1536.959961" cy="674.960022" r="19.980000" fill="red">
  <title>Shanghai</title>
</circle><line x1="1834.959961" y1="1633.959961" x2="1536.959961" y2="674.960022" stroke="red" stroke-width="6.660000" />
<circle cx="1822.959961" cy="246.959991" r="19.980000" fill="red">
  <title>Delhi</title>
</circle><line x1="1536.959961" y1="674.960022" x2="1822.959961" y2="246.959991" stroke="red" stroke-width="6.660000" />
<circle cx="915.960022" cy="622.960022" r="19.980000" fill="red">
  <title>São Paulo</title>
</circle><line x1="1822.959961" y1="246.959991" x2="915.960022" y2="622.960022" stroke="red" stroke-width="6.660000" />
<circle cx="1205.959961" cy="895.960022" r="19.980000" fill="red">
  <title>Beijing</title>
</circle><line x1="915.960022" y1="622.960022" x2="1205.959961" y2="895.960022" stroke="red" stroke-width="6.660000" />
<circle cx="948.960022" cy="1327.959961" r="19.980000" fill="red">
  <title>Osaka</title>
</circle><line x1="1205.959961" y1="895.960022" x2="948.960022" y2="1327.959961" stroke="red" stroke-width="6.660000" />
<circle cx="1190.959961" cy="1509.959961" r="19.980000" fill="red">
  <title>Mexico City</title>
</circle><line x1="948.960022" y1="1327.959961" x2="1190.959961" y2="1509.959961" stroke="red" stroke-width="6.660000" />
<circle cx="1466.959961" cy="1891.959961" r="19.980000" fill="red">
  <title>Mumbai</title>
</circle><line x1="1190.959961" y1="1509.959961" x2="1466.959961" y2="1891.959961" stroke="red" stroke-width="6.660000" />
<circle cx="1692.959961" cy="1760.959961" r="19.980000" fill="red">
  <title>Dhaka</title>
</circle><line x1="1466.959961" y1="1891.959961" x2="1692.959961" y2="1760.959961" stroke="red" stroke-width="6.660000" />
<circle cx="2006.959961" cy="2026.959961" r="19.980000" fill="red">
  <title>Cairo</title>
</circle><line x1="1692.959961" y1="1760.959961" x2="2006.959961" y2="2026.959961" stroke="red" stroke-width="6.660000" />
</svg>
