<?xml version="1.0" encoding="UTF-8" standalone="no"?>
<svg width="500" height="500" viewBox="0 0 2074.000000 2074.000000" xmlns="http://www.w3.org/2000/svg">
<rect x="19.000000" y="19.000000" width="2036.000000" height="2036.000000" fill="black" />
<circle cx="332.959991" cy="1964.959961" r="19.980000" fill="red">
  <title>Tokyo</title>
</circle><line x1="694.960022" y1="1025.959961" x2="332.959991" y2="1964.959961" stroke="red" stroke-width="6.660000" />
<circle cx="487.959991" cy="1456.959961" r="19.980000" fill="red">
  <title>São Paulo</title>
</circle><line x1="332.959991" y1="1964.959961" x2="487.959991" y2="1456.959961" stroke="red" stroke-width="6.660000" />
<circle cx="1536.959961" cy="1237.959961" r="19.980000" fill="red">
  <title>Shanghai</title>
</circle><line x1="487.959991" y1="1456.959961" x2="1536.959961" y2="1237.959961" stroke="red" stroke-width="6.660000" />
<circle cx="1774.959961" cy="916.960022" r="19.980000" fill="red">
  <title>Mexico City</title>
</circle><line x1="1536.959961" y1="1237.959961" x2="1774.959961" y2="916.960022" stroke="red" stroke-width="6.660000" />
<circle cx="1366.959961" cy="1015.960022" r="19.980000" fill="red">
  <title>Delhi</title>
</circle><line x1="1774.959961" y1="916.960022" x2="1366.959961" y2="1015.960022" stroke="red" stroke-width="6.660000" />
<circle cx="694.960022" cy="1025.959961" r="19.980000" fill="red">
  <title>Cairo</title>
</circle><line x1="1366.959961" y1="1015.960022" x2="694.960022" y2="1025.959961" stroke="red" stroke-width="6.660000" />
</svg>
