<?xml version="1.0" encoding="UTF-8" standalone="no"?>
<svg width="500" height="500" viewBox="0 0 2074.000000 2074.000000" xmlns="http://www.w3.org/2000/svg">
<rect x="19.000000" y="19.000000" width="2036.000000" height="2036.000000" fill="black" />
<circle cx="1991.959961" cy="434.959991" r="19.980000" fill="red">
  <title>Tokyo</title>
</circle><line x1="1958.959961" y1="1245.959961" x2="1991.959961" y2="434.959991" stroke="red" stroke-width="6.660000" />
<circle cx="1385.959961" cy="211.959991" r="19.980000" fill="red">
  <title>Beijing</title>
</circle><line x1="1991.959961" y1="434.959991" x2="1385.959961" y2="211.959991" stroke="red" stroke-width="6.660000" />
<circle cx="652.960022" cy="209.959991" r="19.980000" fill="red">
  <title>Mumbai</title>
</circle><line x1="1385.959961" y1="211.959991" x2="652.960022" y2="209.959991" stroke="red" stroke-width="6.660000" />
<circle cx="51.959999" cy="495.959991" r="19.980000" fill="red">
  <title>Shanghai</title>
</circle><line x1="652.960022" y1="209.959991" x2="51.959999" y2="495.959991" stroke="red" stroke-width="6.660000" />
<circle cx="445.959991" cy="1612.959961" r="19.980000" fill="red">
  <title>São Paulo</title>
</circle><line x1="51.959999" y1="495.959991" x2="445.959991" y2="1612.959961" stroke="red" stroke-width="6.660000" />
<circle cx="1092.959961" cy="899.960022" r="19.980000" fill="red">
  <title>Delhi</title>
</circle><line x1="445.959991" y1="1612.959961" x2="1092.959961" y2="899.960022" stroke="red" stroke-width="6.660000" />
<circle cx="1189.959961" cy="1150.959961" r="19.980000" fill="red">
  <title>Dhaka</title>
</circle><line x1="1092.959961" y1="899.960022" x2="1189.959961" y2="1150.959961" stroke="red" stroke-width="6.660000" />
<circle cx="1938.959961" cy="1535.959961" r="19.980000" fill="red">
  <title>Mexico City</title>
</circle><line x1="1189.959961" y1="1150.959961" x2="1938.959961" y2="1535.959961" stroke="red" stroke-width="6.660000" />
<circle cx="1958.959961" cy="1245.959961" r="19.980000" fill="red">
  <title>Cairo</title>
</circle><line x1="1938.959961" y1="1535.959961" x2="1958.959961" y2="1245.959961" stroke="red" stroke-width="6.660000" />
</svg>
