<?xml version="1.0" encoding="UTF-8" standalone="no"?>
<svg width="500" height="500" viewBox="0 0 2074.000000 2074.000000" xmlns="http://www.w3.org/2000/svg">
<rect x="19.000000" y="19.000000" width="2036.000000" height="2036.000000" fill="black" />
<circle cx="544.960022" cy="1668.959961" r="19.980000" fill="red">
  <title>Tokyo</title>
</circle><line x1="174.959991" y1="1740.959961" x2="544.960022" y2="1668.959961" stroke="red" stroke-width="6.660000" />
<circle cx="1376.959961" cy="1805.959961" r="19.980000" fill="red">
  <title>Delhi</title>
</circle><line x1="544.960022" y1="1668.959961" x2="1376.959961" y2="1805.959961" stroke="red" stroke-width="6.660000" />
<circle cx="1713.959961" cy="1696.959961" r="19.980000" fill="red">
  <title>Dhaka</title>
</circle><line x1="1376.959961" y1="1805.959961" x2="1713.959961" y2="1696.959961" stroke="red" stroke-width="6.660000" />
<circle cx="1646.959961" cy="952.960022" r="19.980000" fill="red">
  <title>Osaka</title>
</circle><line x1="1713.959961" y1="1696.959961" x2="1646.959961" y2="952.960022" stroke="red" stroke-width="6.660000" />
<circle cx="1264.959961" cy="1185.959961" r="19.980000" fill="red">
  <title>Mexico City</title>
</circle><line x1="1646.959961" y1="952.960022" x2="1264.959961" y2="1185.959961" stroke="red" stroke-width="6.660000" />
<circle cx="693.960022" cy="475.959991" r="19.980000" fill="red">
  <title>Karachi</title>
</circle><line x1="1264.959961" y1="1185.959961" x2="693.960022" y2="475.959991" stroke="red" stroke-width="6.660000" />
<circle cx="99.959999" cy="220.959991" r="19.980000" fill="red">
  <title>Cairo</title>
</circle><line x1="693.960022" y1="475.959991" x2="99.959999" y2="220.959991" stroke="red" stroke-width="6.660000" />
<circle cx="183.959991" cy="557.960022" r="19.980000" fill="red">
  <title>São Paulo</title>
</circle><line x1="99.959999" y1="220.959991" x2="183.959991" y2="557.960022" stroke="red" stroke-width="6.660000" />
<circle cx="213.959991" cy="782.960022" r="19.980000" fill="red">
  <title>Shanghai</title>
</circle><line x1="183.959991" y1="557.960022" x2="213.959991" y2="782.960022" stroke="red" stroke-width="6.660000" />
<circle cx="183.959991" cy="1026.959961" r="19.980000" fill="red">
  <title>Mumbai</title>
</circle><line x1="213.959991" y1="782.960022" x2="183.959991" y2="1026.959961" stroke="red" stroke-width="6.660000" />
<circle cx="561.960022" cy="1474.959961" r="19.980000" fill="red">
  <title>New York</title>
</circle><line x1="183.959991" y1="1026.959961" x2="561.960022" y2="1474.959961" stroke="red" stroke-width="6.660000" />
<circle cx="174.959991" cy="1740.959961" r="19.980000" fill="red">
  <title>Beijing</title>
</circle><line x1="561.960022" y1="1474.959961" x2="174.959991" y2="1740.959961" stroke="red" stroke-width="6.660000" />
</svg>
