<?xml version="1.0" encoding="UTF-8" standalone="no"?>
<svg width="500" height="500" viewBox="0 0 2074.000000 2074.000000" xmlns="http://www.w3.org/2000/svg">
<rect x="19.000000" y="19.000000" width="2036.000000" height="2036.000000" fill="black" />
<circle cx="1858.959961" cy="1689.959961" r="19.980000" fill="red">
  <title>Tokyo</title>
</circle><line x1="1557.959961" y1="663.960022" x2="1858.959961" y2="1689.959961" stroke="red" stroke-width="6.660000" />
<circle cx="936.960022" cy="1818.959961" r="19.980000" fill="red">
  <title>Mumbai</title>
</circle><line x1="1858.959961" y1="1689.959961" x2="936.960022" y2="1818.959961" stroke="red" stroke-width="6.660000" />
<circle cx="867.960022" cy="1787.959961" r="19.980000" fill="red">
  <title>Shanghai</title>
</circle><line x1="936.960022" y1="1818.959961" x2="867.960022" y2="1787.959961" stroke="red" stroke-width="6.660000" />
<circle cx="702.960022" cy="1374.959961" r="19.980000" fill="red">
  <title>Chongqing</title>
</circle><line x1="867.960022" y1="1787.959961" x2="702.960022" y2="1374.959961" stroke="red" stroke-width="6.660000" />
<circle cx="382.959991" cy="1468.959961" r="19.980000" fill="red">
  <title>Cairo</title>
</circle><line x1="702.960022" y1="1374.959961" x2="382.959991" y2="1468.959961" stroke="red" stroke-width="6.660000" />
<circle cx="164.959991" cy="1258.959961" r="19.980000" fill="red">
  <title>São Paulo</title>
</circle><line x1="382.959991" y1="1468.959961" x2="164.959991" y2="1258.959961" stroke="red" stroke-width="6.660000" />
<circle cx="256.959991" cy="1051.959961" r="19.980000" fill="red">
  <title>Osaka</title>
</circle><line x1="164.959991" y1="1258.959961" x2="256.959991" y2="1051.959961" stroke="red" stroke-width="6.660000" />
<circle cx="496.959991" cy="695.960022" r="19.980000" fill="red">
  <title>Delhi</title>
</circle><line x1="256.959991" y1="1051.959961" x2="496.959991" y2="695.960022" stroke="red" stroke-width="6.660000" />
<circle cx="594.960022" cy="511.959991" r="19.980000" fill="red">
  <title>Dhaka</title>
</circle><line x1="496.959991" y1="695.960022" x2="594.960022" y2="511.959991" stroke="red" stroke-width="6.660000" />
<circle cx="930.960022" cy="572.960022" r="19.980000" fill="red">
  <title>Beijing</title>
</circle><line x1="594.960022" y1="511.959991" x2="930.960022" y2="572.960022" stroke="red" stroke-width="6.660000" />
<circle cx="993.960022" cy="748.960022" r="19.980000" fill="red">
  <title>Mexico City</title>
</circle><line x1="930.960022" y1="572.960022" x2="993.960022" y2="748.960022" stroke="red" stroke-width="6.660000" />
<circle cx="1204.959961" cy="818.960022" r="19.980000" fill="red">
  <title>New York</title>
</circle><line x1="993.960022" y1="748.960022" x2="1204.959961" y2="818.960022" stroke="red" stroke-width="6.660000" />
<circle cx="1887.959961" cy="44.959999" r="19.980000" fill="red">
  <title>Buenos Aires</title>
</circle><line x1="1204.959961" y1="818.960022" x2="1887.959961" y2="44.959999" stroke="red" stroke-width="6.660000" />
<circle cx="1557.959961" cy="663.960022" r="19.980000" fill="red">
  <title>Karachi</title>
</circle><line x1="1887.959961" y1="44.959999" x2="1557.959961" y2="663.960022" stroke="red" stroke-width="6.660000" />
</svg>
