<?xml version="1.0" encoding="UTF-8" standalone="no"?>
<svg width="500" height="500" viewBox="0 0 2074.000000 2074.000000" xmlns="http://www.w3.org/2000/svg">
<rect x="19.000000" y="19.000000" width="2036.000000" height="2036.000000" fill="black" />
<circle cx="1628.959961" cy="1567.959961" r="19.980000" fill="red">
  <title>Tokyo</title>
</circle><line x1="1570.959961" y1="1241.959961" x2="1628.959961" y2="1567.959961" stroke="red" stroke-width="6.660000" />
<circle cx="1879.959961" cy="1215.959961" r="19.980000" fill="red">
  <title>São Paulo</title>
</circle><line x1="1628.959961" y1="1567.959961" x2="1879.959961" y2="1215.959961" stroke="red" stroke-width="6.660000" />
<circle cx="1953.959961" cy="975.960022" r="19.980000" fill="red">
  <title>Mexico City</title>
</circle><line x1="1879.959961" y1="1215.959961" x2="1953.959961" y2="975.960022" stroke="red" stroke-width="6.660000" />
<circle cx="1332.959961" cy="678.960022" r="19.980000" fill="red">
  <title>Delhi</title>
</circle><line x1="1953.959961" y1="975.960022" x2="1332.959961" y2="678.960022" stroke="red" stroke-width="6.660000" />
<circle cx="987.960022" cy="450.959991" r="19.980000" fill="red">
  <title>Osaka</title>
</circle><line x1="1332.959961" y1="678.960022" x2="987.960022" y2="450.959991" stroke="red" stroke-width="6.660000" />
<circle cx="861.960022" cy="320.959991" r="19.980000" fill="red">
  <title>Mumbai</title>
</circle><line x1="987.960022" y1="450.959991" x2="861.960022" y2="320.959991" stroke="red" stroke-width="6.660000" />
<circle cx="615.960022" cy="93.959999" r="19.980000" fill="red">
  <title>Dhaka</title>
</circle><line x1="861.960022" y1="320.959991" x2="615.960022" y2="93.959999" stroke="red" stroke-width="6.660000" />
<circle cx="640.960022" cy="439.959991" r="19.980000" fill="red">
  <title>Cairo</title>
</circle><line x1="615.960022" y1="93.959999" x2="640.960022" y2="439.959991" stroke="red" stroke-width="6.660000" />
<circle cx="737.960022" cy="952.960022" r="19.980000" fill="red">
  <title>Shanghai</title>
</circle><line x1="640.960022" y1="439.959991" x2="737.960022" y2="952.960022" stroke="red" stroke-width="6.660000" />
<circle cx="1570.959961" cy="1241.959961" r="19.980000" fill="red">
  <title>Beijing</title>
</circle><line x1="737.960022" y1="952.960022" x2="1570.959961" y2="1241.959961" stroke="red" stroke-width="6.660000" />
</svg>
