<?xml version="1.0" encoding="UTF-8" standalone="no"?>
<svg width="500" height="500" viewBox="0 0 2074.000000 2074.000000" xmlns="http://www.w3.org/2000/svg">
<rect x="19.000000" y="19.000000" width="2036.000000" height="2036.000000" fill="black" />
<circle cx="818.960022" cy="45.959999" r="19.980000" fill="red">
  <title>Tokyo</title>
</circle><line x1="970.960022" y1="539.960022" x2="818.960022" y2="45.959999" stroke="red" stroke-width="6.660000" />
<circle cx="1227.959961" cy="355.959991" r="19.980000" fill="red">
  <title>Osaka</title>
</circle><line x1="818.960022" y1="45.959999" x2="1227.959961" y2="355.959991" stroke="red" stroke-width="6.660000" />
<circle cx="1996.959961" cy="591.960022" r="19.980000" fill="red">
  <title>Beijing</title>
</circle><line x1="1227.959961" y1="355.959991" x2="1996.959961" y2="591.960022" stroke="red" stroke-width="6.660000" />
<circle cx="1420.959961" cy="855.960022" r="19.980000" fill="red">
  <title>Mumbai</title>
</circle><line x1="1996.959961" y1="591.960022" x2="1420.959961" y2="855.960022" stroke="red" stroke-width="6.660000" />
<circle cx="1693.959961" cy="1546.959961" r="19.980000" fill="red">
  <title>Shanghai</title>
</circle><line x1="1420.959961" y1="855.960022" x2="1693.959961" y2="1546.959961" stroke="red" stroke-width="6.660000" />
<circle cx="1732.959961" cy="1985.959961" r="19.980000" fill="red">
  <title>Delhi</title>
</circle><line x1="1693.959961" y1="1546.959961" x2="1732.959961" y2="1985.959961" stroke="red" stroke-width="6.660000" />
<circle cx="538.960022" cy="1847.959961" r="19.980000" fill="red">
  <title>New York</title>
</circle><line x1="1732.959961" y1="1985.959961" x2="538.960022" y2="1847.959961" stroke="red" stroke-width="6.660000" />
<circle cx="457.959991" cy="1871.959961" r="19.980000" fill="red">
  <title>Cairo</title>
</circle><line x1="538.960022" y1="1847.959961" x2="457.959991" y2="1871.959961" stroke="red" stroke-width="6.660000" />
<circle cx="336.959991" cy="1968.959961" r="19.980000" fill="red">
  <title>Mexico City</title>
</circle><line x1="457.959991" y1="1871.959961" x2="336.959991" y2="1968.959961" stroke="red" stroke-width="6.660000" />
<circle cx="271.959991" cy="1857.959961" r="19.980000" fill="red">
  <title>São Paulo</title>
</circle><line x1="336.959991" y1="1968.959961" x2="271.959991" y2="1857.959961" stroke="red" stroke-width="6.660000" />
<circle cx="440.959991" cy="1420.959961" r="19.980000" fill="red">
  <title>Dhaka</title>
</circle><line x1="271.959991" y1="1857.959961" x2="440.959991" y2="1420.959961" stroke="red" stroke-width="6.660000" />
<circle cx="970.960022" cy="539.960022" r="19.980000" fill="red">
  <title>Karachi</title>
</circle><line x1="440.959991" y1="1420.959961" x2="970.960022" y2="539.960022" stroke="red" stroke-width="6.660000" />
</svg>
