<?xml version="1.0" encoding="UTF-8" standalone="no"?>
<svg width="500" height="500" viewBox="0 0 2074.000000 2074.000000" xmlns="http://www.w3.org/2000/svg">
<rect x="19.000000" y="19.000000" width="2036.000000" height="2036.000000" fill="black" />
<circle cx="1535.959961" cy="89.959999" r="19.980000" fill="red">
  <title>Tokyo</title>
</circle><line x1="1097.959961" y1="706.960022" x2="1535.959961" y2="89.959999" stroke="red" stroke-width="6.660000" />
<circle cx="2036.959961" cy="289.959991" r="19.980000" fill="red">
  <title>Buenos Aires</title>
</circle><line x1="1535.959961" y1="89.959999" x2="2036.959961" y2="289.959991" stroke="red" stroke-width="6.660000" />
<circle cx="1716.959961" cy="1278.959961" r="19.980000" fill="red">
  <title>Karachi</title>
</circle><line x1="2036.959961" y1="289.959991" x2="1716.959961" y2="1278.959961" stroke="red" stroke-width="6.660000" />
<circle cx="1855.959961" cy="1728.959961" r="19.980000" fill="red">
  <title>Osaka</title>
</circle><line x1="1716.959961" y1="1278.959961" x2="1855.959961" y2="1728.959961" stroke="red" stroke-width="6.660000" />
<circle cx="1519.959961" cy="1520.959961" r="19.980000" fill="red">
  <title>Beijing</title>
</circle><line x1="1855.959961" y1="1728.959961" x2="1519.959961" y2="1520.959961" stroke="red" stroke-width="6.660000" />
<circle cx="1236.959961" cy="1048.959961" r="19.980000" fill="red">
  <title>Cairo</title>
</circle><line x1="1519.959961" y1="1520.959961" x2="1236.959961" y2="1048.959961" stroke="red" stroke-width="6.660000" />
<circle cx="990.960022" cy="1256.959961" r="19.980000" fill="red">
  <title>Chongqing</title>
</circle><line x1="1236.959961" y1="1048.959961" x2="990.960022" y2="1256.959961" stroke="red" stroke-width="6.660000" />
<circle cx="1051.959961" cy="1503.959961" r="19.980000" fill="red">
  <title>Delhi</title>
</circle><line x1="990.960022" y1="1256.959961" x2="1051.959961" y2="1503.959961" stroke="red" stroke-width="6.660000" />
<circle cx="724.960022" cy="1475.959961" r="19.980000" fill="red">
  <title>Dhaka</title>
</circle><line x1="1051.959961" y1="1503.959961" x2="724.960022" y2="1475.959961" stroke="red" stroke-width="6.660000" />
<circle cx="101.959999" cy="1793.959961" r="19.980000" fill="red">
  <title>Shanghai</title>
</circle><line x1="724.960022" y1="1475.959961" x2="101.959999" y2="1793.959961" stroke="red" stroke-width="6.660000" />
<circle cx="214.959991" cy="1421.959961" r="19.980000" fill="red">
  <title>Mumbai</title>
</circle><line x1="101.959999" y1="1793.959961" x2="214.959991" y2="1421.959961" stroke="red" stroke-width="6.660000" />
<circle cx="345.959991" cy="1294.959961" r="19.980000" fill="red">
  <title>Mexico City</title>
</circle><line x1="214.959991" y1="1421.959961" x2="345.959991" y2="1294.959961" stroke="red" stroke-width="6.660000" />
<circle cx="382.959991" cy="304.959991" r="19.980000" fill="red">
  <title>New York</title>
</circle><line x1="345.959991" y1="1294.959961" x2="382.959991" y2="304.959991" stroke="red" stroke-width="6.660000" />
<circle cx="714.960022" cy="712.960022" r="19.980000" fill="red">
  <title>São Paulo</title>
</circle><line x1="382.959991" y1="304.959991" x2="714.960022" y2="712.960022" stroke="red" stroke-width="6.660000" />
<circle cx="1097.959961" cy="706.960022" r="19.980000" fill="red">
  <title>Istanbul</title>
</circle><line x1="714.960022" y1="712.960022" x2="1097.959961" y2="706.960022" stroke="red" stroke-width="6.660000" />
</svg>
