<?xml version="1.0" encoding="UTF-8" standalone="no"?>
<svg width="500" height="500" viewBox="0 0 2074.000000 2074.000000" xmlns="http://www.w3.org/2000/svg">
<rect x="19.000000" y="19.000000" width="2036.000000" height="2036.000000" fill="black" />
<circle cx="1672.959961" cy="1570.959961" r="19.980000" fill="red">
  <title>Tokyo</title>
</circle><line x1="1763.959961" y1="357.959991" x2="1672.959961" y2="1570.959961" stroke="red" stroke-width="6.660000" />
<circle cx="1272.959961" cy="1152.959961" r="19.980000" fill="red">
  <title>Cairo</title>
</circle><line x1="1672.959961" y1="1570.959961" x2="1272.959961" y2="1152.959961" stroke="red" stroke-width="6.660000" />
<circle cx="662.960022" cy="1135.959961" r="19.980000" fill="red">
  <title>Mumbai</title>
</circle><line x1="1272.959961" y1="1152.959961" x2="662.960022" y2="1135.959961" stroke="red" stroke-width="6.660000" />
<circle cx="307.959991" cy="1785.959961" r="19.980000" fill="red">
  <title>Delhi</title>
</circle><line x1="662.960022" y1="1135.959961" x2="307.959991" y2="1785.959961" stroke="red" stroke-width="6.660000" />
<circle cx="487.959991" cy="1926.959961" r="19.980000" fill="red">
  <title>Karachi</title>
</circle><line x1="307.959991" y1="1785.959961" x2="487.959991" y2="1926.959961" stroke="red" stroke-width="6.660000" />
<circle cx="308.959991" cy="1991.959961" r="19.980000" fill="red">
  <title>Beijing</title>
</circle><line x1="487.959991" y1="1926.959961" x2="308.959991" y2="1991.959961" stroke="red" stroke-width="6.660000" />
<circle cx="302.959991" cy="1788.959961" r="19.980000" fill="red">
  <title>Shanghai</title>
</circle><line x1="308.959991" y1="1991.959961" x2="302.959991" y2="1788.959961" stroke="red" stroke-width="6.660000" />
<circle cx="116.959999" cy="1014.960022" r="19.980000" fill="red">
  <title>Mexico City</title>
</circle><line x1="302.959991" y1="1788.959961" x2="116.959999" y2="1014.960022" stroke="red" stroke-width="6.660000" />
<circle cx="634.960022" cy="902.960022" r="19.980000" fill="red">
  <title>Osaka</title>
</circle><line x1="116.959999" y1="1014.960022" x2="634.960022" y2="902.960022" stroke="red" stroke-width="6.660000" />
<circle cx="468.959991" cy="232.959991" r="19.980000" fill="red">
  <title>São Paulo</title>
</circle><line x1="634.960022" y1="902.960022" x2="468.959991" y2="232.959991" stroke="red" stroke-width="6.660000" />
<circle cx="665.960022" cy="261.959991" r="19.980000" fill="red">
  <title>Dhaka</title>
</circle><line x1="468.959991" y1="232.959991" x2="665.960022" y2="261.959991" stroke="red" stroke-width="6.660000" />
<circle cx="1763.959961" cy="357.959991" r="19.980000" fill="red">
  <title>New York</title>
</circle><line x1="665.960022" y1="261.959991" x2="1763.959961" y2="357.959991" stroke="red" stroke-width="6.660000" />
</svg>
