<?xml version="1.0" encoding="UTF-8" standalone="no"?>
<svg width="500" height="500" viewBox="0 0 2074.000000 2074.000000" xmlns="http://www.w3.org/2000/svg">
<rect x="19.000000" y="19.000000" width="2036.000000" height="2036.000000" fill="black" />
<circle cx="365.959991" cy="680.960022" r="19.980000" fill="red">
  <title>Tokyo</title>
</circle><line x1="973.960022" y1="901.960022" x2="365.959991" y2="680.960022" stroke="red" stroke-width="6.660000" />
<circle cx="1633.959961" cy="210.959991" r="19.980000" fill="red">
  <title>Shanghai</title>
</circle><line x1="365.959991" y1="680.960022" x2="1633.959961" y2="210.959991" stroke="red" stroke-width="6.660000" />
<circle cx="1764.959961" cy="246.959991" r="19.980000" fill="red">
  <title>São Paulo</title>
</circle><line x1="1633.959961" y1="210.959991" x2="1764.959961" y2="246.959991" stroke="red" stroke-width="6.660000" />
<circle cx="1681.959961" cy="342.959991" r="19.980000" fill="red">
  <title>Delhi</title>
</circle><line x1="1764.959961" y1="246.959991" x2="1681.959961" y2="342.959991" stroke="red" stroke-width="6.660000" />
<circle cx="1395.959961" cy="1045.959961" r="19.980000" fill="red">
  <title>Mexico City</title>
</circle><line x1="1681.959961" y1="342.959991" x2="1395.959961" y2="1045.959961" stroke="red" stroke-width="6.660000" />
<circle cx="973.960022" cy="901.960022" r="19.980000" fill="red">
  <title>Cairo</title>
</circle><line x1="1395.959961" y1="1045.959961" x2="973.960022" y2="901.960022" stroke="red" stroke-width="6.660000" />
</svg>
