<?xml version="1.0" encoding="UTF-8" standalone="no"?>
<svg width="500" height="500" viewBox="0 0 2074.000000 2074.000000" xmlns="http://www.w3.org/2000/svg">
<rect x="19.000000" y="19.000000" width="2036.000000" height="2036.000000" fill="black" />
<circle cx="1782.959961" cy="57.959999" r="19.980000" fill="red">
  <title>Tokyo</title>
</circle><line x1="333.959991" y1="1494.959961" x2="1782.959961" y2="57.959999" stroke="red" stroke-width="6.660000" />
<circle cx="1898.959961" cy="421.959991" r="19.980000" fill="red">
  <title>Shanghai</title>
</circle><line x1="1782.959961" y1="57.959999" x2="1898.959961" y2="421.959991" stroke="red" stroke-width="6.660000" />
<circle cx="1954.959961" cy="1205.959961" r="19.980000" fill="red">
  <title>São Paulo</title>
</circle><line x1="1898.959961" y1="421.959991" x2="1954.959961" y2="1205.959961" stroke="red" stroke-width="6.660000" />
<circle cx="1756.959961" cy="1493.959961" r="19.980000" fill="red">
  <title>Delhi</title>
</circle><line x1="1954.959961" y1="1205.959961" x2="1756.959961" y2="1493.959961" stroke="red" stroke-width="6.660000" />
<circle cx="333.959991" cy="1494.959961" r="19.980000" fill="red">
  <title>Mexico City</title>
</circle><line x1="1756.959961" y1="1493.959961" x2="333.959991" y2="1494.959961" stroke="red" stroke-width="6.660000" />
</svg>
