<?xml version="1.0" encoding="UTF-8" standalone="no"?>
<svg width="500" height="500" viewBox="0 0 2074.000000 2074.000000" xmlns="http://www.w3.org/2000/svg">
<rect x="19.000000" y="19.000000" width="2036.000000" height="2036.000000" fill="black" />
<circle cx="808.960022" cy="1244.959961" r="19.980000" fill="red">
  <title>Tokyo</title>
</circle><line x1="589.960022" y1="1245.959961" x2="808.960022" y2="1244.959961" stroke="red" stroke-width="6.660000" />
<circle cx="898.960022" cy="1134.959961" r="19.980000" fill="red">
  <title>Buenos Aires</title>
</circle><line x1="808.960022" y1="1244.959961" x2="898.960022" y2="1134.959961" stroke="red" stroke-width="6.660000" />
<circle cx="987.960022" cy="1230.959961" r="19.980000" fill="red">
  <title>Istanbul</title>
</circle><line x1="898.960022" y1="1134.959961" x2="987.960022" y2="1230.959961" stroke="red" stroke-width="6.660000" />
<circle cx="1002.960022" cy="1426.959961" r="19.980000" fill="red">
  <title>Shanghai</title>
</circle><line x1="987.960022" y1="1230.959961" x2="1002.960022" y2="1426.959961" stroke="red" stroke-width="6.660000" />
<circle cx="1004.960022" cy="1400.959961" r="19.980000" fill="red">
  <title>Lagos</title>
</circle><line x1="1002.960022" y1="1426.959961" x2="1004.960022" y2="1400.959961" stroke="red" stroke-width="6.660000" />
<circle cx="709.960022" cy="1624.959961" r="19.980000" fill="red">
  <title>Beijing</title>
</circle><line x1="1004.960022" y1="1400.959961" x2="709.960022" y2="1624.959961" stroke="red" stroke-width="6.660000" />
<circle cx="237.959991" cy="1993.959961" r="19.980000" fill="red">
  <title>Osaka</title>
</circle><line x1="709.960022" y1="1624.959961" x2="237.959991" y2="1993.959961" stroke="red" stroke-width="6.660000" />
<circle cx="676.960022" cy="2012.959961" r="19.980000" fill="red">
  <title>Cairo</title>
</circle><line x1="237.959991" y1="1993.959961" x2="676.960022" y2="2012.959961" stroke="red" stroke-width="6.660000" />
<circle cx="1196.959961" cy="1757.959961" r="19.980000" fill="red">
  <title>Kolkata</title>
</circle><line x1="676.960022" y1="2012.959961" x2="1196.959961" y2="1757.959961" stroke="red" stroke-width="6.660000" />
<circle cx="1457.959961" cy="1284.959961" r="19.980000" fill="red">
  <title>Delhi</title>
</circle><line x1="1196.959961" y1="1757.959961" x2="1457.959961" y2="1284.959961" stroke="red" stroke-width="6.660000" />
<circle cx="1827.959961" cy="1560.959961" r="19.980000" fill="red">
  <title>Dhaka</title>
</circle><line x1="1457.959961" y1="1284.959961" x2="1827.959961" y2="1560.959961" stroke="red" stroke-width="6.660000" />
<circle cx="2003.959961" cy="1114.959961" r="19.980000" fill="red">
  <title>Rio de Janeiro</title>
</circle><line x1="1827.959961" y1="1560.959961" x2="2003.959961" y2="1114.959961" stroke="red" stroke-width="6.660000" />
<circle cx="1621.959961" cy="543.960022" r="19.980000" fill="red">
  <title>Mumbai</title>
</circle><line x1="2003.959961" y1="1114.959961" x2="1621.959961" y2="543.960022" stroke="red" stroke-width="6.660000" />
<circle cx="1144.959961" cy="665.960022" r="19.980000" fill="red">
  <title>Mexico City</title>
</circle><line x1="1621.959961" y1="543.960022" x2="1144.959961" y2="665.960022" stroke="red" stroke-width="6.660000" />
<circle cx="437.959991" cy="616.960022" r="19.980000" fill="red">
  <title>Manila</title>
</circle><line x1="1144.959961" y1="665.960022" x2="437.959991" y2="616.960022" stroke="red" stroke-width="6.660000" />
<circle cx="354.959991" cy="489.959991" r="19.980000" fill="red">
  <title>Karachi</title>
</circle><line x1="437.959991" y1="616.960022" x2="354.959991" y2="489.959991" stroke="red" stroke-width="6.660000" />
<circle cx="133.959991" cy="668.960022" r="19.980000" fill="red">
  <title>New York</title>
</circle><line x1="354.959991" y1="489.959991" x2="133.959991" y2="668.960022" stroke="red" stroke-width="6.660000" />
<circle cx="148.959991" cy="1083.959961" r="19.980000" fill="red">
  <title>São Paulo</title>
</circle><line x1="133.959991" y1="668.960022" x2="148.959991" y2="1083.959961" stroke="red" stroke-width="6.660000" />
<circle cx="445.959991" cy="1109.959961" r="19.980000" fill="red">
  <title>Tianjin</title>
</circle><line x1="148.959991" y1="1083.959961" x2="445.959991" y2="1109.959961" stroke="red" stroke-width="6.660000" />
<circle cx="589.960022" cy="1245.959961" r="19.980000" fill="red">
  <title>Chongqing</title>
</circle><line x1="445.959991" y1="1109.959961" x2="589.960022" y2="1245.959961" stroke="red" stroke-width="6.660000" />
</svg>
