<?xml version="1.0" encoding="UTF-8" standalone="no"?>
<svg width="500" height="500" viewBox="0 0 2074.000000 2074.000000" xmlns="http://www.w3.org/2000/svg">
<rect x="19.000000" y="19.000000" width="2036.000000" height="2036.000000" fill="black" />
<circle cx="1750.959961" cy="245.959991" r="19.980000" fill="red">
  <title>Tokyo</title>
</circle><line x1="1727.959961" y1="640.960022" x2="1750.959961" y2="245.959991" stroke="red" stroke-width="6.660000" />
<circle cx="1809.959961" cy="215.959991" r="19.980000" fill="red">
  <title>Delhi</title>
</circle><line x1="1750.959961" y1="245.959991" x2="1809.959961" y2="215.959991" stroke="red" stroke-width="6.660000" />
<circle cx="1618.959961" cy="386.959991" r="19.980000" fill="red">
  <title>Buenos Aires</title>
</circle><line x1="1809.959961" y1="215.959991" x2="1618.959961" y2="386.959991" stroke="red" stroke-width="6.660000" />
<circle cx="1056.959961" cy="140.959991" r="19.980000" fill="red">
  <title>Karachi</title>
</circle><line x1="1618.959961" y1="386.959991" x2="1056.959961" y2="140.959991" stroke="red" stroke-width="6.660000" />
<circle cx="1032.959961" cy="262.959991" r="19.980000" fill="red">
  <title>Tianjin</title>
</circle><line x1="1056.959961" y1="140.959991" x2="1032.959961" y2="262.959991" stroke="red" stroke-width="6.660000" />
<circle cx="1032.959961" cy="416.959991" r="19.980000" fill="red">
  <title>Rio de Janeiro</title>
</circle><line x1="1032.959961" y1="262.959991" x2="1032.959961" y2="416.959991" stroke="red" stroke-width="6.660000" />
<circle cx="913.960022" cy="444.959991" r="19.980000" fill="red">
  <title>Manila</title>
</circle><line x1="1032.959961" y1="416.959991" x2="913.960022" y2="444.959991" stroke="red" stroke-width="6.660000" />
<circle cx="727.960022" cy="430.959991" r="19.980000" fill="red">
  <title>Lagos</title>
</circle><line x1="913.960022" y1="444.959991" x2="727.960022" y2="430.959991" stroke="red" stroke-width="6.660000" />
<circle cx="672.960022" cy="550.960022" r="19.980000" fill="red">
  <title>Kolkata</title>
</circle><line x1="727.960022" y1="430.959991" x2="672.960022" y2="550.960022" stroke="red" stroke-width="6.660000" />
<circle cx="838.960022" cy="706.960022" r="19.980000" fill="red">
  <title>Istanbul</title>
</circle><line x1="672.960022" y1="550.960022" x2="838.960022" y2="706.960022" stroke="red" stroke-width="6.660000" />
<circle cx="1167.959961" cy="1400.959961" r="19.980000" fill="red">
  <title>Dhaka</title>
</circle><line x1="838.960022" y1="706.960022" x2="1167.959961" y2="1400.959961" stroke="red" stroke-width="6.660000" />
<circle cx="1147.959961" cy="1434.959961" r="19.980000" fill="red">
  <title>Beijing</title>
</circle><line x1="1167.959961" y1="1400.959961" x2="1147.959961" y2="1434.959961" stroke="red" stroke-width="6.660000" />
<circle cx="1108.959961" cy="1619.959961" r="19.980000" fill="red">
  <title>Mumbai</title>
</circle><line x1="1147.959961" y1="1434.959961" x2="1108.959961" y2="1619.959961" stroke="red" stroke-width="6.660000" />
<circle cx="1267.959961" cy="1435.959961" r="19.980000" fill="red">
  <title>Mexico City</title>
</circle><line x1="1108.959961" y1="1619.959961" x2="1267.959961" y2="1435.959961" stroke="red" stroke-width="6.660000" />
<circle cx="1387.959961" cy="1541.959961" r="19.980000" fill="red">
  <title>Cairo</title>
</circle><line x1="1267.959961" y1="1435.959961" x2="1387.959961" y2="1541.959961" stroke="red" stroke-width="6.660000" />
<circle cx="1810.959961" cy="1165.959961" r="19.980000" fill="red">
  <title>New York</title>
</circle><line x1="1387.959961" y1="1541.959961" x2="1810.959961" y2="1165.959961" stroke="red" stroke-width="6.660000" />
<circle cx="1769.959961" cy="1145.959961" r="19.980000" fill="red">
  <title>Osaka</title>
</circle><line x1="1810.959961" y1="1165.959961" x2="1769.959961" y2="1145.959961" stroke="red" stroke-width="6.660000" />
<circle cx="1419.959961" cy="778.960022" r="19.980000" fill="red">
  <title>Chongqing</title>
</circle><line x1="1769.959961" y1="1145.959961" x2="1419.959961" y2="778.960022" stroke="red" stroke-width="6.660000" />
<circle cx="1555.959961" cy="627.960022" r="19.980000" fill="red">
  <title>Shanghai</title>
</circle><line x1="1419.959961" y1="778.960022" x2="1555.959961" y2="627.960022" stroke="red" stroke-width="6.660000" />
<circle cx="1727.959961" cy="640.960022" r="19.980000" fill="red">
  <title>São Paulo</title>
</circle><line x1="1555.959961" y1="627.960022" x2="1727.959961" y2="640.960022" stroke="red" stroke-width="6.660000" />
</svg>
