<?xml version="1.0" encoding="UTF-8" standalone="no"?>
<svg width="500" height="500" viewBox="0 0 2074.000000 2074.000000" xmlns="http://www.w3.org/2000/svg">
<rect x="19.000000" y="19.000000" width="2036.000000" height="2036.000000" fill="black" />
<circle cx="1076.959961" cy="1970.959961" r="19.980000" fill="red">
  <title>Tokyo</title>
</circle><line x1="1836.959961" y1="2001.959961" x2="1076.959961" y2="1970.959961" stroke="red" stroke-width="6.660000" />
<circle cx="1047.959961" cy="1471.959961" r="19.980000" fill="red">
  <title>Delhi</title>
</circle><line x1="1076.959961" y1="1970.959961" x2="1047.959961" y2="1471.959961" stroke="red" stroke-width="6.660000" />
<circle cx="1182.959961" cy="1295.959961" r="19.980000" fill="red">
  <title>Karachi</title>
</circle><line x1="1047.959961" y1="1471.959961" x2="1182.959961" y2="1295.959961" stroke="red" stroke-width="6.660000" />
<circle cx="1201.959961" cy="1094.959961" r="19.980000" fill="red">
  <title>Mumbai</title>
</circle><line x1="1182.959961" y1="1295.959961" x2="1201.959961" y2="1094.959961" stroke="red" stroke-width="6.660000" />
<circle cx="900.960022" cy="971.960022" r="19.980000" fill="red">
  <title>Rio de Janeiro</title>
</circle><line x1="1201.959961" y1="1094.959961" x2="900.960022" y2="971.960022" stroke="red" stroke-width="6.660000" />
<circle cx="840.960022" cy="1357.959961" r="19.980000" fill="red">
  <title>Mexico City</title>
</circle><line x1="900.960022" y1="971.960022" x2="840.960022" y2="1357.959961" stroke="red" stroke-width="6.660000" />
<circle cx="836.960022" cy="1397.959961" r="19.980000" fill="red">
  <title>Beijing</title>
</circle><line x1="840.960022" y1="1357.959961" x2="836.960022" y2="1397.959961" stroke="red" stroke-width="6.660000" />
<circle cx="461.959991" cy="1230.959961" r="19.980000" fill="red">
  <title>Cairo</title>
</circle><line x1="836.960022" y1="1397.959961" x2="461.959991" y2="1230.959961" stroke="red" stroke-width="6.660000" />
<circle cx="480.959991" cy="895.960022" r="19.980000" fill="red">
  <title>Manila</title>
</circle><line x1="461.959991" y1="1230.959961" x2="480.959991" y2="895.960022" stroke="red" stroke-width="6.660000" />
<circle cx="53.959999" cy="333.959991" r="19.980000" fill="red">
  <title>Dhaka</title>
</circle><line x1="480.959991" y1="895.960022" x2="53.959999" y2="333.959991" stroke="red" stroke-width="6.660000" />
<circle cx="313.959991" cy="44.959999" r="19.980000" fill="red">
  <title>Shanghai</title>
</circle><line x1="53.959999" y1="333.959991" x2="313.959991" y2="44.959999" stroke="red" stroke-width="6.660000" />
<circle cx="1026.959961" cy="515.960022" r="19.980000" fill="red">
  <title>São Paulo</title>
</circle><line x1="313.959991" y1="44.959999" x2="1026.959961" y2="515.960022" stroke="red" stroke-width="6.660000" />
<circle cx="1512.959961" cy="547.960022" r="19.980000" fill="red">
  <title>Istanbul</title>
</circle><line x1="1026.959961" y1="515.960022" x2="1512.959961" y2="547.960022" stroke="red" stroke-width="6.660000" />
<circle cx="1820.959961" cy="135.959991" r="19.980000" fill="red">
  <title>New York</title>
</circle><line x1="1512.959961" y1="547.960022" x2="1820.959961" y2="135.959991" stroke="red" stroke-width="6.660000" />
<circle cx="1885.959961" cy="550.960022" r="19.980000" fill="red">
  <title>Kolkata</title>
</circle><line x1="1820.959961" y1="135.959991" x2="1885.959961" y2="550.960022" stroke="red" stroke-width="6.660000" />
<circle cx="1849.959961" cy="574.960022" r="19.980000" fill="red">
  <title>Osaka</title>
</circle><line x1="1885.959961" y1="550.960022" x2="1849.959961" y2="574.960022" stroke="red" stroke-width="6.660000" />
<circle cx="1983.959961" cy="754.960022" r="19.980000" fill="red">
  <title>Lagos</title>
</circle><line x1="1849.959961" y1="574.960022" x2="1983.959961" y2="754.960022" stroke="red" stroke-width="6.660000" />
<circle cx="1734.959961" cy="1027.959961" r="19.980000" fill="red">
  <title>Buenos Aires</title>
</circle><line x1="1983.959961" y1="754.960022" x2="1734.959961" y2="1027.959961" stroke="red" stroke-width="6.660000" />
<circle cx="1836.959961" cy="2001.959961" r="19.980000" fill="red">
  <title>Chongqing</title>
</circle><line x1="1734.959961" y1="1027.959961" x2="1836.959961" y2="2001.959961" stroke="red" stroke-width="6.660000" />
</svg>
