<?xml version="1.0" encoding="UTF-8" standalone="no"?>
<svg width="500" height="500" viewBox="0 0 2074.000000 2074.000000" xmlns="http://www.w3.org/2000/svg">
<rect x="19.000000" y="19.000000" width="2036.000000" height="2036.000000" fill="black" />
<circle cx="508.959991" cy="907.960022" r="19.980000" fill="red">
  <title>Tokyo</title>
</circle><line x1="219.959991" y1="181.959991" x2="508.959991" y2="907.960022" stroke="red" stroke-width="6.660000" />
<circle cx="221.959991" cy="1228.959961" r="19.980000" fill="red">
  <title>Shanghai</title>
</circle><line x1="508.959991" y1="907.960022" x2="221.959991" y2="1228.959961" stroke="red" stroke-width="6.660000" />
<circle cx="143.959991" cy="1743.959961" r="19.980000" fill="red">
  <title>Buenos Aires</title>
</circle><line x1="221.959991" y1="1228.959961" x2="143.959991" y2="1743.959961" stroke="red" stroke-width="6.660000" />
<circle cx="934.960022" cy="1122.959961" r="19.980000" fill="red">
  <title>Mexico City</title>
</circle><line x1="143.959991" y1="1743.959961" x2="934.960022" y2="1122.959961" stroke="red" stroke-width="6.660000" />
<circle cx="1341.959961" cy="1384.959961" r="19.980000" fill="red">
  <title>Beijing</title>
</circle><line x1="934.960022" y1="1122.959961" x2="1341.959961" y2="1384.959961" stroke="red" stroke-width="6.660000" />
<circle cx="1570.959961" cy="2032.959961" r="19.980000" fill="red">
  <title>Delhi</title>
</circle><line x1="1341.959961" y1="1384.959961" x2="1570.959961" y2="2032.959961" stroke="red" stroke-width="6.660000" />
<circle cx="1761.959961" cy="1507.959961" r="19.980000" fill="red">
  <title>Dhaka</title>
</circle><line x1="1570.959961" y1="2032.959961" x2="1761.959961" y2="1507.959961" stroke="red" stroke-width="6.660000" />
<circle cx="1541.959961" cy="1314.959961" r="19.980000" fill="red">
  <title>Karachi</title>
</circle><line x1="1761.959961" y1="1507.959961" x2="1541.959961" y2="1314.959961" stroke="red" stroke-width="6.660000" />
<circle cx="1301.959961" cy="1216.959961" r="19.980000" fill="red">
  <title>Osaka</title>
</circle><line x1="1541.959961" y1="1314.959961" x2="1301.959961" y2="1216.959961" stroke="red" stroke-width="6.660000" />
<circle cx="1099.959961" cy="709.960022" r="19.980000" fill="red">
  <title>Cairo</title>
</circle><line x1="1301.959961" y1="1216.959961" x2="1099.959961" y2="709.960022" stroke="red" stroke-width="6.660000" />
<circle cx="1261.959961" cy="298.959991" r="19.980000" fill="red">
  <title>São Paulo</title>
</circle><line x1="1099.959961" y1="709.960022" x2="1261.959961" y2="298.959991" stroke="red" stroke-width="6.660000" />
<circle cx="407.959991" cy="214.959991" r="19.980000" fill="red">
  <title>New York</title>
</circle><line x1="1261.959961" y1="298.959991" x2="407.959991" y2="214.959991" stroke="red" stroke-width="6.660000" />
<circle cx="219.959991" cy="181.959991" r="19.980000" fill="red">
  <title>Mumbai</title>
</circle><line x1="407.959991" y1="214.959991" x2="219.959991" y2="181.959991" stroke="red" stroke-width="6.660000" />
</svg>
