<?xml version="1.0" encoding="UTF-8" standalone="no"?>
<svg width="500" height="500" viewBox="0 0 2074.000000 2074.000000" xmlns="http://www.w3.org/2000/svg">
<rect x="19.000000" y="19.000000" width="2036.000000" height="2036.000000" fill="black" />
<circle cx="204.959991" cy="1959.959961" r="19.980000" fill="red">
  <title>Tokyo</title>
</circle><line x1="1283.959961" y1="2027.959961" x2="204.959991" y2="1959.959961" stroke="red" stroke-width="6.660000" />
<circle cx="444.959991" cy="814.960022" r="19.980000" fill="red">
  <title>Dhaka</title>
</circle><line x1="204.959991" y1="1959.959961" x2="444.959991" y2="814.960022" stroke="red" stroke-width="6.660000" />
<circle cx="535.960022" cy="715.960022" r="19.980000" fill="red">
  <title>Cairo</title>
</circle><line x1="444.959991" y1="814.960022" x2="535.960022" y2="715.960022" stroke="red" stroke-width="6.660000" />
<circle cx="257.959991" cy="450.959991" r="19.980000" fill="red">
  <title>Delhi</title>
</circle><line x1="535.960022" y1="715.960022" x2="257.959991" y2="450.959991" stroke="red" stroke-width="6.660000" />
<circle cx="588.960022" cy="223.959991" r="19.980000" fill="red">
  <title>Mumbai</title>
</circle><line x1="257.959991" y1="450.959991" x2="588.960022" y2="223.959991" stroke="red" stroke-width="6.660000" />
<circle cx="1222.959961" cy="142.959991" r="19.980000" fill="red">
  <title>Karachi</title>
</circle><line x1="588.960022" y1="223.959991" x2="1222.959961" y2="142.959991" stroke="red" stroke-width="6.660000" />
<circle cx="1697.959961" cy="306.959991" r="19.980000" fill="red">
  <title>São Paulo</title>
</circle><line x1="1222.959961" y1="142.959991" x2="1697.959961" y2="306.959991" stroke="red" stroke-width="6.660000" />
<circle cx="1955.959961" cy="470.959991" r="19.980000" fill="red">
  <title>Shanghai</title>
</circle><line x1="1697.959961" y1="306.959991" x2="1955.959961" y2="470.959991" stroke="red" stroke-width="6.660000" />
<circle cx="1493.959961" cy="1390.959961" r="19.980000" fill="red">
  <title>Mexico City</title>
</circle><line x1="1955.959961" y1="470.959991" x2="1493.959961" y2="1390.959961" stroke="red" stroke-width="6.660000" />
<circle cx="1076.959961" cy="1415.959961" r="19.980000" fill="red">
  <title>Beijing</title>
</circle><line x1="1493.959961" y1="1390.959961" x2="1076.959961" y2="1415.959961" stroke="red" stroke-width="6.660000" />
<circle cx="1400.959961" cy="1853.959961" r="19.980000" fill="red">
  <title>Osaka</title>
</circle><line x1="1076.959961" y1="1415.959961" x2="1400.959961" y2="1853.959961" stroke="red" stroke-width="6.660000" />
<circle cx="1283.959961" cy="2027.959961" r="19.980000" fill="red">
  <title>New York</title>
</circle><line x1="1400.959961" y1="1853.959961" x2="1283.959961" y2="2027.959961" stroke="red" stroke-width="6.660000" />
</svg>
