<?xml version="1.0" encoding="UTF-8" standalone="no"?>
<svg width="500" height="500" viewBox="0 0 2074.000000 2074.000000" xmlns="http://www.w3.org/2000/svg">
<rect x="19.000000" y="19.000000" width="2036.000000" height="2036.000000" fill="black" />
<circle cx="931.960022" cy="1988.959961" r="19.980000" fill="red">
  <title>Tokyo</title>
</circle><line x1="1141.959961" y1="1233.959961" x2="931.960022" y2="1988.959961" stroke="red" stroke-width="6.660000" />
<circle cx="619.960022" cy="1247.959961" r="19.980000" fill="red">
  <title>Mumbai</title>
</circle><line x1="931.960022" y1="1988.959961" x2="619.960022" y2="1247.959961" stroke="red" stroke-width="6.660000" />
<circle cx="329.959991" cy="1386.959961" r="19.980000" fill="red">
  <title>Chongqing</title>
</circle><line x1="619.960022" y1="1247.959961" x2="329.959991" y2="1386.959961" stroke="red" stroke-width="6.660000" />
<circle cx="228.959991" cy="1420.959961" r="19.980000" fill="red">
  <title>Cairo</title>
</circle><line x1="329.959991" y1="1386.959961" x2="228.959991" y2="1420.959961" stroke="red" stroke-width="6.660000" />
<circle cx="127.959999" cy="639.960022" r="19.980000" fill="red">
  <title>Shanghai</title>
</circle><line x1="228.959991" y1="1420.959961" x2="127.959999" y2="639.960022" stroke="red" stroke-width="6.660000" />
<circle cx="280.959991" cy="595.960022" r="19.980000" fill="red">
  <title>Buenos Aires</title>
</circle><line x1="127.959999" y1="639.960022" x2="280.959991" y2="595.960022" stroke="red" stroke-width="6.660000" />
<circle cx="914.960022" cy="70.959999" r="19.980000" fill="red">
  <title>New York</title>
</circle><line x1="280.959991" y1="595.960022" x2="914.960022" y2="70.959999" stroke="red" stroke-width="6.660000" />
<circle cx="1380.959961" cy="560.960022" r="19.980000" fill="red">
  <title>Dhaka</title>
</circle><line x1="914.960022" y1="70.959999" x2="1380.959961" y2="560.960022" stroke="red" stroke-width="6.660000" />
<circle cx="1771.959961" cy="316.959991" r="19.980000" fill="red">
  <title>Mexico City</title>
</circle><line x1="1380.959961" y1="560.960022" x2="1771.959961" y2="316.959991" stroke="red" stroke-width="6.660000" />
<circle cx="1764.959961" cy="672.960022" r="19.980000" fill="red">
  <title>São Paulo</title>
</circle><line x1="1771.959961" y1="316.959991" x2="1764.959961" y2="672.960022" stroke="red" stroke-width="6.660000" />
<circle cx="1670.959961" cy="974.960022" r="19.980000" fill="red">
  <title>Karachi</title>
</circle><line x1="1764.959961" y1="672.960022" x2="1670.959961" y2="974.960022" stroke="red" stroke-width="6.660000" />
<circle cx="1398.959961" cy="1026.959961" r="19.980000" fill="red">
  <title>Beijing</title>
</circle><line x1="1670.959961" y1="974.960022" x2="1398.959961" y2="1026.959961" stroke="red" stroke-width="6.660000" />
<circle cx="1093.959961" cy="1069.959961" r="19.980000" fill="red">
  <title>Delhi</title>
</circle><line x1="1398.959961" y1="1026.959961" x2="1093.959961" y2="1069.959961" stroke="red" stroke-width="6.660000" />
<circle cx="1141.959961" cy="1233.959961" r="19.980000" fill="red">
  <title>Osaka</title>
</circle><line x1="1093.959961" y1="1069.959961" x2="1141.959961" y2="1233.959961" stroke="red" stroke-width="6.660000" />
</svg>
