<?xml version="1.0" encoding="UTF-8" standalone="no"?>
<svg width="500" height="500" viewBox="0 0 2074.000000 2074.000000" xmlns="http://www.w3.org/2000/svg">
<rect x="19.000000" y="19.000000" width="2036.000000" height="2036.000000" fill="black" />
<circle cx="494.959991" cy="1245.959961" r="19.980000" fill="red">
  <title>Tokyo</title>
</circle><line x1="944.960022" y1="1019.960022" x2="494.959991" y2="1245.959961" stroke="red" stroke-width="6.660000" />
<circle cx="446.959991" cy="1440.959961" r="19.980000" fill="red">
  <title>Chongqing</title>
</circle><line x1="494.959991" y1="1245.959961" x2="446.959991" y2="1440.959961" stroke="red" stroke-width="6.660000" />
<circle cx="66.959999" cy="1773.959961" r="19.980000" fill="red">
  <title>São Paulo</title>
</circle><line x1="446.959991" y1="1440.959961" x2="66.959999" y2="1773.959961" stroke="red" stroke-width="6.660000" />
<circle cx="164.959991" cy="1736.959961" r="19.980000" fill="red">
  <title>Istanbul</title>
</circle><line x1="66.959999" y1="1773.959961" x2="164.959991" y2="1736.959961" stroke="red" stroke-width="6.660000" />
<circle cx="626.960022" cy="1657.959961" r="19.980000" fill="red">
  <title>Shanghai</title>
</circle><line x1="164.959991" y1="1736.959961" x2="626.960022" y2="1657.959961" stroke="red" stroke-width="6.660000" />
<circle cx="1787.959961" cy="1881.959961" r="19.980000" fill="red">
  <title>Dhaka</title>
</circle><line x1="626.960022" y1="1657.959961" x2="1787.959961" y2="1881.959961" stroke="red" stroke-width="6.660000" />
<circle cx="1950.959961" cy="1477.959961" r="19.980000" fill="red">
  <title>Delhi</title>
</circle><line x1="1787.959961" y1="1881.959961" x2="1950.959961" y2="1477.959961" stroke="red" stroke-width="6.660000" />
<circle cx="1948.959961" cy="608.960022" r="19.980000" fill="red">
  <title>Cairo</title>
</circle><line x1="1950.959961" y1="1477.959961" x2="1948.959961" y2="608.960022" stroke="red" stroke-width="6.660000" />
<circle cx="1855.959961" cy="337.959991" r="19.980000" fill="red">
  <title>Osaka</title>
</circle><line x1="1948.959961" y1="608.960022" x2="1855.959961" y2="337.959991" stroke="red" stroke-width="6.660000" />
<circle cx="1730.959961" cy="174.959991" r="19.980000" fill="red">
  <title>Mumbai</title>
</circle><line x1="1855.959961" y1="337.959991" x2="1730.959961" y2="174.959991" stroke="red" stroke-width="6.660000" />
<circle cx="1383.959961" cy="631.960022" r="19.980000" fill="red">
  <title>New York</title>
</circle><line x1="1730.959961" y1="174.959991" x2="1383.959961" y2="631.960022" stroke="red" stroke-width="6.660000" />
<circle cx="1400.959961" cy="689.960022" r="19.980000" fill="red">
  <title>Beijing</title>
</circle><line x1="1383.959961" y1="631.960022" x2="1400.959961" y2="689.960022" stroke="red" stroke-width="6.660000" />
<circle cx="1106.959961" cy="619.960022" r="19.980000" fill="red">
  <title>Kolkata</title>
</circle><line x1="1400.959961" y1="689.960022" x2="1106.959961" y2="619.960022" stroke="red" stroke-width="6.660000" />
<circle cx="488.959991" cy="308.959991" r="19.980000" fill="red">
  <title>Buenos Aires</title>
</circle><line x1="1106.959961" y1="619.960022" x2="488.959991" y2="308.959991" stroke="red" stroke-width="6.660000" />
<circle cx="444.959991" cy="571.960022" r="19.980000" fill="red">
  <title>Mexico City</title>
</circle><line x1="488.959991" y1="308.959991" x2="444.959991" y2="571.960022" stroke="red" stroke-width="6.660000" />
<circle cx="1032.959961" cy="905.960022" r="19.980000" fill="red">
  <title>Karachi</title>
</circle><line x1="444.959991" y1="571.960022" x2="1032.959961" y2="905.960022" stroke="red" stroke-width="6.660000" />
<circle cx="944.960022" cy="1019.960022" r="19.980000" fill="red">
  <title>Manila</title>
</circle><line x1="1032.959961" y1="905.960022" x2="944.960022" y2="1019.960022" stroke="red" stroke-width="6.660000" />
</svg>
