<?xml version="1.0" encoding="UTF-8" standalone="no"?>
<svg width="500" height="500" viewBox="0 0 2074.000000 2074.000000" xmlns="http://www.w3.org/2000/svg">
<rect x="19.000000" y="19.000000" width="2036.000000" height="2036.000000" fill="black" />
<circle cx="534.960022" cy="1470.959961" r="19.980000" fill="red">
  <title>Tokyo</title>
</circle><line x1="249.959991" y1="524.960022" x2="534.960022" y2="1470.959961" stroke="red" stroke-width="6.660000" />
<circle cx="1105.959961" cy="1887.959961" r="19.980000" fill="red">
  <title>Shanghai</title>
</circle><line x1="534.960022" y1="1470.959961" x2="1105.959961" y2="1887.959961" stroke="red" stroke-width="6.660000" />
<circle cx="88.959999" cy="1966.959961" r="19.980000" fill="red">
  <title>Delhi</title>
</circle><line x1="1105.959961" y1="1887.959961" x2="88.959999" y2="1966.959961" stroke="red" stroke-width="6.660000" />
<circle cx="340.959991" cy="988.960022" r="19.980000" fill="red">
  <title>São Paulo</title>
</circle><line x1="88.959999" y1="1966.959961" x2="340.959991" y2="988.960022" stroke="red" stroke-width="6.660000" />
<circle cx="249.959991" cy="524.960022" r="19.980000" fill="red">
  <title>Mexico City</title>
</circle><line x1="340.959991" y1="988.960022" x2="249.959991" y2="524.960022" stroke="red" stroke-width="6.660000" />
</svg>
