<?xml version="1.0" encoding="UTF-8" standalone="no"?>
<svg width="500" height="500" viewBox="0 0 2074.000000 2074.000000" xmlns="http://www.w3.org/2000/svg">
<rect x="19.000000" y="19.000000" width="2036.000000" height="2036.000000" fill="black" />
<circle cx="827.960022" cy="509.959991" r="19.980000" fill="red">
  <title>Tokyo</title>
</circle><line x1="550.960022" y1="1388.959961" x2="827.960022" y2="509.959991" stroke="red" stroke-width="6.660000" />
<circle cx="884.960022" cy="1748.959961" r="19.980000" fill="red">
  <title>Delhi</title>
</circle><line x1="827.960022" y1="509.959991" x2="884.960022" y2="1748.959961" stroke="red" stroke-width="6.660000" />
<circle cx="1111.959961" cy="1826.959961" r="19.980000" fill="red">
  <title>Shanghai</title>
</circle><line x1="884.960022" y1="1748.959961" x2="1111.959961" y2="1826.959961" stroke="red" stroke-width="6.660000" />
<circle cx="550.960022" cy="1388.959961" r="19.980000" fill="red">
  <title>São Paulo</title>
</circle><line x1="1111.959961" y1="1826.959961" x2="550.960022" y2="1388.959961" stroke="red" stroke-width="6.660000" />
</svg>
