<?xml version="1.0" encoding="UTF-8" standalone="no"?>
<svg width="500" height="500" viewBox="0 0 2074.000000 2074.000000" xmlns="http://www.w3.org/2000/svg">
<rect x="19.000000" y="19.000000" width="2036.000000" height="2036.000000" fill="black" />
<circle cx="1520.959961" cy="49.959999" r="19.980000" fill="red">
  <title>Tokyo</title>
</circle><line x1="1815.959961" y1="1019.960022" x2="1520.959961" y2="49.959999" stroke="red" stroke-width="6.660000" />
<circle cx="68.959999" cy="562.960022" r="19.980000" fill="red">
  <title>Delhi</title>
</circle><line x1="1520.959961" y1="49.959999" x2="68.959999" y2="562.960022" stroke="red" stroke-width="6.660000" />
<circle cx="567.960022" cy="620.960022" r="19.980000" fill="red">
  <title>São Paulo</title>
</circle><line x1="68.959999" y1="562.960022" x2="567.960022" y2="620.960022" stroke="red" stroke-width="6.660000" />
<circle cx="1878.959961" cy="1799.959961" r="19.980000" fill="red">
  <title>Shanghai</title>
</circle><line x1="567.960022" y1="620.960022" x2="1878.959961" y2="1799.959961" stroke="red" stroke-width="6.660000" />
<circle cx="1815.959961" cy="1019.960022" r="19.980000" fill="red">
  <title>Mexico City</title>
</circle><line x1="1878.959961" y1="1799.959961" x2="1815.959961" y2="1019.960022" stroke="red" stroke-width="6.660000" />
</svg>
