<?xml version="1.0" encoding="UTF-8" standalone="no"?>
<svg width="500" height="500" viewBox="0 0 2074.000000 2074.000000" xmlns="http://www.w3.org/2000/svg">
<rect x="19.000000" y="19.000000" width="2036.000000" height="2036.000000" fill="black" />
<circle cx="1068.959961" cy="278.959991" r="19.980000" fill="red">
  <title>Tokyo</title>
</circle><line x1="996.960022" y1="1243.959961" x2="1068.959961" y2="278.959991" stroke="red" stroke-width="6.660000" />
<circle cx="277.959991" cy="124.959999" r="19.980000" fill="red">
  <title>Cairo</title>
</circle><line x1="1068.959961" y1="278.959991" x2="277.959991" y2="124.959999" stroke="red" stroke-width="6.660000" />
<circle cx="45.959999" cy="1391.959961" r="19.980000" fill="red">
  <title>Beijing</title>
</circle><line x1="277.959991" y1="124.959999" x2="45.959999" y2="1391.959961" stroke="red" stroke-width="6.660000" />
<circle cx="560.960022" cy="1333.959961" r="19.980000" fill="red">
  <title>Shanghai</title>
</circle><line x1="45.959999" y1="1391.959961" x2="560.960022" y2="1333.959961" stroke="red" stroke-width="6.660000" />
<circle cx="645.960022" cy="1708.959961" r="19.980000" fill="red">
  <title>São Paulo</title>
</circle><line x1="560.960022" y1="1333.959961" x2="645.960022" y2="1708.959961" stroke="red" stroke-width="6.660000" />
<circle cx="1405.959961" cy="1614.959961" r="19.980000" fill="red">
  <title>Delhi</title>
</circle><line x1="645.960022" y1="1708.959961" x2="1405.959961" y2="1614.959961" stroke="red" stroke-width="6.660000" />
<circle cx="1138.959961" cy="1306.959961" r="19.980000" fill="red">
  <title>Mexico City</title>
</circle><line x1="1405.959961" y1="1614.959961" x2="1138.959961" y2="1306.959961" stroke="red" stroke-width="6.660000" />
<circle cx="996.960022" cy="1243.959961" r="19.980000" fill="red">
  <title>Mumbai</title>
</circle><line x1="1138.959961" y1="1306.959961" x2="996.960022" y2="1243.959961" stroke="red" stroke-width="6.660000" />
</svg>
