<?xml version="1.0" encoding="UTF-8" standalone="no"?>
<svg width="500" height="500" viewBox="0 0 2074.000000 2074.000000" xmlns="http://www.w3.org/2000/svg">
<rect x="19.000000" y="19.000000" width="2036.000000" height="2036.000000" fill="black" />
<circle cx="514.960022" cy="1715.959961" r="19.980000" fill="red">
  <title>Tokyo</title>
</circle><line x1="728.960022" y1="1350.959961" x2="514.960022" y2="1715.959961" stroke="red" stroke-width="6.660000" />
<circle cx="784.960022" cy="1459.959961" r="19.980000" fill="red">
  <title>Dhaka</title>
</circle><line x1="514.960022" y1="1715.959961" x2="784.960022" y2="1459.959961" stroke="red" stroke-width="6.660000" />
<circle cx="1170.959961" cy="1378.959961" r="19.980000" fill="red">
  <title>Osaka</title>
</circle><line x1="784.960022" y1="1459.959961" x2="1170.959961" y2="1378.959961" stroke="red" stroke-width="6.660000" />
<circle cx="1968.959961" cy="1575.959961" r="19.980000" fill="red">
  <title>Beijing</title>
</circle><line x1="1170.959961" y1="1378.959961" x2="1968.959961" y2="1575.959961" stroke="red" stroke-width="6.660000" />
<circle cx="1630.959961" cy="1225.959961" r="19.980000" fill="red">
  <title>Mexico City</title>
</circle><line x1="1968.959961" y1="1575.959961" x2="1630.959961" y2="1225.959961" stroke="red" stroke-width="6.660000" />
<circle cx="1265.959961" cy="1024.959961" r="19.980000" fill="red">
  <title>New York</title>
</circle><line x1="1630.959961" y1="1225.959961" x2="1265.959961" y2="1024.959961" stroke="red" stroke-width="6.660000" />
<circle cx="1355.959961" cy="504.959991" r="19.980000" fill="red">
  <title>São Paulo</title>
</circle><line x1="1265.959961" y1="1024.959961" x2="1355.959961" y2="504.959991" stroke="red" stroke-width="6.660000" />
<circle cx="1782.959961" cy="78.959999" r="19.980000" fill="red">
  <title>Mumbai</title>
</circle><line x1="1355.959961" y1="504.959991" x2="1782.959961" y2="78.959999" stroke="red" stroke-width="6.660000" />
<circle cx="683.960022" cy="227.959991" r="19.980000" fill="red">
  <title>Cairo</title>
</circle><line x1="1782.959961" y1="78.959999" x2="683.960022" y2="227.959991" stroke="red" stroke-width="6.660000" />
<circle cx="409.959991" cy="421.959991" r="19.980000" fill="red">
  <title>Delhi</title>
</circle><line x1="683.960022" y1="227.959991" x2="409.959991" y2="421.959991" stroke="red" stroke-width="6.660000" />
<circle cx="177.959991" cy="943.960022" r="19.980000" fill="red">
  <title>Shanghai</title>
</circle><line x1="409.959991" y1="421.959991" x2="177.959991" y2="943.960022" stroke="red" stroke-width="6.660000" />
<circle cx="728.960022" cy="1350.959961" r="19.980000" fill="red">
  <title>Karachi</title>
</circle><line x1="177.959991" y1="943.960022" x2="728.960022" y2="1350.959961" stroke="red" stroke-width="6.660000" />
</svg>
