<?xml version="1.0" encoding="UTF-8" standalone="no"?>
<svg width="500" height="500" viewBox="0 0 2074.000000 2074.000000" xmlns="http://www.w3.org/2000/svg">
<rect x="19.000000" y="19.000000" width="2036.000000" height="2036.000000" fill="black" />
<circle cx="47.959999" cy="1808.959961" r="19.980000" fill="red">
  <title>Tokyo</title>
</circle><line x1="953.960022" y1="206.959991" x2="47.959999" y2="1808.959961" stroke="red" stroke-width="6.660000" />
<circle cx="808.960022" cy="1880.959961" r="19.980000" fill="red">
  <title>São Paulo</title>
</circle><line x1="47.959999" y1="1808.959961" x2="808.960022" y2="1880.959961" stroke="red" stroke-width="6.660000" />
<circle cx="1728.959961" cy="1844.959961" r="19.980000" fill="red">
  <title>Delhi</title>
</circle><line x1="808.960022" y1="1880.959961" x2="1728.959961" y2="1844.959961" stroke="red" stroke-width="6.660000" />
<circle cx="942.960022" cy="1537.959961" r="19.980000" fill="red">
  <title>Shanghai</title>
</circle><line x1="1728.959961" y1="1844.959961" x2="942.960022" y2="1537.959961" stroke="red" stroke-width="6.660000" />
<circle cx="953.960022" cy="206.959991" r="19.980000" fill="red">
  <title>Mexico City</title>
</circle><line x1="942.960022" y1="1537.959961" x2="953.960022" y2="206.959991" stroke="red" stroke-width="6.660000" />
</svg>
