<?xml version="1.0" encoding="UTF-8" standalone="no"?>
<svg width="500" height="500" viewBox="0 0 2074.000000 2074.000000" xmlns="http://www.w3.org/2000/svg">
<rect x="19.000000" y="19.000000" width="2036.000000" height="2036.000000" fill="black" />
<circle cx="1573.959961" cy="1627.959961" r="19.980000" fill="red">
  <title>Tokyo</title>
</circle><line x1="1383.959961" y1="1196.959961" x2="1573.959961" y2="1627.959961" stroke="red" stroke-width="6.660000" />
<circle cx="2011.959961" cy="1870.959961" r="19.980000" fill="red">
  <title>Delhi</title>
</circle><line x1="1573.959961" y1="1627.959961" x2="2011.959961" y2="1870.959961" stroke="red" stroke-width="6.660000" />
<circle cx="1842.959961" cy="1838.959961" r="19.980000" fill="red">
  <title>New York</title>
</circle><line x1="2011.959961" y1="1870.959961" x2="1842.959961" y2="1838.959961" stroke="red" stroke-width="6.660000" />
<circle cx="1408.959961" cy="1716.959961" r="19.980000" fill="red">
  <title>Cairo</title>
</circle><line x1="1842.959961" y1="1838.959961" x2="1408.959961" y2="1716.959961" stroke="red" stroke-width="6.660000" />
<circle cx="1000.960022" cy="1595.959961" r="19.980000" fill="red">
  <title>Buenos Aires</title>
</circle><line x1="1408.959961" y1="1716.959961" x2="1000.960022" y2="1595.959961" stroke="red" stroke-width="6.660000" />
<circle cx="697.960022" cy="1335.959961" r="19.980000" fill="red">
  <title>Mumbai</title>
</circle><line x1="1000.960022" y1="1595.959961" x2="697.960022" y2="1335.959961" stroke="red" stroke-width="6.660000" />
<circle cx="470.959991" cy="1551.959961" r="19.980000" fill="red">
  <title>Osaka</title>
</circle><line x1="697.960022" y1="1335.959961" x2="470.959991" y2="1551.959961" stroke="red" stroke-width="6.660000" />
<circle cx="93.959999" cy="1620.959961" r="19.980000" fill="red">
  <title>Lagos</title>
</circle><line x1="470.959991" y1="1551.959961" x2="93.959999" y2="1620.959961" stroke="red" stroke-width="6.660000" />
<circle cx="421.959991" cy="1306.959961" r="19.980000" fill="red">
  <title>Dhaka</title>
</circle><line x1="93.959999" y1="1620.959961" x2="421.959991" y2="1306.959961" stroke="red" stroke-width="6.660000" />
<circle cx="494.959991" cy="1036.959961" r="19.980000" fill="red">
  <title>Chongqing</title>
</circle><line x1="421.959991" y1="1306.959961" x2="494.959991" y2="1036.959961" stroke="red" stroke-width="6.660000" />
<circle cx="310.959991" cy="770.960022" r="19.980000" fill="red">
  <title>Manila</title>
</circle><line x1="494.959991" y1="1036.959961" x2="310.959991" y2="770.960022" stroke="red" stroke-width="6.660000" />
<circle cx="725.960022" cy="721.960022" r="19.980000" fill="red">
  <title>Istanbul</title>
</circle><line x1="310.959991" y1="770.960022" x2="725.960022" y2="721.960022" stroke="red" stroke-width="6.660000" />
<circle cx="1027.959961" cy="789.960022" r="19.980000" fill="red">
  <title>Mexico City</title>
</circle><line x1="725.960022" y1="721.960022" x2="1027.959961" y2="789.960022" stroke="red" stroke-width="6.660000" />
<circle cx="870.960022" cy="550.960022" r="19.980000" fill="red">
  <title>Karachi</title>
</circle><line x1="1027.959961" y1="789.960022" x2="870.960022" y2="550.960022" stroke="red" stroke-width="6.660000" />
<circle cx="797.960022" cy="261.959991" r="19.980000" fill="red">
  <title>Kolkata</title>
</circle><line x1="870.960022" y1="550.960022" x2="797.960022" y2="261.959991" stroke="red" stroke-width="6.660000" />
<circle cx="1348.959961" cy="375.959991" r="19.980000" fill="red">
  <title>Shanghai</title>
</circle><line x1="797.960022" y1="261.959991" x2="1348.959961" y2="375.959991" stroke="red" stroke-width="6.660000" />
<circle cx="1569.959961" cy="1016.960022" r="19.980000" fill="red">
  <title>Beijing</title>
</circle><line x1="1348.959961" y1="375.959991" x2="1569.959961" y2="1016.960022" stroke="red" stroke-width="6.660000" />
<circle cx="1383.959961" cy="1196.959961" r="19.980000" fill="red">
  <title>São Paulo</title>
</circle><line x1="1569.959961" y1="1016.960022" x2="1383.959961" y2="1196.959961" stroke="red" stroke-width="6.660000" />
</svg>
