<?xml version="1.0" encoding="UTF-8" standalone="no"?>
<svg width="500" height="500" viewBox="0 0 2074.000000 2074.000000" xmlns="http://www.w3.org/2000/svg">
<rect x="19.000000" y="19.000000" width="2036.000000" height="2036.000000" fill="black" />
<circle cx="1378.959961" cy="556.960022" r="19.980000" fill="red">
  <title>Tokyo</title>
</circle><line x1="1966.959961" y1="272.959991" x2="1378.959961" y2="556.960022" stroke="red" stroke-width="6.660000" />
<circle cx="135.959991" cy="860.960022" r="19.980000" fill="red">
  <title>Delhi</title>
</circle><line x1="1378.959961" y1="556.960022" x2="135.959991" y2="860.960022" stroke="red" stroke-width="6.660000" />
<circle cx="1418.959961" cy="205.959991" r="19.980000" fill="red">
  <title>Shanghai</title>
</circle><line x1="135.959991" y1="860.960022" x2="1418.959961" y2="205.959991" stroke="red" stroke-width="6.660000" />
<circle cx="1966.959961" cy="272.959991" r="19.980000" fill="red">
  <title>São Paulo</title>
</circle><line x1="1418.959961" y1="205.959991" x2="1966.959961" y2="272.959991" stroke="red" stroke-width="6.660000" />
</svg>
