<?xml version="1.0" encoding="UTF-8" standalone="no"?>
<svg width="500" height="500" viewBox="0 0 2074.000000 2074.000000" xmlns="http://www.w3.org/2000/svg">
<rect x="19.000000" y="19.000000" width="2036.000000" height="2036.000000" fill="black" />
<circle cx="1343.959961" cy="68.959999" r="19.980000" fill="red">
  <title>Tokyo</title>
</circle><line x1="1761.959961" y1="207.959991" x2="1343.959961" y2="68.959999" stroke="red" stroke-width="6.660000" />
<circle cx="1345.959961" cy="87.959999" r="19.980000" fill="red">
  <title>New York</title>
</circle><line x1="1343.959961" y1="68.959999" x2="1345.959961" y2="87.959999" stroke="red" stroke-width="6.660000" />
<circle cx="1433.959961" cy="284.959991" r="19.980000" fill="red">
  <title>Osaka</title>
</circle><line x1="1345.959961" y1="87.959999" x2="1433.959961" y2="284.959991" stroke="red" stroke-width="6.660000" />
<circle cx="1317.959961" cy="600.960022" r="19.980000" fill="red">
  <title>Delhi</title>
</circle><line x1="1433.959961" y1="284.959991" x2="1317.959961" y2="600.960022" stroke="red" stroke-width="6.660000" />
<circle cx="957.960022" cy="824.960022" r="19.980000" fill="red">
  <title>Shanghai</title>
</circle><line x1="1317.959961" y1="600.960022" x2="957.960022" y2="824.960022" stroke="red" stroke-width="6.660000" />
<circle cx="457.959991" cy="278.959991" r="19.980000" fill="red">
  <title>Karachi</title>
</circle><line x1="957.960022" y1="824.960022" x2="457.959991" y2="278.959991" stroke="red" stroke-width="6.660000" />
<circle cx="197.959991" cy="1493.959961" r="19.980000" fill="red">
  <title>São Paulo</title>
</circle><line x1="457.959991" y1="278.959991" x2="197.959991" y2="1493.959961" stroke="red" stroke-width="6.660000" />
<circle cx="1113.959961" cy="1733.959961" r="19.980000" fill="red">
  <title>Dhaka</title>
</circle><line x1="197.959991" y1="1493.959961" x2="1113.959961" y2="1733.959961" stroke="red" stroke-width="6.660000" />
<circle cx="1542.959961" cy="1955.959961" r="19.980000" fill="red">
  <title>Chongqing</title>
</circle><line x1="1113.959961" y1="1733.959961" x2="1542.959961" y2="1955.959961" stroke="red" stroke-width="6.660000" />
<circle cx="1268.959961" cy="1297.959961" r="19.980000" fill="red">
  <title>Cairo</title>
</circle><line x1="1542.959961" y1="1955.959961" x2="1268.959961" y2="1297.959961" stroke="red" stroke-width="6.660000" />
<circle cx="1508.959961" cy="1329.959961" r="19.980000" fill="red">
  <title>Mexico City</title>
</circle><line x1="1268.959961" y1="1297.959961" x2="1508.959961" y2="1329.959961" stroke="red" stroke-width="6.660000" />
<circle cx="1658.959961" cy="1230.959961" r="19.980000" fill="red">
  <title>Beijing</title>
</circle><line x1="1508.959961" y1="1329.959961" x2="1658.959961" y2="1230.959961" stroke="red" stroke-width="6.660000" />
<circle cx="1931.959961" cy="993.960022" r="19.980000" fill="red">
  <title>Mumbai</title>
</circle><line x1="1658.959961" y1="1230.959961" x2="1931.959961" y2="993.960022" stroke="red" stroke-width="6.660000" />
<circle cx="1892.959961" cy="603.960022" r="19.980000" fill="red">
  <title>Istanbul</title>
</circle><line x1="1931.959961" y1="993.960022" x2="1892.959961" y2="603.960022" stroke="red" stroke-width="6.660000" />
<circle cx="1761.959961" cy="207.959991" r="19.980000" fill="red">
  <title>Buenos Aires</title>
</circle><line x1="1892.959961" y1="603.960022" x2="1761.959961" y2="207.959991" stroke="red" stroke-width="6.660000" />
</svg>
