<?xml version="1.0" encoding="UTF-8" standalone="no"?>
<svg width="500" height="500" viewBox="0 0 2074.000000 2074.000000" xmlns="http://www.w3.org/2000/svg">
<rect x="19.000000" y="19.000000" width="2036.000000" height="2036.000000" fill="black" />
<circle cx="239.959991" cy="1787.959961" r="19.980000" fill="red">
  <title>Tokyo</title>
</circle><line x1="1362.959961" y1="1230.959961" x2="239.959991" y2="1787.959961" stroke="red" stroke-width="6.660000" />
<circle cx="578.960022" cy="1097.959961" r="19.980000" fill="red">
  <title>Delhi</title>
</circle><line x1="239.959991" y1="1787.959961" x2="578.960022" y2="1097.959961" stroke="red" stroke-width="6.660000" />
<circle cx="332.959991" cy="71.959999" r="19.980000" fill="red">
  <title>Shanghai</title>
</circle><line x1="578.960022" y1="1097.959961" x2="332.959991" y2="71.959999" stroke="red" stroke-width="6.660000" />
<circle cx="730.960022" cy="85.959999" r="19.980000" fill="red">
  <title>Osaka</title>
</circle><line x1="332.959991" y1="71.959999" x2="730.960022" y2="85.959999" stroke="red" stroke-width="6.660000" />
<circle cx="901.960022" cy="397.959991" r="19.980000" fill="red">
  <title>Beijing</title>
</circle><line x1="730.960022" y1="85.959999" x2="901.960022" y2="397.959991" stroke="red" stroke-width="6.660000" />
<circle cx="1074.959961" cy="720.960022" r="19.980000" fill="red">
  <title>Cairo</title>
</circle><line x1="901.960022" y1="397.959991" x2="1074.959961" y2="720.960022" stroke="red" stroke-width="6.660000" />
<circle cx="1324.959961" cy="956.960022" r="19.980000" fill="red">
  <title>Mexico City</title>
</circle><line x1="1074.959961" y1="720.960022" x2="1324.959961" y2="956.960022" stroke="red" stroke-width="6.660000" />
<circle cx="1608.959961" cy="1233.959961" r="19.980000" fill="red">
  <title>Dhaka</title>
</circle><line x1="1324.959961" y1="956.960022" x2="1608.959961" y2="1233.959961" stroke="red" stroke-width="6.660000" />
<circle cx="1868.959961" cy="1781.959961" r="19.980000" fill="red">
  <title>São Paulo</title>
</circle><line x1="1608.959961" y1="1233.959961" x2="1868.959961" y2="1781.959961" stroke="red" stroke-width="6.660000" />
<circle cx="1362.959961" cy="1230.959961" r="19.980000" fill="red">
  <title>Mumbai</title>
</circle><line x1="1868.959961" y1="1781.959961" x2="1362.959961" y2="1230.959961" stroke="red" stroke-width="6.660000" />
</svg>
