<?xml version="1.0" encoding="UTF-8" standalone="no"?>
<svg width="500" height="500" viewBox="0 0 2074.000000 2074.000000" xmlns="http://www.w3.org/2000/svg">
<rect x="19.000000" y="19.000000" width="2036.000000" height="2036.000000" fill="black" />
<circle cx="1961.959961" cy="278.959991" r="19.980000" fill="red">
  <title>Tokyo</title>
</circle><line x1="1919.959961" y1="48.959999" x2="1961.959961" y2="278.959991" stroke="red" stroke-width="6.660000" />
<circle cx="1734.959961" cy="1421.959961" r="19.980000" fill="red">
  <title>Cairo</title>
</circle><line x1="1961.959961" y1="278.959991" x2="1734.959961" y2="1421.959961" stroke="red" stroke-width="6.660000" />
<circle cx="1809.959961" cy="1563.959961" r="19.980000" fill="red">
  <title>Karachi</title>
</circle><line x1="1734.959961" y1="1421.959961" x2="1809.959961" y2="1563.959961" stroke="red" stroke-width="6.660000" />
<circle cx="1737.959961" cy="1550.959961" r="19.980000" fill="red">
  <title>Mumbai</title>
</circle><line x1="1809.959961" y1="1563.959961" x2="1737.959961" y2="1550.959961" stroke="red" stroke-width="6.660000" />
<circle cx="1137.959961" cy="1068.959961" r="19.980000" fill="red">
  <title>Istanbul</title>
</circle><line x1="1737.959961" y1="1550.959961" x2="1137.959961" y2="1068.959961" stroke="red" stroke-width="6.660000" />
<circle cx="833.960022" cy="1116.959961" r="19.980000" fill="red">
  <title>Mexico City</title>
</circle><line x1="1137.959961" y1="1068.959961" x2="833.960022" y2="1116.959961" stroke="red" stroke-width="6.660000" />
<circle cx="415.959991" cy="1758.959961" r="19.980000" fill="red">
  <title>Buenos Aires</title>
</circle><line x1="833.960022" y1="1116.959961" x2="415.959991" y2="1758.959961" stroke="red" stroke-width="6.660000" />
<circle cx="48.959999" cy="1837.959961" r="19.980000" fill="red">
  <title>Osaka</title>
</circle><line x1="415.959991" y1="1758.959961" x2="48.959999" y2="1837.959961" stroke="red" stroke-width="6.660000" />
<circle cx="286.959991" cy="1601.959961" r="19.980000" fill="red">
  <title>Chongqing</title>
</circle><line x1="48.959999" y1="1837.959961" x2="286.959991" y2="1601.959961" stroke="red" stroke-width="6.660000" />
<circle cx="590.960022" cy="684.960022" r="19.980000" fill="red">
  <title>Dhaka</title>
</circle><line x1="286.959991" y1="1601.959961" x2="590.960022" y2="684.960022" stroke="red" stroke-width="6.660000" />
<circle cx="138.959991" cy="305.959991" r="19.980000" fill="red">
  <title>Shanghai</title>
</circle><line x1="590.960022" y1="684.960022" x2="138.959991" y2="305.959991" stroke="red" stroke-width="6.660000" />
<circle cx="734.960022" cy="153.959991" r="19.980000" fill="red">
  <title>Beijing</title>
</circle><line x1="138.959991" y1="305.959991" x2="734.960022" y2="153.959991" stroke="red" stroke-width="6.660000" />
<circle cx="1121.959961" cy="496.959991" r="19.980000" fill="red">
  <title>São Paulo</title>
</circle><line x1="734.960022" y1="153.959991" x2="1121.959961" y2="496.959991" stroke="red" stroke-width="6.660000" />
<circle cx="1785.959961" cy="262.959991" r="19.980000" fill="red">
  <title>Delhi</title>
</circle><line x1="1121.959961" y1="496.959991" x2="1785.959961" y2="262.959991" stroke="red" stroke-width="6.660000" />
<circle cx="1919.959961" cy="48.959999" r="19.980000" fill="red">
  <title>New York</title>
</circle><line x1="1785.959961" y1="262.959991" x2="1919.959961" y2="48.959999" stroke="red" stroke-width="6.660000" />
</svg>
