<?xml version="1.0" encoding="UTF-8" standalone="no"?>
<svg width="500" height="500" viewBox="0 0 2074.000000 2074.000000" xmlns="http://www.w3.org/2000/svg">
<rect x="19.000000" y="19.000000" width="2036.000000" height="2036.000000" fill="black" />
<circle cx="380.959991" cy="465.959991" r="19.980000" fill="red">
  <title>Tokyo</title>
</circle><line x1="744.960022" y1="443.959991" x2="380.959991" y2="465.959991" stroke="red" stroke-width="6.660000" />
<circle cx="571.960022" cy="959.960022" r="19.980000" fill="red">
  <title>Shanghai</title>
</circle><line x1="380.959991" y1="465.959991" x2="571.960022" y2="959.960022" stroke="red" stroke-width="6.660000" />
<circle cx="664.960022" cy="1980.959961" r="19.980000" fill="red">
  <title>São Paulo</title>
</circle><line x1="571.960022" y1="959.960022" x2="664.960022" y2="1980.959961" stroke="red" stroke-width="6.660000" />
<circle cx="1056.959961" cy="1982.959961" r="19.980000" fill="red">
  <title>Delhi</title>
</circle><line x1="664.960022" y1="1980.959961" x2="1056.959961" y2="1982.959961" stroke="red" stroke-width="6.660000" />
<circle cx="1623.959961" cy="1784.959961" r="19.980000" fill="red">
  <title>Mexico City</title>
</circle><line x1="1056.959961" y1="1982.959961" x2="1623.959961" y2="1784.959961" stroke="red" stroke-width="6.660000" />
<circle cx="1823.959961" cy="1047.959961" r="19.980000" fill="red">
  <title>Cairo</title>
</circle><line x1="1623.959961" y1="1784.959961" x2="1823.959961" y2="1047.959961" stroke="red" stroke-width="6.660000" />
<circle cx="1878.959961" cy="611.960022" r="19.980000" fill="red">
  <title>New York</title>
</circle><line x1="1823.959961" y1="1047.959961" x2="1878.959961" y2="611.960022" stroke="red" stroke-width="6.660000" />
<circle cx="1188.959961" cy="483.959991" r="19.980000" fill="red">
  <title>Beijing</title>
</circle><line x1="1878.959961" y1="611.960022" x2="1188.959961" y2="483.959991" stroke="red" stroke-width="6.660000" />
<circle cx="1411.959961" cy="102.959999" r="19.980000" fill="red">
  <title>Mumbai</title>
</circle><line x1="1188.959961" y1="483.959991" x2="1411.959961" y2="102.959999" stroke="red" stroke-width="6.660000" />
<circle cx="929.960022" cy="40.959999" r="19.980000" fill="red">
  <title>Dhaka</title>
</circle><line x1="1411.959961" y1="102.959999" x2="929.960022" y2="40.959999" stroke="red" stroke-width="6.660000" />
<circle cx="744.960022" cy="443.959991" r="19.980000" fill="red">
  <title>Osaka</title>
</circle><line x1="929.960022" y1="40.959999" x2="744.960022" y2="443.959991" stroke="red" stroke-width="6.660000" />
</svg>
