<?xml version="1.0" encoding="UTF-8" standalone="no"?>
<svg width="500" height="500" viewBox="0 0 2074.000000 2074.000000" xmlns="http://www.w3.org/2000/svg">
<rect x="19.000000" y="19.000000" width="2036.000000" height="2036.000000" fill="black" />
<circle cx="1450.959961" cy="1858.959961" r="19.980000" fill="red">
  <title>Tokyo</title>
</circle><line x1="1953.959961" y1="2027.959961" x2="1450.959961" y2="1858.959961" stroke="red" stroke-width="6.660000" />
<circle cx="1110.959961" cy="1972.959961" r="19.980000" fill="red">
  <title>Shanghai</title>
</circle><line x1="1450.959961" y1="1858.959961" x2="1110.959961" y2="1972.959961" stroke="red" stroke-width="6.660000" />
<circle cx="956.960022" cy="1994.959961" r="19.980000" fill="red">
  <title>Mexico City</title>
</circle><line x1="1110.959961" y1="1972.959961" x2="956.960022" y2="1994.959961" stroke="red" stroke-width="6.660000" />
<circle cx="452.959991" cy="1637.959961" r="19.980000" fill="red">
  <title>Buenos Aires</title>
</circle><line x1="956.960022" y1="1994.959961" x2="452.959991" y2="1637.959961" stroke="red" stroke-width="6.660000" />
<circle cx="149.959991" cy="1473.959961" r="19.980000" fill="red">
  <title>Cairo</title>
</circle><line x1="452.959991" y1="1637.959961" x2="149.959991" y2="1473.959961" stroke="red" stroke-width="6.660000" />
<circle cx="142.959991" cy="905.960022" r="19.980000" fill="red">
  <title>Dhaka</title>
</circle><line x1="149.959991" y1="1473.959961" x2="142.959991" y2="905.960022" stroke="red" stroke-width="6.660000" />
<circle cx="154.959991" cy="871.960022" r="19.980000" fill="red">
  <title>São Paulo</title>
</circle><line x1="142.959991" y1="905.960022" x2="154.959991" y2="871.960022" stroke="red" stroke-width="6.660000" />
<circle cx="506.959991" cy="297.959991" r="19.980000" fill="red">
  <title>New York</title>
</circle><line x1="154.959991" y1="871.960022" x2="506.959991" y2="297.959991" stroke="red" stroke-width="6.660000" />
<circle cx="844.960022" cy="470.959991" r="19.980000" fill="red">
  <title>Beijing</title>
</circle><line x1="506.959991" y1="297.959991" x2="844.960022" y2="470.959991" stroke="red" stroke-width="6.660000" />
<circle cx="1189.959961" cy="745.960022" r="19.980000" fill="red">
  <title>Chongqing</title>
</circle><line x1="844.960022" y1="470.959991" x2="1189.959961" y2="745.960022" stroke="red" stroke-width="6.660000" />
<circle cx="1840.959961" cy="217.959991" r="19.980000" fill="red">
  <title>Mumbai</title>
</circle><line x1="1189.959961" y1="745.960022" x2="1840.959961" y2="217.959991" stroke="red" stroke-width="6.660000" />
<circle cx="1900.959961" cy="752.960022" r="19.980000" fill="red">
  <title>Osaka</title>
</circle><line x1="1840.959961" y1="217.959991" x2="1900.959961" y2="752.960022" stroke="red" stroke-width="6.660000" />
<circle cx="1910.959961" cy="1441.959961" r="19.980000" fill="red">
  <title>Delhi</title>
</circle><line x1="1900.959961" y1="752.960022" x2="1910.959961" y2="1441.959961" stroke="red" stroke-width="6.660000" />
<circle cx="1613.959961" cy="1482.959961" r="19.980000" fill="red">
  <title>Istanbul</title>
</circle><line x1="1910.959961" y1="1441.959961" x2="1613.959961" y2="1482.959961" stroke="red" stroke-width="6.660000" />
<circle cx="1953.959961" cy="2027.959961" r="19.980000" fill="red">
  <title>Karachi</title>
</circle><line x1="1613.959961" y1="1482.959961" x2="1953.959961" y2="2027.959961" stroke="red" stroke-width="6.660000" />
</svg>
