<?xml version="1.0" encoding="UTF-8" standalone="no"?>
<svg width="500" height="500" viewBox="0 0 2074.000000 2074.000000" xmlns="http://www.w3.org/2000/svg">
<rect x="19.000000" y="19.000000" width="2036.000000" height="2036.000000" fill="black" />
<circle cx="877.960022" cy="1890.959961" r="19.980000" fill="red">
  <title>Tokyo</title>
</circle><line x1="921.960022" y1="1334.959961" x2="877.960022" y2="1890.959961" stroke="red" stroke-width="6.660000" />
<circle cx="55.959999" cy="1981.959961" r="19.980000" fill="red">
  <title>Osaka</title>
</circle><line x1="877.960022" y1="1890.959961" x2="55.959999" y2="1981.959961" stroke="red" stroke-width="6.660000" />
<circle cx="133.959991" cy="1710.959961" r="19.980000" fill="red">
  <title>Dhaka</title>
</circle><line x1="55.959999" y1="1981.959961" x2="133.959991" y2="1710.959961" stroke="red" stroke-width="6.660000" />
<circle cx="160.959991" cy="836.960022" r="19.980000" fill="red">
  <title>Mexico City</title>
</circle><line x1="133.959991" y1="1710.959961" x2="160.959991" y2="836.960022" stroke="red" stroke-width="6.660000" />
<circle cx="119.959999" cy="602.960022" r="19.980000" fill="red">
  <title>Delhi</title>
</circle><line x1="160.959991" y1="836.960022" x2="119.959999" y2="602.960022" stroke="red" stroke-width="6.660000" />
<circle cx="1325.959961" cy="652.960022" r="19.980000" fill="red">
  <title>New York</title>
</circle><line x1="119.959999" y1="602.960022" x2="1325.959961" y2="652.960022" stroke="red" stroke-width="6.660000" />
<circle cx="1727.959961" cy="613.960022" r="19.980000" fill="red">
  <title>Beijing</title>
</circle><line x1="1325.959961" y1="652.960022" x2="1727.959961" y2="613.960022" stroke="red" stroke-width="6.660000" />
<circle cx="2005.959961" cy="340.959991" r="19.980000" fill="red">
  <title>Shanghai</title>
</circle><line x1="1727.959961" y1="613.960022" x2="2005.959961" y2="340.959991" stroke="red" stroke-width="6.660000" />
<circle cx="1543.959961" cy="1023.960022" r="19.980000" fill="red">
  <title>Cairo</title>
</circle><line x1="2005.959961" y1="340.959991" x2="1543.959961" y2="1023.960022" stroke="red" stroke-width="6.660000" />
<circle cx="1337.959961" cy="1503.959961" r="19.980000" fill="red">
  <title>São Paulo</title>
</circle><line x1="1543.959961" y1="1023.960022" x2="1337.959961" y2="1503.959961" stroke="red" stroke-width="6.660000" />
<circle cx="921.960022" cy="1334.959961" r="19.980000" fill="red">
  <title>Mumbai</title>
</circle><line x1="1337.959961" y1="1503.959961" x2="921.960022" y2="1334.959961" stroke="red" stroke-width="6.660000" />
</svg>
