<?xml version="1.0" encoding="UTF-8" standalone="no"?>
<svg width="500" height="500" viewBox="0 0 2074.000000 2074.000000" xmlns="http://www.w3.org/2000/svg">
<rect x="19.000000" y="19.000000" width="2036.000000" height="2036.000000" fill="black" />
<circle cx="766.960022" cy="1779.959961" r="19.980000" fill="red">
  <title>Tokyo</title>
</circle><line x1="1200.959961" y1="2025.959961" x2="766.960022" y2="1779.959961" stroke="red" stroke-width="6.660000" />
<circle cx="265.959991" cy="1817.959961" r="19.980000" fill="red">
  <title>Chongqing</title>
</circle><line x1="766.960022" y1="1779.959961" x2="265.959991" y2="1817.959961" stroke="red" stroke-width="6.660000" />
<circle cx="220.959991" cy="1640.959961" r="19.980000" fill="red">
  <title>Shanghai</title>
</circle><line x1="265.959991" y1="1817.959961" x2="220.959991" y2="1640.959961" stroke="red" stroke-width="6.660000" />
<circle cx="217.959991" cy="1166.959961" r="19.980000" fill="red">
  <title>Karachi</title>
</circle><line x1="220.959991" y1="1640.959961" x2="217.959991" y2="1166.959961" stroke="red" stroke-width="6.660000" />
<circle cx="639.960022" cy="1107.959961" r="19.980000" fill="red">
  <title>Mexico City</title>
</circle><line x1="217.959991" y1="1166.959961" x2="639.960022" y2="1107.959961" stroke="red" stroke-width="6.660000" />
<circle cx="189.959991" cy="270.959991" r="19.980000" fill="red">
  <title>Delhi</title>
</circle><line x1="639.960022" y1="1107.959961" x2="189.959991" y2="270.959991" stroke="red" stroke-width="6.660000" />
<circle cx="67.959999" cy="185.959991" r="19.980000" fill="red">
  <title>Buenos Aires</title>
</circle><line x1="189.959991" y1="270.959991" x2="67.959999" y2="185.959991" stroke="red" stroke-width="6.660000" />
<circle cx="850.960022" cy="129.959991" r="19.980000" fill="red">
  <title>Beijing</title>
</circle><line x1="67.959999" y1="185.959991" x2="850.960022" y2="129.959991" stroke="red" stroke-width="6.660000" />
<circle cx="1158.959961" cy="180.959991" r="19.980000" fill="red">
  <title>Mumbai</title>
</circle><line x1="850.960022" y1="129.959991" x2="1158.959961" y2="180.959991" stroke="red" stroke-width="6.660000" />
<circle cx="1332.959961" cy="1080.959961" r="19.980000" fill="red">
  <title>Dhaka</title>
</circle><line x1="1158.959961" y1="180.959991" x2="1332.959961" y2="1080.959961" stroke="red" stroke-width="6.660000" />
<circle cx="1559.959961" cy="1318.959961" r="19.980000" fill="red">
  <title>New York</title>
</circle><line x1="1332.959961" y1="1080.959961" x2="1559.959961" y2="1318.959961" stroke="red" stroke-width="6.660000" />
<circle cx="1743.959961" cy="1516.959961" r="19.980000" fill="red">
  <title>Osaka</title>
</circle><line x1="1559.959961" y1="1318.959961" x2="1743.959961" y2="1516.959961" stroke="red" stroke-width="6.660000" />
<circle cx="1885.959961" cy="1635.959961" r="19.980000" fill="red">
  <title>Cairo</title>
</circle><line x1="1743.959961" y1="1516.959961" x2="1885.959961" y2="1635.959961" stroke="red" stroke-width="6.660000" />
<circle cx="1200.959961" cy="2025.959961" r="19.980000" fill="red">
  <title>São Paulo</title>
</circle><line x1="1885.959961" y1="1635.959961" x2="1200.959961" y2="2025.959961" stroke="red" stroke-width="6.660000" />
</svg>
