<?xml version="1.0" encoding="UTF-8" standalone="no"?>
<svg width="500" height="500" viewBox="0 0 2074.000000 2074.000000" xmlns="http://www.w3.org/2000/svg">
<rect x="19.000000" y="19.000000" width="2036.000000" height="2036.000000" fill="black" />
<circle cx="1832.959961" cy="1160.959961" r="19.980000" fill="red">
  <title>Tokyo</title>
</circle><line x1="1809.959961" y1="229.959991" x2="1832.959961" y2="1160.959961" stroke="red" stroke-width="6.660000" />
<circle cx="1980.959961" cy="1487.959961" r="19.980000" fill="red">
  <title>Mexico City</title>
</circle><line x1="1832.959961" y1="1160.959961" x2="1980.959961" y2="1487.959961" stroke="red" stroke-width="6.660000" />
<circle cx="1838.959961" cy="1727.959961" r="19.980000" fill="red">
  <title>Mumbai</title>
</circle><line x1="1980.959961" y1="1487.959961" x2="1838.959961" y2="1727.959961" stroke="red" stroke-width="6.660000" />
<circle cx="210.959991" cy="1163.959961" r="19.980000" fill="red">
  <title>São Paulo</title>
</circle><line x1="1838.959961" y1="1727.959961" x2="210.959991" y2="1163.959961" stroke="red" stroke-width="6.660000" />
<circle cx="141.959991" cy="883.960022" r="19.980000" fill="red">
  <title>Delhi</title>
</circle><line x1="210.959991" y1="1163.959961" x2="141.959991" y2="883.960022" stroke="red" stroke-width="6.660000" />
<circle cx="1645.959961" cy="239.959991" r="19.980000" fill="red">
  <title>Shanghai</title>
</circle><line x1="141.959991" y1="883.960022" x2="1645.959961" y2="239.959991" stroke="red" stroke-width="6.660000" />
<circle cx="1809.959961" cy="229.959991" r="19.980000" fill="red">
  <title>Cairo</title>
</circle><line x1="1645.959961" y1="239.959991" x2="1809.959961" y2="229.959991" stroke="red" stroke-width="6.660000" />
</svg>
