<?xml version="1.0" encoding="UTF-8" standalone="no"?>
<svg width="500" height="500" viewBox="0 0 2074.000000 2074.000000" xmlns="http://www.w3.org/2000/svg">
<rect x="19.000000" y="19.000000" width="2036.000000" height="2036.000000" fill="black" />
<circle cx="211.959991" cy="1049.959961" r="19.980000" fill="red">
  <title>Tokyo</title>
</circle><line x1="289.959991" y1="712.960022" x2="211.959991" y2="1049.959961" stroke="red" stroke-width="6.660000" />
<circle cx="504.959991" cy="1012.960022" r="19.980000" fill="red">
  <title>Beijing</title>
</circle><line x1="211.959991" y1="1049.959961" x2="504.959991" y2="1012.960022" stroke="red" stroke-width="6.660000" />
<circle cx="710.960022" cy="800.960022" r="19.980000" fill="red">
  <title>New York</title>
</circle><line x1="504.959991" y1="1012.960022" x2="710.960022" y2="800.960022" stroke="red" stroke-width="6.660000" />
<circle cx="807.960022" cy="1330.959961" r="19.980000" fill="red">
  <title>São Paulo</title>
</circle><line x1="710.960022" y1="800.960022" x2="807.960022" y2="1330.959961" stroke="red" stroke-width="6.660000" />
<circle cx="725.960022" cy="1574.959961" r="19.980000" fill="red">
  <title>Buenos Aires</title>
</circle><line x1="807.960022" y1="1330.959961" x2="725.960022" y2="1574.959961" stroke="red" stroke-width="6.660000" />
<circle cx="742.960022" cy="1786.959961" r="19.980000" fill="red">
  <title>Shanghai</title>
</circle><line x1="725.960022" y1="1574.959961" x2="742.960022" y2="1786.959961" stroke="red" stroke-width="6.660000" />
<circle cx="1316.959961" cy="1528.959961" r="19.980000" fill="red">
  <title>Mexico City</title>
</circle><line x1="742.960022" y1="1786.959961" x2="1316.959961" y2="1528.959961" stroke="red" stroke-width="6.660000" />
<circle cx="1693.959961" cy="2004.959961" r="19.980000" fill="red">
  <title>Kolkata</title>
</circle><line x1="1316.959961" y1="1528.959961" x2="1693.959961" y2="2004.959961" stroke="red" stroke-width="6.660000" />
<circle cx="1831.959961" cy="1278.959961" r="19.980000" fill="red">
  <title>Istanbul</title>
</circle><line x1="1693.959961" y1="2004.959961" x2="1831.959961" y2="1278.959961" stroke="red" stroke-width="6.660000" />
<circle cx="1275.959961" cy="1061.959961" r="19.980000" fill="red">
  <title>Dhaka</title>
</circle><line x1="1831.959961" y1="1278.959961" x2="1275.959961" y2="1061.959961" stroke="red" stroke-width="6.660000" />
<circle cx="1219.959961" cy="881.960022" r="19.980000" fill="red">
  <title>Cairo</title>
</circle><line x1="1275.959961" y1="1061.959961" x2="1219.959961" y2="881.960022" stroke="red" stroke-width="6.660000" />
<circle cx="1308.959961" cy="266.959991" r="19.980000" fill="red">
  <title>Karachi</title>
</circle><line x1="1219.959961" y1="881.960022" x2="1308.959961" y2="266.959991" stroke="red" stroke-width="6.660000" />
<circle cx="1056.959961" cy="287.959991" r="19.980000" fill="red">
  <title>Delhi</title>
</circle><line x1="1308.959961" y1="266.959991" x2="1056.959961" y2="287.959991" stroke="red" stroke-width="6.660000" />
<circle cx="848.960022" cy="98.959999" r="19.980000" fill="red">
  <title>Osaka</title>
</circle><line x1="1056.959961" y1="287.959991" x2="848.960022" y2="98.959999" stroke="red" stroke-width="6.660000" />
<circle cx="844.960022" cy="107.959999" r="19.980000" fill="red">
  <title>Chongqing</title>
</circle><line x1="848.960022" y1="98.959999" x2="844.960022" y2="107.959999" stroke="red" stroke-width="6.660000" />
<circle cx="172.959991" cy="412.959991" r="19.980000" fill="red">
  <title>Mumbai</title>
</circle><line x1="844.960022" y1="107.959999" x2="172.959991" y2="412.959991" stroke="red" stroke-width="6.660000" />
<circle cx="289.959991" cy="712.960022" r="19.980000" fill="red">
  <title>Manila</title>
</circle><line x1="172.959991" y1="412.959991" x2="289.959991" y2="712.960022" stroke="red" stroke-width="6.660000" />
</svg>
