<?xml version="1.0" encoding="UTF-8" standalone="no"?>
<svg width="500" height="500" viewBox="0 0 2074.000000 2074.000000" xmlns="http://www.w3.org/2000/svg">
<rect x="19.000000" y="19.000000" width="2036.000000" height="2036.000000" fill="black" />
<circle cx="1206.959961" cy="843.960022" r="19.980000" fill="red">
  <title>Tokyo</title>
</circle><line x1="382.959991" y1="535.960022" x2="1206.959961" y2="843.960022" stroke="red" stroke-width="6.660000" />
<circle cx="1967.959961" cy="445.959991" r="19.980000" fill="red">
  <title>Cairo</title>
</circle><line x1="1206.959961" y1="843.960022" x2="1967.959961" y2="445.959991" stroke="red" stroke-width="6.660000" />
<circle cx="2009.959961" cy="1948.959961" r="19.980000" fill="red">
  <title>Delhi</title>
</circle><line x1="1967.959961" y1="445.959991" x2="2009.959961" y2="1948.959961" stroke="red" stroke-width="6.660000" />
<circle cx="1974.959961" cy="1951.959961" r="19.980000" fill="red">
  <title>Mexico City</title>
</circle><line x1="2009.959961" y1="1948.959961" x2="1974.959961" y2="1951.959961" stroke="red" stroke-width="6.660000" />
<circle cx="1451.959961" cy="1681.959961" r="19.980000" fill="red">
  <title>Shanghai</title>
</circle><line x1="1974.959961" y1="1951.959961" x2="1451.959961" y2="1681.959961" stroke="red" stroke-width="6.660000" />
<circle cx="897.960022" cy="2034.959961" r="19.980000" fill="red">
  <title>Mumbai</title>
</circle><line x1="1451.959961" y1="1681.959961" x2="897.960022" y2="2034.959961" stroke="red" stroke-width="6.660000" />
<circle cx="1218.959961" cy="987.960022" r="19.980000" fill="red">
  <title>Dhaka</title>
</circle><line x1="897.960022" y1="2034.959961" x2="1218.959961" y2="987.960022" stroke="red" stroke-width="6.660000" />
<circle cx="200.959991" cy="599.960022" r="19.980000" fill="red">
  <title>São Paulo</title>
</circle><line x1="1218.959961" y1="987.960022" x2="200.959991" y2="599.960022" stroke="red" stroke-width="6.660000" />
<circle cx="382.959991" cy="535.960022" r="19.980000" fill="red">
  <title>Beijing</title>
</circle><line x1="200.959991" y1="599.960022" x2="382.959991" y2="535.960022" stroke="red" stroke-width="6.660000" />
</svg>
