<?xml version="1.0" encoding="UTF-8" standalone="no"?>
<svg width="500" height="500" viewBox="0 0 2074.000000 2074.000000" xmlns="http://www.w3.org/2000/svg">
<rect x="19.000000" y="19.000000" width="2036.000000" height="2036.000000" fill="black" />
<circle cx="1798.959961" cy="1586.959961" r="19.980000" fill="red">
  <title>Tokyo</title>
</circle><line x1="1735.959961" y1="1525.959961" x2="1798.959961" y2="1586.959961" stroke="red" stroke-width="6.660000" />
<circle cx="1639.959961" cy="1306.959961" r="19.980000" fill="red">
  <title>Shanghai</title>
</circle><line x1="1798.959961" y1="1586.959961" x2="1639.959961" y2="1306.959961" stroke="red" stroke-width="6.660000" />
<circle cx="1923.959961" cy="589.960022" r="19.980000" fill="red">
  <title>Mexico City</title>
</circle><line x1="1639.959961" y1="1306.959961" x2="1923.959961" y2="589.960022" stroke="red" stroke-width="6.660000" />
<circle cx="1186.959961" cy="767.960022" r="19.980000" fill="red">
  <title>Chongqing</title>
</circle><line x1="1923.959961" y1="589.960022" x2="1186.959961" y2="767.960022" stroke="red" stroke-width="6.660000" />
<circle cx="1186.959961" cy="269.959991" r="19.980000" fill="red">
  <title>Cairo</title>
</circle><line x1="1186.959961" y1="767.960022" x2="1186.959961" y2="269.959991" stroke="red" stroke-width="6.660000" />
<circle cx="954.960022" cy="524.960022" r="19.980000" fill="red">
  <title>Osaka</title>
</circle><line x1="1186.959961" y1="269.959991" x2="954.960022" y2="524.960022" stroke="red" stroke-width="6.660000" />
<circle cx="711.960022" cy="568.960022" r="19.980000" fill="red">
  <title>Dhaka</title>
</circle><line x1="954.960022" y1="524.960022" x2="711.960022" y2="568.960022" stroke="red" stroke-width="6.660000" />
<circle cx="588.960022" cy="491.959991" r="19.980000" fill="red">
  <title>New York</title>
</circle><line x1="711.960022" y1="568.960022" x2="588.960022" y2="491.959991" stroke="red" stroke-width="6.660000" />
<circle cx="639.960022" cy="593.960022" r="19.980000" fill="red">
  <title>Delhi</title>
</circle><line x1="588.960022" y1="491.959991" x2="639.960022" y2="593.960022" stroke="red" stroke-width="6.660000" />
<circle cx="400.959991" cy="1352.959961" r="19.980000" fill="red">
  <title>São Paulo</title>
</circle><line x1="639.960022" y1="593.960022" x2="400.959991" y2="1352.959961" stroke="red" stroke-width="6.660000" />
<circle cx="364.959991" cy="1980.959961" r="19.980000" fill="red">
  <title>Karachi</title>
</circle><line x1="400.959991" y1="1352.959961" x2="364.959991" y2="1980.959961" stroke="red" stroke-width="6.660000" />
<circle cx="359.959991" cy="1471.959961" r="19.980000" fill="red">
  <title>Beijing</title>
</circle><line x1="364.959991" y1="1980.959961" x2="359.959991" y2="1471.959961" stroke="red" stroke-width="6.660000" />
<circle cx="987.960022" cy="1209.959961" r="19.980000" fill="red">
  <title>Mumbai</title>
</circle><line x1="359.959991" y1="1471.959961" x2="987.960022" y2="1209.959961" stroke="red" stroke-width="6.660000" />
<circle cx="1735.959961" cy="1525.959961" r="19.980000" fill="red">
  <title>Buenos Aires</title>
</circle><line x1="987.960022" y1="1209.959961" x2="1735.959961" y2="1525.959961" stroke="red" stroke-width="6.660000" />
</svg>
