<?xml version="1.0" encoding="UTF-8" standalone="no"?>
<svg width="500" height="500" viewBox="0 0 2074.000000 2074.000000" xmlns="http://www.w3.org/2000/svg">
<rect x="19.000000" y="19.000000" width="2036.000000" height="2036.000000" fill="black" />
<circle cx="78.959999" cy="1081.959961" r="19.980000" fill="red">
  <title>Tokyo</title>
</circle><line x1="415.959991" y1="1809.959961" x2="78.959999" y2="1081.959961" stroke="red" stroke-width="6.660000" />
<circle cx="405.959991" cy="911.960022" r="19.980000" fill="red">
  <title>Cairo</title>
</circle><line x1="78.959999" y1="1081.959961" x2="405.959991" y2="911.960022" stroke="red" stroke-width="6.660000" />
<circle cx="106.959999" cy="599.960022" r="19.980000" fill="red">
  <title>Kolkata</title>
</circle><line x1="405.959991" y1="911.960022" x2="106.959999" y2="599.960022" stroke="red" stroke-width="6.660000" />
<circle cx="117.959999" cy="428.959991" r="19.980000" fill="red">
  <title>Chongqing</title>
</circle><line x1="106.959999" y1="599.960022" x2="117.959999" y2="428.959991" stroke="red" stroke-width="6.660000" />
<circle cx="431.959991" cy="259.959991" r="19.980000" fill="red">
  <title>Delhi</title>
</circle><line x1="117.959999" y1="428.959991" x2="431.959991" y2="259.959991" stroke="red" stroke-width="6.660000" />
<circle cx="559.960022" cy="59.959999" r="19.980000" fill="red">
  <title>Istanbul</title>
</circle><line x1="431.959991" y1="259.959991" x2="559.960022" y2="59.959999" stroke="red" stroke-width="6.660000" />
<circle cx="1101.959961" cy="499.959991" r="19.980000" fill="red">
  <title>Manila</title>
</circle><line x1="559.960022" y1="59.959999" x2="1101.959961" y2="499.959991" stroke="red" stroke-width="6.660000" />
<circle cx="1090.959961" cy="548.960022" r="19.980000" fill="red">
  <title>Mexico City</title>
</circle><line x1="1101.959961" y1="499.959991" x2="1090.959961" y2="548.960022" stroke="red" stroke-width="6.660000" />
<circle cx="1530.959961" cy="492.959991" r="19.980000" fill="red">
  <title>Buenos Aires</title>
</circle><line x1="1090.959961" y1="548.960022" x2="1530.959961" y2="492.959991" stroke="red" stroke-width="6.660000" />
<circle cx="1969.959961" cy="194.959991" r="19.980000" fill="red">
  <title>Shanghai</title>
</circle><line x1="1530.959961" y1="492.959991" x2="1969.959961" y2="194.959991" stroke="red" stroke-width="6.660000" />
<circle cx="2035.959961" cy="908.960022" r="19.980000" fill="red">
  <title>São Paulo</title>
</circle><line x1="1969.959961" y1="194.959991" x2="2035.959961" y2="908.960022" stroke="red" stroke-width="6.660000" />
<circle cx="2037.959961" cy="1063.959961" r="19.980000" fill="red">
  <title>Dhaka</title>
</circle><line x1="2035.959961" y1="908.960022" x2="2037.959961" y2="1063.959961" stroke="red" stroke-width="6.660000" />
<circle cx="1256.959961" cy="1600.959961" r="19.980000" fill="red">
  <title>Karachi</title>
</circle><line x1="2037.959961" y1="1063.959961" x2="1256.959961" y2="1600.959961" stroke="red" stroke-width="6.660000" />
<circle cx="1200.959961" cy="1319.959961" r="19.980000" fill="red">
  <title>Mumbai</title>
</circle><line x1="1256.959961" y1="1600.959961" x2="1200.959961" y2="1319.959961" stroke="red" stroke-width="6.660000" />
<circle cx="1160.959961" cy="895.960022" r="19.980000" fill="red">
  <title>Beijing</title>
</circle><line x1="1200.959961" y1="1319.959961" x2="1160.959961" y2="895.960022" stroke="red" stroke-width="6.660000" />
<circle cx="820.960022" cy="1032.959961" r="19.980000" fill="red">
  <title>Lagos</title>
</circle><line x1="1160.959961" y1="895.960022" x2="820.960022" y2="1032.959961" stroke="red" stroke-width="6.660000" />
<circle cx="570.960022" cy="1299.959961" r="19.980000" fill="red">
  <title>Osaka</title>
</circle><line x1="820.960022" y1="1032.959961" x2="570.960022" y2="1299.959961" stroke="red" stroke-width="6.660000" />
<circle cx="415.959991" cy="1809.959961" r="19.980000" fill="red">
  <title>New York</title>
</circle><line x1="570.960022" y1="1299.959961" x2="415.959991" y2="1809.959961" stroke="red" stroke-width="6.660000" />
</svg>
