<?xml version="1.0" encoding="UTF-8" standalone="no"?>
<svg width="500" height="500" viewBox="0 0 2074.000000 2074.000000" xmlns="http://www.w3.org/2000/svg">
<rect x="19.000000" y="19.000000" width="2036.000000" height="2036.000000" fill="black" />
<circle cx="1545.959961" cy="256.959991" r="19.980000" fill="red">
  <title>Tokyo</title>
</circle><line x1="1384.959961" y1="525.960022" x2="1545.959961" y2="256.959991" stroke="red" stroke-width="6.660000" />
<circle cx="1623.959961" cy="266.959991" r="19.980000" fill="red">
  <title>Shanghai</title>
</circle><line x1="1545.959961" y1="256.959991" x2="1623.959961" y2="266.959991" stroke="red" stroke-width="6.660000" />
<circle cx="1672.959961" cy="69.959999" r="19.980000" fill="red">
  <title>Dhaka</title>
</circle><line x1="1623.959961" y1="266.959991" x2="1672.959961" y2="69.959999" stroke="red" stroke-width="6.660000" />
<circle cx="1928.959961" cy="176.959991" r="19.980000" fill="red">
  <title>Osaka</title>
</circle><line x1="1672.959961" y1="69.959999" x2="1928.959961" y2="176.959991" stroke="red" stroke-width="6.660000" />
<circle cx="2028.959961" cy="235.959991" r="19.980000" fill="red">
  <title>Delhi</title>
</circle><line x1="1928.959961" y1="176.959991" x2="2028.959961" y2="235.959991" stroke="red" stroke-width="6.660000" />
<circle cx="1796.959961" cy="1095.959961" r="19.980000" fill="red">
  <title>New York</title>
</circle><line x1="2028.959961" y1="235.959991" x2="1796.959961" y2="1095.959961" stroke="red" stroke-width="6.660000" />
<circle cx="1403.959961" cy="2016.959961" r="19.980000" fill="red">
  <title>São Paulo</title>
</circle><line x1="1796.959961" y1="1095.959961" x2="1403.959961" y2="2016.959961" stroke="red" stroke-width="6.660000" />
<circle cx="555.960022" cy="951.960022" r="19.980000" fill="red">
  <title>Beijing</title>
</circle><line x1="1403.959961" y1="2016.959961" x2="555.960022" y2="951.960022" stroke="red" stroke-width="6.660000" />
<circle cx="754.960022" cy="633.960022" r="19.980000" fill="red">
  <title>Cairo</title>
</circle><line x1="555.960022" y1="951.960022" x2="754.960022" y2="633.960022" stroke="red" stroke-width="6.660000" />
<circle cx="784.960022" cy="385.959991" r="19.980000" fill="red">
  <title>Mexico City</title>
</circle><line x1="754.960022" y1="633.960022" x2="784.960022" y2="385.959991" stroke="red" stroke-width="6.660000" />
<circle cx="1384.959961" cy="525.960022" r="19.980000" fill="red">
  <title>Mumbai</title>
</circle><line x1="784.960022" y1="385.959991" x2="1384.959961" y2="525.960022" stroke="red" stroke-width="6.660000" />
</svg>
