<?xml version="1.0" encoding="UTF-8" standalone="no"?>
<svg width="500" height="500" viewBox="0 0 2074.000000 2074.000000" xmlns="http://www.w3.org/2000/svg">
<rect x="19.000000" y="19.000000" width="2036.000000" height="2036.000000" fill="black" />
<circle cx="700.960022" cy="1768.959961" r="19.980000" fill="red">
  <title>Tokyo</title>
</circle><line x1="595.960022" y1="1774.959961" x2="700.960022" y2="1768.959961" stroke="red" stroke-width="6.660000" />
<circle cx="1458.959961" cy="1514.959961" r="19.980000" fill="red">
  <title>Delhi</title>
</circle><line x1="700.960022" y1="1768.959961" x2="1458.959961" y2="1514.959961" stroke="red" stroke-width="6.660000" />
<circle cx="1150.959961" cy="763.960022" r="19.980000" fill="red">
  <title>São Paulo</title>
</circle><line x1="1458.959961" y1="1514.959961" x2="1150.959961" y2="763.960022" stroke="red" stroke-width="6.660000" />
<circle cx="755.960022" cy="985.960022" r="19.980000" fill="red">
  <title>Shanghai</title>
</circle><line x1="1150.959961" y1="763.960022" x2="755.960022" y2="985.960022" stroke="red" stroke-width="6.660000" />
<circle cx="368.959991" cy="1550.959961" r="19.980000" fill="red">
  <title>Cairo</title>
</circle><line x1="755.960022" y1="985.960022" x2="368.959991" y2="1550.959961" stroke="red" stroke-width="6.660000" />
<circle cx="595.960022" cy="1774.959961" r="19.980000" fill="red">
  <title>Mexico City</title>
</circle><line x1="368.959991" y1="1550.959961" x2="595.960022" y2="1774.959961" stroke="red" stroke-width="6.660000" />
</svg>
