<?xml version="1.0" encoding="UTF-8" standalone="no"?>
<svg width="500" height="500" viewBox="0 0 2074.000000 2074.000000" xmlns="http://www.w3.org/2000/svg">
<rect x="19.000000" y="19.000000" width="2036.000000" height="2036.000000" fill="black" />
<circle cx="438.959991" cy="1678.959961" r="19.980000" fill="red">
  <title>Tokyo</title>
</circle><line x1="1432.959961" y1="1357.959961" x2="438.959991" y2="1678.959961" stroke="red" stroke-width="6.660000" />
<circle cx="233.959991" cy="853.960022" r="19.980000" fill="red">
  <title>São Paulo</title>
</circle><line x1="438.959991" y1="1678.959961" x2="233.959991" y2="853.960022" stroke="red" stroke-width="6.660000" />
<circle cx="109.959999" cy="269.959991" r="19.980000" fill="red">
  <title>Mumbai</title>
</circle><line x1="233.959991" y1="853.960022" x2="109.959999" y2="269.959991" stroke="red" stroke-width="6.660000" />
<circle cx="1683.959961" cy="59.959999" r="19.980000" fill="red">
  <title>Shanghai</title>
</circle><line x1="109.959999" y1="269.959991" x2="1683.959961" y2="59.959999" stroke="red" stroke-width="6.660000" />
<circle cx="1721.959961" cy="900.960022" r="19.980000" fill="red">
  <title>Cairo</title>
</circle><line x1="1683.959961" y1="59.959999" x2="1721.959961" y2="900.960022" stroke="red" stroke-width="6.660000" />
<circle cx="2010.959961" cy="1923.959961" r="19.980000" fill="red">
  <title>Delhi</title>
</circle><line x1="1721.959961" y1="900.960022" x2="2010.959961" y2="1923.959961" stroke="red" stroke-width="6.660000" />
<circle cx="1432.959961" cy="1357.959961" r="19.980000" fill="red">
  <title>Mexico City</title>
</circle><line x1="2010.959961" y1="1923.959961" x2="1432.959961" y2="1357.959961" stroke="red" stroke-width="6.660000" />
</svg>
