<?xml version="1.0" encoding="UTF-8" standalone="no"?>
<svg width="500" height="500" viewBox="0 0 2074.000000 2074.000000" xmlns="http://www.w3.org/2000/svg">
<rect x="19.000000" y="19.000000" width="2036.000000" height="2036.000000" fill="black" />
<circle cx="1696.959961" cy="1672.959961" r="19.980000" fill="red">
  <title>Tokyo</title>
</circle><line x1="2029.959961" y1="118.959999" x2="1696.959961" y2="1672.959961" stroke="red" stroke-width="6.660000" />
<circle cx="1876.959961" cy="1992.959961" r="19.980000" fill="red">
  <title>Cairo</title>
</circle><line x1="1696.959961" y1="1672.959961" x2="1876.959961" y2="1992.959961" stroke="red" stroke-width="6.660000" />
<circle cx="1441.959961" cy="1815.959961" r="19.980000" fill="red">
  <title>Beijing</title>
</circle><line x1="1876.959961" y1="1992.959961" x2="1441.959961" y2="1815.959961" stroke="red" stroke-width="6.660000" />
<circle cx="1350.959961" cy="1625.959961" r="19.980000" fill="red">
  <title>Mexico City</title>
</circle><line x1="1441.959961" y1="1815.959961" x2="1350.959961" y2="1625.959961" stroke="red" stroke-width="6.660000" />
<circle cx="1074.959961" cy="1688.959961" r="19.980000" fill="red">
  <title>São Paulo</title>
</circle><line x1="1350.959961" y1="1625.959961" x2="1074.959961" y2="1688.959961" stroke="red" stroke-width="6.660000" />
<circle cx="83.959999" cy="1896.959961" r="19.980000" fill="red">
  <title>Mumbai</title>
</circle><line x1="1074.959961" y1="1688.959961" x2="83.959999" y2="1896.959961" stroke="red" stroke-width="6.660000" />
<circle cx="169.959991" cy="1140.959961" r="19.980000" fill="red">
  <title>Delhi</title>
</circle><line x1="83.959999" y1="1896.959961" x2="169.959991" y2="1140.959961" stroke="red" stroke-width="6.660000" />
<circle cx="952.960022" cy="144.959991" r="19.980000" fill="red">
  <title>Dhaka</title>
</circle><line x1="169.959991" y1="1140.959961" x2="952.960022" y2="144.959991" stroke="red" stroke-width="6.660000" />
<circle cx="1254.959961" cy="59.959999" r="19.980000" fill="red">
  <title>Shanghai</title>
</circle><line x1="952.960022" y1="144.959991" x2="1254.959961" y2="59.959999" stroke="red" stroke-width="6.660000" />
<circle cx="2029.959961" cy="118.959999" r="19.980000" fill="red">
  <title>Osaka</title>
</circle><line x1="1254.959961" y1="59.959999" x2="2029.959961" y2="118.959999" stroke="red" stroke-width="6.660000" />
</svg>
