<?xml version="1.0" encoding="UTF-8" standalone="no"?>
<svg width="500" height="500" viewBox="0 0 2074.000000 2074.000000" xmlns="http://www.w3.org/2000/svg">
<rect x="19.000000" y="19.000000" width="2036.000000" height="2036.000000" fill="black" />
<circle cx="146.959991" cy="846.960022" r="19.980000" fill="red">
  <title>Tokyo</title>
</circle><line x1="1071.959961" y1="907.960022" x2="146.959991" y2="846.960022" stroke="red" stroke-width="6.660000" />
<circle cx="196.959991" cy="1124.959961" r="19.980000" fill="red">
  <title>Mexico City</title>
</circle><line x1="146.959991" y1="846.960022" x2="196.959991" y2="1124.959961" stroke="red" stroke-width="6.660000" />
<circle cx="452.959991" cy="1714.959961" r="19.980000" fill="red">
  <title>São Paulo</title>
</circle><line x1="196.959991" y1="1124.959961" x2="452.959991" y2="1714.959961" stroke="red" stroke-width="6.660000" />
<circle cx="788.960022" cy="1833.959961" r="19.980000" fill="red">
  <title>Beijing</title>
</circle><line x1="452.959991" y1="1714.959961" x2="788.960022" y2="1833.959961" stroke="red" stroke-width="6.660000" />
<circle cx="960.960022" cy="1620.959961" r="19.980000" fill="red">
  <title>Osaka</title>
</circle><line x1="788.960022" y1="1833.959961" x2="960.960022" y2="1620.959961" stroke="red" stroke-width="6.660000" />
<circle cx="890.960022" cy="1387.959961" r="19.980000" fill="red">
  <title>Kolkata</title>
</circle><line x1="960.960022" y1="1620.959961" x2="890.960022" y2="1387.959961" stroke="red" stroke-width="6.660000" />
<circle cx="1186.959961" cy="1334.959961" r="19.980000" fill="red">
  <title>Chongqing</title>
</circle><line x1="890.960022" y1="1387.959961" x2="1186.959961" y2="1334.959961" stroke="red" stroke-width="6.660000" />
<circle cx="1126.959961" cy="1560.959961" r="19.980000" fill="red">
  <title>Mumbai</title>
</circle><line x1="1186.959961" y1="1334.959961" x2="1126.959961" y2="1560.959961" stroke="red" stroke-width="6.660000" />
<circle cx="1802.959961" cy="1813.959961" r="19.980000" fill="red">
  <title>Cairo</title>
</circle><line x1="1126.959961" y1="1560.959961" x2="1802.959961" y2="1813.959961" stroke="red" stroke-width="6.660000" />
<circle cx="2016.959961" cy="1688.959961" r="19.980000" fill="red">
  <title>Karachi</title>
</circle><line x1="1802.959961" y1="1813.959961" x2="2016.959961" y2="1688.959961" stroke="red" stroke-width="6.660000" />
<circle cx="2001.959961" cy="1629.959961" r="19.980000" fill="red">
  <title>Buenos Aires</title>
</circle><line x1="2016.959961" y1="1688.959961" x2="2001.959961" y2="1629.959961" stroke="red" stroke-width="6.660000" />
<circle cx="1279.959961" cy="1248.959961" r="19.980000" fill="red">
  <title>Istanbul</title>
</circle><line x1="2001.959961" y1="1629.959961" x2="1279.959961" y2="1248.959961" stroke="red" stroke-width="6.660000" />
<circle cx="1666.959961" cy="533.960022" r="19.980000" fill="red">
  <title>Shanghai</title>
</circle><line x1="1279.959961" y1="1248.959961" x2="1666.959961" y2="533.960022" stroke="red" stroke-width="6.660000" />
<circle cx="1918.959961" cy="355.959991" r="19.980000" fill="red">
  <title>New York</title>
</circle><line x1="1666.959961" y1="533.960022" x2="1918.959961" y2="355.959991" stroke="red" stroke-width="6.660000" />
<circle cx="1353.959961" cy="134.959991" r="19.980000" fill="red">
  <title>Delhi</title>
</circle><line x1="1918.959961" y1="355.959991" x2="1353.959961" y2="134.959991" stroke="red" stroke-width="6.660000" />
<circle cx="1071.959961" cy="907.960022" r="19.980000" fill="red">
  <title>Dhaka</title>
</circle><line x1="1353.959961" y1="134.959991" x2="1071.959961" y2="907.960022" stroke="red" stroke-width="6.660000" />
</svg>
