<?xml version="1.0" encoding="UTF-8" standalone="no"?>
<svg width="500" height="500" viewBox="0 0 2074.000000 2074.000000" xmlns="http://www.w3.org/2000/svg">
<rect x="19.000000" y="19.000000" width="2036.000000" height="2036.000000" fill="black" />
<circle cx="67.959999" cy="562.960022" r="19.980000" fill="red">
  <title>Tokyo</title>
</circle><line x1="99.959999" y1="1105.959961" x2="67.959999" y2="562.960022" stroke="red" stroke-width="6.660000" />
<circle cx="196.959991" cy="586.960022" r="19.980000" fill="red">
  <title>Osaka</title>
</circle><line x1="67.959999" y1="562.960022" x2="196.959991" y2="586.960022" stroke="red" stroke-width="6.660000" />
<circle cx="482.959991" cy="365.959991" r="19.980000" fill="red">
  <title>Chongqing</title>
</circle><line x1="196.959991" y1="586.960022" x2="482.959991" y2="365.959991" stroke="red" stroke-width="6.660000" />
<circle cx="1189.959961" cy="199.959991" r="19.980000" fill="red">
  <title>Beijing</title>
</circle><line x1="482.959991" y1="365.959991" x2="1189.959961" y2="199.959991" stroke="red" stroke-width="6.660000" />
<circle cx="1180.959961" cy="112.959999" r="19.980000" fill="red">
  <title>New York</title>
</circle><line x1="1189.959961" y1="199.959991" x2="1180.959961" y2="112.959999" stroke="red" stroke-width="6.660000" />
<circle cx="1602.959961" cy="41.959999" r="19.980000" fill="red">
  <title>Dhaka</title>
</circle><line x1="1180.959961" y1="112.959999" x2="1602.959961" y2="41.959999" stroke="red" stroke-width="6.660000" />
<circle cx="1808.959961" cy="809.960022" r="19.980000" fill="red">
  <title>Buenos Aires</title>
</circle><line x1="1602.959961" y1="41.959999" x2="1808.959961" y2="809.960022" stroke="red" stroke-width="6.660000" />
<circle cx="1999.959961" cy="1124.959961" r="19.980000" fill="red">
  <title>São Paulo</title>
</circle><line x1="1808.959961" y1="809.960022" x2="1999.959961" y2="1124.959961" stroke="red" stroke-width="6.660000" />
<circle cx="1419.959961" cy="870.960022" r="19.980000" fill="red">
  <title>Manila</title>
</circle><line x1="1999.959961" y1="1124.959961" x2="1419.959961" y2="870.960022" stroke="red" stroke-width="6.660000" />
<circle cx="1076.959961" cy="896.960022" r="19.980000" fill="red">
  <title>Istanbul</title>
</circle><line x1="1419.959961" y1="870.960022" x2="1076.959961" y2="896.960022" stroke="red" stroke-width="6.660000" />
<circle cx="817.960022" cy="813.960022" r="19.980000" fill="red">
  <title>Karachi</title>
</circle><line x1="1076.959961" y1="896.960022" x2="817.960022" y2="813.960022" stroke="red" stroke-width="6.660000" />
<circle cx="567.960022" cy="994.960022" r="19.980000" fill="red">
  <title>Mexico City</title>
</circle><line x1="817.960022" y1="813.960022" x2="567.960022" y2="994.960022" stroke="red" stroke-width="6.660000" />
<circle cx="959.960022" cy="1239.959961" r="19.980000" fill="red">
  <title>Cairo</title>
</circle><line x1="567.960022" y1="994.960022" x2="959.960022" y2="1239.959961" stroke="red" stroke-width="6.660000" />
<circle cx="1494.959961" cy="1900.959961" r="19.980000" fill="red">
  <title>Mumbai</title>
</circle><line x1="959.960022" y1="1239.959961" x2="1494.959961" y2="1900.959961" stroke="red" stroke-width="6.660000" />
<circle cx="810.960022" cy="1514.959961" r="19.980000" fill="red">
  <title>Delhi</title>
</circle><line x1="1494.959961" y1="1900.959961" x2="810.960022" y2="1514.959961" stroke="red" stroke-width="6.660000" />
<circle cx="581.960022" cy="1492.959961" r="19.980000" fill="red">
  <title>Lagos</title>
</circle><line x1="810.960022" y1="1514.959961" x2="581.960022" y2="1492.959961" stroke="red" stroke-width="6.660000" />
<circle cx="112.959999" cy="2017.959961" r="19.980000" fill="red">
  <title>Shanghai</title>
</circle><line x1="581.960022" y1="1492.959961" x2="112.959999" y2="2017.959961" stroke="red" stroke-width="6.660000" />
<circle cx="99.959999" cy="1105.959961" r="19.980000" fill="red">
  <title>Kolkata</title>
</circle><line x1="112.959999" y1="2017.959961" x2="99.959999" y2="1105.959961" stroke="red" stroke-width="6.660000" />
</svg>
