<?xml version="1.0" encoding="UTF-8" standalone="no"?>
<svg width="500" height="500" viewBox="0 0 2074.000000 2074.000000" xmlns="http://www.w3.org/2000/svg">
<rect x="19.000000" y="19.000000" width="2036.000000" height="2036.000000" fill="black" />
<circle cx="1173.959961" cy="1615.959961" r="19.980000" fill="red">
  <title>Tokyo</title>
</circle><line x1="1097.959961" y1="1311.959961" x2="1173.959961" y2="1615.959961" stroke="red" stroke-width="6.660000" />
<circle cx="1193.959961" cy="1686.959961" r="19.980000" fill="red">
  <title>New York</title>
</circle><line x1="1173.959961" y1="1615.959961" x2="1193.959961" y2="1686.959961" stroke="red" stroke-width="6.660000" />
<circle cx="1114.959961" cy="1879.959961" r="19.980000" fill="red">
  <title>Cairo</title>
</circle><line x1="1193.959961" y1="1686.959961" x2="1114.959961" y2="1879.959961" stroke="red" stroke-width="6.660000" />
<circle cx="379.959991" cy="1731.959961" r="19.980000" fill="red">
  <title>Beijing</title>
</circle><line x1="1114.959961" y1="1879.959961" x2="379.959991" y2="1731.959961" stroke="red" stroke-width="6.660000" />
<circle cx="93.959999" cy="1895.959961" r="19.980000" fill="red">
  <title>Tianjin</title>
</circle><line x1="379.959991" y1="1731.959961" x2="93.959999" y2="1895.959961" stroke="red" stroke-width="6.660000" />
<circle cx="320.959991" cy="758.960022" r="19.980000" fill="red">
  <title>Kolkata</title>
</circle><line x1="93.959999" y1="1895.959961" x2="320.959991" y2="758.960022" stroke="red" stroke-width="6.660000" />
<circle cx="84.959999" cy="378.959991" r="19.980000" fill="red">
  <title>Rio de Janeiro</title>
</circle><line x1="320.959991" y1="758.960022" x2="84.959999" y2="378.959991" stroke="red" stroke-width="6.660000" />
<circle cx="358.959991" cy="377.959991" r="19.980000" fill="red">
  <title>Delhi</title>
</circle><line x1="84.959999" y1="378.959991" x2="358.959991" y2="377.959991" stroke="red" stroke-width="6.660000" />
<circle cx="779.960022" cy="518.960022" r="19.980000" fill="red">
  <title>Karachi</title>
</circle><line x1="358.959991" y1="377.959991" x2="779.960022" y2="518.960022" stroke="red" stroke-width="6.660000" />
<circle cx="966.960022" cy="783.960022" r="19.980000" fill="red">
  <title>Osaka</title>
</circle><line x1="779.960022" y1="518.960022" x2="966.960022" y2="783.960022" stroke="red" stroke-width="6.660000" />
<circle cx="1319.959961" cy="820.960022" r="19.980000" fill="red">
  <title>São Paulo</title>
</circle><line x1="966.960022" y1="783.960022" x2="1319.959961" y2="820.960022" stroke="red" stroke-width="6.660000" />
<circle cx="1383.959961" cy="331.959991" r="19.980000" fill="red">
  <title>Chongqing</title>
</circle><line x1="1319.959961" y1="820.960022" x2="1383.959961" y2="331.959991" stroke="red" stroke-width="6.660000" />
<circle cx="1623.959961" cy="54.959999" r="19.980000" fill="red">
  <title>Istanbul</title>
</circle><line x1="1383.959961" y1="331.959991" x2="1623.959961" y2="54.959999" stroke="red" stroke-width="6.660000" />
<circle cx="1850.959961" cy="294.959991" r="19.980000" fill="red">
  <title>Mexico City</title>
</circle><line x1="1623.959961" y1="54.959999" x2="1850.959961" y2="294.959991" stroke="red" stroke-width="6.660000" />
<circle cx="1630.959961" cy="640.960022" r="19.980000" fill="red">
  <title>Manila</title>
</circle><line x1="1850.959961" y1="294.959991" x2="1630.959961" y2="640.960022" stroke="red" stroke-width="6.660000" />
<circle cx="2032.959961" cy="1332.959961" r="19.980000" fill="red">
  <title>Mumbai</title>
</circle><line x1="1630.959961" y1="640.960022" x2="2032.959961" y2="1332.959961" stroke="red" stroke-width="6.660000" />
<circle cx="1718.959961" cy="1481.959961" r="19.980000" fill="red">
  <title>Shanghai</title>
</circle><line x1="2032.959961" y1="1332.959961" x2="1718.959961" y2="1481.959961" stroke="red" stroke-width="6.660000" />
<circle cx="1685.959961" cy="1656.959961" r="19.980000" fill="red">
  <title>Buenos Aires</title>
</circle><line x1="1718.959961" y1="1481.959961" x2="1685.959961" y2="1656.959961" stroke="red" stroke-width="6.660000" />
<circle cx="1300.959961" cy="1518.959961" r="19.980000" fill="red">
  <title>Dhaka</title>
</circle><line x1="1685.959961" y1="1656.959961" x2="1300.959961" y2="1518.959961" stroke="red" stroke-width="6.660000" />
<circle cx="1097.959961" cy="1311.959961" r="19.980000" fill="red">
  <title>Lagos</title>
</circle><line x1="1300.959961" y1="1518.959961" x2="1097.959961" y2="1311.959961" stroke="red" stroke-width="6.660000" />
</svg>
