<?xml version="1.0" encoding="UTF-8" standalone="no"?>
<svg width="500" height="500" viewBox="0 0 2074.000000 2074.000000" xmlns="http://www.w3.org/2000/svg">
<rect x="19.000000" y="19.000000" width="2036.000000" height="2036.000000" fill="black" />
<circle cx="397.959991" cy="1245.959961" r="19.980000" fill="red">
  <title>Tokyo</title>
</circle><line x1="662.960022" y1="624.960022" x2="397.959991" y2="1245.959961" stroke="red" stroke-width="6.660000" />
<circle cx="1565.959961" cy="1633.959961" r="19.980000" fill="red">
  <title>São Paulo</title>
</circle><line x1="397.959991" y1="1245.959961" x2="1565.959961" y2="1633.959961" stroke="red" stroke-width="6.660000" />
<circle cx="1915.959961" cy="953.960022" r="19.980000" fill="red">
  <title>Shanghai</title>
</circle><line x1="1565.959961" y1="1633.959961" x2="1915.959961" y2="953.960022" stroke="red" stroke-width="6.660000" />
<circle cx="1643.959961" cy="158.959991" r="19.980000" fill="red">
  <title>Delhi</title>
</circle><line x1="1915.959961" y1="953.960022" x2="1643.959961" y2="158.959991" stroke="red" stroke-width="6.660000" />
<circle cx="662.960022" cy="624.960022" r="19.980000" fill="red">
  <title>Mexico City</title>
</circle><line x1="1643.959961" y1="158.959991" x2="662.960022" y2="624.960022" stroke="red" stroke-width="6.660000" />
</svg>
