<?xml version="1.0" encoding="UTF-8" standalone="no"?>
<svg width="500" height="500" viewBox="0 0 2074.000000 2074.000000" xmlns="http://www.w3.org/2000/svg">
<rect x="19.000000" y="19.000000" width="2036.000000" height="2036.000000" fill="black" />
<circle cx="278.959991" cy="618.960022" r="19.980000" fill="red">
  <title>Tokyo</title>
</circle><line x1="1674.959961" y1="562.960022" x2="278.959991" y2="618.960022" stroke="red" stroke-width="6.660000" />
<circle cx="40.959999" cy="832.960022" r="19.980000" fill="red">
  <title>Shanghai</title>
</circle><line x1="278.959991" y1="618.960022" x2="40.959999" y2="832.960022" stroke="red" stroke-width="6.660000" />
<circle cx="49.959999" cy="1223.959961" r="19.980000" fill="red">
  <title>São Paulo</title>
</circle><line x1="40.959999" y1="832.960022" x2="49.959999" y2="1223.959961" stroke="red" stroke-width="6.660000" />
<circle cx="271.959991" cy="1074.959961" r="19.980000" fill="red">
  <title>Delhi</title>
</circle><line x1="49.959999" y1="1223.959961" x2="271.959991" y2="1074.959961" stroke="red" stroke-width="6.660000" />
<circle cx="1016.960022" cy="1969.959961" r="19.980000" fill="red">
  <title>Cairo</title>
</circle><line x1="271.959991" y1="1074.959961" x2="1016.960022" y2="1969.959961" stroke="red" stroke-width="6.660000" />
<circle cx="1674.959961" cy="562.960022" r="19.980000" fill="red">
  <title>Mexico City</title>
</circle><line x1="1016.960022" y1="1969.959961" x2="1674.959961" y2="562.960022" stroke="red" stroke-width="6.660000" />
</svg>
