<?xml version="1.0" encoding="UTF-8" standalone="no"?>
<svg width="500" height="500" viewBox="0 0 2074.000000 2074.000000" xmlns="http://www.w3.org/2000/svg">
<rect x="19.000000" y="19.000000" width="2036.000000" height="2036.000000" fill="black" />
<circle cx="279.959991" cy="1484.959961" r="19.980000" fill="red">
  <title>Tokyo</title>
</circle><line x1="179.959991" y1="1701.959961" x2="279.959991" y2="1484.959961" stroke="red" stroke-width="6.660000" />
<circle cx="401.959991" cy="1658.959961" r="19.980000" fill="red">
  <title>Delhi</title>
</circle><line x1="279.959991" y1="1484.959961" x2="401.959991" y2="1658.959961" stroke="red" stroke-width="6.660000" />
<circle cx="405.959991" cy="1617.959961" r="19.980000" fill="red">
  <title>Mexico City</title>
</circle><line x1="401.959991" y1="1658.959961" x2="405.959991" y2="1617.959961" stroke="red" stroke-width="6.660000" />
<circle cx="1191.959961" cy="1014.960022" r="19.980000" fill="red">
  <title>Cairo</title>
</circle><line x1="405.959991" y1="1617.959961" x2="1191.959961" y2="1014.960022" stroke="red" stroke-width="6.660000" />
<circle cx="1496.959961" cy="442.959991" r="19.980000" fill="red">
  <title>Shanghai</title>
</circle><line x1="1191.959961" y1="1014.960022" x2="1496.959961" y2="442.959991" stroke="red" stroke-width="6.660000" />
<circle cx="1525.959961" cy="484.959991" r="19.980000" fill="red">
  <title>Dhaka</title>
</circle><line x1="1496.959961" y1="442.959991" x2="1525.959961" y2="484.959991" stroke="red" stroke-width="6.660000" />
<circle cx="1701.959961" cy="814.960022" r="19.980000" fill="red">
  <title>Beijing</title>
</circle><line x1="1525.959961" y1="484.959991" x2="1701.959961" y2="814.960022" stroke="red" stroke-width="6.660000" />
<circle cx="1884.959961" cy="913.960022" r="19.980000" fill="red">
  <title>Mumbai</title>
</circle><line x1="1701.959961" y1="814.960022" x2="1884.959961" y2="913.960022" stroke="red" stroke-width="6.660000" />
<circle cx="1725.959961" cy="1355.959961" r="19.980000" fill="red">
  <title>Karachi</title>
</circle><line x1="1884.959961" y1="913.960022" x2="1725.959961" y2="1355.959961" stroke="red" stroke-width="6.660000" />
<circle cx="1561.959961" cy="1989.959961" r="19.980000" fill="red">
  <title>São Paulo</title>
</circle><line x1="1725.959961" y1="1355.959961" x2="1561.959961" y2="1989.959961" stroke="red" stroke-width="6.660000" />
<circle cx="560.960022" cy="1827.959961" r="19.980000" fill="red">
  <title>Chongqing</title>
</circle><line x1="1561.959961" y1="1989.959961" x2="560.960022" y2="1827.959961" stroke="red" stroke-width="6.660000" />
<circle cx="517.960022" cy="1767.959961" r="19.980000" fill="red">
  <title>New York</title>
</circle><line x1="560.960022" y1="1827.959961" x2="517.960022" y2="1767.959961" stroke="red" stroke-width="6.660000" />
<circle cx="361.959991" cy="1779.959961" r="19.980000" fill="red">
  <title>Osaka</title>
</circle><line x1="517.960022" y1="1767.959961" x2="361.959991" y2="1779.959961" stroke="red" stroke-width="6.660000" />
<circle cx="179.959991" cy="1701.959961" r="19.980000" fill="red">
  <title>Buenos Aires</title>
</circle><line x1="361.959991" y1="1779.959961" x2="179.959991" y2="1701.959961" stroke="red" stroke-width="6.660000" />
</svg>
