<?xml version="1.0" encoding="UTF-8" standalone="no"?>
<svg width="500" height="500" viewBox="0 0 2074.000000 2074.000000" xmlns="http://www.w3.org/2000/svg">
<rect x="19.000000" y="19.000000" width="2036.000000" height="2036.000000" fill="black" />
<circle cx="388.959991" cy="1380.959961" r="19.980000" fill="red">
  <title>Tokyo</title>
</circle><line x1="898.960022" y1="1880.959961" x2="388.959991" y2="1380.959961" stroke="red" stroke-width="6.660000" />
<circle cx="284.959991" cy="940.960022" r="19.980000" fill="red">
  <title>Mumbai</title>
</circle><line x1="388.959991" y1="1380.959961" x2="284.959991" y2="940.960022" stroke="red" stroke-width="6.660000" />
<circle cx="698.960022" cy="635.960022" r="19.980000" fill="red">
  <title>São Paulo</title>
</circle><line x1="284.959991" y1="940.960022" x2="698.960022" y2="635.960022" stroke="red" stroke-width="6.660000" />
<circle cx="815.960022" cy="120.959999" r="19.980000" fill="red">
  <title>Cairo</title>
</circle><line x1="698.960022" y1="635.960022" x2="815.960022" y2="120.959999" stroke="red" stroke-width="6.660000" />
<circle cx="1612.959961" cy="185.959991" r="19.980000" fill="red">
  <title>Delhi</title>
</circle><line x1="815.960022" y1="120.959999" x2="1612.959961" y2="185.959991" stroke="red" stroke-width="6.660000" />
<circle cx="1040.959961" cy="742.960022" r="19.980000" fill="red">
  <title>Mexico City</title>
</circle><line x1="1612.959961" y1="185.959991" x2="1040.959961" y2="742.960022" stroke="red" stroke-width="6.660000" />
<circle cx="1061.959961" cy="1998.959961" r="19.980000" fill="red">
  <title>Shanghai</title>
</circle><line x1="1040.959961" y1="742.960022" x2="1061.959961" y2="1998.959961" stroke="red" stroke-width="6.660000" />
<circle cx="898.960022" cy="1880.959961" r="19.980000" fill="red">
  <title>Beijing</title>
</circle><line x1="1061.959961" y1="1998.959961" x2="898.960022" y2="1880.959961" stroke="red" stroke-width="6.660000" />
</svg>
