<?xml version="1.0" encoding="UTF-8" standalone="no"?>
<svg width="500" height="500" viewBox="0 0 2074.000000 2074.000000" xmlns="http://www.w3.org/2000/svg">
<rect x="19.000000" y="19.000000" width="2036.000000" height="2036.000000" fill="black" />
<circle cx="863.960022" cy="1027.959961" r="19.980000" fill="red">
  <title>Tokyo</title>
</circle><line x1="602.960022" y1="530.960022" x2="863.960022" y2="1027.959961" stroke="red" stroke-width="6.660000" />
<circle cx="1322.959961" cy="1121.959961" r="19.980000" fill="red">
  <title>Delhi</title>
</circle><line x1="863.960022" y1="1027.959961" x2="1322.959961" y2="1121.959961" stroke="red" stroke-width="6.660000" />
<circle cx="1887.959961" cy="816.960022" r="19.980000" fill="red">
  <title>Mexico City</title>
</circle><line x1="1322.959961" y1="1121.959961" x2="1887.959961" y2="816.960022" stroke="red" stroke-width="6.660000" />
<circle cx="1833.959961" cy="1430.959961" r="19.980000" fill="red">
  <title>Shanghai</title>
</circle><line x1="1887.959961" y1="816.960022" x2="1833.959961" y2="1430.959961" stroke="red" stroke-width="6.660000" />
<circle cx="754.960022" cy="1517.959961" r="19.980000" fill="red">
  <title>Cairo</title>
</circle><line x1="1833.959961" y1="1430.959961" x2="754.960022" y2="1517.959961" stroke="red" stroke-width="6.660000" />
<circle cx="50.959999" cy="1387.959961" r="19.980000" fill="red">
  <title>São Paulo</title>
</circle><line x1="754.960022" y1="1517.959961" x2="50.959999" y2="1387.959961" stroke="red" stroke-width="6.660000" />
<circle cx="602.960022" cy="530.960022" r="19.980000" fill="red">
  <title>Mumbai</title>
</circle><line x1="50.959999" y1="1387.959961" x2="602.960022" y2="530.960022" stroke="red" stroke-width="6.660000" />
</svg>
