<?xml version="1.0" encoding="UTF-8" standalone="no"?>
<svg width="500" height="500" viewBox="0 0 2074.000000 2074.000000" xmlns="http://www.w3.org/2000/svg">
<rect x="19.000000" y="19.000000" width="2036.000000" height="2036.000000" fill="black" />
<circle cx="883.960022" cy="1742.959961" r="19.980000" fill="red">
  <title>Tokyo</title>
</circle><line x1="1512.959961" y1="1650.959961" x2="883.960022" y2="1742.959961" stroke="red" stroke-width="6.660000" />
<circle cx="1273.959961" cy="880.960022" r="19.980000" fill="red">
  <title>Delhi</title>
</circle><line x1="883.960022" y1="1742.959961" x2="1273.959961" y2="880.960022" stroke="red" stroke-width="6.660000" />
<circle cx="1976.959961" cy="911.960022" r="19.980000" fill="red">
  <title>São Paulo</title>
</circle><line x1="1273.959961" y1="880.960022" x2="1976.959961" y2="911.960022" stroke="red" stroke-width="6.660000" />
<circle cx="1512.959961" cy="1650.959961" r="19.980000" fill="red">
  <title>Shanghai</title>
</circle><line x1="1976.959961" y1="911.960022" x2="1512.959961" y2="1650.959961" stroke="red" stroke-width="6.660000" />
</svg>
