<?xml version="1.0" encoding="UTF-8" standalone="no"?>
<svg width="500" height="500" viewBox="0 0 2074.000000 2074.000000" xmlns="http://www.w3.org/2000/svg">
<rect x="19.000000" y="19.000000" width="2036.000000" height="2036.000000" fill="black" />
<circle cx="1300.959961" cy="1319.959961" r="19.980000" fill="red">
  <title>Tokyo</title>
</circle><line x1="1375.959961" y1="2036.959961" x2="1300.959961" y2="1319.959961" stroke="red" stroke-width="6.660000" />
<circle cx="759.960022" cy="551.960022" r="19.980000" fill="red">
  <title>Shanghai</title>
</circle><line x1="1300.959961" y1="1319.959961" x2="759.960022" y2="551.960022" stroke="red" stroke-width="6.660000" />
<circle cx="306.959991" cy="297.959991" r="19.980000" fill="red">
  <title>Mexico City</title>
</circle><line x1="759.960022" y1="551.960022" x2="306.959991" y2="297.959991" stroke="red" stroke-width="6.660000" />
<circle cx="592.960022" cy="331.959991" r="19.980000" fill="red">
  <title>Cairo</title>
</circle><line x1="306.959991" y1="297.959991" x2="592.960022" y2="331.959991" stroke="red" stroke-width="6.660000" />
<circle cx="1126.959961" cy="208.959991" r="19.980000" fill="red">
  <title>Delhi</title>
</circle><line x1="592.960022" y1="331.959991" x2="1126.959961" y2="208.959991" stroke="red" stroke-width="6.660000" />
<circle cx="1668.959961" cy="979.960022" r="19.980000" fill="red">
  <title>Beijing</title>
</circle><line x1="1126.959961" y1="208.959991" x2="1668.959961" y2="979.960022" stroke="red" stroke-width="6.660000" />
<circle cx="1474.959961" cy="1301.959961" r="19.980000" fill="red">
  <title>Mumbai</title>
</circle><line x1="1668.959961" y1="979.960022" x2="1474.959961" y2="1301.959961" stroke="red" stroke-width="6.660000" />
<circle cx="1375.959961" cy="2036.959961" r="19.980000" fill="red">
  <title>São Paulo</title>
</circle><line x1="1474.959961" y1="1301.959961" x2="1375.959961" y2="2036.959961" stroke="red" stroke-width="6.660000" />
</svg>
