<?xml version="1.0" encoding="UTF-8" standalone="no"?>
<svg width="500" height="500" viewBox="0 0 2074.000000 2074.000000" xmlns="http://www.w3.org/2000/svg">
<rect x="19.000000" y="19.000000" width="2036.000000" height="2036.000000" fill="black" />
<circle cx="1570.959961" cy="1447.959961" r="19.980000" fill="red">
  <title>Tokyo</title>
</circle><line x1="1854.959961" y1="1150.959961" x2="1570.959961" y2="1447.959961" stroke="red" stroke-width="6.660000" />
<circle cx="1565.959961" cy="1974.959961" r="19.980000" fill="red">
  <title>Cairo</title>
</circle><line x1="1570.959961" y1="1447.959961" x2="1565.959961" y2="1974.959961" stroke="red" stroke-width="6.660000" />
<circle cx="984.960022" cy="1960.959961" r="19.980000" fill="red">
  <title>Delhi</title>
</circle><line x1="1565.959961" y1="1974.959961" x2="984.960022" y2="1960.959961" stroke="red" stroke-width="6.660000" />
<circle cx="1144.959961" cy="1530.959961" r="19.980000" fill="red">
  <title>Beijing</title>
</circle><line x1="984.960022" y1="1960.959961" x2="1144.959961" y2="1530.959961" stroke="red" stroke-width="6.660000" />
<circle cx="1272.959961" cy="1214.959961" r="19.980000" fill="red">
  <title>Shanghai</title>
</circle><line x1="1144.959961" y1="1530.959961" x2="1272.959961" y2="1214.959961" stroke="red" stroke-width="6.660000" />
<circle cx="756.960022" cy="1201.959961" r="19.980000" fill="red">
  <title>São Paulo</title>
</circle><line x1="1272.959961" y1="1214.959961" x2="756.960022" y2="1201.959961" stroke="red" stroke-width="6.660000" />
<circle cx="457.959991" cy="517.960022" r="19.980000" fill="red">
  <title>Karachi</title>
</circle><line x1="756.960022" y1="1201.959961" x2="457.959991" y2="517.960022" stroke="red" stroke-width="6.660000" />
<circle cx="438.959991" cy="163.959991" r="19.980000" fill="red">
  <title>Dhaka</title>
</circle><line x1="457.959991" y1="517.960022" x2="438.959991" y2="163.959991" stroke="red" stroke-width="6.660000" />
<circle cx="565.960022" cy="373.959991" r="19.980000" fill="red">
  <title>Mumbai</title>
</circle><line x1="438.959991" y1="163.959991" x2="565.960022" y2="373.959991" stroke="red" stroke-width="6.660000" />
<circle cx="1811.959961" cy="371.959991" r="19.980000" fill="red">
  <title>Mexico City</title>
</circle><line x1="565.960022" y1="373.959991" x2="1811.959961" y2="371.959991" stroke="red" stroke-width="6.660000" />
<circle cx="1611.959961" cy="914.960022" r="19.980000" fill="red">
  <title>Osaka</title>
</circle><line x1="1811.959961" y1="371.959991" x2="1611.959961" y2="914.960022" stroke="red" stroke-width="6.660000" />
<circle cx="1854.959961" cy="1150.959961" r="19.980000" fill="red">
  <title>New York</title>
</circle><line x1="1611.959961" y1="914.960022" x2="1854.959961" y2="1150.959961" stroke="red" stroke-width="6.660000" />
</svg>
