<?xml version="1.0" encoding="UTF-8" standalone="no"?>
<svg width="500" height="500" viewBox="0 0 2074.000000 2074.000000" xmlns="http://www.w3.org/2000/svg">
<rect x="19.000000" y="19.000000" width="2036.000000" height="2036.000000" fill="black" />
<circle cx="1505.959961" cy="109.959999" r="19.980000" fill="red">
  <title>Tokyo</title>
</circle><line x1="1121.959961" y1="650.960022" x2="1505.959961" y2="109.959999" stroke="red" stroke-width="6.660000" />
<circle cx="1030.959961" cy="58.959999" r="19.980000" fill="red">
  <title>Shanghai</title>
</circle><line x1="1505.959961" y1="109.959999" x2="1030.959961" y2="58.959999" stroke="red" stroke-width="6.660000" />
<circle cx="417.959991" cy="386.959991" r="19.980000" fill="red">
  <title>Osaka</title>
</circle><line x1="1030.959961" y1="58.959999" x2="417.959991" y2="386.959991" stroke="red" stroke-width="6.660000" />
<circle cx="640.960022" cy="979.960022" r="19.980000" fill="red">
  <title>Cairo</title>
</circle><line x1="417.959991" y1="386.959991" x2="640.960022" y2="979.960022" stroke="red" stroke-width="6.660000" />
<circle cx="147.959991" cy="1399.959961" r="19.980000" fill="red">
  <title>New York</title>
</circle><line x1="640.960022" y1="979.960022" x2="147.959991" y2="1399.959961" stroke="red" stroke-width="6.660000" />
<circle cx="50.959999" cy="2016.959961" r="19.980000" fill="red">
  <title>Karachi</title>
</circle><line x1="147.959991" y1="1399.959961" x2="50.959999" y2="2016.959961" stroke="red" stroke-width="6.660000" />
<circle cx="452.959991" cy="1796.959961" r="19.980000" fill="red">
  <title>Delhi</title>
</circle><line x1="50.959999" y1="2016.959961" x2="452.959991" y2="1796.959961" stroke="red" stroke-width="6.660000" />
<circle cx="795.960022" cy="1573.959961" r="19.980000" fill="red">
  <title>Mumbai</title>
</circle><line x1="452.959991" y1="1796.959961" x2="795.960022" y2="1573.959961" stroke="red" stroke-width="6.660000" />
<circle cx="2012.959961" cy="1475.959961" r="19.980000" fill="red">
  <title>Beijing</title>
</circle><line x1="795.960022" y1="1573.959961" x2="2012.959961" y2="1475.959961" stroke="red" stroke-width="6.660000" />
<circle cx="2016.959961" cy="879.960022" r="19.980000" fill="red">
  <title>São Paulo</title>
</circle><line x1="2012.959961" y1="1475.959961" x2="2016.959961" y2="879.960022" stroke="red" stroke-width="6.660000" />
<circle cx="1786.959961" cy="1007.960022" r="19.980000" fill="red">
  <title>Mexico City</title>
</circle><line x1="2016.959961" y1="879.960022" x2="1786.959961" y2="1007.960022" stroke="red" stroke-width="6.660000" />
<circle cx="1121.959961" cy="650.960022" r="19.980000" fill="red">
  <title>Dhaka</title>
</circle><line x1="1786.959961" y1="1007.960022" x2="1121.959961" y2="650.960022" stroke="red" stroke-width="6.660000" />
</svg>
