<?xml version="1.0" encoding="UTF-8" standalone="no"?>
<svg width="500" height="500" viewBox="0 0 2074.000000 2074.000000" xmlns="http://www.w3.org/2000/svg">
<rect x="19.000000" y="19.000000" width="2036.000000" height="2036.000000" fill="black" />
<circle cx="40.959999" cy="560.960022" r="19.980000" fill="red">
  <title>Tokyo</title>
</circle><line x1="730.960022" y1="74.959999" x2="40.959999" y2="560.960022" stroke="red" stroke-width="6.660000" />
<circle cx="669.960022" cy="1886.959961" r="19.980000" fill="red">
  <title>Osaka</title>
</circle><line x1="40.959999" y1="560.960022" x2="669.960022" y2="1886.959961" stroke="red" stroke-width="6.660000" />
<circle cx="788.960022" cy="1910.959961" r="19.980000" fill="red">
  <title>Karachi</title>
</circle><line x1="669.960022" y1="1886.959961" x2="788.960022" y2="1910.959961" stroke="red" stroke-width="6.660000" />
<circle cx="1275.959961" cy="1405.959961" r="19.980000" fill="red">
  <title>Istanbul</title>
</circle><line x1="788.960022" y1="1910.959961" x2="1275.959961" y2="1405.959961" stroke="red" stroke-width="6.660000" />
<circle cx="1327.959961" cy="1469.959961" r="19.980000" fill="red">
  <title>Delhi</title>
</circle><line x1="1275.959961" y1="1405.959961" x2="1327.959961" y2="1469.959961" stroke="red" stroke-width="6.660000" />
<circle cx="1564.959961" cy="1859.959961" r="19.980000" fill="red">
  <title>Buenos Aires</title>
</circle><line x1="1327.959961" y1="1469.959961" x2="1564.959961" y2="1859.959961" stroke="red" stroke-width="6.660000" />
<circle cx="1843.959961" cy="1897.959961" r="19.980000" fill="red">
  <title>São Paulo</title>
</circle><line x1="1564.959961" y1="1859.959961" x2="1843.959961" y2="1897.959961" stroke="red" stroke-width="6.660000" />
<circle cx="1922.959961" cy="1540.959961" r="19.980000" fill="red">
  <title>Mexico City</title>
</circle><line x1="1843.959961" y1="1897.959961" x2="1922.959961" y2="1540.959961" stroke="red" stroke-width="6.660000" />
<circle cx="1720.959961" cy="1277.959961" r="19.980000" fill="red">
  <title>Kolkata</title>
</circle><line x1="1922.959961" y1="1540.959961" x2="1720.959961" y2="1277.959961" stroke="red" stroke-width="6.660000" />
<circle cx="1726.959961" cy="1040.959961" r="19.980000" fill="red">
  <title>Dhaka</title>
</circle><line x1="1720.959961" y1="1277.959961" x2="1726.959961" y2="1040.959961" stroke="red" stroke-width="6.660000" />
<circle cx="1926.959961" cy="1010.960022" r="19.980000" fill="red">
  <title>Manila</title>
</circle><line x1="1726.959961" y1="1040.959961" x2="1926.959961" y2="1010.960022" stroke="red" stroke-width="6.660000" />
<circle cx="1735.959961" cy="367.959991" r="19.980000" fill="red">
  <title>New York</title>
</circle><line x1="1926.959961" y1="1010.960022" x2="1735.959961" y2="367.959991" stroke="red" stroke-width="6.660000" />
<circle cx="1801.959961" cy="165.959991" r="19.980000" fill="red">
  <title>Shanghai</title>
</circle><line x1="1735.959961" y1="367.959991" x2="1801.959961" y2="165.959991" stroke="red" stroke-width="6.660000" />
<circle cx="1439.959961" cy="295.959991" r="19.980000" fill="red">
  <title>Cairo</title>
</circle><line x1="1801.959961" y1="165.959991" x2="1439.959961" y2="295.959991" stroke="red" stroke-width="6.660000" />
<circle cx="1036.959961" cy="512.960022" r="19.980000" fill="red">
  <title>Mumbai</title>
</circle><line x1="1439.959961" y1="295.959991" x2="1036.959961" y2="512.960022" stroke="red" stroke-width="6.660000" />
<circle cx="775.960022" cy="103.959999" r="19.980000" fill="red">
  <title>Beijing</title>
</circle><line x1="1036.959961" y1="512.960022" x2="775.960022" y2="103.959999" stroke="red" stroke-width="6.660000" />
<circle cx="730.960022" cy="74.959999" r="19.980000" fill="red">
  <title>Chongqing</title>
</circle><line x1="775.960022" y1="103.959999" x2="730.960022" y2="74.959999" stroke="red" stroke-width="6.660000" />
</svg>
