<?xml version="1.0" encoding="UTF-8" standalone="no"?>
<svg width="500" height="500" viewBox="0 0 2074.000000 2074.000000" xmlns="http://www.w3.org/2000/svg">
<rect x="19.000000" y="19.000000" width="2036.000000" height="2036.000000" fill="black" />
<circle cx="743.960022" cy="1530.959961" r="19.980000" fill="red">
  <title>Tokyo</title>
</circle><line x1="675.960022" y1="1421.959961" x2="743.960022" y2="1530.959961" stroke="red" stroke-width="6.660000" />
<circle cx="471.959991" cy="1759.959961" r="19.980000" fill="red">
  <title>Delhi</title>
</circle><line x1="743.960022" y1="1530.959961" x2="471.959991" y2="1759.959961" stroke="red" stroke-width="6.660000" />
<circle cx="566.960022" cy="1817.959961" r="19.980000" fill="red">
  <title>Mexico City</title>
</circle><line x1="471.959991" y1="1759.959961" x2="566.960022" y2="1817.959961" stroke="red" stroke-width="6.660000" />
<circle cx="589.960022" cy="1790.959961" r="19.980000" fill="red">
  <title>Osaka</title>
</circle><line x1="566.960022" y1="1817.959961" x2="589.960022" y2="1790.959961" stroke="red" stroke-width="6.660000" />
<circle cx="1008.960022" cy="1759.959961" r="19.980000" fill="red">
  <title>New York</title>
</circle><line x1="589.960022" y1="1790.959961" x2="1008.960022" y2="1759.959961" stroke="red" stroke-width="6.660000" />
<circle cx="1497.959961" cy="1539.959961" r="19.980000" fill="red">
  <title>Mumbai</title>
</circle><line x1="1008.960022" y1="1759.959961" x2="1497.959961" y2="1539.959961" stroke="red" stroke-width="6.660000" />
<circle cx="1586.959961" cy="408.959991" r="19.980000" fill="red">
  <title>Dhaka</title>
</circle><line x1="1497.959961" y1="1539.959961" x2="1586.959961" y2="408.959991" stroke="red" stroke-width="6.660000" />
<circle cx="1544.959961" cy="115.959999" r="19.980000" fill="red">
  <title>Karachi</title>
</circle><line x1="1586.959961" y1="408.959991" x2="1544.959961" y2="115.959999" stroke="red" stroke-width="6.660000" />
<circle cx="900.960022" cy="654.960022" r="19.980000" fill="red">
  <title>São Paulo</title>
</circle><line x1="1544.959961" y1="115.959999" x2="900.960022" y2="654.960022" stroke="red" stroke-width="6.660000" />
<circle cx="306.959991" cy="333.959991" r="19.980000" fill="red">
  <title>Cairo</title>
</circle><line x1="900.960022" y1="654.960022" x2="306.959991" y2="333.959991" stroke="red" stroke-width="6.660000" />
<circle cx="207.959991" cy="891.960022" r="19.980000" fill="red">
  <title>Buenos Aires</title>
</circle><line x1="306.959991" y1="333.959991" x2="207.959991" y2="891.960022" stroke="red" stroke-width="6.660000" />
<circle cx="771.960022" cy="1195.959961" r="19.980000" fill="red">
  <title>Shanghai</title>
</circle><line x1="207.959991" y1="891.960022" x2="771.960022" y2="1195.959961" stroke="red" stroke-width="6.660000" />
<circle cx="675.960022" cy="1421.959961" r="19.980000" fill="red">
  <title>Beijing</title>
</circle><line x1="771.960022" y1="1195.959961" x2="675.960022" y2="1421.959961" stroke="red" stroke-width="6.660000" />
</svg>
