<?xml version="1.0" encoding="UTF-8" standalone="no"?>
<svg width="500" height="500" viewBox="0 0 2074.000000 2074.000000" xmlns="http://www.w3.org/2000/svg">
<rect x="19.000000" y="19.000000" width="2036.000000" height="2036.000000" fill="black" />
<circle cx="1888.959961" cy="241.959991" r="19.980000" fill="red">
  <title>Tokyo</title>
</circle><line x1="1730.959961" y1="1314.959961" x2="1888.959961" y2="241.959991" stroke="red" stroke-width="6.660000" />
<circle cx="1485.959961" cy="237.959991" r="19.980000" fill="red">
  <title>Istanbul</title>
</circle><line x1="1888.959961" y1="241.959991" x2="1485.959961" y2="237.959991" stroke="red" stroke-width="6.660000" />
<circle cx="1003.960022" cy="588.960022" r="19.980000" fill="red">
  <title>Mumbai</title>
</circle><line x1="1485.959961" y1="237.959991" x2="1003.960022" y2="588.960022" stroke="red" stroke-width="6.660000" />
<circle cx="1012.960022" cy="421.959991" r="19.980000" fill="red">
  <title>Osaka</title>
</circle><line x1="1003.960022" y1="588.960022" x2="1012.960022" y2="421.959991" stroke="red" stroke-width="6.660000" />
<circle cx="892.960022" cy="53.959999" r="19.980000" fill="red">
  <title>New York</title>
</circle><line x1="1012.960022" y1="421.959991" x2="892.960022" y2="53.959999" stroke="red" stroke-width="6.660000" />
<circle cx="412.959991" cy="102.959999" r="19.980000" fill="red">
  <title>Karachi</title>
</circle><line x1="892.960022" y1="53.959999" x2="412.959991" y2="102.959999" stroke="red" stroke-width="6.660000" />
<circle cx="500.959991" cy="597.960022" r="19.980000" fill="red">
  <title>São Paulo</title>
</circle><line x1="412.959991" y1="102.959999" x2="500.959991" y2="597.960022" stroke="red" stroke-width="6.660000" />
<circle cx="536.960022" cy="761.960022" r="19.980000" fill="red">
  <title>Cairo</title>
</circle><line x1="500.959991" y1="597.960022" x2="536.960022" y2="761.960022" stroke="red" stroke-width="6.660000" />
<circle cx="581.960022" cy="793.960022" r="19.980000" fill="red">
  <title>Buenos Aires</title>
</circle><line x1="536.960022" y1="761.960022" x2="581.960022" y2="793.960022" stroke="red" stroke-width="6.660000" />
<circle cx="237.959991" cy="1150.959961" r="19.980000" fill="red">
  <title>Shanghai</title>
</circle><line x1="581.960022" y1="793.960022" x2="237.959991" y2="1150.959961" stroke="red" stroke-width="6.660000" />
<circle cx="927.960022" cy="1319.959961" r="19.980000" fill="red">
  <title>Mexico City</title>
</circle><line x1="237.959991" y1="1150.959961" x2="927.960022" y2="1319.959961" stroke="red" stroke-width="6.660000" />
<circle cx="656.960022" cy="1804.959961" r="19.980000" fill="red">
  <title>Dhaka</title>
</circle><line x1="927.960022" y1="1319.959961" x2="656.960022" y2="1804.959961" stroke="red" stroke-width="6.660000" />
<circle cx="533.960022" cy="1986.959961" r="19.980000" fill="red">
  <title>Chongqing</title>
</circle><line x1="656.960022" y1="1804.959961" x2="533.960022" y2="1986.959961" stroke="red" stroke-width="6.660000" />
<circle cx="1233.959961" cy="1825.959961" r="19.980000" fill="red">
  <title>Delhi</title>
</circle><line x1="533.960022" y1="1986.959961" x2="1233.959961" y2="1825.959961" stroke="red" stroke-width="6.660000" />
<circle cx="1497.959961" cy="1336.959961" r="19.980000" fill="red">
  <title>Kolkata</title>
</circle><line x1="1233.959961" y1="1825.959961" x2="1497.959961" y2="1336.959961" stroke="red" stroke-width="6.660000" />
<circle cx="1730.959961" cy="1314.959961" r="19.980000" fill="red">
  <title>Beijing</title>
</circle><line x1="1497.959961" y1="1336.959961" x2="1730.959961" y2="1314.959961" stroke="red" stroke-width="6.660000" />
</svg>
