<?xml version="1.0" encoding="UTF-8" standalone="no"?>
<svg width="500" height="500" viewBox="0 0 2074.000000 2074.000000" xmlns="http://www.w3.org/2000/svg">
<rect x="19.000000" y="19.000000" width="2036.000000" height="2036.000000" fill="black" />
<circle cx="1821.959961" cy="661.960022" r="19.980000" fill="red">
  <title>Tokyo</title>
</circle><line x1="1881.959961" y1="909.960022" x2="1821.959961" y2="661.960022" stroke="red" stroke-width="6.660000" />
<circle cx="1684.959961" cy="219.959991" r="19.980000" fill="red">
  <title>Chongqing</title>
</circle><line x1="1821.959961" y1="661.960022" x2="1684.959961" y2="219.959991" stroke="red" stroke-width="6.660000" />
<circle cx="1154.959961" cy="547.960022" r="19.980000" fill="red">
  <title>Buenos Aires</title>
</circle><line x1="1684.959961" y1="219.959991" x2="1154.959961" y2="547.960022" stroke="red" stroke-width="6.660000" />
<circle cx="649.960022" cy="322.959991" r="19.980000" fill="red">
  <title>New York</title>
</circle><line x1="1154.959961" y1="547.960022" x2="649.960022" y2="322.959991" stroke="red" stroke-width="6.660000" />
<circle cx="78.959999" cy="313.959991" r="19.980000" fill="red">
  <title>Istanbul</title>
</circle><line x1="649.960022" y1="322.959991" x2="78.959999" y2="313.959991" stroke="red" stroke-width="6.660000" />
<circle cx="88.959999" cy="681.960022" r="19.980000" fill="red">
  <title>Rio de Janeiro</title>
</circle><line x1="78.959999" y1="313.959991" x2="88.959999" y2="681.960022" stroke="red" stroke-width="6.660000" />
<circle cx="217.959991" cy="1072.959961" r="19.980000" fill="red">
  <title>Shanghai</title>
</circle><line x1="88.959999" y1="681.960022" x2="217.959991" y2="1072.959961" stroke="red" stroke-width="6.660000" />
<circle cx="144.959991" cy="1170.959961" r="19.980000" fill="red">
  <title>Beijing</title>
</circle><line x1="217.959991" y1="1072.959961" x2="144.959991" y2="1170.959961" stroke="red" stroke-width="6.660000" />
<circle cx="190.959991" cy="1860.959961" r="19.980000" fill="red">
  <title>Kolkata</title>
</circle><line x1="144.959991" y1="1170.959961" x2="190.959991" y2="1860.959961" stroke="red" stroke-width="6.660000" />
<circle cx="667.960022" cy="1930.959961" r="19.980000" fill="red">
  <title>Tianjin</title>
</circle><line x1="190.959991" y1="1860.959961" x2="667.960022" y2="1930.959961" stroke="red" stroke-width="6.660000" />
<circle cx="646.960022" cy="1738.959961" r="19.980000" fill="red">
  <title>Karachi</title>
</circle><line x1="667.960022" y1="1930.959961" x2="646.960022" y2="1738.959961" stroke="red" stroke-width="6.660000" />
<circle cx="903.960022" cy="1262.959961" r="19.980000" fill="red">
  <title>Delhi</title>
</circle><line x1="646.960022" y1="1738.959961" x2="903.960022" y2="1262.959961" stroke="red" stroke-width="6.660000" />
<circle cx="936.960022" cy="1054.959961" r="19.980000" fill="red">
  <title>Manila</title>
</circle><line x1="903.960022" y1="1262.959961" x2="936.960022" y2="1054.959961" stroke="red" stroke-width="6.660000" />
<circle cx="1084.959961" cy="1114.959961" r="19.980000" fill="red">
  <title>Lagos</title>
</circle><line x1="936.960022" y1="1054.959961" x2="1084.959961" y2="1114.959961" stroke="red" stroke-width="6.660000" />
<circle cx="1312.959961" cy="1545.959961" r="19.980000" fill="red">
  <title>Mumbai</title>
</circle><line x1="1084.959961" y1="1114.959961" x2="1312.959961" y2="1545.959961" stroke="red" stroke-width="6.660000" />
<circle cx="1618.959961" cy="1971.959961" r="19.980000" fill="red">
  <title>Osaka</title>
</circle><line x1="1312.959961" y1="1545.959961" x2="1618.959961" y2="1971.959961" stroke="red" stroke-width="6.660000" />
<circle cx="1634.959961" cy="1591.959961" r="19.980000" fill="red">
  <title>São Paulo</title>
</circle><line x1="1618.959961" y1="1971.959961" x2="1634.959961" y2="1591.959961" stroke="red" stroke-width="6.660000" />
<circle cx="1624.959961" cy="1529.959961" r="19.980000" fill="red">
  <title>Dhaka</title>
</circle><line x1="1634.959961" y1="1591.959961" x2="1624.959961" y2="1529.959961" stroke="red" stroke-width="6.660000" />
<circle cx="1633.959961" cy="1520.959961" r="19.980000" fill="red">
  <title>Cairo</title>
</circle><line x1="1624.959961" y1="1529.959961" x2="1633.959961" y2="1520.959961" stroke="red" stroke-width="6.660000" />
<circle cx="1881.959961" cy="909.960022" r="19.980000" fill="red">
  <title>Mexico City</title>
</circle><line x1="1633.959961" y1="1520.959961" x2="1881.959961" y2="909.960022" stroke="red" stroke-width="6.660000" />
</svg>
