<?xml version="1.0" encoding="UTF-8" standalone="no"?>
<svg width="500" height="500" viewBox="0 0 2074.000000 2074.000000" xmlns="http://www.w3.org/2000/svg">
<rect x="19.000000" y="19.000000" width="2036.000000" height="2036.000000" fill="black" />
<circle cx="1244.959961" cy="121.959999" r="19.980000" fill="red">
  <title>Tokyo</title>
</circle><line x1="1102.959961" y1="74.959999" x2="1244.959961" y2="121.959999" stroke="red" stroke-width="6.660000" />
<circle cx="1478.959961" cy="89.959999" r="19.980000" fill="red">
  <title>Dhaka</title>
</circle><line x1="1244.959961" y1="121.959999" x2="1478.959961" y2="89.959999" stroke="red" stroke-width="6.660000" />
<circle cx="1630.959961" cy="483.959991" r="19.980000" fill="red">
  <title>Karachi</title>
</circle><line x1="1478.959961" y1="89.959999" x2="1630.959961" y2="483.959991" stroke="red" stroke-width="6.660000" />
<circle cx="1786.959961" cy="1411.959961" r="19.980000" fill="red">
  <title>Cairo</title>
</circle><line x1="1630.959961" y1="483.959991" x2="1786.959961" y2="1411.959961" stroke="red" stroke-width="6.660000" />
<circle cx="1612.959961" cy="1784.959961" r="19.980000" fill="red">
  <title>São Paulo</title>
</circle><line x1="1786.959961" y1="1411.959961" x2="1612.959961" y2="1784.959961" stroke="red" stroke-width="6.660000" />
<circle cx="1177.959961" cy="1650.959961" r="19.980000" fill="red">
  <title>Shanghai</title>
</circle><line x1="1612.959961" y1="1784.959961" x2="1177.959961" y2="1650.959961" stroke="red" stroke-width="6.660000" />
<circle cx="1048.959961" cy="1659.959961" r="19.980000" fill="red">
  <title>Beijing</title>
</circle><line x1="1177.959961" y1="1650.959961" x2="1048.959961" y2="1659.959961" stroke="red" stroke-width="6.660000" />
<circle cx="1172.959961" cy="1296.959961" r="19.980000" fill="red">
  <title>Mumbai</title>
</circle><line x1="1048.959961" y1="1659.959961" x2="1172.959961" y2="1296.959961" stroke="red" stroke-width="6.660000" />
<circle cx="676.960022" cy="1173.959961" r="19.980000" fill="red">
  <title>Delhi</title>
</circle><line x1="1172.959961" y1="1296.959961" x2="676.960022" y2="1173.959961" stroke="red" stroke-width="6.660000" />
<circle cx="146.959991" cy="609.960022" r="19.980000" fill="red">
  <title>Mexico City</title>
</circle><line x1="676.960022" y1="1173.959961" x2="146.959991" y2="609.960022" stroke="red" stroke-width="6.660000" />
<circle cx="113.959999" cy="52.959999" r="19.980000" fill="red">
  <title>New York</title>
</circle><line x1="146.959991" y1="609.960022" x2="113.959999" y2="52.959999" stroke="red" stroke-width="6.660000" />
<circle cx="1102.959961" cy="74.959999" r="19.980000" fill="red">
  <title>Osaka</title>
</circle><line x1="113.959999" y1="52.959999" x2="1102.959961" y2="74.959999" stroke="red" stroke-width="6.660000" />
</svg>
