<?xml version="1.0" encoding="UTF-8" standalone="no"?>
<svg width="500" height="500" viewBox="0 0 2074.000000 2074.000000" xmlns="http://www.w3.org/2000/svg">
<rect x="19.000000" y="19.000000" width="2036.000000" height="2036.000000" fill="black" />
<circle cx="1520.959961" cy="1155.959961" r="19.980000" fill="red">
  <title>Tokyo</title>
</circle><line x1="1979.959961" y1="375.959991" x2="1520.959961" y2="1155.959961" stroke="red" stroke-width="6.660000" />
<circle cx="1547.959961" cy="1969.959961" r="19.980000" fill="red">
  <title>Shanghai</title>
</circle><line x1="1520.959961" y1="1155.959961" x2="1547.959961" y2="1969.959961" stroke="red" stroke-width="6.660000" />
<circle cx="985.960022" cy="1333.959961" r="19.980000" fill="red">
  <title>Cairo</title>
</circle><line x1="1547.959961" y1="1969.959961" x2="985.960022" y2="1333.959961" stroke="red" stroke-width="6.660000" />
<circle cx="669.960022" cy="1111.959961" r="19.980000" fill="red">
  <title>Mexico City</title>
</circle><line x1="985.960022" y1="1333.959961" x2="669.960022" y2="1111.959961" stroke="red" stroke-width="6.660000" />
<circle cx="464.959991" cy="1011.960022" r="19.980000" fill="red">
  <title>Delhi</title>
</circle><line x1="669.960022" y1="1111.959961" x2="464.959991" y2="1011.960022" stroke="red" stroke-width="6.660000" />
<circle cx="74.959999" cy="1116.959961" r="19.980000" fill="red">
  <title>São Paulo</title>
</circle><line x1="464.959991" y1="1011.960022" x2="74.959999" y2="1116.959961" stroke="red" stroke-width="6.660000" />
<circle cx="51.959999" cy="890.960022" r="19.980000" fill="red">
  <title>Osaka</title>
</circle><line x1="74.959999" y1="1116.959961" x2="51.959999" y2="890.960022" stroke="red" stroke-width="6.660000" />
<circle cx="379.959991" cy="790.960022" r="19.980000" fill="red">
  <title>Dhaka</title>
</circle><line x1="51.959999" y1="890.960022" x2="379.959991" y2="790.960022" stroke="red" stroke-width="6.660000" />
<circle cx="1206.959961" cy="237.959991" r="19.980000" fill="red">
  <title>Mumbai</title>
</circle><line x1="379.959991" y1="790.960022" x2="1206.959961" y2="237.959991" stroke="red" stroke-width="6.660000" />
<circle cx="1979.959961" cy="375.959991" r="19.980000" fill="red">
  <title>Beijing</title>
</circle><line x1="1206.959961" y1="237.959991" x2="1979.959961" y2="375.959991" stroke="red" stroke-width="6.660000" />
</svg>
