<?xml version="1.0" encoding="UTF-8" standalone="no"?>
<svg width="500" height="500" viewBox="0 0 2074.000000 2074.000000" xmlns="http://www.w3.org/2000/svg">
<rect x="19.000000" y="19.000000" width="2036.000000" height="2036.000000" fill="black" />
<circle cx="1176.959961" cy="578.960022" r="19.980000" fill="red">
  <title>Tokyo</title>
</circle><line x1="605.960022" y1="1932.959961" x2="1176.959961" y2="578.960022" stroke="red" stroke-width="6.660000" />
<circle cx="1356.959961" cy="482.959991" r="19.980000" fill="red">
  <title>Shanghai</title>
</circle><line x1="1176.959961" y1="578.960022" x2="1356.959961" y2="482.959991" stroke="red" stroke-width="6.660000" />
<circle cx="1767.959961" cy="405.959991" r="19.980000" fill="red">
  <title>São Paulo</title>
</circle><line x1="1356.959961" y1="482.959991" x2="1767.959961" y2="405.959991" stroke="red" stroke-width="6.660000" />
<circle cx="1421.959961" cy="702.960022" r="19.980000" fill="red">
  <title>Delhi</title>
</circle><line x1="1767.959961" y1="405.959991" x2="1421.959961" y2="702.960022" stroke="red" stroke-width="6.660000" />
<circle cx="605.960022" cy="1932.959961" r="19.980000" fill="red">
  <title>Mexico City</title>
</circle><line x1="1421.959961" y1="702.960022" x2="605.960022" y2="1932.959961" stroke="red" stroke-width="6.660000" />
</svg>
