<?xml version="1.0" encoding="UTF-8" standalone="no"?>
<svg width="500" height="500" viewBox="0 0 2074.000000 2074.000000" xmlns="http://www.w3.org/2000/svg">
<rect x="19.000000" y="19.000000" width="2036.000000" height="2036.000000" fill="black" />
<circle cx="96.959999" cy="718.960022" r="19.980000" fill="red">
  <title>Tokyo</title>
</circle><line x1="706.960022" y1="599.960022" x2="96.959999" y2="718.960022" stroke="red" stroke-width="6.660000" />
<circle cx="152.959991" cy="1189.959961" r="19.980000" fill="red">
  <title>Karachi</title>
</circle><line x1="96.959999" y1="718.960022" x2="152.959991" y2="1189.959961" stroke="red" stroke-width="6.660000" />
<circle cx="341.959991" cy="1632.959961" r="19.980000" fill="red">
  <title>Chongqing</title>
</circle><line x1="152.959991" y1="1189.959961" x2="341.959991" y2="1632.959961" stroke="red" stroke-width="6.660000" />
<circle cx="216.959991" cy="1987.959961" r="19.980000" fill="red">
  <title>Cairo</title>
</circle><line x1="341.959991" y1="1632.959961" x2="216.959991" y2="1987.959961" stroke="red" stroke-width="6.660000" />
<circle cx="1102.959961" cy="1636.959961" r="19.980000" fill="red">
  <title>Delhi</title>
</circle><line x1="216.959991" y1="1987.959961" x2="1102.959961" y2="1636.959961" stroke="red" stroke-width="6.660000" />
<circle cx="1921.959961" cy="2034.959961" r="19.980000" fill="red">
  <title>Buenos Aires</title>
</circle><line x1="1102.959961" y1="1636.959961" x2="1921.959961" y2="2034.959961" stroke="red" stroke-width="6.660000" />
<circle cx="1404.959961" cy="1407.959961" r="19.980000" fill="red">
  <title>Dhaka</title>
</circle><line x1="1921.959961" y1="2034.959961" x2="1404.959961" y2="1407.959961" stroke="red" stroke-width="6.660000" />
<circle cx="1759.959961" cy="710.960022" r="19.980000" fill="red">
  <title>Mumbai</title>
</circle><line x1="1404.959961" y1="1407.959961" x2="1759.959961" y2="710.960022" stroke="red" stroke-width="6.660000" />
<circle cx="1611.959961" cy="90.959999" r="19.980000" fill="red">
  <title>New York</title>
</circle><line x1="1759.959961" y1="710.960022" x2="1611.959961" y2="90.959999" stroke="red" stroke-width="6.660000" />
<circle cx="1011.960022" cy="860.960022" r="19.980000" fill="red">
  <title>Shanghai</title>
</circle><line x1="1611.959961" y1="90.959999" x2="1011.960022" y2="860.960022" stroke="red" stroke-width="6.660000" />
<circle cx="1108.959961" cy="945.960022" r="19.980000" fill="red">
  <title>Mexico City</title>
</circle><line x1="1011.960022" y1="860.960022" x2="1108.959961" y2="945.960022" stroke="red" stroke-width="6.660000" />
<circle cx="850.960022" cy="1102.959961" r="19.980000" fill="red">
  <title>São Paulo</title>
</circle><line x1="1108.959961" y1="945.960022" x2="850.960022" y2="1102.959961" stroke="red" stroke-width="6.660000" />
<circle cx="925.960022" cy="945.960022" r="19.980000" fill="red">
  <title>Beijing</title>
</circle><line x1="850.960022" y1="1102.959961" x2="925.960022" y2="945.960022" stroke="red" stroke-width="6.660000" />
<circle cx="706.960022" cy="599.960022" r="19.980000" fill="red">
  <title>Osaka</title>
</circle><line x1="925.960022" y1="945.960022" x2="706.960022" y2="599.960022" stroke="red" stroke-width="6.660000" />
</svg>
