<?xml version="1.0" encoding="UTF-8" standalone="no"?>
<svg width="500" height="500" viewBox="0 0 2074.000000 2074.000000" xmlns="http://www.w3.org/2000/svg">
<rect x="19.000000" y="19.000000" width="2036.000000" height="2036.000000" fill="black" />
<circle cx="632.960022" cy="1166.959961" r="19.980000" fill="red">
  <title>Tokyo</title>
</circle><line x1="121.959999" y1="469.959991" x2="632.960022" y2="1166.959961" stroke="red" stroke-width="6.660000" />
<circle cx="912.960022" cy="1421.959961" r="19.980000" fill="red">
  <title>São Paulo</title>
</circle><line x1="632.960022" y1="1166.959961" x2="912.960022" y2="1421.959961" stroke="red" stroke-width="6.660000" />
<circle cx="1704.959961" cy="1861.959961" r="19.980000" fill="red">
  <title>Mexico City</title>
</circle><line x1="912.960022" y1="1421.959961" x2="1704.959961" y2="1861.959961" stroke="red" stroke-width="6.660000" />
<circle cx="1839.959961" cy="1096.959961" r="19.980000" fill="red">
  <title>Dhaka</title>
</circle><line x1="1704.959961" y1="1861.959961" x2="1839.959961" y2="1096.959961" stroke="red" stroke-width="6.660000" />
<circle cx="1858.959961" cy="661.960022" r="19.980000" fill="red">
  <title>Cairo</title>
</circle><line x1="1839.959961" y1="1096.959961" x2="1858.959961" y2="661.960022" stroke="red" stroke-width="6.660000" />
<circle cx="1844.959961" cy="286.959991" r="19.980000" fill="red">
  <title>Delhi</title>
</circle><line x1="1858.959961" y1="661.960022" x2="1844.959961" y2="286.959991" stroke="red" stroke-width="6.660000" />
<circle cx="1580.959961" cy="273.959991" r="19.980000" fill="red">
  <title>Shanghai</title>
</circle><line x1="1844.959961" y1="286.959991" x2="1580.959961" y2="273.959991" stroke="red" stroke-width="6.660000" />
<circle cx="733.960022" cy="980.960022" r="19.980000" fill="red">
  <title>Mumbai</title>
</circle><line x1="1580.959961" y1="273.959991" x2="733.960022" y2="980.960022" stroke="red" stroke-width="6.660000" />
<circle cx="121.959999" cy="469.959991" r="19.980000" fill="red">
  <title>Beijing</title>
</circle><line x1="733.960022" y1="980.960022" x2="121.959999" y2="469.959991" stroke="red" stroke-width="6.660000" />
</svg>
