<?xml version="1.0" encoding="UTF-8" standalone="no"?>
<svg width="500" height="500" viewBox="0 0 2074.000000 2074.000000" xmlns="http://www.w3.org/2000/svg">
<rect x="19.000000" y="19.000000" width="2036.000000" height="2036.000000" fill="black" />
<circle cx="714.960022" cy="1130.959961" r="19.980000" fill="red">
  <title>Tokyo</title>
</circle><line x1="951.960022" y1="1081.959961" x2="714.960022" y2="1130.959961" stroke="red" stroke-width="6.660000" />
<circle cx="816.960022" cy="624.960022" r="19.980000" fill="red">
  <title>Mumbai</title>
</circle><line x1="714.960022" y1="1130.959961" x2="816.960022" y2="624.960022" stroke="red" stroke-width="6.660000" />
<circle cx="853.960022" cy="504.959991" r="19.980000" fill="red">
  <title>Delhi</title>
</circle><line x1="816.960022" y1="624.960022" x2="853.960022" y2="504.959991" stroke="red" stroke-width="6.660000" />
<circle cx="364.959991" cy="54.959999" r="19.980000" fill="red">
  <title>Dhaka</title>
</circle><line x1="853.960022" y1="504.959991" x2="364.959991" y2="54.959999" stroke="red" stroke-width="6.660000" />
<circle cx="308.959991" cy="62.959999" r="19.980000" fill="red">
  <title>Osaka</title>
</circle><line x1="364.959991" y1="54.959999" x2="308.959991" y2="62.959999" stroke="red" stroke-width="6.660000" />
<circle cx="407.959991" cy="58.959999" r="19.980000" fill="red">
  <title>New York</title>
</circle><line x1="308.959991" y1="62.959999" x2="407.959991" y2="58.959999" stroke="red" stroke-width="6.660000" />
<circle cx="954.960022" cy="305.959991" r="19.980000" fill="red">
  <title>Cairo</title>
</circle><line x1="407.959991" y1="58.959999" x2="954.960022" y2="305.959991" stroke="red" stroke-width="6.660000" />
<circle cx="1829.959961" cy="297.959991" r="19.980000" fill="red">
  <title>São Paulo</title>
</circle><line x1="954.960022" y1="305.959991" x2="1829.959961" y2="297.959991" stroke="red" stroke-width="6.660000" />
<circle cx="1832.959961" cy="1235.959961" r="19.980000" fill="red">
  <title>Shanghai</title>
</circle><line x1="1829.959961" y1="297.959991" x2="1832.959961" y2="1235.959961" stroke="red" stroke-width="6.660000" />
<circle cx="1612.959961" cy="1835.959961" r="19.980000" fill="red">
  <title>Mexico City</title>
</circle><line x1="1832.959961" y1="1235.959961" x2="1612.959961" y2="1835.959961" stroke="red" stroke-width="6.660000" />
<circle cx="951.960022" cy="1081.959961" r="19.980000" fill="red">
  <title>Beijing</title>
</circle><line x1="1612.959961" y1="1835.959961" x2="951.960022" y2="1081.959961" stroke="red" stroke-width="6.660000" />
</svg>
