<?xml version="1.0" encoding="UTF-8" standalone="no"?>
<svg width="500" height="500" viewBox="0 0 2074.000000 2074.000000" xmlns="http://www.w3.org/2000/svg">
<rect x="19.000000" y="19.000000" width="2036.000000" height="2036.000000" fill="black" />
<circle cx="1418.959961" cy="77.959999" r="19.980000" fill="red">
  <title>Tokyo</title>
</circle><line x1="728.960022" y1="521.960022" x2="1418.959961" y2="77.959999" stroke="red" stroke-width="6.660000" />
<circle cx="1924.959961" cy="1082.959961" r="19.980000" fill="red">
  <title>Shanghai</title>
</circle><line x1="1418.959961" y1="77.959999" x2="1924.959961" y2="1082.959961" stroke="red" stroke-width="6.660000" />
<circle cx="1961.959961" cy="1541.959961" r="19.980000" fill="red">
  <title>São Paulo</title>
</circle><line x1="1924.959961" y1="1082.959961" x2="1961.959961" y2="1541.959961" stroke="red" stroke-width="6.660000" />
<circle cx="1968.959961" cy="1842.959961" r="19.980000" fill="red">
  <title>Mumbai</title>
</circle><line x1="1961.959961" y1="1541.959961" x2="1968.959961" y2="1842.959961" stroke="red" stroke-width="6.660000" />
<circle cx="1757.959961" cy="1604.959961" r="19.980000" fill="red">
  <title>Beijing</title>
</circle><line x1="1968.959961" y1="1842.959961" x2="1757.959961" y2="1604.959961" stroke="red" stroke-width="6.660000" />
<circle cx="1343.959961" cy="1178.959961" r="19.980000" fill="red">
  <title>Cairo</title>
</circle><line x1="1757.959961" y1="1604.959961" x2="1343.959961" y2="1178.959961" stroke="red" stroke-width="6.660000" />
<circle cx="144.959991" cy="2028.959961" r="19.980000" fill="red">
  <title>Mexico City</title>
</circle><line x1="1343.959961" y1="1178.959961" x2="144.959991" y2="2028.959961" stroke="red" stroke-width="6.660000" />
<circle cx="174.959991" cy="834.960022" r="19.980000" fill="red">
  <title>Osaka</title>
</circle><line x1="144.959991" y1="2028.959961" x2="174.959991" y2="834.960022" stroke="red" stroke-width="6.660000" />
<circle cx="225.959991" cy="753.960022" r="19.980000" fill="red">
  <title>Karachi</title>
</circle><line x1="174.959991" y1="834.960022" x2="225.959991" y2="753.960022" stroke="red" stroke-width="6.660000" />
<circle cx="191.959991" cy="403.959991" r="19.980000" fill="red">
  <title>Delhi</title>
</circle><line x1="225.959991" y1="753.960022" x2="191.959991" y2="403.959991" stroke="red" stroke-width="6.660000" />
<circle cx="265.959991" cy="211.959991" r="19.980000" fill="red">
  <title>Dhaka</title>
</circle><line x1="191.959991" y1="403.959991" x2="265.959991" y2="211.959991" stroke="red" stroke-width="6.660000" />
<circle cx="412.959991" cy="139.959991" r="19.980000" fill="red">
  <title>Buenos Aires</title>
</circle><line x1="265.959991" y1="211.959991" x2="412.959991" y2="139.959991" stroke="red" stroke-width="6.660000" />
<circle cx="728.960022" cy="521.960022" r="19.980000" fill="red">
  <title>New York</title>
</circle><line x1="412.959991" y1="139.959991" x2="728.960022" y2="521.960022" stroke="red" stroke-width="6.660000" />
</svg>
