<?xml version="1.0" encoding="UTF-8" standalone="no"?>
<svg width="500" height="500" viewBox="0 0 2074.000000 2074.000000" xmlns="http://www.w3.org/2000/svg">
<rect x="19.000000" y="19.000000" width="2036.000000" height="2036.000000" fill="black" />
<circle cx="491.959991" cy="680.960022" r="19.980000" fill="red">
  <title>Tokyo</title>
</circle><line x1="1355.959961" y1="119.959999" x2="491.959991" y2="680.960022" stroke="red" stroke-width="6.660000" />
<circle cx="305.959991" cy="768.960022" r="19.980000" fill="red">
  <title>Osaka</title>
</circle><line x1="491.959991" y1="680.960022" x2="305.959991" y2="768.960022" stroke="red" stroke-width="6.660000" />
<circle cx="423.959991" cy="1424.959961" r="19.980000" fill="red">
  <title>São Paulo</title>
</circle><line x1="305.959991" y1="768.960022" x2="423.959991" y2="1424.959961" stroke="red" stroke-width="6.660000" />
<circle cx="111.959999" cy="1983.959961" r="19.980000" fill="red">
  <title>Dhaka</title>
</circle><line x1="423.959991" y1="1424.959961" x2="111.959999" y2="1983.959961" stroke="red" stroke-width="6.660000" />
<circle cx="985.960022" cy="1565.959961" r="19.980000" fill="red">
  <title>Mumbai</title>
</circle><line x1="111.959999" y1="1983.959961" x2="985.960022" y2="1565.959961" stroke="red" stroke-width="6.660000" />
<circle cx="1076.959961" cy="1853.959961" r="19.980000" fill="red">
  <title>Beijing</title>
</circle><line x1="985.960022" y1="1565.959961" x2="1076.959961" y2="1853.959961" stroke="red" stroke-width="6.660000" />
<circle cx="1907.959961" cy="1509.959961" r="19.980000" fill="red">
  <title>Shanghai</title>
</circle><line x1="1076.959961" y1="1853.959961" x2="1907.959961" y2="1509.959961" stroke="red" stroke-width="6.660000" />
<circle cx="2017.959961" cy="978.960022" r="19.980000" fill="red">
  <title>Mexico City</title>
</circle><line x1="1907.959961" y1="1509.959961" x2="2017.959961" y2="978.960022" stroke="red" stroke-width="6.660000" />
<circle cx="1676.959961" cy="407.959991" r="19.980000" fill="red">
  <title>Delhi</title>
</circle><line x1="2017.959961" y1="978.960022" x2="1676.959961" y2="407.959991" stroke="red" stroke-width="6.660000" />
<circle cx="1355.959961" cy="119.959999" r="19.980000" fill="red">
  <title>Cairo</title>
</circle><line x1="1676.959961" y1="407.959991" x2="1355.959961" y2="119.959999" stroke="red" stroke-width="6.660000" />
</svg>
