<?xml version="1.0" encoding="UTF-8" standalone="no"?>
<svg width="500" height="500" viewBox="0 0 2074.000000 2074.000000" xmlns="http://www.w3.org/2000/svg">
<rect x="19.000000" y="19.000000" width="2036.000000" height="2036.000000" fill="black" />
<circle cx="1897.959961" cy="280.959991" r="19.980000" fill="red">
  <title>Tokyo</title>
</circle><line x1="1341.959961" y1="534.960022" x2="1897.959961" y2="280.959991" stroke="red" stroke-width="6.660000" />
<circle cx="1349.959961" cy="349.959991" r="19.980000" fill="red">
  <title>Delhi</title>
</circle><line x1="1897.959961" y1="280.959991" x2="1349.959961" y2="349.959991" stroke="red" stroke-width="6.660000" />
<circle cx="969.960022" cy="156.959991" r="19.980000" fill="red">
  <title>São Paulo</title>
</circle><line x1="1349.959961" y1="349.959991" x2="969.960022" y2="156.959991" stroke="red" stroke-width="6.660000" />
<circle cx="78.959999" cy="773.960022" r="19.980000" fill="red">
  <title>Beijing</title>
</circle><line x1="969.960022" y1="156.959991" x2="78.959999" y2="773.960022" stroke="red" stroke-width="6.660000" />
<circle cx="148.959991" cy="949.960022" r="19.980000" fill="red">
  <title>Cairo</title>
</circle><line x1="78.959999" y1="773.960022" x2="148.959991" y2="949.960022" stroke="red" stroke-width="6.660000" />
<circle cx="408.959991" cy="1319.959961" r="19.980000" fill="red">
  <title>Mexico City</title>
</circle><line x1="148.959991" y1="949.960022" x2="408.959991" y2="1319.959961" stroke="red" stroke-width="6.660000" />
<circle cx="115.959999" cy="1791.959961" r="19.980000" fill="red">
  <title>Mumbai</title>
</circle><line x1="408.959991" y1="1319.959961" x2="115.959999" y2="1791.959961" stroke="red" stroke-width="6.660000" />
<circle cx="342.959991" cy="1965.959961" r="19.980000" fill="red">
  <title>Dhaka</title>
</circle><line x1="115.959999" y1="1791.959961" x2="342.959991" y2="1965.959961" stroke="red" stroke-width="6.660000" />
<circle cx="797.960022" cy="1584.959961" r="19.980000" fill="red">
  <title>Shanghai</title>
</circle><line x1="342.959991" y1="1965.959961" x2="797.960022" y2="1584.959961" stroke="red" stroke-width="6.660000" />
<circle cx="1126.959961" cy="1470.959961" r="19.980000" fill="red">
  <title>Osaka</title>
</circle><line x1="797.960022" y1="1584.959961" x2="1126.959961" y2="1470.959961" stroke="red" stroke-width="6.660000" />
<circle cx="1659.959961" cy="1558.959961" r="19.980000" fill="red">
  <title>Karachi</title>
</circle><line x1="1126.959961" y1="1470.959961" x2="1659.959961" y2="1558.959961" stroke="red" stroke-width="6.660000" />
<circle cx="1269.959961" cy="983.960022" r="19.980000" fill="red">
  <title>Buenos Aires</title>
</circle><line x1="1659.959961" y1="1558.959961" x2="1269.959961" y2="983.960022" stroke="red" stroke-width="6.660000" />
<circle cx="1341.959961" cy="534.960022" r="19.980000" fill="red">
  <title>New York</title>
</circle><line x1="1269.959961" y1="983.960022" x2="1341.959961" y2="534.960022" stroke="red" stroke-width="6.660000" />
</svg>
