<?xml version="1.0" encoding="UTF-8" standalone="no"?>
<svg width="500" height="500" viewBox="0 0 2074.000000 2074.000000" xmlns="http://www.w3.org/2000/svg">
<rect x="19.000000" y="19.000000" width="2036.000000" height="2036.000000" fill="black" />
<circle cx="1874.959961" cy="505.959991" r="19.980000" fill="red">
  <title>Tokyo</title>
</circle><line x1="1789.959961" y1="1470.959961" x2="1874.959961" y2="505.959991" stroke="red" stroke-width="6.660000" />
<circle cx="1473.959961" cy="74.959999" r="19.980000" fill="red">
  <title>Shanghai</title>
</circle><line x1="1874.959961" y1="505.959991" x2="1473.959961" y2="74.959999" stroke="red" stroke-width="6.660000" />
<circle cx="595.960022" cy="715.960022" r="19.980000" fill="red">
  <title>Delhi</title>
</circle><line x1="1473.959961" y1="74.959999" x2="595.960022" y2="715.960022" stroke="red" stroke-width="6.660000" />
<circle cx="321.959991" cy="1295.959961" r="19.980000" fill="red">
  <title>São Paulo</title>
</circle><line x1="595.960022" y1="715.960022" x2="321.959991" y2="1295.959961" stroke="red" stroke-width="6.660000" />
<circle cx="751.960022" cy="1521.959961" r="19.980000" fill="red">
  <title>Mumbai</title>
</circle><line x1="321.959991" y1="1295.959961" x2="751.960022" y2="1521.959961" stroke="red" stroke-width="6.660000" />
<circle cx="1870.959961" cy="1948.959961" r="19.980000" fill="red">
  <title>Cairo</title>
</circle><line x1="751.960022" y1="1521.959961" x2="1870.959961" y2="1948.959961" stroke="red" stroke-width="6.660000" />
<circle cx="1789.959961" cy="1470.959961" r="19.980000" fill="red">
  <title>Mexico City</title>
</circle><line x1="1870.959961" y1="1948.959961" x2="1789.959961" y2="1470.959961" stroke="red" stroke-width="6.660000" />
</svg>
