<?xml version="1.0" encoding="UTF-8" standalone="no"?>
<svg width="500" height="500" viewBox="0 0 2074.000000 2074.000000" xmlns="http://www.w3.org/2000/svg">
<rect x="19.000000" y="19.000000" width="2036.000000" height="2036.000000" fill="black" />
<circle cx="473.959991" cy="1675.959961" r="19.980000" fill="red">
  <title>Tokyo</title>
</circle><line x1="944.960022" y1="1267.959961" x2="473.959991" y2="1675.959961" stroke="red" stroke-width="6.660000" />
<circle cx="436.959991" cy="1948.959961" r="19.980000" fill="red">
  <title>Delhi</title>
</circle><line x1="473.959991" y1="1675.959961" x2="436.959991" y2="1948.959961" stroke="red" stroke-width="6.660000" />
<circle cx="1182.959961" cy="1758.959961" r="19.980000" fill="red">
  <title>Mumbai</title>
</circle><line x1="436.959991" y1="1948.959961" x2="1182.959961" y2="1758.959961" stroke="red" stroke-width="6.660000" />
<circle cx="1337.959961" cy="1951.959961" r="19.980000" fill="red">
  <title>Buenos Aires</title>
</circle><line x1="1182.959961" y1="1758.959961" x2="1337.959961" y2="1951.959961" stroke="red" stroke-width="6.660000" />
<circle cx="1687.959961" cy="1832.959961" r="19.980000" fill="red">
  <title>Chongqing</title>
</circle><line x1="1337.959961" y1="1951.959961" x2="1687.959961" y2="1832.959961" stroke="red" stroke-width="6.660000" />
<circle cx="1539.959961" cy="1249.959961" r="19.980000" fill="red">
  <title>Dhaka</title>
</circle><line x1="1687.959961" y1="1832.959961" x2="1539.959961" y2="1249.959961" stroke="red" stroke-width="6.660000" />
<circle cx="1384.959961" cy="1109.959961" r="19.980000" fill="red">
  <title>Mexico City</title>
</circle><line x1="1539.959961" y1="1249.959961" x2="1384.959961" y2="1109.959961" stroke="red" stroke-width="6.660000" />
<circle cx="1869.959961" cy="800.960022" r="19.980000" fill="red">
  <title>Shanghai</title>
</circle><line x1="1384.959961" y1="1109.959961" x2="1869.959961" y2="800.960022" stroke="red" stroke-width="6.660000" />
<circle cx="1929.959961" cy="390.959991" r="19.980000" fill="red">
  <title>Beijing</title>
</circle><line x1="1869.959961" y1="800.960022" x2="1929.959961" y2="390.959991" stroke="red" stroke-width="6.660000" />
<circle cx="1310.959961" cy="168.959991" r="19.980000" fill="red">
  <title>São Paulo</title>
</circle><line x1="1929.959961" y1="390.959991" x2="1310.959961" y2="168.959991" stroke="red" stroke-width="6.660000" />
<circle cx="1278.959961" cy="133.959991" r="19.980000" fill="red">
  <title>Osaka</title>
</circle><line x1="1310.959961" y1="168.959991" x2="1278.959961" y2="133.959991" stroke="red" stroke-width="6.660000" />
<circle cx="66.959999" cy="377.959991" r="19.980000" fill="red">
  <title>New York</title>
</circle><line x1="1278.959961" y1="133.959991" x2="66.959999" y2="377.959991" stroke="red" stroke-width="6.660000" />
<circle cx="558.960022" cy="873.960022" r="19.980000" fill="red">
  <title>Cairo</title>
</circle><line x1="66.959999" y1="377.959991" x2="558.960022" y2="873.960022" stroke="red" stroke-width="6.660000" />
<circle cx="944.960022" cy="1267.959961" r="19.980000" fill="red">
  <title>Karachi</title>
</circle><line x1="558.960022" y1="873.960022" x2="944.960022" y2="1267.959961" stroke="red" stroke-width="6.660000" />
</svg>
