<?xml version="1.0" encoding="UTF-8" standalone="no"?>
<svg width="500" height="500" viewBox="0 0 2074.000000 2074.000000" xmlns="http://www.w3.org/2000/svg">
<rect x="19.000000" y="19.000000" width="2036.000000" height="2036.000000" fill="black" />
<circle cx="575.960022" cy="1454.959961" r="19.980000" fill="red">
  <title>Tokyo</title>
</circle><line x1="244.959991" y1="1796.959961" x2="575.960022" y2="1454.959961" stroke="red" stroke-width="6.660000" />
<circle cx="568.960022" cy="1411.959961" r="19.980000" fill="red">
  <title>Buenos Aires</title>
</circle><line x1="575.960022" y1="1454.959961" x2="568.960022" y2="1411.959961" stroke="red" stroke-width="6.660000" />
<circle cx="129.959991" cy="780.960022" r="19.980000" fill="red">
  <title>Kolkata</title>
</circle><line x1="568.960022" y1="1411.959961" x2="129.959991" y2="780.960022" stroke="red" stroke-width="6.660000" />
<circle cx="211.959991" cy="179.959991" r="19.980000" fill="red">
  <title>Mexico City</title>
</circle><line x1="129.959991" y1="780.960022" x2="211.959991" y2="179.959991" stroke="red" stroke-width="6.660000" />
<circle cx="292.959991" cy="481.959991" r="19.980000" fill="red">
  <title>Lagos</title>
</circle><line x1="211.959991" y1="179.959991" x2="292.959991" y2="481.959991" stroke="red" stroke-width="6.660000" />
<circle cx="719.960022" cy="759.960022" r="19.980000" fill="red">
  <title>Cairo</title>
</circle><line x1="292.959991" y1="481.959991" x2="719.960022" y2="759.960022" stroke="red" stroke-width="6.660000" />
<circle cx="1062.959961" cy="596.960022" r="19.980000" fill="red">
  <title>Dhaka</title>
</circle><line x1="719.960022" y1="759.960022" x2="1062.959961" y2="596.960022" stroke="red" stroke-width="6.660000" />
<circle cx="1306.959961" cy="444.959991" r="19.980000" fill="red">
  <title>Shanghai</title>
</circle><line x1="1062.959961" y1="596.960022" x2="1306.959961" y2="444.959991" stroke="red" stroke-width="6.660000" />
<circle cx="1583.959961" cy="449.959991" r="19.980000" fill="red">
  <title>Chongqing</title>
</circle><line x1="1306.959961" y1="444.959991" x2="1583.959961" y2="449.959991" stroke="red" stroke-width="6.660000" />
<circle cx="1213.959961" cy="1266.959961" r="19.980000" fill="red">
  <title>Manila</title>
</circle><line x1="1583.959961" y1="449.959991" x2="1213.959961" y2="1266.959961" stroke="red" stroke-width="6.660000" />
<circle cx="1741.959961" cy="1661.959961" r="19.980000" fill="red">
  <title>Osaka</title>
</circle><line x1="1213.959961" y1="1266.959961" x2="1741.959961" y2="1661.959961" stroke="red" stroke-width="6.660000" />
<circle cx="1755.959961" cy="1786.959961" r="19.980000" fill="red">
  <title>Karachi</title>
</circle><line x1="1741.959961" y1="1661.959961" x2="1755.959961" y2="1786.959961" stroke="red" stroke-width="6.660000" />
<circle cx="1514.959961" cy="1850.959961" r="19.980000" fill="red">
  <title>Beijing</title>
</circle><line x1="1755.959961" y1="1786.959961" x2="1514.959961" y2="1850.959961" stroke="red" stroke-width="6.660000" />
<circle cx="1176.959961" cy="1549.959961" r="19.980000" fill="red">
  <title>Delhi</title>
</circle><line x1="1514.959961" y1="1850.959961" x2="1176.959961" y2="1549.959961" stroke="red" stroke-width="6.660000" />
<circle cx="944.960022" cy="1641.959961" r="19.980000" fill="red">
  <title>São Paulo</title>
</circle><line x1="1176.959961" y1="1549.959961" x2="944.960022" y2="1641.959961" stroke="red" stroke-width="6.660000" />
<circle cx="982.960022" cy="1879.959961" r="19.980000" fill="red">
  <title>Mumbai</title>
</circle><line x1="944.960022" y1="1641.959961" x2="982.960022" y2="1879.959961" stroke="red" stroke-width="6.660000" />
<circle cx="606.960022" cy="1828.959961" r="19.980000" fill="red">
  <title>New York</title>
</circle><line x1="982.960022" y1="1879.959961" x2="606.960022" y2="1828.959961" stroke="red" stroke-width="6.660000" />
<circle cx="244.959991" cy="1796.959961" r="19.980000" fill="red">
  <title>Istanbul</title>
</circle><line x1="606.960022" y1="1828.959961" x2="244.959991" y2="1796.959961" stroke="red" stroke-width="6.660000" />
</svg>
