<?xml version="1.0" encoding="UTF-8" standalone="no"?>
<svg width="500" height="500" viewBox="0 0 2074.000000 2074.000000" xmlns="http://www.w3.org/2000/svg">
<rect x="19.000000" y="19.000000" width="2036.000000" height="2036.000000" fill="black" />
<circle cx="737.960022" cy="684.960022" r="19.980000" fill="red">
  <title>Tokyo</title>
</circle><line x1="1533.959961" y1="645.960022" x2="737.960022" y2="684.960022" stroke="red" stroke-width="6.660000" />
<circle cx="481.959991" cy="58.959999" r="19.980000" fill="red">
  <title>Shanghai</title>
</circle><line x1="737.960022" y1="684.960022" x2="481.959991" y2="58.959999" stroke="red" stroke-width="6.660000" />
<circle cx="281.959991" cy="650.960022" r="19.980000" fill="red">
  <title>São Paulo</title>
</circle><line x1="481.959991" y1="58.959999" x2="281.959991" y2="650.960022" stroke="red" stroke-width="6.660000" />
<circle cx="366.959991" cy="655.960022" r="19.980000" fill="red">
  <title>Istanbul</title>
</circle><line x1="281.959991" y1="650.960022" x2="366.959991" y2="655.960022" stroke="red" stroke-width="6.660000" />
<circle cx="670.960022" cy="808.960022" r="19.980000" fill="red">
  <title>Buenos Aires</title>
</circle><line x1="366.959991" y1="655.960022" x2="670.960022" y2="808.960022" stroke="red" stroke-width="6.660000" />
<circle cx="499.959991" cy="1192.959961" r="19.980000" fill="red">
  <title>Delhi</title>
</circle><line x1="670.960022" y1="808.960022" x2="499.959991" y2="1192.959961" stroke="red" stroke-width="6.660000" />
<circle cx="486.959991" cy="1637.959961" r="19.980000" fill="red">
  <title>Karachi</title>
</circle><line x1="499.959991" y1="1192.959961" x2="486.959991" y2="1637.959961" stroke="red" stroke-width="6.660000" />
<circle cx="749.960022" cy="1894.959961" r="19.980000" fill="red">
  <title>Dhaka</title>
</circle><line x1="486.959991" y1="1637.959961" x2="749.960022" y2="1894.959961" stroke="red" stroke-width="6.660000" />
<circle cx="1254.959961" cy="1698.959961" r="19.980000" fill="red">
  <title>Mumbai</title>
</circle><line x1="749.960022" y1="1894.959961" x2="1254.959961" y2="1698.959961" stroke="red" stroke-width="6.660000" />
<circle cx="1042.959961" cy="1310.959961" r="19.980000" fill="red">
  <title>Mexico City</title>
</circle><line x1="1254.959961" y1="1698.959961" x2="1042.959961" y2="1310.959961" stroke="red" stroke-width="6.660000" />
<circle cx="1524.959961" cy="941.960022" r="19.980000" fill="red">
  <title>Osaka</title>
</circle><line x1="1042.959961" y1="1310.959961" x2="1524.959961" y2="941.960022" stroke="red" stroke-width="6.660000" />
<circle cx="1750.959961" cy="1065.959961" r="19.980000" fill="red">
  <title>Kolkata</title>
</circle><line x1="1524.959961" y1="941.960022" x2="1750.959961" y2="1065.959961" stroke="red" stroke-width="6.660000" />
<circle cx="1814.959961" cy="892.960022" r="19.980000" fill="red">
  <title>Beijing</title>
</circle><line x1="1750.959961" y1="1065.959961" x2="1814.959961" y2="892.960022" stroke="red" stroke-width="6.660000" />
<circle cx="1933.959961" cy="542.960022" r="19.980000" fill="red">
  <title>New York</title>
</circle><line x1="1814.959961" y1="892.960022" x2="1933.959961" y2="542.960022" stroke="red" stroke-width="6.660000" />
<circle cx="1790.959961" cy="196.959991" r="19.980000" fill="red">
  <title>Chongqing</title>
</circle><line x1="1933.959961" y1="542.960022" x2="1790.959961" y2="196.959991" stroke="red" stroke-width="6.660000" />
<circle cx="1533.959961" cy="645.960022" r="19.980000" fill="red">
  <title>Cairo</title>
</circle><line x1="1790.959961" y1="196.959991" x2="1533.959961" y2="645.960022" stroke="red" stroke-width="6.660000" />
</svg>
