<?xml version="1.0" encoding="UTF-8" standalone="no"?>
<svg width="500" height="500" viewBox="0 0 2074.000000 2074.000000" xmlns="http://www.w3.org/2000/svg">
<rect x="19.000000" y="19.000000" width="2036.000000" height="2036.000000" fill="black" />
<circle cx="1488.959961" cy="1957.959961" r="19.980000" fill="red">
  <title>Tokyo</title>
</circle><line x1="1114.959961" y1="1838.959961" x2="1488.959961" y2="1957.959961" stroke="red" stroke-width="6.660000" />
<circle cx="1618.959961" cy="1964.959961" r="19.980000" fill="red">
  <title>São Paulo</title>
</circle><line x1="1488.959961" y1="1957.959961" x2="1618.959961" y2="1964.959961" stroke="red" stroke-width="6.660000" />
<circle cx="1474.959961" cy="1524.959961" r="19.980000" fill="red">
  <title>Shanghai</title>
</circle><line x1="1618.959961" y1="1964.959961" x2="1474.959961" y2="1524.959961" stroke="red" stroke-width="6.660000" />
<circle cx="1902.959961" cy="1194.959961" r="19.980000" fill="red">
  <title>Istanbul</title>
</circle><line x1="1474.959961" y1="1524.959961" x2="1902.959961" y2="1194.959961" stroke="red" stroke-width="6.660000" />
<circle cx="1622.959961" cy="1434.959961" r="19.980000" fill="red">
  <title>Cairo</title>
</circle><line x1="1902.959961" y1="1194.959961" x2="1622.959961" y2="1434.959961" stroke="red" stroke-width="6.660000" />
<circle cx="1267.959961" cy="1353.959961" r="19.980000" fill="red">
  <title>Kolkata</title>
</circle><line x1="1622.959961" y1="1434.959961" x2="1267.959961" y2="1353.959961" stroke="red" stroke-width="6.660000" />
<circle cx="1209.959961" cy="1167.959961" r="19.980000" fill="red">
  <title>Mumbai</title>
</circle><line x1="1267.959961" y1="1353.959961" x2="1209.959961" y2="1167.959961" stroke="red" stroke-width="6.660000" />
<circle cx="609.960022" cy="1007.960022" r="19.980000" fill="red">
  <title>Delhi</title>
</circle><line x1="1209.959961" y1="1167.959961" x2="609.960022" y2="1007.960022" stroke="red" stroke-width="6.660000" />
<circle cx="441.959991" cy="297.959991" r="19.980000" fill="red">
  <title>Beijing</title>
</circle><line x1="609.960022" y1="1007.960022" x2="441.959991" y2="297.959991" stroke="red" stroke-width="6.660000" />
<circle cx="415.959991" cy="845.960022" r="19.980000" fill="red">
  <title>Osaka</title>
</circle><line x1="441.959991" y1="297.959991" x2="415.959991" y2="845.960022" stroke="red" stroke-width="6.660000" />
<circle cx="502.959991" cy="1395.959961" r="19.980000" fill="red">
  <title>New York</title>
</circle><line x1="415.959991" y1="845.960022" x2="502.959991" y2="1395.959961" stroke="red" stroke-width="6.660000" />
<circle cx="569.960022" cy="1493.959961" r="19.980000" fill="red">
  <title>Buenos Aires</title>
</circle><line x1="502.959991" y1="1395.959961" x2="569.960022" y2="1493.959961" stroke="red" stroke-width="6.660000" />
<circle cx="408.959991" cy="1675.959961" r="19.980000" fill="red">
  <title>Chongqing</title>
</circle><line x1="569.960022" y1="1493.959961" x2="408.959991" y2="1675.959961" stroke="red" stroke-width="6.660000" />
<circle cx="245.959991" cy="1736.959961" r="19.980000" fill="red">
  <title>Mexico City</title>
</circle><line x1="408.959991" y1="1675.959961" x2="245.959991" y2="1736.959961" stroke="red" stroke-width="6.660000" />
<circle cx="453.959991" cy="1918.959961" r="19.980000" fill="red">
  <title>Dhaka</title>
</circle><line x1="245.959991" y1="1736.959961" x2="453.959991" y2="1918.959961" stroke="red" stroke-width="6.660000" />
<circle cx="637.960022" cy="1643.959961" r="19.980000" fill="red">
  <title>Karachi</title>
</circle><line x1="453.959991" y1="1918.959961" x2="637.960022" y2="1643.959961" stroke="red" stroke-width="6.660000" />
<circle cx="1114.959961" cy="1838.959961" r="19.980000" fill="red">
  <title>Manila</title>
</circle><line x1="637.960022" y1="1643.959961" x2="1114.959961" y2="1838.959961" stroke="red" stroke-width="6.660000" />
</svg>
