<?xml version="1.0" encoding="UTF-8" standalone="no"?>
<svg width="500" height="500" viewBox="0 0 2074.000000 2074.000000" xmlns="http://www.w3.org/2000/svg">
<rect x="19.000000" y="19.000000" width="2036.000000" height="2036.000000" fill="black" />
<circle cx="1175.959961" cy="615.960022" r="19.980000" fill="red">
  <title>Tokyo</title>
</circle><line x1="927.960022" y1="1041.959961" x2="1175.959961" y2="615.960022" stroke="red" stroke-width="6.660000" />
<circle cx="1739.959961" cy="60.959999" r="19.980000" fill="red">
  <title>Cairo</title>
</circle><line x1="1175.959961" y1="615.960022" x2="1739.959961" y2="60.959999" stroke="red" stroke-width="6.660000" />
<circle cx="1939.959961" cy="105.959999" r="19.980000" fill="red">
  <title>Karachi</title>
</circle><line x1="1739.959961" y1="60.959999" x2="1939.959961" y2="105.959999" stroke="red" stroke-width="6.660000" />
<circle cx="1695.959961" cy="842.960022" r="19.980000" fill="red">
  <title>Osaka</title>
</circle><line x1="1939.959961" y1="105.959999" x2="1695.959961" y2="842.960022" stroke="red" stroke-width="6.660000" />
<circle cx="1593.959961" cy="847.960022" r="19.980000" fill="red">
  <title>New York</title>
</circle><line x1="1695.959961" y1="842.960022" x2="1593.959961" y2="847.960022" stroke="red" stroke-width="6.660000" />
<circle cx="1973.959961" cy="1502.959961" r="19.980000" fill="red">
  <title>Beijing</title>
</circle><line x1="1593.959961" y1="847.960022" x2="1973.959961" y2="1502.959961" stroke="red" stroke-width="6.660000" />
<circle cx="1573.959961" cy="1537.959961" r="19.980000" fill="red">
  <title>Chongqing</title>
</circle><line x1="1973.959961" y1="1502.959961" x2="1573.959961" y2="1537.959961" stroke="red" stroke-width="6.660000" />
<circle cx="1341.959961" cy="1500.959961" r="19.980000" fill="red">
  <title>Delhi</title>
</circle><line x1="1573.959961" y1="1537.959961" x2="1341.959961" y2="1500.959961" stroke="red" stroke-width="6.660000" />
<circle cx="1366.959961" cy="1854.959961" r="19.980000" fill="red">
  <title>Buenos Aires</title>
</circle><line x1="1341.959961" y1="1500.959961" x2="1366.959961" y2="1854.959961" stroke="red" stroke-width="6.660000" />
<circle cx="817.960022" cy="1942.959961" r="19.980000" fill="red">
  <title>São Paulo</title>
</circle><line x1="1366.959961" y1="1854.959961" x2="817.960022" y2="1942.959961" stroke="red" stroke-width="6.660000" />
<circle cx="462.959991" cy="1611.959961" r="19.980000" fill="red">
  <title>Mexico City</title>
</circle><line x1="817.960022" y1="1942.959961" x2="462.959991" y2="1611.959961" stroke="red" stroke-width="6.660000" />
<circle cx="529.960022" cy="1502.959961" r="19.980000" fill="red">
  <title>Istanbul</title>
</circle><line x1="462.959991" y1="1611.959961" x2="529.960022" y2="1502.959961" stroke="red" stroke-width="6.660000" />
<circle cx="141.959991" cy="1451.959961" r="19.980000" fill="red">
  <title>Shanghai</title>
</circle><line x1="529.960022" y1="1502.959961" x2="141.959991" y2="1451.959961" stroke="red" stroke-width="6.660000" />
<circle cx="182.959991" cy="501.959991" r="19.980000" fill="red">
  <title>Mumbai</title>
</circle><line x1="141.959991" y1="1451.959961" x2="182.959991" y2="501.959991" stroke="red" stroke-width="6.660000" />
<circle cx="927.960022" cy="1041.959961" r="19.980000" fill="red">
  <title>Dhaka</title>
</circle><line x1="182.959991" y1="501.959991" x2="927.960022" y2="1041.959961" stroke="red" stroke-width="6.660000" />
</svg>
