<?xml version="1.0" encoding="UTF-8" standalone="no"?>
<svg width="500" height="500" viewBox="0 0 2074.000000 2074.000000" xmlns="http://www.w3.org/2000/svg">
<rect x="19.000000" y="19.000000" width="2036.000000" height="2036.000000" fill="black" />
<circle cx="1957.959961" cy="263.959991" r="19.980000" fill="red">
  <title>Tokyo</title>
</circle><line x1="1875.959961" y1="661.960022" x2="1957.959961" y2="263.959991" stroke="red" stroke-width="6.660000" />
<circle cx="1727.959961" cy="219.959991" r="19.980000" fill="red">
  <title>Chongqing</title>
</circle><line x1="1957.959961" y1="263.959991" x2="1727.959961" y2="219.959991" stroke="red" stroke-width="6.660000" />
<circle cx="1694.959961" cy="572.960022" r="19.980000" fill="red">
  <title>Mumbai</title>
</circle><line x1="1727.959961" y1="219.959991" x2="1694.959961" y2="572.960022" stroke="red" stroke-width="6.660000" />
<circle cx="1629.959961" cy="760.960022" r="19.980000" fill="red">
  <title>Delhi</title>
</circle><line x1="1694.959961" y1="572.960022" x2="1629.959961" y2="760.960022" stroke="red" stroke-width="6.660000" />
<circle cx="1339.959961" cy="720.960022" r="19.980000" fill="red">
  <title>New York</title>
</circle><line x1="1629.959961" y1="760.960022" x2="1339.959961" y2="720.960022" stroke="red" stroke-width="6.660000" />
<circle cx="1272.959961" cy="936.960022" r="19.980000" fill="red">
  <title>Osaka</title>
</circle><line x1="1339.959961" y1="720.960022" x2="1272.959961" y2="936.960022" stroke="red" stroke-width="6.660000" />
<circle cx="708.960022" cy="1125.959961" r="19.980000" fill="red">
  <title>Cairo</title>
</circle><line x1="1272.959961" y1="936.960022" x2="708.960022" y2="1125.959961" stroke="red" stroke-width="6.660000" />
<circle cx="417.959991" cy="1065.959961" r="19.980000" fill="red">
  <title>Beijing</title>
</circle><line x1="708.960022" y1="1125.959961" x2="417.959991" y2="1065.959961" stroke="red" stroke-width="6.660000" />
<circle cx="410.959991" cy="1334.959961" r="19.980000" fill="red">
  <title>Buenos Aires</title>
</circle><line x1="417.959991" y1="1065.959961" x2="410.959991" y2="1334.959961" stroke="red" stroke-width="6.660000" />
<circle cx="741.960022" cy="1792.959961" r="19.980000" fill="red">
  <title>Istanbul</title>
</circle><line x1="410.959991" y1="1334.959961" x2="741.960022" y2="1792.959961" stroke="red" stroke-width="6.660000" />
<circle cx="993.960022" cy="1438.959961" r="19.980000" fill="red">
  <title>Shanghai</title>
</circle><line x1="741.960022" y1="1792.959961" x2="993.960022" y2="1438.959961" stroke="red" stroke-width="6.660000" />
<circle cx="1426.959961" cy="1328.959961" r="19.980000" fill="red">
  <title>São Paulo</title>
</circle><line x1="993.960022" y1="1438.959961" x2="1426.959961" y2="1328.959961" stroke="red" stroke-width="6.660000" />
<circle cx="1744.959961" cy="1575.959961" r="19.980000" fill="red">
  <title>Karachi</title>
</circle><line x1="1426.959961" y1="1328.959961" x2="1744.959961" y2="1575.959961" stroke="red" stroke-width="6.660000" />
<circle cx="2017.959961" cy="1467.959961" r="19.980000" fill="red">
  <title>Manila</title>
</circle><line x1="1744.959961" y1="1575.959961" x2="2017.959961" y2="1467.959961" stroke="red" stroke-width="6.660000" />
<circle cx="1879.959961" cy="974.960022" r="19.980000" fill="red">
  <title>Mexico City</title>
</circle><line x1="2017.959961" y1="1467.959961" x2="1879.959961" y2="974.960022" stroke="red" stroke-width="6.660000" />
<circle cx="1977.959961" cy="842.960022" r="19.980000" fill="red">
  <title>Dhaka</title>
</circle><line x1="1879.959961" y1="974.960022" x2="1977.959961" y2="842.960022" stroke="red" stroke-width="6.660000" />
<circle cx="1875.959961" cy="661.960022" r="19.980000" fill="red">
  <title>Kolkata</title>
</circle><line x1="1977.959961" y1="842.960022" x2="1875.959961" y2="661.960022" stroke="red" stroke-width="6.660000" />
</svg>
