<?xml version="1.0" encoding="UTF-8" standalone="no"?>
<svg width="500" height="500" viewBox="0 0 2074.000000 2074.000000" xmlns="http://www.w3.org/2000/svg">
<rect x="19.000000" y="19.000000" width="2036.000000" height="2036.000000" fill="black" />
<circle cx="1871.959961" cy="1362.959961" r="19.980000" fill="red">
  <title>Tokyo</title>
</circle><line x1="1388.959961" y1="1829.959961" x2="1871.959961" y2="1362.959961" stroke="red" stroke-width="6.660000" />
<circle cx="1863.959961" cy="876.960022" r="19.980000" fill="red">
  <title>New York</title>
</circle><line x1="1871.959961" y1="1362.959961" x2="1863.959961" y2="876.960022" stroke="red" stroke-width="6.660000" />
<circle cx="1525.959961" cy="1016.960022" r="19.980000" fill="red">
  <title>Beijing</title>
</circle><line x1="1863.959961" y1="876.960022" x2="1525.959961" y2="1016.960022" stroke="red" stroke-width="6.660000" />
<circle cx="1307.959961" cy="152.959991" r="19.980000" fill="red">
  <title>São Paulo</title>
</circle><line x1="1525.959961" y1="1016.960022" x2="1307.959961" y2="152.959991" stroke="red" stroke-width="6.660000" />
<circle cx="880.960022" cy="56.959999" r="19.980000" fill="red">
  <title>Mumbai</title>
</circle><line x1="1307.959961" y1="152.959991" x2="880.960022" y2="56.959999" stroke="red" stroke-width="6.660000" />
<circle cx="188.959991" cy="505.959991" r="19.980000" fill="red">
  <title>Osaka</title>
</circle><line x1="880.960022" y1="56.959999" x2="188.959991" y2="505.959991" stroke="red" stroke-width="6.660000" />
<circle cx="895.960022" cy="995.960022" r="19.980000" fill="red">
  <title>Delhi</title>
</circle><line x1="188.959991" y1="505.959991" x2="895.960022" y2="995.960022" stroke="red" stroke-width="6.660000" />
<circle cx="1099.959961" cy="990.960022" r="19.980000" fill="red">
  <title>Shanghai</title>
</circle><line x1="895.960022" y1="995.960022" x2="1099.959961" y2="990.960022" stroke="red" stroke-width="6.660000" />
<circle cx="1021.960022" cy="1178.959961" r="19.980000" fill="red">
  <title>Dhaka</title>
</circle><line x1="1099.959961" y1="990.960022" x2="1021.960022" y2="1178.959961" stroke="red" stroke-width="6.660000" />
<circle cx="629.960022" cy="1757.959961" r="19.980000" fill="red">
  <title>Cairo</title>
</circle><line x1="1021.960022" y1="1178.959961" x2="629.960022" y2="1757.959961" stroke="red" stroke-width="6.660000" />
<circle cx="1140.959961" cy="1636.959961" r="19.980000" fill="red">
  <title>Mexico City</title>
</circle><line x1="629.960022" y1="1757.959961" x2="1140.959961" y2="1636.959961" stroke="red" stroke-width="6.660000" />
<circle cx="1388.959961" cy="1829.959961" r="19.980000" fill="red">
  <title>Karachi</title>
</circle><line x1="1140.959961" y1="1636.959961" x2="1388.959961" y2="1829.959961" stroke="red" stroke-width="6.660000" />
</svg>
