<?xml version="1.0" encoding="UTF-8" standalone="no"?>
<svg width="500" height="500" viewBox="0 0 2074.000000 2074.000000" xmlns="http://www.w3.org/2000/svg">
<rect x="19.000000" y="19.000000" width="2036.000000" height="2036.000000" fill="black" />
<circle cx="1494.959961" cy="423.959991" r="19.980000" fill="red">
  <title>Tokyo</title>
</circle><line x1="1402.959961" y1="1013.960022" x2="1494.959961" y2="423.959991" stroke="red" stroke-width="6.660000" />
<circle cx="799.960022" cy="859.960022" r="19.980000" fill="red">
  <title>Delhi</title>
</circle><line x1="1494.959961" y1="423.959991" x2="799.960022" y2="859.960022" stroke="red" stroke-width="6.660000" />
<circle cx="366.959991" cy="1820.959961" r="19.980000" fill="red">
  <title>Cairo</title>
</circle><line x1="799.960022" y1="859.960022" x2="366.959991" y2="1820.959961" stroke="red" stroke-width="6.660000" />
<circle cx="950.960022" cy="1244.959961" r="19.980000" fill="red">
  <title>Mexico City</title>
</circle><line x1="366.959991" y1="1820.959961" x2="950.960022" y2="1244.959961" stroke="red" stroke-width="6.660000" />
<circle cx="1886.959961" cy="1462.959961" r="19.980000" fill="red">
  <title>Shanghai</title>
</circle><line x1="950.960022" y1="1244.959961" x2="1886.959961" y2="1462.959961" stroke="red" stroke-width="6.660000" />
<circle cx="1402.959961" cy="1013.960022" r="19.980000" fill="red">
  <title>São Paulo</title>
</circle><line x1="1886.959961" y1="1462.959961" x2="1402.959961" y2="1013.960022" stroke="red" stroke-width="6.660000" />
</svg>
