<?xml version="1.0" encoding="UTF-8" standalone="no"?>
<svg width="500" height="500" viewBox="0 0 2074.000000 2074.000000" xmlns="http://www.w3.org/2000/svg">
<rect x="19.000000" y="19.000000" width="2036.000000" height="2036.000000" fill="black" />
<circle cx="877.960022" cy="87.959999" r="19.980000" fill="red">
  <title>Tokyo</title>
</circle><line x1="997.960022" y1="468.959991" x2="877.960022" y2="87.959999" stroke="red" stroke-width="6.660000" />
<circle cx="339.959991" cy="209.959991" r="19.980000" fill="red">
  <title>São Paulo</title>
</circle><line x1="877.960022" y1="87.959999" x2="339.959991" y2="209.959991" stroke="red" stroke-width="6.660000" />
<circle cx="814.960022" cy="505.959991" r="19.980000" fill="red">
  <title>Beijing</title>
</circle><line x1="339.959991" y1="209.959991" x2="814.960022" y2="505.959991" stroke="red" stroke-width="6.660000" />
<circle cx="1181.959961" cy="1781.959961" r="19.980000" fill="red">
  <title>Cairo</title>
</circle><line x1="814.960022" y1="505.959991" x2="1181.959961" y2="1781.959961" stroke="red" stroke-width="6.660000" />
<circle cx="1936.959961" cy="1906.959961" r="19.980000" fill="red">
  <title>Shanghai</title>
</circle><line x1="1181.959961" y1="1781.959961" x2="1936.959961" y2="1906.959961" stroke="red" stroke-width="6.660000" />
<circle cx="1810.959961" cy="1435.959961" r="19.980000" fill="red">
  <title>Mexico City</title>
</circle><line x1="1936.959961" y1="1906.959961" x2="1810.959961" y2="1435.959961" stroke="red" stroke-width="6.660000" />
<circle cx="1833.959961" cy="1285.959961" r="19.980000" fill="red">
  <title>Osaka</title>
</circle><line x1="1810.959961" y1="1435.959961" x2="1833.959961" y2="1285.959961" stroke="red" stroke-width="6.660000" />
<circle cx="1726.959961" cy="414.959991" r="19.980000" fill="red">
  <title>Dhaka</title>
</circle><line x1="1833.959961" y1="1285.959961" x2="1726.959961" y2="414.959991" stroke="red" stroke-width="6.660000" />
<circle cx="1712.959961" cy="268.959991" r="19.980000" fill="red">
  <title>Delhi</title>
</circle><line x1="1726.959961" y1="414.959991" x2="1712.959961" y2="268.959991" stroke="red" stroke-width="6.660000" />
<circle cx="1053.959961" cy="413.959991" r="19.980000" fill="red">
  <title>Mumbai</title>
</circle><line x1="1712.959961" y1="268.959991" x2="1053.959961" y2="413.959991" stroke="red" stroke-width="6.660000" />
<circle cx="997.960022" cy="468.959991" r="19.980000" fill="red">
  <title>New York</title>
</circle><line x1="1053.959961" y1="413.959991" x2="997.960022" y2="468.959991" stroke="red" stroke-width="6.660000" />
</svg>
