<?xml version="1.0" encoding="UTF-8" standalone="no"?>
<svg width="500" height="500" viewBox="0 0 2074.000000 2074.000000" xmlns="http://www.w3.org/2000/svg">
<rect x="19.000000" y="19.000000" width="2036.000000" height="2036.000000" fill="black" />
<circle cx="1677.959961" cy="1622.959961" r="19.980000" fill="red">
  <title>Tokyo</title>
</circle><line x1="723.960022" y1="1457.959961" x2="1677.959961" y2="1622.959961" stroke="red" stroke-width="6.660000" />
<circle cx="1786.959961" cy="1439.959961" r="19.980000" fill="red">
  <title>Mexico City</title>
</circle><line x1="1677.959961" y1="1622.959961" x2="1786.959961" y2="1439.959961" stroke="red" stroke-width="6.660000" />
<circle cx="1929.959961" cy="1072.959961" r="19.980000" fill="red">
  <title>Chongqing</title>
</circle><line x1="1786.959961" y1="1439.959961" x2="1929.959961" y2="1072.959961" stroke="red" stroke-width="6.660000" />
<circle cx="1800.959961" cy="323.959991" r="19.980000" fill="red">
  <title>Shanghai</title>
</circle><line x1="1929.959961" y1="1072.959961" x2="1800.959961" y2="323.959991" stroke="red" stroke-width="6.660000" />
<circle cx="1982.959961" cy="192.959991" r="19.980000" fill="red">
  <title>Karachi</title>
</circle><line x1="1800.959961" y1="323.959991" x2="1982.959961" y2="192.959991" stroke="red" stroke-width="6.660000" />
<circle cx="1777.959961" cy="338.959991" r="19.980000" fill="red">
  <title>São Paulo</title>
</circle><line x1="1982.959961" y1="192.959991" x2="1777.959961" y2="338.959991" stroke="red" stroke-width="6.660000" />
<circle cx="1004.960022" cy="1009.960022" r="19.980000" fill="red">
  <title>Beijing</title>
</circle><line x1="1777.959961" y1="338.959991" x2="1004.960022" y2="1009.960022" stroke="red" stroke-width="6.660000" />
<circle cx="792.960022" cy="655.960022" r="19.980000" fill="red">
  <title>Osaka</title>
</circle><line x1="1004.960022" y1="1009.960022" x2="792.960022" y2="655.960022" stroke="red" stroke-width="6.660000" />
<circle cx="542.960022" cy="712.960022" r="19.980000" fill="red">
  <title>Dhaka</title>
</circle><line x1="792.960022" y1="655.960022" x2="542.960022" y2="712.960022" stroke="red" stroke-width="6.660000" />
<circle cx="423.959991" cy="359.959991" r="19.980000" fill="red">
  <title>New York</title>
</circle><line x1="542.960022" y1="712.960022" x2="423.959991" y2="359.959991" stroke="red" stroke-width="6.660000" />
<circle cx="96.959999" cy="693.960022" r="19.980000" fill="red">
  <title>Buenos Aires</title>
</circle><line x1="423.959991" y1="359.959991" x2="96.959999" y2="693.960022" stroke="red" stroke-width="6.660000" />
<circle cx="393.959991" cy="1453.959961" r="19.980000" fill="red">
  <title>Delhi</title>
</circle><line x1="96.959999" y1="693.960022" x2="393.959991" y2="1453.959961" stroke="red" stroke-width="6.660000" />
<circle cx="257.959991" cy="1649.959961" r="19.980000" fill="red">
  <title>Cairo</title>
</circle><line x1="393.959991" y1="1453.959961" x2="257.959991" y2="1649.959961" stroke="red" stroke-width="6.660000" />
<circle cx="421.959991" cy="1687.959961" r="19.980000" fill="red">
  <title>Mumbai</title>
</circle><line x1="257.959991" y1="1649.959961" x2="421.959991" y2="1687.959961" stroke="red" stroke-width="6.660000" />
<circle cx="723.960022" cy="1457.959961" r="19.980000" fill="red">
  <title>Istanbul</title>
</circle><line x1="421.959991" y1="1687.959961" x2="723.960022" y2="1457.959961" stroke="red" stroke-width="6.660000" />
</svg>
