<?xml version="1.0" encoding="UTF-8" standalone="no"?>
<svg width="500" height="500" viewBox="0 0 2074.000000 2074.000000" xmlns="http://www.w3.org/2000/svg">
<rect x="19.000000" y="19.000000" width="2036.000000" height="2036.000000" fill="black" />
<circle cx="1388.959961" cy="1898.959961" r="19.980000" fill="red">
  <title>Tokyo</title>
</circle><line x1="1986.959961" y1="1395.959961" x2="1388.959961" y2="1898.959961" stroke="red" stroke-width="6.660000" />
<circle cx="824.960022" cy="1835.959961" r="19.980000" fill="red">
  <title>Shanghai</title>
</circle><line x1="1388.959961" y1="1898.959961" x2="824.960022" y2="1835.959961" stroke="red" stroke-width="6.660000" />
<circle cx="1024.959961" cy="1356.959961" r="19.980000" fill="red">
  <title>Beijing</title>
</circle><line x1="824.960022" y1="1835.959961" x2="1024.959961" y2="1356.959961" stroke="red" stroke-width="6.660000" />
<circle cx="500.959991" cy="958.960022" r="19.980000" fill="red">
  <title>Delhi</title>
</circle><line x1="1024.959961" y1="1356.959961" x2="500.959991" y2="958.960022" stroke="red" stroke-width="6.660000" />
<circle cx="1278.959961" cy="872.960022" r="19.980000" fill="red">
  <title>São Paulo</title>
</circle><line x1="500.959991" y1="958.960022" x2="1278.959961" y2="872.960022" stroke="red" stroke-width="6.660000" />
<circle cx="1419.959961" cy="863.960022" r="19.980000" fill="red">
  <title>Dhaka</title>
</circle><line x1="1278.959961" y1="872.960022" x2="1419.959961" y2="863.960022" stroke="red" stroke-width="6.660000" />
<circle cx="1842.959961" cy="105.959999" r="19.980000" fill="red">
  <title>Mexico City</title>
</circle><line x1="1419.959961" y1="863.960022" x2="1842.959961" y2="105.959999" stroke="red" stroke-width="6.660000" />
<circle cx="1836.959961" cy="1143.959961" r="19.980000" fill="red">
  <title>Mumbai</title>
</circle><line x1="1842.959961" y1="105.959999" x2="1836.959961" y2="1143.959961" stroke="red" stroke-width="6.660000" />
<circle cx="1986.959961" cy="1395.959961" r="19.980000" fill="red">
  <title>Cairo</title>
</circle><line x1="1836.959961" y1="1143.959961" x2="1986.959961" y2="1395.959961" stroke="red" stroke-width="6.660000" />
</svg>
