<?xml version="1.0" encoding="UTF-8" standalone="no"?>
<svg width="500" height="500" viewBox="0 0 2074.000000 2074.000000" xmlns="http://www.w3.org/2000/svg">
<rect x="19.000000" y="19.000000" width="2036.000000" height="2036.000000" fill="black" />
<circle cx="577.960022" cy="1595.959961" r="19.980000" fill="red">
  <title>Tokyo</title>
</circle><line x1="892.960022" y1="2019.959961" x2="577.960022" y2="1595.959961" stroke="red" stroke-width="6.660000" />
<circle cx="802.960022" cy="1314.959961" r="19.980000" fill="red">
  <title>Karachi</title>
</circle><line x1="577.960022" y1="1595.959961" x2="802.960022" y2="1314.959961" stroke="red" stroke-width="6.660000" />
<circle cx="1417.959961" cy="1253.959961" r="19.980000" fill="red">
  <title>São Paulo</title>
</circle><line x1="802.960022" y1="1314.959961" x2="1417.959961" y2="1253.959961" stroke="red" stroke-width="6.660000" />
<circle cx="1864.959961" cy="1492.959961" r="19.980000" fill="red">
  <title>Delhi</title>
</circle><line x1="1417.959961" y1="1253.959961" x2="1864.959961" y2="1492.959961" stroke="red" stroke-width="6.660000" />
<circle cx="1213.959961" cy="892.960022" r="19.980000" fill="red">
  <title>Dhaka</title>
</circle><line x1="1864.959961" y1="1492.959961" x2="1213.959961" y2="892.960022" stroke="red" stroke-width="6.660000" />
<circle cx="856.960022" cy="268.959991" r="19.980000" fill="red">
  <title>Shanghai</title>
</circle><line x1="1213.959961" y1="892.960022" x2="856.960022" y2="268.959991" stroke="red" stroke-width="6.660000" />
<circle cx="513.960022" cy="943.960022" r="19.980000" fill="red">
  <title>Beijing</title>
</circle><line x1="856.960022" y1="268.959991" x2="513.960022" y2="943.960022" stroke="red" stroke-width="6.660000" />
<circle cx="70.959999" cy="635.960022" r="19.980000" fill="red">
  <title>Mexico City</title>
</circle><line x1="513.960022" y1="943.960022" x2="70.959999" y2="635.960022" stroke="red" stroke-width="6.660000" />
<circle cx="64.959999" cy="920.960022" r="19.980000" fill="red">
  <title>Mumbai</title>
</circle><line x1="70.959999" y1="635.960022" x2="64.959999" y2="920.960022" stroke="red" stroke-width="6.660000" />
<circle cx="141.959991" cy="1529.959961" r="19.980000" fill="red">
  <title>New York</title>
</circle><line x1="64.959999" y1="920.960022" x2="141.959991" y2="1529.959961" stroke="red" stroke-width="6.660000" />
<circle cx="305.959991" cy="1961.959961" r="19.980000" fill="red">
  <title>Osaka</title>
</circle><line x1="141.959991" y1="1529.959961" x2="305.959991" y2="1961.959961" stroke="red" stroke-width="6.660000" />
<circle cx="419.959991" cy="1829.959961" r="19.980000" fill="red">
  <title>Buenos Aires</title>
</circle><line x1="305.959991" y1="1961.959961" x2="419.959991" y2="1829.959961" stroke="red" stroke-width="6.660000" />
<circle cx="892.960022" cy="2019.959961" r="19.980000" fill="red">
  <title>Cairo</title>
</circle><line x1="419.959991" y1="1829.959961" x2="892.960022" y2="2019.959961" stroke="red" stroke-width="6.660000" />
</svg>
