<?xml version="1.0" encoding="UTF-8" standalone="no"?>
<svg width="500" height="500" viewBox="0 0 2074.000000 2074.000000" xmlns="http://www.w3.org/2000/svg">
<rect x="19.000000" y="19.000000" width="2036.000000" height="2036.000000" fill="black" />
<circle cx="1766.959961" cy="1019.960022" r="19.980000" fill="red">
  <title>Tokyo</title>
</circle><line x1="1694.959961" y1="964.960022" x2="1766.959961" y2="1019.960022" stroke="red" stroke-width="6.660000" />
<circle cx="1761.959961" cy="933.960022" r="19.980000" fill="red">
  <title>Beijing</title>
</circle><line x1="1766.959961" y1="1019.960022" x2="1761.959961" y2="933.960022" stroke="red" stroke-width="6.660000" />
<circle cx="1995.959961" cy="832.960022" r="19.980000" fill="red">
  <title>Buenos Aires</title>
</circle><line x1="1761.959961" y1="933.960022" x2="1995.959961" y2="832.960022" stroke="red" stroke-width="6.660000" />
<circle cx="1686.959961" cy="736.960022" r="19.980000" fill="red">
  <title>Delhi</title>
</circle><line x1="1995.959961" y1="832.960022" x2="1686.959961" y2="736.960022" stroke="red" stroke-width="6.660000" />
<circle cx="1815.959961" cy="474.959991" r="19.980000" fill="red">
  <title>Dhaka</title>
</circle><line x1="1686.959961" y1="736.960022" x2="1815.959961" y2="474.959991" stroke="red" stroke-width="6.660000" />
<circle cx="1526.959961" cy="163.959991" r="19.980000" fill="red">
  <title>Mumbai</title>
</circle><line x1="1815.959961" y1="474.959991" x2="1526.959961" y2="163.959991" stroke="red" stroke-width="6.660000" />
<circle cx="1020.960022" cy="67.959999" r="19.980000" fill="red">
  <title>Mexico City</title>
</circle><line x1="1526.959961" y1="163.959991" x2="1020.960022" y2="67.959999" stroke="red" stroke-width="6.660000" />
<circle cx="761.960022" cy="162.959991" r="19.980000" fill="red">
  <title>Cairo</title>
</circle><line x1="1020.960022" y1="67.959999" x2="761.960022" y2="162.959991" stroke="red" stroke-width="6.660000" />
<circle cx="622.960022" cy="968.960022" r="19.980000" fill="red">
  <title>Shanghai</title>
</circle><line x1="761.960022" y1="162.959991" x2="622.960022" y2="968.960022" stroke="red" stroke-width="6.660000" />
<circle cx="63.959999" cy="1143.959961" r="19.980000" fill="red">
  <title>São Paulo</title>
</circle><line x1="622.960022" y1="968.960022" x2="63.959999" y2="1143.959961" stroke="red" stroke-width="6.660000" />
<circle cx="484.959991" cy="1147.959961" r="19.980000" fill="red">
  <title>Karachi</title>
</circle><line x1="63.959999" y1="1143.959961" x2="484.959991" y2="1147.959961" stroke="red" stroke-width="6.660000" />
<circle cx="1337.959961" cy="1329.959961" r="19.980000" fill="red">
  <title>New York</title>
</circle><line x1="484.959991" y1="1147.959961" x2="1337.959961" y2="1329.959961" stroke="red" stroke-width="6.660000" />
<circle cx="1694.959961" cy="964.960022" r="19.980000" fill="red">
  <title>Osaka</title>
</circle><line x1="1337.959961" y1="1329.959961" x2="1694.959961" y2="964.960022" stroke="red" stroke-width="6.660000" />
</svg>
