<?xml version="1.0" encoding="UTF-8" standalone="no"?>
<svg width="500" height="500" viewBox="0 0 2074.000000 2074.000000" xmlns="http://www.w3.org/2000/svg">
<rect x="19.000000" y="19.000000" width="2036.000000" height="2036.000000" fill="black" />
<circle cx="666.960022" cy="369.959991" r="19.980000" fill="red">
  <title>Tokyo</title>
</circle><line x1="1333.959961" y1="201.959991" x2="666.960022" y2="369.959991" stroke="red" stroke-width="6.660000" />
<circle cx="298.959991" cy="437.959991" r="19.980000" fill="red">
  <title>Delhi</title>
</circle><line x1="666.960022" y1="369.959991" x2="298.959991" y2="437.959991" stroke="red" stroke-width="6.660000" />
<circle cx="628.960022" cy="742.960022" r="19.980000" fill="red">
  <title>São Paulo</title>
</circle><line x1="298.959991" y1="437.959991" x2="628.960022" y2="742.960022" stroke="red" stroke-width="6.660000" />
<circle cx="588.960022" cy="1934.959961" r="19.980000" fill="red">
  <title>Mumbai</title>
</circle><line x1="628.960022" y1="742.960022" x2="588.960022" y2="1934.959961" stroke="red" stroke-width="6.660000" />
<circle cx="1349.959961" cy="1952.959961" r="19.980000" fill="red">
  <title>Mexico City</title>
</circle><line x1="588.960022" y1="1934.959961" x2="1349.959961" y2="1952.959961" stroke="red" stroke-width="6.660000" />
<circle cx="1402.959961" cy="1658.959961" r="19.980000" fill="red">
  <title>Cairo</title>
</circle><line x1="1349.959961" y1="1952.959961" x2="1402.959961" y2="1658.959961" stroke="red" stroke-width="6.660000" />
<circle cx="1366.959961" cy="1409.959961" r="19.980000" fill="red">
  <title>Dhaka</title>
</circle><line x1="1402.959961" y1="1658.959961" x2="1366.959961" y2="1409.959961" stroke="red" stroke-width="6.660000" />
<circle cx="1808.959961" cy="953.960022" r="19.980000" fill="red">
  <title>Osaka</title>
</circle><line x1="1366.959961" y1="1409.959961" x2="1808.959961" y2="953.960022" stroke="red" stroke-width="6.660000" />
<circle cx="1741.959961" cy="787.960022" r="19.980000" fill="red">
  <title>Shanghai</title>
</circle><line x1="1808.959961" y1="953.960022" x2="1741.959961" y2="787.960022" stroke="red" stroke-width="6.660000" />
<circle cx="1333.959961" cy="201.959991" r="19.980000" fill="red">
  <title>Beijing</title>
</circle><line x1="1741.959961" y1="787.960022" x2="1333.959961" y2="201.959991" stroke="red" stroke-width="6.660000" />
</svg>
