<?xml version="1.0" encoding="UTF-8" standalone="no"?>
<svg width="500" height="500" viewBox="0 0 2074.000000 2074.000000" xmlns="http://www.w3.org/2000/svg">
<rect x="19.000000" y="19.000000" width="2036.000000" height="2036.000000" fill="black" />
<circle cx="500.959991" cy="1300.959961" r="19.980000" fill="red">
  <title>Tokyo</title>
</circle><line x1="196.959991" y1="991.960022" x2="500.959991" y2="1300.959961" stroke="red" stroke-width="6.660000" />
<circle cx="397.959991" cy="1686.959961" r="19.980000" fill="red">
  <title>Mumbai</title>
</circle><line x1="500.959991" y1="1300.959961" x2="397.959991" y2="1686.959961" stroke="red" stroke-width="6.660000" />
<circle cx="863.960022" cy="1995.959961" r="19.980000" fill="red">
  <title>Kolkata</title>
</circle><line x1="397.959991" y1="1686.959961" x2="863.960022" y2="1995.959961" stroke="red" stroke-width="6.660000" />
<circle cx="1179.959961" cy="1798.959961" r="19.980000" fill="red">
  <title>São Paulo</title>
</circle><line x1="863.960022" y1="1995.959961" x2="1179.959961" y2="1798.959961" stroke="red" stroke-width="6.660000" />
<circle cx="1069.959961" cy="1611.959961" r="19.980000" fill="red">
  <title>Buenos Aires</title>
</circle><line x1="1179.959961" y1="1798.959961" x2="1069.959961" y2="1611.959961" stroke="red" stroke-width="6.660000" />
<circle cx="1261.959961" cy="1201.959961" r="19.980000" fill="red">
  <title>Karachi</title>
</circle><line x1="1069.959961" y1="1611.959961" x2="1261.959961" y2="1201.959961" stroke="red" stroke-width="6.660000" />
<circle cx="1453.959961" cy="1255.959961" r="19.980000" fill="red">
  <title>Chongqing</title>
</circle><line x1="1261.959961" y1="1201.959961" x2="1453.959961" y2="1255.959961" stroke="red" stroke-width="6.660000" />
<circle cx="1725.959961" cy="1490.959961" r="19.980000" fill="red">
  <title>Cairo</title>
</circle><line x1="1453.959961" y1="1255.959961" x2="1725.959961" y2="1490.959961" stroke="red" stroke-width="6.660000" />
<circle cx="1832.959961" cy="1526.959961" r="19.980000" fill="red">
  <title>Delhi</title>
</circle><line x1="1725.959961" y1="1490.959961" x2="1832.959961" y2="1526.959961" stroke="red" stroke-width="6.660000" />
<circle cx="1748.959961" cy="658.960022" r="19.980000" fill="red">
  <title>Manila</title>
</circle><line x1="1832.959961" y1="1526.959961" x2="1748.959961" y2="658.960022" stroke="red" stroke-width="6.660000" />
<circle cx="1967.959961" cy="181.959991" r="19.980000" fill="red">
  <title>Osaka</title>
</circle><line x1="1748.959961" y1="658.960022" x2="1967.959961" y2="181.959991" stroke="red" stroke-width="6.660000" />
<circle cx="1684.959961" cy="279.959991" r="19.980000" fill="red">
  <title>New York</title>
</circle><line x1="1967.959961" y1="181.959991" x2="1684.959961" y2="279.959991" stroke="red" stroke-width="6.660000" />
<circle cx="1533.959961" cy="486.959991" r="19.980000" fill="red">
  <title>Istanbul</title>
</circle><line x1="1684.959961" y1="279.959991" x2="1533.959961" y2="486.959991" stroke="red" stroke-width="6.660000" />
<circle cx="880.960022" cy="815.960022" r="19.980000" fill="red">
  <title>Beijing</title>
</circle><line x1="1533.959961" y1="486.959991" x2="880.960022" y2="815.960022" stroke="red" stroke-width="6.660000" />
<circle cx="667.960022" cy="621.960022" r="19.980000" fill="red">
  <title>Shanghai</title>
</circle><line x1="880.960022" y1="815.960022" x2="667.960022" y2="621.960022" stroke="red" stroke-width="6.660000" />
<circle cx="457.959991" cy="560.960022" r="19.980000" fill="red">
  <title>Mexico City</title>
</circle><line x1="667.960022" y1="621.960022" x2="457.959991" y2="560.960022" stroke="red" stroke-width="6.660000" />
<circle cx="196.959991" cy="991.960022" r="19.980000" fill="red">
  <title>Dhaka</title>
</circle><line x1="457.959991" y1="560.960022" x2="196.959991" y2="991.960022" stroke="red" stroke-width="6.660000" />
</svg>
