<?xml version="1.0" encoding="UTF-8" standalone="no"?>
<svg width="500" height="500" viewBox="0 0 2074.000000 2074.000000" xmlns="http://www.w3.org/2000/svg">
<rect x="19.000000" y="19.000000" width="2036.000000" height="2036.000000" fill="black" />
<circle cx="710.960022" cy="584.960022" r="19.980000" fill="red">
  <title>Tokyo</title>
</circle><line x1="114.959999" y1="731.960022" x2="710.960022" y2="584.960022" stroke="red" stroke-width="6.660000" />
<circle cx="1292.959961" cy="776.960022" r="19.980000" fill="red">
  <title>Delhi</title>
</circle><line x1="710.960022" y1="584.960022" x2="1292.959961" y2="776.960022" stroke="red" stroke-width="6.660000" />
<circle cx="114.959999" cy="731.960022" r="19.980000" fill="red">
  <title>Shanghai</title>
</circle><line x1="1292.959961" y1="776.960022" x2="114.959999" y2="731.960022" stroke="red" stroke-width="6.660000" />
</svg>
