<?xml version="1.0" encoding="UTF-8" standalone="no"?>
<svg width="500" height="500" viewBox="0 0 2074.000000 2074.000000" xmlns="http://www.w3.org/2000/svg">
<rect x="19.000000" y="19.000000" width="2036.000000" height="2036.000000" fill="black" />
<circle cx="735.960022" cy="468.959991" r="19.980000" fill="red">
  <title>Tokyo</title>
</circle><line x1="1004.960022" y1="898.960022" x2="735.960022" y2="468.959991" stroke="red" stroke-width="6.660000" />
<circle cx="1276.959961" cy="370.959991" r="19.980000" fill="red">
  <title>Delhi</title>
</circle><line x1="735.960022" y1="468.959991" x2="1276.959961" y2="370.959991" stroke="red" stroke-width="6.660000" />
<circle cx="1743.959961" cy="972.960022" r="19.980000" fill="red">
  <title>Mumbai</title>
</circle><line x1="1276.959961" y1="370.959991" x2="1743.959961" y2="972.960022" stroke="red" stroke-width="6.660000" />
<circle cx="1138.959961" cy="1662.959961" r="19.980000" fill="red">
  <title>Cairo</title>
</circle><line x1="1743.959961" y1="972.960022" x2="1138.959961" y2="1662.959961" stroke="red" stroke-width="6.660000" />
<circle cx="784.960022" cy="1968.959961" r="19.980000" fill="red">
  <title>Shanghai</title>
</circle><line x1="1138.959961" y1="1662.959961" x2="784.960022" y2="1968.959961" stroke="red" stroke-width="6.660000" />
<circle cx="463.959991" cy="1496.959961" r="19.980000" fill="red">
  <title>Mexico City</title>
</circle><line x1="784.960022" y1="1968.959961" x2="463.959991" y2="1496.959961" stroke="red" stroke-width="6.660000" />
<circle cx="1004.960022" cy="898.960022" r="19.980000" fill="red">
  <title>São Paulo</title>
</circle><line x1="463.959991" y1="1496.959961" x2="1004.960022" y2="898.960022" stroke="red" stroke-width="6.660000" />
</svg>
