<?xml version="1.0" encoding="UTF-8" standalone="no"?>
<svg width="500" height="500" viewBox="0 0 2074.000000 2074.000000" xmlns="http://www.w3.org/2000/svg">
<rect x="19.000000" y="19.000000" width="2036.000000" height="2036.000000" fill="black" />
<circle cx="1980.959961" cy="1683.959961" r="19.980000" fill="red">
  <title>Tokyo</title>
</circle><line x1="1799.959961" y1="1603.959961" x2="1980.959961" y2="1683.959961" stroke="red" stroke-width="6.660000" />
<circle cx="1973.959961" cy="1561.959961" r="19.980000" fill="red">
  <title>Cairo</title>
</circle><line x1="1980.959961" y1="1683.959961" x2="1973.959961" y2="1561.959961" stroke="red" stroke-width="6.660000" />
<circle cx="2014.959961" cy="1440.959961" r="19.980000" fill="red">
  <title>Delhi</title>
</circle><line x1="1973.959961" y1="1561.959961" x2="2014.959961" y2="1440.959961" stroke="red" stroke-width="6.660000" />
<circle cx="2017.959961" cy="1222.959961" r="19.980000" fill="red">
  <title>São Paulo</title>
</circle><line x1="2014.959961" y1="1440.959961" x2="2017.959961" y2="1222.959961" stroke="red" stroke-width="6.660000" />
<circle cx="1800.959961" cy="416.959991" r="19.980000" fill="red">
  <title>Shanghai</title>
</circle><line x1="2017.959961" y1="1222.959961" x2="1800.959961" y2="416.959991" stroke="red" stroke-width="6.660000" />
<circle cx="1901.959961" cy="173.959991" r="19.980000" fill="red">
  <title>Mexico City</title>
</circle><line x1="1800.959961" y1="416.959991" x2="1901.959961" y2="173.959991" stroke="red" stroke-width="6.660000" />
<circle cx="1276.959961" cy="180.959991" r="19.980000" fill="red">
  <title>New York</title>
</circle><line x1="1901.959961" y1="173.959991" x2="1276.959961" y2="180.959991" stroke="red" stroke-width="6.660000" />
<circle cx="1249.959961" cy="240.959991" r="19.980000" fill="red">
  <title>Manila</title>
</circle><line x1="1276.959961" y1="180.959991" x2="1249.959961" y2="240.959991" stroke="red" stroke-width="6.660000" />
<circle cx="1158.959961" cy="387.959991" r="19.980000" fill="red">
  <title>Chongqing</title>
</circle><line x1="1249.959961" y1="240.959991" x2="1158.959961" y2="387.959991" stroke="red" stroke-width="6.660000" />
<circle cx="222.959991" cy="764.960022" r="19.980000" fill="red">
  <title>Karachi</title>
</circle><line x1="1158.959961" y1="387.959991" x2="222.959991" y2="764.960022" stroke="red" stroke-width="6.660000" />
<circle cx="617.960022" cy="1123.959961" r="19.980000" fill="red">
  <title>Rio de Janeiro</title>
</circle><line x1="222.959991" y1="764.960022" x2="617.960022" y2="1123.959961" stroke="red" stroke-width="6.660000" />
<circle cx="742.960022" cy="1348.959961" r="19.980000" fill="red">
  <title>Osaka</title>
</circle><line x1="617.960022" y1="1123.959961" x2="742.960022" y2="1348.959961" stroke="red" stroke-width="6.660000" />
<circle cx="263.959991" cy="1742.959961" r="19.980000" fill="red">
  <title>Kolkata</title>
</circle><line x1="742.960022" y1="1348.959961" x2="263.959991" y2="1742.959961" stroke="red" stroke-width="6.660000" />
<circle cx="69.959999" cy="1984.959961" r="19.980000" fill="red">
  <title>Buenos Aires</title>
</circle><line x1="263.959991" y1="1742.959961" x2="69.959999" y2="1984.959961" stroke="red" stroke-width="6.660000" />
<circle cx="507.959991" cy="1925.959961" r="19.980000" fill="red">
  <title>Beijing</title>
</circle><line x1="69.959999" y1="1984.959961" x2="507.959991" y2="1925.959961" stroke="red" stroke-width="6.660000" />
<circle cx="786.960022" cy="1449.959961" r="19.980000" fill="red">
  <title>Dhaka</title>
</circle><line x1="507.959991" y1="1925.959961" x2="786.960022" y2="1449.959961" stroke="red" stroke-width="6.660000" />
<circle cx="1144.959961" cy="1011.960022" r="19.980000" fill="red">
  <title>Lagos</title>
</circle><line x1="786.960022" y1="1449.959961" x2="1144.959961" y2="1011.960022" stroke="red" stroke-width="6.660000" />
<circle cx="1736.959961" cy="1257.959961" r="19.980000" fill="red">
  <title>Mumbai</title>
</circle><line x1="1144.959961" y1="1011.960022" x2="1736.959961" y2="1257.959961" stroke="red" stroke-width="6.660000" />
<circle cx="1799.959961" cy="1603.959961" r="19.980000" fill="red">
  <title>Istanbul</title>
</circle><line x1="1736.959961" y1="1257.959961" x2="1799.959961" y2="1603.959961" stroke="red" stroke-width="6.660000" />
</svg>
