<?xml version="1.0" encoding="UTF-8" standalone="no"?>
<svg width="500" height="500" viewBox="0 0 2074.000000 2074.000000" xmlns="http://www.w3.org/2000/svg">
<rect x="19.000000" y="19.000000" width="2036.000000" height="2036.000000" fill="black" />
<circle cx="1154.959961" cy="521.960022" r="19.980000" fill="red">
  <title>Tokyo</title>
</circle><line x1="986.960022" y1="314.959991" x2="1154.959961" y2="521.960022" stroke="red" stroke-width="6.660000" />
<circle cx="931.960022" cy="993.960022" r="19.980000" fill="red">
  <title>São Paulo</title>
</circle><line x1="1154.959961" y1="521.960022" x2="931.960022" y2="993.960022" stroke="red" stroke-width="6.660000" />
<circle cx="1181.959961" cy="977.960022" r="19.980000" fill="red">
  <title>Mexico City</title>
</circle><line x1="931.960022" y1="993.960022" x2="1181.959961" y2="977.960022" stroke="red" stroke-width="6.660000" />
<circle cx="974.960022" cy="1707.959961" r="19.980000" fill="red">
  <title>Cairo</title>
</circle><line x1="1181.959961" y1="977.960022" x2="974.960022" y2="1707.959961" stroke="red" stroke-width="6.660000" />
<circle cx="696.960022" cy="1719.959961" r="19.980000" fill="red">
  <title>Mumbai</title>
</circle><line x1="974.960022" y1="1707.959961" x2="696.960022" y2="1719.959961" stroke="red" stroke-width="6.660000" />
<circle cx="163.959991" cy="1109.959961" r="19.980000" fill="red">
  <title>Shanghai</title>
</circle><line x1="696.960022" y1="1719.959961" x2="163.959991" y2="1109.959961" stroke="red" stroke-width="6.660000" />
<circle cx="452.959991" cy="461.959991" r="19.980000" fill="red">
  <title>Delhi</title>
</circle><line x1="163.959991" y1="1109.959961" x2="452.959991" y2="461.959991" stroke="red" stroke-width="6.660000" />
<circle cx="986.960022" cy="314.959991" r="19.980000" fill="red">
  <title>Beijing</title>
</circle><line x1="452.959991" y1="461.959991" x2="986.960022" y2="314.959991" stroke="red" stroke-width="6.660000" />
</svg>
