<?xml version="1.0" encoding="UTF-8" standalone="no"?>
<svg width="500" height="500" viewBox="0 0 2074.000000 2074.000000" xmlns="http://www.w3.org/2000/svg">
<rect x="19.000000" y="19.000000" width="2036.000000" height="2036.000000" fill="black" />
<circle cx="598.960022" cy="1906.959961" r="19.980000" fill="red">
  <title>Tokyo</title>
</circle><line x1="1920.959961" y1="1380.959961" x2="598.960022" y2="1906.959961" stroke="red" stroke-width="6.660000" />
<circle cx="107.959999" cy="1875.959961" r="19.980000" fill="red">
  <title>São Paulo</title>
</circle><line x1="598.960022" y1="1906.959961" x2="107.959999" y2="1875.959961" stroke="red" stroke-width="6.660000" />
<circle cx="1144.959961" cy="256.959991" r="19.980000" fill="red">
  <title>Delhi</title>
</circle><line x1="107.959999" y1="1875.959961" x2="1144.959961" y2="256.959991" stroke="red" stroke-width="6.660000" />
<circle cx="2018.959961" cy="691.960022" r="19.980000" fill="red">
  <title>Shanghai</title>
</circle><line x1="1144.959961" y1="256.959991" x2="2018.959961" y2="691.960022" stroke="red" stroke-width="6.660000" />
<circle cx="1920.959961" cy="1380.959961" r="19.980000" fill="red">
  <title>Mexico City</title>
</circle><line x1="2018.959961" y1="691.960022" x2="1920.959961" y2="1380.959961" stroke="red" stroke-width="6.660000" />
</svg>
