<?xml version="1.0" encoding="UTF-8" standalone="no"?>
<svg width="500" height="500" viewBox="0 0 2074.000000 2074.000000" xmlns="http://www.w3.org/2000/svg">
<rect x="19.000000" y="19.000000" width="2036.000000" height="2036.000000" fill="black" />
<circle cx="188.959991" cy="1980.959961" r="19.980000" fill="red">
  <title>Tokyo</title>
</circle><line x1="42.959999" y1="1313.959961" x2="188.959991" y2="1980.959961" stroke="red" stroke-width="6.660000" />
<circle cx="324.959991" cy="1873.959961" r="19.980000" fill="red">
  <title>Delhi</title>
</circle><line x1="188.959991" y1="1980.959961" x2="324.959991" y2="1873.959961" stroke="red" stroke-width="6.660000" />
<circle cx="899.960022" cy="1368.959961" r="19.980000" fill="red">
  <title>Mumbai</title>
</circle><line x1="324.959991" y1="1873.959961" x2="899.960022" y2="1368.959961" stroke="red" stroke-width="6.660000" />
<circle cx="1908.959961" cy="1738.959961" r="19.980000" fill="red">
  <title>Mexico City</title>
</circle><line x1="899.960022" y1="1368.959961" x2="1908.959961" y2="1738.959961" stroke="red" stroke-width="6.660000" />
<circle cx="1453.959961" cy="680.960022" r="19.980000" fill="red">
  <title>Dhaka</title>
</circle><line x1="1908.959961" y1="1738.959961" x2="1453.959961" y2="680.960022" stroke="red" stroke-width="6.660000" />
<circle cx="951.960022" cy="470.959991" r="19.980000" fill="red">
  <title>Beijing</title>
</circle><line x1="1453.959961" y1="680.960022" x2="951.960022" y2="470.959991" stroke="red" stroke-width="6.660000" />
<circle cx="958.960022" cy="760.960022" r="19.980000" fill="red">
  <title>Shanghai</title>
</circle><line x1="951.960022" y1="470.959991" x2="958.960022" y2="760.960022" stroke="red" stroke-width="6.660000" />
<circle cx="458.959991" cy="1391.959961" r="19.980000" fill="red">
  <title>Cairo</title>
</circle><line x1="958.960022" y1="760.960022" x2="458.959991" y2="1391.959961" stroke="red" stroke-width="6.660000" />
<circle cx="42.959999" cy="1313.959961" r="19.980000" fill="red">
  <title>São Paulo</title>
</circle><line x1="458.959991" y1="1391.959961" x2="42.959999" y2="1313.959961" stroke="red" stroke-width="6.660000" />
</svg>
