<?xml version="1.0" encoding="UTF-8" standalone="no"?>
<svg width="500" height="500" viewBox="0 0 2074.000000 2074.000000" xmlns="http://www.w3.org/2000/svg">
<rect x="19.000000" y="19.000000" width="2036.000000" height="2036.000000" fill="black" />
<circle cx="218.959991" cy="1006.960022" r="19.980000" fill="red">
  <title>Tokyo</title>
</circle><line x1="238.959991" y1="1072.959961" x2="218.959991" y2="1006.960022" stroke="red" stroke-width="6.660000" />
<circle cx="210.959991" cy="891.960022" r="19.980000" fill="red">
  <title>Karachi</title>
</circle><line x1="218.959991" y1="1006.960022" x2="210.959991" y2="891.960022" stroke="red" stroke-width="6.660000" />
<circle cx="481.959991" cy="286.959991" r="19.980000" fill="red">
  <title>Osaka</title>
</circle><line x1="210.959991" y1="891.960022" x2="481.959991" y2="286.959991" stroke="red" stroke-width="6.660000" />
<circle cx="630.960022" cy="449.959991" r="19.980000" fill="red">
  <title>Dhaka</title>
</circle><line x1="481.959991" y1="286.959991" x2="630.960022" y2="449.959991" stroke="red" stroke-width="6.660000" />
<circle cx="691.960022" cy="781.960022" r="19.980000" fill="red">
  <title>Beijing</title>
</circle><line x1="630.960022" y1="449.959991" x2="691.960022" y2="781.960022" stroke="red" stroke-width="6.660000" />
<circle cx="820.960022" cy="953.960022" r="19.980000" fill="red">
  <title>Chongqing</title>
</circle><line x1="691.960022" y1="781.960022" x2="820.960022" y2="953.960022" stroke="red" stroke-width="6.660000" />
<circle cx="1038.959961" cy="760.960022" r="19.980000" fill="red">
  <title>New York</title>
</circle><line x1="820.960022" y1="953.960022" x2="1038.959961" y2="760.960022" stroke="red" stroke-width="6.660000" />
<circle cx="1148.959961" cy="930.960022" r="19.980000" fill="red">
  <title>Istanbul</title>
</circle><line x1="1038.959961" y1="760.960022" x2="1148.959961" y2="930.960022" stroke="red" stroke-width="6.660000" />
<circle cx="1268.959961" cy="847.960022" r="19.980000" fill="red">
  <title>São Paulo</title>
</circle><line x1="1148.959961" y1="930.960022" x2="1268.959961" y2="847.960022" stroke="red" stroke-width="6.660000" />
<circle cx="1898.959961" cy="501.959991" r="19.980000" fill="red">
  <title>Manila</title>
</circle><line x1="1268.959961" y1="847.960022" x2="1898.959961" y2="501.959991" stroke="red" stroke-width="6.660000" />
<circle cx="1854.959961" cy="1169.959961" r="19.980000" fill="red">
  <title>Mumbai</title>
</circle><line x1="1898.959961" y1="501.959991" x2="1854.959961" y2="1169.959961" stroke="red" stroke-width="6.660000" />
<circle cx="1718.959961" cy="1464.959961" r="19.980000" fill="red">
  <title>Delhi</title>
</circle><line x1="1854.959961" y1="1169.959961" x2="1718.959961" y2="1464.959961" stroke="red" stroke-width="6.660000" />
<circle cx="1474.959961" cy="1600.959961" r="19.980000" fill="red">
  <title>Shanghai</title>
</circle><line x1="1718.959961" y1="1464.959961" x2="1474.959961" y2="1600.959961" stroke="red" stroke-width="6.660000" />
<circle cx="1387.959961" cy="1255.959961" r="19.980000" fill="red">
  <title>Cairo</title>
</circle><line x1="1474.959961" y1="1600.959961" x2="1387.959961" y2="1255.959961" stroke="red" stroke-width="6.660000" />
<circle cx="821.960022" cy="1328.959961" r="19.980000" fill="red">
  <title>Kolkata</title>
</circle><line x1="1387.959961" y1="1255.959961" x2="821.960022" y2="1328.959961" stroke="red" stroke-width="6.660000" />
<circle cx="755.960022" cy="1334.959961" r="19.980000" fill="red">
  <title>Lagos</title>
</circle><line x1="821.960022" y1="1328.959961" x2="755.960022" y2="1334.959961" stroke="red" stroke-width="6.660000" />
<circle cx="622.960022" cy="1708.959961" r="19.980000" fill="red">
  <title>Mexico City</title>
</circle><line x1="755.960022" y1="1334.959961" x2="622.960022" y2="1708.959961" stroke="red" stroke-width="6.660000" />
<circle cx="63.959999" cy="1984.959961" r="19.980000" fill="red">
  <title>Rio de Janeiro</title>
</circle><line x1="622.960022" y1="1708.959961" x2="63.959999" y2="1984.959961" stroke="red" stroke-width="6.660000" />
<circle cx="238.959991" cy="1072.959961" r="19.980000" fill="red">
  <title>Buenos Aires</title>
</circle><line x1="63.959999" y1="1984.959961" x2="238.959991" y2="1072.959961" stroke="red" stroke-width="6.660000" />
</svg>
