<?xml version="1.0" encoding="UTF-8" standalone="no"?>
<svg width="500" height="500" viewBox="0 0 2074.000000 2074.000000" xmlns="http://www.w3.org/2000/svg">
<rect x="19.000000" y="19.000000" width="2036.000000" height="2036.000000" fill="black" />
<circle cx="2019.959961" cy="1810.959961" r="19.980000" fill="red">
  <title>Tokyo</title>
</circle><line x1="1723.959961" y1="1162.959961" x2="2019.959961" y2="1810.959961" stroke="red" stroke-width="6.660000" />
<circle cx="1864.959961" cy="1351.959961" r="19.980000" fill="red">
  <title>Mexico City</title>
</circle><line x1="2019.959961" y1="1810.959961" x2="1864.959961" y2="1351.959961" stroke="red" stroke-width="6.660000" />
<circle cx="1935.959961" cy="898.960022" r="19.980000" fill="red">
  <title>New York</title>
</circle><line x1="1864.959961" y1="1351.959961" x2="1935.959961" y2="898.960022" stroke="red" stroke-width="6.660000" />
<circle cx="1404.959961" cy="1117.959961" r="19.980000" fill="red">
  <title>Cairo</title>
</circle><line x1="1935.959961" y1="898.960022" x2="1404.959961" y2="1117.959961" stroke="red" stroke-width="6.660000" />
<circle cx="979.960022" cy="758.960022" r="19.980000" fill="red">
  <title>Buenos Aires</title>
</circle><line x1="1404.959961" y1="1117.959961" x2="979.960022" y2="758.960022" stroke="red" stroke-width="6.660000" />
<circle cx="1218.959961" cy="318.959991" r="19.980000" fill="red">
  <title>São Paulo</title>
</circle><line x1="979.960022" y1="758.960022" x2="1218.959961" y2="318.959991" stroke="red" stroke-width="6.660000" />
<circle cx="1251.959961" cy="223.959991" r="19.980000" fill="red">
  <title>Karachi</title>
</circle><line x1="1218.959961" y1="318.959991" x2="1251.959961" y2="223.959991" stroke="red" stroke-width="6.660000" />
<circle cx="1119.959961" cy="165.959991" r="19.980000" fill="red">
  <title>Kolkata</title>
</circle><line x1="1251.959961" y1="223.959991" x2="1119.959961" y2="165.959991" stroke="red" stroke-width="6.660000" />
<circle cx="478.959991" cy="450.959991" r="19.980000" fill="red">
  <title>Mumbai</title>
</circle><line x1="1119.959961" y1="165.959991" x2="478.959991" y2="450.959991" stroke="red" stroke-width="6.660000" />
<circle cx="82.959999" cy="749.960022" r="19.980000" fill="red">
  <title>Delhi</title>
</circle><line x1="478.959991" y1="450.959991" x2="82.959999" y2="749.960022" stroke="red" stroke-width="6.660000" />
<circle cx="115.959999" cy="950.960022" r="19.980000" fill="red">
  <title>Dhaka</title>
</circle><line x1="82.959999" y1="749.960022" x2="115.959999" y2="950.960022" stroke="red" stroke-width="6.660000" />
<circle cx="183.959991" cy="1950.959961" r="19.980000" fill="red">
  <title>Istanbul</title>
</circle><line x1="115.959999" y1="950.960022" x2="183.959991" y2="1950.959961" stroke="red" stroke-width="6.660000" />
<circle cx="510.959991" cy="1828.959961" r="19.980000" fill="red">
  <title>Shanghai</title>
</circle><line x1="183.959991" y1="1950.959961" x2="510.959991" y2="1828.959961" stroke="red" stroke-width="6.660000" />
<circle cx="916.960022" cy="1466.959961" r="19.980000" fill="red">
  <title>Chongqing</title>
</circle><line x1="510.959991" y1="1828.959961" x2="916.960022" y2="1466.959961" stroke="red" stroke-width="6.660000" />
<circle cx="770.960022" cy="1257.959961" r="19.980000" fill="red">
  <title>Beijing</title>
</circle><line x1="916.960022" y1="1466.959961" x2="770.960022" y2="1257.959961" stroke="red" stroke-width="6.660000" />
<circle cx="1290.959961" cy="1188.959961" r="19.980000" fill="red">
  <title>Osaka</title>
</circle><line x1="770.960022" y1="1257.959961" x2="1290.959961" y2="1188.959961" stroke="red" stroke-width="6.660000" />
<circle cx="1723.959961" cy="1162.959961" r="19.980000" fill="red">
  <title>Manila</title>
</circle><line x1="1290.959961" y1="1188.959961" x2="1723.959961" y2="1162.959961" stroke="red" stroke-width="6.660000" />
</svg>
