<?xml version="1.0" encoding="UTF-8" standalone="no"?>
<svg width="500" height="500" viewBox="0 0 2074.000000 2074.000000" xmlns="http://www.w3.org/2000/svg">
<rect x="19.000000" y="19.000000" width="2036.000000" height="2036.000000" fill="black" />
<circle cx="1406.959961" cy="1034.959961" r="19.980000" fill="red">
  <title>Tokyo</title>
</circle><line x1="1618.959961" y1="715.960022" x2="1406.959961" y2="1034.959961" stroke="red" stroke-width="6.660000" />
<circle cx="743.960022" cy="657.960022" r="19.980000" fill="red">
  <title>Shanghai</title>
</circle><line x1="1406.959961" y1="1034.959961" x2="743.960022" y2="657.960022" stroke="red" stroke-width="6.660000" />
<circle cx="274.959991" cy="137.959991" r="19.980000" fill="red">
  <title>Mumbai</title>
</circle><line x1="743.960022" y1="657.960022" x2="274.959991" y2="137.959991" stroke="red" stroke-width="6.660000" />
<circle cx="128.959991" cy="1092.959961" r="19.980000" fill="red">
  <title>Karachi</title>
</circle><line x1="274.959991" y1="137.959991" x2="128.959991" y2="1092.959961" stroke="red" stroke-width="6.660000" />
<circle cx="1406.959961" cy="1112.959961" r="19.980000" fill="red">
  <title>Mexico City</title>
</circle><line x1="128.959991" y1="1092.959961" x2="1406.959961" y2="1112.959961" stroke="red" stroke-width="6.660000" />
<circle cx="1788.959961" cy="1280.959961" r="19.980000" fill="red">
  <title>Osaka</title>
</circle><line x1="1406.959961" y1="1112.959961" x2="1788.959961" y2="1280.959961" stroke="red" stroke-width="6.660000" />
<circle cx="1643.959961" cy="1683.959961" r="19.980000" fill="red">
  <title>São Paulo</title>
</circle><line x1="1788.959961" y1="1280.959961" x2="1643.959961" y2="1683.959961" stroke="red" stroke-width="6.660000" />
<circle cx="1707.959961" cy="1905.959961" r="19.980000" fill="red">
  <title>Beijing</title>
</circle><line x1="1643.959961" y1="1683.959961" x2="1707.959961" y2="1905.959961" stroke="red" stroke-width="6.660000" />
<circle cx="1947.959961" cy="1652.959961" r="19.980000" fill="red">
  <title>Cairo</title>
</circle><line x1="1707.959961" y1="1905.959961" x2="1947.959961" y2="1652.959961" stroke="red" stroke-width="6.660000" />
<circle cx="2010.959961" cy="1406.959961" r="19.980000" fill="red">
  <title>New York</title>
</circle><line x1="1947.959961" y1="1652.959961" x2="2010.959961" y2="1406.959961" stroke="red" stroke-width="6.660000" />
<circle cx="1983.959961" cy="1097.959961" r="19.980000" fill="red">
  <title>Delhi</title>
</circle><line x1="2010.959961" y1="1406.959961" x2="1983.959961" y2="1097.959961" stroke="red" stroke-width="6.660000" />
<circle cx="1728.959961" cy="445.959991" r="19.980000" fill="red">
  <title>Dhaka</title>
</circle><line x1="1983.959961" y1="1097.959961" x2="1728.959961" y2="445.959991" stroke="red" stroke-width="6.660000" />
<circle cx="1618.959961" cy="715.960022" r="19.980000" fill="red">
  <title>Buenos Aires</title>
</circle><line x1="1728.959961" y1="445.959991" x2="1618.959961" y2="715.960022" stroke="red" stroke-width="6.660000" />
</svg>
