<?xml version="1.0" encoding="UTF-8" standalone="no"?>
<svg width="500" height="500" viewBox="0 0 2074.000000 2074.000000" xmlns="http://www.w3.org/2000/svg">
<rect x="19.000000" y="19.000000" width="2036.000000" height="2036.000000" fill="black" />
<circle cx="1670.959961" cy="945.960022" r="19.980000" fill="red">
  <title>Tokyo</title>
</circle><line x1="1882.959961" y1="68.959999" x2="1670.959961" y2="945.960022" stroke="red" stroke-width="6.660000" />
<circle cx="1730.959961" cy="1396.959961" r="19.980000" fill="red">
  <title>Cairo</title>
</circle><line x1="1670.959961" y1="945.960022" x2="1730.959961" y2="1396.959961" stroke="red" stroke-width="6.660000" />
<circle cx="1410.959961" cy="1727.959961" r="19.980000" fill="red">
  <title>Shanghai</title>
</circle><line x1="1730.959961" y1="1396.959961" x2="1410.959961" y2="1727.959961" stroke="red" stroke-width="6.660000" />
<circle cx="890.960022" cy="1767.959961" r="19.980000" fill="red">
  <title>Delhi</title>
</circle><line x1="1410.959961" y1="1727.959961" x2="890.960022" y2="1767.959961" stroke="red" stroke-width="6.660000" />
<circle cx="56.959999" cy="1475.959961" r="19.980000" fill="red">
  <title>São Paulo</title>
</circle><line x1="890.960022" y1="1767.959961" x2="56.959999" y2="1475.959961" stroke="red" stroke-width="6.660000" />
<circle cx="401.959991" cy="1421.959961" r="19.980000" fill="red">
  <title>Beijing</title>
</circle><line x1="56.959999" y1="1475.959961" x2="401.959991" y2="1421.959961" stroke="red" stroke-width="6.660000" />
<circle cx="998.960022" cy="669.960022" r="19.980000" fill="red">
  <title>Mexico City</title>
</circle><line x1="401.959991" y1="1421.959961" x2="998.960022" y2="669.960022" stroke="red" stroke-width="6.660000" />
<circle cx="1882.959961" cy="68.959999" r="19.980000" fill="red">
  <title>Mumbai</title>
</circle><line x1="998.960022" y1="669.960022" x2="1882.959961" y2="68.959999" stroke="red" stroke-width="6.660000" />
</svg>
