<?xml version="1.0" encoding="UTF-8" standalone="no"?>
<svg width="500" height="500" viewBox="0 0 2074.000000 2074.000000" xmlns="http://www.w3.org/2000/svg">
<rect x="19.000000" y="19.000000" width="2036.000000" height="2036.000000" fill="black" />
<circle cx="1208.959961" cy="1219.959961" r="19.980000" fill="red">
  <title>Tokyo</title>
</circle><line x1="1520.959961" y1="1910.959961" x2="1208.959961" y2="1219.959961" stroke="red" stroke-width="6.660000" />
<circle cx="835.960022" cy="1181.959961" r="19.980000" fill="red">
  <title>New York</title>
</circle><line x1="1208.959961" y1="1219.959961" x2="835.960022" y2="1181.959961" stroke="red" stroke-width="6.660000" />
<circle cx="359.959991" cy="1188.959961" r="19.980000" fill="red">
  <title>Osaka</title>
</circle><line x1="835.960022" y1="1181.959961" x2="359.959991" y2="1188.959961" stroke="red" stroke-width="6.660000" />
<circle cx="152.959991" cy="629.960022" r="19.980000" fill="red">
  <title>Istanbul</title>
</circle><line x1="359.959991" y1="1188.959961" x2="152.959991" y2="629.960022" stroke="red" stroke-width="6.660000" />
<circle cx="130.959991" cy="519.960022" r="19.980000" fill="red">
  <title>Beijing</title>
</circle><line x1="152.959991" y1="629.960022" x2="130.959991" y2="519.960022" stroke="red" stroke-width="6.660000" />
<circle cx="617.960022" cy="506.959991" r="19.980000" fill="red">
  <title>Mexico City</title>
</circle><line x1="130.959991" y1="519.960022" x2="617.960022" y2="506.959991" stroke="red" stroke-width="6.660000" />
<circle cx="1182.959961" cy="253.959991" r="19.980000" fill="red">
  <title>Dhaka</title>
</circle><line x1="617.960022" y1="506.959991" x2="1182.959961" y2="253.959991" stroke="red" stroke-width="6.660000" />
<circle cx="1782.959961" cy="347.959991" r="19.980000" fill="red">
  <title>Chongqing</title>
</circle><line x1="1182.959961" y1="253.959991" x2="1782.959961" y2="347.959991" stroke="red" stroke-width="6.660000" />
<circle cx="1841.959961" cy="712.960022" r="19.980000" fill="red">
  <title>Karachi</title>
</circle><line x1="1782.959961" y1="347.959991" x2="1841.959961" y2="712.960022" stroke="red" stroke-width="6.660000" />
<circle cx="1405.959961" cy="764.960022" r="19.980000" fill="red">
  <title>Cairo</title>
</circle><line x1="1841.959961" y1="712.960022" x2="1405.959961" y2="764.960022" stroke="red" stroke-width="6.660000" />
<circle cx="1264.959961" cy="834.960022" r="19.980000" fill="red">
  <title>Mumbai</title>
</circle><line x1="1405.959961" y1="764.960022" x2="1264.959961" y2="834.960022" stroke="red" stroke-width="6.660000" />
<circle cx="1475.959961" cy="834.960022" r="19.980000" fill="red">
  <title>São Paulo</title>
</circle><line x1="1264.959961" y1="834.960022" x2="1475.959961" y2="834.960022" stroke="red" stroke-width="6.660000" />
<circle cx="1586.959961" cy="1218.959961" r="19.980000" fill="red">
  <title>Shanghai</title>
</circle><line x1="1475.959961" y1="834.960022" x2="1586.959961" y2="1218.959961" stroke="red" stroke-width="6.660000" />
<circle cx="1802.959961" cy="1321.959961" r="19.980000" fill="red">
  <title>Kolkata</title>
</circle><line x1="1586.959961" y1="1218.959961" x2="1802.959961" y2="1321.959961" stroke="red" stroke-width="6.660000" />
<circle cx="1701.959961" cy="1703.959961" r="19.980000" fill="red">
  <title>Delhi</title>
</circle><line x1="1802.959961" y1="1321.959961" x2="1701.959961" y2="1703.959961" stroke="red" stroke-width="6.660000" />
<circle cx="1520.959961" cy="1910.959961" r="19.980000" fill="red">
  <title>Buenos Aires</title>
</circle><line x1="1701.959961" y1="1703.959961" x2="1520.959961" y2="1910.959961" stroke="red" stroke-width="6.660000" />
</svg>
