<?xml version="1.0" encoding="UTF-8" standalone="no"?>
<svg width="500" height="500" viewBox="0 0 2074.000000 2074.000000" xmlns="http://www.w3.org/2000/svg">
<rect x="19.000000" y="19.000000" width="2036.000000" height="2036.000000" fill="black" />
<circle cx="290.959991" cy="1704.959961" r="19.980000" fill="red">
  <title>Tokyo</title>
</circle><line x1="1075.959961" y1="1105.959961" x2="290.959991" y2="1704.959961" stroke="red" stroke-width="6.660000" />
<circle cx="1305.959961" cy="1720.959961" r="19.980000" fill="red">
  <title>São Paulo</title>
</circle><line x1="290.959991" y1="1704.959961" x2="1305.959961" y2="1720.959961" stroke="red" stroke-width="6.660000" />
<circle cx="1481.959961" cy="1872.959961" r="19.980000" fill="red">
  <title>Shanghai</title>
</circle><line x1="1305.959961" y1="1720.959961" x2="1481.959961" y2="1872.959961" stroke="red" stroke-width="6.660000" />
<circle cx="1852.959961" cy="1444.959961" r="19.980000" fill="red">
  <title>Delhi</title>
</circle><line x1="1481.959961" y1="1872.959961" x2="1852.959961" y2="1444.959961" stroke="red" stroke-width="6.660000" />
<circle cx="1738.959961" cy="1250.959961" r="19.980000" fill="red">
  <title>Cairo</title>
</circle><line x1="1852.959961" y1="1444.959961" x2="1738.959961" y2="1250.959961" stroke="red" stroke-width="6.660000" />
<circle cx="1737.959961" cy="834.960022" r="19.980000" fill="red">
  <title>Mexico City</title>
</circle><line x1="1738.959961" y1="1250.959961" x2="1737.959961" y2="834.960022" stroke="red" stroke-width="6.660000" />
<circle cx="1075.959961" cy="1105.959961" r="19.980000" fill="red">
  <title>Mumbai</title>
</circle><line x1="1737.959961" y1="834.960022" x2="1075.959961" y2="1105.959961" stroke="red" stroke-width="6.660000" />
</svg>
