<?xml version="1.0" encoding="UTF-8" standalone="no"?>
<svg width="500" height="500" viewBox="0 0 2074.000000 2074.000000" xmlns="http://www.w3.org/2000/svg">
<rect x="19.000000" y="19.000000" width="2036.000000" height="2036.000000" fill="black" />
<circle cx="580.960022" cy="894.960022" r="19.980000" fill="red">
  <title>Tokyo</title>
</circle><line x1="402.959991" y1="993.960022" x2="580.960022" y2="894.960022" stroke="red" stroke-width="6.660000" />
<circle cx="1409.959961" cy="908.960022" r="19.980000" fill="red">
  <title>Shanghai</title>
</circle><line x1="580.960022" y1="894.960022" x2="1409.959961" y2="908.960022" stroke="red" stroke-width="6.660000" />
<circle cx="1404.959961" cy="78.959999" r="19.980000" fill="red">
  <title>Beijing</title>
</circle><line x1="1409.959961" y1="908.960022" x2="1404.959961" y2="78.959999" stroke="red" stroke-width="6.660000" />
<circle cx="1743.959961" cy="707.960022" r="19.980000" fill="red">
  <title>Delhi</title>
</circle><line x1="1404.959961" y1="78.959999" x2="1743.959961" y2="707.960022" stroke="red" stroke-width="6.660000" />
<circle cx="1662.959961" cy="855.960022" r="19.980000" fill="red">
  <title>Dhaka</title>
</circle><line x1="1743.959961" y1="707.960022" x2="1662.959961" y2="855.960022" stroke="red" stroke-width="6.660000" />
<circle cx="1980.959961" cy="1746.959961" r="19.980000" fill="red">
  <title>Cairo</title>
</circle><line x1="1662.959961" y1="855.960022" x2="1980.959961" y2="1746.959961" stroke="red" stroke-width="6.660000" />
<circle cx="1705.959961" cy="1642.959961" r="19.980000" fill="red">
  <title>São Paulo</title>
</circle><line x1="1980.959961" y1="1746.959961" x2="1705.959961" y2="1642.959961" stroke="red" stroke-width="6.660000" />
<circle cx="820.960022" cy="1941.959961" r="19.980000" fill="red">
  <title>Osaka</title>
</circle><line x1="1705.959961" y1="1642.959961" x2="820.960022" y2="1941.959961" stroke="red" stroke-width="6.660000" />
<circle cx="50.959999" cy="1222.959961" r="19.980000" fill="red">
  <title>Mexico City</title>
</circle><line x1="820.960022" y1="1941.959961" x2="50.959999" y2="1222.959961" stroke="red" stroke-width="6.660000" />
<circle cx="402.959991" cy="993.960022" r="19.980000" fill="red">
  <title>Mumbai</title>
</circle><line x1="50.959999" y1="1222.959961" x2="402.959991" y2="993.960022" stroke="red" stroke-width="6.660000" />
</svg>
