<?xml version="1.0" encoding="UTF-8" standalone="no"?>
<svg width="500" height="500" viewBox="0 0 2074.000000 2074.000000" xmlns="http://www.w3.org/2000/svg">
<rect x="19.000000" y="19.000000" width="2036.000000" height="2036.000000" fill="black" />
<circle cx="814.960022" cy="1207.959961" r="19.980000" fill="red">
  <title>Tokyo</title>
</circle><line x1="521.960022" y1="881.960022" x2="814.960022" y2="1207.959961" stroke="red" stroke-width="6.660000" />
<circle cx="1605.959961" cy="1400.959961" r="19.980000" fill="red">
  <title>Shanghai</title>
</circle><line x1="814.960022" y1="1207.959961" x2="1605.959961" y2="1400.959961" stroke="red" stroke-width="6.660000" />
<circle cx="2006.959961" cy="1308.959961" r="19.980000" fill="red">
  <title>Mexico City</title>
</circle><line x1="1605.959961" y1="1400.959961" x2="2006.959961" y2="1308.959961" stroke="red" stroke-width="6.660000" />
<circle cx="1992.959961" cy="907.960022" r="19.980000" fill="red">
  <title>Cairo</title>
</circle><line x1="2006.959961" y1="1308.959961" x2="1992.959961" y2="907.960022" stroke="red" stroke-width="6.660000" />
<circle cx="834.960022" cy="553.960022" r="19.980000" fill="red">
  <title>Delhi</title>
</circle><line x1="1992.959961" y1="907.960022" x2="834.960022" y2="553.960022" stroke="red" stroke-width="6.660000" />
<circle cx="393.959991" cy="112.959999" r="19.980000" fill="red">
  <title>Mumbai</title>
</circle><line x1="834.960022" y1="553.960022" x2="393.959991" y2="112.959999" stroke="red" stroke-width="6.660000" />
<circle cx="521.960022" cy="881.960022" r="19.980000" fill="red">
  <title>São Paulo</title>
</circle><line x1="393.959991" y1="112.959999" x2="521.960022" y2="881.960022" stroke="red" stroke-width="6.660000" />
</svg>
