<?xml version="1.0" encoding="UTF-8" standalone="no"?>
<svg width="500" height="500" viewBox="0 0 2074.000000 2074.000000" xmlns="http://www.w3.org/2000/svg">
<rect x="19.000000" y="19.000000" width="2036.000000" height="2036.000000" fill="black" />
<circle cx="827.960022" cy="570.960022" r="19.980000" fill="red">
  <title>Tokyo</title>
</circle><line x1="1550.959961" y1="949.960022" x2="827.960022" y2="570.960022" stroke="red" stroke-width="6.660000" />
<circle cx="599.960022" cy="254.959991" r="19.980000" fill="red">
  <title>Delhi</title>
</circle><line x1="827.960022" y1="570.960022" x2="599.960022" y2="254.959991" stroke="red" stroke-width="6.660000" />
<circle cx="1550.959961" cy="949.960022" r="19.980000" fill="red">
  <title>Shanghai</title>
</circle><line x1="599.960022" y1="254.959991" x2="1550.959961" y2="949.960022" stroke="red" stroke-width="6.660000" />
</svg>
