<?xml version="1.0" encoding="UTF-8" standalone="no"?>
<svg width="500" height="500" viewBox="0 0 2074.000000 2074.000000" xmlns="http://www.w3.org/2000/svg">
<rect x="19.000000" y="19.000000" width="2036.000000" height="2036.000000" fill="black" />
<circle cx="1182.959961" cy="1380.959961" r="19.980000" fill="red">
  <title>Tokyo</title>
</circle><line x1="1172.959961" y1="1121.959961" x2="1182.959961" y2="1380.959961" stroke="red" stroke-width="6.660000" />
<circle cx="1480.959961" cy="1745.959961" r="19.980000" fill="red">
  <title>Mumbai</title>
</circle><line x1="1182.959961" y1="1380.959961" x2="1480.959961" y2="1745.959961" stroke="red" stroke-width="6.660000" />
<circle cx="1551.959961" cy="1779.959961" r="19.980000" fill="red">
  <title>Osaka</title>
</circle><line x1="1480.959961" y1="1745.959961" x2="1551.959961" y2="1779.959961" stroke="red" stroke-width="6.660000" />
<circle cx="1197.959961" cy="1972.959961" r="19.980000" fill="red">
  <title>Beijing</title>
</circle><line x1="1551.959961" y1="1779.959961" x2="1197.959961" y2="1972.959961" stroke="red" stroke-width="6.660000" />
<circle cx="631.960022" cy="1676.959961" r="19.980000" fill="red">
  <title>Tianjin</title>
</circle><line x1="1197.959961" y1="1972.959961" x2="631.960022" y2="1676.959961" stroke="red" stroke-width="6.660000" />
<circle cx="261.959991" cy="1848.959961" r="19.980000" fill="red">
  <title>Delhi</title>
</circle><line x1="631.960022" y1="1676.959961" x2="261.959991" y2="1848.959961" stroke="red" stroke-width="6.660000" />
<circle cx="627.960022" cy="1657.959961" r="19.980000" fill="red">
  <title>Mexico City</title>
</circle><line x1="261.959991" y1="1848.959961" x2="627.960022" y2="1657.959961" stroke="red" stroke-width="6.660000" />
<circle cx="837.960022" cy="1462.959961" r="19.980000" fill="red">
  <title>Dhaka</title>
</circle><line x1="627.960022" y1="1657.959961" x2="837.960022" y2="1462.959961" stroke="red" stroke-width="6.660000" />
<circle cx="877.960022" cy="1454.959961" r="19.980000" fill="red">
  <title>Cairo</title>
</circle><line x1="837.960022" y1="1462.959961" x2="877.960022" y2="1454.959961" stroke="red" stroke-width="6.660000" />
<circle cx="868.960022" cy="1400.959961" r="19.980000" fill="red">
  <title>New York</title>
</circle><line x1="877.960022" y1="1454.959961" x2="868.960022" y2="1400.959961" stroke="red" stroke-width="6.660000" />
<circle cx="290.959991" cy="763.960022" r="19.980000" fill="red">
  <title>Shanghai</title>
</circle><line x1="868.960022" y1="1400.959961" x2="290.959991" y2="763.960022" stroke="red" stroke-width="6.660000" />
<circle cx="140.959991" cy="810.960022" r="19.980000" fill="red">
  <title>Kolkata</title>
</circle><line x1="290.959991" y1="763.960022" x2="140.959991" y2="810.960022" stroke="red" stroke-width="6.660000" />
<circle cx="202.959991" cy="363.959991" r="19.980000" fill="red">
  <title>Manila</title>
</circle><line x1="140.959991" y1="810.960022" x2="202.959991" y2="363.959991" stroke="red" stroke-width="6.660000" />
<circle cx="621.960022" cy="454.959991" r="19.980000" fill="red">
  <title>Lagos</title>
</circle><line x1="202.959991" y1="363.959991" x2="621.960022" y2="454.959991" stroke="red" stroke-width="6.660000" />
<circle cx="1027.959961" cy="661.960022" r="19.980000" fill="red">
  <title>Buenos Aires</title>
</circle><line x1="621.960022" y1="454.959991" x2="1027.959961" y2="661.960022" stroke="red" stroke-width="6.660000" />
<circle cx="1087.959961" cy="400.959991" r="19.980000" fill="red">
  <title>Rio de Janeiro</title>
</circle><line x1="1027.959961" y1="661.960022" x2="1087.959961" y2="400.959991" stroke="red" stroke-width="6.660000" />
<circle cx="1281.959961" cy="168.959991" r="19.980000" fill="red">
  <title>Chongqing</title>
</circle><line x1="1087.959961" y1="400.959991" x2="1281.959961" y2="168.959991" stroke="red" stroke-width="6.660000" />
<circle cx="1817.959961" cy="215.959991" r="19.980000" fill="red">
  <title>São Paulo</title>
</circle><line x1="1281.959961" y1="168.959991" x2="1817.959961" y2="215.959991" stroke="red" stroke-width="6.660000" />
<circle cx="1665.959961" cy="860.960022" r="19.980000" fill="red">
  <title>Istanbul</title>
</circle><line x1="1817.959961" y1="215.959991" x2="1665.959961" y2="860.960022" stroke="red" stroke-width="6.660000" />
<circle cx="1172.959961" cy="1121.959961" r="19.980000" fill="red">
  <title>Karachi</title>
</circle><line x1="1665.959961" y1="860.960022" x2="1172.959961" y2="1121.959961" stroke="red" stroke-width="6.660000" />
</svg>
