<?xml version="1.0" encoding="UTF-8" standalone="no"?>
<svg width="500" height="500" viewBox="0 0 2074.000000 2074.000000" xmlns="http://www.w3.org/2000/svg">
<rect x="19.000000" y="19.000000" width="2036.000000" height="2036.000000" fill="black" />
<circle cx="570.960022" cy="942.960022" r="19.980000" fill="red">
  <title>Tokyo</title>
</circle><line x1="196.959991" y1="734.960022" x2="570.960022" y2="942.960022" stroke="red" stroke-width="6.660000" />
<circle cx="671.960022" cy="1205.959961" r="19.980000" fill="red">
  <title>São Paulo</title>
</circle><line x1="570.960022" y1="942.960022" x2="671.960022" y2="1205.959961" stroke="red" stroke-width="6.660000" />
<circle cx="420.959991" cy="1285.959961" r="19.980000" fill="red">
  <title>Cairo</title>
</circle><line x1="671.960022" y1="1205.959961" x2="420.959991" y2="1285.959961" stroke="red" stroke-width="6.660000" />
<circle cx="336.959991" cy="1365.959961" r="19.980000" fill="red">
  <title>Mumbai</title>
</circle><line x1="420.959991" y1="1285.959961" x2="336.959991" y2="1365.959961" stroke="red" stroke-width="6.660000" />
<circle cx="203.959991" cy="1657.959961" r="19.980000" fill="red">
  <title>Kolkata</title>
</circle><line x1="336.959991" y1="1365.959961" x2="203.959991" y2="1657.959961" stroke="red" stroke-width="6.660000" />
<circle cx="352.959991" cy="1870.959961" r="19.980000" fill="red">
  <title>Dhaka</title>
</circle><line x1="203.959991" y1="1657.959961" x2="352.959991" y2="1870.959961" stroke="red" stroke-width="6.660000" />
<circle cx="847.960022" cy="1812.959961" r="19.980000" fill="red">
  <title>Shanghai</title>
</circle><line x1="352.959991" y1="1870.959961" x2="847.960022" y2="1812.959961" stroke="red" stroke-width="6.660000" />
<circle cx="1149.959961" cy="1696.959961" r="19.980000" fill="red">
  <title>Osaka</title>
</circle><line x1="847.960022" y1="1812.959961" x2="1149.959961" y2="1696.959961" stroke="red" stroke-width="6.660000" />
<circle cx="1846.959961" cy="1560.959961" r="19.980000" fill="red">
  <title>Delhi</title>
</circle><line x1="1149.959961" y1="1696.959961" x2="1846.959961" y2="1560.959961" stroke="red" stroke-width="6.660000" />
<circle cx="1882.959961" cy="1291.959961" r="19.980000" fill="red">
  <title>Mexico City</title>
</circle><line x1="1846.959961" y1="1560.959961" x2="1882.959961" y2="1291.959961" stroke="red" stroke-width="6.660000" />
<circle cx="1954.959961" cy="1198.959961" r="19.980000" fill="red">
  <title>Karachi</title>
</circle><line x1="1882.959961" y1="1291.959961" x2="1954.959961" y2="1198.959961" stroke="red" stroke-width="6.660000" />
<circle cx="1681.959961" cy="273.959991" r="19.980000" fill="red">
  <title>Beijing</title>
</circle><line x1="1954.959961" y1="1198.959961" x2="1681.959961" y2="273.959991" stroke="red" stroke-width="6.660000" />
<circle cx="1125.959961" cy="665.960022" r="19.980000" fill="red">
  <title>Istanbul</title>
</circle><line x1="1681.959961" y1="273.959991" x2="1125.959961" y2="665.960022" stroke="red" stroke-width="6.660000" />
<circle cx="503.959991" cy="703.960022" r="19.980000" fill="red">
  <title>Chongqing</title>
</circle><line x1="1125.959961" y1="665.960022" x2="503.959991" y2="703.960022" stroke="red" stroke-width="6.660000" />
<circle cx="99.959999" cy="602.960022" r="19.980000" fill="red">
  <title>New York</title>
</circle><line x1="503.959991" y1="703.960022" x2="99.959999" y2="602.960022" stroke="red" stroke-width="6.660000" />
<circle cx="196.959991" cy="734.960022" r="19.980000" fill="red">
  <title>Buenos Aires</title>
</circle><line x1="99.959999" y1="602.960022" x2="196.959991" y2="734.960022" stroke="red" stroke-width="6.660000" />
</svg>
