<?xml version="1.0" encoding="UTF-8" standalone="no"?>
<svg width="500" height="500" viewBox="0 0 2074.000000 2074.000000" xmlns="http://www.w3.org/2000/svg">
<rect x="19.000000" y="19.000000" width="2036.000000" height="2036.000000" fill="black" />
<circle cx="959.960022" cy="82.959999" r="19.980000" fill="red">
  <title>Tokyo</title>
</circle><line x1="846.960022" y1="1770.959961" x2="959.960022" y2="82.959999" stroke="red" stroke-width="6.660000" />
<circle cx="1370.959961" cy="284.959991" r="19.980000" fill="red">
  <title>Delhi</title>
</circle><line x1="959.960022" y1="82.959999" x2="1370.959961" y2="284.959991" stroke="red" stroke-width="6.660000" />
<circle cx="1626.959961" cy="1427.959961" r="19.980000" fill="red">
  <title>Shanghai</title>
</circle><line x1="1370.959961" y1="284.959991" x2="1626.959961" y2="1427.959961" stroke="red" stroke-width="6.660000" />
<circle cx="1889.959961" cy="1891.959961" r="19.980000" fill="red">
  <title>São Paulo</title>
</circle><line x1="1626.959961" y1="1427.959961" x2="1889.959961" y2="1891.959961" stroke="red" stroke-width="6.660000" />
<circle cx="1373.959961" cy="1579.959961" r="19.980000" fill="red">
  <title>Mexico City</title>
</circle><line x1="1889.959961" y1="1891.959961" x2="1373.959961" y2="1579.959961" stroke="red" stroke-width="6.660000" />
<circle cx="702.960022" cy="1995.959961" r="19.980000" fill="red">
  <title>Cairo</title>
</circle><line x1="1373.959961" y1="1579.959961" x2="702.960022" y2="1995.959961" stroke="red" stroke-width="6.660000" />
<circle cx="846.960022" cy="1770.959961" r="19.980000" fill="red">
  <title>Mumbai</title>
</circle><line x1="702.960022" y1="1995.959961" x2="846.960022" y2="1770.959961" stroke="red" stroke-width="6.660000" />
</svg>
