<?xml version="1.0" encoding="UTF-8" standalone="no"?>
<svg width="500" height="500" viewBox="0 0 2074.000000 2074.000000" xmlns="http://www.w3.org/2000/svg">
<rect x="19.000000" y="19.000000" width="2036.000000" height="2036.000000" fill="black" />
<circle cx="1497.959961" cy="485.959991" r="19.980000" fill="red">
  <title>Tokyo</title>
</circle><line x1="1275.959961" y1="634.960022" x2="1497.959961" y2="485.959991" stroke="red" stroke-width="6.660000" />
<circle cx="1649.959961" cy="285.959991" r="19.980000" fill="red">
  <title>Cairo</title>
</circle><line x1="1497.959961" y1="485.959991" x2="1649.959961" y2="285.959991" stroke="red" stroke-width="6.660000" />
<circle cx="1784.959961" cy="631.960022" r="19.980000" fill="red">
  <title>Kolkata</title>
</circle><line x1="1649.959961" y1="285.959991" x2="1784.959961" y2="631.960022" stroke="red" stroke-width="6.660000" />
<circle cx="1911.959961" cy="756.960022" r="19.980000" fill="red">
  <title>Mumbai</title>
</circle><line x1="1784.959961" y1="631.960022" x2="1911.959961" y2="756.960022" stroke="red" stroke-width="6.660000" />
<circle cx="1787.959961" cy="1364.959961" r="19.980000" fill="red">
  <title>Lagos</title>
</circle><line x1="1911.959961" y1="756.960022" x2="1787.959961" y2="1364.959961" stroke="red" stroke-width="6.660000" />
<circle cx="929.960022" cy="1534.959961" r="19.980000" fill="red">
  <title>Mexico City</title>
</circle><line x1="1787.959961" y1="1364.959961" x2="929.960022" y2="1534.959961" stroke="red" stroke-width="6.660000" />
<circle cx="1004.960022" cy="1961.959961" r="19.980000" fill="red">
  <title>Manila</title>
</circle><line x1="929.960022" y1="1534.959961" x2="1004.960022" y2="1961.959961" stroke="red" stroke-width="6.660000" />
<circle cx="538.960022" cy="1654.959961" r="19.980000" fill="red">
  <title>Beijing</title>
</circle><line x1="1004.960022" y1="1961.959961" x2="538.960022" y2="1654.959961" stroke="red" stroke-width="6.660000" />
<circle cx="125.959999" cy="1577.959961" r="19.980000" fill="red">
  <title>Osaka</title>
</circle><line x1="538.960022" y1="1654.959961" x2="125.959999" y2="1577.959961" stroke="red" stroke-width="6.660000" />
<circle cx="413.959991" cy="1363.959961" r="19.980000" fill="red">
  <title>São Paulo</title>
</circle><line x1="125.959999" y1="1577.959961" x2="413.959991" y2="1363.959961" stroke="red" stroke-width="6.660000" />
<circle cx="399.959991" cy="1291.959961" r="19.980000" fill="red">
  <title>Shanghai</title>
</circle><line x1="413.959991" y1="1363.959961" x2="399.959991" y2="1291.959961" stroke="red" stroke-width="6.660000" />
<circle cx="216.959991" cy="1194.959961" r="19.980000" fill="red">
  <title>Delhi</title>
</circle><line x1="399.959991" y1="1291.959961" x2="216.959991" y2="1194.959961" stroke="red" stroke-width="6.660000" />
<circle cx="584.960022" cy="784.960022" r="19.980000" fill="red">
  <title>Buenos Aires</title>
</circle><line x1="216.959991" y1="1194.959961" x2="584.960022" y2="784.960022" stroke="red" stroke-width="6.660000" />
<circle cx="162.959991" cy="477.959991" r="19.980000" fill="red">
  <title>New York</title>
</circle><line x1="584.960022" y1="784.960022" x2="162.959991" y2="477.959991" stroke="red" stroke-width="6.660000" />
<circle cx="253.959991" cy="307.959991" r="19.980000" fill="red">
  <title>Dhaka</title>
</circle><line x1="162.959991" y1="477.959991" x2="253.959991" y2="307.959991" stroke="red" stroke-width="6.660000" />
<circle cx="1017.960022" cy="40.959999" r="19.980000" fill="red">
  <title>Chongqing</title>
</circle><line x1="253.959991" y1="307.959991" x2="1017.960022" y2="40.959999" stroke="red" stroke-width="6.660000" />
<circle cx="1171.959961" cy="557.960022" r="19.980000" fill="red">
  <title>Istanbul</title>
</circle><line x1="1017.960022" y1="40.959999" x2="1171.959961" y2="557.960022" stroke="red" stroke-width="6.660000" />
<circle cx="1275.959961" cy="634.960022" r="19.980000" fill="red">
  <title>Karachi</title>
</circle><line x1="1171.959961" y1="557.960022" x2="1275.959961" y2="634.960022" stroke="red" stroke-width="6.660000" />
</svg>
