<?xml version="1.0" encoding="UTF-8" standalone="no"?>
<svg width="500" height="500" viewBox="0 0 2074.000000 2074.000000" xmlns="http://www.w3.org/2000/svg">
<rect x="19.000000" y="19.000000" width="2036.000000" height="2036.000000" fill="black" />
<circle cx="1554.959961" cy="1515.959961" r="19.980000" fill="red">
  <title>Tokyo</title>
</circle><line x1="1472.959961" y1="1457.959961" x2="1554.959961" y2="1515.959961" stroke="red" stroke-width="6.660000" />
<circle cx="2009.959961" cy="1633.959961" r="19.980000" fill="red">
  <title>Mexico City</title>
</circle><line x1="1554.959961" y1="1515.959961" x2="2009.959961" y2="1633.959961" stroke="red" stroke-width="6.660000" />
<circle cx="1466.959961" cy="1507.959961" r="19.980000" fill="red">
  <title>Cairo</title>
</circle><line x1="2009.959961" y1="1633.959961" x2="1466.959961" y2="1507.959961" stroke="red" stroke-width="6.660000" />
<circle cx="1273.959961" cy="1777.959961" r="19.980000" fill="red">
  <title>Delhi</title>
</circle><line x1="1466.959961" y1="1507.959961" x2="1273.959961" y2="1777.959961" stroke="red" stroke-width="6.660000" />
<circle cx="371.959991" cy="1722.959961" r="19.980000" fill="red">
  <title>Dhaka</title>
</circle><line x1="1273.959961" y1="1777.959961" x2="371.959991" y2="1722.959961" stroke="red" stroke-width="6.660000" />
<circle cx="798.960022" cy="1425.959961" r="19.980000" fill="red">
  <title>São Paulo</title>
</circle><line x1="371.959991" y1="1722.959961" x2="798.960022" y2="1425.959961" stroke="red" stroke-width="6.660000" />
<circle cx="723.960022" cy="676.960022" r="19.980000" fill="red">
  <title>New York</title>
</circle><line x1="798.960022" y1="1425.959961" x2="723.960022" y2="676.960022" stroke="red" stroke-width="6.660000" />
<circle cx="737.960022" cy="192.959991" r="19.980000" fill="red">
  <title>Karachi</title>
</circle><line x1="723.960022" y1="676.960022" x2="737.960022" y2="192.959991" stroke="red" stroke-width="6.660000" />
<circle cx="823.960022" cy="250.959991" r="19.980000" fill="red">
  <title>Mumbai</title>
</circle><line x1="737.960022" y1="192.959991" x2="823.960022" y2="250.959991" stroke="red" stroke-width="6.660000" />
<circle cx="1040.959961" cy="413.959991" r="19.980000" fill="red">
  <title>Chongqing</title>
</circle><line x1="823.960022" y1="250.959991" x2="1040.959961" y2="413.959991" stroke="red" stroke-width="6.660000" />
<circle cx="1079.959961" cy="350.959991" r="19.980000" fill="red">
  <title>Istanbul</title>
</circle><line x1="1040.959961" y1="413.959991" x2="1079.959961" y2="350.959991" stroke="red" stroke-width="6.660000" />
<circle cx="1560.959961" cy="188.959991" r="19.980000" fill="red">
  <title>Osaka</title>
</circle><line x1="1079.959961" y1="350.959991" x2="1560.959961" y2="188.959991" stroke="red" stroke-width="6.660000" />
<circle cx="1719.959961" cy="346.959991" r="19.980000" fill="red">
  <title>Beijing</title>
</circle><line x1="1560.959961" y1="188.959991" x2="1719.959961" y2="346.959991" stroke="red" stroke-width="6.660000" />
<circle cx="1550.959961" cy="752.960022" r="19.980000" fill="red">
  <title>Shanghai</title>
</circle><line x1="1719.959961" y1="346.959991" x2="1550.959961" y2="752.960022" stroke="red" stroke-width="6.660000" />
<circle cx="1472.959961" cy="1457.959961" r="19.980000" fill="red">
  <title>Buenos Aires</title>
</circle><line x1="1550.959961" y1="752.960022" x2="1472.959961" y2="1457.959961" stroke="red" stroke-width="6.660000" />
</svg>
