<?xml version="1.0" encoding="UTF-8" standalone="no"?>
<svg width="500" height="500" viewBox="0 0 2074.000000 2074.000000" xmlns="http://www.w3.org/2000/svg">
<rect x="19.000000" y="19.000000" width="2036.000000" height="2036.000000" fill="black" />
<circle cx="1617.959961" cy="384.959991" r="19.980000" fill="red">
  <title>Tokyo</title>
</circle><line x1="1200.959961" y1="565.960022" x2="1617.959961" y2="384.959991" stroke="red" stroke-width="6.660000" />
<circle cx="1040.959961" cy="195.959991" r="19.980000" fill="red">
  <title>São Paulo</title>
</circle><line x1="1617.959961" y1="384.959991" x2="1040.959961" y2="195.959991" stroke="red" stroke-width="6.660000" />
<circle cx="935.960022" cy="230.959991" r="19.980000" fill="red">
  <title>Cairo</title>
</circle><line x1="1040.959961" y1="195.959991" x2="935.960022" y2="230.959991" stroke="red" stroke-width="6.660000" />
<circle cx="310.959991" cy="296.959991" r="19.980000" fill="red">
  <title>Mumbai</title>
</circle><line x1="935.960022" y1="230.959991" x2="310.959991" y2="296.959991" stroke="red" stroke-width="6.660000" />
<circle cx="145.959991" cy="1665.959961" r="19.980000" fill="red">
  <title>Delhi</title>
</circle><line x1="310.959991" y1="296.959991" x2="145.959991" y2="1665.959961" stroke="red" stroke-width="6.660000" />
<circle cx="1162.959961" cy="2008.959961" r="19.980000" fill="red">
  <title>Shanghai</title>
</circle><line x1="145.959991" y1="1665.959961" x2="1162.959961" y2="2008.959961" stroke="red" stroke-width="6.660000" />
<circle cx="1200.959961" cy="565.960022" r="19.980000" fill="red">
  <title>Mexico City</title>
</circle><line x1="1162.959961" y1="2008.959961" x2="1200.959961" y2="565.960022" stroke="red" stroke-width="6.660000" />
</svg>
