<?xml version="1.0" encoding="UTF-8" standalone="no"?>
<svg width="500" height="500" viewBox="0 0 2074.000000 2074.000000" xmlns="http://www.w3.org/2000/svg">
<rect x="19.000000" y="19.000000" width="2036.000000" height="2036.000000" fill="black" />
<circle cx="680.960022" cy="826.960022" r="19.980000" fill="red">
  <title>Tokyo</title>
</circle><line x1="1084.959961" y1="899.960022" x2="680.960022" y2="826.960022" stroke="red" stroke-width="6.660000" />
<circle cx="433.959991" cy="1037.959961" r="19.980000" fill="red">
  <title>Chongqing</title>
</circle><line x1="680.960022" y1="826.960022" x2="433.959991" y2="1037.959961" stroke="red" stroke-width="6.660000" />
<circle cx="470.959991" cy="1191.959961" r="19.980000" fill="red">
  <title>São Paulo</title>
</circle><line x1="433.959991" y1="1037.959961" x2="470.959991" y2="1191.959961" stroke="red" stroke-width="6.660000" />
<circle cx="251.959991" cy="1126.959961" r="19.980000" fill="red">
  <title>Delhi</title>
</circle><line x1="470.959991" y1="1191.959961" x2="251.959991" y2="1126.959961" stroke="red" stroke-width="6.660000" />
<circle cx="59.959999" cy="1565.959961" r="19.980000" fill="red">
  <title>Buenos Aires</title>
</circle><line x1="251.959991" y1="1126.959961" x2="59.959999" y2="1565.959961" stroke="red" stroke-width="6.660000" />
<circle cx="198.959991" cy="1473.959961" r="19.980000" fill="red">
  <title>Mexico City</title>
</circle><line x1="59.959999" y1="1565.959961" x2="198.959991" y2="1473.959961" stroke="red" stroke-width="6.660000" />
<circle cx="727.960022" cy="1455.959961" r="19.980000" fill="red">
  <title>Osaka</title>
</circle><line x1="198.959991" y1="1473.959961" x2="727.960022" y2="1455.959961" stroke="red" stroke-width="6.660000" />
<circle cx="1293.959961" cy="1791.959961" r="19.980000" fill="red">
  <title>Karachi</title>
</circle><line x1="727.960022" y1="1455.959961" x2="1293.959961" y2="1791.959961" stroke="red" stroke-width="6.660000" />
<circle cx="1698.959961" cy="1980.959961" r="19.980000" fill="red">
  <title>Beijing</title>
</circle><line x1="1293.959961" y1="1791.959961" x2="1698.959961" y2="1980.959961" stroke="red" stroke-width="6.660000" />
<circle cx="1690.959961" cy="781.960022" r="19.980000" fill="red">
  <title>Cairo</title>
</circle><line x1="1698.959961" y1="1980.959961" x2="1690.959961" y2="781.960022" stroke="red" stroke-width="6.660000" />
<circle cx="2009.959961" cy="144.959991" r="19.980000" fill="red">
  <title>Shanghai</title>
</circle><line x1="1690.959961" y1="781.960022" x2="2009.959961" y2="144.959991" stroke="red" stroke-width="6.660000" />
<circle cx="1732.959961" cy="281.959991" r="19.980000" fill="red">
  <title>Mumbai</title>
</circle><line x1="2009.959961" y1="144.959991" x2="1732.959961" y2="281.959991" stroke="red" stroke-width="6.660000" />
<circle cx="1035.959961" cy="441.959991" r="19.980000" fill="red">
  <title>New York</title>
</circle><line x1="1732.959961" y1="281.959991" x2="1035.959961" y2="441.959991" stroke="red" stroke-width="6.660000" />
<circle cx="905.960022" cy="580.960022" r="19.980000" fill="red">
  <title>Dhaka</title>
</circle><line x1="1035.959961" y1="441.959991" x2="905.960022" y2="580.960022" stroke="red" stroke-width="6.660000" />
<circle cx="1084.959961" cy="899.960022" r="19.980000" fill="red">
  <title>Istanbul</title>
</circle><line x1="905.960022" y1="580.960022" x2="1084.959961" y2="899.960022" stroke="red" stroke-width="6.660000" />
</svg>
