<?xml version="1.0" encoding="UTF-8" standalone="no"?>
<svg width="500" height="500" viewBox="0 0 2074.000000 2074.000000" xmlns="http://www.w3.org/2000/svg">
<rect x="19.000000" y="19.000000" width="2036.000000" height="2036.000000" fill="black" />
<circle cx="650.960022" cy="1140.959961" r="19.980000" fill="red">
  <title>Tokyo</title>
</circle><line x1="164.959991" y1="1932.959961" x2="650.960022" y2="1140.959961" stroke="red" stroke-width="6.660000" />
<circle cx="140.959991" cy="919.960022" r="19.980000" fill="red">
  <title>Mexico City</title>
</circle><line x1="650.960022" y1="1140.959961" x2="140.959991" y2="919.960022" stroke="red" stroke-width="6.660000" />
<circle cx="201.959991" cy="721.960022" r="19.980000" fill="red">
  <title>Osaka</title>
</circle><line x1="140.959991" y1="919.960022" x2="201.959991" y2="721.960022" stroke="red" stroke-width="6.660000" />
<circle cx="281.959991" cy="160.959991" r="19.980000" fill="red">
  <title>Karachi</title>
</circle><line x1="201.959991" y1="721.960022" x2="281.959991" y2="160.959991" stroke="red" stroke-width="6.660000" />
<circle cx="832.960022" cy="196.959991" r="19.980000" fill="red">
  <title>New York</title>
</circle><line x1="281.959991" y1="160.959991" x2="832.960022" y2="196.959991" stroke="red" stroke-width="6.660000" />
<circle cx="1766.959961" cy="159.959991" r="19.980000" fill="red">
  <title>Delhi</title>
</circle><line x1="832.960022" y1="196.959991" x2="1766.959961" y2="159.959991" stroke="red" stroke-width="6.660000" />
<circle cx="1857.959961" cy="696.960022" r="19.980000" fill="red">
  <title>Cairo</title>
</circle><line x1="1766.959961" y1="159.959991" x2="1857.959961" y2="696.960022" stroke="red" stroke-width="6.660000" />
<circle cx="1226.959961" cy="1321.959961" r="19.980000" fill="red">
  <title>Dhaka</title>
</circle><line x1="1857.959961" y1="696.960022" x2="1226.959961" y2="1321.959961" stroke="red" stroke-width="6.660000" />
<circle cx="1521.959961" cy="1663.959961" r="19.980000" fill="red">
  <title>São Paulo</title>
</circle><line x1="1226.959961" y1="1321.959961" x2="1521.959961" y2="1663.959961" stroke="red" stroke-width="6.660000" />
<circle cx="1888.959961" cy="1971.959961" r="19.980000" fill="red">
  <title>Beijing</title>
</circle><line x1="1521.959961" y1="1663.959961" x2="1888.959961" y2="1971.959961" stroke="red" stroke-width="6.660000" />
<circle cx="889.960022" cy="1754.959961" r="19.980000" fill="red">
  <title>Mumbai</title>
</circle><line x1="1888.959961" y1="1971.959961" x2="889.960022" y2="1754.959961" stroke="red" stroke-width="6.660000" />
<circle cx="164.959991" cy="1932.959961" r="19.980000" fill="red">
  <title>Shanghai</title>
</circle><line x1="889.960022" y1="1754.959961" x2="164.959991" y2="1932.959961" stroke="red" stroke-width="6.660000" />
</svg>
