<?xml version="1.0" encoding="UTF-8" standalone="no"?>
<svg width="500" height="500" viewBox="0 0 2074.000000 2074.000000" xmlns="http://www.w3.org/2000/svg">
<rect x="19.000000" y="19.000000" width="2036.000000" height="2036.000000" fill="black" />
<circle cx="359.959991" cy="661.960022" r="19.980000" fill="red">
  <title>Tokyo</title>
</circle><line x1="111.959999" y1="397.959991" x2="359.959991" y2="661.960022" stroke="red" stroke-width="6.660000" />
<circle cx="101.959999" cy="1173.959961" r="19.980000" fill="red">
  <title>Mumbai</title>
</circle><line x1="359.959991" y1="661.960022" x2="101.959999" y2="1173.959961" stroke="red" stroke-width="6.660000" />
<circle cx="796.960022" cy="1986.959961" r="19.980000" fill="red">
  <title>Cairo</title>
</circle><line x1="101.959999" y1="1173.959961" x2="796.960022" y2="1986.959961" stroke="red" stroke-width="6.660000" />
<circle cx="835.960022" cy="1966.959961" r="19.980000" fill="red">
  <title>Delhi</title>
</circle><line x1="796.960022" y1="1986.959961" x2="835.960022" y2="1966.959961" stroke="red" stroke-width="6.660000" />
<circle cx="1638.959961" cy="375.959991" r="19.980000" fill="red">
  <title>São Paulo</title>
</circle><line x1="835.960022" y1="1966.959961" x2="1638.959961" y2="375.959991" stroke="red" stroke-width="6.660000" />
<circle cx="1610.959961" cy="147.959991" r="19.980000" fill="red">
  <title>Beijing</title>
</circle><line x1="1638.959961" y1="375.959991" x2="1610.959961" y2="147.959991" stroke="red" stroke-width="6.660000" />
<circle cx="308.959991" cy="232.959991" r="19.980000" fill="red">
  <title>Shanghai</title>
</circle><line x1="1610.959961" y1="147.959991" x2="308.959991" y2="232.959991" stroke="red" stroke-width="6.660000" />
<circle cx="111.959999" cy="397.959991" r="19.980000" fill="red">
  <title>Mexico City</title>
</circle><line x1="308.959991" y1="232.959991" x2="111.959999" y2="397.959991" stroke="red" stroke-width="6.660000" />
</svg>
