<?xml version="1.0" encoding="UTF-8" standalone="no"?>
<svg width="500" height="500" viewBox="0 0 2074.000000 2074.000000" xmlns="http://www.w3.org/2000/svg">
<rect x="19.000000" y="19.000000" width="2036.000000" height="2036.000000" fill="black" />
<circle cx="1558.959961" cy="680.960022" r="19.980000" fill="red">
  <title>Tokyo</title>
</circle><line x1="2006.959961" y1="785.960022" x2="1558.959961" y2="680.960022" stroke="red" stroke-width="6.660000" />
<circle cx="1100.959961" cy="197.959991" r="19.980000" fill="red">
  <title>São Paulo</title>
</circle><line x1="1558.959961" y1="680.960022" x2="1100.959961" y2="197.959991" stroke="red" stroke-width="6.660000" />
<circle cx="922.960022" cy="82.959999" r="19.980000" fill="red">
  <title>Mumbai</title>
</circle><line x1="1100.959961" y1="197.959991" x2="922.960022" y2="82.959999" stroke="red" stroke-width="6.660000" />
<circle cx="359.959991" cy="840.960022" r="19.980000" fill="red">
  <title>Osaka</title>
</circle><line x1="922.960022" y1="82.959999" x2="359.959991" y2="840.960022" stroke="red" stroke-width="6.660000" />
<circle cx="1157.959961" cy="1750.959961" r="19.980000" fill="red">
  <title>Delhi</title>
</circle><line x1="359.959991" y1="840.960022" x2="1157.959961" y2="1750.959961" stroke="red" stroke-width="6.660000" />
<circle cx="984.960022" cy="1990.959961" r="19.980000" fill="red">
  <title>Cairo</title>
</circle><line x1="1157.959961" y1="1750.959961" x2="984.960022" y2="1990.959961" stroke="red" stroke-width="6.660000" />
<circle cx="1671.959961" cy="1959.959961" r="19.980000" fill="red">
  <title>Dhaka</title>
</circle><line x1="984.960022" y1="1990.959961" x2="1671.959961" y2="1959.959961" stroke="red" stroke-width="6.660000" />
<circle cx="1528.959961" cy="1335.959961" r="19.980000" fill="red">
  <title>New York</title>
</circle><line x1="1671.959961" y1="1959.959961" x2="1528.959961" y2="1335.959961" stroke="red" stroke-width="6.660000" />
<circle cx="1790.959961" cy="1263.959961" r="19.980000" fill="red">
  <title>Shanghai</title>
</circle><line x1="1528.959961" y1="1335.959961" x2="1790.959961" y2="1263.959961" stroke="red" stroke-width="6.660000" />
<circle cx="1693.959961" cy="1008.960022" r="19.980000" fill="red">
  <title>Mexico City</title>
</circle><line x1="1790.959961" y1="1263.959961" x2="1693.959961" y2="1008.960022" stroke="red" stroke-width="6.660000" />
<circle cx="2006.959961" cy="785.960022" r="19.980000" fill="red">
  <title>Beijing</title>
</circle><line x1="1693.959961" y1="1008.960022" x2="2006.959961" y2="785.960022" stroke="red" stroke-width="6.660000" />
</svg>
