<?xml version="1.0" encoding="UTF-8" standalone="no"?>
<svg width="500" height="500" viewBox="0 0 2074.000000 2074.000000" xmlns="http://www.w3.org/2000/svg">
<rect x="19.000000" y="19.000000" width="2036.000000" height="2036.000000" fill="black" />
<circle cx="1205.959961" cy="630.960022" r="19.980000" fill="red">
  <title>Tokyo</title>
</circle><line x1="1128.959961" y1="786.960022" x2="1205.959961" y2="630.960022" stroke="red" stroke-width="6.660000" />
<circle cx="1258.959961" cy="381.959991" r="19.980000" fill="red">
  <title>Buenos Aires</title>
</circle><line x1="1205.959961" y1="630.960022" x2="1258.959961" y2="381.959991" stroke="red" stroke-width="6.660000" />
<circle cx="1439.959961" cy="264.959991" r="19.980000" fill="red">
  <title>Beijing</title>
</circle><line x1="1258.959961" y1="381.959991" x2="1439.959961" y2="264.959991" stroke="red" stroke-width="6.660000" />
<circle cx="1736.959961" cy="54.959999" r="19.980000" fill="red">
  <title>Rio de Janeiro</title>
</circle><line x1="1439.959961" y1="264.959991" x2="1736.959961" y2="54.959999" stroke="red" stroke-width="6.660000" />
<circle cx="1677.959961" cy="736.960022" r="19.980000" fill="red">
  <title>São Paulo</title>
</circle><line x1="1736.959961" y1="54.959999" x2="1677.959961" y2="736.960022" stroke="red" stroke-width="6.660000" />
<circle cx="1659.959961" cy="1029.959961" r="19.980000" fill="red">
  <title>Dhaka</title>
</circle><line x1="1677.959961" y1="736.960022" x2="1659.959961" y2="1029.959961" stroke="red" stroke-width="6.660000" />
<circle cx="1650.959961" cy="1388.959961" r="19.980000" fill="red">
  <title>Mumbai</title>
</circle><line x1="1659.959961" y1="1029.959961" x2="1650.959961" y2="1388.959961" stroke="red" stroke-width="6.660000" />
<circle cx="1932.959961" cy="1866.959961" r="19.980000" fill="red">
  <title>Shanghai</title>
</circle><line x1="1650.959961" y1="1388.959961" x2="1932.959961" y2="1866.959961" stroke="red" stroke-width="6.660000" />
<circle cx="1618.959961" cy="1841.959961" r="19.980000" fill="red">
  <title>Istanbul</title>
</circle><line x1="1932.959961" y1="1866.959961" x2="1618.959961" y2="1841.959961" stroke="red" stroke-width="6.660000" />
<circle cx="1315.959961" cy="1669.959961" r="19.980000" fill="red">
  <title>Karachi</title>
</circle><line x1="1618.959961" y1="1841.959961" x2="1315.959961" y2="1669.959961" stroke="red" stroke-width="6.660000" />
<circle cx="1014.960022" cy="1155.959961" r="19.980000" fill="red">
  <title>Cairo</title>
</circle><line x1="1315.959961" y1="1669.959961" x2="1014.960022" y2="1155.959961" stroke="red" stroke-width="6.660000" />
<circle cx="732.960022" cy="1295.959961" r="19.980000" fill="red">
  <title>Chongqing</title>
</circle><line x1="1014.960022" y1="1155.959961" x2="732.960022" y2="1295.959961" stroke="red" stroke-width="6.660000" />
<circle cx="817.960022" cy="1667.959961" r="19.980000" fill="red">
  <title>Delhi</title>
</circle><line x1="732.960022" y1="1295.959961" x2="817.960022" y2="1667.959961" stroke="red" stroke-width="6.660000" />
<circle cx="433.959991" cy="1907.959961" r="19.980000" fill="red">
  <title>Manila</title>
</circle><line x1="817.960022" y1="1667.959961" x2="433.959991" y2="1907.959961" stroke="red" stroke-width="6.660000" />
<circle cx="373.959991" cy="1536.959961" r="19.980000" fill="red">
  <title>Mexico City</title>
</circle><line x1="433.959991" y1="1907.959961" x2="373.959991" y2="1536.959961" stroke="red" stroke-width="6.660000" />
<circle cx="277.959991" cy="815.960022" r="19.980000" fill="red">
  <title>Osaka</title>
</circle><line x1="373.959991" y1="1536.959961" x2="277.959991" y2="815.960022" stroke="red" stroke-width="6.660000" />
<circle cx="61.959999" cy="186.959991" r="19.980000" fill="red">
  <title>New York</title>
</circle><line x1="277.959991" y1="815.960022" x2="61.959999" y2="186.959991" stroke="red" stroke-width="6.660000" />
<circle cx="415.959991" cy="327.959991" r="19.980000" fill="red">
  <title>Lagos</title>
</circle><line x1="61.959999" y1="186.959991" x2="415.959991" y2="327.959991" stroke="red" stroke-width="6.660000" />
<circle cx="1128.959961" cy="786.960022" r="19.980000" fill="red">
  <title>Kolkata</title>
</circle><line x1="415.959991" y1="327.959991" x2="1128.959961" y2="786.960022" stroke="red" stroke-width="6.660000" />
</svg>
