<?xml version="1.0" encoding="UTF-8" standalone="no"?>
<svg width="500" height="500" viewBox="0 0 2074.000000 2074.000000" xmlns="http://www.w3.org/2000/svg">
<rect x="19.000000" y="19.000000" width="2036.000000" height="2036.000000" fill="black" />
<circle cx="1419.959961" cy="1609.959961" r="19.980000" fill="red">
  <title>Tokyo</title>
</circle><line x1="595.960022" y1="1306.959961" x2="1419.959961" y2="1609.959961" stroke="red" stroke-width="6.660000" />
<circle cx="1217.959961" cy="454.959991" r="19.980000" fill="red">
  <title>São Paulo</title>
</circle><line x1="1419.959961" y1="1609.959961" x2="1217.959961" y2="454.959991" stroke="red" stroke-width="6.660000" />
<circle cx="173.959991" cy="356.959991" r="19.980000" fill="red">
  <title>Shanghai</title>
</circle><line x1="1217.959961" y1="454.959991" x2="173.959991" y2="356.959991" stroke="red" stroke-width="6.660000" />
<circle cx="269.959991" cy="667.960022" r="19.980000" fill="red">
  <title>Delhi</title>
</circle><line x1="173.959991" y1="356.959991" x2="269.959991" y2="667.960022" stroke="red" stroke-width="6.660000" />
<circle cx="595.960022" cy="1306.959961" r="19.980000" fill="red">
  <title>Mexico City</title>
</circle><line x1="269.959991" y1="667.960022" x2="595.960022" y2="1306.959961" stroke="red" stroke-width="6.660000" />
</svg>
