<?xml version="1.0" encoding="UTF-8" standalone="no"?>
<svg width="500" height="500" viewBox="0 0 2074.000000 2074.000000" xmlns="http://www.w3.org/2000/svg">
<rect x="19.000000" y="19.000000" width="2036.000000" height="2036.000000" fill="black" />
<circle cx="1696.959961" cy="1620.959961" r="19.980000" fill="red">
  <title>Tokyo</title>
</circle><line x1="1564.959961" y1="1585.959961" x2="1696.959961" y2="1620.959961" stroke="red" stroke-width="6.660000" />
<circle cx="1996.959961" cy="1612.959961" r="19.980000" fill="red">
  <title>Mexico City</title>
</circle><line x1="1696.959961" y1="1620.959961" x2="1996.959961" y2="1612.959961" stroke="red" stroke-width="6.660000" />
<circle cx="1883.959961" cy="1110.959961" r="19.980000" fill="red">
  <title>Beijing</title>
</circle><line x1="1996.959961" y1="1612.959961" x2="1883.959961" y2="1110.959961" stroke="red" stroke-width="6.660000" />
<circle cx="1500.959961" cy="711.960022" r="19.980000" fill="red">
  <title>Delhi</title>
</circle><line x1="1883.959961" y1="1110.959961" x2="1500.959961" y2="711.960022" stroke="red" stroke-width="6.660000" />
<circle cx="1394.959961" cy="188.959991" r="19.980000" fill="red">
  <title>Dhaka</title>
</circle><line x1="1500.959961" y1="711.960022" x2="1394.959961" y2="188.959991" stroke="red" stroke-width="6.660000" />
<circle cx="578.960022" cy="813.960022" r="19.980000" fill="red">
  <title>Karachi</title>
</circle><line x1="1394.959961" y1="188.959991" x2="578.960022" y2="813.960022" stroke="red" stroke-width="6.660000" />
<circle cx="734.960022" cy="1122.959961" r="19.980000" fill="red">
  <title>Shanghai</title>
</circle><line x1="578.960022" y1="813.960022" x2="734.960022" y2="1122.959961" stroke="red" stroke-width="6.660000" />
<circle cx="803.960022" cy="1526.959961" r="19.980000" fill="red">
  <title>Cairo</title>
</circle><line x1="734.960022" y1="1122.959961" x2="803.960022" y2="1526.959961" stroke="red" stroke-width="6.660000" />
<circle cx="524.960022" cy="1887.959961" r="19.980000" fill="red">
  <title>Osaka</title>
</circle><line x1="803.960022" y1="1526.959961" x2="524.960022" y2="1887.959961" stroke="red" stroke-width="6.660000" />
<circle cx="1011.960022" cy="1643.959961" r="19.980000" fill="red">
  <title>Mumbai</title>
</circle><line x1="524.960022" y1="1887.959961" x2="1011.960022" y2="1643.959961" stroke="red" stroke-width="6.660000" />
<circle cx="1269.959961" cy="1725.959961" r="19.980000" fill="red">
  <title>New York</title>
</circle><line x1="1011.960022" y1="1643.959961" x2="1269.959961" y2="1725.959961" stroke="red" stroke-width="6.660000" />
<circle cx="1286.959961" cy="1510.959961" r="19.980000" fill="red">
  <title>São Paulo</title>
</circle><line x1="1269.959961" y1="1725.959961" x2="1286.959961" y2="1510.959961" stroke="red" stroke-width="6.660000" />
<circle cx="1564.959961" cy="1585.959961" r="19.980000" fill="red">
  <title>Buenos Aires</title>
</circle><line x1="1286.959961" y1="1510.959961" x2="1564.959961" y2="1585.959961" stroke="red" stroke-width="6.660000" />
</svg>
