<?xml version="1.0" encoding="UTF-8" standalone="no"?>
<svg width="500" height="500" viewBox="0 0 2074.000000 2074.000000" xmlns="http://www.w3.org/2000/svg">
<rect x="19.000000" y="19.000000" width="2036.000000" height="2036.000000" fill="black" />
<circle cx="1331.959961" cy="880.960022" r="19.980000" fill="red">
  <title>Tokyo</title>
</circle><line x1="1334.959961" y1="725.960022" x2="1331.959961" y2="880.960022" stroke="red" stroke-width="6.660000" />
<circle cx="1618.959961" cy="1024.959961" r="19.980000" fill="red">
  <title>Mexico City</title>
</circle><line x1="1331.959961" y1="880.960022" x2="1618.959961" y2="1024.959961" stroke="red" stroke-width="6.660000" />
<circle cx="1571.959961" cy="1067.959961" r="19.980000" fill="red">
  <title>Cairo</title>
</circle><line x1="1618.959961" y1="1024.959961" x2="1571.959961" y2="1067.959961" stroke="red" stroke-width="6.660000" />
<circle cx="1768.959961" cy="988.960022" r="19.980000" fill="red">
  <title>Mumbai</title>
</circle><line x1="1571.959961" y1="1067.959961" x2="1768.959961" y2="988.960022" stroke="red" stroke-width="6.660000" />
<circle cx="1612.959961" cy="1058.959961" r="19.980000" fill="red">
  <title>Istanbul</title>
</circle><line x1="1768.959961" y1="988.960022" x2="1612.959961" y2="1058.959961" stroke="red" stroke-width="6.660000" />
<circle cx="1667.959961" cy="1172.959961" r="19.980000" fill="red">
  <title>New York</title>
</circle><line x1="1612.959961" y1="1058.959961" x2="1667.959961" y2="1172.959961" stroke="red" stroke-width="6.660000" />
<circle cx="1760.959961" cy="1644.959961" r="19.980000" fill="red">
  <title>Delhi</title>
</circle><line x1="1667.959961" y1="1172.959961" x2="1760.959961" y2="1644.959961" stroke="red" stroke-width="6.660000" />
<circle cx="1476.959961" cy="2013.959961" r="19.980000" fill="red">
  <title>Chongqing</title>
</circle><line x1="1760.959961" y1="1644.959961" x2="1476.959961" y2="2013.959961" stroke="red" stroke-width="6.660000" />
<circle cx="137.959991" cy="1991.959961" r="19.980000" fill="red">
  <title>Shanghai</title>
</circle><line x1="1476.959961" y1="2013.959961" x2="137.959991" y2="1991.959961" stroke="red" stroke-width="6.660000" />
<circle cx="203.959991" cy="1797.959961" r="19.980000" fill="red">
  <title>Buenos Aires</title>
</circle><line x1="137.959991" y1="1991.959961" x2="203.959991" y2="1797.959961" stroke="red" stroke-width="6.660000" />
<circle cx="174.959991" cy="1418.959961" r="19.980000" fill="red">
  <title>Beijing</title>
</circle><line x1="203.959991" y1="1797.959961" x2="174.959991" y2="1418.959961" stroke="red" stroke-width="6.660000" />
<circle cx="638.960022" cy="269.959991" r="19.980000" fill="red">
  <title>Karachi</title>
</circle><line x1="174.959991" y1="1418.959961" x2="638.960022" y2="269.959991" stroke="red" stroke-width="6.660000" />
<circle cx="932.960022" cy="109.959999" r="19.980000" fill="red">
  <title>São Paulo</title>
</circle><line x1="638.960022" y1="269.959991" x2="932.960022" y2="109.959999" stroke="red" stroke-width="6.660000" />
<circle cx="1686.959961" cy="216.959991" r="19.980000" fill="red">
  <title>Dhaka</title>
</circle><line x1="932.960022" y1="109.959999" x2="1686.959961" y2="216.959991" stroke="red" stroke-width="6.660000" />
<circle cx="1334.959961" cy="725.960022" r="19.980000" fill="red">
  <title>Osaka</title>
</circle><line x1="1686.959961" y1="216.959991" x2="1334.959961" y2="725.960022" stroke="red" stroke-width="6.660000" />
</svg>
