<?xml version="1.0" encoding="UTF-8" standalone="no"?>
<svg width="500" height="500" viewBox="0 0 2074.000000 2074.000000" xmlns="http://www.w3.org/2000/svg">
<rect x="19.000000" y="19.000000" width="2036.000000" height="2036.000000" fill="black" />
<circle cx="531.960022" cy="1041.959961" r="19.980000" fill="red">
  <title>Tokyo</title>
</circle><line x1="311.959991" y1="1033.959961" x2="531.960022" y2="1041.959961" stroke="red" stroke-width="6.660000" />
<circle cx="507.959991" cy="898.960022" r="19.980000" fill="red">
  <title>Beijing</title>
</circle><line x1="531.960022" y1="1041.959961" x2="507.959991" y2="898.960022" stroke="red" stroke-width="6.660000" />
<circle cx="630.960022" cy="763.960022" r="19.980000" fill="red">
  <title>Karachi</title>
</circle><line x1="507.959991" y1="898.960022" x2="630.960022" y2="763.960022" stroke="red" stroke-width="6.660000" />
<circle cx="541.960022" cy="349.959991" r="19.980000" fill="red">
  <title>Chongqing</title>
</circle><line x1="630.960022" y1="763.960022" x2="541.960022" y2="349.959991" stroke="red" stroke-width="6.660000" />
<circle cx="1588.959961" cy="68.959999" r="19.980000" fill="red">
  <title>Shanghai</title>
</circle><line x1="541.960022" y1="349.959991" x2="1588.959961" y2="68.959999" stroke="red" stroke-width="6.660000" />
<circle cx="1871.959961" cy="44.959999" r="19.980000" fill="red">
  <title>São Paulo</title>
</circle><line x1="1588.959961" y1="68.959999" x2="1871.959961" y2="44.959999" stroke="red" stroke-width="6.660000" />
<circle cx="1541.959961" cy="254.959991" r="19.980000" fill="red">
  <title>Istanbul</title>
</circle><line x1="1871.959961" y1="44.959999" x2="1541.959961" y2="254.959991" stroke="red" stroke-width="6.660000" />
<circle cx="1595.959961" cy="1287.959961" r="19.980000" fill="red">
  <title>New York</title>
</circle><line x1="1541.959961" y1="254.959991" x2="1595.959961" y2="1287.959961" stroke="red" stroke-width="6.660000" />
<circle cx="1634.959961" cy="1892.959961" r="19.980000" fill="red">
  <title>Delhi</title>
</circle><line x1="1595.959961" y1="1287.959961" x2="1634.959961" y2="1892.959961" stroke="red" stroke-width="6.660000" />
<circle cx="2009.959961" cy="2033.959961" r="19.980000" fill="red">
  <title>Kolkata</title>
</circle><line x1="1634.959961" y1="1892.959961" x2="2009.959961" y2="2033.959961" stroke="red" stroke-width="6.660000" />
<circle cx="1597.959961" cy="1877.959961" r="19.980000" fill="red">
  <title>Mumbai</title>
</circle><line x1="2009.959961" y1="2033.959961" x2="1597.959961" y2="1877.959961" stroke="red" stroke-width="6.660000" />
<circle cx="1256.959961" cy="1606.959961" r="19.980000" fill="red">
  <title>Manila</title>
</circle><line x1="1597.959961" y1="1877.959961" x2="1256.959961" y2="1606.959961" stroke="red" stroke-width="6.660000" />
<circle cx="1271.959961" cy="1302.959961" r="19.980000" fill="red">
  <title>Mexico City</title>
</circle><line x1="1256.959961" y1="1606.959961" x2="1271.959961" y2="1302.959961" stroke="red" stroke-width="6.660000" />
<circle cx="1136.959961" cy="1289.959961" r="19.980000" fill="red">
  <title>Cairo</title>
</circle><line x1="1271.959961" y1="1302.959961" x2="1136.959961" y2="1289.959961" stroke="red" stroke-width="6.660000" />
<circle cx="1019.960022" cy="1238.959961" r="19.980000" fill="red">
  <title>Osaka</title>
</circle><line x1="1136.959961" y1="1289.959961" x2="1019.960022" y2="1238.959961" stroke="red" stroke-width="6.660000" />
<circle cx="472.959991" cy="1760.959961" r="19.980000" fill="red">
  <title>Buenos Aires</title>
</circle><line x1="1019.960022" y1="1238.959961" x2="472.959991" y2="1760.959961" stroke="red" stroke-width="6.660000" />
<circle cx="311.959991" cy="1033.959961" r="19.980000" fill="red">
  <title>Dhaka</title>
</circle><line x1="472.959991" y1="1760.959961" x2="311.959991" y2="1033.959961" stroke="red" stroke-width="6.660000" />
</svg>
