<?xml version="1.0" encoding="UTF-8" standalone="no"?>
<svg width="500" height="500" viewBox="0 0 2074.000000 2074.000000" xmlns="http://www.w3.org/2000/svg">
<rect x="19.000000" y="19.000000" width="2036.000000" height="2036.000000" fill="black" />
<circle cx="872.960022" cy="1657.959961" r="19.980000" fill="red">
  <title>Tokyo</title>
</circle><line x1="585.960022" y1="1559.959961" x2="872.960022" y2="1657.959961" stroke="red" stroke-width="6.660000" />
<circle cx="1272.959961" cy="1915.959961" r="19.980000" fill="red">
  <title>Dhaka</title>
</circle><line x1="872.960022" y1="1657.959961" x2="1272.959961" y2="1915.959961" stroke="red" stroke-width="6.660000" />
<circle cx="1427.959961" cy="1642.959961" r="19.980000" fill="red">
  <title>São Paulo</title>
</circle><line x1="1272.959961" y1="1915.959961" x2="1427.959961" y2="1642.959961" stroke="red" stroke-width="6.660000" />
<circle cx="1951.959961" cy="1430.959961" r="19.980000" fill="red">
  <title>Cairo</title>
</circle><line x1="1427.959961" y1="1642.959961" x2="1951.959961" y2="1430.959961" stroke="red" stroke-width="6.660000" />
<circle cx="1985.959961" cy="892.960022" r="19.980000" fill="red">
  <title>Manila</title>
</circle><line x1="1951.959961" y1="1430.959961" x2="1985.959961" y2="892.960022" stroke="red" stroke-width="6.660000" />
<circle cx="1839.959961" cy="630.960022" r="19.980000" fill="red">
  <title>Rio de Janeiro</title>
</circle><line x1="1985.959961" y1="892.960022" x2="1839.959961" y2="630.960022" stroke="red" stroke-width="6.660000" />
<circle cx="1700.959961" cy="835.960022" r="19.980000" fill="red">
  <title>Tianjin</title>
</circle><line x1="1839.959961" y1="630.960022" x2="1700.959961" y2="835.960022" stroke="red" stroke-width="6.660000" />
<circle cx="1084.959961" cy="1093.959961" r="19.980000" fill="red">
  <title>Beijing</title>
</circle><line x1="1700.959961" y1="835.960022" x2="1084.959961" y2="1093.959961" stroke="red" stroke-width="6.660000" />
<circle cx="1055.959961" cy="605.960022" r="19.980000" fill="red">
  <title>Chongqing</title>
</circle><line x1="1084.959961" y1="1093.959961" x2="1055.959961" y2="605.960022" stroke="red" stroke-width="6.660000" />
<circle cx="1361.959961" cy="493.959991" r="19.980000" fill="red">
  <title>Mumbai</title>
</circle><line x1="1055.959961" y1="605.960022" x2="1361.959961" y2="493.959991" stroke="red" stroke-width="6.660000" />
<circle cx="1340.959961" cy="366.959991" r="19.980000" fill="red">
  <title>Istanbul</title>
</circle><line x1="1361.959961" y1="493.959991" x2="1340.959961" y2="366.959991" stroke="red" stroke-width="6.660000" />
<circle cx="1241.959961" cy="97.959999" r="19.980000" fill="red">
  <title>Lagos</title>
</circle><line x1="1340.959961" y1="366.959991" x2="1241.959961" y2="97.959999" stroke="red" stroke-width="6.660000" />
<circle cx="1034.959961" cy="125.959999" r="19.980000" fill="red">
  <title>Mexico City</title>
</circle><line x1="1241.959961" y1="97.959999" x2="1034.959961" y2="125.959999" stroke="red" stroke-width="6.660000" />
<circle cx="566.960022" cy="175.959991" r="19.980000" fill="red">
  <title>Kolkata</title>
</circle><line x1="1034.959961" y1="125.959999" x2="566.960022" y2="175.959991" stroke="red" stroke-width="6.660000" />
<circle cx="584.960022" cy="622.960022" r="19.980000" fill="red">
  <title>Karachi</title>
</circle><line x1="566.960022" y1="175.959991" x2="584.960022" y2="622.960022" stroke="red" stroke-width="6.660000" />
<circle cx="97.959999" cy="669.960022" r="19.980000" fill="red">
  <title>Osaka</title>
</circle><line x1="584.960022" y1="622.960022" x2="97.959999" y2="669.960022" stroke="red" stroke-width="6.660000" />
<circle cx="150.959991" cy="986.960022" r="19.980000" fill="red">
  <title>Shanghai</title>
</circle><line x1="97.959999" y1="669.960022" x2="150.959991" y2="986.960022" stroke="red" stroke-width="6.660000" />
<circle cx="364.959991" cy="1104.959961" r="19.980000" fill="red">
  <title>Delhi</title>
</circle><line x1="150.959991" y1="986.960022" x2="364.959991" y2="1104.959961" stroke="red" stroke-width="6.660000" />
<circle cx="570.960022" cy="1502.959961" r="19.980000" fill="red">
  <title>New York</title>
</circle><line x1="364.959991" y1="1104.959961" x2="570.960022" y2="1502.959961" stroke="red" stroke-width="6.660000" />
<circle cx="585.960022" cy="1559.959961" r="19.980000" fill="red">
  <title>Buenos Aires</title>
</circle><line x1="570.960022" y1="1502.959961" x2="585.960022" y2="1559.959961" stroke="red" stroke-width="6.660000" />
</svg>
