<?xml version="1.0" encoding="UTF-8" standalone="no"?>
<svg width="500" height="500" viewBox="0 0 2074.000000 2074.000000" xmlns="http://www.w3.org/2000/svg">
<rect x="19.000000" y="19.000000" width="2036.000000" height="2036.000000" fill="black" />
<circle cx="741.960022" cy="185.959991" r="19.980000" fill="red">
  <title>Tokyo</title>
</circle><line x1="1303.959961" y1="65.959999" x2="741.960022" y2="185.959991" stroke="red" stroke-width="6.660000" />
<circle cx="757.960022" cy="334.959991" r="19.980000" fill="red">
  <title>Karachi</title>
</circle><line x1="741.960022" y1="185.959991" x2="757.960022" y2="334.959991" stroke="red" stroke-width="6.660000" />
<circle cx="364.959991" cy="458.959991" r="19.980000" fill="red">
  <title>Buenos Aires</title>
</circle><line x1="757.960022" y1="334.959991" x2="364.959991" y2="458.959991" stroke="red" stroke-width="6.660000" />
<circle cx="524.960022" cy="662.960022" r="19.980000" fill="red">
  <title>Mumbai</title>
</circle><line x1="364.959991" y1="458.959991" x2="524.960022" y2="662.960022" stroke="red" stroke-width="6.660000" />
<circle cx="541.960022" cy="1288.959961" r="19.980000" fill="red">
  <title>Beijing</title>
</circle><line x1="524.960022" y1="662.960022" x2="541.960022" y2="1288.959961" stroke="red" stroke-width="6.660000" />
<circle cx="179.959991" cy="1942.959961" r="19.980000" fill="red">
  <title>New York</title>
</circle><line x1="541.960022" y1="1288.959961" x2="179.959991" y2="1942.959961" stroke="red" stroke-width="6.660000" />
<circle cx="736.960022" cy="1931.959961" r="19.980000" fill="red">
  <title>Osaka</title>
</circle><line x1="179.959991" y1="1942.959961" x2="736.960022" y2="1931.959961" stroke="red" stroke-width="6.660000" />
<circle cx="874.960022" cy="1503.959961" r="19.980000" fill="red">
  <title>Delhi</title>
</circle><line x1="736.960022" y1="1931.959961" x2="874.960022" y2="1503.959961" stroke="red" stroke-width="6.660000" />
<circle cx="1082.959961" cy="1865.959961" r="19.980000" fill="red">
  <title>Chongqing</title>
</circle><line x1="874.960022" y1="1503.959961" x2="1082.959961" y2="1865.959961" stroke="red" stroke-width="6.660000" />
<circle cx="1588.959961" cy="1918.959961" r="19.980000" fill="red">
  <title>Dhaka</title>
</circle><line x1="1082.959961" y1="1865.959961" x2="1588.959961" y2="1918.959961" stroke="red" stroke-width="6.660000" />
<circle cx="1242.959961" cy="1373.959961" r="19.980000" fill="red">
  <title>São Paulo</title>
</circle><line x1="1588.959961" y1="1918.959961" x2="1242.959961" y2="1373.959961" stroke="red" stroke-width="6.660000" />
<circle cx="2022.959961" cy="1073.959961" r="19.980000" fill="red">
  <title>Cairo</title>
</circle><line x1="1242.959961" y1="1373.959961" x2="2022.959961" y2="1073.959961" stroke="red" stroke-width="6.660000" />
<circle cx="1699.959961" cy="628.960022" r="19.980000" fill="red">
  <title>Istanbul</title>
</circle><line x1="2022.959961" y1="1073.959961" x2="1699.959961" y2="628.960022" stroke="red" stroke-width="6.660000" />
<circle cx="1383.959961" cy="402.959991" r="19.980000" fill="red">
  <title>Kolkata</title>
</circle><line x1="1699.959961" y1="628.960022" x2="1383.959961" y2="402.959991" stroke="red" stroke-width="6.660000" />
<circle cx="1495.959961" cy="261.959991" r="19.980000" fill="red">
  <title>Shanghai</title>
</circle><line x1="1383.959961" y1="402.959991" x2="1495.959961" y2="261.959991" stroke="red" stroke-width="6.660000" />
<circle cx="1303.959961" cy="65.959999" r="19.980000" fill="red">
  <title>Mexico City</title>
</circle><line x1="1495.959961" y1="261.959991" x2="1303.959961" y2="65.959999" stroke="red" stroke-width="6.660000" />
</svg>
