<?xml version="1.0" encoding="UTF-8" standalone="no"?>
<svg width="500" height="500" viewBox="0 0 2074.000000 2074.000000" xmlns="http://www.w3.org/2000/svg">
<rect x="19.000000" y="19.000000" width="2036.000000" height="2036.000000" fill="black" />
<circle cx="1269.959961" cy="1751.959961" r="19.980000" fill="red">
  <title>Tokyo</title>
</circle><line x1="163.959991" y1="2024.959961" x2="1269.959961" y2="1751.959961" stroke="red" stroke-width="6.660000" />
<circle cx="1112.959961" cy="1241.959961" r="19.980000" fill="red">
  <title>Cairo</title>
</circle><line x1="1269.959961" y1="1751.959961" x2="1112.959961" y2="1241.959961" stroke="red" stroke-width="6.660000" />
<circle cx="1460.959961" cy="594.960022" r="19.980000" fill="red">
  <title>Mexico City</title>
</circle><line x1="1112.959961" y1="1241.959961" x2="1460.959961" y2="594.960022" stroke="red" stroke-width="6.660000" />
<circle cx="1244.959961" cy="489.959991" r="19.980000" fill="red">
  <title>Shanghai</title>
</circle><line x1="1460.959961" y1="594.960022" x2="1244.959961" y2="489.959991" stroke="red" stroke-width="6.660000" />
<circle cx="781.960022" cy="1133.959961" r="19.980000" fill="red">
  <title>Beijing</title>
</circle><line x1="1244.959961" y1="489.959991" x2="781.960022" y2="1133.959961" stroke="red" stroke-width="6.660000" />
<circle cx="207.959991" cy="729.960022" r="19.980000" fill="red">
  <title>Delhi</title>
</circle><line x1="781.960022" y1="1133.959961" x2="207.959991" y2="729.960022" stroke="red" stroke-width="6.660000" />
<circle cx="353.959991" cy="1616.959961" r="19.980000" fill="red">
  <title>São Paulo</title>
</circle><line x1="207.959991" y1="729.960022" x2="353.959991" y2="1616.959961" stroke="red" stroke-width="6.660000" />
<circle cx="163.959991" cy="2024.959961" r="19.980000" fill="red">
  <title>Mumbai</title>
</circle><line x1="353.959991" y1="1616.959961" x2="163.959991" y2="2024.959961" stroke="red" stroke-width="6.660000" />
</svg>
