<?xml version="1.0" encoding="UTF-8" standalone="no"?>
<svg width="500" height="500" viewBox="0 0 2074.000000 2074.000000" xmlns="http://www.w3.org/2000/svg">
<rect x="19.000000" y="19.000000" width="2036.000000" height="2036.000000" fill="black" />
<circle cx="1756.959961" cy="98.959999" r="19.980000" fill="red">
  <title>Tokyo</title>
</circle><line x1="287.959991" y1="393.959991" x2="1756.959961" y2="98.959999" stroke="red" stroke-width="6.660000" />
<circle cx="1933.959961" cy="609.960022" r="19.980000" fill="red">
  <title>Delhi</title>
</circle><line x1="1756.959961" y1="98.959999" x2="1933.959961" y2="609.960022" stroke="red" stroke-width="6.660000" />
<circle cx="578.960022" cy="1393.959961" r="19.980000" fill="red">
  <title>São Paulo</title>
</circle><line x1="1933.959961" y1="609.960022" x2="578.960022" y2="1393.959961" stroke="red" stroke-width="6.660000" />
<circle cx="186.959991" cy="1896.959961" r="19.980000" fill="red">
  <title>Shanghai</title>
</circle><line x1="578.960022" y1="1393.959961" x2="186.959991" y2="1896.959961" stroke="red" stroke-width="6.660000" />
<circle cx="287.959991" cy="393.959991" r="19.980000" fill="red">
  <title>Mexico City</title>
</circle><line x1="186.959991" y1="1896.959961" x2="287.959991" y2="393.959991" stroke="red" stroke-width="6.660000" />
</svg>
