<?xml version="1.0" encoding="UTF-8" standalone="no"?>
<svg width="500" height="500" viewBox="0 0 2074.000000 2074.000000" xmlns="http://www.w3.org/2000/svg">
<rect x="19.000000" y="19.000000" width="2036.000000" height="2036.000000" fill="black" />
<circle cx="1811.959961" cy="731.960022" r="19.980000" fill="red">
  <title>Tokyo</title>
</circle><line x1="1741.959961" y1="344.959991" x2="1811.959961" y2="731.960022" stroke="red" stroke-width="6.660000" />
<circle cx="1626.959961" cy="767.960022" r="19.980000" fill="red">
  <title>Beijing</title>
</circle><line x1="1811.959961" y1="731.960022" x2="1626.959961" y2="767.960022" stroke="red" stroke-width="6.660000" />
<circle cx="1552.959961" cy="957.960022" r="19.980000" fill="red">
  <title>Cairo</title>
</circle><line x1="1626.959961" y1="767.960022" x2="1552.959961" y2="957.960022" stroke="red" stroke-width="6.660000" />
<circle cx="1617.959961" cy="1860.959961" r="19.980000" fill="red">
  <title>São Paulo</title>
</circle><line x1="1552.959961" y1="957.960022" x2="1617.959961" y2="1860.959961" stroke="red" stroke-width="6.660000" />
<circle cx="1011.960022" cy="1874.959961" r="19.980000" fill="red">
  <title>Istanbul</title>
</circle><line x1="1617.959961" y1="1860.959961" x2="1011.960022" y2="1874.959961" stroke="red" stroke-width="6.660000" />
<circle cx="286.959991" cy="1839.959961" r="19.980000" fill="red">
  <title>Shanghai</title>
</circle><line x1="1011.960022" y1="1874.959961" x2="286.959991" y2="1839.959961" stroke="red" stroke-width="6.660000" />
<circle cx="306.959991" cy="1473.959961" r="19.980000" fill="red">
  <title>Mumbai</title>
</circle><line x1="286.959991" y1="1839.959961" x2="306.959991" y2="1473.959961" stroke="red" stroke-width="6.660000" />
<circle cx="254.959991" cy="1263.959961" r="19.980000" fill="red">
  <title>Delhi</title>
</circle><line x1="306.959991" y1="1473.959961" x2="254.959991" y2="1263.959961" stroke="red" stroke-width="6.660000" />
<circle cx="153.959991" cy="1169.959961" r="19.980000" fill="red">
  <title>Karachi</title>
</circle><line x1="254.959991" y1="1263.959961" x2="153.959991" y2="1169.959961" stroke="red" stroke-width="6.660000" />
<circle cx="468.959991" cy="375.959991" r="19.980000" fill="red">
  <title>Buenos Aires</title>
</circle><line x1="153.959991" y1="1169.959961" x2="468.959991" y2="375.959991" stroke="red" stroke-width="6.660000" />
<circle cx="46.959999" cy="118.959999" r="19.980000" fill="red">
  <title>Dhaka</title>
</circle><line x1="468.959991" y1="375.959991" x2="46.959999" y2="118.959999" stroke="red" stroke-width="6.660000" />
<circle cx="353.959991" cy="74.959999" r="19.980000" fill="red">
  <title>Mexico City</title>
</circle><line x1="46.959999" y1="118.959999" x2="353.959991" y2="74.959999" stroke="red" stroke-width="6.660000" />
<circle cx="868.960022" cy="231.959991" r="19.980000" fill="red">
  <title>Osaka</title>
</circle><line x1="353.959991" y1="74.959999" x2="868.960022" y2="231.959991" stroke="red" stroke-width="6.660000" />
<circle cx="959.960022" cy="610.960022" r="19.980000" fill="red">
  <title>New York</title>
</circle><line x1="868.960022" y1="231.959991" x2="959.960022" y2="610.960022" stroke="red" stroke-width="6.660000" />
<circle cx="1741.959961" cy="344.959991" r="19.980000" fill="red">
  <title>Chongqing</title>
</circle><line x1="959.960022" y1="610.960022" x2="1741.959961" y2="344.959991" stroke="red" stroke-width="6.660000" />
</svg>
