<?xml version="1.0" encoding="UTF-8" standalone="no"?>
<svg width="500" height="500" viewBox="0 0 2074.000000 2074.000000" xmlns="http://www.w3.org/2000/svg">
<rect x="19.000000" y="19.000000" width="2036.000000" height="2036.000000" fill="black" />
<circle cx="1760.959961" cy="1300.959961" r="19.980000" fill="red">
  <title>Tokyo</title>
</circle><line x1="2002.959961" y1="1583.959961" x2="1760.959961" y2="1300.959961" stroke="red" stroke-width="6.660000" />
<circle cx="638.960022" cy="477.959991" r="19.980000" fill="red">
  <title>Delhi</title>
</circle><line x1="1760.959961" y1="1300.959961" x2="638.960022" y2="477.959991" stroke="red" stroke-width="6.660000" />
<circle cx="315.959991" cy="1031.959961" r="19.980000" fill="red">
  <title>Shanghai</title>
</circle><line x1="638.960022" y1="477.959991" x2="315.959991" y2="1031.959961" stroke="red" stroke-width="6.660000" />
<circle cx="350.959991" cy="1864.959961" r="19.980000" fill="red">
  <title>São Paulo</title>
</circle><line x1="315.959991" y1="1031.959961" x2="350.959991" y2="1864.959961" stroke="red" stroke-width="6.660000" />
<circle cx="848.960022" cy="1945.959961" r="19.980000" fill="red">
  <title>Cairo</title>
</circle><line x1="350.959991" y1="1864.959961" x2="848.960022" y2="1945.959961" stroke="red" stroke-width="6.660000" />
<circle cx="1638.959961" cy="1547.959961" r="19.980000" fill="red">
  <title>Mexico City</title>
</circle><line x1="848.960022" y1="1945.959961" x2="1638.959961" y2="1547.959961" stroke="red" stroke-width="6.660000" />
<circle cx="2002.959961" cy="1583.959961" r="19.980000" fill="red">
  <title>Mumbai</title>
</circle><line x1="1638.959961" y1="1547.959961" x2="2002.959961" y2="1583.959961" stroke="red" stroke-width="6.660000" />
</svg>
