<?xml version="1.0" encoding="UTF-8" standalone="no"?>
<svg width="500" height="500" viewBox="0 0 2074.000000 2074.000000" xmlns="http://www.w3.org/2000/svg">
<rect x="19.000000" y="19.000000" width="2036.000000" height="2036.000000" fill="black" />
<circle cx="912.960022" cy="990.960022" r="19.980000" fill="red">
  <title>Tokyo</title>
</circle><line x1="957.960022" y1="777.960022" x2="912.960022" y2="990.960022" stroke="red" stroke-width="6.660000" />
<circle cx="747.960022" cy="990.960022" r="19.980000" fill="red">
  <title>Dhaka</title>
</circle><line x1="912.960022" y1="990.960022" x2="747.960022" y2="990.960022" stroke="red" stroke-width="6.660000" />
<circle cx="620.960022" cy="1307.959961" r="19.980000" fill="red">
  <title>Lagos</title>
</circle><line x1="747.960022" y1="990.960022" x2="620.960022" y2="1307.959961" stroke="red" stroke-width="6.660000" />
<circle cx="802.960022" cy="1497.959961" r="19.980000" fill="red">
  <title>New York</title>
</circle><line x1="620.960022" y1="1307.959961" x2="802.960022" y2="1497.959961" stroke="red" stroke-width="6.660000" />
<circle cx="622.960022" cy="1568.959961" r="19.980000" fill="red">
  <title>Cairo</title>
</circle><line x1="802.960022" y1="1497.959961" x2="622.960022" y2="1568.959961" stroke="red" stroke-width="6.660000" />
<circle cx="770.960022" cy="1828.959961" r="19.980000" fill="red">
  <title>Kolkata</title>
</circle><line x1="622.960022" y1="1568.959961" x2="770.960022" y2="1828.959961" stroke="red" stroke-width="6.660000" />
<circle cx="1203.959961" cy="1649.959961" r="19.980000" fill="red">
  <title>Tianjin</title>
</circle><line x1="770.960022" y1="1828.959961" x2="1203.959961" y2="1649.959961" stroke="red" stroke-width="6.660000" />
<circle cx="1321.959961" cy="1591.959961" r="19.980000" fill="red">
  <title>Manila</title>
</circle><line x1="1203.959961" y1="1649.959961" x2="1321.959961" y2="1591.959961" stroke="red" stroke-width="6.660000" />
<circle cx="1910.959961" cy="1934.959961" r="19.980000" fill="red">
  <title>São Paulo</title>
</circle><line x1="1321.959961" y1="1591.959961" x2="1910.959961" y2="1934.959961" stroke="red" stroke-width="6.660000" />
<circle cx="1699.959961" cy="1518.959961" r="19.980000" fill="red">
  <title>Karachi</title>
</circle><line x1="1910.959961" y1="1934.959961" x2="1699.959961" y2="1518.959961" stroke="red" stroke-width="6.660000" />
<circle cx="1861.959961" cy="1143.959961" r="19.980000" fill="red">
  <title>Mumbai</title>
</circle><line x1="1699.959961" y1="1518.959961" x2="1861.959961" y2="1143.959961" stroke="red" stroke-width="6.660000" />
<circle cx="1763.959961" cy="621.960022" r="19.980000" fill="red">
  <title>Mexico City</title>
</circle><line x1="1861.959961" y1="1143.959961" x2="1763.959961" y2="621.960022" stroke="red" stroke-width="6.660000" />
<circle cx="1924.959961" cy="493.959991" r="19.980000" fill="red">
  <title>Rio de Janeiro</title>
</circle><line x1="1763.959961" y1="621.960022" x2="1924.959961" y2="493.959991" stroke="red" stroke-width="6.660000" />
<circle cx="2023.959961" cy="371.959991" r="19.980000" fill="red">
  <title>Shanghai</title>
</circle><line x1="1924.959961" y1="493.959991" x2="2023.959961" y2="371.959991" stroke="red" stroke-width="6.660000" />
<circle cx="1625.959961" cy="288.959991" r="19.980000" fill="red">
  <title>Buenos Aires</title>
</circle><line x1="2023.959961" y1="371.959991" x2="1625.959961" y2="288.959991" stroke="red" stroke-width="6.660000" />
<circle cx="955.960022" cy="370.959991" r="19.980000" fill="red">
  <title>Istanbul</title>
</circle><line x1="1625.959961" y1="288.959991" x2="955.960022" y2="370.959991" stroke="red" stroke-width="6.660000" />
<circle cx="323.959991" cy="118.959999" r="19.980000" fill="red">
  <title>Osaka</title>
</circle><line x1="955.960022" y1="370.959991" x2="323.959991" y2="118.959999" stroke="red" stroke-width="6.660000" />
<circle cx="274.959991" cy="158.959991" r="19.980000" fill="red">
  <title>Beijing</title>
</circle><line x1="323.959991" y1="118.959999" x2="274.959991" y2="158.959991" stroke="red" stroke-width="6.660000" />
<circle cx="860.960022" cy="829.960022" r="19.980000" fill="red">
  <title>Delhi</title>
</circle><line x1="274.959991" y1="158.959991" x2="860.960022" y2="829.960022" stroke="red" stroke-width="6.660000" />
<circle cx="957.960022" cy="777.960022" r="19.980000" fill="red">
  <title>Chongqing</title>
</circle><line x1="860.960022" y1="829.960022" x2="957.960022" y2="777.960022" stroke="red" stroke-width="6.660000" />
</svg>
