<?xml version="1.0" encoding="UTF-8" standalone="no"?>
<svg width="500" height="500" viewBox="0 0 2074.000000 2074.000000" xmlns="http://www.w3.org/2000/svg">
<rect x="19.000000" y="19.000000" width="2036.000000" height="2036.000000" fill="black" />
<circle cx="1879.959961" cy="1036.959961" r="19.980000" fill="red">
  <title>Tokyo</title>
</circle><line x1="1558.959961" y1="531.960022" x2="1879.959961" y2="1036.959961" stroke="red" stroke-width="6.660000" />
<circle cx="1784.959961" cy="1161.959961" r="19.980000" fill="red">
  <title>Mexico City</title>
</circle><line x1="1879.959961" y1="1036.959961" x2="1784.959961" y2="1161.959961" stroke="red" stroke-width="6.660000" />
<circle cx="1849.959961" cy="1175.959961" r="19.980000" fill="red">
  <title>Beijing</title>
</circle><line x1="1784.959961" y1="1161.959961" x2="1849.959961" y2="1175.959961" stroke="red" stroke-width="6.660000" />
<circle cx="1959.959961" cy="1271.959961" r="19.980000" fill="red">
  <title>Osaka</title>
</circle><line x1="1849.959961" y1="1175.959961" x2="1959.959961" y2="1271.959961" stroke="red" stroke-width="6.660000" />
<circle cx="1661.959961" cy="1897.959961" r="19.980000" fill="red">
  <title>Karachi</title>
</circle><line x1="1959.959961" y1="1271.959961" x2="1661.959961" y2="1897.959961" stroke="red" stroke-width="6.660000" />
<circle cx="716.960022" cy="1868.959961" r="19.980000" fill="red">
  <title>Dhaka</title>
</circle><line x1="1661.959961" y1="1897.959961" x2="716.960022" y2="1868.959961" stroke="red" stroke-width="6.660000" />
<circle cx="1121.959961" cy="1636.959961" r="19.980000" fill="red">
  <title>São Paulo</title>
</circle><line x1="716.960022" y1="1868.959961" x2="1121.959961" y2="1636.959961" stroke="red" stroke-width="6.660000" />
<circle cx="925.960022" cy="507.959991" r="19.980000" fill="red">
  <title>Delhi</title>
</circle><line x1="1121.959961" y1="1636.959961" x2="925.960022" y2="507.959991" stroke="red" stroke-width="6.660000" />
<circle cx="308.959991" cy="403.959991" r="19.980000" fill="red">
  <title>Mumbai</title>
</circle><line x1="925.960022" y1="507.959991" x2="308.959991" y2="403.959991" stroke="red" stroke-width="6.660000" />
<circle cx="409.959991" cy="132.959991" r="19.980000" fill="red">
  <title>Chongqing</title>
</circle><line x1="308.959991" y1="403.959991" x2="409.959991" y2="132.959991" stroke="red" stroke-width="6.660000" />
<circle cx="643.960022" cy="150.959991" r="19.980000" fill="red">
  <title>Shanghai</title>
</circle><line x1="409.959991" y1="132.959991" x2="643.960022" y2="150.959991" stroke="red" stroke-width="6.660000" />
<circle cx="959.960022" cy="372.959991" r="19.980000" fill="red">
  <title>Cairo</title>
</circle><line x1="643.960022" y1="150.959991" x2="959.960022" y2="372.959991" stroke="red" stroke-width="6.660000" />
<circle cx="1285.959961" cy="289.959991" r="19.980000" fill="red">
  <title>New York</title>
</circle><line x1="959.960022" y1="372.959991" x2="1285.959961" y2="289.959991" stroke="red" stroke-width="6.660000" />
<circle cx="1506.959961" cy="144.959991" r="19.980000" fill="red">
  <title>Istanbul</title>
</circle><line x1="1285.959961" y1="289.959991" x2="1506.959961" y2="144.959991" stroke="red" stroke-width="6.660000" />
<circle cx="1558.959961" cy="531.960022" r="19.980000" fill="red">
  <title>Buenos Aires</title>
</circle><line x1="1506.959961" y1="144.959991" x2="1558.959961" y2="531.960022" stroke="red" stroke-width="6.660000" />
</svg>
