<?xml version="1.0" encoding="UTF-8" standalone="no"?>
<svg width="500" height="500" viewBox="0 0 2074.000000 2074.000000" xmlns="http://www.w3.org/2000/svg">
<rect x="19.000000" y="19.000000" width="2036.000000" height="2036.000000" fill="black" />
<circle cx="815.960022" cy="536.960022" r="19.980000" fill="red">
  <title>Tokyo</title>
</circle><line x1="649.960022" y1="1929.959961" x2="815.960022" y2="536.960022" stroke="red" stroke-width="6.660000" />
<circle cx="869.960022" cy="400.959991" r="19.980000" fill="red">
  <title>São Paulo</title>
</circle><line x1="815.960022" y1="536.960022" x2="869.960022" y2="400.959991" stroke="red" stroke-width="6.660000" />
<circle cx="1874.959961" cy="445.959991" r="19.980000" fill="red">
  <title>Shanghai</title>
</circle><line x1="869.960022" y1="400.959991" x2="1874.959961" y2="445.959991" stroke="red" stroke-width="6.660000" />
<circle cx="1585.959961" cy="836.960022" r="19.980000" fill="red">
  <title>Mexico City</title>
</circle><line x1="1874.959961" y1="445.959991" x2="1585.959961" y2="836.960022" stroke="red" stroke-width="6.660000" />
<circle cx="1744.959961" cy="2026.959961" r="19.980000" fill="red">
  <title>Delhi</title>
</circle><line x1="1585.959961" y1="836.960022" x2="1744.959961" y2="2026.959961" stroke="red" stroke-width="6.660000" />
<circle cx="649.960022" cy="1929.959961" r="19.980000" fill="red">
  <title>Cairo</title>
</circle><line x1="1744.959961" y1="2026.959961" x2="649.960022" y2="1929.959961" stroke="red" stroke-width="6.660000" />
</svg>
