<?xml version="1.0" encoding="UTF-8" standalone="no"?>
<svg width="500" height="500" viewBox="0 0 2074.000000 2074.000000" xmlns="http://www.w3.org/2000/svg">
<rect x="19.000000" y="19.000000" width="2036.000000" height="2036.000000" fill="black" />
<circle cx="325.959991" cy="1288.959961" r="19.980000" fill="red">
  <title>Tokyo</title>
</circle><line x1="715.960022" y1="1151.959961" x2="325.959991" y2="1288.959961" stroke="red" stroke-width="6.660000" />
<circle cx="576.960022" cy="1455.959961" r="19.980000" fill="red">
  <title>Cairo</title>
</circle><line x1="325.959991" y1="1288.959961" x2="576.960022" y2="1455.959961" stroke="red" stroke-width="6.660000" />
<circle cx="516.960022" cy="1465.959961" r="19.980000" fill="red">
  <title>Mumbai</title>
</circle><line x1="576.960022" y1="1455.959961" x2="516.960022" y2="1465.959961" stroke="red" stroke-width="6.660000" />
<circle cx="386.959991" cy="1913.959961" r="19.980000" fill="red">
  <title>Beijing</title>
</circle><line x1="516.960022" y1="1465.959961" x2="386.959991" y2="1913.959961" stroke="red" stroke-width="6.660000" />
<circle cx="1010.960022" cy="1761.959961" r="19.980000" fill="red">
  <title>Karachi</title>
</circle><line x1="386.959991" y1="1913.959961" x2="1010.960022" y2="1761.959961" stroke="red" stroke-width="6.660000" />
<circle cx="1403.959961" cy="1077.959961" r="19.980000" fill="red">
  <title>New York</title>
</circle><line x1="1010.960022" y1="1761.959961" x2="1403.959961" y2="1077.959961" stroke="red" stroke-width="6.660000" />
<circle cx="1954.959961" cy="861.960022" r="19.980000" fill="red">
  <title>Dhaka</title>
</circle><line x1="1403.959961" y1="1077.959961" x2="1954.959961" y2="861.960022" stroke="red" stroke-width="6.660000" />
<circle cx="1994.959961" cy="262.959991" r="19.980000" fill="red">
  <title>Mexico City</title>
</circle><line x1="1954.959961" y1="861.960022" x2="1994.959961" y2="262.959991" stroke="red" stroke-width="6.660000" />
<circle cx="1112.959961" cy="480.959991" r="19.980000" fill="red">
  <title>Delhi</title>
</circle><line x1="1994.959961" y1="262.959991" x2="1112.959961" y2="480.959991" stroke="red" stroke-width="6.660000" />
<circle cx="298.959991" cy="157.959991" r="19.980000" fill="red">
  <title>Shanghai</title>
</circle><line x1="1112.959961" y1="480.959991" x2="298.959991" y2="157.959991" stroke="red" stroke-width="6.660000" />
<circle cx="633.960022" cy="1117.959961" r="19.980000" fill="red">
  <title>São Paulo</title>
</circle><line x1="298.959991" y1="157.959991" x2="633.960022" y2="1117.959961" stroke="red" stroke-width="6.660000" />
<circle cx="715.960022" cy="1151.959961" r="19.980000" fill="red">
  <title>Osaka</title>
</circle><line x1="633.960022" y1="1117.959961" x2="715.960022" y2="1151.959961" stroke="red" stroke-width="6.660000" />
</svg>
