<?xml version="1.0" encoding="UTF-8" standalone="no"?>
<svg width="500" height="500" viewBox="0 0 2074.000000 2074.000000" xmlns="http://www.w3.org/2000/svg">
<rect x="19.000000" y="19.000000" width="2036.000000" height="2036.000000" fill="black" />
<circle cx="1202.959961" cy="1261.959961" r="19.980000" fill="red">
  <title>Tokyo</title>
</circle><line x1="1397.959961" y1="836.960022" x2="1202.959961" y2="1261.959961" stroke="red" stroke-width="6.660000" />
<circle cx="341.959991" cy="1404.959961" r="19.980000" fill="red">
  <title>São Paulo</title>
</circle><line x1="1202.959961" y1="1261.959961" x2="341.959991" y2="1404.959961" stroke="red" stroke-width="6.660000" />
<circle cx="1127.959961" cy="1792.959961" r="19.980000" fill="red">
  <title>Istanbul</title>
</circle><line x1="341.959991" y1="1404.959961" x2="1127.959961" y2="1792.959961" stroke="red" stroke-width="6.660000" />
<circle cx="1348.959961" cy="1513.959961" r="19.980000" fill="red">
  <title>Cairo</title>
</circle><line x1="1127.959961" y1="1792.959961" x2="1348.959961" y2="1513.959961" stroke="red" stroke-width="6.660000" />
<circle cx="1517.959961" cy="1458.959961" r="19.980000" fill="red">
  <title>New York</title>
</circle><line x1="1348.959961" y1="1513.959961" x2="1517.959961" y2="1458.959961" stroke="red" stroke-width="6.660000" />
<circle cx="1445.959961" cy="1357.959961" r="19.980000" fill="red">
  <title>Mexico City</title>
</circle><line x1="1517.959961" y1="1458.959961" x2="1445.959961" y2="1357.959961" stroke="red" stroke-width="6.660000" />
<circle cx="1673.959961" cy="999.960022" r="19.980000" fill="red">
  <title>Beijing</title>
</circle><line x1="1445.959961" y1="1357.959961" x2="1673.959961" y2="999.960022" stroke="red" stroke-width="6.660000" />
<circle cx="1866.959961" cy="425.959991" r="19.980000" fill="red">
  <title>Osaka</title>
</circle><line x1="1673.959961" y1="999.960022" x2="1866.959961" y2="425.959991" stroke="red" stroke-width="6.660000" />
<circle cx="1700.959961" cy="154.959991" r="19.980000" fill="red">
  <title>Shanghai</title>
</circle><line x1="1866.959961" y1="425.959991" x2="1700.959961" y2="154.959991" stroke="red" stroke-width="6.660000" />
<circle cx="1563.959961" cy="125.959999" r="19.980000" fill="red">
  <title>Mumbai</title>
</circle><line x1="1700.959961" y1="154.959991" x2="1563.959961" y2="125.959999" stroke="red" stroke-width="6.660000" />
<circle cx="891.960022" cy="104.959999" r="19.980000" fill="red">
  <title>Buenos Aires</title>
</circle><line x1="1563.959961" y1="125.959999" x2="891.960022" y2="104.959999" stroke="red" stroke-width="6.660000" />
<circle cx="114.959999" cy="82.959999" r="19.980000" fill="red">
  <title>Delhi</title>
</circle><line x1="891.960022" y1="104.959999" x2="114.959999" y2="82.959999" stroke="red" stroke-width="6.660000" />
<circle cx="483.959991" cy="291.959991" r="19.980000" fill="red">
  <title>Kolkata</title>
</circle><line x1="114.959999" y1="82.959999" x2="483.959991" y2="291.959991" stroke="red" stroke-width="6.660000" />
<circle cx="970.960022" cy="522.960022" r="19.980000" fill="red">
  <title>Dhaka</title>
</circle><line x1="483.959991" y1="291.959991" x2="970.960022" y2="522.960022" stroke="red" stroke-width="6.660000" />
<circle cx="1016.960022" cy="558.960022" r="19.980000" fill="red">
  <title>Manila</title>
</circle><line x1="970.960022" y1="522.960022" x2="1016.960022" y2="558.960022" stroke="red" stroke-width="6.660000" />
<circle cx="1411.959961" cy="612.960022" r="19.980000" fill="red">
  <title>Karachi</title>
</circle><line x1="1016.960022" y1="558.960022" x2="1411.959961" y2="612.960022" stroke="red" stroke-width="6.660000" />
<circle cx="1397.959961" cy="836.960022" r="19.980000" fill="red">
  <title>Chongqing</title>
</circle><line x1="1411.959961" y1="612.960022" x2="1397.959961" y2="836.960022" stroke="red" stroke-width="6.660000" />
</svg>
