<?xml version="1.0" encoding="UTF-8" standalone="no"?>
<svg width="500" height="500" viewBox="0 0 2074.000000 2074.000000" xmlns="http://www.w3.org/2000/svg">
<rect x="19.000000" y="19.000000" width="2036.000000" height="2036.000000" fill="black" />
<circle cx="1408.959961" cy="1046.959961" r="19.980000" fill="red">
  <title>Tokyo</title>
</circle><line x1="1298.959961" y1="1293.959961" x2="1408.959961" y2="1046.959961" stroke="red" stroke-width="6.660000" />
<circle cx="1347.959961" cy="1167.959961" r="19.980000" fill="red">
  <title>Shanghai</title>
</circle><line x1="1408.959961" y1="1046.959961" x2="1347.959961" y2="1167.959961" stroke="red" stroke-width="6.660000" />
<circle cx="1924.959961" cy="1977.959961" r="19.980000" fill="red">
  <title>Mexico City</title>
</circle><line x1="1347.959961" y1="1167.959961" x2="1924.959961" y2="1977.959961" stroke="red" stroke-width="6.660000" />
<circle cx="2021.959961" cy="930.960022" r="19.980000" fill="red">
  <title>Delhi</title>
</circle><line x1="1924.959961" y1="1977.959961" x2="2021.959961" y2="930.960022" stroke="red" stroke-width="6.660000" />
<circle cx="1571.959961" cy="548.960022" r="19.980000" fill="red">
  <title>Cairo</title>
</circle><line x1="2021.959961" y1="930.960022" x2="1571.959961" y2="548.960022" stroke="red" stroke-width="6.660000" />
<circle cx="1310.959961" cy="101.959999" r="19.980000" fill="red">
  <title>Kolkata</title>
</circle><line x1="1571.959961" y1="548.960022" x2="1310.959961" y2="101.959999" stroke="red" stroke-width="6.660000" />
<circle cx="1023.960022" cy="86.959999" r="19.980000" fill="red">
  <title>Buenos Aires</title>
</circle><line x1="1310.959961" y1="101.959999" x2="1023.960022" y2="86.959999" stroke="red" stroke-width="6.660000" />
<circle cx="1053.959961" cy="412.959991" r="19.980000" fill="red">
  <title>Karachi</title>
</circle><line x1="1023.960022" y1="86.959999" x2="1053.959961" y2="412.959991" stroke="red" stroke-width="6.660000" />
<circle cx="992.960022" cy="608.960022" r="19.980000" fill="red">
  <title>Lagos</title>
</circle><line x1="1053.959961" y1="412.959991" x2="992.960022" y2="608.960022" stroke="red" stroke-width="6.660000" />
<circle cx="730.960022" cy="290.959991" r="19.980000" fill="red">
  <title>Istanbul</title>
</circle><line x1="992.960022" y1="608.960022" x2="730.960022" y2="290.959991" stroke="red" stroke-width="6.660000" />
<circle cx="632.960022" cy="401.959991" r="19.980000" fill="red">
  <title>New York</title>
</circle><line x1="730.960022" y1="290.959991" x2="632.960022" y2="401.959991" stroke="red" stroke-width="6.660000" />
<circle cx="421.959991" cy="743.960022" r="19.980000" fill="red">
  <title>Beijing</title>
</circle><line x1="632.960022" y1="401.959991" x2="421.959991" y2="743.960022" stroke="red" stroke-width="6.660000" />
<circle cx="108.959999" cy="822.960022" r="19.980000" fill="red">
  <title>Mumbai</title>
</circle><line x1="421.959991" y1="743.960022" x2="108.959999" y2="822.960022" stroke="red" stroke-width="6.660000" />
<circle cx="134.959991" cy="1297.959961" r="19.980000" fill="red">
  <title>Osaka</title>
</circle><line x1="108.959999" y1="822.960022" x2="134.959991" y2="1297.959961" stroke="red" stroke-width="6.660000" />
<circle cx="39.959999" cy="1907.959961" r="19.980000" fill="red">
  <title>Dhaka</title>
</circle><line x1="134.959991" y1="1297.959961" x2="39.959999" y2="1907.959961" stroke="red" stroke-width="6.660000" />
<circle cx="422.959991" cy="1737.959961" r="19.980000" fill="red">
  <title>Rio de Janeiro</title>
</circle><line x1="39.959999" y1="1907.959961" x2="422.959991" y2="1737.959961" stroke="red" stroke-width="6.660000" />
<circle cx="449.959991" cy="1446.959961" r="19.980000" fill="red">
  <title>Chongqing</title>
</circle><line x1="422.959991" y1="1737.959961" x2="449.959991" y2="1446.959961" stroke="red" stroke-width="6.660000" />
<circle cx="783.960022" cy="1580.959961" r="19.980000" fill="red">
  <title>São Paulo</title>
</circle><line x1="449.959991" y1="1446.959961" x2="783.960022" y2="1580.959961" stroke="red" stroke-width="6.660000" />
<circle cx="1298.959961" cy="1293.959961" r="19.980000" fill="red">
  <title>Manila</title>
</circle><line x1="783.960022" y1="1580.959961" x2="1298.959961" y2="1293.959961" stroke="red" stroke-width="6.660000" />
</svg>
