<?xml version="1.0" encoding="UTF-8" standalone="no"?>
<svg width="500" height="500" viewBox="0 0 2074.000000 2074.000000" xmlns="http://www.w3.org/2000/svg">
<rect x="19.000000" y="19.000000" width="2036.000000" height="2036.000000" fill="black" />
<circle cx="217.959991" cy="1949.959961" r="19.980000" fill="red">
  <title>Tokyo</title>
</circle><line x1="1575.959961" y1="811.960022" x2="217.959991" y2="1949.959961" stroke="red" stroke-width="6.660000" />
<circle cx="52.959999" cy="266.959991" r="19.980000" fill="red">
  <title>Shanghai</title>
</circle><line x1="217.959991" y1="1949.959961" x2="52.959999" y2="266.959991" stroke="red" stroke-width="6.660000" />
<circle cx="791.960022" cy="393.959991" r="19.980000" fill="red">
  <title>Delhi</title>
</circle><line x1="52.959999" y1="266.959991" x2="791.960022" y2="393.959991" stroke="red" stroke-width="6.660000" />
<circle cx="2001.959961" cy="707.960022" r="19.980000" fill="red">
  <title>São Paulo</title>
</circle><line x1="791.960022" y1="393.959991" x2="2001.959961" y2="707.960022" stroke="red" stroke-width="6.660000" />
<circle cx="1575.959961" cy="811.960022" r="19.980000" fill="red">
  <title>Mexico City</title>
</circle><line x1="2001.959961" y1="707.960022" x2="1575.959961" y2="811.960022" stroke="red" stroke-width="6.660000" />
</svg>
