<?xml version="1.0" encoding="UTF-8" standalone="no"?>
<svg width="500" height="500" viewBox="0 0 2074.000000 2074.000000" xmlns="http://www.w3.org/2000/svg">
<rect x="19.000000" y="19.000000" width="2036.000000" height="2036.000000" fill="black" />
<circle cx="725.960022" cy="1439.959961" r="19.980000" fill="red">
  <title>Tokyo</title>
</circle><line x1="1328.959961" y1="1895.959961" x2="725.960022" y2="1439.959961" stroke="red" stroke-width="6.660000" />
<circle cx="775.960022" cy="819.960022" r="19.980000" fill="red">
  <title>Mumbai</title>
</circle><line x1="725.960022" y1="1439.959961" x2="775.960022" y2="819.960022" stroke="red" stroke-width="6.660000" />
<circle cx="294.959991" cy="133.959991" r="19.980000" fill="red">
  <title>Cairo</title>
</circle><line x1="775.960022" y1="819.960022" x2="294.959991" y2="133.959991" stroke="red" stroke-width="6.660000" />
<circle cx="1013.960022" cy="789.960022" r="19.980000" fill="red">
  <title>Delhi</title>
</circle><line x1="294.959991" y1="133.959991" x2="1013.960022" y2="789.960022" stroke="red" stroke-width="6.660000" />
<circle cx="1639.959961" cy="338.959991" r="19.980000" fill="red">
  <title>Mexico City</title>
</circle><line x1="1013.960022" y1="789.960022" x2="1639.959961" y2="338.959991" stroke="red" stroke-width="6.660000" />
<circle cx="1344.959961" cy="832.960022" r="19.980000" fill="red">
  <title>Shanghai</title>
</circle><line x1="1639.959961" y1="338.959991" x2="1344.959961" y2="832.960022" stroke="red" stroke-width="6.660000" />
<circle cx="1886.959961" cy="1561.959961" r="19.980000" fill="red">
  <title>São Paulo</title>
</circle><line x1="1344.959961" y1="832.960022" x2="1886.959961" y2="1561.959961" stroke="red" stroke-width="6.660000" />
<circle cx="1328.959961" cy="1895.959961" r="19.980000" fill="red">
  <title>Beijing</title>
</circle><line x1="1886.959961" y1="1561.959961" x2="1328.959961" y2="1895.959961" stroke="red" stroke-width="6.660000" />
</svg>
