<?xml version="1.0" encoding="UTF-8" standalone="no"?>
<svg width="500" height="500" viewBox="0 0 2074.000000 2074.000000" xmlns="http://www.w3.org/2000/svg">
<rect x="19.000000" y="19.000000" width="2036.000000" height="2036.000000" fill="black" />
<circle cx="1794.959961" cy="618.960022" r="19.980000" fill="red">
  <title>Tokyo</title>
</circle><line x1="1631.959961" y1="261.959991" x2="1794.959961" y2="618.960022" stroke="red" stroke-width="6.660000" />
<circle cx="1427.959961" cy="750.960022" r="19.980000" fill="red">
  <title>Mexico City</title>
</circle><line x1="1794.959961" y1="618.960022" x2="1427.959961" y2="750.960022" stroke="red" stroke-width="6.660000" />
<circle cx="1300.959961" cy="1655.959961" r="19.980000" fill="red">
  <title>Delhi</title>
</circle><line x1="1427.959961" y1="750.960022" x2="1300.959961" y2="1655.959961" stroke="red" stroke-width="6.660000" />
<circle cx="1912.959961" cy="1989.959961" r="19.980000" fill="red">
  <title>Cairo</title>
</circle><line x1="1300.959961" y1="1655.959961" x2="1912.959961" y2="1989.959961" stroke="red" stroke-width="6.660000" />
<circle cx="1213.959961" cy="1691.959961" r="19.980000" fill="red">
  <title>Beijing</title>
</circle><line x1="1912.959961" y1="1989.959961" x2="1213.959961" y2="1691.959961" stroke="red" stroke-width="6.660000" />
<circle cx="199.959991" cy="1786.959961" r="19.980000" fill="red">
  <title>São Paulo</title>
</circle><line x1="1213.959961" y1="1691.959961" x2="199.959991" y2="1786.959961" stroke="red" stroke-width="6.660000" />
<circle cx="872.960022" cy="314.959991" r="19.980000" fill="red">
  <title>Shanghai</title>
</circle><line x1="199.959991" y1="1786.959961" x2="872.960022" y2="314.959991" stroke="red" stroke-width="6.660000" />
<circle cx="1631.959961" cy="261.959991" r="19.980000" fill="red">
  <title>Mumbai</title>
</circle><line x1="872.960022" y1="314.959991" x2="1631.959961" y2="261.959991" stroke="red" stroke-width="6.660000" />
</svg>
