<?xml version="1.0" encoding="UTF-8" standalone="no"?>
<svg width="500" height="500" viewBox="0 0 2074.000000 2074.000000" xmlns="http://www.w3.org/2000/svg">
<rect x="19.000000" y="19.000000" width="2036.000000" height="2036.000000" fill="black" />
<circle cx="2012.959961" cy="522.960022" r="19.980000" fill="red">
  <title>Tokyo</title>
</circle><line x1="1470.959961" y1="1033.959961" x2="2012.959961" y2="522.960022" stroke="red" stroke-width="6.660000" />
<circle cx="1897.959961" cy="324.959991" r="19.980000" fill="red">
  <title>Delhi</title>
</circle><line x1="2012.959961" y1="522.960022" x2="1897.959961" y2="324.959991" stroke="red" stroke-width="6.660000" />
<circle cx="1462.959961" cy="286.959991" r="19.980000" fill="red">
  <title>Cairo</title>
</circle><line x1="1897.959961" y1="324.959991" x2="1462.959961" y2="286.959991" stroke="red" stroke-width="6.660000" />
<circle cx="705.960022" cy="92.959999" r="19.980000" fill="red">
  <title>New York</title>
</circle><line x1="1462.959961" y1="286.959991" x2="705.960022" y2="92.959999" stroke="red" stroke-width="6.660000" />
<circle cx="395.959991" cy="81.959999" r="19.980000" fill="red">
  <title>São Paulo</title>
</circle><line x1="705.960022" y1="92.959999" x2="395.959991" y2="81.959999" stroke="red" stroke-width="6.660000" />
<circle cx="259.959991" cy="147.959991" r="19.980000" fill="red">
  <title>Osaka</title>
</circle><line x1="395.959991" y1="81.959999" x2="259.959991" y2="147.959991" stroke="red" stroke-width="6.660000" />
<circle cx="643.960022" cy="624.960022" r="19.980000" fill="red">
  <title>Mexico City</title>
</circle><line x1="259.959991" y1="147.959991" x2="643.960022" y2="624.960022" stroke="red" stroke-width="6.660000" />
<circle cx="638.960022" cy="1330.959961" r="19.980000" fill="red">
  <title>Dhaka</title>
</circle><line x1="643.960022" y1="624.960022" x2="638.960022" y2="1330.959961" stroke="red" stroke-width="6.660000" />
<circle cx="40.959999" cy="1720.959961" r="19.980000" fill="red">
  <title>Chongqing</title>
</circle><line x1="638.960022" y1="1330.959961" x2="40.959999" y2="1720.959961" stroke="red" stroke-width="6.660000" />
<circle cx="899.960022" cy="2009.959961" r="19.980000" fill="red">
  <title>Karachi</title>
</circle><line x1="40.959999" y1="1720.959961" x2="899.960022" y2="2009.959961" stroke="red" stroke-width="6.660000" />
<circle cx="1456.959961" cy="1488.959961" r="19.980000" fill="red">
  <title>Buenos Aires</title>
</circle><line x1="899.960022" y1="2009.959961" x2="1456.959961" y2="1488.959961" stroke="red" stroke-width="6.660000" />
<circle cx="2036.959961" cy="1667.959961" r="19.980000" fill="red">
  <title>Shanghai</title>
</circle><line x1="1456.959961" y1="1488.959961" x2="2036.959961" y2="1667.959961" stroke="red" stroke-width="6.660000" />
<circle cx="1253.959961" cy="1072.959961" r="19.980000" fill="red">
  <title>Beijing</title>
</circle><line x1="2036.959961" y1="1667.959961" x2="1253.959961" y2="1072.959961" stroke="red" stroke-width="6.660000" />
<circle cx="1470.959961" cy="1033.959961" r="19.980000" fill="red">
  <title>Mumbai</title>
</circle><line x1="1253.959961" y1="1072.959961" x2="1470.959961" y2="1033.959961" stroke="red" stroke-width="6.660000" />
</svg>
