<?xml version="1.0" encoding="UTF-8" standalone="no"?>
<svg width="500" height="500" viewBox="0 0 2074.000000 2074.000000" xmlns="http://www.w3.org/2000/svg">
<rect x="19.000000" y="19.000000" width="2036.000000" height="2036.000000" fill="black" />
<circle cx="150.959991" cy="1762.959961" r="19.980000" fill="red">
  <title>Tokyo</title>
</circle><line x1="859.960022" y1="1282.959961" x2="150.959991" y2="1762.959961" stroke="red" stroke-width="6.660000" />
<circle cx="718.960022" cy="1664.959961" r="19.980000" fill="red">
  <title>Dhaka</title>
</circle><line x1="150.959991" y1="1762.959961" x2="718.960022" y2="1664.959961" stroke="red" stroke-width="6.660000" />
<circle cx="1348.959961" cy="1808.959961" r="19.980000" fill="red">
  <title>Delhi</title>
</circle><line x1="718.960022" y1="1664.959961" x2="1348.959961" y2="1808.959961" stroke="red" stroke-width="6.660000" />
<circle cx="1941.959961" cy="1532.959961" r="19.980000" fill="red">
  <title>New York</title>
</circle><line x1="1348.959961" y1="1808.959961" x2="1941.959961" y2="1532.959961" stroke="red" stroke-width="6.660000" />
<circle cx="1572.959961" cy="1296.959961" r="19.980000" fill="red">
  <title>Beijing</title>
</circle><line x1="1941.959961" y1="1532.959961" x2="1572.959961" y2="1296.959961" stroke="red" stroke-width="6.660000" />
<circle cx="1480.959961" cy="1037.959961" r="19.980000" fill="red">
  <title>Mumbai</title>
</circle><line x1="1572.959961" y1="1296.959961" x2="1480.959961" y2="1037.959961" stroke="red" stroke-width="6.660000" />
<circle cx="1066.959961" cy="241.959991" r="19.980000" fill="red">
  <title>São Paulo</title>
</circle><line x1="1480.959961" y1="1037.959961" x2="1066.959961" y2="241.959991" stroke="red" stroke-width="6.660000" />
<circle cx="848.960022" cy="172.959991" r="19.980000" fill="red">
  <title>Cairo</title>
</circle><line x1="1066.959961" y1="241.959991" x2="848.960022" y2="172.959991" stroke="red" stroke-width="6.660000" />
<circle cx="1014.960022" cy="857.960022" r="19.980000" fill="red">
  <title>Mexico City</title>
</circle><line x1="848.960022" y1="172.959991" x2="1014.960022" y2="857.960022" stroke="red" stroke-width="6.660000" />
<circle cx="1015.960022" cy="1228.959961" r="19.980000" fill="red">
  <title>Shanghai</title>
</circle><line x1="1014.960022" y1="857.960022" x2="1015.960022" y2="1228.959961" stroke="red" stroke-width="6.660000" />
<circle cx="859.960022" cy="1282.959961" r="19.980000" fill="red">
  <title>Osaka</title>
</circle><line x1="1015.960022" y1="1228.959961" x2="859.960022" y2="1282.959961" stroke="red" stroke-width="6.660000" />
</svg>
