<?xml version="1.0" encoding="UTF-8" standalone="no"?>
<svg width="500" height="500" viewBox="0 0 2074.000000 2074.000000" xmlns="http://www.w3.org/2000/svg">
<rect x="19.000000" y="19.000000" width="2036.000000" height="2036.000000" fill="black" />
<circle cx="1207.959961" cy="765.960022" r="19.980000" fill="red">
  <title>Tokyo</title>
</circle><line x1="1443.959961" y1="582.960022" x2="1207.959961" y2="765.960022" stroke="red" stroke-width="6.660000" />
<circle cx="891.960022" cy="684.960022" r="19.980000" fill="red">
  <title>Delhi</title>
</circle><line x1="1207.959961" y1="765.960022" x2="891.960022" y2="684.960022" stroke="red" stroke-width="6.660000" />
<circle cx="284.959991" cy="1439.959961" r="19.980000" fill="red">
  <title>Mexico City</title>
</circle><line x1="891.960022" y1="684.960022" x2="284.959991" y2="1439.959961" stroke="red" stroke-width="6.660000" />
<circle cx="1384.959961" cy="1280.959961" r="19.980000" fill="red">
  <title>São Paulo</title>
</circle><line x1="284.959991" y1="1439.959961" x2="1384.959961" y2="1280.959961" stroke="red" stroke-width="6.660000" />
<circle cx="1443.959961" cy="582.960022" r="19.980000" fill="red">
  <title>Shanghai</title>
</circle><line x1="1384.959961" y1="1280.959961" x2="1443.959961" y2="582.960022" stroke="red" stroke-width="6.660000" />
</svg>
