<?xml version="1.0" encoding="UTF-8" standalone="no"?>
<svg width="500" height="500" viewBox="0 0 2074.000000 2074.000000" xmlns="http://www.w3.org/2000/svg">
<rect x="19.000000" y="19.000000" width="2036.000000" height="2036.000000" fill="black" />
<circle cx="1636.959961" cy="1439.959961" r="19.980000" fill="red">
  <title>Tokyo</title>
</circle><line x1="1312.959961" y1="1260.959961" x2="1636.959961" y2="1439.959961" stroke="red" stroke-width="6.660000" />
<circle cx="1661.959961" cy="1329.959961" r="19.980000" fill="red">
  <title>Istanbul</title>
</circle><line x1="1636.959961" y1="1439.959961" x2="1661.959961" y2="1329.959961" stroke="red" stroke-width="6.660000" />
<circle cx="1967.959961" cy="1069.959961" r="19.980000" fill="red">
  <title>Buenos Aires</title>
</circle><line x1="1661.959961" y1="1329.959961" x2="1967.959961" y2="1069.959961" stroke="red" stroke-width="6.660000" />
<circle cx="1601.959961" cy="757.960022" r="19.980000" fill="red">
  <title>Beijing</title>
</circle><line x1="1967.959961" y1="1069.959961" x2="1601.959961" y2="757.960022" stroke="red" stroke-width="6.660000" />
<circle cx="1365.959961" cy="973.960022" r="19.980000" fill="red">
  <title>Dhaka</title>
</circle><line x1="1601.959961" y1="757.960022" x2="1365.959961" y2="973.960022" stroke="red" stroke-width="6.660000" />
<circle cx="1361.959961" cy="881.960022" r="19.980000" fill="red">
  <title>Delhi</title>
</circle><line x1="1365.959961" y1="973.960022" x2="1361.959961" y2="881.960022" stroke="red" stroke-width="6.660000" />
<circle cx="1203.959961" cy="491.959991" r="19.980000" fill="red">
  <title>Mexico City</title>
</circle><line x1="1361.959961" y1="881.960022" x2="1203.959961" y2="491.959991" stroke="red" stroke-width="6.660000" />
<circle cx="1101.959961" cy="624.960022" r="19.980000" fill="red">
  <title>Mumbai</title>
</circle><line x1="1203.959961" y1="491.959991" x2="1101.959961" y2="624.960022" stroke="red" stroke-width="6.660000" />
<circle cx="629.960022" cy="387.959991" r="19.980000" fill="red">
  <title>Karachi</title>
</circle><line x1="1101.959961" y1="624.960022" x2="629.960022" y2="387.959991" stroke="red" stroke-width="6.660000" />
<circle cx="313.959991" cy="442.959991" r="19.980000" fill="red">
  <title>Shanghai</title>
</circle><line x1="629.960022" y1="387.959991" x2="313.959991" y2="442.959991" stroke="red" stroke-width="6.660000" />
<circle cx="635.960022" cy="1229.959961" r="19.980000" fill="red">
  <title>São Paulo</title>
</circle><line x1="313.959991" y1="442.959991" x2="635.960022" y2="1229.959961" stroke="red" stroke-width="6.660000" />
<circle cx="867.960022" cy="1800.959961" r="19.980000" fill="red">
  <title>Chongqing</title>
</circle><line x1="635.960022" y1="1229.959961" x2="867.960022" y2="1800.959961" stroke="red" stroke-width="6.660000" />
<circle cx="1076.959961" cy="1741.959961" r="19.980000" fill="red">
  <title>Osaka</title>
</circle><line x1="867.960022" y1="1800.959961" x2="1076.959961" y2="1741.959961" stroke="red" stroke-width="6.660000" />
<circle cx="1166.959961" cy="1852.959961" r="19.980000" fill="red">
  <title>New York</title>
</circle><line x1="1076.959961" y1="1741.959961" x2="1166.959961" y2="1852.959961" stroke="red" stroke-width="6.660000" />
<circle cx="1266.959961" cy="1814.959961" r="19.980000" fill="red">
  <title>Cairo</title>
</circle><line x1="1166.959961" y1="1852.959961" x2="1266.959961" y2="1814.959961" stroke="red" stroke-width="6.660000" />
<circle cx="1312.959961" cy="1260.959961" r="19.980000" fill="red">
  <title>Kolkata</title>
</circle><line x1="1266.959961" y1="1814.959961" x2="1312.959961" y2="1260.959961" stroke="red" stroke-width="6.660000" />
</svg>
