<?xml version="1.0" encoding="UTF-8" standalone="no"?>
<svg width="500" height="500" viewBox="0 0 2074.000000 2074.000000" xmlns="http://www.w3.org/2000/svg">
<rect x="19.000000" y="19.000000" width="2036.000000" height="2036.000000" fill="black" />
<circle cx="1952.959961" cy="366.959991" r="19.980000" fill="red">
  <title>Tokyo</title>
</circle><line x1="1765.959961" y1="1839.959961" x2="1952.959961" y2="366.959991" stroke="red" stroke-width="6.660000" />
<circle cx="1645.959961" cy="102.959999" r="19.980000" fill="red">
  <title>Beijing</title>
</circle><line x1="1952.959961" y1="366.959991" x2="1645.959961" y2="102.959999" stroke="red" stroke-width="6.660000" />
<circle cx="574.960022" cy="505.959991" r="19.980000" fill="red">
  <title>Delhi</title>
</circle><line x1="1645.959961" y1="102.959999" x2="574.960022" y2="505.959991" stroke="red" stroke-width="6.660000" />
<circle cx="62.959999" cy="237.959991" r="19.980000" fill="red">
  <title>Mumbai</title>
</circle><line x1="574.960022" y1="505.959991" x2="62.959999" y2="237.959991" stroke="red" stroke-width="6.660000" />
<circle cx="305.959991" cy="601.960022" r="19.980000" fill="red">
  <title>São Paulo</title>
</circle><line x1="62.959999" y1="237.959991" x2="305.959991" y2="601.960022" stroke="red" stroke-width="6.660000" />
<circle cx="472.959991" cy="1036.959961" r="19.980000" fill="red">
  <title>Dhaka</title>
</circle><line x1="305.959991" y1="601.960022" x2="472.959991" y2="1036.959961" stroke="red" stroke-width="6.660000" />
<circle cx="1098.959961" cy="1689.959961" r="19.980000" fill="red">
  <title>Mexico City</title>
</circle><line x1="472.959991" y1="1036.959961" x2="1098.959961" y2="1689.959961" stroke="red" stroke-width="6.660000" />
<circle cx="1454.959961" cy="1726.959961" r="19.980000" fill="red">
  <title>Shanghai</title>
</circle><line x1="1098.959961" y1="1689.959961" x2="1454.959961" y2="1726.959961" stroke="red" stroke-width="6.660000" />
<circle cx="1765.959961" cy="1839.959961" r="19.980000" fill="red">
  <title>Cairo</title>
</circle><line x1="1454.959961" y1="1726.959961" x2="1765.959961" y2="1839.959961" stroke="red" stroke-width="6.660000" />
</svg>
