<?xml version="1.0" encoding="UTF-8" standalone="no"?>
<svg width="500" height="500" viewBox="0 0 2074.000000 2074.000000" xmlns="http://www.w3.org/2000/svg">
<rect x="19.000000" y="19.000000" width="2036.000000" height="2036.000000" fill="black" />
<circle cx="515.960022" cy="509.959991" r="19.980000" fill="red">
  <title>Tokyo</title>
</circle><line x1="628.960022" y1="260.959991" x2="515.960022" y2="509.959991" stroke="red" stroke-width="6.660000" />
<circle cx="427.959991" cy="455.959991" r="19.980000" fill="red">
  <title>São Paulo</title>
</circle><line x1="515.960022" y1="509.959991" x2="427.959991" y2="455.959991" stroke="red" stroke-width="6.660000" />
<circle cx="125.959999" cy="443.959991" r="19.980000" fill="red">
  <title>Istanbul</title>
</circle><line x1="427.959991" y1="455.959991" x2="125.959999" y2="443.959991" stroke="red" stroke-width="6.660000" />
<circle cx="300.959991" cy="919.960022" r="19.980000" fill="red">
  <title>Karachi</title>
</circle><line x1="125.959999" y1="443.959991" x2="300.959991" y2="919.960022" stroke="red" stroke-width="6.660000" />
<circle cx="52.959999" cy="1252.959961" r="19.980000" fill="red">
  <title>Delhi</title>
</circle><line x1="300.959991" y1="919.960022" x2="52.959999" y2="1252.959961" stroke="red" stroke-width="6.660000" />
<circle cx="737.960022" cy="1177.959961" r="19.980000" fill="red">
  <title>Mumbai</title>
</circle><line x1="52.959999" y1="1252.959961" x2="737.960022" y2="1177.959961" stroke="red" stroke-width="6.660000" />
<circle cx="863.960022" cy="1554.959961" r="19.980000" fill="red">
  <title>Osaka</title>
</circle><line x1="737.960022" y1="1177.959961" x2="863.960022" y2="1554.959961" stroke="red" stroke-width="6.660000" />
<circle cx="760.960022" cy="1664.959961" r="19.980000" fill="red">
  <title>New York</title>
</circle><line x1="863.960022" y1="1554.959961" x2="760.960022" y2="1664.959961" stroke="red" stroke-width="6.660000" />
<circle cx="1147.959961" cy="1930.959961" r="19.980000" fill="red">
  <title>Beijing</title>
</circle><line x1="760.960022" y1="1664.959961" x2="1147.959961" y2="1930.959961" stroke="red" stroke-width="6.660000" />
<circle cx="1995.959961" cy="1827.959961" r="19.980000" fill="red">
  <title>Mexico City</title>
</circle><line x1="1147.959961" y1="1930.959961" x2="1995.959961" y2="1827.959961" stroke="red" stroke-width="6.660000" />
<circle cx="1938.959961" cy="746.960022" r="19.980000" fill="red">
  <title>Cairo</title>
</circle><line x1="1995.959961" y1="1827.959961" x2="1938.959961" y2="746.960022" stroke="red" stroke-width="6.660000" />
<circle cx="1918.959961" cy="401.959991" r="19.980000" fill="red">
  <title>Dhaka</title>
</circle><line x1="1938.959961" y1="746.960022" x2="1918.959961" y2="401.959991" stroke="red" stroke-width="6.660000" />
<circle cx="1721.959961" cy="601.960022" r="19.980000" fill="red">
  <title>Kolkata</title>
</circle><line x1="1918.959961" y1="401.959991" x2="1721.959961" y2="601.960022" stroke="red" stroke-width="6.660000" />
<circle cx="849.960022" cy="211.959991" r="19.980000" fill="red">
  <title>Buenos Aires</title>
</circle><line x1="1721.959961" y1="601.960022" x2="849.960022" y2="211.959991" stroke="red" stroke-width="6.660000" />
<circle cx="821.960022" cy="128.959991" r="19.980000" fill="red">
  <title>Shanghai</title>
</circle><line x1="849.960022" y1="211.959991" x2="821.960022" y2="128.959991" stroke="red" stroke-width="6.660000" />
<circle cx="628.960022" cy="260.959991" r="19.980000" fill="red">
  <title>Chongqing</title>
</circle><line x1="821.960022" y1="128.959991" x2="628.960022" y2="260.959991" stroke="red" stroke-width="6.660000" />
</svg>
