<?xml version="1.0" encoding="UTF-8" standalone="no"?>
<svg width="500" height="500" viewBox="0 0 2074.000000 2074.000000" xmlns="http://www.w3.org/2000/svg">
<rect x="19.000000" y="19.000000" width="2036.000000" height="2036.000000" fill="black" />
<circle cx="1416.959961" cy="145.959991" r="19.980000" fill="red">
  <title>Tokyo</title>
</circle><line x1="1764.959961" y1="1473.959961" x2="1416.959961" y2="145.959991" stroke="red" stroke-width="6.660000" />
<circle cx="1089.959961" cy="290.959991" r="19.980000" fill="red">
  <title>Shanghai</title>
</circle><line x1="1416.959961" y1="145.959991" x2="1089.959961" y2="290.959991" stroke="red" stroke-width="6.660000" />
<circle cx="620.960022" cy="478.959991" r="19.980000" fill="red">
  <title>Mexico City</title>
</circle><line x1="1089.959961" y1="290.959991" x2="620.960022" y2="478.959991" stroke="red" stroke-width="6.660000" />
<circle cx="221.959991" cy="1419.959961" r="19.980000" fill="red">
  <title>Delhi</title>
</circle><line x1="620.960022" y1="478.959991" x2="221.959991" y2="1419.959961" stroke="red" stroke-width="6.660000" />
<circle cx="1764.959961" cy="1473.959961" r="19.980000" fill="red">
  <title>São Paulo</title>
</circle><line x1="221.959991" y1="1419.959961" x2="1764.959961" y2="1473.959961" stroke="red" stroke-width="6.660000" />
</svg>
