<?xml version="1.0" encoding="UTF-8" standalone="no"?>
<svg width="500" height="500" viewBox="0 0 2074.000000 2074.000000" xmlns="http://www.w3.org/2000/svg">
<rect x="19.000000" y="19.000000" width="2036.000000" height="2036.000000" fill="black" />
<circle cx="664.960022" cy="1308.959961" r="19.980000" fill="red">
  <title>Tokyo</title>
</circle><line x1="981.960022" y1="1346.959961" x2="664.960022" y2="1308.959961" stroke="red" stroke-width="6.660000" />
<circle cx="207.959991" cy="1119.959961" r="19.980000" fill="red">
  <title>Delhi</title>
</circle><line x1="664.960022" y1="1308.959961" x2="207.959991" y2="1119.959961" stroke="red" stroke-width="6.660000" />
<circle cx="733.960022" cy="1003.960022" r="19.980000" fill="red">
  <title>Cairo</title>
</circle><line x1="207.959991" y1="1119.959961" x2="733.960022" y2="1003.960022" stroke="red" stroke-width="6.660000" />
<circle cx="1488.959961" cy="109.959999" r="19.980000" fill="red">
  <title>Mexico City</title>
</circle><line x1="733.960022" y1="1003.960022" x2="1488.959961" y2="109.959999" stroke="red" stroke-width="6.660000" />
<circle cx="1552.959961" cy="1404.959961" r="19.980000" fill="red">
  <title>São Paulo</title>
</circle><line x1="1488.959961" y1="109.959999" x2="1552.959961" y2="1404.959961" stroke="red" stroke-width="6.660000" />
<circle cx="981.960022" cy="1346.959961" r="19.980000" fill="red">
  <title>Shanghai</title>
</circle><line x1="1552.959961" y1="1404.959961" x2="981.960022" y2="1346.959961" stroke="red" stroke-width="6.660000" />
</svg>
