<?xml version="1.0" encoding="UTF-8" standalone="no"?>
<svg width="500" height="500" viewBox="0 0 2074.000000 2074.000000" xmlns="http://www.w3.org/2000/svg">
<rect x="19.000000" y="19.000000" width="2036.000000" height="2036.000000" fill="black" />
<circle cx="503.959991" cy="130.959991" r="19.980000" fill="red">
  <title>Tokyo</title>
</circle><line x1="185.959991" y1="147.959991" x2="503.959991" y2="130.959991" stroke="red" stroke-width="6.660000" />
<circle cx="835.960022" cy="345.959991" r="19.980000" fill="red">
  <title>Delhi</title>
</circle><line x1="503.959991" y1="130.959991" x2="835.960022" y2="345.959991" stroke="red" stroke-width="6.660000" />
<circle cx="1225.959961" cy="241.959991" r="19.980000" fill="red">
  <title>Mexico City</title>
</circle><line x1="835.960022" y1="345.959991" x2="1225.959961" y2="241.959991" stroke="red" stroke-width="6.660000" />
<circle cx="1765.959961" cy="269.959991" r="19.980000" fill="red">
  <title>Mumbai</title>
</circle><line x1="1225.959961" y1="241.959991" x2="1765.959961" y2="269.959991" stroke="red" stroke-width="6.660000" />
<circle cx="1912.959961" cy="173.959991" r="19.980000" fill="red">
  <title>Beijing</title>
</circle><line x1="1765.959961" y1="269.959991" x2="1912.959961" y2="173.959991" stroke="red" stroke-width="6.660000" />
<circle cx="1734.959961" cy="599.960022" r="19.980000" fill="red">
  <title>New York</title>
</circle><line x1="1912.959961" y1="173.959991" x2="1734.959961" y2="599.960022" stroke="red" stroke-width="6.660000" />
<circle cx="1750.959961" cy="1721.959961" r="19.980000" fill="red">
  <title>Dhaka</title>
</circle><line x1="1734.959961" y1="599.960022" x2="1750.959961" y2="1721.959961" stroke="red" stroke-width="6.660000" />
<circle cx="558.960022" cy="1956.959961" r="19.980000" fill="red">
  <title>Cairo</title>
</circle><line x1="1750.959961" y1="1721.959961" x2="558.960022" y2="1956.959961" stroke="red" stroke-width="6.660000" />
<circle cx="614.960022" cy="1642.959961" r="19.980000" fill="red">
  <title>Karachi</title>
</circle><line x1="558.960022" y1="1956.959961" x2="614.960022" y2="1642.959961" stroke="red" stroke-width="6.660000" />
<circle cx="314.959991" cy="1420.959961" r="19.980000" fill="red">
  <title>Shanghai</title>
</circle><line x1="614.960022" y1="1642.959961" x2="314.959991" y2="1420.959961" stroke="red" stroke-width="6.660000" />
<circle cx="444.959991" cy="1060.959961" r="19.980000" fill="red">
  <title>Chongqing</title>
</circle><line x1="314.959991" y1="1420.959961" x2="444.959991" y2="1060.959961" stroke="red" stroke-width="6.660000" />
<circle cx="765.960022" cy="985.960022" r="19.980000" fill="red">
  <title>São Paulo</title>
</circle><line x1="444.959991" y1="1060.959961" x2="765.960022" y2="985.960022" stroke="red" stroke-width="6.660000" />
<circle cx="878.960022" cy="945.960022" r="19.980000" fill="red">
  <title>Osaka</title>
</circle><line x1="765.960022" y1="985.960022" x2="878.960022" y2="945.960022" stroke="red" stroke-width="6.660000" />
<circle cx="593.960022" cy="831.960022" r="19.980000" fill="red">
  <title>Kolkata</title>
</circle><line x1="878.960022" y1="945.960022" x2="593.960022" y2="831.960022" stroke="red" stroke-width="6.660000" />
<circle cx="366.959991" cy="906.960022" r="19.980000" fill="red">
  <title>Istanbul</title>
</circle><line x1="593.960022" y1="831.960022" x2="366.959991" y2="906.960022" stroke="red" stroke-width="6.660000" />
<circle cx="185.959991" cy="147.959991" r="19.980000" fill="red">
  <title>Buenos Aires</title>
</circle><line x1="366.959991" y1="906.960022" x2="185.959991" y2="147.959991" stroke="red" stroke-width="6.660000" />
</svg>
