<?xml version="1.0" encoding="UTF-8" standalone="no"?>
<svg width="500" height="500" viewBox="0 0 2074.000000 2074.000000" xmlns="http://www.w3.org/2000/svg">
<rect x="19.000000" y="19.000000" width="2036.000000" height="2036.000000" fill="black" />
<circle cx="1943.959961" cy="99.959999" r="19.980000" fill="red">
  <title>Tokyo</title>
</circle><line x1="1809.959961" y1="420.959991" x2="1943.959961" y2="99.959999" stroke="red" stroke-width="6.660000" />
<circle cx="1367.959961" cy="295.959991" r="19.980000" fill="red">
  <title>Mexico City</title>
</circle><line x1="1943.959961" y1="99.959999" x2="1367.959961" y2="295.959991" stroke="red" stroke-width="6.660000" />
<circle cx="1084.959961" cy="490.959991" r="19.980000" fill="red">
  <title>Beijing</title>
</circle><line x1="1367.959961" y1="295.959991" x2="1084.959961" y2="490.959991" stroke="red" stroke-width="6.660000" />
<circle cx="653.960022" cy="195.959991" r="19.980000" fill="red">
  <title>Mumbai</title>
</circle><line x1="1084.959961" y1="490.959991" x2="653.960022" y2="195.959991" stroke="red" stroke-width="6.660000" />
<circle cx="556.960022" cy="890.960022" r="19.980000" fill="red">
  <title>Delhi</title>
</circle><line x1="653.960022" y1="195.959991" x2="556.960022" y2="890.960022" stroke="red" stroke-width="6.660000" />
<circle cx="1308.959961" cy="1099.959961" r="19.980000" fill="red">
  <title>Dhaka</title>
</circle><line x1="556.960022" y1="890.960022" x2="1308.959961" y2="1099.959961" stroke="red" stroke-width="6.660000" />
<circle cx="1185.959961" cy="1654.959961" r="19.980000" fill="red">
  <title>Chongqing</title>
</circle><line x1="1308.959961" y1="1099.959961" x2="1185.959961" y2="1654.959961" stroke="red" stroke-width="6.660000" />
<circle cx="914.960022" cy="1834.959961" r="19.980000" fill="red">
  <title>Buenos Aires</title>
</circle><line x1="1185.959961" y1="1654.959961" x2="914.960022" y2="1834.959961" stroke="red" stroke-width="6.660000" />
<circle cx="1260.959961" cy="1893.959961" r="19.980000" fill="red">
  <title>Osaka</title>
</circle><line x1="914.960022" y1="1834.959961" x2="1260.959961" y2="1893.959961" stroke="red" stroke-width="6.660000" />
<circle cx="1601.959961" cy="1870.959961" r="19.980000" fill="red">
  <title>Cairo</title>
</circle><line x1="1260.959961" y1="1893.959961" x2="1601.959961" y2="1870.959961" stroke="red" stroke-width="6.660000" />
<circle cx="1666.959961" cy="1742.959961" r="19.980000" fill="red">
  <title>New York</title>
</circle><line x1="1601.959961" y1="1870.959961" x2="1666.959961" y2="1742.959961" stroke="red" stroke-width="6.660000" />
<circle cx="1737.959961" cy="1060.959961" r="19.980000" fill="red">
  <title>Shanghai</title>
</circle><line x1="1666.959961" y1="1742.959961" x2="1737.959961" y2="1060.959961" stroke="red" stroke-width="6.660000" />
<circle cx="1505.959961" cy="728.960022" r="19.980000" fill="red">
  <title>São Paulo</title>
</circle><line x1="1737.959961" y1="1060.959961" x2="1505.959961" y2="728.960022" stroke="red" stroke-width="6.660000" />
<circle cx="1809.959961" cy="420.959991" r="19.980000" fill="red">
  <title>Karachi</title>
</circle><line x1="1505.959961" y1="728.960022" x2="1809.959961" y2="420.959991" stroke="red" stroke-width="6.660000" />
</svg>
