<?xml version="1.0" encoding="UTF-8" standalone="no"?>
<svg width="500" height="500" viewBox="0 0 2074.000000 2074.000000" xmlns="http://www.w3.org/2000/svg">
<rect x="19.000000" y="19.000000" width="2036.000000" height="2036.000000" fill="black" />
<circle cx="612.960022" cy="1101.959961" r="19.980000" fill="red">
  <title>Tokyo</title>
</circle><line x1="903.960022" y1="256.959991" x2="612.960022" y2="1101.959961" stroke="red" stroke-width="6.660000" />
<circle cx="247.959991" cy="1168.959961" r="19.980000" fill="red">
  <title>Mexico City</title>
</circle><line x1="612.960022" y1="1101.959961" x2="247.959991" y2="1168.959961" stroke="red" stroke-width="6.660000" />
<circle cx="786.960022" cy="1890.959961" r="19.980000" fill="red">
  <title>Shanghai</title>
</circle><line x1="247.959991" y1="1168.959961" x2="786.960022" y2="1890.959961" stroke="red" stroke-width="6.660000" />
<circle cx="1174.959961" cy="1955.959961" r="19.980000" fill="red">
  <title>Delhi</title>
</circle><line x1="786.960022" y1="1890.959961" x2="1174.959961" y2="1955.959961" stroke="red" stroke-width="6.660000" />
<circle cx="1673.959961" cy="347.959991" r="19.980000" fill="red">
  <title>Cairo</title>
</circle><line x1="1174.959961" y1="1955.959961" x2="1673.959961" y2="347.959991" stroke="red" stroke-width="6.660000" />
<circle cx="903.960022" cy="256.959991" r="19.980000" fill="red">
  <title>São Paulo</title>
</circle><line x1="1673.959961" y1="347.959991" x2="903.960022" y2="256.959991" stroke="red" stroke-width="6.660000" />
</svg>
