<?xml version="1.0" encoding="UTF-8" standalone="no"?>
<svg width="500" height="500" viewBox="0 0 2074.000000 2074.000000" xmlns="http://www.w3.org/2000/svg">
<rect x="19.000000" y="19.000000" width="2036.000000" height="2036.000000" fill="black" />
<circle cx="1509.959961" cy="100.959999" r="19.980000" fill="red">
  <title>Tokyo</title>
</circle><line x1="636.960022" y1="158.959991" x2="1509.959961" y2="100.959999" stroke="red" stroke-width="6.660000" />
<circle cx="2029.959961" cy="563.960022" r="19.980000" fill="red">
  <title>Karachi</title>
</circle><line x1="1509.959961" y1="100.959999" x2="2029.959961" y2="563.960022" stroke="red" stroke-width="6.660000" />
<circle cx="1876.959961" cy="966.960022" r="19.980000" fill="red">
  <title>São Paulo</title>
</circle><line x1="2029.959961" y1="563.960022" x2="1876.959961" y2="966.960022" stroke="red" stroke-width="6.660000" />
<circle cx="1988.959961" cy="1055.959961" r="19.980000" fill="red">
  <title>Mumbai</title>
</circle><line x1="1876.959961" y1="966.960022" x2="1988.959961" y2="1055.959961" stroke="red" stroke-width="6.660000" />
<circle cx="2018.959961" cy="1342.959961" r="19.980000" fill="red">
  <title>Chongqing</title>
</circle><line x1="1988.959961" y1="1055.959961" x2="2018.959961" y2="1342.959961" stroke="red" stroke-width="6.660000" />
<circle cx="1742.959961" cy="1618.959961" r="19.980000" fill="red">
  <title>Cairo</title>
</circle><line x1="2018.959961" y1="1342.959961" x2="1742.959961" y2="1618.959961" stroke="red" stroke-width="6.660000" />
<circle cx="1681.959961" cy="1779.959961" r="19.980000" fill="red">
  <title>Buenos Aires</title>
</circle><line x1="1742.959961" y1="1618.959961" x2="1681.959961" y2="1779.959961" stroke="red" stroke-width="6.660000" />
<circle cx="1418.959961" cy="1320.959961" r="19.980000" fill="red">
  <title>New York</title>
</circle><line x1="1681.959961" y1="1779.959961" x2="1418.959961" y2="1320.959961" stroke="red" stroke-width="6.660000" />
<circle cx="1267.959961" cy="1657.959961" r="19.980000" fill="red">
  <title>Lagos</title>
</circle><line x1="1418.959961" y1="1320.959961" x2="1267.959961" y2="1657.959961" stroke="red" stroke-width="6.660000" />
<circle cx="1190.959961" cy="1996.959961" r="19.980000" fill="red">
  <title>Kolkata</title>
</circle><line x1="1267.959961" y1="1657.959961" x2="1190.959961" y2="1996.959961" stroke="red" stroke-width="6.660000" />
<circle cx="693.960022" cy="1738.959961" r="19.980000" fill="red">
  <title>Osaka</title>
</circle><line x1="1190.959961" y1="1996.959961" x2="693.960022" y2="1738.959961" stroke="red" stroke-width="6.660000" />
<circle cx="218.959991" cy="1374.959961" r="19.980000" fill="red">
  <title>Dhaka</title>
</circle><line x1="693.960022" y1="1738.959961" x2="218.959991" y2="1374.959961" stroke="red" stroke-width="6.660000" />
<circle cx="1006.960022" cy="1309.959961" r="19.980000" fill="red">
  <title>Delhi</title>
</circle><line x1="218.959991" y1="1374.959961" x2="1006.960022" y2="1309.959961" stroke="red" stroke-width="6.660000" />
<circle cx="936.960022" cy="1105.959961" r="19.980000" fill="red">
  <title>Rio de Janeiro</title>
</circle><line x1="1006.960022" y1="1309.959961" x2="936.960022" y2="1105.959961" stroke="red" stroke-width="6.660000" />
<circle cx="1060.959961" cy="817.960022" r="19.980000" fill="red">
  <title>Shanghai</title>
</circle><line x1="936.960022" y1="1105.959961" x2="1060.959961" y2="817.960022" stroke="red" stroke-width="6.660000" />
<circle cx="525.960022" cy="574.960022" r="19.980000" fill="red">
  <title>Istanbul</title>
</circle><line x1="1060.959961" y1="817.960022" x2="525.960022" y2="574.960022" stroke="red" stroke-width="6.660000" />
<circle cx="313.959991" cy="237.959991" r="19.980000" fill="red">
  <title>Mexico City</title>
</circle><line x1="525.960022" y1="574.960022" x2="313.959991" y2="237.959991" stroke="red" stroke-width="6.660000" />
<circle cx="242.959991" cy="213.959991" r="19.980000" fill="red">
  <title>Beijing</title>
</circle><line x1="313.959991" y1="237.959991" x2="242.959991" y2="213.959991" stroke="red" stroke-width="6.660000" />
<circle cx="636.960022" cy="158.959991" r="19.980000" fill="red">
  <title>Manila</title>
</circle><line x1="242.959991" y1="213.959991" x2="636.960022" y2="158.959991" stroke="red" stroke-width="6.660000" />
</svg>
