<?xml version="1.0" encoding="UTF-8" standalone="no"?>
<svg width="500" height="500" viewBox="0 0 2074.000000 2074.000000" xmlns="http://www.w3.org/2000/svg">
<rect x="19.000000" y="19.000000" width="2036.000000" height="2036.000000" fill="black" />
<circle cx="717.960022" cy="795.960022" r="19.980000" fill="red">
  <title>Tokyo</title>
</circle><line x1="67.959999" y1="156.959991" x2="717.960022" y2="795.960022" stroke="red" stroke-width="6.660000" />
<circle cx="574.960022" cy="1045.959961" r="19.980000" fill="red">
  <title>Manila</title>
</circle><line x1="717.960022" y1="795.960022" x2="574.960022" y2="1045.959961" stroke="red" stroke-width="6.660000" />
<circle cx="868.960022" cy="1487.959961" r="19.980000" fill="red">
  <title>Lagos</title>
</circle><line x1="574.960022" y1="1045.959961" x2="868.960022" y2="1487.959961" stroke="red" stroke-width="6.660000" />
<circle cx="878.960022" cy="1486.959961" r="19.980000" fill="red">
  <title>Mumbai</title>
</circle><line x1="868.960022" y1="1487.959961" x2="878.960022" y2="1486.959961" stroke="red" stroke-width="6.660000" />
<circle cx="1348.959961" cy="1478.959961" r="19.980000" fill="red">
  <title>Chongqing</title>
</circle><line x1="878.960022" y1="1486.959961" x2="1348.959961" y2="1478.959961" stroke="red" stroke-width="6.660000" />
<circle cx="1691.959961" cy="2033.959961" r="19.980000" fill="red">
  <title>São Paulo</title>
</circle><line x1="1348.959961" y1="1478.959961" x2="1691.959961" y2="2033.959961" stroke="red" stroke-width="6.660000" />
<circle cx="1887.959961" cy="1816.959961" r="19.980000" fill="red">
  <title>Istanbul</title>
</circle><line x1="1691.959961" y1="2033.959961" x2="1887.959961" y2="1816.959961" stroke="red" stroke-width="6.660000" />
<circle cx="1867.959961" cy="1556.959961" r="19.980000" fill="red">
  <title>New York</title>
</circle><line x1="1887.959961" y1="1816.959961" x2="1867.959961" y2="1556.959961" stroke="red" stroke-width="6.660000" />
<circle cx="1727.959961" cy="1307.959961" r="19.980000" fill="red">
  <title>Osaka</title>
</circle><line x1="1867.959961" y1="1556.959961" x2="1727.959961" y2="1307.959961" stroke="red" stroke-width="6.660000" />
<circle cx="1740.959961" cy="1025.959961" r="19.980000" fill="red">
  <title>Beijing</title>
</circle><line x1="1727.959961" y1="1307.959961" x2="1740.959961" y2="1025.959961" stroke="red" stroke-width="6.660000" />
<circle cx="1673.959961" cy="522.960022" r="19.980000" fill="red">
  <title>Mexico City</title>
</circle><line x1="1740.959961" y1="1025.959961" x2="1673.959961" y2="522.960022" stroke="red" stroke-width="6.660000" />
<circle cx="1975.959961" cy="174.959991" r="19.980000" fill="red">
  <title>Dhaka</title>
</circle><line x1="1673.959961" y1="522.960022" x2="1975.959961" y2="174.959991" stroke="red" stroke-width="6.660000" />
<circle cx="1827.959961" cy="340.959991" r="19.980000" fill="red">
  <title>Delhi</title>
</circle><line x1="1975.959961" y1="174.959991" x2="1827.959961" y2="340.959991" stroke="red" stroke-width="6.660000" />
<circle cx="1318.959961" cy="639.960022" r="19.980000" fill="red">
  <title>Cairo</title>
</circle><line x1="1827.959961" y1="340.959991" x2="1318.959961" y2="639.960022" stroke="red" stroke-width="6.660000" />
<circle cx="1032.959961" cy="777.960022" r="19.980000" fill="red">
  <title>Buenos Aires</title>
</circle><line x1="1318.959961" y1="639.960022" x2="1032.959961" y2="777.960022" stroke="red" stroke-width="6.660000" />
<circle cx="1255.959961" cy="567.960022" r="19.980000" fill="red">
  <title>Kolkata</title>
</circle><line x1="1032.959961" y1="777.960022" x2="1255.959961" y2="567.960022" stroke="red" stroke-width="6.660000" />
<circle cx="952.960022" cy="177.959991" r="19.980000" fill="red">
  <title>Shanghai</title>
</circle><line x1="1255.959961" y1="567.960022" x2="952.960022" y2="177.959991" stroke="red" stroke-width="6.660000" />
<circle cx="67.959999" cy="156.959991" r="19.980000" fill="red">
  <title>Karachi</title>
</circle><line x1="952.960022" y1="177.959991" x2="67.959999" y2="156.959991" stroke="red" stroke-width="6.660000" />
</svg>
