<?xml version="1.0" encoding="UTF-8" standalone="no"?>
<svg width="500" height="500" viewBox="0 0 2074.000000 2074.000000" xmlns="http://www.w3.org/2000/svg">
<rect x="19.000000" y="19.000000" width="2036.000000" height="2036.000000" fill="black" />
<circle cx="436.959991" cy="1246.959961" r="19.980000" fill="red">
  <title>Tokyo</title>
</circle><line x1="661.960022" y1="1300.959961" x2="436.959991" y2="1246.959961" stroke="red" stroke-width="6.660000" />
<circle cx="116.959999" cy="1755.959961" r="19.980000" fill="red">
  <title>São Paulo</title>
</circle><line x1="436.959991" y1="1246.959961" x2="116.959999" y2="1755.959961" stroke="red" stroke-width="6.660000" />
<circle cx="211.959991" cy="1836.959961" r="19.980000" fill="red">
  <title>Istanbul</title>
</circle><line x1="116.959999" y1="1755.959961" x2="211.959991" y2="1836.959961" stroke="red" stroke-width="6.660000" />
<circle cx="286.959991" cy="1883.959961" r="19.980000" fill="red">
  <title>Mumbai</title>
</circle><line x1="211.959991" y1="1836.959961" x2="286.959991" y2="1883.959961" stroke="red" stroke-width="6.660000" />
<circle cx="404.959991" cy="1984.959961" r="19.980000" fill="red">
  <title>Tianjin</title>
</circle><line x1="286.959991" y1="1883.959961" x2="404.959991" y2="1984.959961" stroke="red" stroke-width="6.660000" />
<circle cx="793.960022" cy="1797.959961" r="19.980000" fill="red">
  <title>Mexico City</title>
</circle><line x1="404.959991" y1="1984.959961" x2="793.960022" y2="1797.959961" stroke="red" stroke-width="6.660000" />
<circle cx="855.960022" cy="1572.959961" r="19.980000" fill="red">
  <title>New York</title>
</circle><line x1="793.960022" y1="1797.959961" x2="855.960022" y2="1572.959961" stroke="red" stroke-width="6.660000" />
<circle cx="1230.959961" cy="1734.959961" r="19.980000" fill="red">
  <title>Rio de Janeiro</title>
</circle><line x1="855.960022" y1="1572.959961" x2="1230.959961" y2="1734.959961" stroke="red" stroke-width="6.660000" />
<circle cx="1479.959961" cy="2012.959961" r="19.980000" fill="red">
  <title>Buenos Aires</title>
</circle><line x1="1230.959961" y1="1734.959961" x2="1479.959961" y2="2012.959961" stroke="red" stroke-width="6.660000" />
<circle cx="1920.959961" cy="1868.959961" r="19.980000" fill="red">
  <title>Karachi</title>
</circle><line x1="1479.959961" y1="2012.959961" x2="1920.959961" y2="1868.959961" stroke="red" stroke-width="6.660000" />
<circle cx="1865.959961" cy="1235.959961" r="19.980000" fill="red">
  <title>Dhaka</title>
</circle><line x1="1920.959961" y1="1868.959961" x2="1865.959961" y2="1235.959961" stroke="red" stroke-width="6.660000" />
<circle cx="2027.959961" cy="609.960022" r="19.980000" fill="red">
  <title>Kolkata</title>
</circle><line x1="1865.959961" y1="1235.959961" x2="2027.959961" y2="609.960022" stroke="red" stroke-width="6.660000" />
<circle cx="1679.959961" cy="627.960022" r="19.980000" fill="red">
  <title>Shanghai</title>
</circle><line x1="2027.959961" y1="609.960022" x2="1679.959961" y2="627.960022" stroke="red" stroke-width="6.660000" />
<circle cx="1656.959961" cy="686.960022" r="19.980000" fill="red">
  <title>Lagos</title>
</circle><line x1="1679.959961" y1="627.960022" x2="1656.959961" y2="686.960022" stroke="red" stroke-width="6.660000" />
<circle cx="1045.959961" cy="642.960022" r="19.980000" fill="red">
  <title>Manila</title>
</circle><line x1="1656.959961" y1="686.960022" x2="1045.959961" y2="642.960022" stroke="red" stroke-width="6.660000" />
<circle cx="1052.959961" cy="421.959991" r="19.980000" fill="red">
  <title>Beijing</title>
</circle><line x1="1045.959961" y1="642.960022" x2="1052.959961" y2="421.959991" stroke="red" stroke-width="6.660000" />
<circle cx="915.960022" cy="98.959999" r="19.980000" fill="red">
  <title>Chongqing</title>
</circle><line x1="1052.959961" y1="421.959991" x2="915.960022" y2="98.959999" stroke="red" stroke-width="6.660000" />
<circle cx="284.959991" cy="698.960022" r="19.980000" fill="red">
  <title>Osaka</title>
</circle><line x1="915.960022" y1="98.959999" x2="284.959991" y2="698.960022" stroke="red" stroke-width="6.660000" />
<circle cx="653.960022" cy="1086.959961" r="19.980000" fill="red">
  <title>Delhi</title>
</circle><line x1="284.959991" y1="698.960022" x2="653.960022" y2="1086.959961" stroke="red" stroke-width="6.660000" />
<circle cx="661.960022" cy="1300.959961" r="19.980000" fill="red">
  <title>Cairo</title>
</circle><line x1="653.960022" y1="1086.959961" x2="661.960022" y2="1300.959961" stroke="red" stroke-width="6.660000" />
</svg>
