<?xml version="1.0" encoding="UTF-8" standalone="no"?>
<svg width="500" height="500" viewBox="0 0 2074.000000 2074.000000" xmlns="http://www.w3.org/2000/svg">
<rect x="19.000000" y="19.000000" width="2036.000000" height="2036.000000" fill="black" />
<circle cx="387.959991" cy="131.959991" r="19.980000" fill="red">
  <title>Tokyo</title>
</circle><line x1="113.959999" y1="50.959999" x2="387.959991" y2="131.959991" stroke="red" stroke-width="6.660000" />
<circle cx="800.960022" cy="737.960022" r="19.980000" fill="red">
  <title>Mexico City</title>
</circle><line x1="387.959991" y1="131.959991" x2="800.960022" y2="737.960022" stroke="red" stroke-width="6.660000" />
<circle cx="918.960022" cy="634.960022" r="19.980000" fill="red">
  <title>Cairo</title>
</circle><line x1="800.960022" y1="737.960022" x2="918.960022" y2="634.960022" stroke="red" stroke-width="6.660000" />
<circle cx="1147.959961" cy="971.960022" r="19.980000" fill="red">
  <title>Kolkata</title>
</circle><line x1="918.960022" y1="634.960022" x2="1147.959961" y2="971.960022" stroke="red" stroke-width="6.660000" />
<circle cx="1338.959961" cy="1064.959961" r="19.980000" fill="red">
  <title>Mumbai</title>
</circle><line x1="1147.959961" y1="971.960022" x2="1338.959961" y2="1064.959961" stroke="red" stroke-width="6.660000" />
<circle cx="1303.959961" cy="882.960022" r="19.980000" fill="red">
  <title>Delhi</title>
</circle><line x1="1338.959961" y1="1064.959961" x2="1303.959961" y2="882.960022" stroke="red" stroke-width="6.660000" />
<circle cx="1504.959961" cy="871.960022" r="19.980000" fill="red">
  <title>Osaka</title>
</circle><line x1="1303.959961" y1="882.960022" x2="1504.959961" y2="871.960022" stroke="red" stroke-width="6.660000" />
<circle cx="1624.959961" cy="413.959991" r="19.980000" fill="red">
  <title>Manila</title>
</circle><line x1="1504.959961" y1="871.960022" x2="1624.959961" y2="413.959991" stroke="red" stroke-width="6.660000" />
<circle cx="1932.959961" cy="140.959991" r="19.980000" fill="red">
  <title>Buenos Aires</title>
</circle><line x1="1624.959961" y1="413.959991" x2="1932.959961" y2="140.959991" stroke="red" stroke-width="6.660000" />
<circle cx="1815.959961" cy="783.960022" r="19.980000" fill="red">
  <title>Lagos</title>
</circle><line x1="1932.959961" y1="140.959991" x2="1815.959961" y2="783.960022" stroke="red" stroke-width="6.660000" />
<circle cx="1569.959961" cy="969.960022" r="19.980000" fill="red">
  <title>Beijing</title>
</circle><line x1="1815.959961" y1="783.960022" x2="1569.959961" y2="969.960022" stroke="red" stroke-width="6.660000" />
<circle cx="1715.959961" cy="1248.959961" r="19.980000" fill="red">
  <title>Chongqing</title>
</circle><line x1="1569.959961" y1="969.960022" x2="1715.959961" y2="1248.959961" stroke="red" stroke-width="6.660000" />
<circle cx="1493.959961" cy="1603.959961" r="19.980000" fill="red">
  <title>Dhaka</title>
</circle><line x1="1715.959961" y1="1248.959961" x2="1493.959961" y2="1603.959961" stroke="red" stroke-width="6.660000" />
<circle cx="1602.959961" cy="1984.959961" r="19.980000" fill="red">
  <title>New York</title>
</circle><line x1="1493.959961" y1="1603.959961" x2="1602.959961" y2="1984.959961" stroke="red" stroke-width="6.660000" />
<circle cx="1196.959961" cy="1738.959961" r="19.980000" fill="red">
  <title>Shanghai</title>
</circle><line x1="1602.959961" y1="1984.959961" x2="1196.959961" y2="1738.959961" stroke="red" stroke-width="6.660000" />
<circle cx="809.960022" cy="1971.959961" r="19.980000" fill="red">
  <title>Karachi</title>
</circle><line x1="1196.959961" y1="1738.959961" x2="809.960022" y2="1971.959961" stroke="red" stroke-width="6.660000" />
<circle cx="273.959991" cy="1737.959961" r="19.980000" fill="red">
  <title>São Paulo</title>
</circle><line x1="809.960022" y1="1971.959961" x2="273.959991" y2="1737.959961" stroke="red" stroke-width="6.660000" />
<circle cx="623.960022" cy="1532.959961" r="19.980000" fill="red">
  <title>Istanbul</title>
</circle><line x1="273.959991" y1="1737.959961" x2="623.960022" y2="1532.959961" stroke="red" stroke-width="6.660000" />
<circle cx="482.959991" cy="874.960022" r="19.980000" fill="red">
  <title>Tianjin</title>
</circle><line x1="623.960022" y1="1532.959961" x2="482.959991" y2="874.960022" stroke="red" stroke-width="6.660000" />
<circle cx="113.959999" cy="50.959999" r="19.980000" fill="red">
  <title>Rio de Janeiro</title>
</circle><line x1="482.959991" y1="874.960022" x2="113.959999" y2="50.959999" stroke="red" stroke-width="6.660000" />
</svg>
