<?xml version="1.0" encoding="UTF-8" standalone="no"?>
<svg width="500" height="500" viewBox="0 0 2074.000000 2074.000000" xmlns="http://www.w3.org/2000/svg">
<rect x="19.000000" y="19.000000" width="2036.000000" height="2036.000000" fill="black" />
<circle cx="1010.960022" cy="103.959999" r="19.980000" fill="red">
  <title>Tokyo</title>
</circle><line x1="245.959991" y1="398.959991" x2="1010.960022" y2="103.959999" stroke="red" stroke-width="6.660000" />
<circle cx="1008.960022" cy="714.960022" r="19.980000" fill="red">
  <title>Delhi</title>
</circle><line x1="1010.960022" y1="103.959999" x2="1008.960022" y2="714.960022" stroke="red" stroke-width="6.660000" />
<circle cx="923.960022" cy="1544.959961" r="19.980000" fill="red">
  <title>Shanghai</title>
</circle><line x1="1008.960022" y1="714.960022" x2="923.960022" y2="1544.959961" stroke="red" stroke-width="6.660000" />
<circle cx="245.959991" cy="398.959991" r="19.980000" fill="red">
  <title>São Paulo</title>
</circle><line x1="923.960022" y1="1544.959961" x2="245.959991" y2="398.959991" stroke="red" stroke-width="6.660000" />
</svg>
