<?xml version="1.0" encoding="UTF-8" standalone="no"?>
<svg width="500" height="500" viewBox="0 0 2074.000000 2074.000000" xmlns="http://www.w3.org/2000/svg">
<rect x="19.000000" y="19.000000" width="2036.000000" height="2036.000000" fill="black" />
<circle cx="1684.959961" cy="1857.959961" r="19.980000" fill="red">
  <title>Tokyo</title>
</circle><line x1="620.960022" y1="1873.959961" x2="1684.959961" y2="1857.959961" stroke="red" stroke-width="6.660000" />
<circle cx="1979.959961" cy="1997.959961" r="19.980000" fill="red">
  <title>Delhi</title>
</circle><line x1="1684.959961" y1="1857.959961" x2="1979.959961" y2="1997.959961" stroke="red" stroke-width="6.660000" />
<circle cx="1832.959961" cy="180.959991" r="19.980000" fill="red">
  <title>Mexico City</title>
</circle><line x1="1979.959961" y1="1997.959961" x2="1832.959961" y2="180.959991" stroke="red" stroke-width="6.660000" />
<circle cx="429.959991" cy="946.960022" r="19.980000" fill="red">
  <title>Shanghai</title>
</circle><line x1="1832.959961" y1="180.959991" x2="429.959991" y2="946.960022" stroke="red" stroke-width="6.660000" />
<circle cx="81.959999" cy="1115.959961" r="19.980000" fill="red">
  <title>Mumbai</title>
</circle><line x1="429.959991" y1="946.960022" x2="81.959999" y2="1115.959961" stroke="red" stroke-width="6.660000" />
<circle cx="240.959991" cy="1373.959961" r="19.980000" fill="red">
  <title>São Paulo</title>
</circle><line x1="81.959999" y1="1115.959961" x2="240.959991" y2="1373.959961" stroke="red" stroke-width="6.660000" />
<circle cx="620.960022" cy="1873.959961" r="19.980000" fill="red">
  <title>Cairo</title>
</circle><line x1="240.959991" y1="1373.959961" x2="620.960022" y2="1873.959961" stroke="red" stroke-width="6.660000" />
</svg>
