<?xml version="1.0" encoding="UTF-8" standalone="no"?>
<svg width="500" height="500" viewBox="0 0 2074.000000 2074.000000" xmlns="http://www.w3.org/2000/svg">
<rect x="19.000000" y="19.000000" width="2036.000000" height="2036.000000" fill="black" />
<circle cx="233.959991" cy="981.960022" r="19.980000" fill="red">
  <title>Tokyo</title>
</circle><line x1="681.960022" y1="1046.959961" x2="233.959991" y2="981.960022" stroke="red" stroke-width="6.660000" />
<circle cx="169.959991" cy="1086.959961" r="19.980000" fill="red">
  <title>New York</title>
</circle><line x1="233.959991" y1="981.960022" x2="169.959991" y2="1086.959961" stroke="red" stroke-width="6.660000" />
<circle cx="551.960022" cy="1312.959961" r="19.980000" fill="red">
  <title>Dhaka</title>
</circle><line x1="169.959991" y1="1086.959961" x2="551.960022" y2="1312.959961" stroke="red" stroke-width="6.660000" />
<circle cx="533.960022" cy="1401.959961" r="19.980000" fill="red">
  <title>Manila</title>
</circle><line x1="551.960022" y1="1312.959961" x2="533.960022" y2="1401.959961" stroke="red" stroke-width="6.660000" />
<circle cx="665.960022" cy="1509.959961" r="19.980000" fill="red">
  <title>Mexico City</title>
</circle><line x1="533.960022" y1="1401.959961" x2="665.960022" y2="1509.959961" stroke="red" stroke-width="6.660000" />
<circle cx="1116.959961" cy="1809.959961" r="19.980000" fill="red">
  <title>Cairo</title>
</circle><line x1="665.960022" y1="1509.959961" x2="1116.959961" y2="1809.959961" stroke="red" stroke-width="6.660000" />
<circle cx="1133.959961" cy="1820.959961" r="19.980000" fill="red">
  <title>Shanghai</title>
</circle><line x1="1116.959961" y1="1809.959961" x2="1133.959961" y2="1820.959961" stroke="red" stroke-width="6.660000" />
<circle cx="1190.959961" cy="1566.959961" r="19.980000" fill="red">
  <title>Karachi</title>
</circle><line x1="1133.959961" y1="1820.959961" x2="1190.959961" y2="1566.959961" stroke="red" stroke-width="6.660000" />
<circle cx="1748.959961" cy="1590.959961" r="19.980000" fill="red">
  <title>Istanbul</title>
</circle><line x1="1190.959961" y1="1566.959961" x2="1748.959961" y2="1590.959961" stroke="red" stroke-width="6.660000" />
<circle cx="1957.959961" cy="1942.959961" r="19.980000" fill="red">
  <title>Kolkata</title>
</circle><line x1="1748.959961" y1="1590.959961" x2="1957.959961" y2="1942.959961" stroke="red" stroke-width="6.660000" />
<circle cx="1864.959961" cy="1393.959961" r="19.980000" fill="red">
  <title>Mumbai</title>
</circle><line x1="1957.959961" y1="1942.959961" x2="1864.959961" y2="1393.959961" stroke="red" stroke-width="6.660000" />
<circle cx="1481.959961" cy="960.960022" r="19.980000" fill="red">
  <title>Delhi</title>
</circle><line x1="1864.959961" y1="1393.959961" x2="1481.959961" y2="960.960022" stroke="red" stroke-width="6.660000" />
<circle cx="1909.959961" cy="367.959991" r="19.980000" fill="red">
  <title>Chongqing</title>
</circle><line x1="1481.959961" y1="960.960022" x2="1909.959961" y2="367.959991" stroke="red" stroke-width="6.660000" />
<circle cx="1579.959961" cy="823.960022" r="19.980000" fill="red">
  <title>Buenos Aires</title>
</circle><line x1="1909.959961" y1="367.959991" x2="1579.959961" y2="823.960022" stroke="red" stroke-width="6.660000" />
<circle cx="1243.959961" cy="881.960022" r="19.980000" fill="red">
  <title>Beijing</title>
</circle><line x1="1579.959961" y1="823.960022" x2="1243.959961" y2="881.960022" stroke="red" stroke-width="6.660000" />
<circle cx="896.960022" cy="959.960022" r="19.980000" fill="red">
  <title>São Paulo</title>
</circle><line x1="1243.959961" y1="881.960022" x2="896.960022" y2="959.960022" stroke="red" stroke-width="6.660000" />
<circle cx="681.960022" cy="1046.959961" r="19.980000" fill="red">
  <title>Osaka</title>
</circle><line x1="896.960022" y1="959.960022" x2="681.960022" y2="1046.959961" stroke="red" stroke-width="6.660000" />
</svg>
