<?xml version="1.0" encoding="UTF-8" standalone="no"?>
<svg width="500" height="500" viewBox="0 0 2074.000000 2074.000000" xmlns="http://www.w3.org/2000/svg">
<rect x="19.000000" y="19.000000" width="2036.000000" height="2036.000000" fill="black" />
<circle cx="1349.959961" cy="1502.959961" r="19.980000" fill="red">
  <title>Tokyo</title>
</circle><line x1="1985.959961" y1="560.960022" x2="1349.959961" y2="1502.959961" stroke="red" stroke-width="6.660000" />
<circle cx="1078.959961" cy="1508.959961" r="19.980000" fill="red">
  <title>Mumbai</title>
</circle><line x1="1349.959961" y1="1502.959961" x2="1078.959961" y2="1508.959961" stroke="red" stroke-width="6.660000" />
<circle cx="932.960022" cy="1309.959961" r="19.980000" fill="red">
  <title>Delhi</title>
</circle><line x1="1078.959961" y1="1508.959961" x2="932.960022" y2="1309.959961" stroke="red" stroke-width="6.660000" />
<circle cx="895.960022" cy="1242.959961" r="19.980000" fill="red">
  <title>Mexico City</title>
</circle><line x1="932.960022" y1="1309.959961" x2="895.960022" y2="1242.959961" stroke="red" stroke-width="6.660000" />
<circle cx="802.960022" cy="614.960022" r="19.980000" fill="red">
  <title>Shanghai</title>
</circle><line x1="895.960022" y1="1242.959961" x2="802.960022" y2="614.960022" stroke="red" stroke-width="6.660000" />
<circle cx="1611.959961" cy="283.959991" r="19.980000" fill="red">
  <title>São Paulo</title>
</circle><line x1="802.960022" y1="614.960022" x2="1611.959961" y2="283.959991" stroke="red" stroke-width="6.660000" />
<circle cx="1985.959961" cy="560.960022" r="19.980000" fill="red">
  <title>Cairo</title>
</circle><line x1="1611.959961" y1="283.959991" x2="1985.959961" y2="560.960022" stroke="red" stroke-width="6.660000" />
</svg>
