<?xml version="1.0" encoding="UTF-8" standalone="no"?>
<svg width="500" height="500" viewBox="0 0 2074.000000 2074.000000" xmlns="http://www.w3.org/2000/svg">
<rect x="19.000000" y="19.000000" width="2036.000000" height="2036.000000" fill="black" />
<circle cx="563.960022" cy="1154.959961" r="19.980000" fill="red">
  <title>Tokyo</title>
</circle><line x1="658.960022" y1="1138.959961" x2="563.960022" y2="1154.959961" stroke="red" stroke-width="6.660000" />
<circle cx="331.959991" cy="1741.959961" r="19.980000" fill="red">
  <title>Mexico City</title>
</circle><line x1="563.960022" y1="1154.959961" x2="331.959991" y2="1741.959961" stroke="red" stroke-width="6.660000" />
<circle cx="1018.960022" cy="2032.959961" r="19.980000" fill="red">
  <title>Mumbai</title>
</circle><line x1="331.959991" y1="1741.959961" x2="1018.960022" y2="2032.959961" stroke="red" stroke-width="6.660000" />
<circle cx="1515.959961" cy="1986.959961" r="19.980000" fill="red">
  <title>Beijing</title>
</circle><line x1="1018.960022" y1="2032.959961" x2="1515.959961" y2="1986.959961" stroke="red" stroke-width="6.660000" />
<circle cx="1856.959961" cy="1970.959961" r="19.980000" fill="red">
  <title>São Paulo</title>
</circle><line x1="1515.959961" y1="1986.959961" x2="1856.959961" y2="1970.959961" stroke="red" stroke-width="6.660000" />
<circle cx="1747.959961" cy="1978.959961" r="19.980000" fill="red">
  <title>New York</title>
</circle><line x1="1856.959961" y1="1970.959961" x2="1747.959961" y2="1978.959961" stroke="red" stroke-width="6.660000" />
<circle cx="1272.959961" cy="1405.959961" r="19.980000" fill="red">
  <title>Osaka</title>
</circle><line x1="1747.959961" y1="1978.959961" x2="1272.959961" y2="1405.959961" stroke="red" stroke-width="6.660000" />
<circle cx="1330.959961" cy="1052.959961" r="19.980000" fill="red">
  <title>Shanghai</title>
</circle><line x1="1272.959961" y1="1405.959961" x2="1330.959961" y2="1052.959961" stroke="red" stroke-width="6.660000" />
<circle cx="1544.959961" cy="841.960022" r="19.980000" fill="red">
  <title>Dhaka</title>
</circle><line x1="1330.959961" y1="1052.959961" x2="1544.959961" y2="841.960022" stroke="red" stroke-width="6.660000" />
<circle cx="757.960022" cy="575.960022" r="19.980000" fill="red">
  <title>Delhi</title>
</circle><line x1="1544.959961" y1="841.960022" x2="757.960022" y2="575.960022" stroke="red" stroke-width="6.660000" />
<circle cx="658.960022" cy="1138.959961" r="19.980000" fill="red">
  <title>Cairo</title>
</circle><line x1="757.960022" y1="575.960022" x2="658.960022" y2="1138.959961" stroke="red" stroke-width="6.660000" />
</svg>
