<?xml version="1.0" encoding="UTF-8" standalone="no"?>
<svg width="500" height="500" viewBox="0 0 2074.000000 2074.000000" xmlns="http://www.w3.org/2000/svg">
<rect x="19.000000" y="19.000000" width="2036.000000" height="2036.000000" fill="black" />
<circle cx="1188.959961" cy="697.960022" r="19.980000" fill="red">
  <title>Tokyo</title>
</circle><line x1="1854.959961" y1="505.959991" x2="1188.959961" y2="697.960022" stroke="red" stroke-width="6.660000" />
<circle cx="792.960022" cy="93.959999" r="19.980000" fill="red">
  <title>Shanghai</title>
</circle><line x1="1188.959961" y1="697.960022" x2="792.960022" y2="93.959999" stroke="red" stroke-width="6.660000" />
<circle cx="558.960022" cy="869.960022" r="19.980000" fill="red">
  <title>Osaka</title>
</circle><line x1="792.960022" y1="93.959999" x2="558.960022" y2="869.960022" stroke="red" stroke-width="6.660000" />
<circle cx="355.959991" cy="959.960022" r="19.980000" fill="red">
  <title>São Paulo</title>
</circle><line x1="558.960022" y1="869.960022" x2="355.959991" y2="959.960022" stroke="red" stroke-width="6.660000" />
<circle cx="404.959991" cy="1467.959961" r="19.980000" fill="red">
  <title>Delhi</title>
</circle><line x1="355.959991" y1="959.960022" x2="404.959991" y2="1467.959961" stroke="red" stroke-width="6.660000" />
<circle cx="665.960022" cy="1824.959961" r="19.980000" fill="red">
  <title>Beijing</title>
</circle><line x1="404.959991" y1="1467.959961" x2="665.960022" y2="1824.959961" stroke="red" stroke-width="6.660000" />
<circle cx="1742.959961" cy="1549.959961" r="19.980000" fill="red">
  <title>Mumbai</title>
</circle><line x1="665.960022" y1="1824.959961" x2="1742.959961" y2="1549.959961" stroke="red" stroke-width="6.660000" />
<circle cx="1948.959961" cy="901.960022" r="19.980000" fill="red">
  <title>Mexico City</title>
</circle><line x1="1742.959961" y1="1549.959961" x2="1948.959961" y2="901.960022" stroke="red" stroke-width="6.660000" />
<circle cx="1816.959961" cy="717.960022" r="19.980000" fill="red">
  <title>Dhaka</title>
</circle><line x1="1948.959961" y1="901.960022" x2="1816.959961" y2="717.960022" stroke="red" stroke-width="6.660000" />
<circle cx="1873.959961" cy="172.959991" r="19.980000" fill="red">
  <title>New York</title>
</circle><line x1="1816.959961" y1="717.960022" x2="1873.959961" y2="172.959991" stroke="red" stroke-width="6.660000" />
<circle cx="1854.959961" cy="505.959991" r="19.980000" fill="red">
  <title>Cairo</title>
</circle><line x1="1873.959961" y1="172.959991" x2="1854.959961" y2="505.959991" stroke="red" stroke-width="6.660000" />
</svg>
