<?xml version="1.0" encoding="UTF-8" standalone="no"?>
<svg width="500" height="500" viewBox="0 0 2074.000000 2074.000000" xmlns="http://www.w3.org/2000/svg">
<rect x="19.000000" y="19.000000" width="2036.000000" height="2036.000000" fill="black" />
<circle cx="69.959999" cy="1888.959961" r="19.980000" fill="red">
  <title>Tokyo</title>
</circle><line x1="236.959991" y1="1607.959961" x2="69.959999" y2="1888.959961" stroke="red" stroke-width="6.660000" />
<circle cx="43.959999" cy="1137.959961" r="19.980000" fill="red">
  <title>Delhi</title>
</circle><line x1="69.959999" y1="1888.959961" x2="43.959999" y2="1137.959961" stroke="red" stroke-width="6.660000" />
<circle cx="122.959999" cy="1039.959961" r="19.980000" fill="red">
  <title>São Paulo</title>
</circle><line x1="43.959999" y1="1137.959961" x2="122.959999" y2="1039.959961" stroke="red" stroke-width="6.660000" />
<circle cx="1022.960022" cy="552.960022" r="19.980000" fill="red">
  <title>Mexico City</title>
</circle><line x1="122.959999" y1="1039.959961" x2="1022.960022" y2="552.960022" stroke="red" stroke-width="6.660000" />
<circle cx="1879.959961" cy="1052.959961" r="19.980000" fill="red">
  <title>Shanghai</title>
</circle><line x1="1022.960022" y1="552.960022" x2="1879.959961" y2="1052.959961" stroke="red" stroke-width="6.660000" />
<circle cx="236.959991" cy="1607.959961" r="19.980000" fill="red">
  <title>Cairo</title>
</circle><line x1="1879.959961" y1="1052.959961" x2="236.959991" y2="1607.959961" stroke="red" stroke-width="6.660000" />
</svg>
