<?xml version="1.0" encoding="UTF-8" standalone="no"?>
<svg width="500" height="500" viewBox="0 0 2074.000000 2074.000000" xmlns="http://www.w3.org/2000/svg">
<rect x="19.000000" y="19.000000" width="2036.000000" height="2036.000000" fill="black" />
<circle cx="65.959999" cy="529.960022" r="19.980000" fill="red">
  <title>Tokyo</title>
</circle><line x1="722.960022" y1="364.959991" x2="65.959999" y2="529.960022" stroke="red" stroke-width="6.660000" />
<circle cx="143.959991" cy="892.960022" r="19.980000" fill="red">
  <title>Buenos Aires</title>
</circle><line x1="65.959999" y1="529.960022" x2="143.959991" y2="892.960022" stroke="red" stroke-width="6.660000" />
<circle cx="197.959991" cy="1286.959961" r="19.980000" fill="red">
  <title>Mexico City</title>
</circle><line x1="143.959991" y1="892.960022" x2="197.959991" y2="1286.959961" stroke="red" stroke-width="6.660000" />
<circle cx="83.959999" cy="1679.959961" r="19.980000" fill="red">
  <title>Kolkata</title>
</circle><line x1="197.959991" y1="1286.959961" x2="83.959999" y2="1679.959961" stroke="red" stroke-width="6.660000" />
<circle cx="324.959991" cy="1556.959961" r="19.980000" fill="red">
  <title>Shanghai</title>
</circle><line x1="83.959999" y1="1679.959961" x2="324.959991" y2="1556.959961" stroke="red" stroke-width="6.660000" />
<circle cx="391.959991" cy="1479.959961" r="19.980000" fill="red">
  <title>Beijing</title>
</circle><line x1="324.959991" y1="1556.959961" x2="391.959991" y2="1479.959961" stroke="red" stroke-width="6.660000" />
<circle cx="583.960022" cy="1787.959961" r="19.980000" fill="red">
  <title>Karachi</title>
</circle><line x1="391.959991" y1="1479.959961" x2="583.960022" y2="1787.959961" stroke="red" stroke-width="6.660000" />
<circle cx="1020.960022" cy="1849.959961" r="19.980000" fill="red">
  <title>Manila</title>
</circle><line x1="583.960022" y1="1787.959961" x2="1020.960022" y2="1849.959961" stroke="red" stroke-width="6.660000" />
<circle cx="2027.959961" cy="690.960022" r="19.980000" fill="red">
  <title>Osaka</title>
</circle><line x1="1020.960022" y1="1849.959961" x2="2027.959961" y2="690.960022" stroke="red" stroke-width="6.660000" />
<circle cx="1929.959961" cy="394.959991" r="19.980000" fill="red">
  <title>Cairo</title>
</circle><line x1="2027.959961" y1="690.960022" x2="1929.959961" y2="394.959991" stroke="red" stroke-width="6.660000" />
<circle cx="1993.959961" cy="297.959991" r="19.980000" fill="red">
  <title>Dhaka</title>
</circle><line x1="1929.959961" y1="394.959991" x2="1993.959961" y2="297.959991" stroke="red" stroke-width="6.660000" />
<circle cx="1805.959961" cy="468.959991" r="19.980000" fill="red">
  <title>Delhi</title>
</circle><line x1="1993.959961" y1="297.959991" x2="1805.959961" y2="468.959991" stroke="red" stroke-width="6.660000" />
<circle cx="1652.959961" cy="529.960022" r="19.980000" fill="red">
  <title>Istanbul</title>
</circle><line x1="1805.959961" y1="468.959991" x2="1652.959961" y2="529.960022" stroke="red" stroke-width="6.660000" />
<circle cx="909.960022" cy="619.960022" r="19.980000" fill="red">
  <title>New York</title>
</circle><line x1="1652.959961" y1="529.960022" x2="909.960022" y2="619.960022" stroke="red" stroke-width="6.660000" />
<circle cx="921.960022" cy="347.959991" r="19.980000" fill="red">
  <title>Mumbai</title>
</circle><line x1="909.960022" y1="619.960022" x2="921.960022" y2="347.959991" stroke="red" stroke-width="6.660000" />
<circle cx="771.960022" cy="444.959991" r="19.980000" fill="red">
  <title>Chongqing</title>
</circle><line x1="921.960022" y1="347.959991" x2="771.960022" y2="444.959991" stroke="red" stroke-width="6.660000" />
<circle cx="722.960022" cy="364.959991" r="19.980000" fill="red">
  <title>São Paulo</title>
</circle><line x1="771.960022" y1="444.959991" x2="722.960022" y2="364.959991" stroke="red" stroke-width="6.660000" />
</svg>
