<?xml version="1.0" encoding="UTF-8" standalone="no"?>
<svg width="500" height="500" viewBox="0 0 2074.000000 2074.000000" xmlns="http://www.w3.org/2000/svg">
<rect x="19.000000" y="19.000000" width="2036.000000" height="2036.000000" fill="black" />
<circle cx="1959.959961" cy="203.959991" r="19.980000" fill="red">
  <title>Tokyo</title>
</circle><line x1="1518.959961" y1="355.959991" x2="1959.959961" y2="203.959991" stroke="red" stroke-width="6.660000" />
<circle cx="1615.959961" cy="781.960022" r="19.980000" fill="red">
  <title>Delhi</title>
</circle><line x1="1959.959961" y1="203.959991" x2="1615.959961" y2="781.960022" stroke="red" stroke-width="6.660000" />
<circle cx="879.960022" cy="753.960022" r="19.980000" fill="red">
  <title>Cairo</title>
</circle><line x1="1615.959961" y1="781.960022" x2="879.960022" y2="753.960022" stroke="red" stroke-width="6.660000" />
<circle cx="729.960022" cy="1412.959961" r="19.980000" fill="red">
  <title>Mexico City</title>
</circle><line x1="879.960022" y1="753.960022" x2="729.960022" y2="1412.959961" stroke="red" stroke-width="6.660000" />
<circle cx="125.959999" cy="447.959991" r="19.980000" fill="red">
  <title>Mumbai</title>
</circle><line x1="729.960022" y1="1412.959961" x2="125.959999" y2="447.959991" stroke="red" stroke-width="6.660000" />
<circle cx="787.960022" cy="501.959991" r="19.980000" fill="red">
  <title>Shanghai</title>
</circle><line x1="125.959999" y1="447.959991" x2="787.960022" y2="501.959991" stroke="red" stroke-width="6.660000" />
<circle cx="1518.959961" cy="355.959991" r="19.980000" fill="red">
  <title>São Paulo</title>
</circle><line x1="787.960022" y1="501.959991" x2="1518.959961" y2="355.959991" stroke="red" stroke-width="6.660000" />
</svg>
