<?xml version="1.0" encoding="UTF-8" standalone="no"?>
<svg width="500" height="500" viewBox="0 0 2074.000000 2074.000000" xmlns="http://www.w3.org/2000/svg">
<rect x="19.000000" y="19.000000" width="2036.000000" height="2036.000000" fill="black" />
<circle cx="1318.959961" cy="1543.959961" r="19.980000" fill="red">
  <title>Tokyo</title>
</circle><line x1="1333.959961" y1="1599.959961" x2="1318.959961" y2="1543.959961" stroke="red" stroke-width="6.660000" />
<circle cx="1873.959961" cy="448.959991" r="19.980000" fill="red">
  <title>Mexico City</title>
</circle><line x1="1318.959961" y1="1543.959961" x2="1873.959961" y2="448.959991" stroke="red" stroke-width="6.660000" />
<circle cx="1070.959961" cy="212.959991" r="19.980000" fill="red">
  <title>Mumbai</title>
</circle><line x1="1873.959961" y1="448.959991" x2="1070.959961" y2="212.959991" stroke="red" stroke-width="6.660000" />
<circle cx="811.960022" cy="857.960022" r="19.980000" fill="red">
  <title>Shanghai</title>
</circle><line x1="1070.959961" y1="212.959991" x2="811.960022" y2="857.960022" stroke="red" stroke-width="6.660000" />
<circle cx="177.959991" cy="899.960022" r="19.980000" fill="red">
  <title>Delhi</title>
</circle><line x1="811.960022" y1="857.960022" x2="177.959991" y2="899.960022" stroke="red" stroke-width="6.660000" />
<circle cx="327.959991" cy="1286.959961" r="19.980000" fill="red">
  <title>São Paulo</title>
</circle><line x1="177.959991" y1="899.960022" x2="327.959991" y2="1286.959961" stroke="red" stroke-width="6.660000" />
<circle cx="561.960022" cy="1082.959961" r="19.980000" fill="red">
  <title>Beijing</title>
</circle><line x1="327.959991" y1="1286.959961" x2="561.960022" y2="1082.959961" stroke="red" stroke-width="6.660000" />
<circle cx="1333.959961" cy="1599.959961" r="19.980000" fill="red">
  <title>Cairo</title>
</circle><line x1="561.960022" y1="1082.959961" x2="1333.959961" y2="1599.959961" stroke="red" stroke-width="6.660000" />
</svg>
