<?xml version="1.0" encoding="UTF-8" standalone="no"?>
<svg width="500" height="500" viewBox="0 0 2074.000000 2074.000000" xmlns="http://www.w3.org/2000/svg">
<rect x="19.000000" y="19.000000" width="2036.000000" height="2036.000000" fill="black" />
<circle cx="1239.959961" cy="554.960022" r="19.980000" fill="red">
  <title>Tokyo</title>
</circle><line x1="65.959999" y1="1055.959961" x2="1239.959961" y2="554.960022" stroke="red" stroke-width="6.660000" />
<circle cx="1581.959961" cy="324.959991" r="19.980000" fill="red">
  <title>Delhi</title>
</circle><line x1="1239.959961" y1="554.960022" x2="1581.959961" y2="324.959991" stroke="red" stroke-width="6.660000" />
<circle cx="1995.959961" cy="1517.959961" r="19.980000" fill="red">
  <title>São Paulo</title>
</circle><line x1="1581.959961" y1="324.959991" x2="1995.959961" y2="1517.959961" stroke="red" stroke-width="6.660000" />
<circle cx="65.959999" cy="1055.959961" r="19.980000" fill="red">
  <title>Shanghai</title>
</circle><line x1="1995.959961" y1="1517.959961" x2="65.959999" y2="1055.959961" stroke="red" stroke-width="6.660000" />
</svg>
