<?xml version="1.0" encoding="UTF-8" standalone="no"?>
<svg width="500" height="500" viewBox="0 0 2074.000000 2074.000000" xmlns="http://www.w3.org/2000/svg">
<rect x="19.000000" y="19.000000" width="2036.000000" height="2036.000000" fill="black" />
<circle cx="912.960022" cy="42.959999" r="19.980000" fill="red">
  <title>Tokyo</title>
</circle><line x1="979.960022" y1="890.960022" x2="912.960022" y2="42.959999" stroke="red" stroke-width="6.660000" />
<circle cx="1325.959961" cy="436.959991" r="19.980000" fill="red">
  <title>Osaka</title>
</circle><line x1="912.960022" y1="42.959999" x2="1325.959961" y2="436.959991" stroke="red" stroke-width="6.660000" />
<circle cx="1970.959961" cy="442.959991" r="19.980000" fill="red">
  <title>Beijing</title>
</circle><line x1="1325.959961" y1="436.959991" x2="1970.959961" y2="442.959991" stroke="red" stroke-width="6.660000" />
<circle cx="1900.959961" cy="823.960022" r="19.980000" fill="red">
  <title>São Paulo</title>
</circle><line x1="1970.959961" y1="442.959991" x2="1900.959961" y2="823.960022" stroke="red" stroke-width="6.660000" />
<circle cx="1456.959961" cy="802.960022" r="19.980000" fill="red">
  <title>New York</title>
</circle><line x1="1900.959961" y1="823.960022" x2="1456.959961" y2="802.960022" stroke="red" stroke-width="6.660000" />
<circle cx="1068.959961" cy="1992.959961" r="19.980000" fill="red">
  <title>Mexico City</title>
</circle><line x1="1456.959961" y1="802.960022" x2="1068.959961" y2="1992.959961" stroke="red" stroke-width="6.660000" />
<circle cx="177.959991" cy="1625.959961" r="19.980000" fill="red">
  <title>Karachi</title>
</circle><line x1="1068.959961" y1="1992.959961" x2="177.959991" y2="1625.959961" stroke="red" stroke-width="6.660000" />
<circle cx="54.959999" cy="1859.959961" r="19.980000" fill="red">
  <title>Shanghai</title>
</circle><line x1="177.959991" y1="1625.959961" x2="54.959999" y2="1859.959961" stroke="red" stroke-width="6.660000" />
<circle cx="99.959999" cy="1725.959961" r="19.980000" fill="red">
  <title>Buenos Aires</title>
</circle><line x1="54.959999" y1="1859.959961" x2="99.959999" y2="1725.959961" stroke="red" stroke-width="6.660000" />
<circle cx="162.959991" cy="1546.959961" r="19.980000" fill="red">
  <title>Mumbai</title>
</circle><line x1="99.959999" y1="1725.959961" x2="162.959991" y2="1546.959961" stroke="red" stroke-width="6.660000" />
<circle cx="119.959999" cy="1138.959961" r="19.980000" fill="red">
  <title>Dhaka</title>
</circle><line x1="162.959991" y1="1546.959961" x2="119.959999" y2="1138.959961" stroke="red" stroke-width="6.660000" />
<circle cx="188.959991" cy="1085.959961" r="19.980000" fill="red">
  <title>Chongqing</title>
</circle><line x1="119.959999" y1="1138.959961" x2="188.959991" y2="1085.959961" stroke="red" stroke-width="6.660000" />
<circle cx="343.959991" cy="1282.959961" r="19.980000" fill="red">
  <title>Delhi</title>
</circle><line x1="188.959991" y1="1085.959961" x2="343.959991" y2="1282.959961" stroke="red" stroke-width="6.660000" />
<circle cx="979.960022" cy="890.960022" r="19.980000" fill="red">
  <title>Cairo</title>
</circle><line x1="343.959991" y1="1282.959961" x2="979.960022" y2="890.960022" stroke="red" stroke-width="6.660000" />
</svg>
