<?xml version="1.0" encoding="UTF-8" standalone="no"?>
<svg width="500" height="500" viewBox="0 0 2074.000000 2074.000000" xmlns="http://www.w3.org/2000/svg">
<rect x="19.000000" y="19.000000" width="2036.000000" height="2036.000000" fill="black" />
<circle cx="375.959991" cy="1582.959961" r="19.980000" fill="red">
  <title>Tokyo</title>
</circle><line x1="948.960022" y1="1819.959961" x2="375.959991" y2="1582.959961" stroke="red" stroke-width="6.660000" />
<circle cx="396.959991" cy="1498.959961" r="19.980000" fill="red">
  <title>Mumbai</title>
</circle><line x1="375.959991" y1="1582.959961" x2="396.959991" y2="1498.959961" stroke="red" stroke-width="6.660000" />
<circle cx="750.960022" cy="991.960022" r="19.980000" fill="red">
  <title>São Paulo</title>
</circle><line x1="396.959991" y1="1498.959961" x2="750.960022" y2="991.960022" stroke="red" stroke-width="6.660000" />
<circle cx="628.960022" cy="792.960022" r="19.980000" fill="red">
  <title>Shanghai</title>
</circle><line x1="750.960022" y1="991.960022" x2="628.960022" y2="792.960022" stroke="red" stroke-width="6.660000" />
<circle cx="352.959991" cy="907.960022" r="19.980000" fill="red">
  <title>Mexico City</title>
</circle><line x1="628.960022" y1="792.960022" x2="352.959991" y2="907.960022" stroke="red" stroke-width="6.660000" />
<circle cx="151.959991" cy="91.959999" r="19.980000" fill="red">
  <title>Osaka</title>
</circle><line x1="352.959991" y1="907.960022" x2="151.959991" y2="91.959999" stroke="red" stroke-width="6.660000" />
<circle cx="978.960022" cy="343.959991" r="19.980000" fill="red">
  <title>Cairo</title>
</circle><line x1="151.959991" y1="91.959999" x2="978.960022" y2="343.959991" stroke="red" stroke-width="6.660000" />
<circle cx="1330.959961" cy="840.960022" r="19.980000" fill="red">
  <title>Beijing</title>
</circle><line x1="978.960022" y1="343.959991" x2="1330.959961" y2="840.960022" stroke="red" stroke-width="6.660000" />
<circle cx="1698.959961" cy="1193.959961" r="19.980000" fill="red">
  <title>Karachi</title>
</circle><line x1="1330.959961" y1="840.960022" x2="1698.959961" y2="1193.959961" stroke="red" stroke-width="6.660000" />
<circle cx="1067.959961" cy="1215.959961" r="19.980000" fill="red">
  <title>Delhi</title>
</circle><line x1="1698.959961" y1="1193.959961" x2="1067.959961" y2="1215.959961" stroke="red" stroke-width="6.660000" />
<circle cx="1127.959961" cy="1299.959961" r="19.980000" fill="red">
  <title>New York</title>
</circle><line x1="1067.959961" y1="1215.959961" x2="1127.959961" y2="1299.959961" stroke="red" stroke-width="6.660000" />
<circle cx="948.960022" cy="1819.959961" r="19.980000" fill="red">
  <title>Dhaka</title>
</circle><line x1="1127.959961" y1="1299.959961" x2="948.960022" y2="1819.959961" stroke="red" stroke-width="6.660000" />
</svg>
