<?xml version="1.0" encoding="UTF-8" standalone="no"?>
<svg width="500" height="500" viewBox="0 0 2074.000000 2074.000000" xmlns="http://www.w3.org/2000/svg">
<rect x="19.000000" y="19.000000" width="2036.000000" height="2036.000000" fill="black" />
<circle cx="228.959991" cy="112.959999" r="19.980000" fill="red">
  <title>Tokyo</title>
</circle><line x1="313.959991" y1="380.959991" x2="228.959991" y2="112.959999" stroke="red" stroke-width="6.660000" />
<circle cx="583.960022" cy="443.959991" r="19.980000" fill="red">
  <title>Delhi</title>
</circle><line x1="228.959991" y1="112.959999" x2="583.960022" y2="443.959991" stroke="red" stroke-width="6.660000" />
<circle cx="1085.959961" cy="505.959991" r="19.980000" fill="red">
  <title>Shanghai</title>
</circle><line x1="583.960022" y1="443.959991" x2="1085.959961" y2="505.959991" stroke="red" stroke-width="6.660000" />
<circle cx="1137.959961" cy="168.959991" r="19.980000" fill="red">
  <title>Kolkata</title>
</circle><line x1="1085.959961" y1="505.959991" x2="1137.959961" y2="168.959991" stroke="red" stroke-width="6.660000" />
<circle cx="1926.959961" cy="323.959991" r="19.980000" fill="red">
  <title>Mumbai</title>
</circle><line x1="1137.959961" y1="168.959991" x2="1926.959961" y2="323.959991" stroke="red" stroke-width="6.660000" />
<circle cx="1977.959961" cy="436.959991" r="19.980000" fill="red">
  <title>Istanbul</title>
</circle><line x1="1926.959961" y1="323.959991" x2="1977.959961" y2="436.959991" stroke="red" stroke-width="6.660000" />
<circle cx="1204.959961" cy="1199.959961" r="19.980000" fill="red">
  <title>Dhaka</title>
</circle><line x1="1977.959961" y1="436.959991" x2="1204.959961" y2="1199.959961" stroke="red" stroke-width="6.660000" />
<circle cx="1403.959961" cy="1557.959961" r="19.980000" fill="red">
  <title>Mexico City</title>
</circle><line x1="1204.959961" y1="1199.959961" x2="1403.959961" y2="1557.959961" stroke="red" stroke-width="6.660000" />
<circle cx="1567.959961" cy="1727.959961" r="19.980000" fill="red">
  <title>Karachi</title>
</circle><line x1="1403.959961" y1="1557.959961" x2="1567.959961" y2="1727.959961" stroke="red" stroke-width="6.660000" />
<circle cx="1011.960022" cy="1667.959961" r="19.980000" fill="red">
  <title>Beijing</title>
</circle><line x1="1567.959961" y1="1727.959961" x2="1011.960022" y2="1667.959961" stroke="red" stroke-width="6.660000" />
<circle cx="427.959991" cy="2000.959961" r="19.980000" fill="red">
  <title>New York</title>
</circle><line x1="1011.960022" y1="1667.959961" x2="427.959991" y2="2000.959961" stroke="red" stroke-width="6.660000" />
<circle cx="510.959991" cy="1682.959961" r="19.980000" fill="red">
  <title>Manila</title>
</circle><line x1="427.959991" y1="2000.959961" x2="510.959991" y2="1682.959961" stroke="red" stroke-width="6.660000" />
<circle cx="572.960022" cy="1557.959961" r="19.980000" fill="red">
  <title>Lagos</title>
</circle><line x1="510.959991" y1="1682.959961" x2="572.960022" y2="1557.959961" stroke="red" stroke-width="6.660000" />
<circle cx="1004.960022" cy="1382.959961" r="19.980000" fill="red">
  <title>Chongqing</title>
</circle><line x1="572.960022" y1="1557.959961" x2="1004.960022" y2="1382.959961" stroke="red" stroke-width="6.660000" />
<circle cx="1051.959961" cy="1306.959961" r="19.980000" fill="red">
  <title>Osaka</title>
</circle><line x1="1004.960022" y1="1382.959961" x2="1051.959961" y2="1306.959961" stroke="red" stroke-width="6.660000" />
<circle cx="688.960022" cy="605.960022" r="19.980000" fill="red">
  <title>Buenos Aires</title>
</circle><line x1="1051.959961" y1="1306.959961" x2="688.960022" y2="605.960022" stroke="red" stroke-width="6.660000" />
<circle cx="319.959991" cy="565.960022" r="19.980000" fill="red">
  <title>São Paulo</title>
</circle><line x1="688.960022" y1="605.960022" x2="319.959991" y2="565.960022" stroke="red" stroke-width="6.660000" />
<circle cx="313.959991" cy="380.959991" r="19.980000" fill="red">
  <title>Cairo</title>
</circle><line x1="319.959991" y1="565.960022" x2="313.959991" y2="380.959991" stroke="red" stroke-width="6.660000" />
</svg>
