<?xml version="1.0" encoding="UTF-8" standalone="no"?>
<svg width="500" height="500" viewBox="0 0 2074.000000 2074.000000" xmlns="http://www.w3.org/2000/svg">
<rect x="19.000000" y="19.000000" width="2036.000000" height="2036.000000" fill="black" />
<circle cx="651.960022" cy="441.959991" r="19.980000" fill="red">
  <title>Tokyo</title>
</circle><line x1="1239.959961" y1="819.960022" x2="651.960022" y2="441.959991" stroke="red" stroke-width="6.660000" />
<circle cx="71.959999" cy="1045.959961" r="19.980000" fill="red">
  <title>Mexico City</title>
</circle><line x1="651.960022" y1="441.959991" x2="71.959999" y2="1045.959961" stroke="red" stroke-width="6.660000" />
<circle cx="302.959991" cy="1524.959961" r="19.980000" fill="red">
  <title>Karachi</title>
</circle><line x1="71.959999" y1="1045.959961" x2="302.959991" y2="1524.959961" stroke="red" stroke-width="6.660000" />
<circle cx="541.960022" cy="1438.959961" r="19.980000" fill="red">
  <title>Osaka</title>
</circle><line x1="302.959991" y1="1524.959961" x2="541.960022" y2="1438.959961" stroke="red" stroke-width="6.660000" />
<circle cx="605.960022" cy="1254.959961" r="19.980000" fill="red">
  <title>Shanghai</title>
</circle><line x1="541.960022" y1="1438.959961" x2="605.960022" y2="1254.959961" stroke="red" stroke-width="6.660000" />
<circle cx="1257.959961" cy="1251.959961" r="19.980000" fill="red">
  <title>Cairo</title>
</circle><line x1="605.960022" y1="1254.959961" x2="1257.959961" y2="1251.959961" stroke="red" stroke-width="6.660000" />
<circle cx="1510.959961" cy="1181.959961" r="19.980000" fill="red">
  <title>Chongqing</title>
</circle><line x1="1257.959961" y1="1251.959961" x2="1510.959961" y2="1181.959961" stroke="red" stroke-width="6.660000" />
<circle cx="1678.959961" cy="1242.959961" r="19.980000" fill="red">
  <title>Mumbai</title>
</circle><line x1="1510.959961" y1="1181.959961" x2="1678.959961" y2="1242.959961" stroke="red" stroke-width="6.660000" />
<circle cx="1954.959961" cy="966.960022" r="19.980000" fill="red">
  <title>Buenos Aires</title>
</circle><line x1="1678.959961" y1="1242.959961" x2="1954.959961" y2="966.960022" stroke="red" stroke-width="6.660000" />
<circle cx="1592.959961" cy="482.959991" r="19.980000" fill="red">
  <title>São Paulo</title>
</circle><line x1="1954.959961" y1="966.960022" x2="1592.959961" y2="482.959991" stroke="red" stroke-width="6.660000" />
<circle cx="1495.959961" cy="913.960022" r="19.980000" fill="red">
  <title>Beijing</title>
</circle><line x1="1592.959961" y1="482.959991" x2="1495.959961" y2="913.960022" stroke="red" stroke-width="6.660000" />
<circle cx="1494.959961" cy="917.960022" r="19.980000" fill="red">
  <title>New York</title>
</circle><line x1="1495.959961" y1="913.960022" x2="1494.959961" y2="917.960022" stroke="red" stroke-width="6.660000" />
<circle cx="1428.959961" cy="948.960022" r="19.980000" fill="red">
  <title>Delhi</title>
</circle><line x1="1494.959961" y1="917.960022" x2="1428.959961" y2="948.960022" stroke="red" stroke-width="6.660000" />
<circle cx="1239.959961" cy="819.960022" r="19.980000" fill="red">
  <title>Dhaka</title>
</circle><line x1="1428.959961" y1="948.960022" x2="1239.959961" y2="819.960022" stroke="red" stroke-width="6.660000" />
</svg>
