<?xml version="1.0" encoding="UTF-8" standalone="no"?>
<svg width="500" height="500" viewBox="0 0 2074.000000 2074.000000" xmlns="http://www.w3.org/2000/svg">
<rect x="19.000000" y="19.000000" width="2036.000000" height="2036.000000" fill="black" />
<circle cx="151.959991" cy="743.960022" r="19.980000" fill="red">
  <title>Tokyo</title>
</circle><line x1="292.959991" y1="1396.959961" x2="151.959991" y2="743.960022" stroke="red" stroke-width="6.660000" />
<circle cx="96.959999" cy="990.960022" r="19.980000" fill="red">
  <title>Delhi</title>
</circle><line x1="151.959991" y1="743.960022" x2="96.959999" y2="990.960022" stroke="red" stroke-width="6.660000" />
<circle cx="292.959991" cy="1396.959961" r="19.980000" fill="red">
  <title>Shanghai</title>
</circle><line x1="96.959999" y1="990.960022" x2="292.959991" y2="1396.959961" stroke="red" stroke-width="6.660000" />
</svg>
