<?xml version="1.0" encoding="UTF-8" standalone="no"?>
<svg width="500" height="500" viewBox="0 0 2074.000000 2074.000000" xmlns="http://www.w3.org/2000/svg">
<rect x="19.000000" y="19.000000" width="2036.000000" height="2036.000000" fill="black" />
<circle cx="1552.959961" cy="412.959991" r="19.980000" fill="red">
  <title>Tokyo</title>
</circle><line x1="983.960022" y1="98.959999" x2="1552.959961" y2="412.959991" stroke="red" stroke-width="6.660000" />
<circle cx="781.960022" cy="607.960022" r="19.980000" fill="red">
  <title>Delhi</title>
</circle><line x1="1552.959961" y1="412.959991" x2="781.960022" y2="607.960022" stroke="red" stroke-width="6.660000" />
<circle cx="787.960022" cy="1210.959961" r="19.980000" fill="red">
  <title>Beijing</title>
</circle><line x1="781.960022" y1="607.960022" x2="787.960022" y2="1210.959961" stroke="red" stroke-width="6.660000" />
<circle cx="1194.959961" cy="1363.959961" r="19.980000" fill="red">
  <title>Tianjin</title>
</circle><line x1="787.960022" y1="1210.959961" x2="1194.959961" y2="1363.959961" stroke="red" stroke-width="6.660000" />
<circle cx="1236.959961" cy="1444.959961" r="19.980000" fill="red">
  <title>Cairo</title>
</circle><line x1="1194.959961" y1="1363.959961" x2="1236.959961" y2="1444.959961" stroke="red" stroke-width="6.660000" />
<circle cx="1340.959961" cy="1397.959961" r="19.980000" fill="red">
  <title>Manila</title>
</circle><line x1="1236.959961" y1="1444.959961" x2="1340.959961" y2="1397.959961" stroke="red" stroke-width="6.660000" />
<circle cx="1865.959961" cy="1498.959961" r="19.980000" fill="red">
  <title>São Paulo</title>
</circle><line x1="1340.959961" y1="1397.959961" x2="1865.959961" y2="1498.959961" stroke="red" stroke-width="6.660000" />
<circle cx="2035.959961" cy="1826.959961" r="19.980000" fill="red">
  <title>Dhaka</title>
</circle><line x1="1865.959961" y1="1498.959961" x2="2035.959961" y2="1826.959961" stroke="red" stroke-width="6.660000" />
<circle cx="1686.959961" cy="1627.959961" r="19.980000" fill="red">
  <title>Buenos Aires</title>
</circle><line x1="2035.959961" y1="1826.959961" x2="1686.959961" y2="1627.959961" stroke="red" stroke-width="6.660000" />
<circle cx="1373.959961" cy="2006.959961" r="19.980000" fill="red">
  <title>Mumbai</title>
</circle><line x1="1686.959961" y1="1627.959961" x2="1373.959961" y2="2006.959961" stroke="red" stroke-width="6.660000" />
<circle cx="654.960022" cy="1700.959961" r="19.980000" fill="red">
  <title>Kolkata</title>
</circle><line x1="1373.959961" y1="2006.959961" x2="654.960022" y2="1700.959961" stroke="red" stroke-width="6.660000" />
<circle cx="432.959991" cy="1623.959961" r="19.980000" fill="red">
  <title>Shanghai</title>
</circle><line x1="654.960022" y1="1700.959961" x2="432.959991" y2="1623.959961" stroke="red" stroke-width="6.660000" />
<circle cx="270.959991" cy="1734.959961" r="19.980000" fill="red">
  <title>Lagos</title>
</circle><line x1="432.959991" y1="1623.959961" x2="270.959991" y2="1734.959961" stroke="red" stroke-width="6.660000" />
<circle cx="232.959991" cy="1439.959961" r="19.980000" fill="red">
  <title>Osaka</title>
</circle><line x1="270.959991" y1="1734.959961" x2="232.959991" y2="1439.959961" stroke="red" stroke-width="6.660000" />
<circle cx="186.959991" cy="966.960022" r="19.980000" fill="red">
  <title>Istanbul</title>
</circle><line x1="232.959991" y1="1439.959961" x2="186.959991" y2="966.960022" stroke="red" stroke-width="6.660000" />
<circle cx="62.959999" cy="733.960022" r="19.980000" fill="red">
  <title>Karachi</title>
</circle><line x1="186.959991" y1="966.960022" x2="62.959999" y2="733.960022" stroke="red" stroke-width="6.660000" />
<circle cx="284.959991" cy="735.960022" r="19.980000" fill="red">
  <title>Chongqing</title>
</circle><line x1="62.959999" y1="733.960022" x2="284.959991" y2="735.960022" stroke="red" stroke-width="6.660000" />
<circle cx="419.959991" cy="420.959991" r="19.980000" fill="red">
  <title>Mexico City</title>
</circle><line x1="284.959991" y1="735.960022" x2="419.959991" y2="420.959991" stroke="red" stroke-width="6.660000" />
<circle cx="305.959991" cy="168.959991" r="19.980000" fill="red">
  <title>New York</title>
</circle><line x1="419.959991" y1="420.959991" x2="305.959991" y2="168.959991" stroke="red" stroke-width="6.660000" />
<circle cx="983.960022" cy="98.959999" r="19.980000" fill="red">
  <title>Rio de Janeiro</title>
</circle><line x1="305.959991" y1="168.959991" x2="983.960022" y2="98.959999" stroke="red" stroke-width="6.660000" />
</svg>
