<?xml version="1.0" encoding="UTF-8" standalone="no"?>
<svg width="500" height="500" viewBox="0 0 2074.000000 2074.000000" xmlns="http://www.w3.org/2000/svg">
<rect x="19.000000" y="19.000000" width="2036.000000" height="2036.000000" fill="black" />
<circle cx="1661.959961" cy="841.960022" r="19.980000" fill="red">
  <title>Tokyo</title>
</circle><line x1="1722.959961" y1="344.959991" x2="1661.959961" y2="841.960022" stroke="red" stroke-width="6.660000" />
<circle cx="1152.959961" cy="1166.959961" r="19.980000" fill="red">
  <title>Delhi</title>
</circle><line x1="1661.959961" y1="841.960022" x2="1152.959961" y2="1166.959961" stroke="red" stroke-width="6.660000" />
<circle cx="1484.959961" cy="1753.959961" r="19.980000" fill="red">
  <title>Mexico City</title>
</circle><line x1="1152.959961" y1="1166.959961" x2="1484.959961" y2="1753.959961" stroke="red" stroke-width="6.660000" />
<circle cx="1402.959961" cy="1864.959961" r="19.980000" fill="red">
  <title>Dhaka</title>
</circle><line x1="1484.959961" y1="1753.959961" x2="1402.959961" y2="1864.959961" stroke="red" stroke-width="6.660000" />
<circle cx="699.960022" cy="1904.959961" r="19.980000" fill="red">
  <title>Beijing</title>
</circle><line x1="1402.959961" y1="1864.959961" x2="699.960022" y2="1904.959961" stroke="red" stroke-width="6.660000" />
<circle cx="682.960022" cy="933.960022" r="19.980000" fill="red">
  <title>Shanghai</title>
</circle><line x1="699.960022" y1="1904.959961" x2="682.960022" y2="933.960022" stroke="red" stroke-width="6.660000" />
<circle cx="1017.960022" cy="849.960022" r="19.980000" fill="red">
  <title>São Paulo</title>
</circle><line x1="682.960022" y1="933.960022" x2="1017.960022" y2="849.960022" stroke="red" stroke-width="6.660000" />
<circle cx="1405.959961" cy="79.959999" r="19.980000" fill="red">
  <title>Cairo</title>
</circle><line x1="1017.960022" y1="849.960022" x2="1405.959961" y2="79.959999" stroke="red" stroke-width="6.660000" />
<circle cx="1722.959961" cy="344.959991" r="19.980000" fill="red">
  <title>Mumbai</title>
</circle><line x1="1405.959961" y1="79.959999" x2="1722.959961" y2="344.959991" stroke="red" stroke-width="6.660000" />
</svg>
