<?xml version="1.0" encoding="UTF-8" standalone="no"?>
<svg width="500" height="500" viewBox="0 0 2074.000000 2074.000000" xmlns="http://www.w3.org/2000/svg">
<rect x="19.000000" y="19.000000" width="2036.000000" height="2036.000000" fill="black" />
<circle cx="531.960022" cy="816.960022" r="19.980000" fill="red">
  <title>Tokyo</title>
</circle><line x1="1374.959961" y1="1629.959961" x2="531.960022" y2="816.960022" stroke="red" stroke-width="6.660000" />
<circle cx="291.959991" cy="254.959991" r="19.980000" fill="red">
  <title>Delhi</title>
</circle><line x1="531.960022" y1="816.960022" x2="291.959991" y2="254.959991" stroke="red" stroke-width="6.660000" />
<circle cx="117.959999" cy="242.959991" r="19.980000" fill="red">
  <title>Shanghai</title>
</circle><line x1="291.959991" y1="254.959991" x2="117.959999" y2="242.959991" stroke="red" stroke-width="6.660000" />
<circle cx="49.959999" cy="583.960022" r="19.980000" fill="red">
  <title>Mexico City</title>
</circle><line x1="117.959999" y1="242.959991" x2="49.959999" y2="583.960022" stroke="red" stroke-width="6.660000" />
<circle cx="1374.959961" cy="1629.959961" r="19.980000" fill="red">
  <title>São Paulo</title>
</circle><line x1="49.959999" y1="583.960022" x2="1374.959961" y2="1629.959961" stroke="red" stroke-width="6.660000" />
</svg>
