<?xml version="1.0" encoding="UTF-8" standalone="no"?>
<svg width="500" height="500" viewBox="0 0 2074.000000 2074.000000" xmlns="http://www.w3.org/2000/svg">
<rect x="19.000000" y="19.000000" width="2036.000000" height="2036.000000" fill="black" />
<circle cx="323.959991" cy="1689.959961" r="19.980000" fill="red">
  <title>Tokyo</title>
</circle><line x1="565.960022" y1="1552.959961" x2="323.959991" y2="1689.959961" stroke="red" stroke-width="6.660000" />
<circle cx="463.959991" cy="1562.959961" r="19.980000" fill="red">
  <title>Cairo</title>
</circle><line x1="323.959991" y1="1689.959961" x2="463.959991" y2="1562.959961" stroke="red" stroke-width="6.660000" />
<circle cx="377.959991" cy="1166.959961" r="19.980000" fill="red">
  <title>Mexico City</title>
</circle><line x1="463.959991" y1="1562.959961" x2="377.959991" y2="1166.959961" stroke="red" stroke-width="6.660000" />
<circle cx="551.960022" cy="1161.959961" r="19.980000" fill="red">
  <title>Beijing</title>
</circle><line x1="377.959991" y1="1166.959961" x2="551.960022" y2="1161.959961" stroke="red" stroke-width="6.660000" />
<circle cx="483.959991" cy="943.960022" r="19.980000" fill="red">
  <title>New York</title>
</circle><line x1="551.960022" y1="1161.959961" x2="483.959991" y2="943.960022" stroke="red" stroke-width="6.660000" />
<circle cx="540.960022" cy="576.960022" r="19.980000" fill="red">
  <title>Osaka</title>
</circle><line x1="483.959991" y1="943.960022" x2="540.960022" y2="576.960022" stroke="red" stroke-width="6.660000" />
<circle cx="320.959991" cy="221.959991" r="19.980000" fill="red">
  <title>Shanghai</title>
</circle><line x1="540.960022" y1="576.960022" x2="320.959991" y2="221.959991" stroke="red" stroke-width="6.660000" />
<circle cx="851.960022" cy="296.959991" r="19.980000" fill="red">
  <title>Dhaka</title>
</circle><line x1="320.959991" y1="221.959991" x2="851.960022" y2="296.959991" stroke="red" stroke-width="6.660000" />
<circle cx="984.960022" cy="461.959991" r="19.980000" fill="red">
  <title>Karachi</title>
</circle><line x1="851.960022" y1="296.959991" x2="984.960022" y2="461.959991" stroke="red" stroke-width="6.660000" />
<circle cx="1261.959961" cy="340.959991" r="19.980000" fill="red">
  <title>São Paulo</title>
</circle><line x1="984.960022" y1="461.959991" x2="1261.959961" y2="340.959991" stroke="red" stroke-width="6.660000" />
<circle cx="1978.959961" cy="873.960022" r="19.980000" fill="red">
  <title>Delhi</title>
</circle><line x1="1261.959961" y1="340.959991" x2="1978.959961" y2="873.960022" stroke="red" stroke-width="6.660000" />
<circle cx="1968.959961" cy="1423.959961" r="19.980000" fill="red">
  <title>Buenos Aires</title>
</circle><line x1="1978.959961" y1="873.960022" x2="1968.959961" y2="1423.959961" stroke="red" stroke-width="6.660000" />
<circle cx="565.960022" cy="1552.959961" r="19.980000" fill="red">
  <title>Mumbai</title>
</circle><line x1="1968.959961" y1="1423.959961" x2="565.960022" y2="1552.959961" stroke="red" stroke-width="6.660000" />
</svg>
