<?xml version="1.0" encoding="UTF-8" standalone="no"?>
<svg width="500" height="500" viewBox="0 0 2074.000000 2074.000000" xmlns="http://www.w3.org/2000/svg">
<rect x="19.000000" y="19.000000" width="2036.000000" height="2036.000000" fill="black" />
<circle cx="1615.959961" cy="1014.960022" r="19.980000" fill="red">
  <title>Tokyo</title>
</circle><line x1="1552.959961" y1="1190.959961" x2="1615.959961" y2="1014.960022" stroke="red" stroke-width="6.660000" />
<circle cx="1559.959961" cy="917.960022" r="19.980000" fill="red">
  <title>Shanghai</title>
</circle><line x1="1615.959961" y1="1014.960022" x2="1559.959961" y2="917.960022" stroke="red" stroke-width="6.660000" />
<circle cx="1355.959961" cy="996.960022" r="19.980000" fill="red">
  <title>Mexico City</title>
</circle><line x1="1559.959961" y1="917.960022" x2="1355.959961" y2="996.960022" stroke="red" stroke-width="6.660000" />
<circle cx="1259.959961" cy="1143.959961" r="19.980000" fill="red">
  <title>Karachi</title>
</circle><line x1="1355.959961" y1="996.960022" x2="1259.959961" y2="1143.959961" stroke="red" stroke-width="6.660000" />
<circle cx="1148.959961" cy="1057.959961" r="19.980000" fill="red">
  <title>Cairo</title>
</circle><line x1="1259.959961" y1="1143.959961" x2="1148.959961" y2="1057.959961" stroke="red" stroke-width="6.660000" />
<circle cx="1176.959961" cy="608.960022" r="19.980000" fill="red">
  <title>Buenos Aires</title>
</circle><line x1="1148.959961" y1="1057.959961" x2="1176.959961" y2="608.960022" stroke="red" stroke-width="6.660000" />
<circle cx="1105.959961" cy="583.960022" r="19.980000" fill="red">
  <title>New York</title>
</circle><line x1="1176.959961" y1="608.960022" x2="1105.959961" y2="583.960022" stroke="red" stroke-width="6.660000" />
<circle cx="682.960022" cy="51.959999" r="19.980000" fill="red">
  <title>Tianjin</title>
</circle><line x1="1105.959961" y1="583.960022" x2="682.960022" y2="51.959999" stroke="red" stroke-width="6.660000" />
<circle cx="134.959991" cy="209.959991" r="19.980000" fill="red">
  <title>Beijing</title>
</circle><line x1="682.960022" y1="51.959999" x2="134.959991" y2="209.959991" stroke="red" stroke-width="6.660000" />
<circle cx="733.960022" cy="632.960022" r="19.980000" fill="red">
  <title>Rio de Janeiro</title>
</circle><line x1="134.959991" y1="209.959991" x2="733.960022" y2="632.960022" stroke="red" stroke-width="6.660000" />
<circle cx="867.960022" cy="800.960022" r="19.980000" fill="red">
  <title>São Paulo</title>
</circle><line x1="733.960022" y1="632.960022" x2="867.960022" y2="800.960022" stroke="red" stroke-width="6.660000" />
<circle cx="727.960022" cy="1049.959961" r="19.980000" fill="red">
  <title>Osaka</title>
</circle><line x1="867.960022" y1="800.960022" x2="727.960022" y2="1049.959961" stroke="red" stroke-width="6.660000" />
<circle cx="408.959991" cy="1422.959961" r="19.980000" fill="red">
  <title>Istanbul</title>
</circle><line x1="727.960022" y1="1049.959961" x2="408.959991" y2="1422.959961" stroke="red" stroke-width="6.660000" />
<circle cx="399.959991" cy="1853.959961" r="19.980000" fill="red">
  <title>Manila</title>
</circle><line x1="408.959991" y1="1422.959961" x2="399.959991" y2="1853.959961" stroke="red" stroke-width="6.660000" />
<circle cx="879.960022" cy="1972.959961" r="19.980000" fill="red">
  <title>Chongqing</title>
</circle><line x1="399.959991" y1="1853.959961" x2="879.960022" y2="1972.959961" stroke="red" stroke-width="6.660000" />
<circle cx="1803.959961" cy="1919.959961" r="19.980000" fill="red">
  <title>Lagos</title>
</circle><line x1="879.960022" y1="1972.959961" x2="1803.959961" y2="1919.959961" stroke="red" stroke-width="6.660000" />
<circle cx="1910.959961" cy="1985.959961" r="19.980000" fill="red">
  <title>Kolkata</title>
</circle><line x1="1803.959961" y1="1919.959961" x2="1910.959961" y2="1985.959961" stroke="red" stroke-width="6.660000" />
<circle cx="1950.959961" cy="1990.959961" r="19.980000" fill="red">
  <title>Mumbai</title>
</circle><line x1="1910.959961" y1="1985.959961" x2="1950.959961" y2="1990.959961" stroke="red" stroke-width="6.660000" />
<circle cx="1981.959961" cy="1855.959961" r="19.980000" fill="red">
  <title>Delhi</title>
</circle><line x1="1950.959961" y1="1990.959961" x2="1981.959961" y2="1855.959961" stroke="red" stroke-width="6.660000" />
<circle cx="1552.959961" cy="1190.959961" r="19.980000" fill="red">
  <title>Dhaka</title>
</circle><line x1="1981.959961" y1="1855.959961" x2="1552.959961" y2="1190.959961" stroke="red" stroke-width="6.660000" />
</svg>
