<?xml version="1.0" encoding="UTF-8" standalone="no"?>
<svg width="500" height="500" viewBox="0 0 2074.000000 2074.000000" xmlns="http://www.w3.org/2000/svg">
<rect x="19.000000" y="19.000000" width="2036.000000" height="2036.000000" fill="black" />
<circle cx="1417.959961" cy="533.960022" r="19.980000" fill="red">
  <title>Tokyo</title>
</circle><line x1="1220.959961" y1="998.960022" x2="1417.959961" y2="533.960022" stroke="red" stroke-width="6.660000" />
<circle cx="1891.959961" cy="513.960022" r="19.980000" fill="red">
  <title>Shanghai</title>
</circle><line x1="1417.959961" y1="533.960022" x2="1891.959961" y2="513.960022" stroke="red" stroke-width="6.660000" />
<circle cx="1892.959961" cy="263.959991" r="19.980000" fill="red">
  <title>Osaka</title>
</circle><line x1="1891.959961" y1="513.960022" x2="1892.959961" y2="263.959991" stroke="red" stroke-width="6.660000" />
<circle cx="1821.959961" cy="259.959991" r="19.980000" fill="red">
  <title>Karachi</title>
</circle><line x1="1892.959961" y1="263.959991" x2="1821.959961" y2="259.959991" stroke="red" stroke-width="6.660000" />
<circle cx="1630.959961" cy="64.959999" r="19.980000" fill="red">
  <title>Cairo</title>
</circle><line x1="1821.959961" y1="259.959991" x2="1630.959961" y2="64.959999" stroke="red" stroke-width="6.660000" />
<circle cx="503.959991" cy="53.959999" r="19.980000" fill="red">
  <title>Buenos Aires</title>
</circle><line x1="1630.959961" y1="64.959999" x2="503.959991" y2="53.959999" stroke="red" stroke-width="6.660000" />
<circle cx="465.959991" cy="272.959991" r="19.980000" fill="red">
  <title>Istanbul</title>
</circle><line x1="503.959991" y1="53.959999" x2="465.959991" y2="272.959991" stroke="red" stroke-width="6.660000" />
<circle cx="375.959991" cy="679.960022" r="19.980000" fill="red">
  <title>Delhi</title>
</circle><line x1="465.959991" y1="272.959991" x2="375.959991" y2="679.960022" stroke="red" stroke-width="6.660000" />
<circle cx="331.959991" cy="1130.959961" r="19.980000" fill="red">
  <title>New York</title>
</circle><line x1="375.959991" y1="679.960022" x2="331.959991" y2="1130.959961" stroke="red" stroke-width="6.660000" />
<circle cx="479.959991" cy="1844.959961" r="19.980000" fill="red">
  <title>Kolkata</title>
</circle><line x1="331.959991" y1="1130.959961" x2="479.959991" y2="1844.959961" stroke="red" stroke-width="6.660000" />
<circle cx="1155.959961" cy="1417.959961" r="19.980000" fill="red">
  <title>São Paulo</title>
</circle><line x1="479.959991" y1="1844.959961" x2="1155.959961" y2="1417.959961" stroke="red" stroke-width="6.660000" />
<circle cx="1877.959961" cy="1974.959961" r="19.980000" fill="red">
  <title>Dhaka</title>
</circle><line x1="1155.959961" y1="1417.959961" x2="1877.959961" y2="1974.959961" stroke="red" stroke-width="6.660000" />
<circle cx="1471.959961" cy="987.960022" r="19.980000" fill="red">
  <title>Beijing</title>
</circle><line x1="1877.959961" y1="1974.959961" x2="1471.959961" y2="987.960022" stroke="red" stroke-width="6.660000" />
<circle cx="1083.959961" cy="1045.959961" r="19.980000" fill="red">
  <title>Mexico City</title>
</circle><line x1="1471.959961" y1="987.960022" x2="1083.959961" y2="1045.959961" stroke="red" stroke-width="6.660000" />
<circle cx="982.960022" cy="1033.959961" r="19.980000" fill="red">
  <title>Mumbai</title>
</circle><line x1="1083.959961" y1="1045.959961" x2="982.960022" y2="1033.959961" stroke="red" stroke-width="6.660000" />
<circle cx="1220.959961" cy="998.960022" r="19.980000" fill="red">
  <title>Chongqing</title>
</circle><line x1="982.960022" y1="1033.959961" x2="1220.959961" y2="998.960022" stroke="red" stroke-width="6.660000" />
</svg>
