<?xml version="1.0" encoding="UTF-8" standalone="no"?>
<svg width="500" height="500" viewBox="0 0 2074.000000 2074.000000" xmlns="http://www.w3.org/2000/svg">
<rect x="19.000000" y="19.000000" width="2036.000000" height="2036.000000" fill="black" />
<circle cx="1128.959961" cy="1659.959961" r="19.980000" fill="red">
  <title>Tokyo</title>
</circle><line x1="654.960022" y1="1906.959961" x2="1128.959961" y2="1659.959961" stroke="red" stroke-width="6.660000" />
<circle cx="961.960022" cy="687.960022" r="19.980000" fill="red">
  <title>Delhi</title>
</circle><line x1="1128.959961" y1="1659.959961" x2="961.960022" y2="687.960022" stroke="red" stroke-width="6.660000" />
<circle cx="85.959999" cy="995.960022" r="19.980000" fill="red">
  <title>São Paulo</title>
</circle><line x1="961.960022" y1="687.960022" x2="85.959999" y2="995.960022" stroke="red" stroke-width="6.660000" />
<circle cx="654.960022" cy="1906.959961" r="19.980000" fill="red">
  <title>Shanghai</title>
</circle><line x1="85.959999" y1="995.960022" x2="654.960022" y2="1906.959961" stroke="red" stroke-width="6.660000" />
</svg>
