<?xml version="1.0" encoding="UTF-8" standalone="no"?>
<svg width="500" height="500" viewBox="0 0 2074.000000 2074.000000" xmlns="http://www.w3.org/2000/svg">
<rect x="19.000000" y="19.000000" width="2036.000000" height="2036.000000" fill="black" />
<circle cx="262.959991" cy="524.960022" r="19.980000" fill="red">
  <title>Tokyo</title>
</circle><line x1="706.960022" y1="452.959991" x2="262.959991" y2="524.960022" stroke="red" stroke-width="6.660000" />
<circle cx="183.959991" cy="818.960022" r="19.980000" fill="red">
  <title>Shanghai</title>
</circle><line x1="262.959991" y1="524.960022" x2="183.959991" y2="818.960022" stroke="red" stroke-width="6.660000" />
<circle cx="410.959991" cy="1883.959961" r="19.980000" fill="red">
  <title>New York</title>
</circle><line x1="183.959991" y1="818.960022" x2="410.959991" y2="1883.959961" stroke="red" stroke-width="6.660000" />
<circle cx="849.960022" cy="1219.959961" r="19.980000" fill="red">
  <title>Delhi</title>
</circle><line x1="410.959991" y1="1883.959961" x2="849.960022" y2="1219.959961" stroke="red" stroke-width="6.660000" />
<circle cx="968.960022" cy="1214.959961" r="19.980000" fill="red">
  <title>Mumbai</title>
</circle><line x1="849.960022" y1="1219.959961" x2="968.960022" y2="1214.959961" stroke="red" stroke-width="6.660000" />
<circle cx="1079.959961" cy="1448.959961" r="19.980000" fill="red">
  <title>São Paulo</title>
</circle><line x1="968.960022" y1="1214.959961" x2="1079.959961" y2="1448.959961" stroke="red" stroke-width="6.660000" />
<circle cx="1314.959961" cy="1405.959961" r="19.980000" fill="red">
  <title>Karachi</title>
</circle><line x1="1079.959961" y1="1448.959961" x2="1314.959961" y2="1405.959961" stroke="red" stroke-width="6.660000" />
<circle cx="1651.959961" cy="1945.959961" r="19.980000" fill="red">
  <title>Cairo</title>
</circle><line x1="1314.959961" y1="1405.959961" x2="1651.959961" y2="1945.959961" stroke="red" stroke-width="6.660000" />
<circle cx="2021.959961" cy="1805.959961" r="19.980000" fill="red">
  <title>Beijing</title>
</circle><line x1="1651.959961" y1="1945.959961" x2="2021.959961" y2="1805.959961" stroke="red" stroke-width="6.660000" />
<circle cx="1782.959961" cy="805.960022" r="19.980000" fill="red">
  <title>Osaka</title>
</circle><line x1="2021.959961" y1="1805.959961" x2="1782.959961" y2="805.960022" stroke="red" stroke-width="6.660000" />
<circle cx="1549.959961" cy="172.959991" r="19.980000" fill="red">
  <title>Mexico City</title>
</circle><line x1="1782.959961" y1="805.960022" x2="1549.959961" y2="172.959991" stroke="red" stroke-width="6.660000" />
<circle cx="706.960022" cy="452.959991" r="19.980000" fill="red">
  <title>Dhaka</title>
</circle><line x1="1549.959961" y1="172.959991" x2="706.960022" y2="452.959991" stroke="red" stroke-width="6.660000" />
</svg>
