<?xml version="1.0" encoding="UTF-8" standalone="no"?>
<svg width="500" height="500" viewBox="0 0 2074.000000 2074.000000" xmlns="http://www.w3.org/2000/svg">
<rect x="19.000000" y="19.000000" width="2036.000000" height="2036.000000" fill="black" />
<circle cx="803.960022" cy="40.959999" r="19.980000" fill="red">
  <title>Tokyo</title>
</circle><line x1="802.960022" y1="441.959991" x2="803.960022" y2="40.959999" stroke="red" stroke-width="6.660000" />
<circle cx="1320.959961" cy="219.959991" r="19.980000" fill="red">
  <title>Cairo</title>
</circle><line x1="803.960022" y1="40.959999" x2="1320.959961" y2="219.959991" stroke="red" stroke-width="6.660000" />
<circle cx="1666.959961" cy="287.959991" r="19.980000" fill="red">
  <title>Beijing</title>
</circle><line x1="1320.959961" y1="219.959991" x2="1666.959961" y2="287.959991" stroke="red" stroke-width="6.660000" />
<circle cx="1365.959961" cy="541.960022" r="19.980000" fill="red">
  <title>Buenos Aires</title>
</circle><line x1="1666.959961" y1="287.959991" x2="1365.959961" y2="541.960022" stroke="red" stroke-width="6.660000" />
<circle cx="1449.959961" cy="687.960022" r="19.980000" fill="red">
  <title>Mumbai</title>
</circle><line x1="1365.959961" y1="541.960022" x2="1449.959961" y2="687.960022" stroke="red" stroke-width="6.660000" />
<circle cx="1707.959961" cy="706.960022" r="19.980000" fill="red">
  <title>Karachi</title>
</circle><line x1="1449.959961" y1="687.960022" x2="1707.959961" y2="706.960022" stroke="red" stroke-width="6.660000" />
<circle cx="1875.959961" cy="870.960022" r="19.980000" fill="red">
  <title>Chongqing</title>
</circle><line x1="1707.959961" y1="706.960022" x2="1875.959961" y2="870.960022" stroke="red" stroke-width="6.660000" />
<circle cx="1944.959961" cy="1260.959961" r="19.980000" fill="red">
  <title>Mexico City</title>
</circle><line x1="1875.959961" y1="870.960022" x2="1944.959961" y2="1260.959961" stroke="red" stroke-width="6.660000" />
<circle cx="1908.959961" cy="1331.959961" r="19.980000" fill="red">
  <title>Shanghai</title>
</circle><line x1="1944.959961" y1="1260.959961" x2="1908.959961" y2="1331.959961" stroke="red" stroke-width="6.660000" />
<circle cx="2032.959961" cy="1711.959961" r="19.980000" fill="red">
  <title>Istanbul</title>
</circle><line x1="1908.959961" y1="1331.959961" x2="2032.959961" y2="1711.959961" stroke="red" stroke-width="6.660000" />
<circle cx="1829.959961" cy="1857.959961" r="19.980000" fill="red">
  <title>São Paulo</title>
</circle><line x1="2032.959961" y1="1711.959961" x2="1829.959961" y2="1857.959961" stroke="red" stroke-width="6.660000" />
<circle cx="1712.959961" cy="1875.959961" r="19.980000" fill="red">
  <title>Manila</title>
</circle><line x1="1829.959961" y1="1857.959961" x2="1712.959961" y2="1875.959961" stroke="red" stroke-width="6.660000" />
<circle cx="1126.959961" cy="1966.959961" r="19.980000" fill="red">
  <title>New York</title>
</circle><line x1="1712.959961" y1="1875.959961" x2="1126.959961" y2="1966.959961" stroke="red" stroke-width="6.660000" />
<circle cx="1291.959961" cy="1583.959961" r="19.980000" fill="red">
  <title>Lagos</title>
</circle><line x1="1126.959961" y1="1966.959961" x2="1291.959961" y2="1583.959961" stroke="red" stroke-width="6.660000" />
<circle cx="1402.959961" cy="1075.959961" r="19.980000" fill="red">
  <title>Tianjin</title>
</circle><line x1="1291.959961" y1="1583.959961" x2="1402.959961" y2="1075.959961" stroke="red" stroke-width="6.660000" />
<circle cx="1168.959961" cy="1082.959961" r="19.980000" fill="red">
  <title>Rio de Janeiro</title>
</circle><line x1="1402.959961" y1="1075.959961" x2="1168.959961" y2="1082.959961" stroke="red" stroke-width="6.660000" />
<circle cx="1066.959961" cy="868.960022" r="19.980000" fill="red">
  <title>Dhaka</title>
</circle><line x1="1168.959961" y1="1082.959961" x2="1066.959961" y2="868.960022" stroke="red" stroke-width="6.660000" />
<circle cx="836.960022" cy="798.960022" r="19.980000" fill="red">
  <title>Kolkata</title>
</circle><line x1="1066.959961" y1="868.960022" x2="836.960022" y2="798.960022" stroke="red" stroke-width="6.660000" />
<circle cx="1077.959961" cy="532.960022" r="19.980000" fill="red">
  <title>Delhi</title>
</circle><line x1="836.960022" y1="798.960022" x2="1077.959961" y2="532.960022" stroke="red" stroke-width="6.660000" />
<circle cx="802.960022" cy="441.959991" r="19.980000" fill="red">
  <title>Osaka</title>
</circle><line x1="1077.959961" y1="532.960022" x2="802.960022" y2="441.959991" stroke="red" stroke-width="6.660000" />
</svg>
