<?xml version="1.0" encoding="UTF-8" standalone="no"?>
<svg width="500" height="500" viewBox="0 0 2074.000000 2074.000000" xmlns="http://www.w3.org/2000/svg">
<rect x="19.000000" y="19.000000" width="2036.000000" height="2036.000000" fill="black" />
<circle cx="655.960022" cy="1151.959961" r="19.980000" fill="red">
  <title>Tokyo</title>
</circle><line x1="380.959991" y1="1666.959961" x2="655.960022" y2="1151.959961" stroke="red" stroke-width="6.660000" />
<circle cx="688.960022" cy="1049.959961" r="19.980000" fill="red">
  <title>Delhi</title>
</circle><line x1="655.960022" y1="1151.959961" x2="688.960022" y2="1049.959961" stroke="red" stroke-width="6.660000" />
<circle cx="716.960022" cy="674.960022" r="19.980000" fill="red">
  <title>Manila</title>
</circle><line x1="688.960022" y1="1049.959961" x2="716.960022" y2="674.960022" stroke="red" stroke-width="6.660000" />
<circle cx="686.960022" cy="540.960022" r="19.980000" fill="red">
  <title>Karachi</title>
</circle><line x1="716.960022" y1="674.960022" x2="686.960022" y2="540.960022" stroke="red" stroke-width="6.660000" />
<circle cx="290.959991" cy="535.960022" r="19.980000" fill="red">
  <title>Cairo</title>
</circle><line x1="686.960022" y1="540.960022" x2="290.959991" y2="535.960022" stroke="red" stroke-width="6.660000" />
<circle cx="281.959991" cy="242.959991" r="19.980000" fill="red">
  <title>Chongqing</title>
</circle><line x1="290.959991" y1="535.960022" x2="281.959991" y2="242.959991" stroke="red" stroke-width="6.660000" />
<circle cx="760.960022" cy="261.959991" r="19.980000" fill="red">
  <title>Mumbai</title>
</circle><line x1="281.959991" y1="242.959991" x2="760.960022" y2="261.959991" stroke="red" stroke-width="6.660000" />
<circle cx="851.960022" cy="247.959991" r="19.980000" fill="red">
  <title>São Paulo</title>
</circle><line x1="760.960022" y1="261.959991" x2="851.960022" y2="247.959991" stroke="red" stroke-width="6.660000" />
<circle cx="965.960022" cy="636.960022" r="19.980000" fill="red">
  <title>Shanghai</title>
</circle><line x1="851.960022" y1="247.959991" x2="965.960022" y2="636.960022" stroke="red" stroke-width="6.660000" />
<circle cx="1167.959961" cy="779.960022" r="19.980000" fill="red">
  <title>Beijing</title>
</circle><line x1="965.960022" y1="636.960022" x2="1167.959961" y2="779.960022" stroke="red" stroke-width="6.660000" />
<circle cx="1272.959961" cy="421.959991" r="19.980000" fill="red">
  <title>Rio de Janeiro</title>
</circle><line x1="1167.959961" y1="779.960022" x2="1272.959961" y2="421.959991" stroke="red" stroke-width="6.660000" />
<circle cx="1265.959961" cy="379.959991" r="19.980000" fill="red">
  <title>Buenos Aires</title>
</circle><line x1="1272.959961" y1="421.959991" x2="1265.959961" y2="379.959991" stroke="red" stroke-width="6.660000" />
<circle cx="2023.959961" cy="598.960022" r="19.980000" fill="red">
  <title>Kolkata</title>
</circle><line x1="1265.959961" y1="379.959991" x2="2023.959961" y2="598.960022" stroke="red" stroke-width="6.660000" />
<circle cx="1926.959961" cy="1132.959961" r="19.980000" fill="red">
  <title>Osaka</title>
</circle><line x1="2023.959961" y1="598.960022" x2="1926.959961" y2="1132.959961" stroke="red" stroke-width="6.660000" />
<circle cx="1649.959961" cy="1266.959961" r="19.980000" fill="red">
  <title>Mexico City</title>
</circle><line x1="1926.959961" y1="1132.959961" x2="1649.959961" y2="1266.959961" stroke="red" stroke-width="6.660000" />
<circle cx="1980.959961" cy="1602.959961" r="19.980000" fill="red">
  <title>Istanbul</title>
</circle><line x1="1649.959961" y1="1266.959961" x2="1980.959961" y2="1602.959961" stroke="red" stroke-width="6.660000" />
<circle cx="1608.959961" cy="1642.959961" r="19.980000" fill="red">
  <title>Lagos</title>
</circle><line x1="1980.959961" y1="1602.959961" x2="1608.959961" y2="1642.959961" stroke="red" stroke-width="6.660000" />
<circle cx="1400.959961" cy="1756.959961" r="19.980000" fill="red">
  <title>Dhaka</title>
</circle><line x1="1608.959961" y1="1642.959961" x2="1400.959961" y2="1756.959961" stroke="red" stroke-width="6.660000" />
<circle cx="380.959991" cy="1666.959961" r="19.980000" fill="red">
  <title>New York</title>
</circle><line x1="1400.959961" y1="1756.959961" x2="380.959991" y2="1666.959961" stroke="red" stroke-width="6.660000" />
</svg>
