<?xml version="1.0" encoding="UTF-8" standalone="no"?>
<svg width="500" height="500" viewBox="0 0 2074.000000 2074.000000" xmlns="http://www.w3.org/2000/svg">
<rect x="19.000000" y="19.000000" width="2036.000000" height="2036.000000" fill="black" />
<circle cx="582.960022" cy="481.959991" r="19.980000" fill="red">
  <title>Tokyo</title>
</circle><line x1="684.960022" y1="228.959991" x2="582.960022" y2="481.959991" stroke="red" stroke-width="6.660000" />
<circle cx="86.959999" cy="912.960022" r="19.980000" fill="red">
  <title>Mumbai</title>
</circle><line x1="582.960022" y1="481.959991" x2="86.959999" y2="912.960022" stroke="red" stroke-width="6.660000" />
<circle cx="364.959991" cy="1622.959961" r="19.980000" fill="red">
  <title>Shanghai</title>
</circle><line x1="86.959999" y1="912.960022" x2="364.959991" y2="1622.959961" stroke="red" stroke-width="6.660000" />
<circle cx="471.959991" cy="2018.959961" r="19.980000" fill="red">
  <title>Dhaka</title>
</circle><line x1="364.959991" y1="1622.959961" x2="471.959991" y2="2018.959961" stroke="red" stroke-width="6.660000" />
<circle cx="565.960022" cy="2013.959961" r="19.980000" fill="red">
  <title>São Paulo</title>
</circle><line x1="471.959991" y1="2018.959961" x2="565.960022" y2="2013.959961" stroke="red" stroke-width="6.660000" />
<circle cx="1175.959961" cy="1324.959961" r="19.980000" fill="red">
  <title>Delhi</title>
</circle><line x1="565.960022" y1="2013.959961" x2="1175.959961" y2="1324.959961" stroke="red" stroke-width="6.660000" />
<circle cx="1401.959961" cy="218.959991" r="19.980000" fill="red">
  <title>Mexico City</title>
</circle><line x1="1175.959961" y1="1324.959961" x2="1401.959961" y2="218.959991" stroke="red" stroke-width="6.660000" />
<circle cx="684.960022" cy="173.959991" r="19.980000" fill="red">
  <title>Cairo</title>
</circle><line x1="1401.959961" y1="218.959991" x2="684.960022" y2="173.959991" stroke="red" stroke-width="6.660000" />
<circle cx="684.960022" cy="228.959991" r="19.980000" fill="red">
  <title>Beijing</title>
</circle><line x1="684.960022" y1="173.959991" x2="684.960022" y2="228.959991" stroke="red" stroke-width="6.660000" />
</svg>
