<?xml version="1.0" encoding="UTF-8" standalone="no"?>
<svg width="500" height="500" viewBox="0 0 2074.000000 2074.000000" xmlns="http://www.w3.org/2000/svg">
<rect x="19.000000" y="19.000000" width="2036.000000" height="2036.000000" fill="black" />
<circle cx="286.959991" cy="1669.959961" r="19.980000" fill="red">
  <title>Tokyo</title>
</circle><line x1="474.959991" y1="1786.959961" x2="286.959991" y2="1669.959961" stroke="red" stroke-width="6.660000" />
<circle cx="329.959991" cy="1557.959961" r="19.980000" fill="red">
  <title>Cairo</title>
</circle><line x1="286.959991" y1="1669.959961" x2="329.959991" y2="1557.959961" stroke="red" stroke-width="6.660000" />
<circle cx="117.959999" cy="1244.959961" r="19.980000" fill="red">
  <title>Manila</title>
</circle><line x1="329.959991" y1="1557.959961" x2="117.959999" y2="1244.959961" stroke="red" stroke-width="6.660000" />
<circle cx="249.959991" cy="907.960022" r="19.980000" fill="red">
  <title>New York</title>
</circle><line x1="117.959999" y1="1244.959961" x2="249.959991" y2="907.960022" stroke="red" stroke-width="6.660000" />
<circle cx="141.959991" cy="485.959991" r="19.980000" fill="red">
  <title>Istanbul</title>
</circle><line x1="249.959991" y1="907.960022" x2="141.959991" y2="485.959991" stroke="red" stroke-width="6.660000" />
<circle cx="433.959991" cy="604.960022" r="19.980000" fill="red">
  <title>Karachi</title>
</circle><line x1="141.959991" y1="485.959991" x2="433.959991" y2="604.960022" stroke="red" stroke-width="6.660000" />
<circle cx="536.960022" cy="826.960022" r="19.980000" fill="red">
  <title>Lagos</title>
</circle><line x1="433.959991" y1="604.960022" x2="536.960022" y2="826.960022" stroke="red" stroke-width="6.660000" />
<circle cx="643.960022" cy="625.960022" r="19.980000" fill="red">
  <title>Dhaka</title>
</circle><line x1="536.960022" y1="826.960022" x2="643.960022" y2="625.960022" stroke="red" stroke-width="6.660000" />
<circle cx="936.960022" cy="492.959991" r="19.980000" fill="red">
  <title>Buenos Aires</title>
</circle><line x1="643.960022" y1="625.960022" x2="936.960022" y2="492.959991" stroke="red" stroke-width="6.660000" />
<circle cx="748.960022" cy="55.959999" r="19.980000" fill="red">
  <title>Shanghai</title>
</circle><line x1="936.960022" y1="492.959991" x2="748.960022" y2="55.959999" stroke="red" stroke-width="6.660000" />
<circle cx="1639.959961" cy="186.959991" r="19.980000" fill="red">
  <title>Delhi</title>
</circle><line x1="748.960022" y1="55.959999" x2="1639.959961" y2="186.959991" stroke="red" stroke-width="6.660000" />
<circle cx="1643.959961" cy="388.959991" r="19.980000" fill="red">
  <title>Kolkata</title>
</circle><line x1="1639.959961" y1="186.959991" x2="1643.959961" y2="388.959991" stroke="red" stroke-width="6.660000" />
<circle cx="1027.959961" cy="625.960022" r="19.980000" fill="red">
  <title>São Paulo</title>
</circle><line x1="1643.959961" y1="388.959991" x2="1027.959961" y2="625.960022" stroke="red" stroke-width="6.660000" />
<circle cx="1027.959961" cy="1230.959961" r="19.980000" fill="red">
  <title>Osaka</title>
</circle><line x1="1027.959961" y1="625.960022" x2="1027.959961" y2="1230.959961" stroke="red" stroke-width="6.660000" />
<circle cx="788.960022" cy="1384.959961" r="19.980000" fill="red">
  <title>Mexico City</title>
</circle><line x1="1027.959961" y1="1230.959961" x2="788.960022" y2="1384.959961" stroke="red" stroke-width="6.660000" />
<circle cx="1261.959961" cy="1524.959961" r="19.980000" fill="red">
  <title>Rio de Janeiro</title>
</circle><line x1="788.960022" y1="1384.959961" x2="1261.959961" y2="1524.959961" stroke="red" stroke-width="6.660000" />
<circle cx="1413.959961" cy="2010.959961" r="19.980000" fill="red">
  <title>Tianjin</title>
</circle><line x1="1261.959961" y1="1524.959961" x2="1413.959961" y2="2010.959961" stroke="red" stroke-width="6.660000" />
<circle cx="690.960022" cy="1871.959961" r="19.980000" fill="red">
  <title>Beijing</title>
</circle><line x1="1413.959961" y1="2010.959961" x2="690.960022" y2="1871.959961" stroke="red" stroke-width="6.660000" />
<circle cx="625.960022" cy="1718.959961" r="19.980000" fill="red">
  <title>Chongqing</title>
</circle><line x1="690.960022" y1="1871.959961" x2="625.960022" y2="1718.959961" stroke="red" stroke-width="6.660000" />
<circle cx="474.959991" cy="1786.959961" r="19.980000" fill="red">
  <title>Mumbai</title>
</circle><line x1="625.960022" y1="1718.959961" x2="474.959991" y2="1786.959961" stroke="red" stroke-width="6.660000" />
</svg>
