<?xml version="1.0" encoding="UTF-8" standalone="no"?>
<svg width="500" height="500" viewBox="0 0 2074.000000 2074.000000" xmlns="http://www.w3.org/2000/svg">
<rect x="19.000000" y="19.000000" width="2036.000000" height="2036.000000" fill="black" />
<circle cx="1379.959961" cy="125.959999" r="19.980000" fill="red">
  <title>Tokyo</title>
</circle><line x1="827.960022" y1="282.959991" x2="1379.959961" y2="125.959999" stroke="red" stroke-width="6.660000" />
<circle cx="1707.959961" cy="539.960022" r="19.980000" fill="red">
  <title>Buenos Aires</title>
</circle><line x1="1379.959961" y1="125.959999" x2="1707.959961" y2="539.960022" stroke="red" stroke-width="6.660000" />
<circle cx="2003.959961" cy="1208.959961" r="19.980000" fill="red">
  <title>Karachi</title>
</circle><line x1="1707.959961" y1="539.960022" x2="2003.959961" y2="1208.959961" stroke="red" stroke-width="6.660000" />
<circle cx="1745.959961" cy="1448.959961" r="19.980000" fill="red">
  <title>Beijing</title>
</circle><line x1="2003.959961" y1="1208.959961" x2="1745.959961" y2="1448.959961" stroke="red" stroke-width="6.660000" />
<circle cx="1677.959961" cy="2007.959961" r="19.980000" fill="red">
  <title>Dhaka</title>
</circle><line x1="1745.959961" y1="1448.959961" x2="1677.959961" y2="2007.959961" stroke="red" stroke-width="6.660000" />
<circle cx="1494.959961" cy="1720.959961" r="19.980000" fill="red">
  <title>Delhi</title>
</circle><line x1="1677.959961" y1="2007.959961" x2="1494.959961" y2="1720.959961" stroke="red" stroke-width="6.660000" />
<circle cx="1324.959961" cy="1501.959961" r="19.980000" fill="red">
  <title>Shanghai</title>
</circle><line x1="1494.959961" y1="1720.959961" x2="1324.959961" y2="1501.959961" stroke="red" stroke-width="6.660000" />
<circle cx="1147.959961" cy="1597.959961" r="19.980000" fill="red">
  <title>Mexico City</title>
</circle><line x1="1324.959961" y1="1501.959961" x2="1147.959961" y2="1597.959961" stroke="red" stroke-width="6.660000" />
<circle cx="789.960022" cy="1580.959961" r="19.980000" fill="red">
  <title>New York</title>
</circle><line x1="1147.959961" y1="1597.959961" x2="789.960022" y2="1580.959961" stroke="red" stroke-width="6.660000" />
<circle cx="991.960022" cy="960.960022" r="19.980000" fill="red">
  <title>Osaka</title>
</circle><line x1="789.960022" y1="1580.959961" x2="991.960022" y2="960.960022" stroke="red" stroke-width="6.660000" />
<circle cx="1010.960022" cy="935.960022" r="19.980000" fill="red">
  <title>Cairo</title>
</circle><line x1="991.960022" y1="960.960022" x2="1010.960022" y2="935.960022" stroke="red" stroke-width="6.660000" />
<circle cx="655.960022" cy="933.960022" r="19.980000" fill="red">
  <title>Mumbai</title>
</circle><line x1="1010.960022" y1="935.960022" x2="655.960022" y2="933.960022" stroke="red" stroke-width="6.660000" />
<circle cx="429.959991" cy="503.959991" r="19.980000" fill="red">
  <title>São Paulo</title>
</circle><line x1="655.960022" y1="933.960022" x2="429.959991" y2="503.959991" stroke="red" stroke-width="6.660000" />
<circle cx="519.960022" cy="40.959999" r="19.980000" fill="red">
  <title>Chongqing</title>
</circle><line x1="429.959991" y1="503.959991" x2="519.960022" y2="40.959999" stroke="red" stroke-width="6.660000" />
<circle cx="827.960022" cy="282.959991" r="19.980000" fill="red">
  <title>Istanbul</title>
</circle><line x1="519.960022" y1="40.959999" x2="827.960022" y2="282.959991" stroke="red" stroke-width="6.660000" />
</svg>
