<?xml version="1.0" encoding="UTF-8" standalone="no"?>
<svg width="500" height="500" viewBox="0 0 2074.000000 2074.000000" xmlns="http://www.w3.org/2000/svg">
<rect x="19.000000" y="19.000000" width="2036.000000" height="2036.000000" fill="black" />
<circle cx="469.959991" cy="317.959991" r="19.980000" fill="red">
  <title>Tokyo</title>
</circle><line x1="592.960022" y1="338.959991" x2="469.959991" y2="317.959991" stroke="red" stroke-width="6.660000" />
<circle cx="1052.959961" cy="224.959991" r="19.980000" fill="red">
  <title>Shanghai</title>
</circle><line x1="469.959991" y1="317.959991" x2="1052.959961" y2="224.959991" stroke="red" stroke-width="6.660000" />
<circle cx="1481.959961" cy="879.960022" r="19.980000" fill="red">
  <title>São Paulo</title>
</circle><line x1="1052.959961" y1="224.959991" x2="1481.959961" y2="879.960022" stroke="red" stroke-width="6.660000" />
<circle cx="1143.959961" cy="1520.959961" r="19.980000" fill="red">
  <title>Mexico City</title>
</circle><line x1="1481.959961" y1="879.960022" x2="1143.959961" y2="1520.959961" stroke="red" stroke-width="6.660000" />
<circle cx="592.960022" cy="338.959991" r="19.980000" fill="red">
  <title>Delhi</title>
</circle><line x1="1143.959961" y1="1520.959961" x2="592.960022" y2="338.959991" stroke="red" stroke-width="6.660000" />
</svg>
