<?xml version="1.0" encoding="UTF-8" standalone="no"?>
<svg width="500" height="500" viewBox="0 0 2074.000000 2074.000000" xmlns="http://www.w3.org/2000/svg">
<rect x="19.000000" y="19.000000" width="2036.000000" height="2036.000000" fill="black" />
<circle cx="1055.959961" cy="1605.959961" r="19.980000" fill="red">
  <title>Tokyo</title>
</circle><line x1="1532.959961" y1="994.960022" x2="1055.959961" y2="1605.959961" stroke="red" stroke-width="6.660000" />
<circle cx="460.959991" cy="2034.959961" r="19.980000" fill="red">
  <title>Mexico City</title>
</circle><line x1="1055.959961" y1="1605.959961" x2="460.959991" y2="2034.959961" stroke="red" stroke-width="6.660000" />
<circle cx="333.959991" cy="1816.959961" r="19.980000" fill="red">
  <title>Mumbai</title>
</circle><line x1="460.959991" y1="2034.959961" x2="333.959991" y2="1816.959961" stroke="red" stroke-width="6.660000" />
<circle cx="491.959991" cy="1633.959961" r="19.980000" fill="red">
  <title>Karachi</title>
</circle><line x1="333.959991" y1="1816.959961" x2="491.959991" y2="1633.959961" stroke="red" stroke-width="6.660000" />
<circle cx="591.960022" cy="1443.959961" r="19.980000" fill="red">
  <title>Buenos Aires</title>
</circle><line x1="491.959991" y1="1633.959961" x2="591.960022" y2="1443.959961" stroke="red" stroke-width="6.660000" />
<circle cx="588.960022" cy="1415.959961" r="19.980000" fill="red">
  <title>Shanghai</title>
</circle><line x1="591.960022" y1="1443.959961" x2="588.960022" y2="1415.959961" stroke="red" stroke-width="6.660000" />
<circle cx="635.960022" cy="1161.959961" r="19.980000" fill="red">
  <title>Dhaka</title>
</circle><line x1="588.960022" y1="1415.959961" x2="635.960022" y2="1161.959961" stroke="red" stroke-width="6.660000" />
<circle cx="170.959991" cy="887.960022" r="19.980000" fill="red">
  <title>New York</title>
</circle><line x1="635.960022" y1="1161.959961" x2="170.959991" y2="887.960022" stroke="red" stroke-width="6.660000" />
<circle cx="399.959991" cy="318.959991" r="19.980000" fill="red">
  <title>São Paulo</title>
</circle><line x1="170.959991" y1="887.960022" x2="399.959991" y2="318.959991" stroke="red" stroke-width="6.660000" />
<circle cx="253.959991" cy="190.959991" r="19.980000" fill="red">
  <title>Beijing</title>
</circle><line x1="399.959991" y1="318.959991" x2="253.959991" y2="190.959991" stroke="red" stroke-width="6.660000" />
<circle cx="668.960022" cy="57.959999" r="19.980000" fill="red">
  <title>Kolkata</title>
</circle><line x1="253.959991" y1="190.959991" x2="668.960022" y2="57.959999" stroke="red" stroke-width="6.660000" />
<circle cx="1040.959961" cy="239.959991" r="19.980000" fill="red">
  <title>Istanbul</title>
</circle><line x1="668.960022" y1="57.959999" x2="1040.959961" y2="239.959991" stroke="red" stroke-width="6.660000" />
<circle cx="1935.959961" cy="66.959999" r="19.980000" fill="red">
  <title>Delhi</title>
</circle><line x1="1040.959961" y1="239.959991" x2="1935.959961" y2="66.959999" stroke="red" stroke-width="6.660000" />
<circle cx="1805.959961" cy="566.960022" r="19.980000" fill="red">
  <title>Manila</title>
</circle><line x1="1935.959961" y1="66.959999" x2="1805.959961" y2="566.960022" stroke="red" stroke-width="6.660000" />
<circle cx="1995.959961" cy="1030.959961" r="19.980000" fill="red">
  <title>Chongqing</title>
</circle><line x1="1805.959961" y1="566.960022" x2="1995.959961" y2="1030.959961" stroke="red" stroke-width="6.660000" />
<circle cx="1545.959961" cy="945.960022" r="19.980000" fill="red">
  <title>Osaka</title>
</circle><line x1="1995.959961" y1="1030.959961" x2="1545.959961" y2="945.960022" stroke="red" stroke-width="6.660000" />
<circle cx="1532.959961" cy="994.960022" r="19.980000" fill="red">
  <title>Cairo</title>
</circle><line x1="1545.959961" y1="945.960022" x2="1532.959961" y2="994.960022" stroke="red" stroke-width="6.660000" />
</svg>
