<?xml version="1.0" encoding="UTF-8" standalone="no"?>
<svg width="500" height="500" viewBox="0 0 2074.000000 2074.000000" xmlns="http://www.w3.org/2000/svg">
<rect x="19.000000" y="19.000000" width="2036.000000" height="2036.000000" fill="black" />
<circle cx="1218.959961" cy="570.960022" r="19.980000" fill="red">
  <title>Tokyo</title>
</circle><line x1="1086.959961" y1="354.959991" x2="1218.959961" y2="570.960022" stroke="red" stroke-width="6.660000" />
<circle cx="1878.959961" cy="736.960022" r="19.980000" fill="red">
  <title>São Paulo</title>
</circle><line x1="1218.959961" y1="570.960022" x2="1878.959961" y2="736.960022" stroke="red" stroke-width="6.660000" />
<circle cx="1861.959961" cy="770.960022" r="19.980000" fill="red">
  <title>Cairo</title>
</circle><line x1="1878.959961" y1="736.960022" x2="1861.959961" y2="770.960022" stroke="red" stroke-width="6.660000" />
<circle cx="1214.959961" cy="1587.959961" r="19.980000" fill="red">
  <title>Beijing</title>
</circle><line x1="1861.959961" y1="770.960022" x2="1214.959961" y2="1587.959961" stroke="red" stroke-width="6.660000" />
<circle cx="1058.959961" cy="1774.959961" r="19.980000" fill="red">
  <title>Osaka</title>
</circle><line x1="1214.959961" y1="1587.959961" x2="1058.959961" y2="1774.959961" stroke="red" stroke-width="6.660000" />
<circle cx="1126.959961" cy="1615.959961" r="19.980000" fill="red">
  <title>Shanghai</title>
</circle><line x1="1058.959961" y1="1774.959961" x2="1126.959961" y2="1615.959961" stroke="red" stroke-width="6.660000" />
<circle cx="718.960022" cy="933.960022" r="19.980000" fill="red">
  <title>Delhi</title>
</circle><line x1="1126.959961" y1="1615.959961" x2="718.960022" y2="933.960022" stroke="red" stroke-width="6.660000" />
<circle cx="668.960022" cy="938.960022" r="19.980000" fill="red">
  <title>Dhaka</title>
</circle><line x1="718.960022" y1="933.960022" x2="668.960022" y2="938.960022" stroke="red" stroke-width="6.660000" />
<circle cx="615.960022" cy="44.959999" r="19.980000" fill="red">
  <title>Mumbai</title>
</circle><line x1="668.960022" y1="938.960022" x2="615.960022" y2="44.959999" stroke="red" stroke-width="6.660000" />
<circle cx="1086.959961" cy="354.959991" r="19.980000" fill="red">
  <title>Mexico City</title>
</circle><line x1="615.960022" y1="44.959999" x2="1086.959961" y2="354.959991" stroke="red" stroke-width="6.660000" />
</svg>
