<?xml version="1.0" encoding="UTF-8" standalone="no"?>
<svg width="500" height="500" viewBox="0 0 2074.000000 2074.000000" xmlns="http://www.w3.org/2000/svg">
<rect x="19.000000" y="19.000000" width="2036.000000" height="2036.000000" fill="black" />
<circle cx="749.960022" cy="1092.959961" r="19.980000" fill="red">
  <title>Tokyo</title>
</circle><line x1="1739.959961" y1="1847.959961" x2="749.960022" y2="1092.959961" stroke="red" stroke-width="6.660000" />
<circle cx="357.959991" cy="443.959991" r="19.980000" fill="red">
  <title>Shanghai</title>
</circle><line x1="749.960022" y1="1092.959961" x2="357.959991" y2="443.959991" stroke="red" stroke-width="6.660000" />
<circle cx="1466.959961" cy="718.960022" r="19.980000" fill="red">
  <title>Cairo</title>
</circle><line x1="357.959991" y1="443.959991" x2="1466.959961" y2="718.960022" stroke="red" stroke-width="6.660000" />
<circle cx="1993.959961" cy="1058.959961" r="19.980000" fill="red">
  <title>Mexico City</title>
</circle><line x1="1466.959961" y1="718.960022" x2="1993.959961" y2="1058.959961" stroke="red" stroke-width="6.660000" />
<circle cx="1995.959961" cy="1318.959961" r="19.980000" fill="red">
  <title>Delhi</title>
</circle><line x1="1993.959961" y1="1058.959961" x2="1995.959961" y2="1318.959961" stroke="red" stroke-width="6.660000" />
<circle cx="1739.959961" cy="1847.959961" r="19.980000" fill="red">
  <title>São Paulo</title>
</circle><line x1="1995.959961" y1="1318.959961" x2="1739.959961" y2="1847.959961" stroke="red" stroke-width="6.660000" />
</svg>
