<?xml version="1.0" encoding="UTF-8" standalone="no"?>
<svg width="500" height="500" viewBox="0 0 2074.000000 2074.000000" xmlns="http://www.w3.org/2000/svg">
<rect x="19.000000" y="19.000000" width="2036.000000" height="2036.000000" fill="black" />
<circle cx="759.960022" cy="144.959991" r="19.980000" fill="red">
  <title>Tokyo</title>
</circle><line x1="1067.959961" y1="124.959999" x2="759.960022" y2="144.959991" stroke="red" stroke-width="6.660000" />
<circle cx="91.959999" cy="113.959999" r="19.980000" fill="red">
  <title>Beijing</title>
</circle><line x1="759.960022" y1="144.959991" x2="91.959999" y2="113.959999" stroke="red" stroke-width="6.660000" />
<circle cx="220.959991" cy="1340.959961" r="19.980000" fill="red">
  <title>Karachi</title>
</circle><line x1="91.959999" y1="113.959999" x2="220.959991" y2="1340.959961" stroke="red" stroke-width="6.660000" />
<circle cx="54.959999" cy="1612.959961" r="19.980000" fill="red">
  <title>Shanghai</title>
</circle><line x1="220.959991" y1="1340.959961" x2="54.959999" y2="1612.959961" stroke="red" stroke-width="6.660000" />
<circle cx="118.959999" cy="1853.959961" r="19.980000" fill="red">
  <title>Cairo</title>
</circle><line x1="54.959999" y1="1612.959961" x2="118.959999" y2="1853.959961" stroke="red" stroke-width="6.660000" />
<circle cx="213.959991" cy="2010.959961" r="19.980000" fill="red">
  <title>Dhaka</title>
</circle><line x1="118.959999" y1="1853.959961" x2="213.959991" y2="2010.959961" stroke="red" stroke-width="6.660000" />
<circle cx="1239.959961" cy="1802.959961" r="19.980000" fill="red">
  <title>Osaka</title>
</circle><line x1="213.959991" y1="2010.959961" x2="1239.959961" y2="1802.959961" stroke="red" stroke-width="6.660000" />
<circle cx="1735.959961" cy="1627.959961" r="19.980000" fill="red">
  <title>Buenos Aires</title>
</circle><line x1="1239.959961" y1="1802.959961" x2="1735.959961" y2="1627.959961" stroke="red" stroke-width="6.660000" />
<circle cx="2024.959961" cy="1320.959961" r="19.980000" fill="red">
  <title>Delhi</title>
</circle><line x1="1735.959961" y1="1627.959961" x2="2024.959961" y2="1320.959961" stroke="red" stroke-width="6.660000" />
<circle cx="1568.959961" cy="1492.959961" r="19.980000" fill="red">
  <title>Mexico City</title>
</circle><line x1="2024.959961" y1="1320.959961" x2="1568.959961" y2="1492.959961" stroke="red" stroke-width="6.660000" />
<circle cx="693.960022" cy="1270.959961" r="19.980000" fill="red">
  <title>São Paulo</title>
</circle><line x1="1568.959961" y1="1492.959961" x2="693.960022" y2="1270.959961" stroke="red" stroke-width="6.660000" />
<circle cx="808.960022" cy="696.960022" r="19.980000" fill="red">
  <title>Mumbai</title>
</circle><line x1="693.960022" y1="1270.959961" x2="808.960022" y2="696.960022" stroke="red" stroke-width="6.660000" />
<circle cx="1067.959961" cy="124.959999" r="19.980000" fill="red">
  <title>New York</title>
</circle><line x1="808.960022" y1="696.960022" x2="1067.959961" y2="124.959999" stroke="red" stroke-width="6.660000" />
</svg>
