<?xml version="1.0" encoding="UTF-8" standalone="no"?>
<svg width="500" height="500" viewBox="0 0 2074.000000 2074.000000" xmlns="http://www.w3.org/2000/svg">
<rect x="19.000000" y="19.000000" width="2036.000000" height="2036.000000" fill="black" />
<circle cx="466.959991" cy="1802.959961" r="19.980000" fill="red">
  <title>Tokyo</title>
</circle><line x1="348.959991" y1="1704.959961" x2="466.959991" y2="1802.959961" stroke="red" stroke-width="6.660000" />
<circle cx="732.960022" cy="1354.959961" r="19.980000" fill="red">
  <title>Mexico City</title>
</circle><line x1="466.959991" y1="1802.959961" x2="732.960022" y2="1354.959961" stroke="red" stroke-width="6.660000" />
<circle cx="755.960022" cy="943.960022" r="19.980000" fill="red">
  <title>Mumbai</title>
</circle><line x1="732.960022" y1="1354.959961" x2="755.960022" y2="943.960022" stroke="red" stroke-width="6.660000" />
<circle cx="1031.959961" cy="810.960022" r="19.980000" fill="red">
  <title>Buenos Aires</title>
</circle><line x1="755.960022" y1="943.960022" x2="1031.959961" y2="810.960022" stroke="red" stroke-width="6.660000" />
<circle cx="1300.959961" cy="1216.959961" r="19.980000" fill="red">
  <title>Chongqing</title>
</circle><line x1="1031.959961" y1="810.960022" x2="1300.959961" y2="1216.959961" stroke="red" stroke-width="6.660000" />
<circle cx="1698.959961" cy="1810.959961" r="19.980000" fill="red">
  <title>Lagos</title>
</circle><line x1="1300.959961" y1="1216.959961" x2="1698.959961" y2="1810.959961" stroke="red" stroke-width="6.660000" />
<circle cx="1633.959961" cy="2036.959961" r="19.980000" fill="red">
  <title>Istanbul</title>
</circle><line x1="1698.959961" y1="1810.959961" x2="1633.959961" y2="2036.959961" stroke="red" stroke-width="6.660000" />
<circle cx="1917.959961" cy="1676.959961" r="19.980000" fill="red">
  <title>Delhi</title>
</circle><line x1="1633.959961" y1="2036.959961" x2="1917.959961" y2="1676.959961" stroke="red" stroke-width="6.660000" />
<circle cx="1800.959961" cy="815.960022" r="19.980000" fill="red">
  <title>Manila</title>
</circle><line x1="1917.959961" y1="1676.959961" x2="1800.959961" y2="815.960022" stroke="red" stroke-width="6.660000" />
<circle cx="1533.959961" cy="721.960022" r="19.980000" fill="red">
  <title>Osaka</title>
</circle><line x1="1800.959961" y1="815.960022" x2="1533.959961" y2="721.960022" stroke="red" stroke-width="6.660000" />
<circle cx="1260.959961" cy="369.959991" r="19.980000" fill="red">
  <title>Karachi</title>
</circle><line x1="1533.959961" y1="721.960022" x2="1260.959961" y2="369.959991" stroke="red" stroke-width="6.660000" />
<circle cx="936.960022" cy="61.959999" r="19.980000" fill="red">
  <title>Kolkata</title>
</circle><line x1="1260.959961" y1="369.959991" x2="936.960022" y2="61.959999" stroke="red" stroke-width="6.660000" />
<circle cx="933.960022" cy="54.959999" r="19.980000" fill="red">
  <title>São Paulo</title>
</circle><line x1="936.960022" y1="61.959999" x2="933.960022" y2="54.959999" stroke="red" stroke-width="6.660000" />
<circle cx="847.960022" cy="326.959991" r="19.980000" fill="red">
  <title>Beijing</title>
</circle><line x1="933.960022" y1="54.959999" x2="847.960022" y2="326.959991" stroke="red" stroke-width="6.660000" />
<circle cx="801.960022" cy="700.960022" r="19.980000" fill="red">
  <title>Dhaka</title>
</circle><line x1="847.960022" y1="326.959991" x2="801.960022" y2="700.960022" stroke="red" stroke-width="6.660000" />
<circle cx="49.959999" cy="636.960022" r="19.980000" fill="red">
  <title>Shanghai</title>
</circle><line x1="801.960022" y1="700.960022" x2="49.959999" y2="636.960022" stroke="red" stroke-width="6.660000" />
<circle cx="251.959991" cy="1449.959961" r="19.980000" fill="red">
  <title>Cairo</title>
</circle><line x1="49.959999" y1="636.960022" x2="251.959991" y2="1449.959961" stroke="red" stroke-width="6.660000" />
<circle cx="348.959991" cy="1704.959961" r="19.980000" fill="red">
  <title>New York</title>
</circle><line x1="251.959991" y1="1449.959961" x2="348.959991" y2="1704.959961" stroke="red" stroke-width="6.660000" />
</svg>
