<?xml version="1.0" encoding="UTF-8" standalone="no"?>
<svg width="500" height="500" viewBox="0 0 2074.000000 2074.000000" xmlns="http://www.w3.org/2000/svg">
<rect x="19.000000" y="19.000000" width="2036.000000" height="2036.000000" fill="black" />
<circle cx="692.960022" cy="177.959991" r="19.980000" fill="red">
  <title>Tokyo</title>
</circle><line x1="1633.959961" y1="1026.959961" x2="692.960022" y2="177.959991" stroke="red" stroke-width="6.660000" />
<circle cx="420.959991" cy="658.960022" r="19.980000" fill="red">
  <title>Delhi</title>
</circle><line x1="692.960022" y1="177.959991" x2="420.959991" y2="658.960022" stroke="red" stroke-width="6.660000" />
<circle cx="1286.959961" cy="1559.959961" r="19.980000" fill="red">
  <title>São Paulo</title>
</circle><line x1="420.959991" y1="658.960022" x2="1286.959961" y2="1559.959961" stroke="red" stroke-width="6.660000" />
<circle cx="1943.959961" cy="1368.959961" r="19.980000" fill="red">
  <title>Shanghai</title>
</circle><line x1="1286.959961" y1="1559.959961" x2="1943.959961" y2="1368.959961" stroke="red" stroke-width="6.660000" />
<circle cx="1633.959961" cy="1026.959961" r="19.980000" fill="red">
  <title>Mexico City</title>
</circle><line x1="1943.959961" y1="1368.959961" x2="1633.959961" y2="1026.959961" stroke="red" stroke-width="6.660000" />
</svg>
