<?xml version="1.0" encoding="UTF-8" standalone="no"?>
<svg width="500" height="500" viewBox="0 0 2074.000000 2074.000000" xmlns="http://www.w3.org/2000/svg">
<rect x="19.000000" y="19.000000" width="2036.000000" height="2036.000000" fill="black" />
<circle cx="120.959999" cy="69.959999" r="19.980000" fill="red">
  <title>Tokyo</title>
</circle><line x1="461.959991" y1="855.960022" x2="120.959999" y2="69.959999" stroke="red" stroke-width="6.660000" />
<circle cx="1282.959961" cy="458.959991" r="19.980000" fill="red">
  <title>Cairo</title>
</circle><line x1="120.959999" y1="69.959999" x2="1282.959961" y2="458.959991" stroke="red" stroke-width="6.660000" />
<circle cx="1702.959961" cy="770.960022" r="19.980000" fill="red">
  <title>Shanghai</title>
</circle><line x1="1282.959961" y1="458.959991" x2="1702.959961" y2="770.960022" stroke="red" stroke-width="6.660000" />
<circle cx="2037.959961" cy="1455.959961" r="19.980000" fill="red">
  <title>Mexico City</title>
</circle><line x1="1702.959961" y1="770.960022" x2="2037.959961" y2="1455.959961" stroke="red" stroke-width="6.660000" />
<circle cx="1521.959961" cy="1348.959961" r="19.980000" fill="red">
  <title>São Paulo</title>
</circle><line x1="2037.959961" y1="1455.959961" x2="1521.959961" y2="1348.959961" stroke="red" stroke-width="6.660000" />
<circle cx="964.960022" cy="1467.959961" r="19.980000" fill="red">
  <title>Mumbai</title>
</circle><line x1="1521.959961" y1="1348.959961" x2="964.960022" y2="1467.959961" stroke="red" stroke-width="6.660000" />
<circle cx="536.960022" cy="1397.959961" r="19.980000" fill="red">
  <title>Delhi</title>
</circle><line x1="964.960022" y1="1467.959961" x2="536.960022" y2="1397.959961" stroke="red" stroke-width="6.660000" />
<circle cx="461.959991" cy="855.960022" r="19.980000" fill="red">
  <title>Beijing</title>
</circle><line x1="536.960022" y1="1397.959961" x2="461.959991" y2="855.960022" stroke="red" stroke-width="6.660000" />
</svg>
