<?xml version="1.0" encoding="UTF-8" standalone="no"?>
<svg width="500" height="500" viewBox="0 0 2074.000000 2074.000000" xmlns="http://www.w3.org/2000/svg">
<rect x="19.000000" y="19.000000" width="2036.000000" height="2036.000000" fill="black" />
<circle cx="133.959991" cy="1535.959961" r="19.980000" fill="red">
  <title>Tokyo</title>
</circle><line x1="809.960022" y1="1600.959961" x2="133.959991" y2="1535.959961" stroke="red" stroke-width="6.660000" />
<circle cx="164.959991" cy="993.960022" r="19.980000" fill="red">
  <title>Chongqing</title>
</circle><line x1="133.959991" y1="1535.959961" x2="164.959991" y2="993.960022" stroke="red" stroke-width="6.660000" />
<circle cx="777.960022" cy="820.960022" r="19.980000" fill="red">
  <title>Manila</title>
</circle><line x1="164.959991" y1="993.960022" x2="777.960022" y2="820.960022" stroke="red" stroke-width="6.660000" />
<circle cx="823.960022" cy="742.960022" r="19.980000" fill="red">
  <title>Lagos</title>
</circle><line x1="777.960022" y1="820.960022" x2="823.960022" y2="742.960022" stroke="red" stroke-width="6.660000" />
<circle cx="572.960022" cy="429.959991" r="19.980000" fill="red">
  <title>Mexico City</title>
</circle><line x1="823.960022" y1="742.960022" x2="572.960022" y2="429.959991" stroke="red" stroke-width="6.660000" />
<circle cx="712.960022" cy="135.959991" r="19.980000" fill="red">
  <title>São Paulo</title>
</circle><line x1="572.960022" y1="429.959991" x2="712.960022" y2="135.959991" stroke="red" stroke-width="6.660000" />
<circle cx="1588.959961" cy="324.959991" r="19.980000" fill="red">
  <title>Buenos Aires</title>
</circle><line x1="712.960022" y1="135.959991" x2="1588.959961" y2="324.959991" stroke="red" stroke-width="6.660000" />
<circle cx="2021.959961" cy="99.959999" r="19.980000" fill="red">
  <title>Karachi</title>
</circle><line x1="1588.959961" y1="324.959991" x2="2021.959961" y2="99.959999" stroke="red" stroke-width="6.660000" />
<circle cx="2002.959961" cy="343.959991" r="19.980000" fill="red">
  <title>Shanghai</title>
</circle><line x1="2021.959961" y1="99.959999" x2="2002.959961" y2="343.959991" stroke="red" stroke-width="6.660000" />
<circle cx="1934.959961" cy="489.959991" r="19.980000" fill="red">
  <title>New York</title>
</circle><line x1="2002.959961" y1="343.959991" x2="1934.959961" y2="489.959991" stroke="red" stroke-width="6.660000" />
<circle cx="1848.959961" cy="721.960022" r="19.980000" fill="red">
  <title>Osaka</title>
</circle><line x1="1934.959961" y1="489.959991" x2="1848.959961" y2="721.960022" stroke="red" stroke-width="6.660000" />
<circle cx="1909.959961" cy="1417.959961" r="19.980000" fill="red">
  <title>Delhi</title>
</circle><line x1="1848.959961" y1="721.960022" x2="1909.959961" y2="1417.959961" stroke="red" stroke-width="6.660000" />
<circle cx="1890.959961" cy="2002.959961" r="19.980000" fill="red">
  <title>Cairo</title>
</circle><line x1="1909.959961" y1="1417.959961" x2="1890.959961" y2="2002.959961" stroke="red" stroke-width="6.660000" />
<circle cx="1348.959961" cy="1279.959961" r="19.980000" fill="red">
  <title>Istanbul</title>
</circle><line x1="1890.959961" y1="2002.959961" x2="1348.959961" y2="1279.959961" stroke="red" stroke-width="6.660000" />
<circle cx="1384.959961" cy="1102.959961" r="19.980000" fill="red">
  <title>Beijing</title>
</circle><line x1="1348.959961" y1="1279.959961" x2="1384.959961" y2="1102.959961" stroke="red" stroke-width="6.660000" />
<circle cx="1383.959961" cy="1116.959961" r="19.980000" fill="red">
  <title>Dhaka</title>
</circle><line x1="1384.959961" y1="1102.959961" x2="1383.959961" y2="1116.959961" stroke="red" stroke-width="6.660000" />
<circle cx="1125.959961" cy="1496.959961" r="19.980000" fill="red">
  <title>Rio de Janeiro</title>
</circle><line x1="1383.959961" y1="1116.959961" x2="1125.959961" y2="1496.959961" stroke="red" stroke-width="6.660000" />
<circle cx="948.960022" cy="1443.959961" r="19.980000" fill="red">
  <title>Kolkata</title>
</circle><line x1="1125.959961" y1="1496.959961" x2="948.960022" y2="1443.959961" stroke="red" stroke-width="6.660000" />
<circle cx="838.960022" cy="1658.959961" r="19.980000" fill="red">
  <title>Tianjin</title>
</circle><line x1="948.960022" y1="1443.959961" x2="838.960022" y2="1658.959961" stroke="red" stroke-width="6.660000" />
<circle cx="809.960022" cy="1600.959961" r="19.980000" fill="red">
  <title>Mumbai</title>
</circle><line x1="838.960022" y1="1658.959961" x2="809.960022" y2="1600.959961" stroke="red" stroke-width="6.660000" />
</svg>
