<?xml version="1.0" encoding="UTF-8" standalone="no"?>
<svg width="500" height="500" viewBox="0 0 2074.000000 2074.000000" xmlns="http://www.w3.org/2000/svg">
<rect x="19.000000" y="19.000000" width="2036.000000" height="2036.000000" fill="black" />
<circle cx="996.960022" cy="470.959991" r="19.980000" fill="red">
  <title>Tokyo</title>
</circle><line x1="1002.960022" y1="409.959991" x2="996.960022" y2="470.959991" stroke="red" stroke-width="6.660000" />
<circle cx="1021.960022" cy="465.959991" r="19.980000" fill="red">
  <title>Beijing</title>
</circle><line x1="996.960022" y1="470.959991" x2="1021.960022" y2="465.959991" stroke="red" stroke-width="6.660000" />
<circle cx="1290.959961" cy="560.960022" r="19.980000" fill="red">
  <title>Kolkata</title>
</circle><line x1="1021.960022" y1="465.959991" x2="1290.959961" y2="560.960022" stroke="red" stroke-width="6.660000" />
<circle cx="1251.959961" cy="640.960022" r="19.980000" fill="red">
  <title>Osaka</title>
</circle><line x1="1290.959961" y1="560.960022" x2="1251.959961" y2="640.960022" stroke="red" stroke-width="6.660000" />
<circle cx="1517.959961" cy="796.960022" r="19.980000" fill="red">
  <title>Mumbai</title>
</circle><line x1="1251.959961" y1="640.960022" x2="1517.959961" y2="796.960022" stroke="red" stroke-width="6.660000" />
<circle cx="1725.959961" cy="848.960022" r="19.980000" fill="red">
  <title>Manila</title>
</circle><line x1="1517.959961" y1="796.960022" x2="1725.959961" y2="848.960022" stroke="red" stroke-width="6.660000" />
<circle cx="1595.959961" cy="1153.959961" r="19.980000" fill="red">
  <title>Delhi</title>
</circle><line x1="1725.959961" y1="848.960022" x2="1595.959961" y2="1153.959961" stroke="red" stroke-width="6.660000" />
<circle cx="1602.959961" cy="1293.959961" r="19.980000" fill="red">
  <title>Istanbul</title>
</circle><line x1="1595.959961" y1="1153.959961" x2="1602.959961" y2="1293.959961" stroke="red" stroke-width="6.660000" />
<circle cx="1857.959961" cy="1246.959961" r="19.980000" fill="red">
  <title>Dhaka</title>
</circle><line x1="1602.959961" y1="1293.959961" x2="1857.959961" y2="1246.959961" stroke="red" stroke-width="6.660000" />
<circle cx="1955.959961" cy="1431.959961" r="19.980000" fill="red">
  <title>Chongqing</title>
</circle><line x1="1857.959961" y1="1246.959961" x2="1955.959961" y2="1431.959961" stroke="red" stroke-width="6.660000" />
<circle cx="1718.959961" cy="1662.959961" r="19.980000" fill="red">
  <title>Mexico City</title>
</circle><line x1="1955.959961" y1="1431.959961" x2="1718.959961" y2="1662.959961" stroke="red" stroke-width="6.660000" />
<circle cx="1675.959961" cy="1862.959961" r="19.980000" fill="red">
  <title>Lagos</title>
</circle><line x1="1718.959961" y1="1662.959961" x2="1675.959961" y2="1862.959961" stroke="red" stroke-width="6.660000" />
<circle cx="1224.959961" cy="2003.959961" r="19.980000" fill="red">
  <title>Buenos Aires</title>
</circle><line x1="1675.959961" y1="1862.959961" x2="1224.959961" y2="2003.959961" stroke="red" stroke-width="6.660000" />
<circle cx="331.959991" cy="1967.959961" r="19.980000" fill="red">
  <title>New York</title>
</circle><line x1="1224.959961" y1="2003.959961" x2="331.959991" y2="1967.959961" stroke="red" stroke-width="6.660000" />
<circle cx="742.960022" cy="1366.959961" r="19.980000" fill="red">
  <title>Cairo</title>
</circle><line x1="331.959991" y1="1967.959961" x2="742.960022" y2="1366.959961" stroke="red" stroke-width="6.660000" />
<circle cx="771.960022" cy="1162.959961" r="19.980000" fill="red">
  <title>São Paulo</title>
</circle><line x1="742.960022" y1="1366.959961" x2="771.960022" y2="1162.959961" stroke="red" stroke-width="6.660000" />
<circle cx="583.960022" cy="1071.959961" r="19.980000" fill="red">
  <title>Karachi</title>
</circle><line x1="771.960022" y1="1162.959961" x2="583.960022" y2="1071.959961" stroke="red" stroke-width="6.660000" />
<circle cx="176.959991" cy="193.959991" r="19.980000" fill="red">
  <title>Shanghai</title>
</circle><line x1="583.960022" y1="1071.959961" x2="176.959991" y2="193.959991" stroke="red" stroke-width="6.660000" />
<circle cx="1002.960022" cy="409.959991" r="19.980000" fill="red">
  <title>Rio de Janeiro</title>
</circle><line x1="176.959991" y1="193.959991" x2="1002.960022" y2="409.959991" stroke="red" stroke-width="6.660000" />
</svg>
