<?xml version="1.0" encoding="UTF-8" standalone="no"?>
<svg width="500" height="500" viewBox="0 0 2074.000000 2074.000000" xmlns="http://www.w3.org/2000/svg">
<rect x="19.000000" y="19.000000" width="2036.000000" height="2036.000000" fill="black" />
<circle cx="715.960022" cy="554.960022" r="19.980000" fill="red">
  <title>Tokyo</title>
</circle><line x1="678.960022" y1="1286.959961" x2="715.960022" y2="554.960022" stroke="red" stroke-width="6.660000" />
<circle cx="872.960022" cy="113.959999" r="19.980000" fill="red">
  <title>Dhaka</title>
</circle><line x1="715.960022" y1="554.960022" x2="872.960022" y2="113.959999" stroke="red" stroke-width="6.660000" />
<circle cx="960.960022" cy="341.959991" r="19.980000" fill="red">
  <title>São Paulo</title>
</circle><line x1="872.960022" y1="113.959999" x2="960.960022" y2="341.959991" stroke="red" stroke-width="6.660000" />
<circle cx="1475.959961" cy="477.959991" r="19.980000" fill="red">
  <title>Beijing</title>
</circle><line x1="960.960022" y1="341.959991" x2="1475.959961" y2="477.959991" stroke="red" stroke-width="6.660000" />
<circle cx="1506.959961" cy="280.959991" r="19.980000" fill="red">
  <title>Shanghai</title>
</circle><line x1="1475.959961" y1="477.959991" x2="1506.959961" y2="280.959991" stroke="red" stroke-width="6.660000" />
<circle cx="1566.959961" cy="194.959991" r="19.980000" fill="red">
  <title>Cairo</title>
</circle><line x1="1506.959961" y1="280.959991" x2="1566.959961" y2="194.959991" stroke="red" stroke-width="6.660000" />
<circle cx="1978.959961" cy="243.959991" r="19.980000" fill="red">
  <title>Karachi</title>
</circle><line x1="1566.959961" y1="194.959991" x2="1978.959961" y2="243.959991" stroke="red" stroke-width="6.660000" />
<circle cx="1689.959961" cy="438.959991" r="19.980000" fill="red">
  <title>Delhi</title>
</circle><line x1="1978.959961" y1="243.959991" x2="1689.959961" y2="438.959991" stroke="red" stroke-width="6.660000" />
<circle cx="1829.959961" cy="689.960022" r="19.980000" fill="red">
  <title>Osaka</title>
</circle><line x1="1689.959961" y1="438.959991" x2="1829.959961" y2="689.960022" stroke="red" stroke-width="6.660000" />
<circle cx="1341.959961" cy="1178.959961" r="19.980000" fill="red">
  <title>Mexico City</title>
</circle><line x1="1829.959961" y1="689.960022" x2="1341.959961" y2="1178.959961" stroke="red" stroke-width="6.660000" />
<circle cx="915.960022" cy="1986.959961" r="19.980000" fill="red">
  <title>Chongqing</title>
</circle><line x1="1341.959961" y1="1178.959961" x2="915.960022" y2="1986.959961" stroke="red" stroke-width="6.660000" />
<circle cx="726.960022" cy="1677.959961" r="19.980000" fill="red">
  <title>Mumbai</title>
</circle><line x1="915.960022" y1="1986.959961" x2="726.960022" y2="1677.959961" stroke="red" stroke-width="6.660000" />
<circle cx="517.960022" cy="1538.959961" r="19.980000" fill="red">
  <title>Buenos Aires</title>
</circle><line x1="726.960022" y1="1677.959961" x2="517.960022" y2="1538.959961" stroke="red" stroke-width="6.660000" />
<circle cx="313.959991" cy="1277.959961" r="19.980000" fill="red">
  <title>New York</title>
</circle><line x1="517.960022" y1="1538.959961" x2="313.959991" y2="1277.959961" stroke="red" stroke-width="6.660000" />
<circle cx="678.960022" cy="1286.959961" r="19.980000" fill="red">
  <title>Istanbul</title>
</circle><line x1="313.959991" y1="1277.959961" x2="678.960022" y2="1286.959961" stroke="red" stroke-width="6.660000" />
</svg>
