<?xml version="1.0" encoding="UTF-8" standalone="no"?>
<svg width="500" height="500" viewBox="0 0 2074.000000 2074.000000" xmlns="http://www.w3.org/2000/svg">
<rect x="19.000000" y="19.000000" width="2036.000000" height="2036.000000" fill="black" />
<circle cx="1196.959961" cy="434.959991" r="19.980000" fill="red">
  <title>Tokyo</title>
</circle><line x1="1262.959961" y1="676.960022" x2="1196.959961" y2="434.959991" stroke="red" stroke-width="6.660000" />
<circle cx="1418.959961" cy="276.959991" r="19.980000" fill="red">
  <title>Shanghai</title>
</circle><line x1="1196.959961" y1="434.959991" x2="1418.959961" y2="276.959991" stroke="red" stroke-width="6.660000" />
<circle cx="936.960022" cy="85.959999" r="19.980000" fill="red">
  <title>Buenos Aires</title>
</circle><line x1="1418.959961" y1="276.959991" x2="936.960022" y2="85.959999" stroke="red" stroke-width="6.660000" />
<circle cx="661.960022" cy="301.959991" r="19.980000" fill="red">
  <title>Mexico City</title>
</circle><line x1="936.960022" y1="85.959999" x2="661.960022" y2="301.959991" stroke="red" stroke-width="6.660000" />
<circle cx="48.959999" cy="82.959999" r="19.980000" fill="red">
  <title>Dhaka</title>
</circle><line x1="661.960022" y1="301.959991" x2="48.959999" y2="82.959999" stroke="red" stroke-width="6.660000" />
<circle cx="117.959999" cy="592.960022" r="19.980000" fill="red">
  <title>Karachi</title>
</circle><line x1="48.959999" y1="82.959999" x2="117.959999" y2="592.960022" stroke="red" stroke-width="6.660000" />
<circle cx="224.959991" cy="1148.959961" r="19.980000" fill="red">
  <title>Mumbai</title>
</circle><line x1="117.959999" y1="592.960022" x2="224.959991" y2="1148.959961" stroke="red" stroke-width="6.660000" />
<circle cx="390.959991" cy="1522.959961" r="19.980000" fill="red">
  <title>New York</title>
</circle><line x1="224.959991" y1="1148.959961" x2="390.959991" y2="1522.959961" stroke="red" stroke-width="6.660000" />
<circle cx="248.959991" cy="1820.959961" r="19.980000" fill="red">
  <title>São Paulo</title>
</circle><line x1="390.959991" y1="1522.959961" x2="248.959991" y2="1820.959961" stroke="red" stroke-width="6.660000" />
<circle cx="728.960022" cy="1825.959961" r="19.980000" fill="red">
  <title>Chongqing</title>
</circle><line x1="248.959991" y1="1820.959961" x2="728.960022" y2="1825.959961" stroke="red" stroke-width="6.660000" />
<circle cx="940.960022" cy="1714.959961" r="19.980000" fill="red">
  <title>Delhi</title>
</circle><line x1="728.960022" y1="1825.959961" x2="940.960022" y2="1714.959961" stroke="red" stroke-width="6.660000" />
<circle cx="776.960022" cy="960.960022" r="19.980000" fill="red">
  <title>Beijing</title>
</circle><line x1="940.960022" y1="1714.959961" x2="776.960022" y2="960.960022" stroke="red" stroke-width="6.660000" />
<circle cx="1445.959961" cy="938.960022" r="19.980000" fill="red">
  <title>Cairo</title>
</circle><line x1="776.960022" y1="960.960022" x2="1445.959961" y2="938.960022" stroke="red" stroke-width="6.660000" />
<circle cx="1262.959961" cy="676.960022" r="19.980000" fill="red">
  <title>Osaka</title>
</circle><line x1="1445.959961" y1="938.960022" x2="1262.959961" y2="676.960022" stroke="red" stroke-width="6.660000" />
</svg>
