<?xml version="1.0" encoding="UTF-8" standalone="no"?>
<svg width="500" height="500" viewBox="0 0 2074.000000 2074.000000" xmlns="http://www.w3.org/2000/svg">
<rect x="19.000000" y="19.000000" width="2036.000000" height="2036.000000" fill="black" />
<circle cx="437.959991" cy="1612.959961" r="19.980000" fill="red">
  <title>Tokyo</title>
</circle><line x1="108.959999" y1="843.960022" x2="437.959991" y2="1612.959961" stroke="red" stroke-width="6.660000" />
<circle cx="791.960022" cy="2008.959961" r="19.980000" fill="red">
  <title>New York</title>
</circle><line x1="437.959991" y1="1612.959961" x2="791.960022" y2="2008.959961" stroke="red" stroke-width="6.660000" />
<circle cx="1194.959961" cy="1837.959961" r="19.980000" fill="red">
  <title>Delhi</title>
</circle><line x1="791.960022" y1="2008.959961" x2="1194.959961" y2="1837.959961" stroke="red" stroke-width="6.660000" />
<circle cx="1261.959961" cy="1794.959961" r="19.980000" fill="red">
  <title>São Paulo</title>
</circle><line x1="1194.959961" y1="1837.959961" x2="1261.959961" y2="1794.959961" stroke="red" stroke-width="6.660000" />
<circle cx="1265.959961" cy="1543.959961" r="19.980000" fill="red">
  <title>Mumbai</title>
</circle><line x1="1261.959961" y1="1794.959961" x2="1265.959961" y2="1543.959961" stroke="red" stroke-width="6.660000" />
<circle cx="1211.959961" cy="1218.959961" r="19.980000" fill="red">
  <title>Kolkata</title>
</circle><line x1="1265.959961" y1="1543.959961" x2="1211.959961" y2="1218.959961" stroke="red" stroke-width="6.660000" />
<circle cx="1441.959961" cy="1278.959961" r="19.980000" fill="red">
  <title>Osaka</title>
</circle><line x1="1211.959961" y1="1218.959961" x2="1441.959961" y2="1278.959961" stroke="red" stroke-width="6.660000" />
<circle cx="1613.959961" cy="1428.959961" r="19.980000" fill="red">
  <title>Buenos Aires</title>
</circle><line x1="1441.959961" y1="1278.959961" x2="1613.959961" y2="1428.959961" stroke="red" stroke-width="6.660000" />
<circle cx="1929.959961" cy="1341.959961" r="19.980000" fill="red">
  <title>Chongqing</title>
</circle><line x1="1613.959961" y1="1428.959961" x2="1929.959961" y2="1341.959961" stroke="red" stroke-width="6.660000" />
<circle cx="1589.959961" cy="1103.959961" r="19.980000" fill="red">
  <title>Karachi</title>
</circle><line x1="1929.959961" y1="1341.959961" x2="1589.959961" y2="1103.959961" stroke="red" stroke-width="6.660000" />
<circle cx="1816.959961" cy="472.959991" r="19.980000" fill="red">
  <title>Cairo</title>
</circle><line x1="1589.959961" y1="1103.959961" x2="1816.959961" y2="472.959991" stroke="red" stroke-width="6.660000" />
<circle cx="1817.959961" cy="406.959991" r="19.980000" fill="red">
  <title>Dhaka</title>
</circle><line x1="1816.959961" y1="472.959991" x2="1817.959961" y2="406.959991" stroke="red" stroke-width="6.660000" />
<circle cx="1840.959961" cy="179.959991" r="19.980000" fill="red">
  <title>Beijing</title>
</circle><line x1="1817.959961" y1="406.959991" x2="1840.959961" y2="179.959991" stroke="red" stroke-width="6.660000" />
<circle cx="1171.959961" cy="241.959991" r="19.980000" fill="red">
  <title>Rio de Janeiro</title>
</circle><line x1="1840.959961" y1="179.959991" x2="1171.959961" y2="241.959991" stroke="red" stroke-width="6.660000" />
<circle cx="1017.960022" cy="488.959991" r="19.980000" fill="red">
  <title>Lagos</title>
</circle><line x1="1171.959961" y1="241.959991" x2="1017.960022" y2="488.959991" stroke="red" stroke-width="6.660000" />
<circle cx="1175.959961" cy="802.960022" r="19.980000" fill="red">
  <title>Mexico City</title>
</circle><line x1="1017.960022" y1="488.959991" x2="1175.959961" y2="802.960022" stroke="red" stroke-width="6.660000" />
<circle cx="819.960022" cy="844.960022" r="19.980000" fill="red">
  <title>Istanbul</title>
</circle><line x1="1175.959961" y1="802.960022" x2="819.960022" y2="844.960022" stroke="red" stroke-width="6.660000" />
<circle cx="418.959991" cy="367.959991" r="19.980000" fill="red">
  <title>Manila</title>
</circle><line x1="819.960022" y1="844.960022" x2="418.959991" y2="367.959991" stroke="red" stroke-width="6.660000" />
<circle cx="108.959999" cy="843.960022" r="19.980000" fill="red">
  <title>Shanghai</title>
</circle><line x1="418.959991" y1="367.959991" x2="108.959999" y2="843.960022" stroke="red" stroke-width="6.660000" />
</svg>
