<?xml version="1.0" encoding="UTF-8" standalone="no"?>
<svg width="500" height="500" viewBox="0 0 2074.000000 2074.000000" xmlns="http://www.w3.org/2000/svg">
<rect x="19.000000" y="19.000000" width="2036.000000" height="2036.000000" fill="black" />
<circle cx="582.960022" cy="1166.959961" r="19.980000" fill="red">
  <title>Tokyo</title>
</circle><line x1="1546.959961" y1="1933.959961" x2="582.960022" y2="1166.959961" stroke="red" stroke-width="6.660000" />
<circle cx="955.960022" cy="280.959991" r="19.980000" fill="red">
  <title>Delhi</title>
</circle><line x1="582.960022" y1="1166.959961" x2="955.960022" y2="280.959991" stroke="red" stroke-width="6.660000" />
<circle cx="1468.959961" cy="479.959991" r="19.980000" fill="red">
  <title>Mexico City</title>
</circle><line x1="955.960022" y1="280.959991" x2="1468.959961" y2="479.959991" stroke="red" stroke-width="6.660000" />
<circle cx="1488.959961" cy="1730.959961" r="19.980000" fill="red">
  <title>Shanghai</title>
</circle><line x1="1468.959961" y1="479.959991" x2="1488.959961" y2="1730.959961" stroke="red" stroke-width="6.660000" />
<circle cx="1546.959961" cy="1933.959961" r="19.980000" fill="red">
  <title>São Paulo</title>
</circle><line x1="1488.959961" y1="1730.959961" x2="1546.959961" y2="1933.959961" stroke="red" stroke-width="6.660000" />
</svg>
