<?xml version="1.0" encoding="UTF-8" standalone="no"?>
<svg width="500" height="500" viewBox="0 0 2074.000000 2074.000000" xmlns="http://www.w3.org/2000/svg">
<rect x="19.000000" y="19.000000" width="2036.000000" height="2036.000000" fill="black" />
<circle cx="347.959991" cy="1243.959961" r="19.980000" fill="red">
  <title>Tokyo</title>
</circle><line x1="1226.959961" y1="1873.959961" x2="347.959991" y2="1243.959961" stroke="red" stroke-width="6.660000" />
<circle cx="199.959991" cy="394.959991" r="19.980000" fill="red">
  <title>Mumbai</title>
</circle><line x1="347.959991" y1="1243.959961" x2="199.959991" y2="394.959991" stroke="red" stroke-width="6.660000" />
<circle cx="1455.959961" cy="113.959999" r="19.980000" fill="red">
  <title>Delhi</title>
</circle><line x1="199.959991" y1="394.959991" x2="1455.959961" y2="113.959999" stroke="red" stroke-width="6.660000" />
<circle cx="1739.959961" cy="762.960022" r="19.980000" fill="red">
  <title>Dhaka</title>
</circle><line x1="1455.959961" y1="113.959999" x2="1739.959961" y2="762.960022" stroke="red" stroke-width="6.660000" />
<circle cx="1934.959961" cy="826.960022" r="19.980000" fill="red">
  <title>Mexico City</title>
</circle><line x1="1739.959961" y1="762.960022" x2="1934.959961" y2="826.960022" stroke="red" stroke-width="6.660000" />
<circle cx="1961.959961" cy="1195.959961" r="19.980000" fill="red">
  <title>Shanghai</title>
</circle><line x1="1934.959961" y1="826.960022" x2="1961.959961" y2="1195.959961" stroke="red" stroke-width="6.660000" />
<circle cx="1715.959961" cy="1717.959961" r="19.980000" fill="red">
  <title>São Paulo</title>
</circle><line x1="1961.959961" y1="1195.959961" x2="1715.959961" y2="1717.959961" stroke="red" stroke-width="6.660000" />
<circle cx="1985.959961" cy="2012.959961" r="19.980000" fill="red">
  <title>Cairo</title>
</circle><line x1="1715.959961" y1="1717.959961" x2="1985.959961" y2="2012.959961" stroke="red" stroke-width="6.660000" />
<circle cx="1226.959961" cy="1873.959961" r="19.980000" fill="red">
  <title>Beijing</title>
</circle><line x1="1985.959961" y1="2012.959961" x2="1226.959961" y2="1873.959961" stroke="red" stroke-width="6.660000" />
</svg>
