<?xml version="1.0" encoding="UTF-8" standalone="no"?>
<svg width="500" height="500" viewBox="0 0 2074.000000 2074.000000" xmlns="http://www.w3.org/2000/svg">
<rect x="19.000000" y="19.000000" width="2036.000000" height="2036.000000" fill="black" />
<circle cx="1025.959961" cy="39.959999" r="19.980000" fill="red">
  <title>Tokyo</title>
</circle><line x1="1482.959961" y1="395.959991" x2="1025.959961" y2="39.959999" stroke="red" stroke-width="6.660000" />
<circle cx="499.959991" cy="522.960022" r="19.980000" fill="red">
  <title>Delhi</title>
</circle><line x1="1025.959961" y1="39.959999" x2="499.959991" y2="522.960022" stroke="red" stroke-width="6.660000" />
<circle cx="175.959991" cy="1506.959961" r="19.980000" fill="red">
  <title>Shanghai</title>
</circle><line x1="499.959991" y1="522.960022" x2="175.959991" y2="1506.959961" stroke="red" stroke-width="6.660000" />
<circle cx="1218.959961" cy="1554.959961" r="19.980000" fill="red">
  <title>Mexico City</title>
</circle><line x1="175.959991" y1="1506.959961" x2="1218.959961" y2="1554.959961" stroke="red" stroke-width="6.660000" />
<circle cx="1223.959961" cy="745.960022" r="19.980000" fill="red">
  <title>Cairo</title>
</circle><line x1="1218.959961" y1="1554.959961" x2="1223.959961" y2="745.960022" stroke="red" stroke-width="6.660000" />
<circle cx="1482.959961" cy="395.959991" r="19.980000" fill="red">
  <title>São Paulo</title>
</circle><line x1="1223.959961" y1="745.960022" x2="1482.959961" y2="395.959991" stroke="red" stroke-width="6.660000" />
</svg>
