<?xml version="1.0" encoding="UTF-8" standalone="no"?>
<svg width="500" height="500" viewBox="0 0 2074.000000 2074.000000" xmlns="http://www.w3.org/2000/svg">
<rect x="19.000000" y="19.000000" width="2036.000000" height="2036.000000" fill="black" />
<circle cx="105.959999" cy="1152.959961" r="19.980000" fill="red">
  <title>Tokyo</title>
</circle><line x1="130.959991" y1="878.960022" x2="105.959999" y2="1152.959961" stroke="red" stroke-width="6.660000" />
<circle cx="287.959991" cy="1675.959961" r="19.980000" fill="red">
  <title>Delhi</title>
</circle><line x1="105.959999" y1="1152.959961" x2="287.959991" y2="1675.959961" stroke="red" stroke-width="6.660000" />
<circle cx="771.960022" cy="750.960022" r="19.980000" fill="red">
  <title>Shanghai</title>
</circle><line x1="287.959991" y1="1675.959961" x2="771.960022" y2="750.960022" stroke="red" stroke-width="6.660000" />
<circle cx="130.959991" cy="878.960022" r="19.980000" fill="red">
  <title>São Paulo</title>
</circle><line x1="771.960022" y1="750.960022" x2="130.959991" y2="878.960022" stroke="red" stroke-width="6.660000" />
</svg>
