<?xml version="1.0" encoding="UTF-8" standalone="no"?>
<svg width="500" height="500" viewBox="0 0 2074.000000 2074.000000" xmlns="http://www.w3.org/2000/svg">
<rect x="19.000000" y="19.000000" width="2036.000000" height="2036.000000" fill="black" />
<circle cx="216.959991" cy="1134.959961" r="19.980000" fill="red">
  <title>Tokyo</title>
</circle><line x1="511.959991" y1="1461.959961" x2="216.959991" y2="1134.959961" stroke="red" stroke-width="6.660000" />
<circle cx="153.959991" cy="782.960022" r="19.980000" fill="red">
  <title>Cairo</title>
</circle><line x1="216.959991" y1="1134.959961" x2="153.959991" y2="782.960022" stroke="red" stroke-width="6.660000" />
<circle cx="182.959991" cy="126.959999" r="19.980000" fill="red">
  <title>New York</title>
</circle><line x1="153.959991" y1="782.960022" x2="182.959991" y2="126.959999" stroke="red" stroke-width="6.660000" />
<circle cx="558.960022" cy="323.959991" r="19.980000" fill="red">
  <title>São Paulo</title>
</circle><line x1="182.959991" y1="126.959999" x2="558.960022" y2="323.959991" stroke="red" stroke-width="6.660000" />
<circle cx="883.960022" cy="1137.959961" r="19.980000" fill="red">
  <title>Dhaka</title>
</circle><line x1="558.960022" y1="323.959991" x2="883.960022" y2="1137.959961" stroke="red" stroke-width="6.660000" />
<circle cx="777.960022" cy="1465.959961" r="19.980000" fill="red">
  <title>Shanghai</title>
</circle><line x1="883.960022" y1="1137.959961" x2="777.960022" y2="1465.959961" stroke="red" stroke-width="6.660000" />
<circle cx="1464.959961" cy="1901.959961" r="19.980000" fill="red">
  <title>Delhi</title>
</circle><line x1="777.960022" y1="1465.959961" x2="1464.959961" y2="1901.959961" stroke="red" stroke-width="6.660000" />
<circle cx="1266.959961" cy="1923.959961" r="19.980000" fill="red">
  <title>Mexico City</title>
</circle><line x1="1464.959961" y1="1901.959961" x2="1266.959961" y2="1923.959961" stroke="red" stroke-width="6.660000" />
<circle cx="663.960022" cy="1757.959961" r="19.980000" fill="red">
  <title>Osaka</title>
</circle><line x1="1266.959961" y1="1923.959961" x2="663.960022" y2="1757.959961" stroke="red" stroke-width="6.660000" />
<circle cx="268.959991" cy="1983.959961" r="19.980000" fill="red">
  <title>Mumbai</title>
</circle><line x1="663.960022" y1="1757.959961" x2="268.959991" y2="1983.959961" stroke="red" stroke-width="6.660000" />
<circle cx="511.959991" cy="1461.959961" r="19.980000" fill="red">
  <title>Beijing</title>
</circle><line x1="268.959991" y1="1983.959961" x2="511.959991" y2="1461.959961" stroke="red" stroke-width="6.660000" />
</svg>
