<?xml version="1.0" encoding="UTF-8" standalone="no"?>
<svg width="500" height="500" viewBox="0 0 2074.000000 2074.000000" xmlns="http://www.w3.org/2000/svg">
<rect x="19.000000" y="19.000000" width="2036.000000" height="2036.000000" fill="black" />
<circle cx="390.959991" cy="1094.959961" r="19.980000" fill="red">
  <title>Tokyo</title>
</circle><line x1="109.959999" y1="1460.959961" x2="390.959991" y2="1094.959961" stroke="red" stroke-width="6.660000" />
<circle cx="803.960022" cy="1051.959961" r="19.980000" fill="red">
  <title>Beijing</title>
</circle><line x1="390.959991" y1="1094.959961" x2="803.960022" y2="1051.959961" stroke="red" stroke-width="6.660000" />
<circle cx="1167.959961" cy="799.960022" r="19.980000" fill="red">
  <title>Dhaka</title>
</circle><line x1="803.960022" y1="1051.959961" x2="1167.959961" y2="799.960022" stroke="red" stroke-width="6.660000" />
<circle cx="722.960022" cy="628.960022" r="19.980000" fill="red">
  <title>Cairo</title>
</circle><line x1="1167.959961" y1="799.960022" x2="722.960022" y2="628.960022" stroke="red" stroke-width="6.660000" />
<circle cx="986.960022" cy="383.959991" r="19.980000" fill="red">
  <title>Shanghai</title>
</circle><line x1="722.960022" y1="628.960022" x2="986.960022" y2="383.959991" stroke="red" stroke-width="6.660000" />
<circle cx="1158.959961" cy="232.959991" r="19.980000" fill="red">
  <title>Istanbul</title>
</circle><line x1="986.960022" y1="383.959991" x2="1158.959961" y2="232.959991" stroke="red" stroke-width="6.660000" />
<circle cx="1742.959961" cy="235.959991" r="19.980000" fill="red">
  <title>Lagos</title>
</circle><line x1="1158.959961" y1="232.959991" x2="1742.959961" y2="235.959991" stroke="red" stroke-width="6.660000" />
<circle cx="1961.959961" cy="271.959991" r="19.980000" fill="red">
  <title>Delhi</title>
</circle><line x1="1742.959961" y1="235.959991" x2="1961.959961" y2="271.959991" stroke="red" stroke-width="6.660000" />
<circle cx="1802.959961" cy="752.960022" r="19.980000" fill="red">
  <title>Osaka</title>
</circle><line x1="1961.959961" y1="271.959991" x2="1802.959961" y2="752.960022" stroke="red" stroke-width="6.660000" />
<circle cx="1714.959961" cy="772.960022" r="19.980000" fill="red">
  <title>New York</title>
</circle><line x1="1802.959961" y1="752.960022" x2="1714.959961" y2="772.960022" stroke="red" stroke-width="6.660000" />
<circle cx="1608.959961" cy="1038.959961" r="19.980000" fill="red">
  <title>Rio de Janeiro</title>
</circle><line x1="1714.959961" y1="772.960022" x2="1608.959961" y2="1038.959961" stroke="red" stroke-width="6.660000" />
<circle cx="1287.959961" cy="1263.959961" r="19.980000" fill="red">
  <title>Manila</title>
</circle><line x1="1608.959961" y1="1038.959961" x2="1287.959961" y2="1263.959961" stroke="red" stroke-width="6.660000" />
<circle cx="1333.959961" cy="1342.959961" r="19.980000" fill="red">
  <title>São Paulo</title>
</circle><line x1="1287.959961" y1="1263.959961" x2="1333.959961" y2="1342.959961" stroke="red" stroke-width="6.660000" />
<circle cx="1539.959961" cy="1679.959961" r="19.980000" fill="red">
  <title>Tianjin</title>
</circle><line x1="1333.959961" y1="1342.959961" x2="1539.959961" y2="1679.959961" stroke="red" stroke-width="6.660000" />
<circle cx="1756.959961" cy="1677.959961" r="19.980000" fill="red">
  <title>Karachi</title>
</circle><line x1="1539.959961" y1="1679.959961" x2="1756.959961" y2="1677.959961" stroke="red" stroke-width="6.660000" />
<circle cx="1552.959961" cy="1865.959961" r="19.980000" fill="red">
  <title>Mumbai</title>
</circle><line x1="1756.959961" y1="1677.959961" x2="1552.959961" y2="1865.959961" stroke="red" stroke-width="6.660000" />
<circle cx="1340.959961" cy="1509.959961" r="19.980000" fill="red">
  <title>Kolkata</title>
</circle><line x1="1552.959961" y1="1865.959961" x2="1340.959961" y2="1509.959961" stroke="red" stroke-width="6.660000" />
<circle cx="1133.959961" cy="1364.959961" r="19.980000" fill="red">
  <title>Chongqing</title>
</circle><line x1="1340.959961" y1="1509.959961" x2="1133.959961" y2="1364.959961" stroke="red" stroke-width="6.660000" />
<circle cx="690.960022" cy="1547.959961" r="19.980000" fill="red">
  <title>Buenos Aires</title>
</circle><line x1="1133.959961" y1="1364.959961" x2="690.960022" y2="1547.959961" stroke="red" stroke-width="6.660000" />
<circle cx="109.959999" cy="1460.959961" r="19.980000" fill="red">
  <title>Mexico City</title>
</circle><line x1="690.960022" y1="1547.959961" x2="109.959999" y2="1460.959961" stroke="red" stroke-width="6.660000" />
</svg>
