<?xml version="1.0" encoding="UTF-8" standalone="no"?>
<svg width="500" height="500" viewBox="0 0 2074.000000 2074.000000" xmlns="http://www.w3.org/2000/svg">
<rect x="19.000000" y="19.000000" width="2036.000000" height="2036.000000" fill="black" />
<circle cx="741.960022" cy="1417.959961" r="19.980000" fill="red">
  <title>Tokyo</title>
</circle><line x1="1238.959961" y1="1667.959961" x2="741.960022" y2="1417.959961" stroke="red" stroke-width="6.660000" />
<circle cx="194.959991" cy="1241.959961" r="19.980000" fill="red">
  <title>Mexico City</title>
</circle><line x1="741.960022" y1="1417.959961" x2="194.959991" y2="1241.959961" stroke="red" stroke-width="6.660000" />
<circle cx="265.959991" cy="733.960022" r="19.980000" fill="red">
  <title>São Paulo</title>
</circle><line x1="194.959991" y1="1241.959961" x2="265.959991" y2="733.960022" stroke="red" stroke-width="6.660000" />
<circle cx="363.959991" cy="199.959991" r="19.980000" fill="red">
  <title>New York</title>
</circle><line x1="265.959991" y1="733.960022" x2="363.959991" y2="199.959991" stroke="red" stroke-width="6.660000" />
<circle cx="1590.959961" cy="140.959991" r="19.980000" fill="red">
  <title>Osaka</title>
</circle><line x1="363.959991" y1="199.959991" x2="1590.959961" y2="140.959991" stroke="red" stroke-width="6.660000" />
<circle cx="1718.959961" cy="242.959991" r="19.980000" fill="red">
  <title>Shanghai</title>
</circle><line x1="1590.959961" y1="140.959991" x2="1718.959961" y2="242.959991" stroke="red" stroke-width="6.660000" />
<circle cx="1580.959961" cy="182.959991" r="19.980000" fill="red">
  <title>Dhaka</title>
</circle><line x1="1718.959961" y1="242.959991" x2="1580.959961" y2="182.959991" stroke="red" stroke-width="6.660000" />
<circle cx="933.960022" cy="990.960022" r="19.980000" fill="red">
  <title>Mumbai</title>
</circle><line x1="1580.959961" y1="182.959991" x2="933.960022" y2="990.960022" stroke="red" stroke-width="6.660000" />
<circle cx="1416.959961" cy="1172.959961" r="19.980000" fill="red">
  <title>Cairo</title>
</circle><line x1="933.960022" y1="990.960022" x2="1416.959961" y2="1172.959961" stroke="red" stroke-width="6.660000" />
<circle cx="1888.959961" cy="2033.959961" r="19.980000" fill="red">
  <title>Delhi</title>
</circle><line x1="1416.959961" y1="1172.959961" x2="1888.959961" y2="2033.959961" stroke="red" stroke-width="6.660000" />
<circle cx="1238.959961" cy="1667.959961" r="19.980000" fill="red">
  <title>Beijing</title>
</circle><line x1="1888.959961" y1="2033.959961" x2="1238.959961" y2="1667.959961" stroke="red" stroke-width="6.660000" />
</svg>
