<?xml version="1.0" encoding="UTF-8" standalone="no"?>
<svg width="500" height="500" viewBox="0 0 2074.000000 2074.000000" xmlns="http://www.w3.org/2000/svg">
<rect x="19.000000" y="19.000000" width="2036.000000" height="2036.000000" fill="black" />
<circle cx="1498.959961" cy="1831.959961" r="19.980000" fill="red">
  <title>Tokyo</title>
</circle><line x1="1333.959961" y1="1957.959961" x2="1498.959961" y2="1831.959961" stroke="red" stroke-width="6.660000" />
<circle cx="1388.959961" cy="1683.959961" r="19.980000" fill="red">
  <title>Delhi</title>
</circle><line x1="1498.959961" y1="1831.959961" x2="1388.959961" y2="1683.959961" stroke="red" stroke-width="6.660000" />
<circle cx="1234.959961" cy="1562.959961" r="19.980000" fill="red">
  <title>Chongqing</title>
</circle><line x1="1388.959961" y1="1683.959961" x2="1234.959961" y2="1562.959961" stroke="red" stroke-width="6.660000" />
<circle cx="1235.959961" cy="1422.959961" r="19.980000" fill="red">
  <title>Buenos Aires</title>
</circle><line x1="1234.959961" y1="1562.959961" x2="1235.959961" y2="1422.959961" stroke="red" stroke-width="6.660000" />
<circle cx="1391.959961" cy="1188.959961" r="19.980000" fill="red">
  <title>Cairo</title>
</circle><line x1="1235.959961" y1="1422.959961" x2="1391.959961" y2="1188.959961" stroke="red" stroke-width="6.660000" />
<circle cx="2008.959961" cy="1442.959961" r="19.980000" fill="red">
  <title>Shanghai</title>
</circle><line x1="1391.959961" y1="1188.959961" x2="2008.959961" y2="1442.959961" stroke="red" stroke-width="6.660000" />
<circle cx="1644.959961" cy="896.960022" r="19.980000" fill="red">
  <title>São Paulo</title>
</circle><line x1="2008.959961" y1="1442.959961" x2="1644.959961" y2="896.960022" stroke="red" stroke-width="6.660000" />
<circle cx="1024.959961" cy="368.959991" r="19.980000" fill="red">
  <title>Mexico City</title>
</circle><line x1="1644.959961" y1="896.960022" x2="1024.959961" y2="368.959991" stroke="red" stroke-width="6.660000" />
<circle cx="331.959991" cy="710.960022" r="19.980000" fill="red">
  <title>Istanbul</title>
</circle><line x1="1024.959961" y1="368.959991" x2="331.959991" y2="710.960022" stroke="red" stroke-width="6.660000" />
<circle cx="468.959991" cy="1345.959961" r="19.980000" fill="red">
  <title>Karachi</title>
</circle><line x1="331.959991" y1="710.960022" x2="468.959991" y2="1345.959961" stroke="red" stroke-width="6.660000" />
<circle cx="98.959999" cy="1295.959961" r="19.980000" fill="red">
  <title>Dhaka</title>
</circle><line x1="468.959991" y1="1345.959961" x2="98.959999" y2="1295.959961" stroke="red" stroke-width="6.660000" />
<circle cx="124.959999" cy="1593.959961" r="19.980000" fill="red">
  <title>Beijing</title>
</circle><line x1="98.959999" y1="1295.959961" x2="124.959999" y2="1593.959961" stroke="red" stroke-width="6.660000" />
<circle cx="290.959991" cy="1865.959961" r="19.980000" fill="red">
  <title>Osaka</title>
</circle><line x1="124.959999" y1="1593.959961" x2="290.959991" y2="1865.959961" stroke="red" stroke-width="6.660000" />
<circle cx="742.960022" cy="1958.959961" r="19.980000" fill="red">
  <title>New York</title>
</circle><line x1="290.959991" y1="1865.959961" x2="742.960022" y2="1958.959961" stroke="red" stroke-width="6.660000" />
<circle cx="1081.959961" cy="1791.959961" r="19.980000" fill="red">
  <title>Kolkata</title>
</circle><line x1="742.960022" y1="1958.959961" x2="1081.959961" y2="1791.959961" stroke="red" stroke-width="6.660000" />
<circle cx="1333.959961" cy="1957.959961" r="19.980000" fill="red">
  <title>Mumbai</title>
</circle><line x1="1081.959961" y1="1791.959961" x2="1333.959961" y2="1957.959961" stroke="red" stroke-width="6.660000" />
</svg>
