<?xml version="1.0" encoding="UTF-8" standalone="no"?>
<svg width="500" height="500" viewBox="0 0 2074.000000 2074.000000" xmlns="http://www.w3.org/2000/svg">
<rect x="19.000000" y="19.000000" width="2036.000000" height="2036.000000" fill="black" />
<circle cx="79.959999" cy="551.960022" r="19.980000" fill="red">
  <title>Tokyo</title>
</circle><line x1="64.959999" y1="666.960022" x2="79.959999" y2="551.960022" stroke="red" stroke-width="6.660000" />
<circle cx="541.960022" cy="784.960022" r="19.980000" fill="red">
  <title>Mumbai</title>
</circle><line x1="79.959999" y1="551.960022" x2="541.960022" y2="784.960022" stroke="red" stroke-width="6.660000" />
<circle cx="1099.959961" cy="473.959991" r="19.980000" fill="red">
  <title>Mexico City</title>
</circle><line x1="541.960022" y1="784.960022" x2="1099.959961" y2="473.959991" stroke="red" stroke-width="6.660000" />
<circle cx="1513.959961" cy="657.960022" r="19.980000" fill="red">
  <title>São Paulo</title>
</circle><line x1="1099.959961" y1="473.959991" x2="1513.959961" y2="657.960022" stroke="red" stroke-width="6.660000" />
<circle cx="1464.959961" cy="674.960022" r="19.980000" fill="red">
  <title>Delhi</title>
</circle><line x1="1513.959961" y1="657.960022" x2="1464.959961" y2="674.960022" stroke="red" stroke-width="6.660000" />
<circle cx="894.960022" cy="1860.959961" r="19.980000" fill="red">
  <title>Cairo</title>
</circle><line x1="1464.959961" y1="674.960022" x2="894.960022" y2="1860.959961" stroke="red" stroke-width="6.660000" />
<circle cx="710.960022" cy="1046.959961" r="19.980000" fill="red">
  <title>Shanghai</title>
</circle><line x1="894.960022" y1="1860.959961" x2="710.960022" y2="1046.959961" stroke="red" stroke-width="6.660000" />
<circle cx="64.959999" cy="666.960022" r="19.980000" fill="red">
  <title>Beijing</title>
</circle><line x1="710.960022" y1="1046.959961" x2="64.959999" y2="666.960022" stroke="red" stroke-width="6.660000" />
</svg>
