<?xml version="1.0" encoding="UTF-8" standalone="no"?>
<svg width="500" height="500" viewBox="0 0 2074.000000 2074.000000" xmlns="http://www.w3.org/2000/svg">
<rect x="19.000000" y="19.000000" width="2036.000000" height="2036.000000" fill="black" />
<circle cx="850.960022" cy="119.959999" r="19.980000" fill="red">
  <title>Tokyo</title>
</circle><line x1="608.960022" y1="615.960022" x2="850.960022" y2="119.959999" stroke="red" stroke-width="6.660000" />
<circle cx="1145.959961" cy="164.959991" r="19.980000" fill="red">
  <title>Karachi</title>
</circle><line x1="850.960022" y1="119.959999" x2="1145.959961" y2="164.959991" stroke="red" stroke-width="6.660000" />
<circle cx="1170.959961" cy="180.959991" r="19.980000" fill="red">
  <title>Shanghai</title>
</circle><line x1="1145.959961" y1="164.959991" x2="1170.959961" y2="180.959991" stroke="red" stroke-width="6.660000" />
<circle cx="1998.959961" cy="163.959991" r="19.980000" fill="red">
  <title>Beijing</title>
</circle><line x1="1170.959961" y1="180.959991" x2="1998.959961" y2="163.959991" stroke="red" stroke-width="6.660000" />
<circle cx="1793.959961" cy="677.960022" r="19.980000" fill="red">
  <title>São Paulo</title>
</circle><line x1="1998.959961" y1="163.959991" x2="1793.959961" y2="677.960022" stroke="red" stroke-width="6.660000" />
<circle cx="1990.959961" cy="1195.959961" r="19.980000" fill="red">
  <title>Delhi</title>
</circle><line x1="1793.959961" y1="677.960022" x2="1990.959961" y2="1195.959961" stroke="red" stroke-width="6.660000" />
<circle cx="1446.959961" cy="1396.959961" r="19.980000" fill="red">
  <title>Dhaka</title>
</circle><line x1="1990.959961" y1="1195.959961" x2="1446.959961" y2="1396.959961" stroke="red" stroke-width="6.660000" />
<circle cx="1487.959961" cy="1236.959961" r="19.980000" fill="red">
  <title>New York</title>
</circle><line x1="1446.959961" y1="1396.959961" x2="1487.959961" y2="1236.959961" stroke="red" stroke-width="6.660000" />
<circle cx="953.960022" cy="851.960022" r="19.980000" fill="red">
  <title>Osaka</title>
</circle><line x1="1487.959961" y1="1236.959961" x2="953.960022" y2="851.960022" stroke="red" stroke-width="6.660000" />
<circle cx="465.959991" cy="1493.959961" r="19.980000" fill="red">
  <title>Mexico City</title>
</circle><line x1="953.960022" y1="851.960022" x2="465.959991" y2="1493.959961" stroke="red" stroke-width="6.660000" />
<circle cx="200.959991" cy="1572.959961" r="19.980000" fill="red">
  <title>Buenos Aires</title>
</circle><line x1="465.959991" y1="1493.959961" x2="200.959991" y2="1572.959961" stroke="red" stroke-width="6.660000" />
<circle cx="370.959991" cy="1083.959961" r="19.980000" fill="red">
  <title>Mumbai</title>
</circle><line x1="200.959991" y1="1572.959961" x2="370.959991" y2="1083.959961" stroke="red" stroke-width="6.660000" />
<circle cx="736.960022" cy="758.960022" r="19.980000" fill="red">
  <title>Cairo</title>
</circle><line x1="370.959991" y1="1083.959961" x2="736.960022" y2="758.960022" stroke="red" stroke-width="6.660000" />
<circle cx="608.960022" cy="615.960022" r="19.980000" fill="red">
  <title>Chongqing</title>
</circle><line x1="736.960022" y1="758.960022" x2="608.960022" y2="615.960022" stroke="red" stroke-width="6.660000" />
</svg>
