<?xml version="1.0" encoding="UTF-8" standalone="no"?>
<svg width="500" height="500" viewBox="0 0 2074.000000 2074.000000" xmlns="http://www.w3.org/2000/svg">
<rect x="19.000000" y="19.000000" width="2036.000000" height="2036.000000" fill="black" />
<circle cx="1643.959961" cy="440.959991" r="19.980000" fill="red">
  <title>Tokyo</title>
</circle><line x1="655.960022" y1="746.960022" x2="1643.959961" y2="440.959991" stroke="red" stroke-width="6.660000" />
<circle cx="862.960022" cy="192.959991" r="19.980000" fill="red">
  <title>Shanghai</title>
</circle><line x1="1643.959961" y1="440.959991" x2="862.960022" y2="192.959991" stroke="red" stroke-width="6.660000" />
<circle cx="416.959991" cy="1001.960022" r="19.980000" fill="red">
  <title>Delhi</title>
</circle><line x1="862.960022" y1="192.959991" x2="416.959991" y2="1001.960022" stroke="red" stroke-width="6.660000" />
<circle cx="655.960022" cy="746.960022" r="19.980000" fill="red">
  <title>São Paulo</title>
</circle><line x1="416.959991" y1="1001.960022" x2="655.960022" y2="746.960022" stroke="red" stroke-width="6.660000" />
</svg>
