<?xml version="1.0" encoding="UTF-8" standalone="no"?>
<svg width="500" height="500" viewBox="0 0 2074.000000 2074.000000" xmlns="http://www.w3.org/2000/svg">
<rect x="19.000000" y="19.000000" width="2036.000000" height="2036.000000" fill="black" />
<circle cx="294.959991" cy="553.960022" r="19.980000" fill="red">
  <title>Tokyo</title>
</circle><line x1="989.960022" y1="1157.959961" x2="294.959991" y2="553.960022" stroke="red" stroke-width="6.660000" />
<circle cx="565.960022" cy="1680.959961" r="19.980000" fill="red">
  <title>Delhi</title>
</circle><line x1="294.959991" y1="553.960022" x2="565.960022" y2="1680.959961" stroke="red" stroke-width="6.660000" />
<circle cx="989.960022" cy="1157.959961" r="19.980000" fill="red">
  <title>Shanghai</title>
</circle><line x1="565.960022" y1="1680.959961" x2="989.960022" y2="1157.959961" stroke="red" stroke-width="6.660000" />
</svg>
