<?xml version="1.0" encoding="UTF-8" standalone="no"?>
<svg width="500" height="500" viewBox="0 0 2074.000000 2074.000000" xmlns="http://www.w3.org/2000/svg">
<rect x="19.000000" y="19.000000" width="2036.000000" height="2036.000000" fill="black" />
<circle cx="1220.959961" cy="380.959991" r="19.980000" fill="red">
  <title>Tokyo</title>
</circle><line x1="914.960022" y1="53.959999" x2="1220.959961" y2="380.959991" stroke="red" stroke-width="6.660000" />
<circle cx="1991.959961" cy="51.959999" r="19.980000" fill="red">
  <title>Mexico City</title>
</circle><line x1="1220.959961" y1="380.959991" x2="1991.959961" y2="51.959999" stroke="red" stroke-width="6.660000" />
<circle cx="1161.959961" cy="503.959991" r="19.980000" fill="red">
  <title>Dhaka</title>
</circle><line x1="1991.959961" y1="51.959999" x2="1161.959961" y2="503.959991" stroke="red" stroke-width="6.660000" />
<circle cx="979.960022" cy="701.960022" r="19.980000" fill="red">
  <title>Shanghai</title>
</circle><line x1="1161.959961" y1="503.959991" x2="979.960022" y2="701.960022" stroke="red" stroke-width="6.660000" />
<circle cx="1315.959961" cy="1056.959961" r="19.980000" fill="red">
  <title>Delhi</title>
</circle><line x1="979.960022" y1="701.960022" x2="1315.959961" y2="1056.959961" stroke="red" stroke-width="6.660000" />
<circle cx="1536.959961" cy="2009.959961" r="19.980000" fill="red">
  <title>São Paulo</title>
</circle><line x1="1315.959961" y1="1056.959961" x2="1536.959961" y2="2009.959961" stroke="red" stroke-width="6.660000" />
<circle cx="234.959991" cy="1016.960022" r="19.980000" fill="red">
  <title>Mumbai</title>
</circle><line x1="1536.959961" y1="2009.959961" x2="234.959991" y2="1016.960022" stroke="red" stroke-width="6.660000" />
<circle cx="101.959999" cy="784.960022" r="19.980000" fill="red">
  <title>Cairo</title>
</circle><line x1="234.959991" y1="1016.960022" x2="101.959999" y2="784.960022" stroke="red" stroke-width="6.660000" />
<circle cx="914.960022" cy="53.959999" r="19.980000" fill="red">
  <title>Beijing</title>
</circle><line x1="101.959999" y1="784.960022" x2="914.960022" y2="53.959999" stroke="red" stroke-width="6.660000" />
</svg>
