<?xml version="1.0" encoding="UTF-8" standalone="no"?>
<svg width="500" height="500" viewBox="0 0 2074.000000 2074.000000" xmlns="http://www.w3.org/2000/svg">
<rect x="19.000000" y="19.000000" width="2036.000000" height="2036.000000" fill="black" />
<circle cx="53.959999" cy="1349.959961" r="19.980000" fill="red">
  <title>Tokyo</title>
</circle><line x1="754.960022" y1="1337.959961" x2="53.959999" y2="1349.959961" stroke="red" stroke-width="6.660000" />
<circle cx="280.959991" cy="691.960022" r="19.980000" fill="red">
  <title>Mexico City</title>
</circle><line x1="53.959999" y1="1349.959961" x2="280.959991" y2="691.960022" stroke="red" stroke-width="6.660000" />
<circle cx="404.959991" cy="196.959991" r="19.980000" fill="red">
  <title>São Paulo</title>
</circle><line x1="280.959991" y1="691.960022" x2="404.959991" y2="196.959991" stroke="red" stroke-width="6.660000" />
<circle cx="1714.959961" cy="137.959991" r="19.980000" fill="red">
  <title>Cairo</title>
</circle><line x1="404.959991" y1="196.959991" x2="1714.959961" y2="137.959991" stroke="red" stroke-width="6.660000" />
<circle cx="1322.959961" cy="1017.960022" r="19.980000" fill="red">
  <title>Mumbai</title>
</circle><line x1="1714.959961" y1="137.959991" x2="1322.959961" y2="1017.960022" stroke="red" stroke-width="6.660000" />
<circle cx="1635.959961" cy="1586.959961" r="19.980000" fill="red">
  <title>Delhi</title>
</circle><line x1="1322.959961" y1="1017.960022" x2="1635.959961" y2="1586.959961" stroke="red" stroke-width="6.660000" />
<circle cx="1184.959961" cy="1617.959961" r="19.980000" fill="red">
  <title>Shanghai</title>
</circle><line x1="1635.959961" y1="1586.959961" x2="1184.959961" y2="1617.959961" stroke="red" stroke-width="6.660000" />
<circle cx="754.960022" cy="1337.959961" r="19.980000" fill="red">
  <title>Beijing</title>
</circle><line x1="1184.959961" y1="1617.959961" x2="754.960022" y2="1337.959961" stroke="red" stroke-width="6.660000" />
</svg>
