<?xml version="1.0" encoding="UTF-8" standalone="no"?>
<svg width="500" height="500" viewBox="0 0 2074.000000 2074.000000" xmlns="http://www.w3.org/2000/svg">
<rect x="19.000000" y="19.000000" width="2036.000000" height="2036.000000" fill="black" />
<circle cx="1011.960022" cy="179.959991" r="19.980000" fill="red">
  <title>Tokyo</title>
</circle><line x1="1767.959961" y1="622.960022" x2="1011.960022" y2="179.959991" stroke="red" stroke-width="6.660000" />
<circle cx="56.959999" cy="193.959991" r="19.980000" fill="red">
  <title>Delhi</title>
</circle><line x1="1011.960022" y1="179.959991" x2="56.959999" y2="193.959991" stroke="red" stroke-width="6.660000" />
<circle cx="542.960022" cy="804.960022" r="19.980000" fill="red">
  <title>Osaka</title>
</circle><line x1="56.959999" y1="193.959991" x2="542.960022" y2="804.960022" stroke="red" stroke-width="6.660000" />
<circle cx="621.960022" cy="1138.959961" r="19.980000" fill="red">
  <title>Dhaka</title>
</circle><line x1="542.960022" y1="804.960022" x2="621.960022" y2="1138.959961" stroke="red" stroke-width="6.660000" />
<circle cx="759.960022" cy="1055.959961" r="19.980000" fill="red">
  <title>Mumbai</title>
</circle><line x1="621.960022" y1="1138.959961" x2="759.960022" y2="1055.959961" stroke="red" stroke-width="6.660000" />
<circle cx="1160.959961" cy="1210.959961" r="19.980000" fill="red">
  <title>São Paulo</title>
</circle><line x1="759.960022" y1="1055.959961" x2="1160.959961" y2="1210.959961" stroke="red" stroke-width="6.660000" />
<circle cx="822.960022" cy="1644.959961" r="19.980000" fill="red">
  <title>New York</title>
</circle><line x1="1160.959961" y1="1210.959961" x2="822.960022" y2="1644.959961" stroke="red" stroke-width="6.660000" />
<circle cx="1483.959961" cy="1993.959961" r="19.980000" fill="red">
  <title>Shanghai</title>
</circle><line x1="822.960022" y1="1644.959961" x2="1483.959961" y2="1993.959961" stroke="red" stroke-width="6.660000" />
<circle cx="1768.959961" cy="1293.959961" r="19.980000" fill="red">
  <title>Mexico City</title>
</circle><line x1="1483.959961" y1="1993.959961" x2="1768.959961" y2="1293.959961" stroke="red" stroke-width="6.660000" />
<circle cx="1569.959961" cy="1056.959961" r="19.980000" fill="red">
  <title>Beijing</title>
</circle><line x1="1768.959961" y1="1293.959961" x2="1569.959961" y2="1056.959961" stroke="red" stroke-width="6.660000" />
<circle cx="1372.959961" cy="972.960022" r="19.980000" fill="red">
  <title>Cairo</title>
</circle><line x1="1569.959961" y1="1056.959961" x2="1372.959961" y2="972.960022" stroke="red" stroke-width="6.660000" />
<circle cx="1767.959961" cy="622.960022" r="19.980000" fill="red">
  <title>Karachi</title>
</circle><line x1="1372.959961" y1="972.960022" x2="1767.959961" y2="622.960022" stroke="red" stroke-width="6.660000" />
</svg>
