<?xml version="1.0" encoding="UTF-8" standalone="no"?>
<svg width="500" height="500" viewBox="0 0 2074.000000 2074.000000" xmlns="http://www.w3.org/2000/svg">
<rect x="19.000000" y="19.000000" width="2036.000000" height="2036.000000" fill="black" />
<circle cx="350.959991" cy="834.960022" r="19.980000" fill="red">
  <title>Tokyo</title>
</circle><line x1="59.959999" y1="509.959991" x2="350.959991" y2="834.960022" stroke="red" stroke-width="6.660000" />
<circle cx="716.960022" cy="1067.959961" r="19.980000" fill="red">
  <title>Mumbai</title>
</circle><line x1="350.959991" y1="834.960022" x2="716.960022" y2="1067.959961" stroke="red" stroke-width="6.660000" />
<circle cx="399.959991" cy="1639.959961" r="19.980000" fill="red">
  <title>Cairo</title>
</circle><line x1="716.960022" y1="1067.959961" x2="399.959991" y2="1639.959961" stroke="red" stroke-width="6.660000" />
<circle cx="1276.959961" cy="1771.959961" r="19.980000" fill="red">
  <title>Karachi</title>
</circle><line x1="399.959991" y1="1639.959961" x2="1276.959961" y2="1771.959961" stroke="red" stroke-width="6.660000" />
<circle cx="1998.959961" cy="1983.959961" r="19.980000" fill="red">
  <title>São Paulo</title>
</circle><line x1="1276.959961" y1="1771.959961" x2="1998.959961" y2="1983.959961" stroke="red" stroke-width="6.660000" />
<circle cx="1984.959961" cy="1861.959961" r="19.980000" fill="red">
  <title>Osaka</title>
</circle><line x1="1998.959961" y1="1983.959961" x2="1984.959961" y2="1861.959961" stroke="red" stroke-width="6.660000" />
<circle cx="1845.959961" cy="1013.960022" r="19.980000" fill="red">
  <title>Shanghai</title>
</circle><line x1="1984.959961" y1="1861.959961" x2="1845.959961" y2="1013.960022" stroke="red" stroke-width="6.660000" />
<circle cx="1402.959961" cy="1042.959961" r="19.980000" fill="red">
  <title>Mexico City</title>
</circle><line x1="1845.959961" y1="1013.960022" x2="1402.959961" y2="1042.959961" stroke="red" stroke-width="6.660000" />
<circle cx="1334.959961" cy="1075.959961" r="19.980000" fill="red">
  <title>Beijing</title>
</circle><line x1="1402.959961" y1="1042.959961" x2="1334.959961" y2="1075.959961" stroke="red" stroke-width="6.660000" />
<circle cx="1024.959961" cy="813.960022" r="19.980000" fill="red">
  <title>Delhi</title>
</circle><line x1="1334.959961" y1="1075.959961" x2="1024.959961" y2="813.960022" stroke="red" stroke-width="6.660000" />
<circle cx="997.960022" cy="651.960022" r="19.980000" fill="red">
  <title>Dhaka</title>
</circle><line x1="1024.959961" y1="813.960022" x2="997.960022" y2="651.960022" stroke="red" stroke-width="6.660000" />
<circle cx="59.959999" cy="509.959991" r="19.980000" fill="red">
  <title>New York</title>
</circle><line x1="997.960022" y1="651.960022" x2="59.959999" y2="509.959991" stroke="red" stroke-width="6.660000" />
</svg>
