<?xml version="1.0" encoding="UTF-8" standalone="no"?>
<svg width="500" height="500" viewBox="0 0 2074.000000 2074.000000" xmlns="http://www.w3.org/2000/svg">
<rect x="19.000000" y="19.000000" width="2036.000000" height="2036.000000" fill="black" />
<circle cx="181.959991" cy="1384.959961" r="19.980000" fill="red">
  <title>Tokyo</title>
</circle><line x1="357.959991" y1="1995.959961" x2="181.959991" y2="1384.959961" stroke="red" stroke-width="6.660000" />
<circle cx="1745.959961" cy="899.960022" r="19.980000" fill="red">
  <title>Delhi</title>
</circle><line x1="181.959991" y1="1384.959961" x2="1745.959961" y2="899.960022" stroke="red" stroke-width="6.660000" />
<circle cx="1681.959961" cy="106.959999" r="19.980000" fill="red">
  <title>Mumbai</title>
</circle><line x1="1745.959961" y1="899.960022" x2="1681.959961" y2="106.959999" stroke="red" stroke-width="6.660000" />
<circle cx="1989.959961" cy="1076.959961" r="19.980000" fill="red">
  <title>Mexico City</title>
</circle><line x1="1681.959961" y1="106.959999" x2="1989.959961" y2="1076.959961" stroke="red" stroke-width="6.660000" />
<circle cx="1860.959961" cy="1723.959961" r="19.980000" fill="red">
  <title>Shanghai</title>
</circle><line x1="1989.959961" y1="1076.959961" x2="1860.959961" y2="1723.959961" stroke="red" stroke-width="6.660000" />
<circle cx="1075.959961" cy="1827.959961" r="19.980000" fill="red">
  <title>Beijing</title>
</circle><line x1="1860.959961" y1="1723.959961" x2="1075.959961" y2="1827.959961" stroke="red" stroke-width="6.660000" />
<circle cx="666.960022" cy="1877.959961" r="19.980000" fill="red">
  <title>Cairo</title>
</circle><line x1="1075.959961" y1="1827.959961" x2="666.960022" y2="1877.959961" stroke="red" stroke-width="6.660000" />
<circle cx="357.959991" cy="1995.959961" r="19.980000" fill="red">
  <title>São Paulo</title>
</circle><line x1="666.960022" y1="1877.959961" x2="357.959991" y2="1995.959961" stroke="red" stroke-width="6.660000" />
</svg>
