<?xml version="1.0" encoding="UTF-8" standalone="no"?>
<svg width="500" height="500" viewBox="0 0 2074.000000 2074.000000" xmlns="http://www.w3.org/2000/svg">
<rect x="19.000000" y="19.000000" width="2036.000000" height="2036.000000" fill="black" />
<circle cx="1008.960022" cy="592.960022" r="19.980000" fill="red">
  <title>Tokyo</title>
</circle><line x1="282.959991" y1="1097.959961" x2="1008.960022" y2="592.960022" stroke="red" stroke-width="6.660000" />
<circle cx="1002.960022" cy="266.959991" r="19.980000" fill="red">
  <title>Osaka</title>
</circle><line x1="1008.960022" y1="592.960022" x2="1002.960022" y2="266.959991" stroke="red" stroke-width="6.660000" />
<circle cx="1032.959961" cy="223.959991" r="19.980000" fill="red">
  <title>Istanbul</title>
</circle><line x1="1002.960022" y1="266.959991" x2="1032.959961" y2="223.959991" stroke="red" stroke-width="6.660000" />
<circle cx="1161.959961" cy="252.959991" r="19.980000" fill="red">
  <title>Beijing</title>
</circle><line x1="1032.959961" y1="223.959991" x2="1161.959961" y2="252.959991" stroke="red" stroke-width="6.660000" />
<circle cx="1391.959961" cy="981.960022" r="19.980000" fill="red">
  <title>Mumbai</title>
</circle><line x1="1161.959961" y1="252.959991" x2="1391.959961" y2="981.960022" stroke="red" stroke-width="6.660000" />
<circle cx="1874.959961" cy="655.960022" r="19.980000" fill="red">
  <title>Mexico City</title>
</circle><line x1="1391.959961" y1="981.960022" x2="1874.959961" y2="655.960022" stroke="red" stroke-width="6.660000" />
<circle cx="1930.959961" cy="899.960022" r="19.980000" fill="red">
  <title>Cairo</title>
</circle><line x1="1874.959961" y1="655.960022" x2="1930.959961" y2="899.960022" stroke="red" stroke-width="6.660000" />
<circle cx="1823.959961" cy="2000.959961" r="19.980000" fill="red">
  <title>Karachi</title>
</circle><line x1="1930.959961" y1="899.960022" x2="1823.959961" y2="2000.959961" stroke="red" stroke-width="6.660000" />
<circle cx="1353.959961" cy="1625.959961" r="19.980000" fill="red">
  <title>Shanghai</title>
</circle><line x1="1823.959961" y1="2000.959961" x2="1353.959961" y2="1625.959961" stroke="red" stroke-width="6.660000" />
<circle cx="687.960022" cy="1641.959961" r="19.980000" fill="red">
  <title>Dhaka</title>
</circle><line x1="1353.959961" y1="1625.959961" x2="687.960022" y2="1641.959961" stroke="red" stroke-width="6.660000" />
<circle cx="660.960022" cy="1774.959961" r="19.980000" fill="red">
  <title>Chongqing</title>
</circle><line x1="687.960022" y1="1641.959961" x2="660.960022" y2="1774.959961" stroke="red" stroke-width="6.660000" />
<circle cx="288.959991" cy="1586.959961" r="19.980000" fill="red">
  <title>New York</title>
</circle><line x1="660.960022" y1="1774.959961" x2="288.959991" y2="1586.959961" stroke="red" stroke-width="6.660000" />
<circle cx="152.959991" cy="1527.959961" r="19.980000" fill="red">
  <title>Delhi</title>
</circle><line x1="288.959991" y1="1586.959961" x2="152.959991" y2="1527.959961" stroke="red" stroke-width="6.660000" />
<circle cx="62.959999" cy="1029.959961" r="19.980000" fill="red">
  <title>São Paulo</title>
</circle><line x1="152.959991" y1="1527.959961" x2="62.959999" y2="1029.959961" stroke="red" stroke-width="6.660000" />
<circle cx="282.959991" cy="1097.959961" r="19.980000" fill="red">
  <title>Buenos Aires</title>
</circle><line x1="62.959999" y1="1029.959961" x2="282.959991" y2="1097.959961" stroke="red" stroke-width="6.660000" />
</svg>
