<?xml version="1.0" encoding="UTF-8" standalone="no"?>
<svg width="500" height="500" viewBox="0 0 2074.000000 2074.000000" xmlns="http://www.w3.org/2000/svg">
<rect x="19.000000" y="19.000000" width="2036.000000" height="2036.000000" fill="black" />
<circle cx="247.959991" cy="1297.959961" r="19.980000" fill="red">
  <title>Tokyo</title>
</circle><line x1="62.959999" y1="1321.959961" x2="247.959991" y2="1297.959961" stroke="red" stroke-width="6.660000" />
<circle cx="265.959991" cy="1210.959961" r="19.980000" fill="red">
  <title>Delhi</title>
</circle><line x1="247.959991" y1="1297.959961" x2="265.959991" y2="1210.959961" stroke="red" stroke-width="6.660000" />
<circle cx="485.959991" cy="862.960022" r="19.980000" fill="red">
  <title>Osaka</title>
</circle><line x1="265.959991" y1="1210.959961" x2="485.959991" y2="862.960022" stroke="red" stroke-width="6.660000" />
<circle cx="869.960022" cy="982.960022" r="19.980000" fill="red">
  <title>Buenos Aires</title>
</circle><line x1="485.959991" y1="862.960022" x2="869.960022" y2="982.960022" stroke="red" stroke-width="6.660000" />
<circle cx="1102.959961" cy="697.960022" r="19.980000" fill="red">
  <title>Cairo</title>
</circle><line x1="869.960022" y1="982.960022" x2="1102.959961" y2="697.960022" stroke="red" stroke-width="6.660000" />
<circle cx="1036.959961" cy="216.959991" r="19.980000" fill="red">
  <title>Beijing</title>
</circle><line x1="1102.959961" y1="697.960022" x2="1036.959961" y2="216.959991" stroke="red" stroke-width="6.660000" />
<circle cx="1075.959961" cy="52.959999" r="19.980000" fill="red">
  <title>Shanghai</title>
</circle><line x1="1036.959961" y1="216.959991" x2="1075.959961" y2="52.959999" stroke="red" stroke-width="6.660000" />
<circle cx="1074.959961" cy="657.960022" r="19.980000" fill="red">
  <title>Mumbai</title>
</circle><line x1="1075.959961" y1="52.959999" x2="1074.959961" y2="657.960022" stroke="red" stroke-width="6.660000" />
<circle cx="1184.959961" cy="721.960022" r="19.980000" fill="red">
  <title>Chongqing</title>
</circle><line x1="1074.959961" y1="657.960022" x2="1184.959961" y2="721.960022" stroke="red" stroke-width="6.660000" />
<circle cx="1171.959961" cy="817.960022" r="19.980000" fill="red">
  <title>New York</title>
</circle><line x1="1184.959961" y1="721.960022" x2="1171.959961" y2="817.960022" stroke="red" stroke-width="6.660000" />
<circle cx="1391.959961" cy="1949.959961" r="19.980000" fill="red">
  <title>Mexico City</title>
</circle><line x1="1171.959961" y1="817.960022" x2="1391.959961" y2="1949.959961" stroke="red" stroke-width="6.660000" />
<circle cx="478.959991" cy="1637.959961" r="19.980000" fill="red">
  <title>Istanbul</title>
</circle><line x1="1391.959961" y1="1949.959961" x2="478.959991" y2="1637.959961" stroke="red" stroke-width="6.660000" />
<circle cx="298.959991" cy="1767.959961" r="19.980000" fill="red">
  <title>São Paulo</title>
</circle><line x1="478.959991" y1="1637.959961" x2="298.959991" y2="1767.959961" stroke="red" stroke-width="6.660000" />
<circle cx="65.959999" cy="1910.959961" r="19.980000" fill="red">
  <title>Dhaka</title>
</circle><line x1="298.959991" y1="1767.959961" x2="65.959999" y2="1910.959961" stroke="red" stroke-width="6.660000" />
<circle cx="62.959999" cy="1321.959961" r="19.980000" fill="red">
  <title>Karachi</title>
</circle><line x1="65.959999" y1="1910.959961" x2="62.959999" y2="1321.959961" stroke="red" stroke-width="6.660000" />
</svg>
