<?xml version="1.0" encoding="UTF-8" standalone="no"?>
<svg width="500" height="500" viewBox="0 0 2074.000000 2074.000000" xmlns="http://www.w3.org/2000/svg">
<rect x="19.000000" y="19.000000" width="2036.000000" height="2036.000000" fill="black" />
<circle cx="891.960022" cy="1749.959961" r="19.980000" fill="red">
  <title>Tokyo</title>
</circle><line x1="765.960022" y1="1680.959961" x2="891.960022" y2="1749.959961" stroke="red" stroke-width="6.660000" />
<circle cx="1168.959961" cy="1592.959961" r="19.980000" fill="red">
  <title>Shanghai</title>
</circle><line x1="891.960022" y1="1749.959961" x2="1168.959961" y2="1592.959961" stroke="red" stroke-width="6.660000" />
<circle cx="1487.959961" cy="1839.959961" r="19.980000" fill="red">
  <title>Istanbul</title>
</circle><line x1="1168.959961" y1="1592.959961" x2="1487.959961" y2="1839.959961" stroke="red" stroke-width="6.660000" />
<circle cx="1551.959961" cy="1680.959961" r="19.980000" fill="red">
  <title>Manila</title>
</circle><line x1="1487.959961" y1="1839.959961" x2="1551.959961" y2="1680.959961" stroke="red" stroke-width="6.660000" />
<circle cx="1788.959961" cy="1464.959961" r="19.980000" fill="red">
  <title>Osaka</title>
</circle><line x1="1551.959961" y1="1680.959961" x2="1788.959961" y2="1464.959961" stroke="red" stroke-width="6.660000" />
<circle cx="1405.959961" cy="1177.959961" r="19.980000" fill="red">
  <title>Delhi</title>
</circle><line x1="1788.959961" y1="1464.959961" x2="1405.959961" y2="1177.959961" stroke="red" stroke-width="6.660000" />
<circle cx="1947.959961" cy="819.960022" r="19.980000" fill="red">
  <title>Dhaka</title>
</circle><line x1="1405.959961" y1="1177.959961" x2="1947.959961" y2="819.960022" stroke="red" stroke-width="6.660000" />
<circle cx="1479.959961" cy="682.960022" r="19.980000" fill="red">
  <title>Lagos</title>
</circle><line x1="1947.959961" y1="819.960022" x2="1479.959961" y2="682.960022" stroke="red" stroke-width="6.660000" />
<circle cx="1574.959961" cy="372.959991" r="19.980000" fill="red">
  <title>Mumbai</title>
</circle><line x1="1479.959961" y1="682.960022" x2="1574.959961" y2="372.959991" stroke="red" stroke-width="6.660000" />
<circle cx="1294.959961" cy="142.959991" r="19.980000" fill="red">
  <title>Mexico City</title>
</circle><line x1="1574.959961" y1="372.959991" x2="1294.959961" y2="142.959991" stroke="red" stroke-width="6.660000" />
<circle cx="1339.959961" cy="565.960022" r="19.980000" fill="red">
  <title>Chongqing</title>
</circle><line x1="1294.959961" y1="142.959991" x2="1339.959961" y2="565.960022" stroke="red" stroke-width="6.660000" />
<circle cx="1084.959961" cy="507.959991" r="19.980000" fill="red">
  <title>São Paulo</title>
</circle><line x1="1339.959961" y1="565.960022" x2="1084.959961" y2="507.959991" stroke="red" stroke-width="6.660000" />
<circle cx="708.960022" cy="224.959991" r="19.980000" fill="red">
  <title>Buenos Aires</title>
</circle><line x1="1084.959961" y1="507.959991" x2="708.960022" y2="224.959991" stroke="red" stroke-width="6.660000" />
<circle cx="314.959991" cy="340.959991" r="19.980000" fill="red">
  <title>Kolkata</title>
</circle><line x1="708.960022" y1="224.959991" x2="314.959991" y2="340.959991" stroke="red" stroke-width="6.660000" />
<circle cx="398.959991" cy="808.960022" r="19.980000" fill="red">
  <title>New York</title>
</circle><line x1="314.959991" y1="340.959991" x2="398.959991" y2="808.960022" stroke="red" stroke-width="6.660000" />
<circle cx="217.959991" cy="1255.959961" r="19.980000" fill="red">
  <title>Karachi</title>
</circle><line x1="398.959991" y1="808.960022" x2="217.959991" y2="1255.959961" stroke="red" stroke-width="6.660000" />
<circle cx="479.959991" cy="1304.959961" r="19.980000" fill="red">
  <title>Beijing</title>
</circle><line x1="217.959991" y1="1255.959961" x2="479.959991" y2="1304.959961" stroke="red" stroke-width="6.660000" />
<circle cx="765.960022" cy="1680.959961" r="19.980000" fill="red">
  <title>Cairo</title>
</circle><line x1="479.959991" y1="1304.959961" x2="765.960022" y2="1680.959961" stroke="red" stroke-width="6.660000" />
</svg>
