<?xml version="1.0" encoding="UTF-8" standalone="no"?>
<svg width="500" height="500" viewBox="0 0 2074.000000 2074.000000" xmlns="http://www.w3.org/2000/svg">
<rect x="19.000000" y="19.000000" width="2036.000000" height="2036.000000" fill="black" />
<circle cx="1823.959961" cy="1596.959961" r="19.980000" fill="red">
  <title>Tokyo</title>
</circle><line x1="1908.959961" y1="1014.960022" x2="1823.959961" y2="1596.959961" stroke="red" stroke-width="6.660000" />
<circle cx="1458.959961" cy="1663.959961" r="19.980000" fill="red">
  <title>Mexico City</title>
</circle><line x1="1823.959961" y1="1596.959961" x2="1458.959961" y2="1663.959961" stroke="red" stroke-width="6.660000" />
<circle cx="1148.959961" cy="1999.959961" r="19.980000" fill="red">
  <title>Mumbai</title>
</circle><line x1="1458.959961" y1="1663.959961" x2="1148.959961" y2="1999.959961" stroke="red" stroke-width="6.660000" />
<circle cx="926.960022" cy="1730.959961" r="19.980000" fill="red">
  <title>Istanbul</title>
</circle><line x1="1148.959961" y1="1999.959961" x2="926.960022" y2="1730.959961" stroke="red" stroke-width="6.660000" />
<circle cx="564.960022" cy="1851.959961" r="19.980000" fill="red">
  <title>Delhi</title>
</circle><line x1="926.960022" y1="1730.959961" x2="564.960022" y2="1851.959961" stroke="red" stroke-width="6.660000" />
<circle cx="288.959991" cy="1750.959961" r="19.980000" fill="red">
  <title>New York</title>
</circle><line x1="564.960022" y1="1851.959961" x2="288.959991" y2="1750.959961" stroke="red" stroke-width="6.660000" />
<circle cx="238.959991" cy="1562.959961" r="19.980000" fill="red">
  <title>Beijing</title>
</circle><line x1="288.959991" y1="1750.959961" x2="238.959991" y2="1562.959961" stroke="red" stroke-width="6.660000" />
<circle cx="436.959991" cy="1219.959961" r="19.980000" fill="red">
  <title>São Paulo</title>
</circle><line x1="238.959991" y1="1562.959961" x2="436.959991" y2="1219.959961" stroke="red" stroke-width="6.660000" />
<circle cx="648.960022" cy="1143.959961" r="19.980000" fill="red">
  <title>Osaka</title>
</circle><line x1="436.959991" y1="1219.959961" x2="648.960022" y2="1143.959961" stroke="red" stroke-width="6.660000" />
<circle cx="600.960022" cy="711.960022" r="19.980000" fill="red">
  <title>Kolkata</title>
</circle><line x1="648.960022" y1="1143.959961" x2="600.960022" y2="711.960022" stroke="red" stroke-width="6.660000" />
<circle cx="773.960022" cy="704.960022" r="19.980000" fill="red">
  <title>Buenos Aires</title>
</circle><line x1="600.960022" y1="711.960022" x2="773.960022" y2="704.960022" stroke="red" stroke-width="6.660000" />
<circle cx="896.960022" cy="636.960022" r="19.980000" fill="red">
  <title>Karachi</title>
</circle><line x1="773.960022" y1="704.960022" x2="896.960022" y2="636.960022" stroke="red" stroke-width="6.660000" />
<circle cx="1427.959961" cy="396.959991" r="19.980000" fill="red">
  <title>Cairo</title>
</circle><line x1="896.960022" y1="636.960022" x2="1427.959961" y2="396.959991" stroke="red" stroke-width="6.660000" />
<circle cx="1288.959961" cy="1125.959961" r="19.980000" fill="red">
  <title>Manila</title>
</circle><line x1="1427.959961" y1="396.959991" x2="1288.959961" y2="1125.959961" stroke="red" stroke-width="6.660000" />
<circle cx="1145.959961" cy="1158.959961" r="19.980000" fill="red">
  <title>Shanghai</title>
</circle><line x1="1288.959961" y1="1125.959961" x2="1145.959961" y2="1158.959961" stroke="red" stroke-width="6.660000" />
<circle cx="1585.959961" cy="970.960022" r="19.980000" fill="red">
  <title>Chongqing</title>
</circle><line x1="1145.959961" y1="1158.959961" x2="1585.959961" y2="970.960022" stroke="red" stroke-width="6.660000" />
<circle cx="1908.959961" cy="1014.960022" r="19.980000" fill="red">
  <title>Dhaka</title>
</circle><line x1="1585.959961" y1="970.960022" x2="1908.959961" y2="1014.960022" stroke="red" stroke-width="6.660000" />
</svg>
