<?xml version="1.0" encoding="UTF-8" standalone="no"?>
<svg width="500" height="500" viewBox="0 0 2074.000000 2074.000000" xmlns="http://www.w3.org/2000/svg">
<rect x="19.000000" y="19.000000" width="2036.000000" height="2036.000000" fill="black" />
<circle cx="1516.959961" cy="399.959991" r="19.980000" fill="red">
  <title>Tokyo</title>
</circle><line x1="1574.959961" y1="227.959991" x2="1516.959961" y2="399.959991" stroke="red" stroke-width="6.660000" />
<circle cx="827.960022" cy="202.959991" r="19.980000" fill="red">
  <title>Osaka</title>
</circle><line x1="1516.959961" y1="399.959991" x2="827.960022" y2="202.959991" stroke="red" stroke-width="6.660000" />
<circle cx="914.960022" cy="685.960022" r="19.980000" fill="red">
  <title>Shanghai</title>
</circle><line x1="827.960022" y1="202.959991" x2="914.960022" y2="685.960022" stroke="red" stroke-width="6.660000" />
<circle cx="108.959999" cy="1217.959961" r="19.980000" fill="red">
  <title>Mexico City</title>
</circle><line x1="914.960022" y1="685.960022" x2="108.959999" y2="1217.959961" stroke="red" stroke-width="6.660000" />
<circle cx="454.959991" cy="1484.959961" r="19.980000" fill="red">
  <title>Cairo</title>
</circle><line x1="108.959999" y1="1217.959961" x2="454.959991" y2="1484.959961" stroke="red" stroke-width="6.660000" />
<circle cx="1257.959961" cy="1732.959961" r="19.980000" fill="red">
  <title>Delhi</title>
</circle><line x1="454.959991" y1="1484.959961" x2="1257.959961" y2="1732.959961" stroke="red" stroke-width="6.660000" />
<circle cx="1569.959961" cy="1460.959961" r="19.980000" fill="red">
  <title>Dhaka</title>
</circle><line x1="1257.959961" y1="1732.959961" x2="1569.959961" y2="1460.959961" stroke="red" stroke-width="6.660000" />
<circle cx="1685.959961" cy="1373.959961" r="19.980000" fill="red">
  <title>Buenos Aires</title>
</circle><line x1="1569.959961" y1="1460.959961" x2="1685.959961" y2="1373.959961" stroke="red" stroke-width="6.660000" />
<circle cx="1799.959961" cy="1421.959961" r="19.980000" fill="red">
  <title>Beijing</title>
</circle><line x1="1685.959961" y1="1373.959961" x2="1799.959961" y2="1421.959961" stroke="red" stroke-width="6.660000" />
<circle cx="1659.959961" cy="1345.959961" r="19.980000" fill="red">
  <title>Karachi</title>
</circle><line x1="1799.959961" y1="1421.959961" x2="1659.959961" y2="1345.959961" stroke="red" stroke-width="6.660000" />
<circle cx="1742.959961" cy="673.960022" r="19.980000" fill="red">
  <title>Mumbai</title>
</circle><line x1="1659.959961" y1="1345.959961" x2="1742.959961" y2="673.960022" stroke="red" stroke-width="6.660000" />
<circle cx="1742.959961" cy="411.959991" r="19.980000" fill="red">
  <title>São Paulo</title>
</circle><line x1="1742.959961" y1="673.960022" x2="1742.959961" y2="411.959991" stroke="red" stroke-width="6.660000" />
<circle cx="1574.959961" cy="227.959991" r="19.980000" fill="red">
  <title>New York</title>
</circle><line x1="1742.959961" y1="411.959991" x2="1574.959961" y2="227.959991" stroke="red" stroke-width="6.660000" />
</svg>
