<?xml version="1.0" encoding="UTF-8" standalone="no"?>
<svg width="500" height="500" viewBox="0 0 2074.000000 2074.000000" xmlns="http://www.w3.org/2000/svg">
<rect x="19.000000" y="19.000000" width="2036.000000" height="2036.000000" fill="black" />
<circle cx="804.960022" cy="279.959991" r="19.980000" fill="red">
  <title>Tokyo</title>
</circle><line x1="597.960022" y1="217.959991" x2="804.960022" y2="279.959991" stroke="red" stroke-width="6.660000" />
<circle cx="847.960022" cy="396.959991" r="19.980000" fill="red">
  <title>Dhaka</title>
</circle><line x1="804.960022" y1="279.959991" x2="847.960022" y2="396.959991" stroke="red" stroke-width="6.660000" />
<circle cx="808.960022" cy="674.960022" r="19.980000" fill="red">
  <title>Buenos Aires</title>
</circle><line x1="847.960022" y1="396.959991" x2="808.960022" y2="674.960022" stroke="red" stroke-width="6.660000" />
<circle cx="516.960022" cy="989.960022" r="19.980000" fill="red">
  <title>Cairo</title>
</circle><line x1="808.960022" y1="674.960022" x2="516.960022" y2="989.960022" stroke="red" stroke-width="6.660000" />
<circle cx="149.959991" cy="1272.959961" r="19.980000" fill="red">
  <title>New York</title>
</circle><line x1="516.960022" y1="989.960022" x2="149.959991" y2="1272.959961" stroke="red" stroke-width="6.660000" />
<circle cx="526.960022" cy="1722.959961" r="19.980000" fill="red">
  <title>Mumbai</title>
</circle><line x1="149.959991" y1="1272.959961" x2="526.960022" y2="1722.959961" stroke="red" stroke-width="6.660000" />
<circle cx="976.960022" cy="1021.960022" r="19.980000" fill="red">
  <title>São Paulo</title>
</circle><line x1="526.960022" y1="1722.959961" x2="976.960022" y2="1021.960022" stroke="red" stroke-width="6.660000" />
<circle cx="1283.959961" cy="1323.959961" r="19.980000" fill="red">
  <title>Delhi</title>
</circle><line x1="976.960022" y1="1021.960022" x2="1283.959961" y2="1323.959961" stroke="red" stroke-width="6.660000" />
<circle cx="2014.959961" cy="1369.959961" r="19.980000" fill="red">
  <title>Shanghai</title>
</circle><line x1="1283.959961" y1="1323.959961" x2="2014.959961" y2="1369.959961" stroke="red" stroke-width="6.660000" />
<circle cx="1148.959961" cy="756.960022" r="19.980000" fill="red">
  <title>Mexico City</title>
</circle><line x1="2014.959961" y1="1369.959961" x2="1148.959961" y2="756.960022" stroke="red" stroke-width="6.660000" />
<circle cx="1236.959961" cy="540.960022" r="19.980000" fill="red">
  <title>Beijing</title>
</circle><line x1="1148.959961" y1="756.960022" x2="1236.959961" y2="540.960022" stroke="red" stroke-width="6.660000" />
<circle cx="923.960022" cy="125.959999" r="19.980000" fill="red">
  <title>Osaka</title>
</circle><line x1="1236.959961" y1="540.960022" x2="923.960022" y2="125.959999" stroke="red" stroke-width="6.660000" />
<circle cx="597.960022" cy="217.959991" r="19.980000" fill="red">
  <title>Karachi</title>
</circle><line x1="923.960022" y1="125.959999" x2="597.960022" y2="217.959991" stroke="red" stroke-width="6.660000" />
</svg>
