<?xml version="1.0" encoding="UTF-8" standalone="no"?>
<svg width="500" height="500" viewBox="0 0 2074.000000 2074.000000" xmlns="http://www.w3.org/2000/svg">
<rect x="19.000000" y="19.000000" width="2036.000000" height="2036.000000" fill="black" />
<circle cx="796.960022" cy="69.959999" r="19.980000" fill="red">
  <title>Tokyo</title>
</circle><line x1="397.959991" y1="525.960022" x2="796.960022" y2="69.959999" stroke="red" stroke-width="6.660000" />
<circle cx="1176.959961" cy="540.960022" r="19.980000" fill="red">
  <title>São Paulo</title>
</circle><line x1="796.960022" y1="69.959999" x2="1176.959961" y2="540.960022" stroke="red" stroke-width="6.660000" />
<circle cx="1910.959961" cy="1764.959961" r="19.980000" fill="red">
  <title>Cairo</title>
</circle><line x1="1176.959961" y1="540.960022" x2="1910.959961" y2="1764.959961" stroke="red" stroke-width="6.660000" />
<circle cx="1722.959961" cy="1951.959961" r="19.980000" fill="red">
  <title>Shanghai</title>
</circle><line x1="1910.959961" y1="1764.959961" x2="1722.959961" y2="1951.959961" stroke="red" stroke-width="6.660000" />
<circle cx="1339.959961" cy="1079.959961" r="19.980000" fill="red">
  <title>Delhi</title>
</circle><line x1="1722.959961" y1="1951.959961" x2="1339.959961" y2="1079.959961" stroke="red" stroke-width="6.660000" />
<circle cx="408.959991" cy="860.960022" r="19.980000" fill="red">
  <title>Mumbai</title>
</circle><line x1="1339.959961" y1="1079.959961" x2="408.959991" y2="860.960022" stroke="red" stroke-width="6.660000" />
<circle cx="397.959991" cy="525.960022" r="19.980000" fill="red">
  <title>Mexico City</title>
</circle><line x1="408.959991" y1="860.960022" x2="397.959991" y2="525.960022" stroke="red" stroke-width="6.660000" />
</svg>
