<?xml version="1.0" encoding="UTF-8" standalone="no"?>
<svg width="500" height="500" viewBox="0 0 2074.000000 2074.000000" xmlns="http://www.w3.org/2000/svg">
<rect x="19.000000" y="19.000000" width="2036.000000" height="2036.000000" fill="black" />
<circle cx="421.959991" cy="150.959991" r="19.980000" fill="red">
  <title>Tokyo</title>
</circle><line x1="890.960022" y1="640.960022" x2="421.959991" y2="150.959991" stroke="red" stroke-width="6.660000" />
<circle cx="97.959999" cy="631.960022" r="19.980000" fill="red">
  <title>São Paulo</title>
</circle><line x1="421.959991" y1="150.959991" x2="97.959999" y2="631.960022" stroke="red" stroke-width="6.660000" />
<circle cx="721.960022" cy="1172.959961" r="19.980000" fill="red">
  <title>Shanghai</title>
</circle><line x1="97.959999" y1="631.960022" x2="721.960022" y2="1172.959961" stroke="red" stroke-width="6.660000" />
<circle cx="431.959991" cy="1909.959961" r="19.980000" fill="red">
  <title>Mexico City</title>
</circle><line x1="721.960022" y1="1172.959961" x2="431.959991" y2="1909.959961" stroke="red" stroke-width="6.660000" />
<circle cx="1767.959961" cy="1861.959961" r="19.980000" fill="red">
  <title>Cairo</title>
</circle><line x1="431.959991" y1="1909.959961" x2="1767.959961" y2="1861.959961" stroke="red" stroke-width="6.660000" />
<circle cx="1957.959961" cy="1560.959961" r="19.980000" fill="red">
  <title>Mumbai</title>
</circle><line x1="1767.959961" y1="1861.959961" x2="1957.959961" y2="1560.959961" stroke="red" stroke-width="6.660000" />
<circle cx="1853.959961" cy="359.959991" r="19.980000" fill="red">
  <title>Delhi</title>
</circle><line x1="1957.959961" y1="1560.959961" x2="1853.959961" y2="359.959991" stroke="red" stroke-width="6.660000" />
<circle cx="1135.959961" cy="845.960022" r="19.980000" fill="red">
  <title>Beijing</title>
</circle><line x1="1853.959961" y1="359.959991" x2="1135.959961" y2="845.960022" stroke="red" stroke-width="6.660000" />
<circle cx="890.960022" cy="640.960022" r="19.980000" fill="red">
  <title>Dhaka</title>
</circle><line x1="1135.959961" y1="845.960022" x2="890.960022" y2="640.960022" stroke="red" stroke-width="6.660000" />
</svg>
