<?xml version="1.0" encoding="UTF-8" standalone="no"?>
<svg width="500" height="500" viewBox="0 0 2074.000000 2074.000000" xmlns="http://www.w3.org/2000/svg">
<rect x="19.000000" y="19.000000" width="2036.000000" height="2036.000000" fill="black" />
<circle cx="940.960022" cy="1798.959961" r="19.980000" fill="red">
  <title>Tokyo</title>
</circle><line x1="1815.959961" y1="1930.959961" x2="940.960022" y2="1798.959961" stroke="red" stroke-width="6.660000" />
<circle cx="1975.959961" cy="1312.959961" r="19.980000" fill="red">
  <title>Delhi</title>
</circle><line x1="940.960022" y1="1798.959961" x2="1975.959961" y2="1312.959961" stroke="red" stroke-width="6.660000" />
<circle cx="1815.959961" cy="1930.959961" r="19.980000" fill="red">
  <title>Shanghai</title>
</circle><line x1="1975.959961" y1="1312.959961" x2="1815.959961" y2="1930.959961" stroke="red" stroke-width="6.660000" />
</svg>
