<?xml version="1.0" encoding="UTF-8" standalone="no"?>
<svg width="500" height="500" viewBox="0 0 2074.000000 2074.000000" xmlns="http://www.w3.org/2000/svg">
<rect x="19.000000" y="19.000000" width="2036.000000" height="2036.000000" fill="black" />
<circle cx="1752.959961" cy="277.959991" r="19.980000" fill="red">
  <title>Tokyo</title>
</circle><line x1="939.960022" y1="365.959991" x2="1752.959961" y2="277.959991" stroke="red" stroke-width="6.660000" />
<circle cx="1407.959961" cy="791.960022" r="19.980000" fill="red">
  <title>Beijing</title>
</circle><line x1="1752.959961" y1="277.959991" x2="1407.959961" y2="791.960022" stroke="red" stroke-width="6.660000" />
<circle cx="1793.959961" cy="1370.959961" r="19.980000" fill="red">
  <title>Shanghai</title>
</circle><line x1="1407.959961" y1="791.960022" x2="1793.959961" y2="1370.959961" stroke="red" stroke-width="6.660000" />
<circle cx="1807.959961" cy="1695.959961" r="19.980000" fill="red">
  <title>Cairo</title>
</circle><line x1="1793.959961" y1="1370.959961" x2="1807.959961" y2="1695.959961" stroke="red" stroke-width="6.660000" />
<circle cx="1616.959961" cy="1476.959961" r="19.980000" fill="red">
  <title>Mexico City</title>
</circle><line x1="1807.959961" y1="1695.959961" x2="1616.959961" y2="1476.959961" stroke="red" stroke-width="6.660000" />
<circle cx="1160.959961" cy="1536.959961" r="19.980000" fill="red">
  <title>Mumbai</title>
</circle><line x1="1616.959961" y1="1476.959961" x2="1160.959961" y2="1536.959961" stroke="red" stroke-width="6.660000" />
<circle cx="632.960022" cy="1913.959961" r="19.980000" fill="red">
  <title>Delhi</title>
</circle><line x1="1160.959961" y1="1536.959961" x2="632.960022" y2="1913.959961" stroke="red" stroke-width="6.660000" />
<circle cx="844.960022" cy="1433.959961" r="19.980000" fill="red">
  <title>Karachi</title>
</circle><line x1="632.960022" y1="1913.959961" x2="844.960022" y2="1433.959961" stroke="red" stroke-width="6.660000" />
<circle cx="969.960022" cy="1158.959961" r="19.980000" fill="red">
  <title>Osaka</title>
</circle><line x1="844.960022" y1="1433.959961" x2="969.960022" y2="1158.959961" stroke="red" stroke-width="6.660000" />
<circle cx="56.959999" cy="819.960022" r="19.980000" fill="red">
  <title>São Paulo</title>
</circle><line x1="969.960022" y1="1158.959961" x2="56.959999" y2="819.960022" stroke="red" stroke-width="6.660000" />
<circle cx="267.959991" cy="134.959991" r="19.980000" fill="red">
  <title>Dhaka</title>
</circle><line x1="56.959999" y1="819.960022" x2="267.959991" y2="134.959991" stroke="red" stroke-width="6.660000" />
<circle cx="939.960022" cy="365.959991" r="19.980000" fill="red">
  <title>New York</title>
</circle><line x1="267.959991" y1="134.959991" x2="939.960022" y2="365.959991" stroke="red" stroke-width="6.660000" />
</svg>
