<?xml version="1.0" encoding="UTF-8" standalone="no"?>
<svg width="500" height="500" viewBox="0 0 2074.000000 2074.000000" xmlns="http://www.w3.org/2000/svg">
<rect x="19.000000" y="19.000000" width="2036.000000" height="2036.000000" fill="black" />
<circle cx="138.959991" cy="1581.959961" r="19.980000" fill="red">
  <title>Tokyo</title>
</circle><line x1="620.960022" y1="1689.959961" x2="138.959991" y2="1581.959961" stroke="red" stroke-width="6.660000" />
<circle cx="116.959999" cy="1198.959961" r="19.980000" fill="red">
  <title>Delhi</title>
</circle><line x1="138.959991" y1="1581.959961" x2="116.959999" y2="1198.959961" stroke="red" stroke-width="6.660000" />
<circle cx="81.959999" cy="1107.959961" r="19.980000" fill="red">
  <title>Lagos</title>
</circle><line x1="116.959999" y1="1198.959961" x2="81.959999" y2="1107.959961" stroke="red" stroke-width="6.660000" />
<circle cx="114.959999" cy="920.960022" r="19.980000" fill="red">
  <title>Kolkata</title>
</circle><line x1="81.959999" y1="1107.959961" x2="114.959999" y2="920.960022" stroke="red" stroke-width="6.660000" />
<circle cx="81.959999" cy="895.960022" r="19.980000" fill="red">
  <title>Mumbai</title>
</circle><line x1="114.959999" y1="920.960022" x2="81.959999" y2="895.960022" stroke="red" stroke-width="6.660000" />
<circle cx="83.959999" cy="743.960022" r="19.980000" fill="red">
  <title>Karachi</title>
</circle><line x1="81.959999" y1="895.960022" x2="83.959999" y2="743.960022" stroke="red" stroke-width="6.660000" />
<circle cx="121.959999" cy="145.959991" r="19.980000" fill="red">
  <title>Chongqing</title>
</circle><line x1="83.959999" y1="743.960022" x2="121.959999" y2="145.959991" stroke="red" stroke-width="6.660000" />
<circle cx="50.959999" cy="101.959999" r="19.980000" fill="red">
  <title>Tianjin</title>
</circle><line x1="121.959999" y1="145.959991" x2="50.959999" y2="101.959999" stroke="red" stroke-width="6.660000" />
<circle cx="360.959991" cy="251.959991" r="19.980000" fill="red">
  <title>Buenos Aires</title>
</circle><line x1="50.959999" y1="101.959999" x2="360.959991" y2="251.959991" stroke="red" stroke-width="6.660000" />
<circle cx="821.960022" cy="232.959991" r="19.980000" fill="red">
  <title>Istanbul</title>
</circle><line x1="360.959991" y1="251.959991" x2="821.960022" y2="232.959991" stroke="red" stroke-width="6.660000" />
<circle cx="1775.959961" cy="191.959991" r="19.980000" fill="red">
  <title>Manila</title>
</circle><line x1="821.960022" y1="232.959991" x2="1775.959961" y2="191.959991" stroke="red" stroke-width="6.660000" />
<circle cx="1910.959961" cy="300.959991" r="19.980000" fill="red">
  <title>Dhaka</title>
</circle><line x1="1775.959961" y1="191.959991" x2="1910.959961" y2="300.959991" stroke="red" stroke-width="6.660000" />
<circle cx="1843.959961" cy="1482.959961" r="19.980000" fill="red">
  <title>New York</title>
</circle><line x1="1910.959961" y1="300.959991" x2="1843.959961" y2="1482.959961" stroke="red" stroke-width="6.660000" />
<circle cx="1954.959961" cy="1729.959961" r="19.980000" fill="red">
  <title>Cairo</title>
</circle><line x1="1843.959961" y1="1482.959961" x2="1954.959961" y2="1729.959961" stroke="red" stroke-width="6.660000" />
<circle cx="1370.959961" cy="987.960022" r="19.980000" fill="red">
  <title>Shanghai</title>
</circle><line x1="1954.959961" y1="1729.959961" x2="1370.959961" y2="987.960022" stroke="red" stroke-width="6.660000" />
<circle cx="1140.959961" cy="921.960022" r="19.980000" fill="red">
  <title>Rio de Janeiro</title>
</circle><line x1="1370.959961" y1="987.960022" x2="1140.959961" y2="921.960022" stroke="red" stroke-width="6.660000" />
<circle cx="878.960022" cy="980.960022" r="19.980000" fill="red">
  <title>São Paulo</title>
</circle><line x1="1140.959961" y1="921.960022" x2="878.960022" y2="980.960022" stroke="red" stroke-width="6.660000" />
<circle cx="999.960022" cy="1092.959961" r="19.980000" fill="red">
  <title>Mexico City</title>
</circle><line x1="878.960022" y1="980.960022" x2="999.960022" y2="1092.959961" stroke="red" stroke-width="6.660000" />
<circle cx="830.960022" cy="1599.959961" r="19.980000" fill="red">
  <title>Osaka</title>
</circle><line x1="999.960022" y1="1092.959961" x2="830.960022" y2="1599.959961" stroke="red" stroke-width="6.660000" />
<circle cx="620.960022" cy="1689.959961" r="19.980000" fill="red">
  <title>Beijing</title>
</circle><line x1="830.960022" y1="1599.959961" x2="620.960022" y2="1689.959961" stroke="red" stroke-width="6.660000" />
</svg>
