<?xml version="1.0" encoding="UTF-8" standalone="no"?>
<svg width="500" height="500" viewBox="0 0 2074.000000 2074.000000" xmlns="http://www.w3.org/2000/svg">
<rect x="19.000000" y="19.000000" width="2036.000000" height="2036.000000" fill="black" />
<circle cx="136.959991" cy="744.960022" r="19.980000" fill="red">
  <title>Tokyo</title>
</circle><line x1="114.959999" y1="619.960022" x2="136.959991" y2="744.960022" stroke="red" stroke-width="6.660000" />
<circle cx="103.959999" cy="1788.959961" r="19.980000" fill="red">
  <title>Delhi</title>
</circle><line x1="136.959991" y1="744.960022" x2="103.959999" y2="1788.959961" stroke="red" stroke-width="6.660000" />
<circle cx="666.960022" cy="1300.959961" r="19.980000" fill="red">
  <title>Chongqing</title>
</circle><line x1="103.959999" y1="1788.959961" x2="666.960022" y2="1300.959961" stroke="red" stroke-width="6.660000" />
<circle cx="906.960022" cy="1356.959961" r="19.980000" fill="red">
  <title>Buenos Aires</title>
</circle><line x1="666.960022" y1="1300.959961" x2="906.960022" y2="1356.959961" stroke="red" stroke-width="6.660000" />
<circle cx="942.960022" cy="1441.959961" r="19.980000" fill="red">
  <title>Cairo</title>
</circle><line x1="906.960022" y1="1356.959961" x2="942.960022" y2="1441.959961" stroke="red" stroke-width="6.660000" />
<circle cx="1130.959961" cy="1878.959961" r="19.980000" fill="red">
  <title>Kolkata</title>
</circle><line x1="942.960022" y1="1441.959961" x2="1130.959961" y2="1878.959961" stroke="red" stroke-width="6.660000" />
<circle cx="1872.959961" cy="1918.959961" r="19.980000" fill="red">
  <title>Dhaka</title>
</circle><line x1="1130.959961" y1="1878.959961" x2="1872.959961" y2="1918.959961" stroke="red" stroke-width="6.660000" />
<circle cx="2018.959961" cy="1946.959961" r="19.980000" fill="red">
  <title>Osaka</title>
</circle><line x1="1872.959961" y1="1918.959961" x2="2018.959961" y2="1946.959961" stroke="red" stroke-width="6.660000" />
<circle cx="1412.959961" cy="1293.959961" r="19.980000" fill="red">
  <title>Mumbai</title>
</circle><line x1="2018.959961" y1="1946.959961" x2="1412.959961" y2="1293.959961" stroke="red" stroke-width="6.660000" />
<circle cx="1507.959961" cy="1195.959961" r="19.980000" fill="red">
  <title>Manila</title>
</circle><line x1="1412.959961" y1="1293.959961" x2="1507.959961" y2="1195.959961" stroke="red" stroke-width="6.660000" />
<circle cx="1629.959961" cy="1023.960022" r="19.980000" fill="red">
  <title>Lagos</title>
</circle><line x1="1507.959961" y1="1195.959961" x2="1629.959961" y2="1023.960022" stroke="red" stroke-width="6.660000" />
<circle cx="1554.959961" cy="877.960022" r="19.980000" fill="red">
  <title>Shanghai</title>
</circle><line x1="1629.959961" y1="1023.960022" x2="1554.959961" y2="877.960022" stroke="red" stroke-width="6.660000" />
<circle cx="1574.959961" cy="882.960022" r="19.980000" fill="red">
  <title>Mexico City</title>
</circle><line x1="1554.959961" y1="877.960022" x2="1574.959961" y2="882.960022" stroke="red" stroke-width="6.660000" />
<circle cx="2033.959961" cy="792.960022" r="19.980000" fill="red">
  <title>Rio de Janeiro</title>
</circle><line x1="1574.959961" y1="882.960022" x2="2033.959961" y2="792.960022" stroke="red" stroke-width="6.660000" />
<circle cx="1781.959961" cy="802.960022" r="19.980000" fill="red">
  <title>Istanbul</title>
</circle><line x1="2033.959961" y1="792.960022" x2="1781.959961" y2="802.960022" stroke="red" stroke-width="6.660000" />
<circle cx="1481.959961" cy="407.959991" r="19.980000" fill="red">
  <title>Karachi</title>
</circle><line x1="1781.959961" y1="802.960022" x2="1481.959961" y2="407.959991" stroke="red" stroke-width="6.660000" />
<circle cx="1200.959961" cy="742.960022" r="19.980000" fill="red">
  <title>São Paulo</title>
</circle><line x1="1481.959961" y1="407.959991" x2="1200.959961" y2="742.960022" stroke="red" stroke-width="6.660000" />
<circle cx="586.960022" cy="1129.959961" r="19.980000" fill="red">
  <title>Beijing</title>
</circle><line x1="1200.959961" y1="742.960022" x2="586.960022" y2="1129.959961" stroke="red" stroke-width="6.660000" />
<circle cx="114.959999" cy="619.960022" r="19.980000" fill="red">
  <title>New York</title>
</circle><line x1="586.960022" y1="1129.959961" x2="114.959999" y2="619.960022" stroke="red" stroke-width="6.660000" />
</svg>
