<?xml version="1.0" encoding="UTF-8" standalone="no"?>
<svg width="500" height="500" viewBox="0 0 2074.000000 2074.000000" xmlns="http://www.w3.org/2000/svg">
<rect x="19.000000" y="19.000000" width="2036.000000" height="2036.000000" fill="black" />
<circle cx="2004.959961" cy="1861.959961" r="19.980000" fill="red">
  <title>Tokyo</title>
</circle><line x1="1632.959961" y1="2017.959961" x2="2004.959961" y2="1861.959961" stroke="red" stroke-width="6.660000" />
<circle cx="1183.959961" cy="1401.959961" r="19.980000" fill="red">
  <title>Shanghai</title>
</circle><line x1="2004.959961" y1="1861.959961" x2="1183.959961" y2="1401.959961" stroke="red" stroke-width="6.660000" />
<circle cx="559.960022" cy="850.960022" r="19.980000" fill="red">
  <title>Delhi</title>
</circle><line x1="1183.959961" y1="1401.959961" x2="559.960022" y2="850.960022" stroke="red" stroke-width="6.660000" />
<circle cx="1632.959961" cy="2017.959961" r="19.980000" fill="red">
  <title>São Paulo</title>
</circle><line x1="559.960022" y1="850.960022" x2="1632.959961" y2="2017.959961" stroke="red" stroke-width="6.660000" />
</svg>
