<?xml version="1.0" encoding="UTF-8" standalone="no"?>
<svg width="500" height="500" viewBox="0 0 2074.000000 2074.000000" xmlns="http://www.w3.org/2000/svg">
<rect x="19.000000" y="19.000000" width="2036.000000" height="2036.000000" fill="black" />
<circle cx="840.960022" cy="728.960022" r="19.980000" fill="red">
  <title>Tokyo</title>
</circle><line x1="905.960022" y1="520.960022" x2="840.960022" y2="728.960022" stroke="red" stroke-width="6.660000" />
<circle cx="1031.959961" cy="689.960022" r="19.980000" fill="red">
  <title>Shanghai</title>
</circle><line x1="840.960022" y1="728.960022" x2="1031.959961" y2="689.960022" stroke="red" stroke-width="6.660000" />
<circle cx="1198.959961" cy="815.960022" r="19.980000" fill="red">
  <title>Delhi</title>
</circle><line x1="1031.959961" y1="689.960022" x2="1198.959961" y2="815.960022" stroke="red" stroke-width="6.660000" />
<circle cx="1509.959961" cy="555.960022" r="19.980000" fill="red">
  <title>Chongqing</title>
</circle><line x1="1198.959961" y1="815.960022" x2="1509.959961" y2="555.960022" stroke="red" stroke-width="6.660000" />
<circle cx="1704.959961" cy="107.959999" r="19.980000" fill="red">
  <title>Mexico City</title>
</circle><line x1="1509.959961" y1="555.960022" x2="1704.959961" y2="107.959999" stroke="red" stroke-width="6.660000" />
<circle cx="1960.959961" cy="56.959999" r="19.980000" fill="red">
  <title>New York</title>
</circle><line x1="1704.959961" y1="107.959999" x2="1960.959961" y2="56.959999" stroke="red" stroke-width="6.660000" />
<circle cx="1626.959961" cy="611.960022" r="19.980000" fill="red">
  <title>Karachi</title>
</circle><line x1="1960.959961" y1="56.959999" x2="1626.959961" y2="611.960022" stroke="red" stroke-width="6.660000" />
<circle cx="1270.959961" cy="885.960022" r="19.980000" fill="red">
  <title>Dhaka</title>
</circle><line x1="1626.959961" y1="611.960022" x2="1270.959961" y2="885.960022" stroke="red" stroke-width="6.660000" />
<circle cx="1726.959961" cy="1539.959961" r="19.980000" fill="red">
  <title>Buenos Aires</title>
</circle><line x1="1270.959961" y1="885.960022" x2="1726.959961" y2="1539.959961" stroke="red" stroke-width="6.660000" />
<circle cx="1935.959961" cy="1637.959961" r="19.980000" fill="red">
  <title>Manila</title>
</circle><line x1="1726.959961" y1="1539.959961" x2="1935.959961" y2="1637.959961" stroke="red" stroke-width="6.660000" />
<circle cx="1777.959961" cy="1850.959961" r="19.980000" fill="red">
  <title>Beijing</title>
</circle><line x1="1935.959961" y1="1637.959961" x2="1777.959961" y2="1850.959961" stroke="red" stroke-width="6.660000" />
<circle cx="572.960022" cy="1953.959961" r="19.980000" fill="red">
  <title>Tianjin</title>
</circle><line x1="1777.959961" y1="1850.959961" x2="572.960022" y2="1953.959961" stroke="red" stroke-width="6.660000" />
<circle cx="210.959991" cy="1765.959961" r="19.980000" fill="red">
  <title>Osaka</title>
</circle><line x1="572.960022" y1="1953.959961" x2="210.959991" y2="1765.959961" stroke="red" stroke-width="6.660000" />
<circle cx="305.959991" cy="1681.959961" r="19.980000" fill="red">
  <title>São Paulo</title>
</circle><line x1="210.959991" y1="1765.959961" x2="305.959991" y2="1681.959961" stroke="red" stroke-width="6.660000" />
<circle cx="477.959991" cy="1288.959961" r="19.980000" fill="red">
  <title>Kolkata</title>
</circle><line x1="305.959991" y1="1681.959961" x2="477.959991" y2="1288.959961" stroke="red" stroke-width="6.660000" />
<circle cx="486.959991" cy="1246.959961" r="19.980000" fill="red">
  <title>Istanbul</title>
</circle><line x1="477.959991" y1="1288.959961" x2="486.959991" y2="1246.959961" stroke="red" stroke-width="6.660000" />
<circle cx="66.959999" cy="929.960022" r="19.980000" fill="red">
  <title>Lagos</title>
</circle><line x1="486.959991" y1="1246.959961" x2="66.959999" y2="929.960022" stroke="red" stroke-width="6.660000" />
<circle cx="288.959991" cy="332.959991" r="19.980000" fill="red">
  <title>Rio de Janeiro</title>
</circle><line x1="66.959999" y1="929.960022" x2="288.959991" y2="332.959991" stroke="red" stroke-width="6.660000" />
<circle cx="924.960022" cy="166.959991" r="19.980000" fill="red">
  <title>Mumbai</title>
</circle><line x1="288.959991" y1="332.959991" x2="924.960022" y2="166.959991" stroke="red" stroke-width="6.660000" />
<circle cx="905.960022" cy="520.960022" r="19.980000" fill="red">
  <title>Cairo</title>
</circle><line x1="924.960022" y1="166.959991" x2="905.960022" y2="520.960022" stroke="red" stroke-width="6.660000" />
</svg>
