<?xml version="1.0" encoding="UTF-8" standalone="no"?>
<svg width="500" height="500" viewBox="0 0 2074.000000 2074.000000" xmlns="http://www.w3.org/2000/svg">
<rect x="19.000000" y="19.000000" width="2036.000000" height="2036.000000" fill="black" />
<circle cx="1464.959961" cy="1220.959961" r="19.980000" fill="red">
  <title>Tokyo</title>
</circle><line x1="1423.959961" y1="1046.959961" x2="1464.959961" y2="1220.959961" stroke="red" stroke-width="6.660000" />
<circle cx="1310.959961" cy="1315.959961" r="19.980000" fill="red">
  <title>Chongqing</title>
</circle><line x1="1464.959961" y1="1220.959961" x2="1310.959961" y2="1315.959961" stroke="red" stroke-width="6.660000" />
<circle cx="1421.959961" cy="1538.959961" r="19.980000" fill="red">
  <title>São Paulo</title>
</circle><line x1="1310.959961" y1="1315.959961" x2="1421.959961" y2="1538.959961" stroke="red" stroke-width="6.660000" />
<circle cx="1561.959961" cy="1505.959961" r="19.980000" fill="red">
  <title>Lagos</title>
</circle><line x1="1421.959961" y1="1538.959961" x2="1561.959961" y2="1505.959961" stroke="red" stroke-width="6.660000" />
<circle cx="1960.959961" cy="1976.959961" r="19.980000" fill="red">
  <title>Shanghai</title>
</circle><line x1="1561.959961" y1="1505.959961" x2="1960.959961" y2="1976.959961" stroke="red" stroke-width="6.660000" />
<circle cx="1861.959961" cy="1186.959961" r="19.980000" fill="red">
  <title>Beijing</title>
</circle><line x1="1960.959961" y1="1976.959961" x2="1861.959961" y2="1186.959961" stroke="red" stroke-width="6.660000" />
<circle cx="1806.959961" cy="1162.959961" r="19.980000" fill="red">
  <title>Cairo</title>
</circle><line x1="1861.959961" y1="1186.959961" x2="1806.959961" y2="1162.959961" stroke="red" stroke-width="6.660000" />
<circle cx="1582.959961" cy="639.960022" r="19.980000" fill="red">
  <title>Manila</title>
</circle><line x1="1806.959961" y1="1162.959961" x2="1582.959961" y2="639.960022" stroke="red" stroke-width="6.660000" />
<circle cx="1742.959961" cy="42.959999" r="19.980000" fill="red">
  <title>Dhaka</title>
</circle><line x1="1582.959961" y1="639.960022" x2="1742.959961" y2="42.959999" stroke="red" stroke-width="6.660000" />
<circle cx="1253.959961" cy="553.960022" r="19.980000" fill="red">
  <title>Kolkata</title>
</circle><line x1="1742.959961" y1="42.959999" x2="1253.959961" y2="553.960022" stroke="red" stroke-width="6.660000" />
<circle cx="1127.959961" cy="401.959991" r="19.980000" fill="red">
  <title>Istanbul</title>
</circle><line x1="1253.959961" y1="553.960022" x2="1127.959961" y2="401.959991" stroke="red" stroke-width="6.660000" />
<circle cx="640.960022" cy="612.960022" r="19.980000" fill="red">
  <title>Buenos Aires</title>
</circle><line x1="1127.959961" y1="401.959991" x2="640.960022" y2="612.960022" stroke="red" stroke-width="6.660000" />
<circle cx="662.960022" cy="977.960022" r="19.980000" fill="red">
  <title>New York</title>
</circle><line x1="640.960022" y1="612.960022" x2="662.960022" y2="977.960022" stroke="red" stroke-width="6.660000" />
<circle cx="577.960022" cy="944.960022" r="19.980000" fill="red">
  <title>Rio de Janeiro</title>
</circle><line x1="662.960022" y1="977.960022" x2="577.960022" y2="944.960022" stroke="red" stroke-width="6.660000" />
<circle cx="105.959999" cy="873.960022" r="19.980000" fill="red">
  <title>Karachi</title>
</circle><line x1="577.960022" y1="944.960022" x2="105.959999" y2="873.960022" stroke="red" stroke-width="6.660000" />
<circle cx="355.959991" cy="1275.959961" r="19.980000" fill="red">
  <title>Mexico City</title>
</circle><line x1="105.959999" y1="873.960022" x2="355.959991" y2="1275.959961" stroke="red" stroke-width="6.660000" />
<circle cx="509.959991" cy="1523.959961" r="19.980000" fill="red">
  <title>Osaka</title>
</circle><line x1="355.959991" y1="1275.959961" x2="509.959991" y2="1523.959961" stroke="red" stroke-width="6.660000" />
<circle cx="733.960022" cy="1040.959961" r="19.980000" fill="red">
  <title>Mumbai</title>
</circle><line x1="509.959991" y1="1523.959961" x2="733.960022" y2="1040.959961" stroke="red" stroke-width="6.660000" />
<circle cx="1006.960022" cy="894.960022" r="19.980000" fill="red">
  <title>Tianjin</title>
</circle><line x1="733.960022" y1="1040.959961" x2="1006.960022" y2="894.960022" stroke="red" stroke-width="6.660000" />
<circle cx="1423.959961" cy="1046.959961" r="19.980000" fill="red">
  <title>Delhi</title>
</circle><line x1="1006.960022" y1="894.960022" x2="1423.959961" y2="1046.959961" stroke="red" stroke-width="6.660000" />
</svg>
