<?xml version="1.0" encoding="UTF-8" standalone="no"?>
<svg width="500" height="500" viewBox="0 0 2074.000000 2074.000000" xmlns="http://www.w3.org/2000/svg">
<rect x="19.000000" y="19.000000" width="2036.000000" height="2036.000000" fill="black" />
<circle cx="571.960022" cy="1579.959961" r="19.980000" fill="red">
  <title>Tokyo</title>
</circle><line x1="902.960022" y1="1268.959961" x2="571.960022" y2="1579.959961" stroke="red" stroke-width="6.660000" />
<circle cx="382.959991" cy="2030.959961" r="19.980000" fill="red">
  <title>Dhaka</title>
</circle><line x1="571.960022" y1="1579.959961" x2="382.959991" y2="2030.959961" stroke="red" stroke-width="6.660000" />
<circle cx="260.959991" cy="1065.959961" r="19.980000" fill="red">
  <title>Shanghai</title>
</circle><line x1="382.959991" y1="2030.959961" x2="260.959991" y2="1065.959961" stroke="red" stroke-width="6.660000" />
<circle cx="347.959991" cy="403.959991" r="19.980000" fill="red">
  <title>Beijing</title>
</circle><line x1="260.959991" y1="1065.959961" x2="347.959991" y2="403.959991" stroke="red" stroke-width="6.660000" />
<circle cx="1084.959961" cy="274.959991" r="19.980000" fill="red">
  <title>New York</title>
</circle><line x1="347.959991" y1="403.959991" x2="1084.959961" y2="274.959991" stroke="red" stroke-width="6.660000" />
<circle cx="1996.959961" cy="224.959991" r="19.980000" fill="red">
  <title>Delhi</title>
</circle><line x1="1084.959961" y1="274.959991" x2="1996.959961" y2="224.959991" stroke="red" stroke-width="6.660000" />
<circle cx="1919.959961" cy="503.959991" r="19.980000" fill="red">
  <title>Mumbai</title>
</circle><line x1="1996.959961" y1="224.959991" x2="1919.959961" y2="503.959991" stroke="red" stroke-width="6.660000" />
<circle cx="1551.959961" cy="797.960022" r="19.980000" fill="red">
  <title>Mexico City</title>
</circle><line x1="1919.959961" y1="503.959991" x2="1551.959961" y2="797.960022" stroke="red" stroke-width="6.660000" />
<circle cx="1891.959961" cy="1384.959961" r="19.980000" fill="red">
  <title>Cairo</title>
</circle><line x1="1551.959961" y1="797.960022" x2="1891.959961" y2="1384.959961" stroke="red" stroke-width="6.660000" />
<circle cx="1552.959961" cy="1451.959961" r="19.980000" fill="red">
  <title>São Paulo</title>
</circle><line x1="1891.959961" y1="1384.959961" x2="1552.959961" y2="1451.959961" stroke="red" stroke-width="6.660000" />
<circle cx="1121.959961" cy="877.960022" r="19.980000" fill="red">
  <title>Karachi</title>
</circle><line x1="1552.959961" y1="1451.959961" x2="1121.959961" y2="877.960022" stroke="red" stroke-width="6.660000" />
<circle cx="902.960022" cy="1268.959961" r="19.980000" fill="red">
  <title>Osaka</title>
</circle><line x1="1121.959961" y1="877.960022" x2="902.960022" y2="1268.959961" stroke="red" stroke-width="6.660000" />
</svg>
