<?xml version="1.0" encoding="UTF-8" standalone="no"?>
<svg width="500" height="500" viewBox="0 0 2074.000000 2074.000000" xmlns="http://www.w3.org/2000/svg">
<rect x="19.000000" y="19.000000" width="2036.000000" height="2036.000000" fill="black" />
<circle cx="1297.959961" cy="776.960022" r="19.980000" fill="red">
  <title>Tokyo</title>
</circle><line x1="843.960022" y1="598.960022" x2="1297.959961" y2="776.960022" stroke="red" stroke-width="6.660000" />
<circle cx="1300.959961" cy="1014.960022" r="19.980000" fill="red">
  <title>Cairo</title>
</circle><line x1="1297.959961" y1="776.960022" x2="1300.959961" y2="1014.960022" stroke="red" stroke-width="6.660000" />
<circle cx="1474.959961" cy="1392.959961" r="19.980000" fill="red">
  <title>Shanghai</title>
</circle><line x1="1300.959961" y1="1014.960022" x2="1474.959961" y2="1392.959961" stroke="red" stroke-width="6.660000" />
<circle cx="1634.959961" cy="1663.959961" r="19.980000" fill="red">
  <title>São Paulo</title>
</circle><line x1="1474.959961" y1="1392.959961" x2="1634.959961" y2="1663.959961" stroke="red" stroke-width="6.660000" />
<circle cx="1337.959961" cy="1504.959961" r="19.980000" fill="red">
  <title>Delhi</title>
</circle><line x1="1634.959961" y1="1663.959961" x2="1337.959961" y2="1504.959961" stroke="red" stroke-width="6.660000" />
<circle cx="166.959991" cy="1142.959961" r="19.980000" fill="red">
  <title>Mexico City</title>
</circle><line x1="1337.959961" y1="1504.959961" x2="166.959991" y2="1142.959961" stroke="red" stroke-width="6.660000" />
<circle cx="843.960022" cy="598.960022" r="19.980000" fill="red">
  <title>Mumbai</title>
</circle><line x1="166.959991" y1="1142.959961" x2="843.960022" y2="598.960022" stroke="red" stroke-width="6.660000" />
</svg>
