<?xml version="1.0" encoding="UTF-8" standalone="no"?>
<svg width="500" height="500" viewBox="0 0 2074.000000 2074.000000" xmlns="http://www.w3.org/2000/svg">
<rect x="19.000000" y="19.000000" width="2036.000000" height="2036.000000" fill="black" />
<circle cx="417.959991" cy="1196.959961" r="19.980000" fill="red">
  <title>Tokyo</title>
</circle><line x1="288.959991" y1="952.960022" x2="417.959991" y2="1196.959961" stroke="red" stroke-width="6.660000" />
<circle cx="607.960022" cy="1366.959961" r="19.980000" fill="red">
  <title>São Paulo</title>
</circle><line x1="417.959991" y1="1196.959961" x2="607.960022" y2="1366.959961" stroke="red" stroke-width="6.660000" />
<circle cx="852.960022" cy="1658.959961" r="19.980000" fill="red">
  <title>Buenos Aires</title>
</circle><line x1="607.960022" y1="1366.959961" x2="852.960022" y2="1658.959961" stroke="red" stroke-width="6.660000" />
<circle cx="1546.959961" cy="1760.959961" r="19.980000" fill="red">
  <title>Delhi</title>
</circle><line x1="852.960022" y1="1658.959961" x2="1546.959961" y2="1760.959961" stroke="red" stroke-width="6.660000" />
<circle cx="1529.959961" cy="1486.959961" r="19.980000" fill="red">
  <title>Mumbai</title>
</circle><line x1="1546.959961" y1="1760.959961" x2="1529.959961" y2="1486.959961" stroke="red" stroke-width="6.660000" />
<circle cx="1428.959961" cy="808.960022" r="19.980000" fill="red">
  <title>Chongqing</title>
</circle><line x1="1529.959961" y1="1486.959961" x2="1428.959961" y2="808.960022" stroke="red" stroke-width="6.660000" />
<circle cx="1741.959961" cy="385.959991" r="19.980000" fill="red">
  <title>Beijing</title>
</circle><line x1="1428.959961" y1="808.960022" x2="1741.959961" y2="385.959991" stroke="red" stroke-width="6.660000" />
<circle cx="1782.959961" cy="43.959999" r="19.980000" fill="red">
  <title>New York</title>
</circle><line x1="1741.959961" y1="385.959991" x2="1782.959961" y2="43.959999" stroke="red" stroke-width="6.660000" />
<circle cx="1382.959961" cy="80.959999" r="19.980000" fill="red">
  <title>Dhaka</title>
</circle><line x1="1782.959961" y1="43.959999" x2="1382.959961" y2="80.959999" stroke="red" stroke-width="6.660000" />
<circle cx="1305.959961" cy="179.959991" r="19.980000" fill="red">
  <title>Osaka</title>
</circle><line x1="1382.959961" y1="80.959999" x2="1305.959961" y2="179.959991" stroke="red" stroke-width="6.660000" />
<circle cx="1238.959961" cy="429.959991" r="19.980000" fill="red">
  <title>Mexico City</title>
</circle><line x1="1305.959961" y1="179.959991" x2="1238.959961" y2="429.959991" stroke="red" stroke-width="6.660000" />
<circle cx="1149.959961" cy="375.959991" r="19.980000" fill="red">
  <title>Shanghai</title>
</circle><line x1="1238.959961" y1="429.959991" x2="1149.959961" y2="375.959991" stroke="red" stroke-width="6.660000" />
<circle cx="574.960022" cy="223.959991" r="19.980000" fill="red">
  <title>Istanbul</title>
</circle><line x1="1149.959961" y1="375.959991" x2="574.960022" y2="223.959991" stroke="red" stroke-width="6.660000" />
<circle cx="568.960022" cy="167.959991" r="19.980000" fill="red">
  <title>Cairo</title>
</circle><line x1="574.960022" y1="223.959991" x2="568.960022" y2="167.959991" stroke="red" stroke-width="6.660000" />
<circle cx="236.959991" cy="625.960022" r="19.980000" fill="red">
  <title>Karachi</title>
</circle><line x1="568.960022" y1="167.959991" x2="236.959991" y2="625.960022" stroke="red" stroke-width="6.660000" />
<circle cx="288.959991" cy="952.960022" r="19.980000" fill="red">
  <title>Kolkata</title>
</circle><line x1="236.959991" y1="625.960022" x2="288.959991" y2="952.960022" stroke="red" stroke-width="6.660000" />
</svg>
