<?xml version="1.0" encoding="UTF-8" standalone="no"?>
<svg width="500" height="500" viewBox="0 0 2074.000000 2074.000000" xmlns="http://www.w3.org/2000/svg">
<rect x="19.000000" y="19.000000" width="2036.000000" height="2036.000000" fill="black" />
<circle cx="1708.959961" cy="1380.959961" r="19.980000" fill="red">
  <title>Tokyo</title>
</circle><line x1="1169.959961" y1="1345.959961" x2="1708.959961" y2="1380.959961" stroke="red" stroke-width="6.660000" />
<circle cx="1690.959961" cy="1535.959961" r="19.980000" fill="red">
  <title>Shanghai</title>
</circle><line x1="1708.959961" y1="1380.959961" x2="1690.959961" y2="1535.959961" stroke="red" stroke-width="6.660000" />
<circle cx="1744.959961" cy="1891.959961" r="19.980000" fill="red">
  <title>Mexico City</title>
</circle><line x1="1690.959961" y1="1535.959961" x2="1744.959961" y2="1891.959961" stroke="red" stroke-width="6.660000" />
<circle cx="1217.959961" cy="1784.959961" r="19.980000" fill="red">
  <title>Beijing</title>
</circle><line x1="1744.959961" y1="1891.959961" x2="1217.959961" y2="1784.959961" stroke="red" stroke-width="6.660000" />
<circle cx="1152.959961" cy="1769.959961" r="19.980000" fill="red">
  <title>Dhaka</title>
</circle><line x1="1217.959961" y1="1784.959961" x2="1152.959961" y2="1769.959961" stroke="red" stroke-width="6.660000" />
<circle cx="1133.959961" cy="1899.959961" r="19.980000" fill="red">
  <title>Istanbul</title>
</circle><line x1="1152.959961" y1="1769.959961" x2="1133.959961" y2="1899.959961" stroke="red" stroke-width="6.660000" />
<circle cx="161.959991" cy="1770.959961" r="19.980000" fill="red">
  <title>Cairo</title>
</circle><line x1="1133.959961" y1="1899.959961" x2="161.959991" y2="1770.959961" stroke="red" stroke-width="6.660000" />
<circle cx="471.959991" cy="1035.959961" r="19.980000" fill="red">
  <title>Delhi</title>
</circle><line x1="161.959991" y1="1770.959961" x2="471.959991" y2="1035.959961" stroke="red" stroke-width="6.660000" />
<circle cx="123.959999" cy="624.960022" r="19.980000" fill="red">
  <title>Chongqing</title>
</circle><line x1="471.959991" y1="1035.959961" x2="123.959999" y2="624.960022" stroke="red" stroke-width="6.660000" />
<circle cx="645.960022" cy="504.959991" r="19.980000" fill="red">
  <title>Buenos Aires</title>
</circle><line x1="123.959999" y1="624.960022" x2="645.960022" y2="504.959991" stroke="red" stroke-width="6.660000" />
<circle cx="1056.959961" cy="533.960022" r="19.980000" fill="red">
  <title>New York</title>
</circle><line x1="645.960022" y1="504.959991" x2="1056.959961" y2="533.960022" stroke="red" stroke-width="6.660000" />
<circle cx="1261.959961" cy="133.959991" r="19.980000" fill="red">
  <title>Karachi</title>
</circle><line x1="1056.959961" y1="533.960022" x2="1261.959961" y2="133.959991" stroke="red" stroke-width="6.660000" />
<circle cx="1360.959961" cy="792.960022" r="19.980000" fill="red">
  <title>São Paulo</title>
</circle><line x1="1261.959961" y1="133.959991" x2="1360.959961" y2="792.960022" stroke="red" stroke-width="6.660000" />
<circle cx="1460.959961" cy="1040.959961" r="19.980000" fill="red">
  <title>Osaka</title>
</circle><line x1="1360.959961" y1="792.960022" x2="1460.959961" y2="1040.959961" stroke="red" stroke-width="6.660000" />
<circle cx="1169.959961" cy="1345.959961" r="19.980000" fill="red">
  <title>Mumbai</title>
</circle><line x1="1460.959961" y1="1040.959961" x2="1169.959961" y2="1345.959961" stroke="red" stroke-width="6.660000" />
</svg>
