<?xml version="1.0" encoding="UTF-8" standalone="no"?>
<svg width="500" height="500" viewBox="0 0 2074.000000 2074.000000" xmlns="http://www.w3.org/2000/svg">
<rect x="19.000000" y="19.000000" width="2036.000000" height="2036.000000" fill="black" />
<circle cx="847.960022" cy="546.960022" r="19.980000" fill="red">
  <title>Tokyo</title>
</circle><line x1="1489.959961" y1="381.959991" x2="847.960022" y2="546.960022" stroke="red" stroke-width="6.660000" />
<circle cx="799.960022" cy="622.960022" r="19.980000" fill="red">
  <title>Cairo</title>
</circle><line x1="847.960022" y1="546.960022" x2="799.960022" y2="622.960022" stroke="red" stroke-width="6.660000" />
<circle cx="553.960022" cy="840.960022" r="19.980000" fill="red">
  <title>Beijing</title>
</circle><line x1="799.960022" y1="622.960022" x2="553.960022" y2="840.960022" stroke="red" stroke-width="6.660000" />
<circle cx="65.959999" cy="734.960022" r="19.980000" fill="red">
  <title>São Paulo</title>
</circle><line x1="553.960022" y1="840.960022" x2="65.959999" y2="734.960022" stroke="red" stroke-width="6.660000" />
<circle cx="61.959999" cy="1685.959961" r="19.980000" fill="red">
  <title>Chongqing</title>
</circle><line x1="65.959999" y1="734.960022" x2="61.959999" y2="1685.959961" stroke="red" stroke-width="6.660000" />
<circle cx="293.959991" cy="1821.959961" r="19.980000" fill="red">
  <title>Shanghai</title>
</circle><line x1="61.959999" y1="1685.959961" x2="293.959991" y2="1821.959961" stroke="red" stroke-width="6.660000" />
<circle cx="1013.960022" cy="1574.959961" r="19.980000" fill="red">
  <title>Delhi</title>
</circle><line x1="293.959991" y1="1821.959961" x2="1013.960022" y2="1574.959961" stroke="red" stroke-width="6.660000" />
<circle cx="1210.959961" cy="1510.959961" r="19.980000" fill="red">
  <title>Mumbai</title>
</circle><line x1="1013.960022" y1="1574.959961" x2="1210.959961" y2="1510.959961" stroke="red" stroke-width="6.660000" />
<circle cx="1485.959961" cy="1673.959961" r="19.980000" fill="red">
  <title>Dhaka</title>
</circle><line x1="1210.959961" y1="1510.959961" x2="1485.959961" y2="1673.959961" stroke="red" stroke-width="6.660000" />
<circle cx="1261.959961" cy="1342.959961" r="19.980000" fill="red">
  <title>Mexico City</title>
</circle><line x1="1485.959961" y1="1673.959961" x2="1261.959961" y2="1342.959961" stroke="red" stroke-width="6.660000" />
<circle cx="1055.959961" cy="1306.959961" r="19.980000" fill="red">
  <title>Karachi</title>
</circle><line x1="1261.959961" y1="1342.959961" x2="1055.959961" y2="1306.959961" stroke="red" stroke-width="6.660000" />
<circle cx="1107.959961" cy="822.960022" r="19.980000" fill="red">
  <title>Buenos Aires</title>
</circle><line x1="1055.959961" y1="1306.959961" x2="1107.959961" y2="822.960022" stroke="red" stroke-width="6.660000" />
<circle cx="1684.959961" cy="755.960022" r="19.980000" fill="red">
  <title>New York</title>
</circle><line x1="1107.959961" y1="822.960022" x2="1684.959961" y2="755.960022" stroke="red" stroke-width="6.660000" />
<circle cx="1489.959961" cy="381.959991" r="19.980000" fill="red">
  <title>Osaka</title>
</circle><line x1="1684.959961" y1="755.960022" x2="1489.959961" y2="381.959991" stroke="red" stroke-width="6.660000" />
</svg>
