<?xml version="1.0" encoding="UTF-8" standalone="no"?>
<svg width="500" height="500" viewBox="0 0 2074.000000 2074.000000" xmlns="http://www.w3.org/2000/svg">
<rect x="19.000000" y="19.000000" width="2036.000000" height="2036.000000" fill="black" />
<circle cx="405.959991" cy="1109.959961" r="19.980000" fill="red">
  <title>Tokyo</title>
</circle><line x1="409.959991" y1="916.960022" x2="405.959991" y2="1109.959961" stroke="red" stroke-width="6.660000" />
<circle cx="343.959991" cy="1234.959961" r="19.980000" fill="red">
  <title>Mumbai</title>
</circle><line x1="405.959991" y1="1109.959961" x2="343.959991" y2="1234.959961" stroke="red" stroke-width="6.660000" />
<circle cx="116.959999" cy="1515.959961" r="19.980000" fill="red">
  <title>Chongqing</title>
</circle><line x1="343.959991" y1="1234.959961" x2="116.959999" y2="1515.959961" stroke="red" stroke-width="6.660000" />
<circle cx="637.960022" cy="1413.959961" r="19.980000" fill="red">
  <title>Mexico City</title>
</circle><line x1="116.959999" y1="1515.959961" x2="637.960022" y2="1413.959961" stroke="red" stroke-width="6.660000" />
<circle cx="1061.959961" cy="1387.959961" r="19.980000" fill="red">
  <title>Beijing</title>
</circle><line x1="637.960022" y1="1413.959961" x2="1061.959961" y2="1387.959961" stroke="red" stroke-width="6.660000" />
<circle cx="1184.959961" cy="1335.959961" r="19.980000" fill="red">
  <title>São Paulo</title>
</circle><line x1="1061.959961" y1="1387.959961" x2="1184.959961" y2="1335.959961" stroke="red" stroke-width="6.660000" />
<circle cx="939.960022" cy="1658.959961" r="19.980000" fill="red">
  <title>Karachi</title>
</circle><line x1="1184.959961" y1="1335.959961" x2="939.960022" y2="1658.959961" stroke="red" stroke-width="6.660000" />
<circle cx="1241.959961" cy="1936.959961" r="19.980000" fill="red">
  <title>Delhi</title>
</circle><line x1="939.960022" y1="1658.959961" x2="1241.959961" y2="1936.959961" stroke="red" stroke-width="6.660000" />
<circle cx="2024.959961" cy="1686.959961" r="19.980000" fill="red">
  <title>Buenos Aires</title>
</circle><line x1="1241.959961" y1="1936.959961" x2="2024.959961" y2="1686.959961" stroke="red" stroke-width="6.660000" />
<circle cx="1818.959961" cy="1246.959961" r="19.980000" fill="red">
  <title>Dhaka</title>
</circle><line x1="2024.959961" y1="1686.959961" x2="1818.959961" y2="1246.959961" stroke="red" stroke-width="6.660000" />
<circle cx="1937.959961" cy="1126.959961" r="19.980000" fill="red">
  <title>Osaka</title>
</circle><line x1="1818.959961" y1="1246.959961" x2="1937.959961" y2="1126.959961" stroke="red" stroke-width="6.660000" />
<circle cx="1488.959961" cy="514.960022" r="19.980000" fill="red">
  <title>Cairo</title>
</circle><line x1="1937.959961" y1="1126.959961" x2="1488.959961" y2="514.960022" stroke="red" stroke-width="6.660000" />
<circle cx="1373.959961" cy="542.960022" r="19.980000" fill="red">
  <title>Shanghai</title>
</circle><line x1="1488.959961" y1="514.960022" x2="1373.959961" y2="542.960022" stroke="red" stroke-width="6.660000" />
<circle cx="1273.959961" cy="340.959991" r="19.980000" fill="red">
  <title>New York</title>
</circle><line x1="1373.959961" y1="542.960022" x2="1273.959961" y2="340.959991" stroke="red" stroke-width="6.660000" />
<circle cx="409.959991" cy="916.960022" r="19.980000" fill="red">
  <title>Istanbul</title>
</circle><line x1="1273.959961" y1="340.959991" x2="409.959991" y2="916.960022" stroke="red" stroke-width="6.660000" />
</svg>
