<?xml version="1.0" encoding="UTF-8" standalone="no"?>
<svg width="500" height="500" viewBox="0 0 2074.000000 2074.000000" xmlns="http://www.w3.org/2000/svg">
<rect x="19.000000" y="19.000000" width="2036.000000" height="2036.000000" fill="black" />
<circle cx="160.959991" cy="799.960022" r="19.980000" fill="red">
  <title>Tokyo</title>
</circle><line x1="627.960022" y1="1076.959961" x2="160.959991" y2="799.960022" stroke="red" stroke-width="6.660000" />
<circle cx="225.959991" cy="995.960022" r="19.980000" fill="red">
  <title>Mexico City</title>
</circle><line x1="160.959991" y1="799.960022" x2="225.959991" y2="995.960022" stroke="red" stroke-width="6.660000" />
<circle cx="500.959991" cy="1334.959961" r="19.980000" fill="red">
  <title>Kolkata</title>
</circle><line x1="225.959991" y1="995.960022" x2="500.959991" y2="1334.959961" stroke="red" stroke-width="6.660000" />
<circle cx="641.960022" cy="1623.959961" r="19.980000" fill="red">
  <title>New York</title>
</circle><line x1="500.959991" y1="1334.959961" x2="641.960022" y2="1623.959961" stroke="red" stroke-width="6.660000" />
<circle cx="176.959991" cy="1959.959961" r="19.980000" fill="red">
  <title>Buenos Aires</title>
</circle><line x1="641.960022" y1="1623.959961" x2="176.959991" y2="1959.959961" stroke="red" stroke-width="6.660000" />
<circle cx="746.960022" cy="1678.959961" r="19.980000" fill="red">
  <title>Karachi</title>
</circle><line x1="176.959991" y1="1959.959961" x2="746.960022" y2="1678.959961" stroke="red" stroke-width="6.660000" />
<circle cx="1550.959961" cy="1761.959961" r="19.980000" fill="red">
  <title>Beijing</title>
</circle><line x1="746.960022" y1="1678.959961" x2="1550.959961" y2="1761.959961" stroke="red" stroke-width="6.660000" />
<circle cx="1898.959961" cy="1425.959961" r="19.980000" fill="red">
  <title>Delhi</title>
</circle><line x1="1550.959961" y1="1761.959961" x2="1898.959961" y2="1425.959961" stroke="red" stroke-width="6.660000" />
<circle cx="1950.959961" cy="515.960022" r="19.980000" fill="red">
  <title>Shanghai</title>
</circle><line x1="1898.959961" y1="1425.959961" x2="1950.959961" y2="515.960022" stroke="red" stroke-width="6.660000" />
<circle cx="2027.959961" cy="72.959999" r="19.980000" fill="red">
  <title>Mumbai</title>
</circle><line x1="1950.959961" y1="515.960022" x2="2027.959961" y2="72.959999" stroke="red" stroke-width="6.660000" />
<circle cx="1505.959961" cy="360.959991" r="19.980000" fill="red">
  <title>Manila</title>
</circle><line x1="2027.959961" y1="72.959999" x2="1505.959961" y2="360.959991" stroke="red" stroke-width="6.660000" />
<circle cx="1505.959961" cy="362.959991" r="19.980000" fill="red">
  <title>São Paulo</title>
</circle><line x1="1505.959961" y1="360.959991" x2="1505.959961" y2="362.959991" stroke="red" stroke-width="6.660000" />
<circle cx="1164.959961" cy="238.959991" r="19.980000" fill="red">
  <title>Cairo</title>
</circle><line x1="1505.959961" y1="362.959991" x2="1164.959961" y2="238.959991" stroke="red" stroke-width="6.660000" />
<circle cx="865.960022" cy="190.959991" r="19.980000" fill="red">
  <title>Dhaka</title>
</circle><line x1="1164.959961" y1="238.959991" x2="865.960022" y2="190.959991" stroke="red" stroke-width="6.660000" />
<circle cx="1213.959961" cy="744.960022" r="19.980000" fill="red">
  <title>Istanbul</title>
</circle><line x1="865.960022" y1="190.959991" x2="1213.959961" y2="744.960022" stroke="red" stroke-width="6.660000" />
<circle cx="770.960022" cy="921.960022" r="19.980000" fill="red">
  <title>Chongqing</title>
</circle><line x1="1213.959961" y1="744.960022" x2="770.960022" y2="921.960022" stroke="red" stroke-width="6.660000" />
<circle cx="627.960022" cy="1076.959961" r="19.980000" fill="red">
  <title>Osaka</title>
</circle><line x1="770.960022" y1="921.960022" x2="627.960022" y2="1076.959961" stroke="red" stroke-width="6.660000" />
</svg>
