<?xml version="1.0" encoding="UTF-8" standalone="no"?>
<svg width="500" height="500" viewBox="0 0 2074.000000 2074.000000" xmlns="http://www.w3.org/2000/svg">
<rect x="19.000000" y="19.000000" width="2036.000000" height="2036.000000" fill="black" />
<circle cx="104.959999" cy="393.959991" r="19.980000" fill="red">
  <title>Tokyo</title>
</circle><line x1="1060.959961" y1="304.959991" x2="104.959999" y2="393.959991" stroke="red" stroke-width="6.660000" />
<circle cx="688.960022" cy="850.960022" r="19.980000" fill="red">
  <title>Delhi</title>
</circle><line x1="104.959999" y1="393.959991" x2="688.960022" y2="850.960022" stroke="red" stroke-width="6.660000" />
<circle cx="1060.959961" cy="304.959991" r="19.980000" fill="red">
  <title>Shanghai</title>
</circle><line x1="688.960022" y1="850.960022" x2="1060.959961" y2="304.959991" stroke="red" stroke-width="6.660000" />
</svg>
