<?xml version="1.0" encoding="UTF-8" standalone="no"?>
<svg width="500" height="500" viewBox="0 0 2074.000000 2074.000000" xmlns="http://www.w3.org/2000/svg">
<rect x="19.000000" y="19.000000" width="2036.000000" height="2036.000000" fill="black" />
<circle cx="1442.959961" cy="445.959991" r="19.980000" fill="red">
  <title>Tokyo</title>
</circle><line x1="1317.959961" y1="222.959991" x2="1442.959961" y2="445.959991" stroke="red" stroke-width="6.660000" />
<circle cx="1930.959961" cy="346.959991" r="19.980000" fill="red">
  <title>São Paulo</title>
</circle><line x1="1442.959961" y1="445.959991" x2="1930.959961" y2="346.959991" stroke="red" stroke-width="6.660000" />
<circle cx="1477.959961" cy="620.960022" r="19.980000" fill="red">
  <title>Mexico City</title>
</circle><line x1="1930.959961" y1="346.959991" x2="1477.959961" y2="620.960022" stroke="red" stroke-width="6.660000" />
<circle cx="427.959991" cy="1454.959961" r="19.980000" fill="red">
  <title>Delhi</title>
</circle><line x1="1477.959961" y1="620.960022" x2="427.959991" y2="1454.959961" stroke="red" stroke-width="6.660000" />
<circle cx="181.959991" cy="1513.959961" r="19.980000" fill="red">
  <title>Beijing</title>
</circle><line x1="427.959991" y1="1454.959961" x2="181.959991" y2="1513.959961" stroke="red" stroke-width="6.660000" />
<circle cx="273.959991" cy="818.960022" r="19.980000" fill="red">
  <title>Shanghai</title>
</circle><line x1="181.959991" y1="1513.959961" x2="273.959991" y2="818.960022" stroke="red" stroke-width="6.660000" />
<circle cx="185.959991" cy="586.960022" r="19.980000" fill="red">
  <title>Cairo</title>
</circle><line x1="273.959991" y1="818.960022" x2="185.959991" y2="586.960022" stroke="red" stroke-width="6.660000" />
<circle cx="1317.959961" cy="222.959991" r="19.980000" fill="red">
  <title>Mumbai</title>
</circle><line x1="185.959991" y1="586.960022" x2="1317.959961" y2="222.959991" stroke="red" stroke-width="6.660000" />
</svg>
