<?xml version="1.0" encoding="UTF-8" standalone="no"?>
<svg width="500" height="500" viewBox="0 0 2074.000000 2074.000000" xmlns="http://www.w3.org/2000/svg">
<rect x="19.000000" y="19.000000" width="2036.000000" height="2036.000000" fill="black" />
<circle cx="142.959991" cy="134.959991" r="19.980000" fill="red">
  <title>Tokyo</title>
</circle><line x1="134.959991" y1="371.959991" x2="142.959991" y2="134.959991" stroke="red" stroke-width="6.660000" />
<circle cx="936.960022" cy="248.959991" r="19.980000" fill="red">
  <title>New York</title>
</circle><line x1="142.959991" y1="134.959991" x2="936.960022" y2="248.959991" stroke="red" stroke-width="6.660000" />
<circle cx="873.960022" cy="441.959991" r="19.980000" fill="red">
  <title>Shanghai</title>
</circle><line x1="936.960022" y1="248.959991" x2="873.960022" y2="441.959991" stroke="red" stroke-width="6.660000" />
<circle cx="713.960022" cy="722.960022" r="19.980000" fill="red">
  <title>Kolkata</title>
</circle><line x1="873.960022" y1="441.959991" x2="713.960022" y2="722.960022" stroke="red" stroke-width="6.660000" />
<circle cx="618.960022" cy="737.960022" r="19.980000" fill="red">
  <title>Istanbul</title>
</circle><line x1="713.960022" y1="722.960022" x2="618.960022" y2="737.960022" stroke="red" stroke-width="6.660000" />
<circle cx="529.960022" cy="874.960022" r="19.980000" fill="red">
  <title>Chongqing</title>
</circle><line x1="618.960022" y1="737.960022" x2="529.960022" y2="874.960022" stroke="red" stroke-width="6.660000" />
<circle cx="871.960022" cy="980.960022" r="19.980000" fill="red">
  <title>Karachi</title>
</circle><line x1="529.960022" y1="874.960022" x2="871.960022" y2="980.960022" stroke="red" stroke-width="6.660000" />
<circle cx="1664.959961" cy="1150.959961" r="19.980000" fill="red">
  <title>Beijing</title>
</circle><line x1="871.960022" y1="980.960022" x2="1664.959961" y2="1150.959961" stroke="red" stroke-width="6.660000" />
<circle cx="1889.959961" cy="1333.959961" r="19.980000" fill="red">
  <title>São Paulo</title>
</circle><line x1="1664.959961" y1="1150.959961" x2="1889.959961" y2="1333.959961" stroke="red" stroke-width="6.660000" />
<circle cx="1056.959961" cy="1835.959961" r="19.980000" fill="red">
  <title>Delhi</title>
</circle><line x1="1889.959961" y1="1333.959961" x2="1056.959961" y2="1835.959961" stroke="red" stroke-width="6.660000" />
<circle cx="970.960022" cy="1988.959961" r="19.980000" fill="red">
  <title>Mumbai</title>
</circle><line x1="1056.959961" y1="1835.959961" x2="970.960022" y2="1988.959961" stroke="red" stroke-width="6.660000" />
<circle cx="1004.960022" cy="1774.959961" r="19.980000" fill="red">
  <title>Mexico City</title>
</circle><line x1="970.960022" y1="1988.959961" x2="1004.960022" y2="1774.959961" stroke="red" stroke-width="6.660000" />
<circle cx="833.960022" cy="1731.959961" r="19.980000" fill="red">
  <title>Manila</title>
</circle><line x1="1004.960022" y1="1774.959961" x2="833.960022" y2="1731.959961" stroke="red" stroke-width="6.660000" />
<circle cx="662.960022" cy="1969.959961" r="19.980000" fill="red">
  <title>Cairo</title>
</circle><line x1="833.960022" y1="1731.959961" x2="662.960022" y2="1969.959961" stroke="red" stroke-width="6.660000" />
<circle cx="583.960022" cy="1801.959961" r="19.980000" fill="red">
  <title>Buenos Aires</title>
</circle><line x1="662.960022" y1="1969.959961" x2="583.960022" y2="1801.959961" stroke="red" stroke-width="6.660000" />
<circle cx="519.960022" cy="1667.959961" r="19.980000" fill="red">
  <title>Lagos</title>
</circle><line x1="583.960022" y1="1801.959961" x2="519.960022" y2="1667.959961" stroke="red" stroke-width="6.660000" />
<circle cx="486.959991" cy="1616.959961" r="19.980000" fill="red">
  <title>Osaka</title>
</circle><line x1="519.960022" y1="1667.959961" x2="486.959991" y2="1616.959961" stroke="red" stroke-width="6.660000" />
<circle cx="139.959991" cy="1048.959961" r="19.980000" fill="red">
  <title>Dhaka</title>
</circle><line x1="486.959991" y1="1616.959961" x2="139.959991" y2="1048.959961" stroke="red" stroke-width="6.660000" />
<circle cx="134.959991" cy="371.959991" r="19.980000" fill="red">
  <title>Rio de Janeiro</title>
</circle><line x1="139.959991" y1="1048.959961" x2="134.959991" y2="371.959991" stroke="red" stroke-width="6.660000" />
</svg>
