<?xml version="1.0" encoding="UTF-8" standalone="no"?>
<svg width="500" height="500" viewBox="0 0 2074.000000 2074.000000" xmlns="http://www.w3.org/2000/svg">
<rect x="19.000000" y="19.000000" width="2036.000000" height="2036.000000" fill="black" />
<circle cx="1354.959961" cy="533.960022" r="19.980000" fill="red">
  <title>Tokyo</title>
</circle><line x1="1506.959961" y1="133.959991" x2="1354.959961" y2="533.960022" stroke="red" stroke-width="6.660000" />
<circle cx="1762.959961" cy="1418.959961" r="19.980000" fill="red">
  <title>Shanghai</title>
</circle><line x1="1354.959961" y1="533.960022" x2="1762.959961" y2="1418.959961" stroke="red" stroke-width="6.660000" />
<circle cx="1386.959961" cy="906.960022" r="19.980000" fill="red">
  <title>Delhi</title>
</circle><line x1="1762.959961" y1="1418.959961" x2="1386.959961" y2="906.960022" stroke="red" stroke-width="6.660000" />
<circle cx="642.960022" cy="898.960022" r="19.980000" fill="red">
  <title>Cairo</title>
</circle><line x1="1386.959961" y1="906.960022" x2="642.960022" y2="898.960022" stroke="red" stroke-width="6.660000" />
<circle cx="944.960022" cy="42.959999" r="19.980000" fill="red">
  <title>São Paulo</title>
</circle><line x1="642.960022" y1="898.960022" x2="944.960022" y2="42.959999" stroke="red" stroke-width="6.660000" />
<circle cx="1506.959961" cy="133.959991" r="19.980000" fill="red">
  <title>Mexico City</title>
</circle><line x1="944.960022" y1="42.959999" x2="1506.959961" y2="133.959991" stroke="red" stroke-width="6.660000" />
</svg>
