<?xml version="1.0" encoding="UTF-8" standalone="no"?>
<svg width="500" height="500" viewBox="0 0 2074.000000 2074.000000" xmlns="http://www.w3.org/2000/svg">
<rect x="19.000000" y="19.000000" width="2036.000000" height="2036.000000" fill="black" />
<circle cx="1494.959961" cy="1056.959961" r="19.980000" fill="red">
  <title>Tokyo</title>
</circle><line x1="1518.959961" y1="1309.959961" x2="1494.959961" y2="1056.959961" stroke="red" stroke-width="6.660000" />
<circle cx="1932.959961" cy="765.960022" r="19.980000" fill="red">
  <title>Buenos Aires</title>
</circle><line x1="1494.959961" y1="1056.959961" x2="1932.959961" y2="765.960022" stroke="red" stroke-width="6.660000" />
<circle cx="1754.959961" cy="619.960022" r="19.980000" fill="red">
  <title>Mexico City</title>
</circle><line x1="1932.959961" y1="765.960022" x2="1754.959961" y2="619.960022" stroke="red" stroke-width="6.660000" />
<circle cx="1757.959961" cy="630.960022" r="19.980000" fill="red">
  <title>Chongqing</title>
</circle><line x1="1754.959961" y1="619.960022" x2="1757.959961" y2="630.960022" stroke="red" stroke-width="6.660000" />
<circle cx="1484.959961" cy="935.960022" r="19.980000" fill="red">
  <title>São Paulo</title>
</circle><line x1="1757.959961" y1="630.960022" x2="1484.959961" y2="935.960022" stroke="red" stroke-width="6.660000" />
<circle cx="1189.959961" cy="873.960022" r="19.980000" fill="red">
  <title>Manila</title>
</circle><line x1="1484.959961" y1="935.960022" x2="1189.959961" y2="873.960022" stroke="red" stroke-width="6.660000" />
<circle cx="756.960022" cy="172.959991" r="19.980000" fill="red">
  <title>Istanbul</title>
</circle><line x1="1189.959961" y1="873.960022" x2="756.960022" y2="172.959991" stroke="red" stroke-width="6.660000" />
<circle cx="399.959991" cy="213.959991" r="19.980000" fill="red">
  <title>Kolkata</title>
</circle><line x1="756.960022" y1="172.959991" x2="399.959991" y2="213.959991" stroke="red" stroke-width="6.660000" />
<circle cx="345.959991" cy="513.960022" r="19.980000" fill="red">
  <title>Dhaka</title>
</circle><line x1="399.959991" y1="213.959991" x2="345.959991" y2="513.960022" stroke="red" stroke-width="6.660000" />
<circle cx="494.959991" cy="1137.959961" r="19.980000" fill="red">
  <title>Osaka</title>
</circle><line x1="345.959991" y1="513.960022" x2="494.959991" y2="1137.959961" stroke="red" stroke-width="6.660000" />
<circle cx="42.959999" cy="1342.959961" r="19.980000" fill="red">
  <title>New York</title>
</circle><line x1="494.959991" y1="1137.959961" x2="42.959999" y2="1342.959961" stroke="red" stroke-width="6.660000" />
<circle cx="116.959999" cy="1807.959961" r="19.980000" fill="red">
  <title>Cairo</title>
</circle><line x1="42.959999" y1="1342.959961" x2="116.959999" y2="1807.959961" stroke="red" stroke-width="6.660000" />
<circle cx="69.959999" cy="1955.959961" r="19.980000" fill="red">
  <title>Karachi</title>
</circle><line x1="116.959999" y1="1807.959961" x2="69.959999" y2="1955.959961" stroke="red" stroke-width="6.660000" />
<circle cx="158.959991" cy="1656.959961" r="19.980000" fill="red">
  <title>Shanghai</title>
</circle><line x1="69.959999" y1="1955.959961" x2="158.959991" y2="1656.959961" stroke="red" stroke-width="6.660000" />
<circle cx="512.960022" cy="1344.959961" r="19.980000" fill="red">
  <title>Delhi</title>
</circle><line x1="158.959991" y1="1656.959961" x2="512.960022" y2="1344.959961" stroke="red" stroke-width="6.660000" />
<circle cx="530.960022" cy="1294.959961" r="19.980000" fill="red">
  <title>Beijing</title>
</circle><line x1="512.960022" y1="1344.959961" x2="530.960022" y2="1294.959961" stroke="red" stroke-width="6.660000" />
<circle cx="1229.959961" cy="1129.959961" r="19.980000" fill="red">
  <title>Mumbai</title>
</circle><line x1="530.960022" y1="1294.959961" x2="1229.959961" y2="1129.959961" stroke="red" stroke-width="6.660000" />
<circle cx="1518.959961" cy="1309.959961" r="19.980000" fill="red">
  <title>Lagos</title>
</circle><line x1="1229.959961" y1="1129.959961" x2="1518.959961" y2="1309.959961" stroke="red" stroke-width="6.660000" />
</svg>
