<?xml version="1.0" encoding="UTF-8" standalone="no"?>
<svg width="500" height="500" viewBox="0 0 2074.000000 2074.000000" xmlns="http://www.w3.org/2000/svg">
<rect x="19.000000" y="19.000000" width="2036.000000" height="2036.000000" fill="black" />
<circle cx="1739.959961" cy="813.960022" r="19.980000" fill="red">
  <title>Tokyo</title>
</circle><line x1="1957.959961" y1="804.960022" x2="1739.959961" y2="813.960022" stroke="red" stroke-width="6.660000" />
<circle cx="762.960022" cy="664.960022" r="19.980000" fill="red">
  <title>Delhi</title>
</circle><line x1="1739.959961" y1="813.960022" x2="762.960022" y2="664.960022" stroke="red" stroke-width="6.660000" />
<circle cx="402.959991" cy="1657.959961" r="19.980000" fill="red">
  <title>Mexico City</title>
</circle><line x1="762.960022" y1="664.960022" x2="402.959991" y2="1657.959961" stroke="red" stroke-width="6.660000" />
<circle cx="317.959991" cy="361.959991" r="19.980000" fill="red">
  <title>Shanghai</title>
</circle><line x1="402.959991" y1="1657.959961" x2="317.959991" y2="361.959991" stroke="red" stroke-width="6.660000" />
<circle cx="1284.959961" cy="326.959991" r="19.980000" fill="red">
  <title>Cairo</title>
</circle><line x1="317.959991" y1="361.959991" x2="1284.959961" y2="326.959991" stroke="red" stroke-width="6.660000" />
<circle cx="1957.959961" cy="804.960022" r="19.980000" fill="red">
  <title>São Paulo</title>
</circle><line x1="1284.959961" y1="326.959991" x2="1957.959961" y2="804.960022" stroke="red" stroke-width="6.660000" />
</svg>
