<?xml version="1.0" encoding="UTF-8" standalone="no"?>
<svg width="500" height="500" viewBox="0 0 2074.000000 2074.000000" xmlns="http://www.w3.org/2000/svg">
<rect x="19.000000" y="19.000000" width="2036.000000" height="2036.000000" fill="black" />
<circle cx="1373.959961" cy="2022.959961" r="19.980000" fill="red">
  <title>Tokyo</title>
</circle><line x1="755.960022" y1="1931.959961" x2="1373.959961" y2="2022.959961" stroke="red" stroke-width="6.660000" />
<circle cx="1583.959961" cy="1660.959961" r="19.980000" fill="red">
  <title>Delhi</title>
</circle><line x1="1373.959961" y1="2022.959961" x2="1583.959961" y2="1660.959961" stroke="red" stroke-width="6.660000" />
<circle cx="1800.959961" cy="1565.959961" r="19.980000" fill="red">
  <title>São Paulo</title>
</circle><line x1="1583.959961" y1="1660.959961" x2="1800.959961" y2="1565.959961" stroke="red" stroke-width="6.660000" />
<circle cx="1216.959961" cy="1101.959961" r="19.980000" fill="red">
  <title>Buenos Aires</title>
</circle><line x1="1800.959961" y1="1565.959961" x2="1216.959961" y2="1101.959961" stroke="red" stroke-width="6.660000" />
<circle cx="1043.959961" cy="886.960022" r="19.980000" fill="red">
  <title>Dhaka</title>
</circle><line x1="1216.959961" y1="1101.959961" x2="1043.959961" y2="886.960022" stroke="red" stroke-width="6.660000" />
<circle cx="1210.959961" cy="776.960022" r="19.980000" fill="red">
  <title>Mexico City</title>
</circle><line x1="1043.959961" y1="886.960022" x2="1210.959961" y2="776.960022" stroke="red" stroke-width="6.660000" />
<circle cx="1759.959961" cy="201.959991" r="19.980000" fill="red">
  <title>Cairo</title>
</circle><line x1="1210.959961" y1="776.960022" x2="1759.959961" y2="201.959991" stroke="red" stroke-width="6.660000" />
<circle cx="710.960022" cy="216.959991" r="19.980000" fill="red">
  <title>Istanbul</title>
</circle><line x1="1759.959961" y1="201.959991" x2="710.960022" y2="216.959991" stroke="red" stroke-width="6.660000" />
<circle cx="350.959991" cy="946.960022" r="19.980000" fill="red">
  <title>Chongqing</title>
</circle><line x1="710.960022" y1="216.959991" x2="350.959991" y2="946.960022" stroke="red" stroke-width="6.660000" />
<circle cx="235.959991" cy="1073.959961" r="19.980000" fill="red">
  <title>Karachi</title>
</circle><line x1="350.959991" y1="946.960022" x2="235.959991" y2="1073.959961" stroke="red" stroke-width="6.660000" />
<circle cx="67.959999" cy="1498.959961" r="19.980000" fill="red">
  <title>New York</title>
</circle><line x1="235.959991" y1="1073.959961" x2="67.959999" y2="1498.959961" stroke="red" stroke-width="6.660000" />
<circle cx="574.960022" cy="1516.959961" r="19.980000" fill="red">
  <title>Beijing</title>
</circle><line x1="67.959999" y1="1498.959961" x2="574.960022" y2="1516.959961" stroke="red" stroke-width="6.660000" />
<circle cx="549.960022" cy="1834.959961" r="19.980000" fill="red">
  <title>Osaka</title>
</circle><line x1="574.960022" y1="1516.959961" x2="549.960022" y2="1834.959961" stroke="red" stroke-width="6.660000" />
<circle cx="501.959991" cy="1950.959961" r="19.980000" fill="red">
  <title>Mumbai</title>
</circle><line x1="549.960022" y1="1834.959961" x2="501.959991" y2="1950.959961" stroke="red" stroke-width="6.660000" />
<circle cx="755.960022" cy="1931.959961" r="19.980000" fill="red">
  <title>Shanghai</title>
</circle><line x1="501.959991" y1="1950.959961" x2="755.960022" y2="1931.959961" stroke="red" stroke-width="6.660000" />
</svg>
