<?xml version="1.0" encoding="UTF-8" standalone="no"?>
<svg width="500" height="500" viewBox="0 0 2074.000000 2074.000000" xmlns="http://www.w3.org/2000/svg">
<rect x="19.000000" y="19.000000" width="2036.000000" height="2036.000000" fill="black" />
<circle cx="1333.959961" cy="1457.959961" r="19.980000" fill="red">
  <title>Tokyo</title>
</circle><line x1="766.960022" y1="1528.959961" x2="1333.959961" y2="1457.959961" stroke="red" stroke-width="6.660000" />
<circle cx="1723.959961" cy="903.960022" r="19.980000" fill="red">
  <title>São Paulo</title>
</circle><line x1="1333.959961" y1="1457.959961" x2="1723.959961" y2="903.960022" stroke="red" stroke-width="6.660000" />
<circle cx="828.960022" cy="417.959991" r="19.980000" fill="red">
  <title>Mexico City</title>
</circle><line x1="1723.959961" y1="903.960022" x2="828.960022" y2="417.959991" stroke="red" stroke-width="6.660000" />
<circle cx="861.960022" cy="150.959991" r="19.980000" fill="red">
  <title>Shanghai</title>
</circle><line x1="828.960022" y1="417.959991" x2="861.960022" y2="150.959991" stroke="red" stroke-width="6.660000" />
<circle cx="730.960022" cy="260.959991" r="19.980000" fill="red">
  <title>Cairo</title>
</circle><line x1="861.960022" y1="150.959991" x2="730.960022" y2="260.959991" stroke="red" stroke-width="6.660000" />
<circle cx="838.960022" cy="697.960022" r="19.980000" fill="red">
  <title>Delhi</title>
</circle><line x1="730.960022" y1="260.959991" x2="838.960022" y2="697.960022" stroke="red" stroke-width="6.660000" />
<circle cx="766.960022" cy="1528.959961" r="19.980000" fill="red">
  <title>Mumbai</title>
</circle><line x1="838.960022" y1="697.960022" x2="766.960022" y2="1528.959961" stroke="red" stroke-width="6.660000" />
</svg>
