<?xml version="1.0" encoding="UTF-8" standalone="no"?>
<svg width="500" height="500" viewBox="0 0 2074.000000 2074.000000" xmlns="http://www.w3.org/2000/svg">
<rect x="19.000000" y="19.000000" width="2036.000000" height="2036.000000" fill="black" />
<circle cx="223.959991" cy="1989.959961" r="19.980000" fill="red">
  <title>Tokyo</title>
</circle><line x1="241.959991" y1="1889.959961" x2="223.959991" y2="1989.959961" stroke="red" stroke-width="6.660000" />
<circle cx="576.960022" cy="1978.959961" r="19.980000" fill="red">
  <title>Mexico City</title>
</circle><line x1="223.959991" y1="1989.959961" x2="576.960022" y2="1978.959961" stroke="red" stroke-width="6.660000" />
<circle cx="1342.959961" cy="1754.959961" r="19.980000" fill="red">
  <title>Osaka</title>
</circle><line x1="576.960022" y1="1978.959961" x2="1342.959961" y2="1754.959961" stroke="red" stroke-width="6.660000" />
<circle cx="1422.959961" cy="1739.959961" r="19.980000" fill="red">
  <title>Delhi</title>
</circle><line x1="1342.959961" y1="1754.959961" x2="1422.959961" y2="1739.959961" stroke="red" stroke-width="6.660000" />
<circle cx="1820.959961" cy="1561.959961" r="19.980000" fill="red">
  <title>Chongqing</title>
</circle><line x1="1422.959961" y1="1739.959961" x2="1820.959961" y2="1561.959961" stroke="red" stroke-width="6.660000" />
<circle cx="1493.959961" cy="1609.959961" r="19.980000" fill="red">
  <title>Kolkata</title>
</circle><line x1="1820.959961" y1="1561.959961" x2="1493.959961" y2="1609.959961" stroke="red" stroke-width="6.660000" />
<circle cx="1136.959961" cy="1295.959961" r="19.980000" fill="red">
  <title>New York</title>
</circle><line x1="1493.959961" y1="1609.959961" x2="1136.959961" y2="1295.959961" stroke="red" stroke-width="6.660000" />
<circle cx="1310.959961" cy="1050.959961" r="19.980000" fill="red">
  <title>Lagos</title>
</circle><line x1="1136.959961" y1="1295.959961" x2="1310.959961" y2="1050.959961" stroke="red" stroke-width="6.660000" />
<circle cx="1028.959961" cy="763.960022" r="19.980000" fill="red">
  <title>Buenos Aires</title>
</circle><line x1="1310.959961" y1="1050.959961" x2="1028.959961" y2="763.960022" stroke="red" stroke-width="6.660000" />
<circle cx="1368.959961" cy="778.960022" r="19.980000" fill="red">
  <title>Tianjin</title>
</circle><line x1="1028.959961" y1="763.960022" x2="1368.959961" y2="778.960022" stroke="red" stroke-width="6.660000" />
<circle cx="1830.959961" cy="304.959991" r="19.980000" fill="red">
  <title>Dhaka</title>
</circle><line x1="1368.959961" y1="778.960022" x2="1830.959961" y2="304.959991" stroke="red" stroke-width="6.660000" />
<circle cx="1425.959961" cy="248.959991" r="19.980000" fill="red">
  <title>Istanbul</title>
</circle><line x1="1830.959961" y1="304.959991" x2="1425.959961" y2="248.959991" stroke="red" stroke-width="6.660000" />
<circle cx="1008.960022" cy="310.959991" r="19.980000" fill="red">
  <title>Cairo</title>
</circle><line x1="1425.959961" y1="248.959991" x2="1008.960022" y2="310.959991" stroke="red" stroke-width="6.660000" />
<circle cx="617.960022" cy="356.959991" r="19.980000" fill="red">
  <title>São Paulo</title>
</circle><line x1="1008.960022" y1="310.959991" x2="617.960022" y2="356.959991" stroke="red" stroke-width="6.660000" />
<circle cx="437.959991" cy="473.959991" r="19.980000" fill="red">
  <title>Mumbai</title>
</circle><line x1="617.960022" y1="356.959991" x2="437.959991" y2="473.959991" stroke="red" stroke-width="6.660000" />
<circle cx="440.959991" cy="559.960022" r="19.980000" fill="red">
  <title>Beijing</title>
</circle><line x1="437.959991" y1="473.959991" x2="440.959991" y2="559.960022" stroke="red" stroke-width="6.660000" />
<circle cx="199.959991" cy="877.960022" r="19.980000" fill="red">
  <title>Manila</title>
</circle><line x1="440.959991" y1="559.960022" x2="199.959991" y2="877.960022" stroke="red" stroke-width="6.660000" />
<circle cx="820.960022" cy="1090.959961" r="19.980000" fill="red">
  <title>Karachi</title>
</circle><line x1="199.959991" y1="877.960022" x2="820.960022" y2="1090.959961" stroke="red" stroke-width="6.660000" />
<circle cx="889.960022" cy="1401.959961" r="19.980000" fill="red">
  <title>Shanghai</title>
</circle><line x1="820.960022" y1="1090.959961" x2="889.960022" y2="1401.959961" stroke="red" stroke-width="6.660000" />
<circle cx="241.959991" cy="1889.959961" r="19.980000" fill="red">
  <title>Rio de Janeiro</title>
</circle><line x1="889.960022" y1="1401.959961" x2="241.959991" y2="1889.959961" stroke="red" stroke-width="6.660000" />
</svg>
