<?xml version="1.0" encoding="UTF-8" standalone="no"?>
<svg width="500" height="500" viewBox="0 0 2074.000000 2074.000000" xmlns="http://www.w3.org/2000/svg">
<rect x="19.000000" y="19.000000" width="2036.000000" height="2036.000000" fill="black" />
<circle cx="1482.959961" cy="747.960022" r="19.980000" fill="red">
  <title>Tokyo</title>
</circle><line x1="1063.959961" y1="1043.959961" x2="1482.959961" y2="747.960022" stroke="red" stroke-width="6.660000" />
<circle cx="998.960022" cy="1044.959961" r="19.980000" fill="red">
  <title>Delhi</title>
</circle><line x1="1482.959961" y1="747.960022" x2="998.960022" y2="1044.959961" stroke="red" stroke-width="6.660000" />
<circle cx="89.959999" cy="1994.959961" r="19.980000" fill="red">
  <title>Shanghai</title>
</circle><line x1="998.960022" y1="1044.959961" x2="89.959999" y2="1994.959961" stroke="red" stroke-width="6.660000" />
<circle cx="575.960022" cy="1822.959961" r="19.980000" fill="red">
  <title>Cairo</title>
</circle><line x1="89.959999" y1="1994.959961" x2="575.960022" y2="1822.959961" stroke="red" stroke-width="6.660000" />
<circle cx="1366.959961" cy="1889.959961" r="19.980000" fill="red">
  <title>Mexico City</title>
</circle><line x1="575.960022" y1="1822.959961" x2="1366.959961" y2="1889.959961" stroke="red" stroke-width="6.660000" />
<circle cx="1063.959961" cy="1043.959961" r="19.980000" fill="red">
  <title>São Paulo</title>
</circle><line x1="1366.959961" y1="1889.959961" x2="1063.959961" y2="1043.959961" stroke="red" stroke-width="6.660000" />
</svg>
