<?xml version="1.0" encoding="UTF-8" standalone="no"?>
<svg width="500" height="500" viewBox="0 0 2074.000000 2074.000000" xmlns="http://www.w3.org/2000/svg">
<rect x="19.000000" y="19.000000" width="2036.000000" height="2036.000000" fill="black" />
<circle cx="739.960022" cy="1811.959961" r="19.980000" fill="red">
  <title>Tokyo</title>
</circle><line x1="797.960022" y1="1753.959961" x2="739.960022" y2="1811.959961" stroke="red" stroke-width="6.660000" />
<circle cx="702.960022" cy="1928.959961" r="19.980000" fill="red">
  <title>Shanghai</title>
</circle><line x1="739.960022" y1="1811.959961" x2="702.960022" y2="1928.959961" stroke="red" stroke-width="6.660000" />
<circle cx="470.959991" cy="1981.959961" r="19.980000" fill="red">
  <title>Karachi</title>
</circle><line x1="702.960022" y1="1928.959961" x2="470.959991" y2="1981.959961" stroke="red" stroke-width="6.660000" />
<circle cx="421.959991" cy="1731.959961" r="19.980000" fill="red">
  <title>Osaka</title>
</circle><line x1="470.959991" y1="1981.959961" x2="421.959991" y2="1731.959961" stroke="red" stroke-width="6.660000" />
<circle cx="656.960022" cy="1530.959961" r="19.980000" fill="red">
  <title>Cairo</title>
</circle><line x1="421.959991" y1="1731.959961" x2="656.960022" y2="1530.959961" stroke="red" stroke-width="6.660000" />
<circle cx="823.960022" cy="1234.959961" r="19.980000" fill="red">
  <title>Istanbul</title>
</circle><line x1="656.960022" y1="1530.959961" x2="823.960022" y2="1234.959961" stroke="red" stroke-width="6.660000" />
<circle cx="939.960022" cy="1139.959961" r="19.980000" fill="red">
  <title>Dhaka</title>
</circle><line x1="823.960022" y1="1234.959961" x2="939.960022" y2="1139.959961" stroke="red" stroke-width="6.660000" />
<circle cx="716.960022" cy="715.960022" r="19.980000" fill="red">
  <title>Beijing</title>
</circle><line x1="939.960022" y1="1139.959961" x2="716.960022" y2="715.960022" stroke="red" stroke-width="6.660000" />
<circle cx="434.959991" cy="492.959991" r="19.980000" fill="red">
  <title>Mumbai</title>
</circle><line x1="716.960022" y1="715.960022" x2="434.959991" y2="492.959991" stroke="red" stroke-width="6.660000" />
<circle cx="1007.960022" cy="575.960022" r="19.980000" fill="red">
  <title>Manila</title>
</circle><line x1="434.959991" y1="492.959991" x2="1007.960022" y2="575.960022" stroke="red" stroke-width="6.660000" />
<circle cx="1141.959961" cy="835.960022" r="19.980000" fill="red">
  <title>Buenos Aires</title>
</circle><line x1="1007.960022" y1="575.960022" x2="1141.959961" y2="835.960022" stroke="red" stroke-width="6.660000" />
<circle cx="1979.959961" cy="1309.959961" r="19.980000" fill="red">
  <title>New York</title>
</circle><line x1="1141.959961" y1="835.960022" x2="1979.959961" y2="1309.959961" stroke="red" stroke-width="6.660000" />
<circle cx="1757.959961" cy="1804.959961" r="19.980000" fill="red">
  <title>Mexico City</title>
</circle><line x1="1979.959961" y1="1309.959961" x2="1757.959961" y2="1804.959961" stroke="red" stroke-width="6.660000" />
<circle cx="1438.959961" cy="1523.959961" r="19.980000" fill="red">
  <title>Kolkata</title>
</circle><line x1="1757.959961" y1="1804.959961" x2="1438.959961" y2="1523.959961" stroke="red" stroke-width="6.660000" />
<circle cx="1175.959961" cy="1707.959961" r="19.980000" fill="red">
  <title>Delhi</title>
</circle><line x1="1438.959961" y1="1523.959961" x2="1175.959961" y2="1707.959961" stroke="red" stroke-width="6.660000" />
<circle cx="1176.959961" cy="1794.959961" r="19.980000" fill="red">
  <title>Chongqing</title>
</circle><line x1="1175.959961" y1="1707.959961" x2="1176.959961" y2="1794.959961" stroke="red" stroke-width="6.660000" />
<circle cx="797.960022" cy="1753.959961" r="19.980000" fill="red">
  <title>São Paulo</title>
</circle><line x1="1176.959961" y1="1794.959961" x2="797.960022" y2="1753.959961" stroke="red" stroke-width="6.660000" />
</svg>
