<?xml version="1.0" encoding="UTF-8" standalone="no"?>
<svg width="500" height="500" viewBox="0 0 2074.000000 2074.000000" xmlns="http://www.w3.org/2000/svg">
<rect x="19.000000" y="19.000000" width="2036.000000" height="2036.000000" fill="black" />
<circle cx="1917.959961" cy="650.960022" r="19.980000" fill="red">
  <title>Tokyo</title>
</circle><line x1="1654.959961" y1="610.960022" x2="1917.959961" y2="650.960022" stroke="red" stroke-width="6.660000" />
<circle cx="1977.959961" cy="147.959991" r="19.980000" fill="red">
  <title>Shanghai</title>
</circle><line x1="1917.959961" y1="650.960022" x2="1977.959961" y2="147.959991" stroke="red" stroke-width="6.660000" />
<circle cx="1461.959961" cy="291.959991" r="19.980000" fill="red">
  <title>New York</title>
</circle><line x1="1977.959961" y1="147.959991" x2="1461.959961" y2="291.959991" stroke="red" stroke-width="6.660000" />
<circle cx="1356.959961" cy="198.959991" r="19.980000" fill="red">
  <title>Osaka</title>
</circle><line x1="1461.959961" y1="291.959991" x2="1356.959961" y2="198.959991" stroke="red" stroke-width="6.660000" />
<circle cx="1221.959961" cy="453.959991" r="19.980000" fill="red">
  <title>Mumbai</title>
</circle><line x1="1356.959961" y1="198.959991" x2="1221.959961" y2="453.959991" stroke="red" stroke-width="6.660000" />
<circle cx="832.960022" cy="841.960022" r="19.980000" fill="red">
  <title>Karachi</title>
</circle><line x1="1221.959961" y1="453.959991" x2="832.960022" y2="841.960022" stroke="red" stroke-width="6.660000" />
<circle cx="335.959991" cy="344.959991" r="19.980000" fill="red">
  <title>Cairo</title>
</circle><line x1="832.960022" y1="841.960022" x2="335.959991" y2="344.959991" stroke="red" stroke-width="6.660000" />
<circle cx="81.959999" cy="304.959991" r="19.980000" fill="red">
  <title>São Paulo</title>
</circle><line x1="335.959991" y1="344.959991" x2="81.959999" y2="304.959991" stroke="red" stroke-width="6.660000" />
<circle cx="241.959991" cy="1344.959961" r="19.980000" fill="red">
  <title>Dhaka</title>
</circle><line x1="81.959999" y1="304.959991" x2="241.959991" y2="1344.959961" stroke="red" stroke-width="6.660000" />
<circle cx="303.959991" cy="1501.959961" r="19.980000" fill="red">
  <title>Kolkata</title>
</circle><line x1="241.959991" y1="1344.959961" x2="303.959991" y2="1501.959961" stroke="red" stroke-width="6.660000" />
<circle cx="448.959991" cy="1576.959961" r="19.980000" fill="red">
  <title>Manila</title>
</circle><line x1="303.959991" y1="1501.959961" x2="448.959991" y2="1576.959961" stroke="red" stroke-width="6.660000" />
<circle cx="1077.959961" cy="1885.959961" r="19.980000" fill="red">
  <title>Beijing</title>
</circle><line x1="448.959991" y1="1576.959961" x2="1077.959961" y2="1885.959961" stroke="red" stroke-width="6.660000" />
<circle cx="1311.959961" cy="1754.959961" r="19.980000" fill="red">
  <title>Delhi</title>
</circle><line x1="1077.959961" y1="1885.959961" x2="1311.959961" y2="1754.959961" stroke="red" stroke-width="6.660000" />
<circle cx="1621.959961" cy="1835.959961" r="19.980000" fill="red">
  <title>Istanbul</title>
</circle><line x1="1311.959961" y1="1754.959961" x2="1621.959961" y2="1835.959961" stroke="red" stroke-width="6.660000" />
<circle cx="1428.959961" cy="1198.959961" r="19.980000" fill="red">
  <title>Buenos Aires</title>
</circle><line x1="1621.959961" y1="1835.959961" x2="1428.959961" y2="1198.959961" stroke="red" stroke-width="6.660000" />
<circle cx="1764.959961" cy="724.960022" r="19.980000" fill="red">
  <title>Chongqing</title>
</circle><line x1="1428.959961" y1="1198.959961" x2="1764.959961" y2="724.960022" stroke="red" stroke-width="6.660000" />
<circle cx="1654.959961" cy="610.960022" r="19.980000" fill="red">
  <title>Mexico City</title>
</circle><line x1="1764.959961" y1="724.960022" x2="1654.959961" y2="610.960022" stroke="red" stroke-width="6.660000" />
</svg>
