<?xml version="1.0" encoding="UTF-8" standalone="no"?>
<svg width="500" height="500" viewBox="0 0 2074.000000 2074.000000" xmlns="http://www.w3.org/2000/svg">
<rect x="19.000000" y="19.000000" width="2036.000000" height="2036.000000" fill="black" />
<circle cx="487.959991" cy="850.960022" r="19.980000" fill="red">
  <title>Tokyo</title>
</circle><line x1="379.959991" y1="1170.959961" x2="487.959991" y2="850.960022" stroke="red" stroke-width="6.660000" />
<circle cx="821.960022" cy="634.960022" r="19.980000" fill="red">
  <title>Karachi</title>
</circle><line x1="487.959991" y1="850.960022" x2="821.960022" y2="634.960022" stroke="red" stroke-width="6.660000" />
<circle cx="966.960022" cy="441.959991" r="19.980000" fill="red">
  <title>Cairo</title>
</circle><line x1="821.960022" y1="634.960022" x2="966.960022" y2="441.959991" stroke="red" stroke-width="6.660000" />
<circle cx="1163.959961" cy="79.959999" r="19.980000" fill="red">
  <title>Kolkata</title>
</circle><line x1="966.960022" y1="441.959991" x2="1163.959961" y2="79.959999" stroke="red" stroke-width="6.660000" />
<circle cx="1485.959961" cy="287.959991" r="19.980000" fill="red">
  <title>Shanghai</title>
</circle><line x1="1163.959961" y1="79.959999" x2="1485.959961" y2="287.959991" stroke="red" stroke-width="6.660000" />
<circle cx="1847.959961" cy="458.959991" r="19.980000" fill="red">
  <title>Osaka</title>
</circle><line x1="1485.959961" y1="287.959991" x2="1847.959961" y2="458.959991" stroke="red" stroke-width="6.660000" />
<circle cx="1725.959961" cy="560.960022" r="19.980000" fill="red">
  <title>Dhaka</title>
</circle><line x1="1847.959961" y1="458.959991" x2="1725.959961" y2="560.960022" stroke="red" stroke-width="6.660000" />
<circle cx="1672.959961" cy="991.960022" r="19.980000" fill="red">
  <title>Buenos Aires</title>
</circle><line x1="1725.959961" y1="560.960022" x2="1672.959961" y2="991.960022" stroke="red" stroke-width="6.660000" />
<circle cx="1630.959961" cy="1060.959961" r="19.980000" fill="red">
  <title>Istanbul</title>
</circle><line x1="1672.959961" y1="991.960022" x2="1630.959961" y2="1060.959961" stroke="red" stroke-width="6.660000" />
<circle cx="1913.959961" cy="1346.959961" r="19.980000" fill="red">
  <title>Rio de Janeiro</title>
</circle><line x1="1630.959961" y1="1060.959961" x2="1913.959961" y2="1346.959961" stroke="red" stroke-width="6.660000" />
<circle cx="1871.959961" cy="1665.959961" r="19.980000" fill="red">
  <title>Manila</title>
</circle><line x1="1913.959961" y1="1346.959961" x2="1871.959961" y2="1665.959961" stroke="red" stroke-width="6.660000" />
<circle cx="1904.959961" cy="1766.959961" r="19.980000" fill="red">
  <title>São Paulo</title>
</circle><line x1="1871.959961" y1="1665.959961" x2="1904.959961" y2="1766.959961" stroke="red" stroke-width="6.660000" />
<circle cx="1291.959961" cy="1783.959961" r="19.980000" fill="red">
  <title>Beijing</title>
</circle><line x1="1904.959961" y1="1766.959961" x2="1291.959961" y2="1783.959961" stroke="red" stroke-width="6.660000" />
<circle cx="1346.959961" cy="1401.959961" r="19.980000" fill="red">
  <title>Mexico City</title>
</circle><line x1="1291.959961" y1="1783.959961" x2="1346.959961" y2="1401.959961" stroke="red" stroke-width="6.660000" />
<circle cx="1480.959961" cy="1318.959961" r="19.980000" fill="red">
  <title>Lagos</title>
</circle><line x1="1346.959961" y1="1401.959961" x2="1480.959961" y2="1318.959961" stroke="red" stroke-width="6.660000" />
<circle cx="1047.959961" cy="1222.959961" r="19.980000" fill="red">
  <title>Tianjin</title>
</circle><line x1="1480.959961" y1="1318.959961" x2="1047.959961" y2="1222.959961" stroke="red" stroke-width="6.660000" />
<circle cx="541.960022" cy="1439.959961" r="19.980000" fill="red">
  <title>Delhi</title>
</circle><line x1="1047.959961" y1="1222.959961" x2="541.960022" y2="1439.959961" stroke="red" stroke-width="6.660000" />
<circle cx="546.960022" cy="1613.959961" r="19.980000" fill="red">
  <title>Mumbai</title>
</circle><line x1="541.960022" y1="1439.959961" x2="546.960022" y2="1613.959961" stroke="red" stroke-width="6.660000" />
<circle cx="237.959991" cy="1328.959961" r="19.980000" fill="red">
  <title>New York</title>
</circle><line x1="546.960022" y1="1613.959961" x2="237.959991" y2="1328.959961" stroke="red" stroke-width="6.660000" />
<circle cx="379.959991" cy="1170.959961" r="19.980000" fill="red">
  <title>Chongqing</title>
</circle><line x1="237.959991" y1="1328.959961" x2="379.959991" y2="1170.959961" stroke="red" stroke-width="6.660000" />
</svg>
