<?xml version="1.0" encoding="UTF-8" standalone="no"?>
<svg width="500" height="500" viewBox="0 0 2074.000000 2074.000000" xmlns="http://www.w3.org/2000/svg">
<rect x="19.000000" y="19.000000" width="2036.000000" height="2036.000000" fill="black" />
<circle cx="340.959991" cy="1266.959961" r="19.980000" fill="red">
  <title>Tokyo</title>
</circle><line x1="160.959991" y1="1817.959961" x2="340.959991" y2="1266.959961" stroke="red" stroke-width="6.660000" />
<circle cx="349.959991" cy="1244.959961" r="19.980000" fill="red">
  <title>Mumbai</title>
</circle><line x1="340.959991" y1="1266.959961" x2="349.959991" y2="1244.959961" stroke="red" stroke-width="6.660000" />
<circle cx="164.959991" cy="821.960022" r="19.980000" fill="red">
  <title>Tianjin</title>
</circle><line x1="349.959991" y1="1244.959961" x2="164.959991" y2="821.960022" stroke="red" stroke-width="6.660000" />
<circle cx="84.959999" cy="470.959991" r="19.980000" fill="red">
  <title>Shanghai</title>
</circle><line x1="164.959991" y1="821.960022" x2="84.959999" y2="470.959991" stroke="red" stroke-width="6.660000" />
<circle cx="415.959991" cy="544.960022" r="19.980000" fill="red">
  <title>Istanbul</title>
</circle><line x1="84.959999" y1="470.959991" x2="415.959991" y2="544.960022" stroke="red" stroke-width="6.660000" />
<circle cx="790.960022" cy="819.960022" r="19.980000" fill="red">
  <title>Osaka</title>
</circle><line x1="415.959991" y1="544.960022" x2="790.960022" y2="819.960022" stroke="red" stroke-width="6.660000" />
<circle cx="818.960022" cy="272.959991" r="19.980000" fill="red">
  <title>Buenos Aires</title>
</circle><line x1="790.960022" y1="819.960022" x2="818.960022" y2="272.959991" stroke="red" stroke-width="6.660000" />
<circle cx="968.960022" cy="41.959999" r="19.980000" fill="red">
  <title>Rio de Janeiro</title>
</circle><line x1="818.960022" y1="272.959991" x2="968.960022" y2="41.959999" stroke="red" stroke-width="6.660000" />
<circle cx="1696.959961" cy="84.959999" r="19.980000" fill="red">
  <title>Beijing</title>
</circle><line x1="968.960022" y1="41.959999" x2="1696.959961" y2="84.959999" stroke="red" stroke-width="6.660000" />
<circle cx="1919.959961" cy="385.959991" r="19.980000" fill="red">
  <title>São Paulo</title>
</circle><line x1="1696.959961" y1="84.959999" x2="1919.959961" y2="385.959991" stroke="red" stroke-width="6.660000" />
<circle cx="1891.959961" cy="623.960022" r="19.980000" fill="red">
  <title>Mexico City</title>
</circle><line x1="1919.959961" y1="385.959991" x2="1891.959961" y2="623.960022" stroke="red" stroke-width="6.660000" />
<circle cx="1772.959961" cy="537.960022" r="19.980000" fill="red">
  <title>Manila</title>
</circle><line x1="1891.959961" y1="623.960022" x2="1772.959961" y2="537.960022" stroke="red" stroke-width="6.660000" />
<circle cx="1673.959961" cy="717.960022" r="19.980000" fill="red">
  <title>Kolkata</title>
</circle><line x1="1772.959961" y1="537.960022" x2="1673.959961" y2="717.960022" stroke="red" stroke-width="6.660000" />
<circle cx="1432.959961" cy="795.960022" r="19.980000" fill="red">
  <title>New York</title>
</circle><line x1="1673.959961" y1="717.960022" x2="1432.959961" y2="795.960022" stroke="red" stroke-width="6.660000" />
<circle cx="1381.959961" cy="816.960022" r="19.980000" fill="red">
  <title>Dhaka</title>
</circle><line x1="1432.959961" y1="795.960022" x2="1381.959961" y2="816.960022" stroke="red" stroke-width="6.660000" />
<circle cx="1626.959961" cy="1737.959961" r="19.980000" fill="red">
  <title>Chongqing</title>
</circle><line x1="1381.959961" y1="816.960022" x2="1626.959961" y2="1737.959961" stroke="red" stroke-width="6.660000" />
<circle cx="901.960022" cy="1480.959961" r="19.980000" fill="red">
  <title>Delhi</title>
</circle><line x1="1626.959961" y1="1737.959961" x2="901.960022" y2="1480.959961" stroke="red" stroke-width="6.660000" />
<circle cx="732.960022" cy="1732.959961" r="19.980000" fill="red">
  <title>Cairo</title>
</circle><line x1="901.960022" y1="1480.959961" x2="732.960022" y2="1732.959961" stroke="red" stroke-width="6.660000" />
<circle cx="130.959991" cy="2000.959961" r="19.980000" fill="red">
  <title>Karachi</title>
</circle><line x1="732.960022" y1="1732.959961" x2="130.959991" y2="2000.959961" stroke="red" stroke-width="6.660000" />
<circle cx="160.959991" cy="1817.959961" r="19.980000" fill="red">
  <title>Lagos</title>
</circle><line x1="130.959991" y1="2000.959961" x2="160.959991" y2="1817.959961" stroke="red" stroke-width="6.660000" />
</svg>
