<?xml version="1.0" encoding="UTF-8" standalone="no"?>
<svg width="500" height="500" viewBox="0 0 2074.000000 2074.000000" xmlns="http://www.w3.org/2000/svg">
<rect x="19.000000" y="19.000000" width="2036.000000" height="2036.000000" fill="black" />
<circle cx="92.959999" cy="750.960022" r="19.980000" fill="red">
  <title>Tokyo</title>
</circle><line x1="62.959999" y1="231.959991" x2="92.959999" y2="750.960022" stroke="red" stroke-width="6.660000" />
<circle cx="69.959999" cy="860.960022" r="19.980000" fill="red">
  <title>New York</title>
</circle><line x1="92.959999" y1="750.960022" x2="69.959999" y2="860.960022" stroke="red" stroke-width="6.660000" />
<circle cx="440.959991" cy="1319.959961" r="19.980000" fill="red">
  <title>Chongqing</title>
</circle><line x1="69.959999" y1="860.960022" x2="440.959991" y2="1319.959961" stroke="red" stroke-width="6.660000" />
<circle cx="421.959991" cy="1383.959961" r="19.980000" fill="red">
  <title>Beijing</title>
</circle><line x1="440.959991" y1="1319.959961" x2="421.959991" y2="1383.959961" stroke="red" stroke-width="6.660000" />
<circle cx="798.960022" cy="1741.959961" r="19.980000" fill="red">
  <title>Mumbai</title>
</circle><line x1="421.959991" y1="1383.959961" x2="798.960022" y2="1741.959961" stroke="red" stroke-width="6.660000" />
<circle cx="1023.960022" cy="1516.959961" r="19.980000" fill="red">
  <title>Shanghai</title>
</circle><line x1="798.960022" y1="1741.959961" x2="1023.960022" y2="1516.959961" stroke="red" stroke-width="6.660000" />
<circle cx="1161.959961" cy="1539.959961" r="19.980000" fill="red">
  <title>Buenos Aires</title>
</circle><line x1="1023.960022" y1="1516.959961" x2="1161.959961" y2="1539.959961" stroke="red" stroke-width="6.660000" />
<circle cx="1973.959961" cy="1696.959961" r="19.980000" fill="red">
  <title>Cairo</title>
</circle><line x1="1161.959961" y1="1539.959961" x2="1973.959961" y2="1696.959961" stroke="red" stroke-width="6.660000" />
<circle cx="1900.959961" cy="1472.959961" r="19.980000" fill="red">
  <title>Istanbul</title>
</circle><line x1="1973.959961" y1="1696.959961" x2="1900.959961" y2="1472.959961" stroke="red" stroke-width="6.660000" />
<circle cx="1842.959961" cy="903.960022" r="19.980000" fill="red">
  <title>Osaka</title>
</circle><line x1="1900.959961" y1="1472.959961" x2="1842.959961" y2="903.960022" stroke="red" stroke-width="6.660000" />
<circle cx="1544.959961" cy="801.960022" r="19.980000" fill="red">
  <title>Delhi</title>
</circle><line x1="1842.959961" y1="903.960022" x2="1544.959961" y2="801.960022" stroke="red" stroke-width="6.660000" />
<circle cx="550.960022" cy="588.960022" r="19.980000" fill="red">
  <title>Mexico City</title>
</circle><line x1="1544.959961" y1="801.960022" x2="550.960022" y2="588.960022" stroke="red" stroke-width="6.660000" />
<circle cx="600.960022" cy="212.959991" r="19.980000" fill="red">
  <title>Karachi</title>
</circle><line x1="550.960022" y1="588.960022" x2="600.960022" y2="212.959991" stroke="red" stroke-width="6.660000" />
<circle cx="145.959991" cy="244.959991" r="19.980000" fill="red">
  <title>Dhaka</title>
</circle><line x1="600.960022" y1="212.959991" x2="145.959991" y2="244.959991" stroke="red" stroke-width="6.660000" />
<circle cx="62.959999" cy="231.959991" r="19.980000" fill="red">
  <title>São Paulo</title>
</circle><line x1="145.959991" y1="244.959991" x2="62.959999" y2="231.959991" stroke="red" stroke-width="6.660000" />
</svg>
