<?xml version="1.0" encoding="UTF-8" standalone="no"?>
<svg width="500" height="500" viewBox="0 0 2074.000000 2074.000000" xmlns="http://www.w3.org/2000/svg">
<rect x="19.000000" y="19.000000" width="2036.000000" height="2036.000000" fill="black" />
<circle cx="1057.959961" cy="772.960022" r="19.980000" fill="red">
  <title>Tokyo</title>
</circle><line x1="1476.959961" y1="528.960022" x2="1057.959961" y2="772.960022" stroke="red" stroke-width="6.660000" />
<circle cx="681.960022" cy="1489.959961" r="19.980000" fill="red">
  <title>Shanghai</title>
</circle><line x1="1057.959961" y1="772.960022" x2="681.960022" y2="1489.959961" stroke="red" stroke-width="6.660000" />
<circle cx="259.959991" cy="1474.959961" r="19.980000" fill="red">
  <title>Cairo</title>
</circle><line x1="681.960022" y1="1489.959961" x2="259.959991" y2="1474.959961" stroke="red" stroke-width="6.660000" />
<circle cx="753.960022" cy="1543.959961" r="19.980000" fill="red">
  <title>Delhi</title>
</circle><line x1="259.959991" y1="1474.959961" x2="753.960022" y2="1543.959961" stroke="red" stroke-width="6.660000" />
<circle cx="1147.959961" cy="1885.959961" r="19.980000" fill="red">
  <title>Mexico City</title>
</circle><line x1="753.960022" y1="1543.959961" x2="1147.959961" y2="1885.959961" stroke="red" stroke-width="6.660000" />
<circle cx="1476.959961" cy="528.960022" r="19.980000" fill="red">
  <title>São Paulo</title>
</circle><line x1="1147.959961" y1="1885.959961" x2="1476.959961" y2="528.960022" stroke="red" stroke-width="6.660000" />
</svg>
