<?xml version="1.0" encoding="UTF-8" standalone="no"?>
<svg width="500" height="500" viewBox="0 0 2074.000000 2074.000000" xmlns="http://www.w3.org/2000/svg">
<rect x="19.000000" y="19.000000" width="2036.000000" height="2036.000000" fill="black" />
<circle cx="702.960022" cy="1086.959961" r="19.980000" fill="red">
  <title>Tokyo</title>
</circle><line x1="600.960022" y1="109.959999" x2="702.960022" y2="1086.959961" stroke="red" stroke-width="6.660000" />
<circle cx="65.959999" cy="1865.959961" r="19.980000" fill="red">
  <title>Shanghai</title>
</circle><line x1="702.960022" y1="1086.959961" x2="65.959999" y2="1865.959961" stroke="red" stroke-width="6.660000" />
<circle cx="1258.959961" cy="1475.959961" r="19.980000" fill="red">
  <title>São Paulo</title>
</circle><line x1="65.959999" y1="1865.959961" x2="1258.959961" y2="1475.959961" stroke="red" stroke-width="6.660000" />
<circle cx="1647.959961" cy="1842.959961" r="19.980000" fill="red">
  <title>Mexico City</title>
</circle><line x1="1258.959961" y1="1475.959961" x2="1647.959961" y2="1842.959961" stroke="red" stroke-width="6.660000" />
<circle cx="1622.959961" cy="471.959991" r="19.980000" fill="red">
  <title>Beijing</title>
</circle><line x1="1647.959961" y1="1842.959961" x2="1622.959961" y2="471.959991" stroke="red" stroke-width="6.660000" />
<circle cx="1334.959961" cy="186.959991" r="19.980000" fill="red">
  <title>Cairo</title>
</circle><line x1="1622.959961" y1="471.959991" x2="1334.959961" y2="186.959991" stroke="red" stroke-width="6.660000" />
<circle cx="989.960022" cy="257.959991" r="19.980000" fill="red">
  <title>Delhi</title>
</circle><line x1="1334.959961" y1="186.959991" x2="989.960022" y2="257.959991" stroke="red" stroke-width="6.660000" />
<circle cx="600.960022" cy="109.959999" r="19.980000" fill="red">
  <title>Mumbai</title>
</circle><line x1="989.960022" y1="257.959991" x2="600.960022" y2="109.959999" stroke="red" stroke-width="6.660000" />
</svg>
