<?xml version="1.0" encoding="UTF-8" standalone="no"?>
<svg width="500" height="500" viewBox="0 0 2074.000000 2074.000000" xmlns="http://www.w3.org/2000/svg">
<rect x="19.000000" y="19.000000" width="2036.000000" height="2036.000000" fill="black" />
<circle cx="1817.959961" cy="387.959991" r="19.980000" fill="red">
  <title>Tokyo</title>
</circle><line x1="1956.959961" y1="96.959999" x2="1817.959961" y2="387.959991" stroke="red" stroke-width="6.660000" />
<circle cx="1822.959961" cy="602.960022" r="19.980000" fill="red">
  <title>Cairo</title>
</circle><line x1="1817.959961" y1="387.959991" x2="1822.959961" y2="602.960022" stroke="red" stroke-width="6.660000" />
<circle cx="1908.959961" cy="926.960022" r="19.980000" fill="red">
  <title>Buenos Aires</title>
</circle><line x1="1822.959961" y1="602.960022" x2="1908.959961" y2="926.960022" stroke="red" stroke-width="6.660000" />
<circle cx="1637.959961" cy="1265.959961" r="19.980000" fill="red">
  <title>New York</title>
</circle><line x1="1908.959961" y1="926.960022" x2="1637.959961" y2="1265.959961" stroke="red" stroke-width="6.660000" />
<circle cx="1447.959961" cy="1051.959961" r="19.980000" fill="red">
  <title>Delhi</title>
</circle><line x1="1637.959961" y1="1265.959961" x2="1447.959961" y2="1051.959961" stroke="red" stroke-width="6.660000" />
<circle cx="1247.959961" cy="889.960022" r="19.980000" fill="red">
  <title>Lagos</title>
</circle><line x1="1447.959961" y1="1051.959961" x2="1247.959961" y2="889.960022" stroke="red" stroke-width="6.660000" />
<circle cx="1244.959961" cy="916.960022" r="19.980000" fill="red">
  <title>Chongqing</title>
</circle><line x1="1247.959961" y1="889.960022" x2="1244.959961" y2="916.960022" stroke="red" stroke-width="6.660000" />
<circle cx="888.960022" cy="1769.959961" r="19.980000" fill="red">
  <title>Mumbai</title>
</circle><line x1="1244.959961" y1="916.960022" x2="888.960022" y2="1769.959961" stroke="red" stroke-width="6.660000" />
<circle cx="456.959991" cy="1607.959961" r="19.980000" fill="red">
  <title>Istanbul</title>
</circle><line x1="888.960022" y1="1769.959961" x2="456.959991" y2="1607.959961" stroke="red" stroke-width="6.660000" />
<circle cx="708.960022" cy="1051.959961" r="19.980000" fill="red">
  <title>São Paulo</title>
</circle><line x1="456.959991" y1="1607.959961" x2="708.960022" y2="1051.959961" stroke="red" stroke-width="6.660000" />
<circle cx="307.959991" cy="865.960022" r="19.980000" fill="red">
  <title>Osaka</title>
</circle><line x1="708.960022" y1="1051.959961" x2="307.959991" y2="865.960022" stroke="red" stroke-width="6.660000" />
<circle cx="308.959991" cy="848.960022" r="19.980000" fill="red">
  <title>Mexico City</title>
</circle><line x1="307.959991" y1="865.960022" x2="308.959991" y2="848.960022" stroke="red" stroke-width="6.660000" />
<circle cx="687.960022" cy="235.959991" r="19.980000" fill="red">
  <title>Kolkata</title>
</circle><line x1="308.959991" y1="848.960022" x2="687.960022" y2="235.959991" stroke="red" stroke-width="6.660000" />
<circle cx="970.960022" cy="347.959991" r="19.980000" fill="red">
  <title>Shanghai</title>
</circle><line x1="687.960022" y1="235.959991" x2="970.960022" y2="347.959991" stroke="red" stroke-width="6.660000" />
<circle cx="1018.960022" cy="222.959991" r="19.980000" fill="red">
  <title>Beijing</title>
</circle><line x1="970.960022" y1="347.959991" x2="1018.960022" y2="222.959991" stroke="red" stroke-width="6.660000" />
<circle cx="1255.959961" cy="354.959991" r="19.980000" fill="red">
  <title>Karachi</title>
</circle><line x1="1018.960022" y1="222.959991" x2="1255.959961" y2="354.959991" stroke="red" stroke-width="6.660000" />
<circle cx="1718.959961" cy="208.959991" r="19.980000" fill="red">
  <title>Dhaka</title>
</circle><line x1="1255.959961" y1="354.959991" x2="1718.959961" y2="208.959991" stroke="red" stroke-width="6.660000" />
<circle cx="1956.959961" cy="96.959999" r="19.980000" fill="red">
  <title>Manila</title>
</circle><line x1="1718.959961" y1="208.959991" x2="1956.959961" y2="96.959999" stroke="red" stroke-width="6.660000" />
</svg>
