<?xml version="1.0" encoding="UTF-8" standalone="no"?>
<svg width="500" height="500" viewBox="0 0 2074.000000 2074.000000" xmlns="http://www.w3.org/2000/svg">
<rect x="19.000000" y="19.000000" width="2036.000000" height="2036.000000" fill="black" />
<circle cx="1736.959961" cy="1095.959961" r="19.980000" fill="red">
  <title>Tokyo</title>
</circle><line x1="889.960022" y1="1096.959961" x2="1736.959961" y2="1095.959961" stroke="red" stroke-width="6.660000" />
<circle cx="1205.959961" cy="1687.959961" r="19.980000" fill="red">
  <title>Mexico City</title>
</circle><line x1="1736.959961" y1="1095.959961" x2="1205.959961" y2="1687.959961" stroke="red" stroke-width="6.660000" />
<circle cx="845.960022" cy="2011.959961" r="19.980000" fill="red">
  <title>São Paulo</title>
</circle><line x1="1205.959961" y1="1687.959961" x2="845.960022" y2="2011.959961" stroke="red" stroke-width="6.660000" />
<circle cx="279.959991" cy="1759.959961" r="19.980000" fill="red">
  <title>Karachi</title>
</circle><line x1="845.960022" y1="2011.959961" x2="279.959991" y2="1759.959961" stroke="red" stroke-width="6.660000" />
<circle cx="550.960022" cy="1115.959961" r="19.980000" fill="red">
  <title>Osaka</title>
</circle><line x1="279.959991" y1="1759.959961" x2="550.960022" y2="1115.959961" stroke="red" stroke-width="6.660000" />
<circle cx="127.959999" cy="305.959991" r="19.980000" fill="red">
  <title>Delhi</title>
</circle><line x1="550.960022" y1="1115.959961" x2="127.959999" y2="305.959991" stroke="red" stroke-width="6.660000" />
<circle cx="386.959991" cy="213.959991" r="19.980000" fill="red">
  <title>Dhaka</title>
</circle><line x1="127.959999" y1="305.959991" x2="386.959991" y2="213.959991" stroke="red" stroke-width="6.660000" />
<circle cx="876.960022" cy="147.959991" r="19.980000" fill="red">
  <title>Mumbai</title>
</circle><line x1="386.959991" y1="213.959991" x2="876.960022" y2="147.959991" stroke="red" stroke-width="6.660000" />
<circle cx="1271.959961" cy="57.959999" r="19.980000" fill="red">
  <title>Shanghai</title>
</circle><line x1="876.960022" y1="147.959991" x2="1271.959961" y2="57.959999" stroke="red" stroke-width="6.660000" />
<circle cx="1261.959961" cy="210.959991" r="19.980000" fill="red">
  <title>Beijing</title>
</circle><line x1="1271.959961" y1="57.959999" x2="1261.959961" y2="210.959991" stroke="red" stroke-width="6.660000" />
<circle cx="1146.959961" cy="624.960022" r="19.980000" fill="red">
  <title>Cairo</title>
</circle><line x1="1261.959961" y1="210.959991" x2="1146.959961" y2="624.960022" stroke="red" stroke-width="6.660000" />
<circle cx="889.960022" cy="1096.959961" r="19.980000" fill="red">
  <title>New York</title>
</circle><line x1="1146.959961" y1="624.960022" x2="889.960022" y2="1096.959961" stroke="red" stroke-width="6.660000" />
</svg>
