<?xml version="1.0" encoding="UTF-8" standalone="no"?>
<svg width="500" height="500" viewBox="0 0 2074.000000 2074.000000" xmlns="http://www.w3.org/2000/svg">
<rect x="19.000000" y="19.000000" width="2036.000000" height="2036.000000" fill="black" />
<circle cx="1530.959961" cy="493.959991" r="19.980000" fill="red">
  <title>Tokyo</title>
</circle><line x1="1084.959961" y1="378.959991" x2="1530.959961" y2="493.959991" stroke="red" stroke-width="6.660000" />
<circle cx="1741.959961" cy="606.960022" r="19.980000" fill="red">
  <title>Delhi</title>
</circle><line x1="1530.959961" y1="493.959991" x2="1741.959961" y2="606.960022" stroke="red" stroke-width="6.660000" />
<circle cx="1656.959961" cy="1908.959961" r="19.980000" fill="red">
  <title>São Paulo</title>
</circle><line x1="1741.959961" y1="606.960022" x2="1656.959961" y2="1908.959961" stroke="red" stroke-width="6.660000" />
<circle cx="985.960022" cy="2018.959961" r="19.980000" fill="red">
  <title>Mexico City</title>
</circle><line x1="1656.959961" y1="1908.959961" x2="985.960022" y2="2018.959961" stroke="red" stroke-width="6.660000" />
<circle cx="188.959991" cy="1438.959961" r="19.980000" fill="red">
  <title>Cairo</title>
</circle><line x1="985.960022" y1="2018.959961" x2="188.959991" y2="1438.959961" stroke="red" stroke-width="6.660000" />
<circle cx="817.960022" cy="485.959991" r="19.980000" fill="red">
  <title>Mumbai</title>
</circle><line x1="188.959991" y1="1438.959961" x2="817.960022" y2="485.959991" stroke="red" stroke-width="6.660000" />
<circle cx="1084.959961" cy="378.959991" r="19.980000" fill="red">
  <title>Shanghai</title>
</circle><line x1="817.960022" y1="485.959991" x2="1084.959961" y2="378.959991" stroke="red" stroke-width="6.660000" />
</svg>
