<?xml version="1.0" encoding="UTF-8" standalone="no"?>
<svg width="500" height="500" viewBox="0 0 2074.000000 2074.000000" xmlns="http://www.w3.org/2000/svg">
<rect x="19.000000" y="19.000000" width="2036.000000" height="2036.000000" fill="black" />
<circle cx="1886.959961" cy="483.959991" r="19.980000" fill="red">
  <title>Tokyo</title>
</circle><line x1="1925.959961" y1="308.959991" x2="1886.959961" y2="483.959991" stroke="red" stroke-width="6.660000" />
<circle cx="1466.959961" cy="1355.959961" r="19.980000" fill="red">
  <title>Delhi</title>
</circle><line x1="1886.959961" y1="483.959991" x2="1466.959961" y2="1355.959961" stroke="red" stroke-width="6.660000" />
<circle cx="1882.959961" cy="2003.959961" r="19.980000" fill="red">
  <title>São Paulo</title>
</circle><line x1="1466.959961" y1="1355.959961" x2="1882.959961" y2="2003.959961" stroke="red" stroke-width="6.660000" />
<circle cx="1158.959961" cy="1444.959961" r="19.980000" fill="red">
  <title>Mexico City</title>
</circle><line x1="1882.959961" y1="2003.959961" x2="1158.959961" y2="1444.959961" stroke="red" stroke-width="6.660000" />
<circle cx="311.959991" cy="1266.959961" r="19.980000" fill="red">
  <title>Osaka</title>
</circle><line x1="1158.959961" y1="1444.959961" x2="311.959991" y2="1266.959961" stroke="red" stroke-width="6.660000" />
<circle cx="422.959991" cy="1027.959961" r="19.980000" fill="red">
  <title>New York</title>
</circle><line x1="311.959991" y1="1266.959961" x2="422.959991" y2="1027.959961" stroke="red" stroke-width="6.660000" />
<circle cx="545.960022" cy="899.960022" r="19.980000" fill="red">
  <title>Dhaka</title>
</circle><line x1="422.959991" y1="1027.959961" x2="545.960022" y2="899.960022" stroke="red" stroke-width="6.660000" />
<circle cx="421.959991" cy="264.959991" r="19.980000" fill="red">
  <title>Mumbai</title>
</circle><line x1="545.960022" y1="899.960022" x2="421.959991" y2="264.959991" stroke="red" stroke-width="6.660000" />
<circle cx="810.960022" cy="829.960022" r="19.980000" fill="red">
  <title>Cairo</title>
</circle><line x1="421.959991" y1="264.959991" x2="810.960022" y2="829.960022" stroke="red" stroke-width="6.660000" />
<circle cx="1652.959961" cy="168.959991" r="19.980000" fill="red">
  <title>Beijing</title>
</circle><line x1="810.960022" y1="829.960022" x2="1652.959961" y2="168.959991" stroke="red" stroke-width="6.660000" />
<circle cx="1925.959961" cy="308.959991" r="19.980000" fill="red">
  <title>Shanghai</title>
</circle><line x1="1652.959961" y1="168.959991" x2="1925.959961" y2="308.959991" stroke="red" stroke-width="6.660000" />
</svg>
