<?xml version="1.0" encoding="UTF-8" standalone="no"?>
<svg width="500" height="500" viewBox="0 0 2074.000000 2074.000000" xmlns="http://www.w3.org/2000/svg">
<rect x="19.000000" y="19.000000" width="2036.000000" height="2036.000000" fill="black" />
<circle cx="627.960022" cy="1933.959961" r="19.980000" fill="red">
  <title>Tokyo</title>
</circle><line x1="805.960022" y1="971.960022" x2="627.960022" y2="1933.959961" stroke="red" stroke-width="6.660000" />
<circle cx="1501.959961" cy="1413.959961" r="19.980000" fill="red">
  <title>Shanghai</title>
</circle><line x1="627.960022" y1="1933.959961" x2="1501.959961" y2="1413.959961" stroke="red" stroke-width="6.660000" />
<circle cx="2010.959961" cy="1200.959961" r="19.980000" fill="red">
  <title>Mexico City</title>
</circle><line x1="1501.959961" y1="1413.959961" x2="2010.959961" y2="1200.959961" stroke="red" stroke-width="6.660000" />
<circle cx="972.960022" cy="1214.959961" r="19.980000" fill="red">
  <title>Cairo</title>
</circle><line x1="2010.959961" y1="1200.959961" x2="972.960022" y2="1214.959961" stroke="red" stroke-width="6.660000" />
<circle cx="486.959991" cy="188.959991" r="19.980000" fill="red">
  <title>Delhi</title>
</circle><line x1="972.960022" y1="1214.959961" x2="486.959991" y2="188.959991" stroke="red" stroke-width="6.660000" />
<circle cx="805.960022" cy="971.960022" r="19.980000" fill="red">
  <title>São Paulo</title>
</circle><line x1="486.959991" y1="188.959991" x2="805.960022" y2="971.960022" stroke="red" stroke-width="6.660000" />
</svg>
