<?xml version="1.0" encoding="UTF-8" standalone="no"?>
<svg width="500" height="500" viewBox="0 0 2074.000000 2074.000000" xmlns="http://www.w3.org/2000/svg">
<rect x="19.000000" y="19.000000" width="2036.000000" height="2036.000000" fill="black" />
<circle cx="171.959991" cy="1687.959961" r="19.980000" fill="red">
  <title>Tokyo</title>
</circle><line x1="1078.959961" y1="421.959991" x2="171.959991" y2="1687.959961" stroke="red" stroke-width="6.660000" />
<circle cx="843.960022" cy="1477.959961" r="19.980000" fill="red">
  <title>São Paulo</title>
</circle><line x1="171.959991" y1="1687.959961" x2="843.960022" y2="1477.959961" stroke="red" stroke-width="6.660000" />
<circle cx="1886.959961" cy="1031.959961" r="19.980000" fill="red">
  <title>Delhi</title>
</circle><line x1="843.960022" y1="1477.959961" x2="1886.959961" y2="1031.959961" stroke="red" stroke-width="6.660000" />
<circle cx="1078.959961" cy="421.959991" r="19.980000" fill="red">
  <title>Shanghai</title>
</circle><line x1="1886.959961" y1="1031.959961" x2="1078.959961" y2="421.959991" stroke="red" stroke-width="6.660000" />
</svg>
