<?xml version="1.0" encoding="UTF-8" standalone="no"?>
<svg width="500" height="500" viewBox="0 0 2074.000000 2074.000000" xmlns="http://www.w3.org/2000/svg">
<rect x="19.000000" y="19.000000" width="2036.000000" height="2036.000000" fill="black" />
<circle cx="408.959991" cy="1445.959961" r="19.980000" fill="red">
  <title>Tokyo</title>
</circle><line x1="832.960022" y1="1613.959961" x2="408.959991" y2="1445.959961" stroke="red" stroke-width="6.660000" />
<circle cx="620.960022" cy="1203.959961" r="19.980000" fill="red">
  <title>Shanghai</title>
</circle><line x1="408.959991" y1="1445.959961" x2="620.960022" y2="1203.959961" stroke="red" stroke-width="6.660000" />
<circle cx="582.960022" cy="827.960022" r="19.980000" fill="red">
  <title>Osaka</title>
</circle><line x1="620.960022" y1="1203.959961" x2="582.960022" y2="827.960022" stroke="red" stroke-width="6.660000" />
<circle cx="1034.959961" cy="982.960022" r="19.980000" fill="red">
  <title>Chongqing</title>
</circle><line x1="582.960022" y1="827.960022" x2="1034.959961" y2="982.960022" stroke="red" stroke-width="6.660000" />
<circle cx="1471.959961" cy="621.960022" r="19.980000" fill="red">
  <title>Mumbai</title>
</circle><line x1="1034.959961" y1="982.960022" x2="1471.959961" y2="621.960022" stroke="red" stroke-width="6.660000" />
<circle cx="1418.959961" cy="467.959991" r="19.980000" fill="red">
  <title>Dhaka</title>
</circle><line x1="1471.959961" y1="621.960022" x2="1418.959961" y2="467.959991" stroke="red" stroke-width="6.660000" />
<circle cx="1980.959961" cy="72.959999" r="19.980000" fill="red">
  <title>Cairo</title>
</circle><line x1="1418.959961" y1="467.959991" x2="1980.959961" y2="72.959999" stroke="red" stroke-width="6.660000" />
<circle cx="1947.959961" cy="320.959991" r="19.980000" fill="red">
  <title>Buenos Aires</title>
</circle><line x1="1980.959961" y1="72.959999" x2="1947.959961" y2="320.959991" stroke="red" stroke-width="6.660000" />
<circle cx="2020.959961" cy="1634.959961" r="19.980000" fill="red">
  <title>Delhi</title>
</circle><line x1="1947.959961" y1="320.959991" x2="2020.959961" y2="1634.959961" stroke="red" stroke-width="6.660000" />
<circle cx="1748.959961" cy="1854.959961" r="19.980000" fill="red">
  <title>Beijing</title>
</circle><line x1="2020.959961" y1="1634.959961" x2="1748.959961" y2="1854.959961" stroke="red" stroke-width="6.660000" />
<circle cx="1139.959961" cy="1989.959961" r="19.980000" fill="red">
  <title>Karachi</title>
</circle><line x1="1748.959961" y1="1854.959961" x2="1139.959961" y2="1989.959961" stroke="red" stroke-width="6.660000" />
<circle cx="1116.959961" cy="1631.959961" r="19.980000" fill="red">
  <title>Mexico City</title>
</circle><line x1="1139.959961" y1="1989.959961" x2="1116.959961" y2="1631.959961" stroke="red" stroke-width="6.660000" />
<circle cx="949.960022" cy="1400.959961" r="19.980000" fill="red">
  <title>New York</title>
</circle><line x1="1116.959961" y1="1631.959961" x2="949.960022" y2="1400.959961" stroke="red" stroke-width="6.660000" />
<circle cx="832.960022" cy="1613.959961" r="19.980000" fill="red">
  <title>São Paulo</title>
</circle><line x1="949.960022" y1="1400.959961" x2="832.960022" y2="1613.959961" stroke="red" stroke-width="6.660000" />
</svg>
