<?xml version="1.0" encoding="UTF-8" standalone="no"?>
<svg width="500" height="500" viewBox="0 0 2074.000000 2074.000000" xmlns="http://www.w3.org/2000/svg">
<rect x="19.000000" y="19.000000" width="2036.000000" height="2036.000000" fill="black" />
<circle cx="1629.959961" cy="972.960022" r="19.980000" fill="red">
  <title>Tokyo</title>
</circle><line x1="1160.959961" y1="1268.959961" x2="1629.959961" y2="972.960022" stroke="red" stroke-width="6.660000" />
<circle cx="822.960022" cy="109.959999" r="19.980000" fill="red">
  <title>São Paulo</title>
</circle><line x1="1629.959961" y1="972.960022" x2="822.960022" y2="109.959999" stroke="red" stroke-width="6.660000" />
<circle cx="504.959991" cy="604.960022" r="19.980000" fill="red">
  <title>Shanghai</title>
</circle><line x1="822.960022" y1="109.959999" x2="504.959991" y2="604.960022" stroke="red" stroke-width="6.660000" />
<circle cx="59.959999" cy="1607.959961" r="19.980000" fill="red">
  <title>Delhi</title>
</circle><line x1="504.959991" y1="604.960022" x2="59.959999" y2="1607.959961" stroke="red" stroke-width="6.660000" />
<circle cx="1160.959961" cy="1268.959961" r="19.980000" fill="red">
  <title>Mexico City</title>
</circle><line x1="59.959999" y1="1607.959961" x2="1160.959961" y2="1268.959961" stroke="red" stroke-width="6.660000" />
</svg>
