<?xml version="1.0" encoding="UTF-8" standalone="no"?>
<svg width="500" height="500" viewBox="0 0 2074.000000 2074.000000" xmlns="http://www.w3.org/2000/svg">
<rect x="19.000000" y="19.000000" width="2036.000000" height="2036.000000" fill="black" />
<circle cx="1917.959961" cy="824.960022" r="19.980000" fill="red">
  <title>Tokyo</title>
</circle><line x1="1963.959961" y1="889.960022" x2="1917.959961" y2="824.960022" stroke="red" stroke-width="6.660000" />
<circle cx="1289.959961" cy="659.960022" r="19.980000" fill="red">
  <title>Delhi</title>
</circle><line x1="1917.959961" y1="824.960022" x2="1289.959961" y2="659.960022" stroke="red" stroke-width="6.660000" />
<circle cx="326.959991" cy="48.959999" r="19.980000" fill="red">
  <title>Mexico City</title>
</circle><line x1="1289.959961" y1="659.960022" x2="326.959991" y2="48.959999" stroke="red" stroke-width="6.660000" />
<circle cx="1919.959961" cy="516.960022" r="19.980000" fill="red">
  <title>Shanghai</title>
</circle><line x1="326.959991" y1="48.959999" x2="1919.959961" y2="516.960022" stroke="red" stroke-width="6.660000" />
<circle cx="1963.959961" cy="889.960022" r="19.980000" fill="red">
  <title>São Paulo</title>
</circle><line x1="1919.959961" y1="516.960022" x2="1963.959961" y2="889.960022" stroke="red" stroke-width="6.660000" />
</svg>
