<?xml version="1.0" encoding="UTF-8" standalone="no"?>
<svg width="500" height="500" viewBox="0 0 2074.000000 2074.000000" xmlns="http://www.w3.org/2000/svg">
<rect x="19.000000" y="19.000000" width="2036.000000" height="2036.000000" fill="black" />
<circle cx="1502.959961" cy="927.960022" r="19.980000" fill="red">
  <title>Tokyo</title>
</circle><line x1="1270.959961" y1="1531.959961" x2="1502.959961" y2="927.960022" stroke="red" stroke-width="6.660000" />
<circle cx="1777.959961" cy="717.960022" r="19.980000" fill="red">
  <title>Mumbai</title>
</circle><line x1="1502.959961" y1="927.960022" x2="1777.959961" y2="717.960022" stroke="red" stroke-width="6.660000" />
<circle cx="2021.959961" cy="314.959991" r="19.980000" fill="red">
  <title>Delhi</title>
</circle><line x1="1777.959961" y1="717.960022" x2="2021.959961" y2="314.959991" stroke="red" stroke-width="6.660000" />
<circle cx="1249.959961" cy="95.959999" r="19.980000" fill="red">
  <title>Cairo</title>
</circle><line x1="2021.959961" y1="314.959991" x2="1249.959961" y2="95.959999" stroke="red" stroke-width="6.660000" />
<circle cx="886.960022" cy="43.959999" r="19.980000" fill="red">
  <title>Dhaka</title>
</circle><line x1="1249.959961" y1="95.959999" x2="886.960022" y2="43.959999" stroke="red" stroke-width="6.660000" />
<circle cx="791.960022" cy="482.959991" r="19.980000" fill="red">
  <title>Shanghai</title>
</circle><line x1="886.960022" y1="43.959999" x2="791.960022" y2="482.959991" stroke="red" stroke-width="6.660000" />
<circle cx="76.959999" cy="58.959999" r="19.980000" fill="red">
  <title>Mexico City</title>
</circle><line x1="791.960022" y1="482.959991" x2="76.959999" y2="58.959999" stroke="red" stroke-width="6.660000" />
<circle cx="51.959999" cy="953.960022" r="19.980000" fill="red">
  <title>Beijing</title>
</circle><line x1="76.959999" y1="58.959999" x2="51.959999" y2="953.960022" stroke="red" stroke-width="6.660000" />
<circle cx="252.959991" cy="1138.959961" r="19.980000" fill="red">
  <title>São Paulo</title>
</circle><line x1="51.959999" y1="953.960022" x2="252.959991" y2="1138.959961" stroke="red" stroke-width="6.660000" />
<circle cx="1270.959961" cy="1531.959961" r="19.980000" fill="red">
  <title>Osaka</title>
</circle><line x1="252.959991" y1="1138.959961" x2="1270.959961" y2="1531.959961" stroke="red" stroke-width="6.660000" />
</svg>
