<?xml version="1.0" encoding="UTF-8" standalone="no"?>
<svg width="500" height="500" viewBox="0 0 2074.000000 2074.000000" xmlns="http://www.w3.org/2000/svg">
<rect x="19.000000" y="19.000000" width="2036.000000" height="2036.000000" fill="black" />
<circle cx="629.960022" cy="461.959991" r="19.980000" fill="red">
  <title>Tokyo</title>
</circle><line x1="500.959991" y1="720.960022" x2="629.960022" y2="461.959991" stroke="red" stroke-width="6.660000" />
<circle cx="456.959991" cy="387.959991" r="19.980000" fill="red">
  <title>Delhi</title>
</circle><line x1="629.960022" y1="461.959991" x2="456.959991" y2="387.959991" stroke="red" stroke-width="6.660000" />
<circle cx="79.959999" cy="299.959991" r="19.980000" fill="red">
  <title>Karachi</title>
</circle><line x1="456.959991" y1="387.959991" x2="79.959999" y2="299.959991" stroke="red" stroke-width="6.660000" />
<circle cx="569.960022" cy="240.959991" r="19.980000" fill="red">
  <title>Shanghai</title>
</circle><line x1="79.959999" y1="299.959991" x2="569.960022" y2="240.959991" stroke="red" stroke-width="6.660000" />
<circle cx="793.960022" cy="48.959999" r="19.980000" fill="red">
  <title>Kolkata</title>
</circle><line x1="569.960022" y1="240.959991" x2="793.960022" y2="48.959999" stroke="red" stroke-width="6.660000" />
<circle cx="1108.959961" cy="598.960022" r="19.980000" fill="red">
  <title>Cairo</title>
</circle><line x1="793.960022" y1="48.959999" x2="1108.959961" y2="598.960022" stroke="red" stroke-width="6.660000" />
<circle cx="1366.959961" cy="432.959991" r="19.980000" fill="red">
  <title>Mexico City</title>
</circle><line x1="1108.959961" y1="598.960022" x2="1366.959961" y2="432.959991" stroke="red" stroke-width="6.660000" />
<circle cx="1966.959961" cy="484.959991" r="19.980000" fill="red">
  <title>Osaka</title>
</circle><line x1="1366.959961" y1="432.959991" x2="1966.959961" y2="484.959991" stroke="red" stroke-width="6.660000" />
<circle cx="1717.959961" cy="1159.959961" r="19.980000" fill="red">
  <title>São Paulo</title>
</circle><line x1="1966.959961" y1="484.959991" x2="1717.959961" y2="1159.959961" stroke="red" stroke-width="6.660000" />
<circle cx="1582.959961" cy="1216.959961" r="19.980000" fill="red">
  <title>Mumbai</title>
</circle><line x1="1717.959961" y1="1159.959961" x2="1582.959961" y2="1216.959961" stroke="red" stroke-width="6.660000" />
<circle cx="1318.959961" cy="1310.959961" r="19.980000" fill="red">
  <title>Beijing</title>
</circle><line x1="1582.959961" y1="1216.959961" x2="1318.959961" y2="1310.959961" stroke="red" stroke-width="6.660000" />
<circle cx="1307.959961" cy="1437.959961" r="19.980000" fill="red">
  <title>New York</title>
</circle><line x1="1318.959961" y1="1310.959961" x2="1307.959961" y2="1437.959961" stroke="red" stroke-width="6.660000" />
<circle cx="1456.959961" cy="2032.959961" r="19.980000" fill="red">
  <title>Istanbul</title>
</circle><line x1="1307.959961" y1="1437.959961" x2="1456.959961" y2="2032.959961" stroke="red" stroke-width="6.660000" />
<circle cx="862.960022" cy="1777.959961" r="19.980000" fill="red">
  <title>Buenos Aires</title>
</circle><line x1="1456.959961" y1="2032.959961" x2="862.960022" y2="1777.959961" stroke="red" stroke-width="6.660000" />
<circle cx="455.959991" cy="1211.959961" r="19.980000" fill="red">
  <title>Manila</title>
</circle><line x1="862.960022" y1="1777.959961" x2="455.959991" y2="1211.959961" stroke="red" stroke-width="6.660000" />
<circle cx="486.959991" cy="1093.959961" r="19.980000" fill="red">
  <title>Chongqing</title>
</circle><line x1="455.959991" y1="1211.959961" x2="486.959991" y2="1093.959961" stroke="red" stroke-width="6.660000" />
<circle cx="396.959991" cy="986.960022" r="19.980000" fill="red">
  <title>Lagos</title>
</circle><line x1="486.959991" y1="1093.959961" x2="396.959991" y2="986.960022" stroke="red" stroke-width="6.660000" />
<circle cx="500.959991" cy="720.960022" r="19.980000" fill="red">
  <title>Dhaka</title>
</circle><line x1="396.959991" y1="986.960022" x2="500.959991" y2="720.960022" stroke="red" stroke-width="6.660000" />
</svg>
