<?xml version="1.0" encoding="UTF-8" standalone="no"?>
<svg width="500" height="500" viewBox="0 0 2074.000000 2074.000000" xmlns="http://www.w3.org/2000/svg">
<rect x="19.000000" y="19.000000" width="2036.000000" height="2036.000000" fill="black" />
<circle cx="1794.959961" cy="389.959991" r="19.980000" fill="red">
  <title>Tokyo</title>
</circle><line x1="1171.959961" y1="79.959999" x2="1794.959961" y2="389.959991" stroke="red" stroke-width="6.660000" />
<circle cx="1849.959961" cy="427.959991" r="19.980000" fill="red">
  <title>Cairo</title>
</circle><line x1="1794.959961" y1="389.959991" x2="1849.959961" y2="427.959991" stroke="red" stroke-width="6.660000" />
<circle cx="1718.959961" cy="652.960022" r="19.980000" fill="red">
  <title>Dhaka</title>
</circle><line x1="1849.959961" y1="427.959991" x2="1718.959961" y2="652.960022" stroke="red" stroke-width="6.660000" />
<circle cx="2014.959961" cy="789.960022" r="19.980000" fill="red">
  <title>Rio de Janeiro</title>
</circle><line x1="1718.959961" y1="652.960022" x2="2014.959961" y2="789.960022" stroke="red" stroke-width="6.660000" />
<circle cx="1707.959961" cy="1009.960022" r="19.980000" fill="red">
  <title>Mexico City</title>
</circle><line x1="2014.959961" y1="789.960022" x2="1707.959961" y2="1009.960022" stroke="red" stroke-width="6.660000" />
<circle cx="1550.959961" cy="1362.959961" r="19.980000" fill="red">
  <title>Buenos Aires</title>
</circle><line x1="1707.959961" y1="1009.960022" x2="1550.959961" y2="1362.959961" stroke="red" stroke-width="6.660000" />
<circle cx="1822.959961" cy="1744.959961" r="19.980000" fill="red">
  <title>Osaka</title>
</circle><line x1="1550.959961" y1="1362.959961" x2="1822.959961" y2="1744.959961" stroke="red" stroke-width="6.660000" />
<circle cx="1929.959961" cy="1670.959961" r="19.980000" fill="red">
  <title>Lagos</title>
</circle><line x1="1822.959961" y1="1744.959961" x2="1929.959961" y2="1670.959961" stroke="red" stroke-width="6.660000" />
<circle cx="1724.959961" cy="1683.959961" r="19.980000" fill="red">
  <title>Tianjin</title>
</circle><line x1="1929.959961" y1="1670.959961" x2="1724.959961" y2="1683.959961" stroke="red" stroke-width="6.660000" />
<circle cx="1311.959961" cy="1967.959961" r="19.980000" fill="red">
  <title>Manila</title>
</circle><line x1="1724.959961" y1="1683.959961" x2="1311.959961" y2="1967.959961" stroke="red" stroke-width="6.660000" />
<circle cx="978.960022" cy="1746.959961" r="19.980000" fill="red">
  <title>New York</title>
</circle><line x1="1311.959961" y1="1967.959961" x2="978.960022" y2="1746.959961" stroke="red" stroke-width="6.660000" />
<circle cx="835.960022" cy="1889.959961" r="19.980000" fill="red">
  <title>Delhi</title>
</circle><line x1="978.960022" y1="1746.959961" x2="835.960022" y2="1889.959961" stroke="red" stroke-width="6.660000" />
<circle cx="411.959991" cy="1268.959961" r="19.980000" fill="red">
  <title>Chongqing</title>
</circle><line x1="835.960022" y1="1889.959961" x2="411.959991" y2="1268.959961" stroke="red" stroke-width="6.660000" />
<circle cx="522.960022" cy="1070.959961" r="19.980000" fill="red">
  <title>Mumbai</title>
</circle><line x1="411.959991" y1="1268.959961" x2="522.960022" y2="1070.959961" stroke="red" stroke-width="6.660000" />
<circle cx="879.960022" cy="867.960022" r="19.980000" fill="red">
  <title>Beijing</title>
</circle><line x1="522.960022" y1="1070.959961" x2="879.960022" y2="867.960022" stroke="red" stroke-width="6.660000" />
<circle cx="323.959991" cy="960.960022" r="19.980000" fill="red">
  <title>Istanbul</title>
</circle><line x1="879.960022" y1="867.960022" x2="323.959991" y2="960.960022" stroke="red" stroke-width="6.660000" />
<circle cx="71.959999" cy="155.959991" r="19.980000" fill="red">
  <title>Karachi</title>
</circle><line x1="323.959991" y1="960.960022" x2="71.959999" y2="155.959991" stroke="red" stroke-width="6.660000" />
<circle cx="398.959991" cy="85.959999" r="19.980000" fill="red">
  <title>Shanghai</title>
</circle><line x1="71.959999" y1="155.959991" x2="398.959991" y2="85.959999" stroke="red" stroke-width="6.660000" />
<circle cx="897.960022" cy="92.959999" r="19.980000" fill="red">
  <title>São Paulo</title>
</circle><line x1="398.959991" y1="85.959999" x2="897.960022" y2="92.959999" stroke="red" stroke-width="6.660000" />
<circle cx="1171.959961" cy="79.959999" r="19.980000" fill="red">
  <title>Kolkata</title>
</circle><line x1="897.960022" y1="92.959999" x2="1171.959961" y2="79.959999" stroke="red" stroke-width="6.660000" />
</svg>
