<?xml version="1.0" encoding="UTF-8" standalone="no"?>
<svg width="500" height="500" viewBox="0 0 2074.000000 2074.000000" xmlns="http://www.w3.org/2000/svg">
<rect x="19.000000" y="19.000000" width="2036.000000" height="2036.000000" fill="black" />
<circle cx="1378.959961" cy="1411.959961" r="19.980000" fill="red">
  <title>Tokyo</title>
</circle><line x1="830.960022" y1="1793.959961" x2="1378.959961" y2="1411.959961" stroke="red" stroke-width="6.660000" />
<circle cx="1919.959961" cy="304.959991" r="19.980000" fill="red">
  <title>Mexico City</title>
</circle><line x1="1378.959961" y1="1411.959961" x2="1919.959961" y2="304.959991" stroke="red" stroke-width="6.660000" />
<circle cx="613.960022" cy="651.960022" r="19.980000" fill="red">
  <title>São Paulo</title>
</circle><line x1="1919.959961" y1="304.959991" x2="613.960022" y2="651.960022" stroke="red" stroke-width="6.660000" />
<circle cx="169.959991" cy="739.960022" r="19.980000" fill="red">
  <title>Delhi</title>
</circle><line x1="613.960022" y1="651.960022" x2="169.959991" y2="739.960022" stroke="red" stroke-width="6.660000" />
<circle cx="427.959991" cy="1900.959961" r="19.980000" fill="red">
  <title>Shanghai</title>
</circle><line x1="169.959991" y1="739.960022" x2="427.959991" y2="1900.959961" stroke="red" stroke-width="6.660000" />
<circle cx="830.960022" cy="1793.959961" r="19.980000" fill="red">
  <title>Cairo</title>
</circle><line x1="427.959991" y1="1900.959961" x2="830.960022" y2="1793.959961" stroke="red" stroke-width="6.660000" />
</svg>
