<?xml version="1.0" encoding="UTF-8" standalone="no"?>
<svg width="500" height="500" viewBox="0 0 2074.000000 2074.000000" xmlns="http://www.w3.org/2000/svg">
<rect x="19.000000" y="19.000000" width="2036.000000" height="2036.000000" fill="black" />
<circle cx="349.959991" cy="632.960022" r="19.980000" fill="red">
  <title>Tokyo</title>
</circle><line x1="127.959999" y1="1359.959961" x2="349.959991" y2="632.960022" stroke="red" stroke-width="6.660000" />
<circle cx="632.960022" cy="44.959999" r="19.980000" fill="red">
  <title>Delhi</title>
</circle><line x1="349.959991" y1="632.960022" x2="632.960022" y2="44.959999" stroke="red" stroke-width="6.660000" />
<circle cx="998.960022" cy="111.959999" r="19.980000" fill="red">
  <title>Mexico City</title>
</circle><line x1="632.960022" y1="44.959999" x2="998.960022" y2="111.959999" stroke="red" stroke-width="6.660000" />
<circle cx="1672.959961" cy="40.959999" r="19.980000" fill="red">
  <title>Mumbai</title>
</circle><line x1="998.960022" y1="111.959999" x2="1672.959961" y2="40.959999" stroke="red" stroke-width="6.660000" />
<circle cx="2036.959961" cy="186.959991" r="19.980000" fill="red">
  <title>Karachi</title>
</circle><line x1="1672.959961" y1="40.959999" x2="2036.959961" y2="186.959991" stroke="red" stroke-width="6.660000" />
<circle cx="1482.959961" cy="666.960022" r="19.980000" fill="red">
  <title>São Paulo</title>
</circle><line x1="2036.959961" y1="186.959991" x2="1482.959961" y2="666.960022" stroke="red" stroke-width="6.660000" />
<circle cx="1055.959961" cy="639.960022" r="19.980000" fill="red">
  <title>Osaka</title>
</circle><line x1="1482.959961" y1="666.960022" x2="1055.959961" y2="639.960022" stroke="red" stroke-width="6.660000" />
<circle cx="768.960022" cy="675.960022" r="19.980000" fill="red">
  <title>Buenos Aires</title>
</circle><line x1="1055.959961" y1="639.960022" x2="768.960022" y2="675.960022" stroke="red" stroke-width="6.660000" />
<circle cx="1078.959961" cy="817.960022" r="19.980000" fill="red">
  <title>Shanghai</title>
</circle><line x1="768.960022" y1="675.960022" x2="1078.959961" y2="817.960022" stroke="red" stroke-width="6.660000" />
<circle cx="1446.959961" cy="1545.959961" r="19.980000" fill="red">
  <title>Beijing</title>
</circle><line x1="1078.959961" y1="817.960022" x2="1446.959961" y2="1545.959961" stroke="red" stroke-width="6.660000" />
<circle cx="285.959991" cy="1883.959961" r="19.980000" fill="red">
  <title>Cairo</title>
</circle><line x1="1446.959961" y1="1545.959961" x2="285.959991" y2="1883.959961" stroke="red" stroke-width="6.660000" />
<circle cx="269.959991" cy="1741.959961" r="19.980000" fill="red">
  <title>Dhaka</title>
</circle><line x1="285.959991" y1="1883.959961" x2="269.959991" y2="1741.959961" stroke="red" stroke-width="6.660000" />
<circle cx="127.959999" cy="1359.959961" r="19.980000" fill="red">
  <title>New York</title>
</circle><line x1="269.959991" y1="1741.959961" x2="127.959999" y2="1359.959961" stroke="red" stroke-width="6.660000" />
</svg>
