<?xml version="1.0" encoding="UTF-8" standalone="no"?>
<svg width="500" height="500" viewBox="0 0 2074.000000 2074.000000" xmlns="http://www.w3.org/2000/svg">
<rect x="19.000000" y="19.000000" width="2036.000000" height="2036.000000" fill="black" />
<circle cx="1684.959961" cy="186.959991" r="19.980000" fill="red">
  <title>Tokyo</title>
</circle><line x1="870.960022" y1="149.959991" x2="1684.959961" y2="186.959991" stroke="red" stroke-width="6.660000" />
<circle cx="1851.959961" cy="109.959999" r="19.980000" fill="red">
  <title>Shanghai</title>
</circle><line x1="1684.959961" y1="186.959991" x2="1851.959961" y2="109.959999" stroke="red" stroke-width="6.660000" />
<circle cx="2037.959961" cy="737.960022" r="19.980000" fill="red">
  <title>Cairo</title>
</circle><line x1="1851.959961" y1="109.959999" x2="2037.959961" y2="737.960022" stroke="red" stroke-width="6.660000" />
<circle cx="1816.959961" cy="807.960022" r="19.980000" fill="red">
  <title>Chongqing</title>
</circle><line x1="2037.959961" y1="737.960022" x2="1816.959961" y2="807.960022" stroke="red" stroke-width="6.660000" />
<circle cx="1998.959961" cy="1749.959961" r="19.980000" fill="red">
  <title>Mexico City</title>
</circle><line x1="1816.959961" y1="807.960022" x2="1998.959961" y2="1749.959961" stroke="red" stroke-width="6.660000" />
<circle cx="1577.959961" cy="1737.959961" r="19.980000" fill="red">
  <title>Beijing</title>
</circle><line x1="1998.959961" y1="1749.959961" x2="1577.959961" y2="1737.959961" stroke="red" stroke-width="6.660000" />
<circle cx="973.960022" cy="1894.959961" r="19.980000" fill="red">
  <title>Delhi</title>
</circle><line x1="1577.959961" y1="1737.959961" x2="973.960022" y2="1894.959961" stroke="red" stroke-width="6.660000" />
<circle cx="822.960022" cy="1873.959961" r="19.980000" fill="red">
  <title>Dhaka</title>
</circle><line x1="973.960022" y1="1894.959961" x2="822.960022" y2="1873.959961" stroke="red" stroke-width="6.660000" />
<circle cx="1019.960022" cy="1273.959961" r="19.980000" fill="red">
  <title>Karachi</title>
</circle><line x1="822.960022" y1="1873.959961" x2="1019.960022" y2="1273.959961" stroke="red" stroke-width="6.660000" />
<circle cx="799.960022" cy="1021.960022" r="19.980000" fill="red">
  <title>New York</title>
</circle><line x1="1019.960022" y1="1273.959961" x2="799.960022" y2="1021.960022" stroke="red" stroke-width="6.660000" />
<circle cx="296.959991" cy="1418.959961" r="19.980000" fill="red">
  <title>Manila</title>
</circle><line x1="799.960022" y1="1021.960022" x2="296.959991" y2="1418.959961" stroke="red" stroke-width="6.660000" />
<circle cx="196.959991" cy="1189.959961" r="19.980000" fill="red">
  <title>São Paulo</title>
</circle><line x1="296.959991" y1="1418.959961" x2="196.959991" y2="1189.959961" stroke="red" stroke-width="6.660000" />
<circle cx="329.959991" cy="897.960022" r="19.980000" fill="red">
  <title>Mumbai</title>
</circle><line x1="196.959991" y1="1189.959961" x2="329.959991" y2="897.960022" stroke="red" stroke-width="6.660000" />
<circle cx="584.960022" cy="654.960022" r="19.980000" fill="red">
  <title>Osaka</title>
</circle><line x1="329.959991" y1="897.960022" x2="584.960022" y2="654.960022" stroke="red" stroke-width="6.660000" />
<circle cx="483.959991" cy="517.960022" r="19.980000" fill="red">
  <title>Kolkata</title>
</circle><line x1="584.960022" y1="654.960022" x2="483.959991" y2="517.960022" stroke="red" stroke-width="6.660000" />
<circle cx="374.959991" cy="110.959999" r="19.980000" fill="red">
  <title>Lagos</title>
</circle><line x1="483.959991" y1="517.960022" x2="374.959991" y2="110.959999" stroke="red" stroke-width="6.660000" />
<circle cx="683.960022" cy="149.959991" r="19.980000" fill="red">
  <title>Buenos Aires</title>
</circle><line x1="374.959991" y1="110.959999" x2="683.960022" y2="149.959991" stroke="red" stroke-width="6.660000" />
<circle cx="870.960022" cy="149.959991" r="19.980000" fill="red">
  <title>Istanbul</title>
</circle><line x1="683.960022" y1="149.959991" x2="870.960022" y2="149.959991" stroke="red" stroke-width="6.660000" />
</svg>
