<?xml version="1.0" encoding="UTF-8" standalone="no"?>
<svg width="500" height="500" viewBox="0 0 2074.000000 2074.000000" xmlns="http://www.w3.org/2000/svg">
<rect x="19.000000" y="19.000000" width="2036.000000" height="2036.000000" fill="black" />
<circle cx="1626.959961" cy="1876.959961" r="19.980000" fill="red">
  <title>Tokyo</title>
</circle><line x1="1277.959961" y1="1805.959961" x2="1626.959961" y2="1876.959961" stroke="red" stroke-width="6.660000" />
<circle cx="1850.959961" cy="1994.959961" r="19.980000" fill="red">
  <title>Cairo</title>
</circle><line x1="1626.959961" y1="1876.959961" x2="1850.959961" y2="1994.959961" stroke="red" stroke-width="6.660000" />
<circle cx="1680.959961" cy="1736.959961" r="19.980000" fill="red">
  <title>Karachi</title>
</circle><line x1="1850.959961" y1="1994.959961" x2="1680.959961" y2="1736.959961" stroke="red" stroke-width="6.660000" />
<circle cx="1690.959961" cy="1665.959961" r="19.980000" fill="red">
  <title>São Paulo</title>
</circle><line x1="1680.959961" y1="1736.959961" x2="1690.959961" y2="1665.959961" stroke="red" stroke-width="6.660000" />
<circle cx="1323.959961" cy="1480.959961" r="19.980000" fill="red">
  <title>Delhi</title>
</circle><line x1="1690.959961" y1="1665.959961" x2="1323.959961" y2="1480.959961" stroke="red" stroke-width="6.660000" />
<circle cx="1054.959961" cy="1297.959961" r="19.980000" fill="red">
  <title>Shanghai</title>
</circle><line x1="1323.959961" y1="1480.959961" x2="1054.959961" y2="1297.959961" stroke="red" stroke-width="6.660000" />
<circle cx="876.960022" cy="938.960022" r="19.980000" fill="red">
  <title>Mumbai</title>
</circle><line x1="1054.959961" y1="1297.959961" x2="876.960022" y2="938.960022" stroke="red" stroke-width="6.660000" />
<circle cx="1008.960022" cy="911.960022" r="19.980000" fill="red">
  <title>Dhaka</title>
</circle><line x1="876.960022" y1="938.960022" x2="1008.960022" y2="911.960022" stroke="red" stroke-width="6.660000" />
<circle cx="1145.959961" cy="935.960022" r="19.980000" fill="red">
  <title>Tianjin</title>
</circle><line x1="1008.960022" y1="911.960022" x2="1145.959961" y2="935.960022" stroke="red" stroke-width="6.660000" />
<circle cx="1205.959961" cy="881.960022" r="19.980000" fill="red">
  <title>New York</title>
</circle><line x1="1145.959961" y1="935.960022" x2="1205.959961" y2="881.960022" stroke="red" stroke-width="6.660000" />
<circle cx="1052.959961" cy="664.960022" r="19.980000" fill="red">
  <title>Istanbul</title>
</circle><line x1="1205.959961" y1="881.960022" x2="1052.959961" y2="664.960022" stroke="red" stroke-width="6.660000" />
<circle cx="799.960022" cy="290.959991" r="19.980000" fill="red">
  <title>Osaka</title>
</circle><line x1="1052.959961" y1="664.960022" x2="799.960022" y2="290.959991" stroke="red" stroke-width="6.660000" />
<circle cx="270.959991" cy="42.959999" r="19.980000" fill="red">
  <title>Mexico City</title>
</circle><line x1="799.960022" y1="290.959991" x2="270.959991" y2="42.959999" stroke="red" stroke-width="6.660000" />
<circle cx="166.959991" cy="238.959991" r="19.980000" fill="red">
  <title>Chongqing</title>
</circle><line x1="270.959991" y1="42.959999" x2="166.959991" y2="238.959991" stroke="red" stroke-width="6.660000" />
<circle cx="160.959991" cy="641.960022" r="19.980000" fill="red">
  <title>Kolkata</title>
</circle><line x1="166.959991" y1="238.959991" x2="160.959991" y2="641.960022" stroke="red" stroke-width="6.660000" />
<circle cx="83.959999" cy="1517.959961" r="19.980000" fill="red">
  <title>Lagos</title>
</circle><line x1="160.959991" y1="641.960022" x2="83.959999" y2="1517.959961" stroke="red" stroke-width="6.660000" />
<circle cx="502.959991" cy="1444.959961" r="19.980000" fill="red">
  <title>Manila</title>
</circle><line x1="83.959999" y1="1517.959961" x2="502.959991" y2="1444.959961" stroke="red" stroke-width="6.660000" />
<circle cx="704.960022" cy="1735.959961" r="19.980000" fill="red">
  <title>Rio de Janeiro</title>
</circle><line x1="502.959991" y1="1444.959961" x2="704.960022" y2="1735.959961" stroke="red" stroke-width="6.660000" />
<circle cx="1107.959961" cy="2024.959961" r="19.980000" fill="red">
  <title>Buenos Aires</title>
</circle><line x1="704.960022" y1="1735.959961" x2="1107.959961" y2="2024.959961" stroke="red" stroke-width="6.660000" />
<circle cx="1277.959961" cy="1805.959961" r="19.980000" fill="red">
  <title>Beijing</title>
</circle><line x1="1107.959961" y1="2024.959961" x2="1277.959961" y2="1805.959961" stroke="red" stroke-width="6.660000" />
</svg>
