<?xml version="1.0" encoding="UTF-8" standalone="no"?>
<svg width="500" height="500" viewBox="0 0 2074.000000 2074.000000" xmlns="http://www.w3.org/2000/svg">
<rect x="19.000000" y="19.000000" width="2036.000000" height="2036.000000" fill="black" />
<circle cx="984.960022" cy="809.960022" r="19.980000" fill="red">
  <title>Tokyo</title>
</circle><line x1="756.960022" y1="756.960022" x2="984.960022" y2="809.960022" stroke="red" stroke-width="6.660000" />
<circle cx="1288.959961" cy="798.960022" r="19.980000" fill="red">
  <title>São Paulo</title>
</circle><line x1="984.960022" y1="809.960022" x2="1288.959961" y2="798.960022" stroke="red" stroke-width="6.660000" />
<circle cx="1483.959961" cy="1157.959961" r="19.980000" fill="red">
  <title>Dhaka</title>
</circle><line x1="1288.959961" y1="798.960022" x2="1483.959961" y2="1157.959961" stroke="red" stroke-width="6.660000" />
<circle cx="1679.959961" cy="1625.959961" r="19.980000" fill="red">
  <title>Beijing</title>
</circle><line x1="1483.959961" y1="1157.959961" x2="1679.959961" y2="1625.959961" stroke="red" stroke-width="6.660000" />
<circle cx="1654.959961" cy="1104.959961" r="19.980000" fill="red">
  <title>New York</title>
</circle><line x1="1679.959961" y1="1625.959961" x2="1654.959961" y2="1104.959961" stroke="red" stroke-width="6.660000" />
<circle cx="1833.959961" cy="971.960022" r="19.980000" fill="red">
  <title>Shanghai</title>
</circle><line x1="1654.959961" y1="1104.959961" x2="1833.959961" y2="971.960022" stroke="red" stroke-width="6.660000" />
<circle cx="2006.959961" cy="828.960022" r="19.980000" fill="red">
  <title>Osaka</title>
</circle><line x1="1833.959961" y1="971.960022" x2="2006.959961" y2="828.960022" stroke="red" stroke-width="6.660000" />
<circle cx="1435.959961" cy="510.959991" r="19.980000" fill="red">
  <title>Mumbai</title>
</circle><line x1="2006.959961" y1="828.960022" x2="1435.959961" y2="510.959991" stroke="red" stroke-width="6.660000" />
<circle cx="1032.959961" cy="723.960022" r="19.980000" fill="red">
  <title>Cairo</title>
</circle><line x1="1435.959961" y1="510.959991" x2="1032.959961" y2="723.960022" stroke="red" stroke-width="6.660000" />
<circle cx="895.960022" cy="702.960022" r="19.980000" fill="red">
  <title>Mexico City</title>
</circle><line x1="1032.959961" y1="723.960022" x2="895.960022" y2="702.960022" stroke="red" stroke-width="6.660000" />
<circle cx="715.960022" cy="354.959991" r="19.980000" fill="red">
  <title>Karachi</title>
</circle><line x1="895.960022" y1="702.960022" x2="715.960022" y2="354.959991" stroke="red" stroke-width="6.660000" />
<circle cx="398.959991" cy="964.960022" r="19.980000" fill="red">
  <title>Chongqing</title>
</circle><line x1="715.960022" y1="354.959991" x2="398.959991" y2="964.960022" stroke="red" stroke-width="6.660000" />
<circle cx="309.959991" cy="1667.959961" r="19.980000" fill="red">
  <title>Delhi</title>
</circle><line x1="398.959991" y1="964.960022" x2="309.959991" y2="1667.959961" stroke="red" stroke-width="6.660000" />
<circle cx="268.959991" cy="1125.959961" r="19.980000" fill="red">
  <title>Istanbul</title>
</circle><line x1="309.959991" y1="1667.959961" x2="268.959991" y2="1125.959961" stroke="red" stroke-width="6.660000" />
<circle cx="756.960022" cy="756.960022" r="19.980000" fill="red">
  <title>Buenos Aires</title>
</circle><line x1="268.959991" y1="1125.959961" x2="756.960022" y2="756.960022" stroke="red" stroke-width="6.660000" />
</svg>
