<?xml version="1.0" encoding="UTF-8" standalone="no"?>
<svg width="500" height="500" viewBox="0 0 2074.000000 2074.000000" xmlns="http://www.w3.org/2000/svg">
<rect x="19.000000" y="19.000000" width="2036.000000" height="2036.000000" fill="black" />
<circle cx="698.960022" cy="1962.959961" r="19.980000" fill="red">
  <title>Tokyo</title>
</circle><line x1="240.959991" y1="2012.959961" x2="698.960022" y2="1962.959961" stroke="red" stroke-width="6.660000" />
<circle cx="971.960022" cy="1154.959961" r="19.980000" fill="red">
  <title>Mexico City</title>
</circle><line x1="698.960022" y1="1962.959961" x2="971.960022" y2="1154.959961" stroke="red" stroke-width="6.660000" />
<circle cx="1801.959961" cy="1416.959961" r="19.980000" fill="red">
  <title>Beijing</title>
</circle><line x1="971.960022" y1="1154.959961" x2="1801.959961" y2="1416.959961" stroke="red" stroke-width="6.660000" />
<circle cx="1901.959961" cy="412.959991" r="19.980000" fill="red">
  <title>New York</title>
</circle><line x1="1801.959961" y1="1416.959961" x2="1901.959961" y2="412.959991" stroke="red" stroke-width="6.660000" />
<circle cx="2028.959961" cy="245.959991" r="19.980000" fill="red">
  <title>Shanghai</title>
</circle><line x1="1901.959961" y1="412.959991" x2="2028.959961" y2="245.959991" stroke="red" stroke-width="6.660000" />
<circle cx="1532.959961" cy="448.959991" r="19.980000" fill="red">
  <title>Karachi</title>
</circle><line x1="2028.959961" y1="245.959991" x2="1532.959961" y2="448.959991" stroke="red" stroke-width="6.660000" />
<circle cx="1352.959961" cy="206.959991" r="19.980000" fill="red">
  <title>Mumbai</title>
</circle><line x1="1532.959961" y1="448.959991" x2="1352.959961" y2="206.959991" stroke="red" stroke-width="6.660000" />
<circle cx="1064.959961" cy="826.960022" r="19.980000" fill="red">
  <title>Delhi</title>
</circle><line x1="1352.959961" y1="206.959991" x2="1064.959961" y2="826.960022" stroke="red" stroke-width="6.660000" />
<circle cx="787.960022" cy="595.960022" r="19.980000" fill="red">
  <title>Cairo</title>
</circle><line x1="1064.959961" y1="826.960022" x2="787.960022" y2="595.960022" stroke="red" stroke-width="6.660000" />
<circle cx="462.959991" cy="738.960022" r="19.980000" fill="red">
  <title>São Paulo</title>
</circle><line x1="787.960022" y1="595.960022" x2="462.959991" y2="738.960022" stroke="red" stroke-width="6.660000" />
<circle cx="382.959991" cy="1335.959961" r="19.980000" fill="red">
  <title>Dhaka</title>
</circle><line x1="462.959991" y1="738.960022" x2="382.959991" y2="1335.959961" stroke="red" stroke-width="6.660000" />
<circle cx="240.959991" cy="2012.959961" r="19.980000" fill="red">
  <title>Osaka</title>
</circle><line x1="382.959991" y1="1335.959961" x2="240.959991" y2="2012.959961" stroke="red" stroke-width="6.660000" />
</svg>
