<?xml version="1.0" encoding="UTF-8" standalone="no"?>
<svg width="500" height="500" viewBox="0 0 2074.000000 2074.000000" xmlns="http://www.w3.org/2000/svg">
<rect x="19.000000" y="19.000000" width="2036.000000" height="2036.000000" fill="black" />
<circle cx="1622.959961" cy="200.959991" r="19.980000" fill="red">
  <title>Tokyo</title>
</circle><line x1="1656.959961" y1="44.959999" x2="1622.959961" y2="200.959991" stroke="red" stroke-width="6.660000" />
<circle cx="1998.959961" cy="224.959991" r="19.980000" fill="red">
  <title>Dhaka</title>
</circle><line x1="1622.959961" y1="200.959991" x2="1998.959961" y2="224.959991" stroke="red" stroke-width="6.660000" />
<circle cx="1829.959961" cy="1170.959961" r="19.980000" fill="red">
  <title>Mumbai</title>
</circle><line x1="1998.959961" y1="224.959991" x2="1829.959961" y2="1170.959961" stroke="red" stroke-width="6.660000" />
<circle cx="1716.959961" cy="1155.959961" r="19.980000" fill="red">
  <title>Buenos Aires</title>
</circle><line x1="1829.959961" y1="1170.959961" x2="1716.959961" y2="1155.959961" stroke="red" stroke-width="6.660000" />
<circle cx="851.960022" cy="1307.959961" r="19.980000" fill="red">
  <title>New York</title>
</circle><line x1="1716.959961" y1="1155.959961" x2="851.960022" y2="1307.959961" stroke="red" stroke-width="6.660000" />
<circle cx="696.960022" cy="1492.959961" r="19.980000" fill="red">
  <title>Shanghai</title>
</circle><line x1="851.960022" y1="1307.959961" x2="696.960022" y2="1492.959961" stroke="red" stroke-width="6.660000" />
<circle cx="97.959999" cy="1405.959961" r="19.980000" fill="red">
  <title>Cairo</title>
</circle><line x1="696.960022" y1="1492.959961" x2="97.959999" y2="1405.959961" stroke="red" stroke-width="6.660000" />
<circle cx="727.960022" cy="1067.959961" r="19.980000" fill="red">
  <title>Istanbul</title>
</circle><line x1="97.959999" y1="1405.959961" x2="727.960022" y2="1067.959961" stroke="red" stroke-width="6.660000" />
<circle cx="727.960022" cy="739.960022" r="19.980000" fill="red">
  <title>Beijing</title>
</circle><line x1="727.960022" y1="1067.959961" x2="727.960022" y2="739.960022" stroke="red" stroke-width="6.660000" />
<circle cx="902.960022" cy="456.959991" r="19.980000" fill="red">
  <title>Osaka</title>
</circle><line x1="727.960022" y1="739.960022" x2="902.960022" y2="456.959991" stroke="red" stroke-width="6.660000" />
<circle cx="1117.959961" cy="362.959991" r="19.980000" fill="red">
  <title>Mexico City</title>
</circle><line x1="902.960022" y1="456.959991" x2="1117.959961" y2="362.959991" stroke="red" stroke-width="6.660000" />
<circle cx="1074.959961" cy="132.959991" r="19.980000" fill="red">
  <title>Karachi</title>
</circle><line x1="1117.959961" y1="362.959991" x2="1074.959961" y2="132.959991" stroke="red" stroke-width="6.660000" />
<circle cx="1404.959961" cy="223.959991" r="19.980000" fill="red">
  <title>Delhi</title>
</circle><line x1="1074.959961" y1="132.959991" x2="1404.959961" y2="223.959991" stroke="red" stroke-width="6.660000" />
<circle cx="1550.959961" cy="59.959999" r="19.980000" fill="red">
  <title>São Paulo</title>
</circle><line x1="1404.959961" y1="223.959991" x2="1550.959961" y2="59.959999" stroke="red" stroke-width="6.660000" />
<circle cx="1656.959961" cy="44.959999" r="19.980000" fill="red">
  <title>Chongqing</title>
</circle><line x1="1550.959961" y1="59.959999" x2="1656.959961" y2="44.959999" stroke="red" stroke-width="6.660000" />
</svg>
