<?xml version="1.0" encoding="UTF-8" standalone="no"?>
<svg width="500" height="500" viewBox="0 0 2074.000000 2074.000000" xmlns="http://www.w3.org/2000/svg">
<rect x="19.000000" y="19.000000" width="2036.000000" height="2036.000000" fill="black" />
<circle cx="1983.959961" cy="1526.959961" r="19.980000" fill="red">
  <title>Tokyo</title>
</circle><line x1="1259.959961" y1="1971.959961" x2="1983.959961" y2="1526.959961" stroke="red" stroke-width="6.660000" />
<circle cx="1541.959961" cy="1232.959961" r="19.980000" fill="red">
  <title>Shanghai</title>
</circle><line x1="1983.959961" y1="1526.959961" x2="1541.959961" y2="1232.959961" stroke="red" stroke-width="6.660000" />
<circle cx="1080.959961" cy="370.959991" r="19.980000" fill="red">
  <title>Delhi</title>
</circle><line x1="1541.959961" y1="1232.959961" x2="1080.959961" y2="370.959991" stroke="red" stroke-width="6.660000" />
<circle cx="1607.959961" cy="1607.959961" r="19.980000" fill="red">
  <title>Mexico City</title>
</circle><line x1="1080.959961" y1="370.959991" x2="1607.959961" y2="1607.959961" stroke="red" stroke-width="6.660000" />
<circle cx="1259.959961" cy="1971.959961" r="19.980000" fill="red">
  <title>São Paulo</title>
</circle><line x1="1607.959961" y1="1607.959961" x2="1259.959961" y2="1971.959961" stroke="red" stroke-width="6.660000" />
</svg>
