<?xml version="1.0" encoding="UTF-8" standalone="no"?>
<svg width="500" height="500" viewBox="0 0 2074.000000 2074.000000" xmlns="http://www.w3.org/2000/svg">
<rect x="19.000000" y="19.000000" width="2036.000000" height="2036.000000" fill="black" />
<circle cx="372.959991" cy="1709.959961" r="19.980000" fill="red">
  <title>Tokyo</title>
</circle><line x1="1067.959961" y1="1921.959961" x2="372.959991" y2="1709.959961" stroke="red" stroke-width="6.660000" />
<circle cx="974.960022" cy="1798.959961" r="19.980000" fill="red">
  <title>Delhi</title>
</circle><line x1="372.959991" y1="1709.959961" x2="974.960022" y2="1798.959961" stroke="red" stroke-width="6.660000" />
<circle cx="1333.959961" cy="1771.959961" r="19.980000" fill="red">
  <title>Shanghai</title>
</circle><line x1="974.960022" y1="1798.959961" x2="1333.959961" y2="1771.959961" stroke="red" stroke-width="6.660000" />
<circle cx="1676.959961" cy="120.959999" r="19.980000" fill="red">
  <title>Mexico City</title>
</circle><line x1="1333.959961" y1="1771.959961" x2="1676.959961" y2="120.959999" stroke="red" stroke-width="6.660000" />
<circle cx="1670.959961" cy="1654.959961" r="19.980000" fill="red">
  <title>Cairo</title>
</circle><line x1="1676.959961" y1="120.959999" x2="1670.959961" y2="1654.959961" stroke="red" stroke-width="6.660000" />
<circle cx="1067.959961" cy="1921.959961" r="19.980000" fill="red">
  <title>São Paulo</title>
</circle><line x1="1670.959961" y1="1654.959961" x2="1067.959961" y2="1921.959961" stroke="red" stroke-width="6.660000" />
</svg>
