<?xml version="1.0" encoding="UTF-8" standalone="no"?>
<svg width="500" height="500" viewBox="0 0 2074.000000 2074.000000" xmlns="http://www.w3.org/2000/svg">
<rect x="19.000000" y="19.000000" width="2036.000000" height="2036.000000" fill="black" />
<circle cx="936.960022" cy="902.960022" r="19.980000" fill="red">
  <title>Tokyo</title>
</circle><line x1="1995.959961" y1="1160.959961" x2="936.960022" y2="902.960022" stroke="red" stroke-width="6.660000" />
<circle cx="848.960022" cy="1253.959961" r="19.980000" fill="red">
  <title>Shanghai</title>
</circle><line x1="936.960022" y1="902.960022" x2="848.960022" y2="1253.959961" stroke="red" stroke-width="6.660000" />
<circle cx="785.960022" cy="1476.959961" r="19.980000" fill="red">
  <title>São Paulo</title>
</circle><line x1="848.960022" y1="1253.959961" x2="785.960022" y2="1476.959961" stroke="red" stroke-width="6.660000" />
<circle cx="395.959991" cy="1843.959961" r="19.980000" fill="red">
  <title>New York</title>
</circle><line x1="785.960022" y1="1476.959961" x2="395.959991" y2="1843.959961" stroke="red" stroke-width="6.660000" />
<circle cx="140.959991" cy="1493.959961" r="19.980000" fill="red">
  <title>Cairo</title>
</circle><line x1="395.959991" y1="1843.959961" x2="140.959991" y2="1493.959961" stroke="red" stroke-width="6.660000" />
<circle cx="146.959991" cy="856.960022" r="19.980000" fill="red">
  <title>Mexico City</title>
</circle><line x1="140.959991" y1="1493.959961" x2="146.959991" y2="856.960022" stroke="red" stroke-width="6.660000" />
<circle cx="88.959999" cy="655.960022" r="19.980000" fill="red">
  <title>Delhi</title>
</circle><line x1="146.959991" y1="856.960022" x2="88.959999" y2="655.960022" stroke="red" stroke-width="6.660000" />
<circle cx="678.960022" cy="480.959991" r="19.980000" fill="red">
  <title>Beijing</title>
</circle><line x1="88.959999" y1="655.960022" x2="678.960022" y2="480.959991" stroke="red" stroke-width="6.660000" />
<circle cx="1247.959961" cy="163.959991" r="19.980000" fill="red">
  <title>Mumbai</title>
</circle><line x1="678.960022" y1="480.959991" x2="1247.959961" y2="163.959991" stroke="red" stroke-width="6.660000" />
<circle cx="1640.959961" cy="689.960022" r="19.980000" fill="red">
  <title>Osaka</title>
</circle><line x1="1247.959961" y1="163.959991" x2="1640.959961" y2="689.960022" stroke="red" stroke-width="6.660000" />
<circle cx="1995.959961" cy="1160.959961" r="19.980000" fill="red">
  <title>Dhaka</title>
</circle><line x1="1640.959961" y1="689.960022" x2="1995.959961" y2="1160.959961" stroke="red" stroke-width="6.660000" />
</svg>
