<?xml version="1.0" encoding="UTF-8" standalone="no"?>
<svg width="500" height="500" viewBox="0 0 2074.000000 2074.000000" xmlns="http://www.w3.org/2000/svg">
<rect x="19.000000" y="19.000000" width="2036.000000" height="2036.000000" fill="black" />
<circle cx="1027.959961" cy="1237.959961" r="19.980000" fill="red">
  <title>Tokyo</title>
</circle><line x1="1034.959961" y1="943.960022" x2="1027.959961" y2="1237.959961" stroke="red" stroke-width="6.660000" />
<circle cx="672.960022" cy="1767.959961" r="19.980000" fill="red">
  <title>New York</title>
</circle><line x1="1027.959961" y1="1237.959961" x2="672.960022" y2="1767.959961" stroke="red" stroke-width="6.660000" />
<circle cx="173.959991" cy="1587.959961" r="19.980000" fill="red">
  <title>Buenos Aires</title>
</circle><line x1="672.960022" y1="1767.959961" x2="173.959991" y2="1587.959961" stroke="red" stroke-width="6.660000" />
<circle cx="116.959999" cy="1856.959961" r="19.980000" fill="red">
  <title>Chongqing</title>
</circle><line x1="173.959991" y1="1587.959961" x2="116.959999" y2="1856.959961" stroke="red" stroke-width="6.660000" />
<circle cx="301.959991" cy="1883.959961" r="19.980000" fill="red">
  <title>Shanghai</title>
</circle><line x1="116.959999" y1="1856.959961" x2="301.959991" y2="1883.959961" stroke="red" stroke-width="6.660000" />
<circle cx="479.959991" cy="1888.959961" r="19.980000" fill="red">
  <title>Dhaka</title>
</circle><line x1="301.959991" y1="1883.959961" x2="479.959991" y2="1888.959961" stroke="red" stroke-width="6.660000" />
<circle cx="788.960022" cy="1776.959961" r="19.980000" fill="red">
  <title>Rio de Janeiro</title>
</circle><line x1="479.959991" y1="1888.959961" x2="788.960022" y2="1776.959961" stroke="red" stroke-width="6.660000" />
<circle cx="1822.959961" cy="1965.959961" r="19.980000" fill="red">
  <title>Osaka</title>
</circle><line x1="788.960022" y1="1776.959961" x2="1822.959961" y2="1965.959961" stroke="red" stroke-width="6.660000" />
<circle cx="1892.959961" cy="1835.959961" r="19.980000" fill="red">
  <title>Istanbul</title>
</circle><line x1="1822.959961" y1="1965.959961" x2="1892.959961" y2="1835.959961" stroke="red" stroke-width="6.660000" />
<circle cx="1988.959961" cy="1578.959961" r="19.980000" fill="red">
  <title>Cairo</title>
</circle><line x1="1892.959961" y1="1835.959961" x2="1988.959961" y2="1578.959961" stroke="red" stroke-width="6.660000" />
<circle cx="2017.959961" cy="1315.959961" r="19.980000" fill="red">
  <title>Mumbai</title>
</circle><line x1="1988.959961" y1="1578.959961" x2="2017.959961" y2="1315.959961" stroke="red" stroke-width="6.660000" />
<circle cx="1825.959961" cy="1296.959961" r="19.980000" fill="red">
  <title>Lagos</title>
</circle><line x1="2017.959961" y1="1315.959961" x2="1825.959961" y2="1296.959961" stroke="red" stroke-width="6.660000" />
<circle cx="2032.959961" cy="888.960022" r="19.980000" fill="red">
  <title>Beijing</title>
</circle><line x1="1825.959961" y1="1296.959961" x2="2032.959961" y2="888.960022" stroke="red" stroke-width="6.660000" />
<circle cx="1988.959961" cy="287.959991" r="19.980000" fill="red">
  <title>São Paulo</title>
</circle><line x1="2032.959961" y1="888.960022" x2="1988.959961" y2="287.959991" stroke="red" stroke-width="6.660000" />
<circle cx="1688.959961" cy="882.960022" r="19.980000" fill="red">
  <title>Kolkata</title>
</circle><line x1="1988.959961" y1="287.959991" x2="1688.959961" y2="882.960022" stroke="red" stroke-width="6.660000" />
<circle cx="1582.959961" cy="982.960022" r="19.980000" fill="red">
  <title>Mexico City</title>
</circle><line x1="1688.959961" y1="882.960022" x2="1582.959961" y2="982.960022" stroke="red" stroke-width="6.660000" />
<circle cx="1292.959961" cy="982.960022" r="19.980000" fill="red">
  <title>Delhi</title>
</circle><line x1="1582.959961" y1="982.960022" x2="1292.959961" y2="982.960022" stroke="red" stroke-width="6.660000" />
<circle cx="678.960022" cy="59.959999" r="19.980000" fill="red">
  <title>Karachi</title>
</circle><line x1="1292.959961" y1="982.960022" x2="678.960022" y2="59.959999" stroke="red" stroke-width="6.660000" />
<circle cx="1034.959961" cy="943.960022" r="19.980000" fill="red">
  <title>Manila</title>
</circle><line x1="678.960022" y1="59.959999" x2="1034.959961" y2="943.960022" stroke="red" stroke-width="6.660000" />
</svg>
