<?xml version="1.0" encoding="UTF-8" standalone="no"?>
<svg width="500" height="500" viewBox="0 0 2074.000000 2074.000000" xmlns="http://www.w3.org/2000/svg">
<rect x="19.000000" y="19.000000" width="2036.000000" height="2036.000000" fill="black" />
<circle cx="1873.959961" cy="269.959991" r="19.980000" fill="red">
  <title>Tokyo</title>
</circle><line x1="1592.959961" y1="821.960022" x2="1873.959961" y2="269.959991" stroke="red" stroke-width="6.660000" />
<circle cx="1354.959961" cy="613.960022" r="19.980000" fill="red">
  <title>Delhi</title>
</circle><line x1="1873.959961" y1="269.959991" x2="1354.959961" y2="613.960022" stroke="red" stroke-width="6.660000" />
<circle cx="907.960022" cy="580.960022" r="19.980000" fill="red">
  <title>Cairo</title>
</circle><line x1="1354.959961" y1="613.960022" x2="907.960022" y2="580.960022" stroke="red" stroke-width="6.660000" />
<circle cx="1191.959961" cy="1682.959961" r="19.980000" fill="red">
  <title>Mexico City</title>
</circle><line x1="907.960022" y1="580.960022" x2="1191.959961" y2="1682.959961" stroke="red" stroke-width="6.660000" />
<circle cx="1378.959961" cy="1719.959961" r="19.980000" fill="red">
  <title>São Paulo</title>
</circle><line x1="1191.959961" y1="1682.959961" x2="1378.959961" y2="1719.959961" stroke="red" stroke-width="6.660000" />
<circle cx="1592.959961" cy="821.960022" r="19.980000" fill="red">
  <title>Shanghai</title>
</circle><line x1="1378.959961" y1="1719.959961" x2="1592.959961" y2="821.960022" stroke="red" stroke-width="6.660000" />
</svg>
