<?xml version="1.0" encoding="UTF-8" standalone="no"?>
<svg width="500" height="500" viewBox="0 0 2074.000000 2074.000000" xmlns="http://www.w3.org/2000/svg">
<rect x="19.000000" y="19.000000" width="2036.000000" height="2036.000000" fill="black" />
<circle cx="1804.959961" cy="241.959991" r="19.980000" fill="red">
  <title>Tokyo</title>
</circle><line x1="1053.959961" y1="427.959991" x2="1804.959961" y2="241.959991" stroke="red" stroke-width="6.660000" />
<circle cx="1905.959961" cy="520.960022" r="19.980000" fill="red">
  <title>Osaka</title>
</circle><line x1="1804.959961" y1="241.959991" x2="1905.959961" y2="520.960022" stroke="red" stroke-width="6.660000" />
<circle cx="1916.959961" cy="1520.959961" r="19.980000" fill="red">
  <title>Delhi</title>
</circle><line x1="1905.959961" y1="520.960022" x2="1916.959961" y2="1520.959961" stroke="red" stroke-width="6.660000" />
<circle cx="1249.959961" cy="1007.960022" r="19.980000" fill="red">
  <title>Beijing</title>
</circle><line x1="1916.959961" y1="1520.959961" x2="1249.959961" y2="1007.960022" stroke="red" stroke-width="6.660000" />
<circle cx="838.960022" cy="1715.959961" r="19.980000" fill="red">
  <title>Mexico City</title>
</circle><line x1="1249.959961" y1="1007.960022" x2="838.960022" y2="1715.959961" stroke="red" stroke-width="6.660000" />
<circle cx="180.959991" cy="1444.959961" r="19.980000" fill="red">
  <title>Cairo</title>
</circle><line x1="838.960022" y1="1715.959961" x2="180.959991" y2="1444.959961" stroke="red" stroke-width="6.660000" />
<circle cx="628.960022" cy="1055.959961" r="19.980000" fill="red">
  <title>Dhaka</title>
</circle><line x1="180.959991" y1="1444.959961" x2="628.960022" y2="1055.959961" stroke="red" stroke-width="6.660000" />
<circle cx="834.960022" cy="808.960022" r="19.980000" fill="red">
  <title>Mumbai</title>
</circle><line x1="628.960022" y1="1055.959961" x2="834.960022" y2="808.960022" stroke="red" stroke-width="6.660000" />
<circle cx="548.960022" cy="676.960022" r="19.980000" fill="red">
  <title>Shanghai</title>
</circle><line x1="834.960022" y1="808.960022" x2="548.960022" y2="676.960022" stroke="red" stroke-width="6.660000" />
<circle cx="260.959991" cy="146.959991" r="19.980000" fill="red">
  <title>Karachi</title>
</circle><line x1="548.960022" y1="676.960022" x2="260.959991" y2="146.959991" stroke="red" stroke-width="6.660000" />
<circle cx="930.960022" cy="486.959991" r="19.980000" fill="red">
  <title>São Paulo</title>
</circle><line x1="260.959991" y1="146.959991" x2="930.960022" y2="486.959991" stroke="red" stroke-width="6.660000" />
<circle cx="1053.959961" cy="427.959991" r="19.980000" fill="red">
  <title>New York</title>
</circle><line x1="930.960022" y1="486.959991" x2="1053.959961" y2="427.959991" stroke="red" stroke-width="6.660000" />
</svg>
