<?xml version="1.0" encoding="UTF-8" standalone="no"?>
<svg width="500" height="500" viewBox="0 0 2074.000000 2074.000000" xmlns="http://www.w3.org/2000/svg">
<rect x="19.000000" y="19.000000" width="2036.000000" height="2036.000000" fill="black" />
<circle cx="422.959991" cy="1754.959961" r="19.980000" fill="red">
  <title>Tokyo</title>
</circle><line x1="148.959991" y1="1714.959961" x2="422.959991" y2="1754.959961" stroke="red" stroke-width="6.660000" />
<circle cx="1313.959961" cy="1256.959961" r="19.980000" fill="red">
  <title>Shanghai</title>
</circle><line x1="422.959991" y1="1754.959961" x2="1313.959961" y2="1256.959961" stroke="red" stroke-width="6.660000" />
<circle cx="1010.960022" cy="927.960022" r="19.980000" fill="red">
  <title>Dhaka</title>
</circle><line x1="1313.959961" y1="1256.959961" x2="1010.960022" y2="927.960022" stroke="red" stroke-width="6.660000" />
<circle cx="721.960022" cy="98.959999" r="19.980000" fill="red">
  <title>Osaka</title>
</circle><line x1="1010.960022" y1="927.960022" x2="721.960022" y2="98.959999" stroke="red" stroke-width="6.660000" />
<circle cx="1348.959961" cy="643.960022" r="19.980000" fill="red">
  <title>Mumbai</title>
</circle><line x1="721.960022" y1="98.959999" x2="1348.959961" y2="643.960022" stroke="red" stroke-width="6.660000" />
<circle cx="1973.959961" cy="93.959999" r="19.980000" fill="red">
  <title>Karachi</title>
</circle><line x1="1348.959961" y1="643.960022" x2="1973.959961" y2="93.959999" stroke="red" stroke-width="6.660000" />
<circle cx="2021.959961" cy="675.960022" r="19.980000" fill="red">
  <title>Delhi</title>
</circle><line x1="1973.959961" y1="93.959999" x2="2021.959961" y2="675.960022" stroke="red" stroke-width="6.660000" />
<circle cx="1879.959961" cy="744.960022" r="19.980000" fill="red">
  <title>Mexico City</title>
</circle><line x1="2021.959961" y1="675.960022" x2="1879.959961" y2="744.960022" stroke="red" stroke-width="6.660000" />
<circle cx="1952.959961" cy="1094.959961" r="19.980000" fill="red">
  <title>New York</title>
</circle><line x1="1879.959961" y1="744.960022" x2="1952.959961" y2="1094.959961" stroke="red" stroke-width="6.660000" />
<circle cx="1876.959961" cy="1837.959961" r="19.980000" fill="red">
  <title>São Paulo</title>
</circle><line x1="1952.959961" y1="1094.959961" x2="1876.959961" y2="1837.959961" stroke="red" stroke-width="6.660000" />
<circle cx="1519.959961" cy="1707.959961" r="19.980000" fill="red">
  <title>Beijing</title>
</circle><line x1="1876.959961" y1="1837.959961" x2="1519.959961" y2="1707.959961" stroke="red" stroke-width="6.660000" />
<circle cx="1225.959961" cy="1858.959961" r="19.980000" fill="red">
  <title>Buenos Aires</title>
</circle><line x1="1519.959961" y1="1707.959961" x2="1225.959961" y2="1858.959961" stroke="red" stroke-width="6.660000" />
<circle cx="148.959991" cy="1714.959961" r="19.980000" fill="red">
  <title>Cairo</title>
</circle><line x1="1225.959961" y1="1858.959961" x2="148.959991" y2="1714.959961" stroke="red" stroke-width="6.660000" />
</svg>
