<?xml version="1.0" encoding="UTF-8" standalone="no"?>
<svg width="500" height="500" viewBox="0 0 2074.000000 2074.000000" xmlns="http://www.w3.org/2000/svg">
<rect x="19.000000" y="19.000000" width="2036.000000" height="2036.000000" fill="black" />
<circle cx="235.959991" cy="1017.960022" r="19.980000" fill="red">
  <title>Tokyo</title>
</circle><line x1="349.959991" y1="448.959991" x2="235.959991" y2="1017.960022" stroke="red" stroke-width="6.660000" />
<circle cx="199.959991" cy="1601.959961" r="19.980000" fill="red">
  <title>Shanghai</title>
</circle><line x1="235.959991" y1="1017.960022" x2="199.959991" y2="1601.959961" stroke="red" stroke-width="6.660000" />
<circle cx="798.960022" cy="1799.959961" r="19.980000" fill="red">
  <title>Cairo</title>
</circle><line x1="199.959991" y1="1601.959961" x2="798.960022" y2="1799.959961" stroke="red" stroke-width="6.660000" />
<circle cx="1517.959961" cy="1883.959961" r="19.980000" fill="red">
  <title>Mexico City</title>
</circle><line x1="798.960022" y1="1799.959961" x2="1517.959961" y2="1883.959961" stroke="red" stroke-width="6.660000" />
<circle cx="1645.959961" cy="1348.959961" r="19.980000" fill="red">
  <title>São Paulo</title>
</circle><line x1="1517.959961" y1="1883.959961" x2="1645.959961" y2="1348.959961" stroke="red" stroke-width="6.660000" />
<circle cx="1787.959961" cy="495.959991" r="19.980000" fill="red">
  <title>Beijing</title>
</circle><line x1="1645.959961" y1="1348.959961" x2="1787.959961" y2="495.959991" stroke="red" stroke-width="6.660000" />
<circle cx="591.960022" cy="818.960022" r="19.980000" fill="red">
  <title>Dhaka</title>
</circle><line x1="1787.959961" y1="495.959991" x2="591.960022" y2="818.960022" stroke="red" stroke-width="6.660000" />
<circle cx="563.960022" cy="757.960022" r="19.980000" fill="red">
  <title>Delhi</title>
</circle><line x1="591.960022" y1="818.960022" x2="563.960022" y2="757.960022" stroke="red" stroke-width="6.660000" />
<circle cx="349.959991" cy="448.959991" r="19.980000" fill="red">
  <title>Mumbai</title>
</circle><line x1="563.960022" y1="757.960022" x2="349.959991" y2="448.959991" stroke="red" stroke-width="6.660000" />
</svg>
