<?xml version="1.0" encoding="UTF-8" standalone="no"?>
<svg width="500" height="500" viewBox="0 0 2074.000000 2074.000000" xmlns="http://www.w3.org/2000/svg">
<rect x="19.000000" y="19.000000" width="2036.000000" height="2036.000000" fill="black" />
<circle cx="177.959991" cy="1849.959961" r="19.980000" fill="red">
  <title>Tokyo</title>
</circle><line x1="250.959991" y1="874.960022" x2="177.959991" y2="1849.959961" stroke="red" stroke-width="6.660000" />
<circle cx="1398.959961" cy="1404.959961" r="19.980000" fill="red">
  <title>New York</title>
</circle><line x1="177.959991" y1="1849.959961" x2="1398.959961" y2="1404.959961" stroke="red" stroke-width="6.660000" />
<circle cx="2007.959961" cy="1666.959961" r="19.980000" fill="red">
  <title>Mexico City</title>
</circle><line x1="1398.959961" y1="1404.959961" x2="2007.959961" y2="1666.959961" stroke="red" stroke-width="6.660000" />
<circle cx="1773.959961" cy="1188.959961" r="19.980000" fill="red">
  <title>Delhi</title>
</circle><line x1="2007.959961" y1="1666.959961" x2="1773.959961" y2="1188.959961" stroke="red" stroke-width="6.660000" />
<circle cx="1862.959961" cy="1027.959961" r="19.980000" fill="red">
  <title>Osaka</title>
</circle><line x1="1773.959961" y1="1188.959961" x2="1862.959961" y2="1027.959961" stroke="red" stroke-width="6.660000" />
<circle cx="1712.959961" cy="863.960022" r="19.980000" fill="red">
  <title>São Paulo</title>
</circle><line x1="1862.959961" y1="1027.959961" x2="1712.959961" y2="863.960022" stroke="red" stroke-width="6.660000" />
<circle cx="2034.959961" cy="216.959991" r="19.980000" fill="red">
  <title>Dhaka</title>
</circle><line x1="1712.959961" y1="863.960022" x2="2034.959961" y2="216.959991" stroke="red" stroke-width="6.660000" />
<circle cx="1474.959961" cy="313.959991" r="19.980000" fill="red">
  <title>Karachi</title>
</circle><line x1="2034.959961" y1="216.959991" x2="1474.959961" y2="313.959991" stroke="red" stroke-width="6.660000" />
<circle cx="1000.960022" cy="282.959991" r="19.980000" fill="red">
  <title>Beijing</title>
</circle><line x1="1474.959961" y1="313.959991" x2="1000.960022" y2="282.959991" stroke="red" stroke-width="6.660000" />
<circle cx="1074.959961" cy="399.959991" r="19.980000" fill="red">
  <title>Buenos Aires</title>
</circle><line x1="1000.960022" y1="282.959991" x2="1074.959961" y2="399.959991" stroke="red" stroke-width="6.660000" />
<circle cx="1311.959961" cy="812.960022" r="19.980000" fill="red">
  <title>Cairo</title>
</circle><line x1="1074.959961" y1="399.959991" x2="1311.959961" y2="812.960022" stroke="red" stroke-width="6.660000" />
<circle cx="903.960022" cy="822.960022" r="19.980000" fill="red">
  <title>Shanghai</title>
</circle><line x1="1311.959961" y1="812.960022" x2="903.960022" y2="822.960022" stroke="red" stroke-width="6.660000" />
<circle cx="487.959991" cy="811.960022" r="19.980000" fill="red">
  <title>Mumbai</title>
</circle><line x1="903.960022" y1="822.960022" x2="487.959991" y2="811.960022" stroke="red" stroke-width="6.660000" />
<circle cx="250.959991" cy="874.960022" r="19.980000" fill="red">
  <title>Chongqing</title>
</circle><line x1="487.959991" y1="811.960022" x2="250.959991" y2="874.960022" stroke="red" stroke-width="6.660000" />
</svg>
