<?xml version="1.0" encoding="UTF-8" standalone="no"?>
<svg width="500" height="500" viewBox="0 0 2074.000000 2074.000000" xmlns="http://www.w3.org/2000/svg">
<rect x="19.000000" y="19.000000" width="2036.000000" height="2036.000000" fill="black" />
<circle cx="581.960022" cy="1691.959961" r="19.980000" fill="red">
  <title>Tokyo</title>
</circle><line x1="52.959999" y1="1022.960022" x2="581.960022" y2="1691.959961" stroke="red" stroke-width="6.660000" />
<circle cx="439.959991" cy="1927.959961" r="19.980000" fill="red">
  <title>Mumbai</title>
</circle><line x1="581.960022" y1="1691.959961" x2="439.959991" y2="1927.959961" stroke="red" stroke-width="6.660000" />
<circle cx="926.960022" cy="1611.959961" r="19.980000" fill="red">
  <title>Delhi</title>
</circle><line x1="439.959991" y1="1927.959961" x2="926.960022" y2="1611.959961" stroke="red" stroke-width="6.660000" />
<circle cx="1189.959961" cy="1696.959961" r="19.980000" fill="red">
  <title>Cairo</title>
</circle><line x1="926.960022" y1="1611.959961" x2="1189.959961" y2="1696.959961" stroke="red" stroke-width="6.660000" />
<circle cx="867.960022" cy="1049.959961" r="19.980000" fill="red">
  <title>Shanghai</title>
</circle><line x1="1189.959961" y1="1696.959961" x2="867.960022" y2="1049.959961" stroke="red" stroke-width="6.660000" />
<circle cx="779.960022" cy="689.960022" r="19.980000" fill="red">
  <title>São Paulo</title>
</circle><line x1="867.960022" y1="1049.959961" x2="779.960022" y2="689.960022" stroke="red" stroke-width="6.660000" />
<circle cx="353.959991" cy="555.960022" r="19.980000" fill="red">
  <title>Beijing</title>
</circle><line x1="779.960022" y1="689.960022" x2="353.959991" y2="555.960022" stroke="red" stroke-width="6.660000" />
<circle cx="52.959999" cy="1022.960022" r="19.980000" fill="red">
  <title>Mexico City</title>
</circle><line x1="353.959991" y1="555.960022" x2="52.959999" y2="1022.960022" stroke="red" stroke-width="6.660000" />
</svg>
