<?xml version="1.0" encoding="UTF-8" standalone="no"?>
<svg width="500" height="500" viewBox="0 0 2074.000000 2074.000000" xmlns="http://www.w3.org/2000/svg">
<rect x="19.000000" y="19.000000" width="2036.000000" height="2036.000000" fill="black" />
<circle cx="1901.959961" cy="566.960022" r="19.980000" fill="red">
  <title>Tokyo</title>
</circle><line x1="1443.959961" y1="199.959991" x2="1901.959961" y2="566.960022" stroke="red" stroke-width="6.660000" />
<circle cx="1463.959961" cy="701.960022" r="19.980000" fill="red">
  <title>Beijing</title>
</circle><line x1="1901.959961" y1="566.960022" x2="1463.959961" y2="701.960022" stroke="red" stroke-width="6.660000" />
<circle cx="1456.959961" cy="745.960022" r="19.980000" fill="red">
  <title>Istanbul</title>
</circle><line x1="1463.959961" y1="701.960022" x2="1456.959961" y2="745.960022" stroke="red" stroke-width="6.660000" />
<circle cx="1239.959961" cy="1037.959961" r="19.980000" fill="red">
  <title>São Paulo</title>
</circle><line x1="1456.959961" y1="745.960022" x2="1239.959961" y2="1037.959961" stroke="red" stroke-width="6.660000" />
<circle cx="1620.959961" cy="1116.959961" r="19.980000" fill="red">
  <title>Mexico City</title>
</circle><line x1="1239.959961" y1="1037.959961" x2="1620.959961" y2="1116.959961" stroke="red" stroke-width="6.660000" />
<circle cx="1501.959961" cy="1319.959961" r="19.980000" fill="red">
  <title>Kolkata</title>
</circle><line x1="1620.959961" y1="1116.959961" x2="1501.959961" y2="1319.959961" stroke="red" stroke-width="6.660000" />
<circle cx="1940.959961" cy="1883.959961" r="19.980000" fill="red">
  <title>Cairo</title>
</circle><line x1="1501.959961" y1="1319.959961" x2="1940.959961" y2="1883.959961" stroke="red" stroke-width="6.660000" />
<circle cx="1273.959961" cy="1953.959961" r="19.980000" fill="red">
  <title>Chongqing</title>
</circle><line x1="1940.959961" y1="1883.959961" x2="1273.959961" y2="1953.959961" stroke="red" stroke-width="6.660000" />
<circle cx="831.960022" cy="1796.959961" r="19.980000" fill="red">
  <title>Dhaka</title>
</circle><line x1="1273.959961" y1="1953.959961" x2="831.960022" y2="1796.959961" stroke="red" stroke-width="6.660000" />
<circle cx="77.959999" cy="1877.959961" r="19.980000" fill="red">
  <title>Buenos Aires</title>
</circle><line x1="831.960022" y1="1796.959961" x2="77.959999" y2="1877.959961" stroke="red" stroke-width="6.660000" />
<circle cx="78.959999" cy="1259.959961" r="19.980000" fill="red">
  <title>Karachi</title>
</circle><line x1="77.959999" y1="1877.959961" x2="78.959999" y2="1259.959961" stroke="red" stroke-width="6.660000" />
<circle cx="586.960022" cy="895.960022" r="19.980000" fill="red">
  <title>Mumbai</title>
</circle><line x1="78.959999" y1="1259.959961" x2="586.960022" y2="895.960022" stroke="red" stroke-width="6.660000" />
<circle cx="184.959991" cy="400.959991" r="19.980000" fill="red">
  <title>Delhi</title>
</circle><line x1="586.960022" y1="895.960022" x2="184.959991" y2="400.959991" stroke="red" stroke-width="6.660000" />
<circle cx="601.960022" cy="59.959999" r="19.980000" fill="red">
  <title>New York</title>
</circle><line x1="184.959991" y1="400.959991" x2="601.960022" y2="59.959999" stroke="red" stroke-width="6.660000" />
<circle cx="838.960022" cy="52.959999" r="19.980000" fill="red">
  <title>Shanghai</title>
</circle><line x1="601.960022" y1="59.959999" x2="838.960022" y2="52.959999" stroke="red" stroke-width="6.660000" />
<circle cx="1443.959961" cy="199.959991" r="19.980000" fill="red">
  <title>Osaka</title>
</circle><line x1="838.960022" y1="52.959999" x2="1443.959961" y2="199.959991" stroke="red" stroke-width="6.660000" />
</svg>
