<?xml version="1.0" encoding="UTF-8" standalone="no"?>
<svg width="500" height="500" viewBox="0 0 2074.000000 2074.000000" xmlns="http://www.w3.org/2000/svg">
<rect x="19.000000" y="19.000000" width="2036.000000" height="2036.000000" fill="black" />
<circle cx="904.960022" cy="1781.959961" r="19.980000" fill="red">
  <title>Tokyo</title>
</circle><line x1="554.960022" y1="2005.959961" x2="904.960022" y2="1781.959961" stroke="red" stroke-width="6.660000" />
<circle cx="1320.959961" cy="1829.959961" r="19.980000" fill="red">
  <title>Mumbai</title>
</circle><line x1="904.960022" y1="1781.959961" x2="1320.959961" y2="1829.959961" stroke="red" stroke-width="6.660000" />
<circle cx="1485.959961" cy="994.960022" r="19.980000" fill="red">
  <title>Shanghai</title>
</circle><line x1="1320.959961" y1="1829.959961" x2="1485.959961" y2="994.960022" stroke="red" stroke-width="6.660000" />
<circle cx="1519.959961" cy="729.960022" r="19.980000" fill="red">
  <title>Dhaka</title>
</circle><line x1="1485.959961" y1="994.960022" x2="1519.959961" y2="729.960022" stroke="red" stroke-width="6.660000" />
<circle cx="1477.959961" cy="494.959991" r="19.980000" fill="red">
  <title>Mexico City</title>
</circle><line x1="1519.959961" y1="729.960022" x2="1477.959961" y2="494.959991" stroke="red" stroke-width="6.660000" />
<circle cx="934.960022" cy="531.960022" r="19.980000" fill="red">
  <title>Cairo</title>
</circle><line x1="1477.959961" y1="494.959991" x2="934.960022" y2="531.960022" stroke="red" stroke-width="6.660000" />
<circle cx="597.960022" cy="668.960022" r="19.980000" fill="red">
  <title>New York</title>
</circle><line x1="934.960022" y1="531.960022" x2="597.960022" y2="668.960022" stroke="red" stroke-width="6.660000" />
<circle cx="115.959999" cy="866.960022" r="19.980000" fill="red">
  <title>Karachi</title>
</circle><line x1="597.960022" y1="668.960022" x2="115.959999" y2="866.960022" stroke="red" stroke-width="6.660000" />
<circle cx="380.959991" cy="1332.959961" r="19.980000" fill="red">
  <title>Delhi</title>
</circle><line x1="115.959999" y1="866.960022" x2="380.959991" y2="1332.959961" stroke="red" stroke-width="6.660000" />
<circle cx="707.960022" cy="1397.959961" r="19.980000" fill="red">
  <title>Osaka</title>
</circle><line x1="380.959991" y1="1332.959961" x2="707.960022" y2="1397.959961" stroke="red" stroke-width="6.660000" />
<circle cx="619.960022" cy="1630.959961" r="19.980000" fill="red">
  <title>Beijing</title>
</circle><line x1="707.960022" y1="1397.959961" x2="619.960022" y2="1630.959961" stroke="red" stroke-width="6.660000" />
<circle cx="568.960022" cy="1759.959961" r="19.980000" fill="red">
  <title>São Paulo</title>
</circle><line x1="619.960022" y1="1630.959961" x2="568.960022" y2="1759.959961" stroke="red" stroke-width="6.660000" />
<circle cx="554.960022" cy="2005.959961" r="19.980000" fill="red">
  <title>Buenos Aires</title>
</circle><line x1="568.960022" y1="1759.959961" x2="554.960022" y2="2005.959961" stroke="red" stroke-width="6.660000" />
</svg>
