<?xml version="1.0" encoding="UTF-8" standalone="no"?>
<svg width="500" height="500" viewBox="0 0 2074.000000 2074.000000" xmlns="http://www.w3.org/2000/svg">
<rect x="19.000000" y="19.000000" width="2036.000000" height="2036.000000" fill="black" />
<circle cx="162.959991" cy="1892.959961" r="19.980000" fill="red">
  <title>Tokyo</title>
</circle><line x1="415.959991" y1="1040.959961" x2="162.959991" y2="1892.959961" stroke="red" stroke-width="6.660000" />
<circle cx="228.959991" cy="1990.959961" r="19.980000" fill="red">
  <title>Delhi</title>
</circle><line x1="162.959991" y1="1892.959961" x2="228.959991" y2="1990.959961" stroke="red" stroke-width="6.660000" />
<circle cx="780.960022" cy="2025.959961" r="19.980000" fill="red">
  <title>Beijing</title>
</circle><line x1="228.959991" y1="1990.959961" x2="780.960022" y2="2025.959961" stroke="red" stroke-width="6.660000" />
<circle cx="441.959991" cy="941.960022" r="19.980000" fill="red">
  <title>São Paulo</title>
</circle><line x1="780.960022" y1="2025.959961" x2="441.959991" y2="941.960022" stroke="red" stroke-width="6.660000" />
<circle cx="1377.959961" cy="311.959991" r="19.980000" fill="red">
  <title>Cairo</title>
</circle><line x1="441.959991" y1="941.960022" x2="1377.959961" y2="311.959991" stroke="red" stroke-width="6.660000" />
<circle cx="1525.959961" cy="349.959991" r="19.980000" fill="red">
  <title>Osaka</title>
</circle><line x1="1377.959961" y1="311.959991" x2="1525.959961" y2="349.959991" stroke="red" stroke-width="6.660000" />
<circle cx="1530.959961" cy="268.959991" r="19.980000" fill="red">
  <title>Mexico City</title>
</circle><line x1="1525.959961" y1="349.959991" x2="1530.959961" y2="268.959991" stroke="red" stroke-width="6.660000" />
<circle cx="1000.960022" cy="269.959991" r="19.980000" fill="red">
  <title>Dhaka</title>
</circle><line x1="1530.959961" y1="268.959991" x2="1000.960022" y2="269.959991" stroke="red" stroke-width="6.660000" />
<circle cx="224.959991" cy="844.960022" r="19.980000" fill="red">
  <title>Mumbai</title>
</circle><line x1="1000.960022" y1="269.959991" x2="224.959991" y2="844.960022" stroke="red" stroke-width="6.660000" />
<circle cx="415.959991" cy="1040.959961" r="19.980000" fill="red">
  <title>Shanghai</title>
</circle><line x1="224.959991" y1="844.960022" x2="415.959991" y2="1040.959961" stroke="red" stroke-width="6.660000" />
</svg>
