<?xml version="1.0" encoding="UTF-8" standalone="no"?>
<svg width="500" height="500" viewBox="0 0 2074.000000 2074.000000" xmlns="http://www.w3.org/2000/svg">
<rect x="19.000000" y="19.000000" width="2036.000000" height="2036.000000" fill="black" />
<circle cx="1394.959961" cy="610.960022" r="19.980000" fill="red">
  <title>Tokyo</title>
</circle><line x1="503.959991" y1="591.960022" x2="1394.959961" y2="610.960022" stroke="red" stroke-width="6.660000" />
<circle cx="842.960022" cy="1196.959961" r="19.980000" fill="red">
  <title>São Paulo</title>
</circle><line x1="1394.959961" y1="610.960022" x2="842.960022" y2="1196.959961" stroke="red" stroke-width="6.660000" />
<circle cx="150.959991" cy="583.960022" r="19.980000" fill="red">
  <title>Delhi</title>
</circle><line x1="842.960022" y1="1196.959961" x2="150.959991" y2="583.960022" stroke="red" stroke-width="6.660000" />
<circle cx="167.959991" cy="381.959991" r="19.980000" fill="red">
  <title>Shanghai</title>
</circle><line x1="150.959991" y1="583.960022" x2="167.959991" y2="381.959991" stroke="red" stroke-width="6.660000" />
<circle cx="503.959991" cy="591.960022" r="19.980000" fill="red">
  <title>Mexico City</title>
</circle><line x1="167.959991" y1="381.959991" x2="503.959991" y2="591.960022" stroke="red" stroke-width="6.660000" />
</svg>
