<?xml version="1.0" encoding="UTF-8" standalone="no"?>
<svg width="500" height="500" viewBox="0 0 2074.000000 2074.000000" xmlns="http://www.w3.org/2000/svg">
<rect x="19.000000" y="19.000000" width="2036.000000" height="2036.000000" fill="black" />
<circle cx="1572.959961" cy="126.959999" r="19.980000" fill="red">
  <title>Tokyo</title>
</circle><line x1="2018.959961" y1="1717.959961" x2="1572.959961" y2="126.959999" stroke="red" stroke-width="6.660000" />
<circle cx="781.960022" cy="268.959991" r="19.980000" fill="red">
  <title>Beijing</title>
</circle><line x1="1572.959961" y1="126.959999" x2="781.960022" y2="268.959991" stroke="red" stroke-width="6.660000" />
<circle cx="694.960022" cy="151.959991" r="19.980000" fill="red">
  <title>Mexico City</title>
</circle><line x1="781.960022" y1="268.959991" x2="694.960022" y2="151.959991" stroke="red" stroke-width="6.660000" />
<circle cx="238.959991" cy="600.960022" r="19.980000" fill="red">
  <title>Shanghai</title>
</circle><line x1="694.960022" y1="151.959991" x2="238.959991" y2="600.960022" stroke="red" stroke-width="6.660000" />
<circle cx="670.960022" cy="869.960022" r="19.980000" fill="red">
  <title>Cairo</title>
</circle><line x1="238.959991" y1="600.960022" x2="670.960022" y2="869.960022" stroke="red" stroke-width="6.660000" />
<circle cx="632.960022" cy="1086.959961" r="19.980000" fill="red">
  <title>Osaka</title>
</circle><line x1="670.960022" y1="869.960022" x2="632.960022" y2="1086.959961" stroke="red" stroke-width="6.660000" />
<circle cx="421.959991" cy="1162.959961" r="19.980000" fill="red">
  <title>Mumbai</title>
</circle><line x1="632.960022" y1="1086.959961" x2="421.959991" y2="1162.959961" stroke="red" stroke-width="6.660000" />
<circle cx="402.959991" cy="1681.959961" r="19.980000" fill="red">
  <title>São Paulo</title>
</circle><line x1="421.959991" y1="1162.959961" x2="402.959991" y2="1681.959961" stroke="red" stroke-width="6.660000" />
<circle cx="470.959991" cy="1704.959961" r="19.980000" fill="red">
  <title>Dhaka</title>
</circle><line x1="402.959991" y1="1681.959961" x2="470.959991" y2="1704.959961" stroke="red" stroke-width="6.660000" />
<circle cx="1069.959961" cy="1363.959961" r="19.980000" fill="red">
  <title>Delhi</title>
</circle><line x1="470.959991" y1="1704.959961" x2="1069.959961" y2="1363.959961" stroke="red" stroke-width="6.660000" />
<circle cx="2018.959961" cy="1717.959961" r="19.980000" fill="red">
  <title>New York</title>
</circle><line x1="1069.959961" y1="1363.959961" x2="2018.959961" y2="1717.959961" stroke="red" stroke-width="6.660000" />
</svg>
