<?xml version="1.0" encoding="UTF-8" standalone="no"?>
<svg width="500" height="500" viewBox="0 0 2074.000000 2074.000000" xmlns="http://www.w3.org/2000/svg">
<rect x="19.000000" y="19.000000" width="2036.000000" height="2036.000000" fill="black" />
<circle cx="357.959991" cy="1848.959961" r="19.980000" fill="red">
  <title>Tokyo</title>
</circle><line x1="86.959999" y1="1755.959961" x2="357.959991" y2="1848.959961" stroke="red" stroke-width="6.660000" />
<circle cx="938.960022" cy="1795.959961" r="19.980000" fill="red">
  <title>Osaka</title>
</circle><line x1="357.959991" y1="1848.959961" x2="938.960022" y2="1795.959961" stroke="red" stroke-width="6.660000" />
<circle cx="938.960022" cy="1702.959961" r="19.980000" fill="red">
  <title>Beijing</title>
</circle><line x1="938.960022" y1="1795.959961" x2="938.960022" y2="1702.959961" stroke="red" stroke-width="6.660000" />
<circle cx="957.960022" cy="1724.959961" r="19.980000" fill="red">
  <title>Karachi</title>
</circle><line x1="938.960022" y1="1702.959961" x2="957.960022" y2="1724.959961" stroke="red" stroke-width="6.660000" />
<circle cx="1071.959961" cy="1735.959961" r="19.980000" fill="red">
  <title>Dhaka</title>
</circle><line x1="957.960022" y1="1724.959961" x2="1071.959961" y2="1735.959961" stroke="red" stroke-width="6.660000" />
<circle cx="1325.959961" cy="2008.959961" r="19.980000" fill="red">
  <title>Delhi</title>
</circle><line x1="1071.959961" y1="1735.959961" x2="1325.959961" y2="2008.959961" stroke="red" stroke-width="6.660000" />
<circle cx="1797.959961" cy="1274.959961" r="19.980000" fill="red">
  <title>Istanbul</title>
</circle><line x1="1325.959961" y1="2008.959961" x2="1797.959961" y2="1274.959961" stroke="red" stroke-width="6.660000" />
<circle cx="922.960022" cy="1076.959961" r="19.980000" fill="red">
  <title>Buenos Aires</title>
</circle><line x1="1797.959961" y1="1274.959961" x2="922.960022" y2="1076.959961" stroke="red" stroke-width="6.660000" />
<circle cx="899.960022" cy="1129.959961" r="19.980000" fill="red">
  <title>Chongqing</title>
</circle><line x1="922.960022" y1="1076.959961" x2="899.960022" y2="1129.959961" stroke="red" stroke-width="6.660000" />
<circle cx="697.960022" cy="811.960022" r="19.980000" fill="red">
  <title>Shanghai</title>
</circle><line x1="899.960022" y1="1129.959961" x2="697.960022" y2="811.960022" stroke="red" stroke-width="6.660000" />
<circle cx="1004.960022" cy="404.959991" r="19.980000" fill="red">
  <title>Mumbai</title>
</circle><line x1="697.960022" y1="811.960022" x2="1004.960022" y2="404.959991" stroke="red" stroke-width="6.660000" />
<circle cx="1084.959961" cy="108.959999" r="19.980000" fill="red">
  <title>Manila</title>
</circle><line x1="1004.960022" y1="404.959991" x2="1084.959961" y2="108.959999" stroke="red" stroke-width="6.660000" />
<circle cx="821.960022" cy="117.959999" r="19.980000" fill="red">
  <title>Kolkata</title>
</circle><line x1="1084.959961" y1="108.959999" x2="821.960022" y2="117.959999" stroke="red" stroke-width="6.660000" />
<circle cx="467.959991" cy="708.960022" r="19.980000" fill="red">
  <title>São Paulo</title>
</circle><line x1="821.960022" y1="117.959999" x2="467.959991" y2="708.960022" stroke="red" stroke-width="6.660000" />
<circle cx="112.959999" cy="441.959991" r="19.980000" fill="red">
  <title>Mexico City</title>
</circle><line x1="467.959991" y1="708.960022" x2="112.959999" y2="441.959991" stroke="red" stroke-width="6.660000" />
<circle cx="223.959991" cy="707.960022" r="19.980000" fill="red">
  <title>Cairo</title>
</circle><line x1="112.959999" y1="441.959991" x2="223.959991" y2="707.960022" stroke="red" stroke-width="6.660000" />
<circle cx="87.959999" cy="1743.959961" r="19.980000" fill="red">
  <title>Lagos</title>
</circle><line x1="223.959991" y1="707.960022" x2="87.959999" y2="1743.959961" stroke="red" stroke-width="6.660000" />
<circle cx="86.959999" cy="1755.959961" r="19.980000" fill="red">
  <title>New York</title>
</circle><line x1="87.959999" y1="1743.959961" x2="86.959999" y2="1755.959961" stroke="red" stroke-width="6.660000" />
</svg>
