<?xml version="1.0" encoding="UTF-8" standalone="no"?>
<svg width="500" height="500" viewBox="0 0 2074.000000 2074.000000" xmlns="http://www.w3.org/2000/svg">
<rect x="19.000000" y="19.000000" width="2036.000000" height="2036.000000" fill="black" />
<circle cx="334.959991" cy="1554.959961" r="19.980000" fill="red">
  <title>Tokyo</title>
</circle><line x1="511.959991" y1="1673.959961" x2="334.959991" y2="1554.959961" stroke="red" stroke-width="6.660000" />
<circle cx="444.959991" cy="1171.959961" r="19.980000" fill="red">
  <title>Delhi</title>
</circle><line x1="334.959991" y1="1554.959961" x2="444.959991" y2="1171.959961" stroke="red" stroke-width="6.660000" />
<circle cx="734.960022" cy="1346.959961" r="19.980000" fill="red">
  <title>Lagos</title>
</circle><line x1="444.959991" y1="1171.959961" x2="734.960022" y2="1346.959961" stroke="red" stroke-width="6.660000" />
<circle cx="1002.960022" cy="1102.959961" r="19.980000" fill="red">
  <title>New York</title>
</circle><line x1="734.960022" y1="1346.959961" x2="1002.960022" y2="1102.959961" stroke="red" stroke-width="6.660000" />
<circle cx="776.960022" cy="406.959991" r="19.980000" fill="red">
  <title>Manila</title>
</circle><line x1="1002.960022" y1="1102.959961" x2="776.960022" y2="406.959991" stroke="red" stroke-width="6.660000" />
<circle cx="558.960022" cy="137.959991" r="19.980000" fill="red">
  <title>Chongqing</title>
</circle><line x1="776.960022" y1="406.959991" x2="558.960022" y2="137.959991" stroke="red" stroke-width="6.660000" />
<circle cx="609.960022" cy="143.959991" r="19.980000" fill="red">
  <title>Shanghai</title>
</circle><line x1="558.960022" y1="137.959991" x2="609.960022" y2="143.959991" stroke="red" stroke-width="6.660000" />
<circle cx="873.960022" cy="203.959991" r="19.980000" fill="red">
  <title>Cairo</title>
</circle><line x1="609.960022" y1="143.959991" x2="873.960022" y2="203.959991" stroke="red" stroke-width="6.660000" />
<circle cx="978.960022" cy="94.959999" r="19.980000" fill="red">
  <title>São Paulo</title>
</circle><line x1="873.960022" y1="203.959991" x2="978.960022" y2="94.959999" stroke="red" stroke-width="6.660000" />
<circle cx="1126.959961" cy="49.959999" r="19.980000" fill="red">
  <title>Beijing</title>
</circle><line x1="978.960022" y1="94.959999" x2="1126.959961" y2="49.959999" stroke="red" stroke-width="6.660000" />
<circle cx="1465.959961" cy="80.959999" r="19.980000" fill="red">
  <title>Mexico City</title>
</circle><line x1="1126.959961" y1="49.959999" x2="1465.959961" y2="80.959999" stroke="red" stroke-width="6.660000" />
<circle cx="1631.959961" cy="1056.959961" r="19.980000" fill="red">
  <title>Karachi</title>
</circle><line x1="1465.959961" y1="80.959999" x2="1631.959961" y2="1056.959961" stroke="red" stroke-width="6.660000" />
<circle cx="1999.959961" cy="1600.959961" r="19.980000" fill="red">
  <title>Kolkata</title>
</circle><line x1="1631.959961" y1="1056.959961" x2="1999.959961" y2="1600.959961" stroke="red" stroke-width="6.660000" />
<circle cx="1664.959961" cy="1999.959961" r="19.980000" fill="red">
  <title>Dhaka</title>
</circle><line x1="1999.959961" y1="1600.959961" x2="1664.959961" y2="1999.959961" stroke="red" stroke-width="6.660000" />
<circle cx="1502.959961" cy="1663.959961" r="19.980000" fill="red">
  <title>Mumbai</title>
</circle><line x1="1664.959961" y1="1999.959961" x2="1502.959961" y2="1663.959961" stroke="red" stroke-width="6.660000" />
<circle cx="1304.959961" cy="1259.959961" r="19.980000" fill="red">
  <title>Istanbul</title>
</circle><line x1="1502.959961" y1="1663.959961" x2="1304.959961" y2="1259.959961" stroke="red" stroke-width="6.660000" />
<circle cx="1140.959961" cy="1403.959961" r="19.980000" fill="red">
  <title>Buenos Aires</title>
</circle><line x1="1304.959961" y1="1259.959961" x2="1140.959961" y2="1403.959961" stroke="red" stroke-width="6.660000" />
<circle cx="964.960022" cy="1516.959961" r="19.980000" fill="red">
  <title>Osaka</title>
</circle><line x1="1140.959961" y1="1403.959961" x2="964.960022" y2="1516.959961" stroke="red" stroke-width="6.660000" />
<circle cx="511.959991" cy="1673.959961" r="19.980000" fill="red">
  <title>Rio de Janeiro</title>
</circle><line x1="964.960022" y1="1516.959961" x2="511.959991" y2="1673.959961" stroke="red" stroke-width="6.660000" />
</svg>
