<?xml version="1.0" encoding="UTF-8" standalone="no"?>
<svg width="500" height="500" viewBox="0 0 2074.000000 2074.000000" xmlns="http://www.w3.org/2000/svg">
<rect x="19.000000" y="19.000000" width="2036.000000" height="2036.000000" fill="black" />
<circle cx="486.959991" cy="258.959991" r="19.980000" fill="red">
  <title>Tokyo</title>
</circle><line x1="180.959991" y1="117.959999" x2="486.959991" y2="258.959991" stroke="red" stroke-width="6.660000" />
<circle cx="931.960022" cy="474.959991" r="19.980000" fill="red">
  <title>São Paulo</title>
</circle><line x1="486.959991" y1="258.959991" x2="931.960022" y2="474.959991" stroke="red" stroke-width="6.660000" />
<circle cx="1300.959961" cy="837.960022" r="19.980000" fill="red">
  <title>Cairo</title>
</circle><line x1="931.960022" y1="474.959991" x2="1300.959961" y2="837.960022" stroke="red" stroke-width="6.660000" />
<circle cx="1281.959961" cy="452.959991" r="19.980000" fill="red">
  <title>Beijing</title>
</circle><line x1="1300.959961" y1="837.960022" x2="1281.959961" y2="452.959991" stroke="red" stroke-width="6.660000" />
<circle cx="1912.959961" cy="439.959991" r="19.980000" fill="red">
  <title>Chongqing</title>
</circle><line x1="1281.959961" y1="452.959991" x2="1912.959961" y2="439.959991" stroke="red" stroke-width="6.660000" />
<circle cx="1915.959961" cy="863.960022" r="19.980000" fill="red">
  <title>Mumbai</title>
</circle><line x1="1912.959961" y1="439.959991" x2="1915.959961" y2="863.960022" stroke="red" stroke-width="6.660000" />
<circle cx="1844.959961" cy="952.960022" r="19.980000" fill="red">
  <title>Delhi</title>
</circle><line x1="1915.959961" y1="863.960022" x2="1844.959961" y2="952.960022" stroke="red" stroke-width="6.660000" />
<circle cx="1639.959961" cy="1253.959961" r="19.980000" fill="red">
  <title>Shanghai</title>
</circle><line x1="1844.959961" y1="952.960022" x2="1639.959961" y2="1253.959961" stroke="red" stroke-width="6.660000" />
<circle cx="1571.959961" cy="1342.959961" r="19.980000" fill="red">
  <title>New York</title>
</circle><line x1="1639.959961" y1="1253.959961" x2="1571.959961" y2="1342.959961" stroke="red" stroke-width="6.660000" />
<circle cx="1755.959961" cy="1823.959961" r="19.980000" fill="red">
  <title>Osaka</title>
</circle><line x1="1571.959961" y1="1342.959961" x2="1755.959961" y2="1823.959961" stroke="red" stroke-width="6.660000" />
<circle cx="954.960022" cy="1953.959961" r="19.980000" fill="red">
  <title>Karachi</title>
</circle><line x1="1755.959961" y1="1823.959961" x2="954.960022" y2="1953.959961" stroke="red" stroke-width="6.660000" />
<circle cx="746.960022" cy="1825.959961" r="19.980000" fill="red">
  <title>Buenos Aires</title>
</circle><line x1="954.960022" y1="1953.959961" x2="746.960022" y2="1825.959961" stroke="red" stroke-width="6.660000" />
<circle cx="336.959991" cy="1899.959961" r="19.980000" fill="red">
  <title>Manila</title>
</circle><line x1="746.960022" y1="1825.959961" x2="336.959991" y2="1899.959961" stroke="red" stroke-width="6.660000" />
<circle cx="98.959999" cy="1444.959961" r="19.980000" fill="red">
  <title>Dhaka</title>
</circle><line x1="336.959991" y1="1899.959961" x2="98.959999" y2="1444.959961" stroke="red" stroke-width="6.660000" />
<circle cx="62.959999" cy="824.960022" r="19.980000" fill="red">
  <title>Mexico City</title>
</circle><line x1="98.959999" y1="1444.959961" x2="62.959999" y2="824.960022" stroke="red" stroke-width="6.660000" />
<circle cx="93.959999" cy="628.960022" r="19.980000" fill="red">
  <title>Kolkata</title>
</circle><line x1="62.959999" y1="824.960022" x2="93.959999" y2="628.960022" stroke="red" stroke-width="6.660000" />
<circle cx="180.959991" cy="117.959999" r="19.980000" fill="red">
  <title>Istanbul</title>
</circle><line x1="93.959999" y1="628.960022" x2="180.959991" y2="117.959999" stroke="red" stroke-width="6.660000" />
</svg>
