<?xml version="1.0" encoding="UTF-8" standalone="no"?>
<svg width="500" height="500" viewBox="0 0 2074.000000 2074.000000" xmlns="http://www.w3.org/2000/svg">
<rect x="19.000000" y="19.000000" width="2036.000000" height="2036.000000" fill="black" />
<circle cx="1960.959961" cy="1151.959961" r="19.980000" fill="red">
  <title>Tokyo</title>
</circle><line x1="1585.959961" y1="367.959991" x2="1960.959961" y2="1151.959961" stroke="red" stroke-width="6.660000" />
<circle cx="1713.959961" cy="1204.959961" r="19.980000" fill="red">
  <title>Buenos Aires</title>
</circle><line x1="1960.959961" y1="1151.959961" x2="1713.959961" y2="1204.959961" stroke="red" stroke-width="6.660000" />
<circle cx="1299.959961" cy="1127.959961" r="19.980000" fill="red">
  <title>Cairo</title>
</circle><line x1="1713.959961" y1="1204.959961" x2="1299.959961" y2="1127.959961" stroke="red" stroke-width="6.660000" />
<circle cx="1200.959961" cy="1799.959961" r="19.980000" fill="red">
  <title>Mumbai</title>
</circle><line x1="1299.959961" y1="1127.959961" x2="1200.959961" y2="1799.959961" stroke="red" stroke-width="6.660000" />
<circle cx="1038.959961" cy="1714.959961" r="19.980000" fill="red">
  <title>Osaka</title>
</circle><line x1="1200.959961" y1="1799.959961" x2="1038.959961" y2="1714.959961" stroke="red" stroke-width="6.660000" />
<circle cx="845.960022" cy="1366.959961" r="19.980000" fill="red">
  <title>Dhaka</title>
</circle><line x1="1038.959961" y1="1714.959961" x2="845.960022" y2="1366.959961" stroke="red" stroke-width="6.660000" />
<circle cx="420.959991" cy="1740.959961" r="19.980000" fill="red">
  <title>Mexico City</title>
</circle><line x1="845.960022" y1="1366.959961" x2="420.959991" y2="1740.959961" stroke="red" stroke-width="6.660000" />
<circle cx="263.959991" cy="1824.959961" r="19.980000" fill="red">
  <title>Karachi</title>
</circle><line x1="420.959991" y1="1740.959961" x2="263.959991" y2="1824.959961" stroke="red" stroke-width="6.660000" />
<circle cx="184.959991" cy="1647.959961" r="19.980000" fill="red">
  <title>São Paulo</title>
</circle><line x1="263.959991" y1="1824.959961" x2="184.959991" y2="1647.959961" stroke="red" stroke-width="6.660000" />
<circle cx="120.959999" cy="451.959991" r="19.980000" fill="red">
  <title>Shanghai</title>
</circle><line x1="184.959991" y1="1647.959961" x2="120.959999" y2="451.959991" stroke="red" stroke-width="6.660000" />
<circle cx="673.960022" cy="781.960022" r="19.980000" fill="red">
  <title>Delhi</title>
</circle><line x1="120.959999" y1="451.959991" x2="673.960022" y2="781.960022" stroke="red" stroke-width="6.660000" />
<circle cx="1363.959961" cy="400.959991" r="19.980000" fill="red">
  <title>Beijing</title>
</circle><line x1="673.960022" y1="781.960022" x2="1363.959961" y2="400.959991" stroke="red" stroke-width="6.660000" />
<circle cx="1478.959961" cy="188.959991" r="19.980000" fill="red">
  <title>New York</title>
</circle><line x1="1363.959961" y1="400.959991" x2="1478.959961" y2="188.959991" stroke="red" stroke-width="6.660000" />
<circle cx="1585.959961" cy="367.959991" r="19.980000" fill="red">
  <title>Chongqing</title>
</circle><line x1="1478.959961" y1="188.959991" x2="1585.959961" y2="367.959991" stroke="red" stroke-width="6.660000" />
</svg>
