<?xml version="1.0" encoding="UTF-8" standalone="no"?>
<svg width="500" height="500" viewBox="0 0 2074.000000 2074.000000" xmlns="http://www.w3.org/2000/svg">
<rect x="19.000000" y="19.000000" width="2036.000000" height="2036.000000" fill="black" />
<circle cx="1086.959961" cy="752.960022" r="19.980000" fill="red">
  <title>Tokyo</title>
</circle><line x1="690.960022" y1="878.960022" x2="1086.959961" y2="752.960022" stroke="red" stroke-width="6.660000" />
<circle cx="1458.959961" cy="519.960022" r="19.980000" fill="red">
  <title>Cairo</title>
</circle><line x1="1086.959961" y1="752.960022" x2="1458.959961" y2="519.960022" stroke="red" stroke-width="6.660000" />
<circle cx="1633.959961" cy="795.960022" r="19.980000" fill="red">
  <title>Beijing</title>
</circle><line x1="1458.959961" y1="519.960022" x2="1633.959961" y2="795.960022" stroke="red" stroke-width="6.660000" />
<circle cx="1590.959961" cy="1205.959961" r="19.980000" fill="red">
  <title>Mexico City</title>
</circle><line x1="1633.959961" y1="795.960022" x2="1590.959961" y2="1205.959961" stroke="red" stroke-width="6.660000" />
<circle cx="1270.959961" cy="1938.959961" r="19.980000" fill="red">
  <title>Shanghai</title>
</circle><line x1="1590.959961" y1="1205.959961" x2="1270.959961" y2="1938.959961" stroke="red" stroke-width="6.660000" />
<circle cx="330.959991" cy="1831.959961" r="19.980000" fill="red">
  <title>Delhi</title>
</circle><line x1="1270.959961" y1="1938.959961" x2="330.959991" y2="1831.959961" stroke="red" stroke-width="6.660000" />
<circle cx="770.960022" cy="1106.959961" r="19.980000" fill="red">
  <title>São Paulo</title>
</circle><line x1="330.959991" y1="1831.959961" x2="770.960022" y2="1106.959961" stroke="red" stroke-width="6.660000" />
<circle cx="690.960022" cy="878.960022" r="19.980000" fill="red">
  <title>Mumbai</title>
</circle><line x1="770.960022" y1="1106.959961" x2="690.960022" y2="878.960022" stroke="red" stroke-width="6.660000" />
</svg>
