<?xml version="1.0" encoding="UTF-8" standalone="no"?>
<svg width="500" height="500" viewBox="0 0 2074.000000 2074.000000" xmlns="http://www.w3.org/2000/svg">
<rect x="19.000000" y="19.000000" width="2036.000000" height="2036.000000" fill="black" />
<circle cx="646.960022" cy="879.960022" r="19.980000" fill="red">
  <title>Tokyo</title>
</circle><line x1="459.959991" y1="404.959991" x2="646.960022" y2="879.960022" stroke="red" stroke-width="6.660000" />
<circle cx="713.960022" cy="777.960022" r="19.980000" fill="red">
  <title>Mexico City</title>
</circle><line x1="646.960022" y1="879.960022" x2="713.960022" y2="777.960022" stroke="red" stroke-width="6.660000" />
<circle cx="1246.959961" cy="694.960022" r="19.980000" fill="red">
  <title>Chongqing</title>
</circle><line x1="713.960022" y1="777.960022" x2="1246.959961" y2="694.960022" stroke="red" stroke-width="6.660000" />
<circle cx="1751.959961" cy="88.959999" r="19.980000" fill="red">
  <title>Osaka</title>
</circle><line x1="1246.959961" y1="694.960022" x2="1751.959961" y2="88.959999" stroke="red" stroke-width="6.660000" />
<circle cx="1953.959961" cy="801.960022" r="19.980000" fill="red">
  <title>Beijing</title>
</circle><line x1="1751.959961" y1="88.959999" x2="1953.959961" y2="801.960022" stroke="red" stroke-width="6.660000" />
<circle cx="1649.959961" cy="919.960022" r="19.980000" fill="red">
  <title>New York</title>
</circle><line x1="1953.959961" y1="801.960022" x2="1649.959961" y2="919.960022" stroke="red" stroke-width="6.660000" />
<circle cx="1265.959961" cy="1032.959961" r="19.980000" fill="red">
  <title>Delhi</title>
</circle><line x1="1649.959961" y1="919.960022" x2="1265.959961" y2="1032.959961" stroke="red" stroke-width="6.660000" />
<circle cx="1539.959961" cy="1523.959961" r="19.980000" fill="red">
  <title>Shanghai</title>
</circle><line x1="1265.959961" y1="1032.959961" x2="1539.959961" y2="1523.959961" stroke="red" stroke-width="6.660000" />
<circle cx="1735.959961" cy="1574.959961" r="19.980000" fill="red">
  <title>Buenos Aires</title>
</circle><line x1="1539.959961" y1="1523.959961" x2="1735.959961" y2="1574.959961" stroke="red" stroke-width="6.660000" />
<circle cx="1796.959961" cy="1633.959961" r="19.980000" fill="red">
  <title>Istanbul</title>
</circle><line x1="1735.959961" y1="1574.959961" x2="1796.959961" y2="1633.959961" stroke="red" stroke-width="6.660000" />
<circle cx="1398.959961" cy="1975.959961" r="19.980000" fill="red">
  <title>Lagos</title>
</circle><line x1="1796.959961" y1="1633.959961" x2="1398.959961" y2="1975.959961" stroke="red" stroke-width="6.660000" />
<circle cx="879.960022" cy="1710.959961" r="19.980000" fill="red">
  <title>Karachi</title>
</circle><line x1="1398.959961" y1="1975.959961" x2="879.960022" y2="1710.959961" stroke="red" stroke-width="6.660000" />
<circle cx="474.959991" cy="1686.959961" r="19.980000" fill="red">
  <title>Manila</title>
</circle><line x1="879.960022" y1="1710.959961" x2="474.959991" y2="1686.959961" stroke="red" stroke-width="6.660000" />
<circle cx="145.959991" cy="1949.959961" r="19.980000" fill="red">
  <title>Mumbai</title>
</circle><line x1="474.959991" y1="1686.959961" x2="145.959991" y2="1949.959961" stroke="red" stroke-width="6.660000" />
<circle cx="128.959991" cy="827.960022" r="19.980000" fill="red">
  <title>São Paulo</title>
</circle><line x1="145.959991" y1="1949.959961" x2="128.959991" y2="827.960022" stroke="red" stroke-width="6.660000" />
<circle cx="453.959991" cy="367.959991" r="19.980000" fill="red">
  <title>Dhaka</title>
</circle><line x1="128.959991" y1="827.960022" x2="453.959991" y2="367.959991" stroke="red" stroke-width="6.660000" />
<circle cx="627.960022" cy="120.959999" r="19.980000" fill="red">
  <title>Cairo</title>
</circle><line x1="453.959991" y1="367.959991" x2="627.960022" y2="120.959999" stroke="red" stroke-width="6.660000" />
<circle cx="459.959991" cy="404.959991" r="19.980000" fill="red">
  <title>Kolkata</title>
</circle><line x1="627.960022" y1="120.959999" x2="459.959991" y2="404.959991" stroke="red" stroke-width="6.660000" />
</svg>
