<?xml version="1.0" encoding="UTF-8" standalone="no"?>
<svg width="500" height="500" viewBox="0 0 2074.000000 2074.000000" xmlns="http://www.w3.org/2000/svg">
<rect x="19.000000" y="19.000000" width="2036.000000" height="2036.000000" fill="black" />
<circle cx="1344.959961" cy="1947.959961" r="19.980000" fill="red">
  <title>Tokyo</title>
</circle><line x1="265.959991" y1="1201.959961" x2="1344.959961" y2="1947.959961" stroke="red" stroke-width="6.660000" />
<circle cx="1638.959961" cy="1347.959961" r="19.980000" fill="red">
  <title>Delhi</title>
</circle><line x1="1344.959961" y1="1947.959961" x2="1638.959961" y2="1347.959961" stroke="red" stroke-width="6.660000" />
<circle cx="2024.959961" cy="329.959991" r="19.980000" fill="red">
  <title>São Paulo</title>
</circle><line x1="1638.959961" y1="1347.959961" x2="2024.959961" y2="329.959991" stroke="red" stroke-width="6.660000" />
<circle cx="1275.959961" cy="1085.959961" r="19.980000" fill="red">
  <title>Cairo</title>
</circle><line x1="2024.959961" y1="329.959991" x2="1275.959961" y2="1085.959961" stroke="red" stroke-width="6.660000" />
<circle cx="1006.960022" cy="1040.959961" r="19.980000" fill="red">
  <title>Mexico City</title>
</circle><line x1="1275.959961" y1="1085.959961" x2="1006.960022" y2="1040.959961" stroke="red" stroke-width="6.660000" />
<circle cx="356.959991" cy="411.959991" r="19.980000" fill="red">
  <title>Shanghai</title>
</circle><line x1="1006.960022" y1="1040.959961" x2="356.959991" y2="411.959991" stroke="red" stroke-width="6.660000" />
<circle cx="265.959991" cy="1201.959961" r="19.980000" fill="red">
  <title>Mumbai</title>
</circle><line x1="356.959991" y1="411.959991" x2="265.959991" y2="1201.959961" stroke="red" stroke-width="6.660000" />
</svg>
