<?xml version="1.0" encoding="UTF-8" standalone="no"?>
<svg width="500" height="500" viewBox="0 0 2074.000000 2074.000000" xmlns="http://www.w3.org/2000/svg">
<rect x="19.000000" y="19.000000" width="2036.000000" height="2036.000000" fill="black" />
<circle cx="1459.959961" cy="1875.959961" r="19.980000" fill="red">
  <title>Tokyo</title>
</circle><line x1="1841.959961" y1="1929.959961" x2="1459.959961" y2="1875.959961" stroke="red" stroke-width="6.660000" />
<circle cx="1305.959961" cy="1901.959961" r="19.980000" fill="red">
  <title>Delhi</title>
</circle><line x1="1459.959961" y1="1875.959961" x2="1305.959961" y2="1901.959961" stroke="red" stroke-width="6.660000" />
<circle cx="804.960022" cy="2021.959961" r="19.980000" fill="red">
  <title>Karachi</title>
</circle><line x1="1305.959961" y1="1901.959961" x2="804.960022" y2="2021.959961" stroke="red" stroke-width="6.660000" />
<circle cx="293.959991" cy="1943.959961" r="19.980000" fill="red">
  <title>New York</title>
</circle><line x1="804.960022" y1="2021.959961" x2="293.959991" y2="1943.959961" stroke="red" stroke-width="6.660000" />
<circle cx="714.960022" cy="1425.959961" r="19.980000" fill="red">
  <title>Manila</title>
</circle><line x1="293.959991" y1="1943.959961" x2="714.960022" y2="1425.959961" stroke="red" stroke-width="6.660000" />
<circle cx="398.959991" cy="934.960022" r="19.980000" fill="red">
  <title>Shanghai</title>
</circle><line x1="714.960022" y1="1425.959961" x2="398.959991" y2="934.960022" stroke="red" stroke-width="6.660000" />
<circle cx="195.959991" cy="909.960022" r="19.980000" fill="red">
  <title>São Paulo</title>
</circle><line x1="398.959991" y1="934.960022" x2="195.959991" y2="909.960022" stroke="red" stroke-width="6.660000" />
<circle cx="158.959991" cy="851.960022" r="19.980000" fill="red">
  <title>Kolkata</title>
</circle><line x1="195.959991" y1="909.960022" x2="158.959991" y2="851.960022" stroke="red" stroke-width="6.660000" />
<circle cx="117.959999" cy="124.959999" r="19.980000" fill="red">
  <title>Osaka</title>
</circle><line x1="158.959991" y1="851.960022" x2="117.959999" y2="124.959999" stroke="red" stroke-width="6.660000" />
<circle cx="665.960022" cy="555.960022" r="19.980000" fill="red">
  <title>Chongqing</title>
</circle><line x1="117.959999" y1="124.959999" x2="665.960022" y2="555.960022" stroke="red" stroke-width="6.660000" />
<circle cx="1128.959961" cy="966.960022" r="19.980000" fill="red">
  <title>Cairo</title>
</circle><line x1="665.960022" y1="555.960022" x2="1128.959961" y2="966.960022" stroke="red" stroke-width="6.660000" />
<circle cx="1430.959961" cy="876.960022" r="19.980000" fill="red">
  <title>Istanbul</title>
</circle><line x1="1128.959961" y1="966.960022" x2="1430.959961" y2="876.960022" stroke="red" stroke-width="6.660000" />
<circle cx="1413.959961" cy="424.959991" r="19.980000" fill="red">
  <title>Buenos Aires</title>
</circle><line x1="1430.959961" y1="876.960022" x2="1413.959961" y2="424.959991" stroke="red" stroke-width="6.660000" />
<circle cx="1812.959961" cy="520.960022" r="19.980000" fill="red">
  <title>Mumbai</title>
</circle><line x1="1413.959961" y1="424.959991" x2="1812.959961" y2="520.960022" stroke="red" stroke-width="6.660000" />
<circle cx="1756.959961" cy="993.960022" r="19.980000" fill="red">
  <title>Beijing</title>
</circle><line x1="1812.959961" y1="520.960022" x2="1756.959961" y2="993.960022" stroke="red" stroke-width="6.660000" />
<circle cx="1936.959961" cy="1389.959961" r="19.980000" fill="red">
  <title>Mexico City</title>
</circle><line x1="1756.959961" y1="993.960022" x2="1936.959961" y2="1389.959961" stroke="red" stroke-width="6.660000" />
<circle cx="1841.959961" cy="1929.959961" r="19.980000" fill="red">
  <title>Dhaka</title>
</circle><line x1="1936.959961" y1="1389.959961" x2="1841.959961" y2="1929.959961" stroke="red" stroke-width="6.660000" />
</svg>
