<?xml version="1.0" encoding="UTF-8" standalone="no"?>
<svg width="500" height="500" viewBox="0 0 2074.000000 2074.000000" xmlns="http://www.w3.org/2000/svg">
<rect x="19.000000" y="19.000000" width="2036.000000" height="2036.000000" fill="black" />
<circle cx="930.960022" cy="1998.959961" r="19.980000" fill="red">
  <title>Tokyo</title>
</circle><line x1="876.960022" y1="1447.959961" x2="930.960022" y2="1998.959961" stroke="red" stroke-width="6.660000" />
<circle cx="1336.959961" cy="1739.959961" r="19.980000" fill="red">
  <title>Cairo</title>
</circle><line x1="930.960022" y1="1998.959961" x2="1336.959961" y2="1739.959961" stroke="red" stroke-width="6.660000" />
<circle cx="1630.959961" cy="1942.959961" r="19.980000" fill="red">
  <title>Kolkata</title>
</circle><line x1="1336.959961" y1="1739.959961" x2="1630.959961" y2="1942.959961" stroke="red" stroke-width="6.660000" />
<circle cx="1957.959961" cy="1999.959961" r="19.980000" fill="red">
  <title>Karachi</title>
</circle><line x1="1630.959961" y1="1942.959961" x2="1957.959961" y2="1999.959961" stroke="red" stroke-width="6.660000" />
<circle cx="1750.959961" cy="1516.959961" r="19.980000" fill="red">
  <title>São Paulo</title>
</circle><line x1="1957.959961" y1="1999.959961" x2="1750.959961" y2="1516.959961" stroke="red" stroke-width="6.660000" />
<circle cx="1414.959961" cy="594.960022" r="19.980000" fill="red">
  <title>Mumbai</title>
</circle><line x1="1750.959961" y1="1516.959961" x2="1414.959961" y2="594.960022" stroke="red" stroke-width="6.660000" />
<circle cx="1465.959961" cy="85.959999" r="19.980000" fill="red">
  <title>Buenos Aires</title>
</circle><line x1="1414.959961" y1="594.960022" x2="1465.959961" y2="85.959999" stroke="red" stroke-width="6.660000" />
<circle cx="954.960022" cy="185.959991" r="19.980000" fill="red">
  <title>Chongqing</title>
</circle><line x1="1465.959961" y1="85.959999" x2="954.960022" y2="185.959991" stroke="red" stroke-width="6.660000" />
<circle cx="420.959991" cy="237.959991" r="19.980000" fill="red">
  <title>Osaka</title>
</circle><line x1="954.960022" y1="185.959991" x2="420.959991" y2="237.959991" stroke="red" stroke-width="6.660000" />
<circle cx="319.959991" cy="173.959991" r="19.980000" fill="red">
  <title>New York</title>
</circle><line x1="420.959991" y1="237.959991" x2="319.959991" y2="173.959991" stroke="red" stroke-width="6.660000" />
<circle cx="192.959991" cy="258.959991" r="19.980000" fill="red">
  <title>Beijing</title>
</circle><line x1="319.959991" y1="173.959991" x2="192.959991" y2="258.959991" stroke="red" stroke-width="6.660000" />
<circle cx="211.959991" cy="426.959991" r="19.980000" fill="red">
  <title>Delhi</title>
</circle><line x1="192.959991" y1="258.959991" x2="211.959991" y2="426.959991" stroke="red" stroke-width="6.660000" />
<circle cx="149.959991" cy="607.960022" r="19.980000" fill="red">
  <title>Dhaka</title>
</circle><line x1="211.959991" y1="426.959991" x2="149.959991" y2="607.960022" stroke="red" stroke-width="6.660000" />
<circle cx="804.960022" cy="1000.960022" r="19.980000" fill="red">
  <title>Shanghai</title>
</circle><line x1="149.959991" y1="607.960022" x2="804.960022" y2="1000.960022" stroke="red" stroke-width="6.660000" />
<circle cx="1051.959961" cy="1135.959961" r="19.980000" fill="red">
  <title>Istanbul</title>
</circle><line x1="804.960022" y1="1000.960022" x2="1051.959961" y2="1135.959961" stroke="red" stroke-width="6.660000" />
<circle cx="876.960022" cy="1447.959961" r="19.980000" fill="red">
  <title>Mexico City</title>
</circle><line x1="1051.959961" y1="1135.959961" x2="876.960022" y2="1447.959961" stroke="red" stroke-width="6.660000" />
</svg>
