<?xml version="1.0" encoding="UTF-8" standalone="no"?>
<svg width="500" height="500" viewBox="0 0 2074.000000 2074.000000" xmlns="http://www.w3.org/2000/svg">
<rect x="19.000000" y="19.000000" width="2036.000000" height="2036.000000" fill="black" />
<circle cx="726.960022" cy="450.959991" r="19.980000" fill="red">
  <title>Tokyo</title>
</circle><line x1="963.960022" y1="668.960022" x2="726.960022" y2="450.959991" stroke="red" stroke-width="6.660000" />
<circle cx="711.960022" cy="443.959991" r="19.980000" fill="red">
  <title>Mumbai</title>
</circle><line x1="726.960022" y1="450.959991" x2="711.960022" y2="443.959991" stroke="red" stroke-width="6.660000" />
<circle cx="524.960022" cy="460.959991" r="19.980000" fill="red">
  <title>Shanghai</title>
</circle><line x1="711.960022" y1="443.959991" x2="524.960022" y2="460.959991" stroke="red" stroke-width="6.660000" />
<circle cx="387.959991" cy="484.959991" r="19.980000" fill="red">
  <title>São Paulo</title>
</circle><line x1="524.960022" y1="460.959991" x2="387.959991" y2="484.959991" stroke="red" stroke-width="6.660000" />
<circle cx="702.960022" cy="1897.959961" r="19.980000" fill="red">
  <title>Cairo</title>
</circle><line x1="387.959991" y1="484.959991" x2="702.960022" y2="1897.959961" stroke="red" stroke-width="6.660000" />
<circle cx="1859.959961" cy="1992.959961" r="19.980000" fill="red">
  <title>Delhi</title>
</circle><line x1="702.960022" y1="1897.959961" x2="1859.959961" y2="1992.959961" stroke="red" stroke-width="6.660000" />
<circle cx="1972.959961" cy="288.959991" r="19.980000" fill="red">
  <title>Beijing</title>
</circle><line x1="1859.959961" y1="1992.959961" x2="1972.959961" y2="288.959991" stroke="red" stroke-width="6.660000" />
<circle cx="963.960022" cy="668.960022" r="19.980000" fill="red">
  <title>Mexico City</title>
</circle><line x1="1972.959961" y1="288.959991" x2="963.960022" y2="668.960022" stroke="red" stroke-width="6.660000" />
</svg>
