<?xml version="1.0" encoding="UTF-8" standalone="no"?>
<svg width="500" height="500" viewBox="0 0 2074.000000 2074.000000" xmlns="http://www.w3.org/2000/svg">
<rect x="19.000000" y="19.000000" width="2036.000000" height="2036.000000" fill="black" />
<circle cx="2014.959961" cy="691.960022" r="19.980000" fill="red">
  <title>Tokyo</title>
</circle><line x1="1865.959961" y1="73.959999" x2="2014.959961" y2="691.960022" stroke="red" stroke-width="6.660000" />
<circle cx="1804.959961" cy="892.960022" r="19.980000" fill="red">
  <title>Manila</title>
</circle><line x1="2014.959961" y1="691.960022" x2="1804.959961" y2="892.960022" stroke="red" stroke-width="6.660000" />
<circle cx="1365.959961" cy="1011.960022" r="19.980000" fill="red">
  <title>Shanghai</title>
</circle><line x1="1804.959961" y1="892.960022" x2="1365.959961" y2="1011.960022" stroke="red" stroke-width="6.660000" />
<circle cx="1367.959961" cy="1132.959961" r="19.980000" fill="red">
  <title>Lagos</title>
</circle><line x1="1365.959961" y1="1011.960022" x2="1367.959961" y2="1132.959961" stroke="red" stroke-width="6.660000" />
<circle cx="1451.959961" cy="1151.959961" r="19.980000" fill="red">
  <title>Istanbul</title>
</circle><line x1="1367.959961" y1="1132.959961" x2="1451.959961" y2="1151.959961" stroke="red" stroke-width="6.660000" />
<circle cx="1838.959961" cy="1823.959961" r="19.980000" fill="red">
  <title>Mumbai</title>
</circle><line x1="1451.959961" y1="1151.959961" x2="1838.959961" y2="1823.959961" stroke="red" stroke-width="6.660000" />
<circle cx="1289.959961" cy="1629.959961" r="19.980000" fill="red">
  <title>Karachi</title>
</circle><line x1="1838.959961" y1="1823.959961" x2="1289.959961" y2="1629.959961" stroke="red" stroke-width="6.660000" />
<circle cx="744.960022" cy="1988.959961" r="19.980000" fill="red">
  <title>São Paulo</title>
</circle><line x1="1289.959961" y1="1629.959961" x2="744.960022" y2="1988.959961" stroke="red" stroke-width="6.660000" />
<circle cx="642.960022" cy="1977.959961" r="19.980000" fill="red">
  <title>Delhi</title>
</circle><line x1="744.960022" y1="1988.959961" x2="642.960022" y2="1977.959961" stroke="red" stroke-width="6.660000" />
<circle cx="684.960022" cy="1461.959961" r="19.980000" fill="red">
  <title>Mexico City</title>
</circle><line x1="642.960022" y1="1977.959961" x2="684.960022" y2="1461.959961" stroke="red" stroke-width="6.660000" />
<circle cx="288.959991" cy="1427.959961" r="19.980000" fill="red">
  <title>Kolkata</title>
</circle><line x1="684.960022" y1="1461.959961" x2="288.959991" y2="1427.959961" stroke="red" stroke-width="6.660000" />
<circle cx="553.960022" cy="1173.959961" r="19.980000" fill="red">
  <title>Osaka</title>
</circle><line x1="288.959991" y1="1427.959961" x2="553.960022" y2="1173.959961" stroke="red" stroke-width="6.660000" />
<circle cx="405.959991" cy="797.960022" r="19.980000" fill="red">
  <title>Dhaka</title>
</circle><line x1="553.960022" y1="1173.959961" x2="405.959991" y2="797.960022" stroke="red" stroke-width="6.660000" />
<circle cx="103.959999" cy="311.959991" r="19.980000" fill="red">
  <title>Chongqing</title>
</circle><line x1="405.959991" y1="797.960022" x2="103.959999" y2="311.959991" stroke="red" stroke-width="6.660000" />
<circle cx="363.959991" cy="459.959991" r="19.980000" fill="red">
  <title>Beijing</title>
</circle><line x1="103.959999" y1="311.959991" x2="363.959991" y2="459.959991" stroke="red" stroke-width="6.660000" />
<circle cx="978.960022" cy="467.959991" r="19.980000" fill="red">
  <title>Buenos Aires</title>
</circle><line x1="363.959991" y1="459.959991" x2="978.960022" y2="467.959991" stroke="red" stroke-width="6.660000" />
<circle cx="1083.959961" cy="512.960022" r="19.980000" fill="red">
  <title>Tianjin</title>
</circle><line x1="978.960022" y1="467.959991" x2="1083.959961" y2="512.960022" stroke="red" stroke-width="6.660000" />
<circle cx="1669.959961" cy="596.960022" r="19.980000" fill="red">
  <title>Cairo</title>
</circle><line x1="1083.959961" y1="512.960022" x2="1669.959961" y2="596.960022" stroke="red" stroke-width="6.660000" />
<circle cx="1714.959961" cy="115.959999" r="19.980000" fill="red">
  <title>New York</title>
</circle><line x1="1669.959961" y1="596.960022" x2="1714.959961" y2="115.959999" stroke="red" stroke-width="6.660000" />
<circle cx="1865.959961" cy="73.959999" r="19.980000" fill="red">
  <title>Rio de Janeiro</title>
</circle><line x1="1714.959961" y1="115.959999" x2="1865.959961" y2="73.959999" stroke="red" stroke-width="6.660000" />
</svg>
