<?xml version="1.0" encoding="UTF-8" standalone="no"?>
<svg width="500" height="500" viewBox="0 0 2074.000000 2074.000000" xmlns="http://www.w3.org/2000/svg">
<rect x="19.000000" y="19.000000" width="2036.000000" height="2036.000000" fill="black" />
<circle cx="1325.959961" cy="1087.959961" r="19.980000" fill="red">
  <title>Tokyo</title>
</circle><line x1="1805.959961" y1="1386.959961" x2="1325.959961" y2="1087.959961" stroke="red" stroke-width="6.660000" />
<circle cx="1565.959961" cy="513.960022" r="19.980000" fill="red">
  <title>São Paulo</title>
</circle><line x1="1325.959961" y1="1087.959961" x2="1565.959961" y2="513.960022" stroke="red" stroke-width="6.660000" />
<circle cx="1216.959961" cy="476.959991" r="19.980000" fill="red">
  <title>Dhaka</title>
</circle><line x1="1565.959961" y1="513.960022" x2="1216.959961" y2="476.959991" stroke="red" stroke-width="6.660000" />
<circle cx="842.960022" cy="530.960022" r="19.980000" fill="red">
  <title>New York</title>
</circle><line x1="1216.959961" y1="476.959991" x2="842.960022" y2="530.960022" stroke="red" stroke-width="6.660000" />
<circle cx="764.960022" cy="714.960022" r="19.980000" fill="red">
  <title>Cairo</title>
</circle><line x1="842.960022" y1="530.960022" x2="764.960022" y2="714.960022" stroke="red" stroke-width="6.660000" />
<circle cx="487.959991" cy="493.959991" r="19.980000" fill="red">
  <title>Beijing</title>
</circle><line x1="764.960022" y1="714.960022" x2="487.959991" y2="493.959991" stroke="red" stroke-width="6.660000" />
<circle cx="166.959991" cy="1063.959961" r="19.980000" fill="red">
  <title>Delhi</title>
</circle><line x1="487.959991" y1="493.959991" x2="166.959991" y2="1063.959961" stroke="red" stroke-width="6.660000" />
<circle cx="831.960022" cy="1623.959961" r="19.980000" fill="red">
  <title>Mexico City</title>
</circle><line x1="166.959991" y1="1063.959961" x2="831.960022" y2="1623.959961" stroke="red" stroke-width="6.660000" />
<circle cx="1173.959961" cy="1575.959961" r="19.980000" fill="red">
  <title>Osaka</title>
</circle><line x1="831.960022" y1="1623.959961" x2="1173.959961" y2="1575.959961" stroke="red" stroke-width="6.660000" />
<circle cx="1304.959961" cy="1592.959961" r="19.980000" fill="red">
  <title>Shanghai</title>
</circle><line x1="1173.959961" y1="1575.959961" x2="1304.959961" y2="1592.959961" stroke="red" stroke-width="6.660000" />
<circle cx="1805.959961" cy="1386.959961" r="19.980000" fill="red">
  <title>Mumbai</title>
</circle><line x1="1304.959961" y1="1592.959961" x2="1805.959961" y2="1386.959961" stroke="red" stroke-width="6.660000" />
</svg>
