<?xml version="1.0" encoding="UTF-8" standalone="no"?>
<svg width="500" height="500" viewBox="0 0 2074.000000 2074.000000" xmlns="http://www.w3.org/2000/svg">
<rect x="19.000000" y="19.000000" width="2036.000000" height="2036.000000" fill="black" />
<circle cx="920.960022" cy="1861.959961" r="19.980000" fill="red">
  <title>Tokyo</title>
</circle><line x1="68.959999" y1="1975.959961" x2="920.960022" y2="1861.959961" stroke="red" stroke-width="6.660000" />
<circle cx="954.960022" cy="1425.959961" r="19.980000" fill="red">
  <title>New York</title>
</circle><line x1="920.960022" y1="1861.959961" x2="954.960022" y2="1425.959961" stroke="red" stroke-width="6.660000" />
<circle cx="1160.959961" cy="1491.959961" r="19.980000" fill="red">
  <title>Mexico City</title>
</circle><line x1="954.960022" y1="1425.959961" x2="1160.959961" y2="1491.959961" stroke="red" stroke-width="6.660000" />
<circle cx="1524.959961" cy="1380.959961" r="19.980000" fill="red">
  <title>Shanghai</title>
</circle><line x1="1160.959961" y1="1491.959961" x2="1524.959961" y2="1380.959961" stroke="red" stroke-width="6.660000" />
<circle cx="1647.959961" cy="1477.959961" r="19.980000" fill="red">
  <title>Beijing</title>
</circle><line x1="1524.959961" y1="1380.959961" x2="1647.959961" y2="1477.959961" stroke="red" stroke-width="6.660000" />
<circle cx="1665.959961" cy="1106.959961" r="19.980000" fill="red">
  <title>Dhaka</title>
</circle><line x1="1647.959961" y1="1477.959961" x2="1665.959961" y2="1106.959961" stroke="red" stroke-width="6.660000" />
<circle cx="1949.959961" cy="485.959991" r="19.980000" fill="red">
  <title>Delhi</title>
</circle><line x1="1665.959961" y1="1106.959961" x2="1949.959961" y2="485.959991" stroke="red" stroke-width="6.660000" />
<circle cx="1944.959961" cy="475.959991" r="19.980000" fill="red">
  <title>Buenos Aires</title>
</circle><line x1="1949.959961" y1="485.959991" x2="1944.959961" y2="475.959991" stroke="red" stroke-width="6.660000" />
<circle cx="1547.959961" cy="360.959991" r="19.980000" fill="red">
  <title>Mumbai</title>
</circle><line x1="1944.959961" y1="475.959991" x2="1547.959961" y2="360.959991" stroke="red" stroke-width="6.660000" />
<circle cx="1054.959961" cy="327.959991" r="19.980000" fill="red">
  <title>Chongqing</title>
</circle><line x1="1547.959961" y1="360.959991" x2="1054.959961" y2="327.959991" stroke="red" stroke-width="6.660000" />
<circle cx="763.960022" cy="610.960022" r="19.980000" fill="red">
  <title>Osaka</title>
</circle><line x1="1054.959961" y1="327.959991" x2="763.960022" y2="610.960022" stroke="red" stroke-width="6.660000" />
<circle cx="296.959991" cy="112.959999" r="19.980000" fill="red">
  <title>Istanbul</title>
</circle><line x1="763.960022" y1="610.960022" x2="296.959991" y2="112.959999" stroke="red" stroke-width="6.660000" />
<circle cx="405.959991" cy="908.960022" r="19.980000" fill="red">
  <title>Cairo</title>
</circle><line x1="296.959991" y1="112.959999" x2="405.959991" y2="908.960022" stroke="red" stroke-width="6.660000" />
<circle cx="501.959991" cy="1206.959961" r="19.980000" fill="red">
  <title>São Paulo</title>
</circle><line x1="405.959991" y1="908.960022" x2="501.959991" y2="1206.959961" stroke="red" stroke-width="6.660000" />
<circle cx="68.959999" cy="1975.959961" r="19.980000" fill="red">
  <title>Karachi</title>
</circle><line x1="501.959991" y1="1206.959961" x2="68.959999" y2="1975.959961" stroke="red" stroke-width="6.660000" />
</svg>
