<?xml version="1.0" encoding="UTF-8" standalone="no"?>
<svg width="500" height="500" viewBox="0 0 2074.000000 2074.000000" xmlns="http://www.w3.org/2000/svg">
<rect x="19.000000" y="19.000000" width="2036.000000" height="2036.000000" fill="black" />
<circle cx="135.959991" cy="1092.959961" r="19.980000" fill="red">
  <title>Tokyo</title>
</circle><line x1="545.960022" y1="1564.959961" x2="135.959991" y2="1092.959961" stroke="red" stroke-width="6.660000" />
<circle cx="109.959999" cy="1095.959961" r="19.980000" fill="red">
  <title>Istanbul</title>
</circle><line x1="135.959991" y1="1092.959961" x2="109.959999" y2="1095.959961" stroke="red" stroke-width="6.660000" />
<circle cx="150.959991" cy="716.960022" r="19.980000" fill="red">
  <title>Manila</title>
</circle><line x1="109.959999" y1="1095.959961" x2="150.959991" y2="716.960022" stroke="red" stroke-width="6.660000" />
<circle cx="369.959991" cy="813.960022" r="19.980000" fill="red">
  <title>Lagos</title>
</circle><line x1="150.959991" y1="716.960022" x2="369.959991" y2="813.960022" stroke="red" stroke-width="6.660000" />
<circle cx="702.960022" cy="690.960022" r="19.980000" fill="red">
  <title>Shanghai</title>
</circle><line x1="369.959991" y1="813.960022" x2="702.960022" y2="690.960022" stroke="red" stroke-width="6.660000" />
<circle cx="1220.959961" cy="206.959991" r="19.980000" fill="red">
  <title>Kolkata</title>
</circle><line x1="702.960022" y1="690.960022" x2="1220.959961" y2="206.959991" stroke="red" stroke-width="6.660000" />
<circle cx="1207.959961" cy="159.959991" r="19.980000" fill="red">
  <title>Mumbai</title>
</circle><line x1="1220.959961" y1="206.959991" x2="1207.959961" y2="159.959991" stroke="red" stroke-width="6.660000" />
<circle cx="1367.959961" cy="151.959991" r="19.980000" fill="red">
  <title>Rio de Janeiro</title>
</circle><line x1="1207.959961" y1="159.959991" x2="1367.959961" y2="151.959991" stroke="red" stroke-width="6.660000" />
<circle cx="1533.959961" cy="202.959991" r="19.980000" fill="red">
  <title>Delhi</title>
</circle><line x1="1367.959961" y1="151.959991" x2="1533.959961" y2="202.959991" stroke="red" stroke-width="6.660000" />
<circle cx="1820.959961" cy="491.959991" r="19.980000" fill="red">
  <title>São Paulo</title>
</circle><line x1="1533.959961" y1="202.959991" x2="1820.959961" y2="491.959991" stroke="red" stroke-width="6.660000" />
<circle cx="1819.959961" cy="712.960022" r="19.980000" fill="red">
  <title>Osaka</title>
</circle><line x1="1820.959961" y1="491.959991" x2="1819.959961" y2="712.960022" stroke="red" stroke-width="6.660000" />
<circle cx="1935.959961" cy="1319.959961" r="19.980000" fill="red">
  <title>Chongqing</title>
</circle><line x1="1819.959961" y1="712.960022" x2="1935.959961" y2="1319.959961" stroke="red" stroke-width="6.660000" />
<circle cx="1654.959961" cy="1120.959961" r="19.980000" fill="red">
  <title>Cairo</title>
</circle><line x1="1935.959961" y1="1319.959961" x2="1654.959961" y2="1120.959961" stroke="red" stroke-width="6.660000" />
<circle cx="1292.959961" cy="1232.959961" r="19.980000" fill="red">
  <title>Dhaka</title>
</circle><line x1="1654.959961" y1="1120.959961" x2="1292.959961" y2="1232.959961" stroke="red" stroke-width="6.660000" />
<circle cx="1129.959961" cy="1424.959961" r="19.980000" fill="red">
  <title>Karachi</title>
</circle><line x1="1292.959961" y1="1232.959961" x2="1129.959961" y2="1424.959961" stroke="red" stroke-width="6.660000" />
<circle cx="1410.959961" cy="1821.959961" r="19.980000" fill="red">
  <title>Beijing</title>
</circle><line x1="1129.959961" y1="1424.959961" x2="1410.959961" y2="1821.959961" stroke="red" stroke-width="6.660000" />
<circle cx="1597.959961" cy="1999.959961" r="19.980000" fill="red">
  <title>Buenos Aires</title>
</circle><line x1="1410.959961" y1="1821.959961" x2="1597.959961" y2="1999.959961" stroke="red" stroke-width="6.660000" />
<circle cx="1266.959961" cy="1873.959961" r="19.980000" fill="red">
  <title>Tianjin</title>
</circle><line x1="1597.959961" y1="1999.959961" x2="1266.959961" y2="1873.959961" stroke="red" stroke-width="6.660000" />
<circle cx="1135.959961" cy="1643.959961" r="19.980000" fill="red">
  <title>New York</title>
</circle><line x1="1266.959961" y1="1873.959961" x2="1135.959961" y2="1643.959961" stroke="red" stroke-width="6.660000" />
<circle cx="545.960022" cy="1564.959961" r="19.980000" fill="red">
  <title>Mexico City</title>
</circle><line x1="1135.959961" y1="1643.959961" x2="545.960022" y2="1564.959961" stroke="red" stroke-width="6.660000" />
</svg>
