<?xml version="1.0" encoding="UTF-8" standalone="no"?>
<svg width="500" height="500" viewBox="0 0 2074.000000 2074.000000" xmlns="http://www.w3.org/2000/svg">
<rect x="19.000000" y="19.000000" width="2036.000000" height="2036.000000" fill="black" />
<circle cx="51.959999" cy="1747.959961" r="19.980000" fill="red">
  <title>Tokyo</title>
</circle><line x1="653.960022" y1="1629.959961" x2="51.959999" y2="1747.959961" stroke="red" stroke-width="6.660000" />
<circle cx="172.959991" cy="1627.959961" r="19.980000" fill="red">
  <title>Osaka</title>
</circle><line x1="51.959999" y1="1747.959961" x2="172.959991" y2="1627.959961" stroke="red" stroke-width="6.660000" />
<circle cx="388.959991" cy="1089.959961" r="19.980000" fill="red">
  <title>São Paulo</title>
</circle><line x1="172.959991" y1="1627.959961" x2="388.959991" y2="1089.959961" stroke="red" stroke-width="6.660000" />
<circle cx="659.960022" cy="945.960022" r="19.980000" fill="red">
  <title>Karachi</title>
</circle><line x1="388.959991" y1="1089.959961" x2="659.960022" y2="945.960022" stroke="red" stroke-width="6.660000" />
<circle cx="1160.959961" cy="182.959991" r="19.980000" fill="red">
  <title>New York</title>
</circle><line x1="659.960022" y1="945.960022" x2="1160.959961" y2="182.959991" stroke="red" stroke-width="6.660000" />
<circle cx="1543.959961" cy="579.960022" r="19.980000" fill="red">
  <title>Mexico City</title>
</circle><line x1="1160.959961" y1="182.959991" x2="1543.959961" y2="579.960022" stroke="red" stroke-width="6.660000" />
<circle cx="1850.959961" cy="758.960022" r="19.980000" fill="red">
  <title>Dhaka</title>
</circle><line x1="1543.959961" y1="579.960022" x2="1850.959961" y2="758.960022" stroke="red" stroke-width="6.660000" />
<circle cx="1808.959961" cy="870.960022" r="19.980000" fill="red">
  <title>Mumbai</title>
</circle><line x1="1850.959961" y1="758.960022" x2="1808.959961" y2="870.960022" stroke="red" stroke-width="6.660000" />
<circle cx="1348.959961" cy="934.960022" r="19.980000" fill="red">
  <title>Shanghai</title>
</circle><line x1="1808.959961" y1="870.960022" x2="1348.959961" y2="934.960022" stroke="red" stroke-width="6.660000" />
<circle cx="1666.959961" cy="1554.959961" r="19.980000" fill="red">
  <title>Cairo</title>
</circle><line x1="1348.959961" y1="934.960022" x2="1666.959961" y2="1554.959961" stroke="red" stroke-width="6.660000" />
<circle cx="1439.959961" cy="1945.959961" r="19.980000" fill="red">
  <title>Delhi</title>
</circle><line x1="1666.959961" y1="1554.959961" x2="1439.959961" y2="1945.959961" stroke="red" stroke-width="6.660000" />
<circle cx="653.960022" cy="1629.959961" r="19.980000" fill="red">
  <title>Beijing</title>
</circle><line x1="1439.959961" y1="1945.959961" x2="653.960022" y2="1629.959961" stroke="red" stroke-width="6.660000" />
</svg>
