<?xml version="1.0" encoding="UTF-8" standalone="no"?>
<svg width="500" height="500" viewBox="0 0 2074.000000 2074.000000" xmlns="http://www.w3.org/2000/svg">
<rect x="19.000000" y="19.000000" width="2036.000000" height="2036.000000" fill="black" />
<circle cx="617.960022" cy="1429.959961" r="19.980000" fill="red">
  <title>Tokyo</title>
</circle><line x1="1283.959961" y1="1404.959961" x2="617.960022" y2="1429.959961" stroke="red" stroke-width="6.660000" />
<circle cx="472.959991" cy="1912.959961" r="19.980000" fill="red">
  <title>Buenos Aires</title>
</circle><line x1="617.960022" y1="1429.959961" x2="472.959991" y2="1912.959961" stroke="red" stroke-width="6.660000" />
<circle cx="245.959991" cy="1762.959961" r="19.980000" fill="red">
  <title>Cairo</title>
</circle><line x1="472.959991" y1="1912.959961" x2="245.959991" y2="1762.959961" stroke="red" stroke-width="6.660000" />
<circle cx="149.959991" cy="1465.959961" r="19.980000" fill="red">
  <title>Dhaka</title>
</circle><line x1="245.959991" y1="1762.959961" x2="149.959991" y2="1465.959961" stroke="red" stroke-width="6.660000" />
<circle cx="110.959999" cy="1235.959961" r="19.980000" fill="red">
  <title>Karachi</title>
</circle><line x1="149.959991" y1="1465.959961" x2="110.959999" y2="1235.959961" stroke="red" stroke-width="6.660000" />
<circle cx="67.959999" cy="1022.960022" r="19.980000" fill="red">
  <title>Beijing</title>
</circle><line x1="110.959999" y1="1235.959961" x2="67.959999" y2="1022.960022" stroke="red" stroke-width="6.660000" />
<circle cx="63.959999" cy="743.960022" r="19.980000" fill="red">
  <title>Lagos</title>
</circle><line x1="67.959999" y1="1022.960022" x2="63.959999" y2="743.960022" stroke="red" stroke-width="6.660000" />
<circle cx="713.960022" cy="1157.959961" r="19.980000" fill="red">
  <title>Mumbai</title>
</circle><line x1="63.959999" y1="743.960022" x2="713.960022" y2="1157.959961" stroke="red" stroke-width="6.660000" />
<circle cx="1257.959961" cy="1167.959961" r="19.980000" fill="red">
  <title>New York</title>
</circle><line x1="713.960022" y1="1157.959961" x2="1257.959961" y2="1167.959961" stroke="red" stroke-width="6.660000" />
<circle cx="1388.959961" cy="743.960022" r="19.980000" fill="red">
  <title>São Paulo</title>
</circle><line x1="1257.959961" y1="1167.959961" x2="1388.959961" y2="743.960022" stroke="red" stroke-width="6.660000" />
<circle cx="1307.959961" cy="185.959991" r="19.980000" fill="red">
  <title>Chongqing</title>
</circle><line x1="1388.959961" y1="743.960022" x2="1307.959961" y2="185.959991" stroke="red" stroke-width="6.660000" />
<circle cx="1957.959961" cy="77.959999" r="19.980000" fill="red">
  <title>Kolkata</title>
</circle><line x1="1307.959961" y1="185.959991" x2="1957.959961" y2="77.959999" stroke="red" stroke-width="6.660000" />
<circle cx="1454.959961" cy="950.960022" r="19.980000" fill="red">
  <title>Mexico City</title>
</circle><line x1="1957.959961" y1="77.959999" x2="1454.959961" y2="950.960022" stroke="red" stroke-width="6.660000" />
<circle cx="1498.959961" cy="1520.959961" r="19.980000" fill="red">
  <title>Shanghai</title>
</circle><line x1="1454.959961" y1="950.960022" x2="1498.959961" y2="1520.959961" stroke="red" stroke-width="6.660000" />
<circle cx="1498.959961" cy="1892.959961" r="19.980000" fill="red">
  <title>Istanbul</title>
</circle><line x1="1498.959961" y1="1520.959961" x2="1498.959961" y2="1892.959961" stroke="red" stroke-width="6.660000" />
<circle cx="1484.959961" cy="2023.959961" r="19.980000" fill="red">
  <title>Delhi</title>
</circle><line x1="1498.959961" y1="1892.959961" x2="1484.959961" y2="2023.959961" stroke="red" stroke-width="6.660000" />
<circle cx="1561.959961" cy="1637.959961" r="19.980000" fill="red">
  <title>Osaka</title>
</circle><line x1="1484.959961" y1="2023.959961" x2="1561.959961" y2="1637.959961" stroke="red" stroke-width="6.660000" />
<circle cx="1283.959961" cy="1404.959961" r="19.980000" fill="red">
  <title>Manila</title>
</circle><line x1="1561.959961" y1="1637.959961" x2="1283.959961" y2="1404.959961" stroke="red" stroke-width="6.660000" />
</svg>
