<?xml version="1.0" encoding="UTF-8" standalone="no"?>
<svg width="500" height="500" viewBox="0 0 2074.000000 2074.000000" xmlns="http://www.w3.org/2000/svg">
<rect x="19.000000" y="19.000000" width="2036.000000" height="2036.000000" fill="black" />
<circle cx="392.959991" cy="1815.959961" r="19.980000" fill="red">
  <title>Tokyo</title>
</circle><line x1="1448.959961" y1="1982.959961" x2="392.959991" y2="1815.959961" stroke="red" stroke-width="6.660000" />
<circle cx="199.959991" cy="1063.959961" r="19.980000" fill="red">
  <title>Delhi</title>
</circle><line x1="392.959991" y1="1815.959961" x2="199.959991" y2="1063.959961" stroke="red" stroke-width="6.660000" />
<circle cx="939.960022" cy="515.960022" r="19.980000" fill="red">
  <title>Mexico City</title>
</circle><line x1="199.959991" y1="1063.959961" x2="939.960022" y2="515.960022" stroke="red" stroke-width="6.660000" />
<circle cx="1923.959961" cy="1296.959961" r="19.980000" fill="red">
  <title>São Paulo</title>
</circle><line x1="939.960022" y1="515.960022" x2="1923.959961" y2="1296.959961" stroke="red" stroke-width="6.660000" />
<circle cx="1509.959961" cy="1743.959961" r="19.980000" fill="red">
  <title>Shanghai</title>
</circle><line x1="1923.959961" y1="1296.959961" x2="1509.959961" y2="1743.959961" stroke="red" stroke-width="6.660000" />
<circle cx="1468.959961" cy="1745.959961" r="19.980000" fill="red">
  <title>Mumbai</title>
</circle><line x1="1509.959961" y1="1743.959961" x2="1468.959961" y2="1745.959961" stroke="red" stroke-width="6.660000" />
<circle cx="1448.959961" cy="1982.959961" r="19.980000" fill="red">
  <title>Cairo</title>
</circle><line x1="1468.959961" y1="1745.959961" x2="1448.959961" y2="1982.959961" stroke="red" stroke-width="6.660000" />
</svg>
