<?xml version="1.0" encoding="UTF-8" standalone="no"?>
<svg width="500" height="500" viewBox="0 0 2074.000000 2074.000000" xmlns="http://www.w3.org/2000/svg">
<rect x="19.000000" y="19.000000" width="2036.000000" height="2036.000000" fill="black" />
<circle cx="1976.959961" cy="1854.959961" r="19.980000" fill="red">
  <title>Tokyo</title>
</circle><line x1="1275.959961" y1="1947.959961" x2="1976.959961" y2="1854.959961" stroke="red" stroke-width="6.660000" />
<circle cx="1897.959961" cy="1559.959961" r="19.980000" fill="red">
  <title>Mexico City</title>
</circle><line x1="1976.959961" y1="1854.959961" x2="1897.959961" y2="1559.959961" stroke="red" stroke-width="6.660000" />
<circle cx="1352.959961" cy="1007.960022" r="19.980000" fill="red">
  <title>São Paulo</title>
</circle><line x1="1897.959961" y1="1559.959961" x2="1352.959961" y2="1007.960022" stroke="red" stroke-width="6.660000" />
<circle cx="1570.959961" cy="54.959999" r="19.980000" fill="red">
  <title>Delhi</title>
</circle><line x1="1352.959961" y1="1007.960022" x2="1570.959961" y2="54.959999" stroke="red" stroke-width="6.660000" />
<circle cx="674.960022" cy="489.959991" r="19.980000" fill="red">
  <title>Shanghai</title>
</circle><line x1="1570.959961" y1="54.959999" x2="674.960022" y2="489.959991" stroke="red" stroke-width="6.660000" />
<circle cx="257.959991" cy="1556.959961" r="19.980000" fill="red">
  <title>Mumbai</title>
</circle><line x1="674.960022" y1="489.959991" x2="257.959991" y2="1556.959961" stroke="red" stroke-width="6.660000" />
<circle cx="1082.959961" cy="1935.959961" r="19.980000" fill="red">
  <title>Beijing</title>
</circle><line x1="257.959991" y1="1556.959961" x2="1082.959961" y2="1935.959961" stroke="red" stroke-width="6.660000" />
<circle cx="1275.959961" cy="1947.959961" r="19.980000" fill="red">
  <title>Cairo</title>
</circle><line x1="1082.959961" y1="1935.959961" x2="1275.959961" y2="1947.959961" stroke="red" stroke-width="6.660000" />
</svg>
