<?xml version="1.0" encoding="UTF-8" standalone="no"?>
<svg width="500" height="500" viewBox="0 0 2074.000000 2074.000000" xmlns="http://www.w3.org/2000/svg">
<rect x="19.000000" y="19.000000" width="2036.000000" height="2036.000000" fill="black" />
<circle cx="591.960022" cy="1083.959961" r="19.980000" fill="red">
  <title>Tokyo</title>
</circle><line x1="525.960022" y1="1134.959961" x2="591.960022" y2="1083.959961" stroke="red" stroke-width="6.660000" />
<circle cx="279.959991" cy="446.959991" r="19.980000" fill="red">
  <title>Osaka</title>
</circle><line x1="591.960022" y1="1083.959961" x2="279.959991" y2="446.959991" stroke="red" stroke-width="6.660000" />
<circle cx="384.959991" cy="319.959991" r="19.980000" fill="red">
  <title>Cairo</title>
</circle><line x1="279.959991" y1="446.959991" x2="384.959991" y2="319.959991" stroke="red" stroke-width="6.660000" />
<circle cx="1088.959961" cy="380.959991" r="19.980000" fill="red">
  <title>Mumbai</title>
</circle><line x1="384.959991" y1="319.959991" x2="1088.959961" y2="380.959991" stroke="red" stroke-width="6.660000" />
<circle cx="1421.959961" cy="824.960022" r="19.980000" fill="red">
  <title>Dhaka</title>
</circle><line x1="1088.959961" y1="380.959991" x2="1421.959961" y2="824.960022" stroke="red" stroke-width="6.660000" />
<circle cx="1373.959961" cy="1009.960022" r="19.980000" fill="red">
  <title>São Paulo</title>
</circle><line x1="1421.959961" y1="824.960022" x2="1373.959961" y2="1009.960022" stroke="red" stroke-width="6.660000" />
<circle cx="1574.959961" cy="1024.959961" r="19.980000" fill="red">
  <title>Chongqing</title>
</circle><line x1="1373.959961" y1="1009.960022" x2="1574.959961" y2="1024.959961" stroke="red" stroke-width="6.660000" />
<circle cx="1855.959961" cy="1145.959961" r="19.980000" fill="red">
  <title>Istanbul</title>
</circle><line x1="1574.959961" y1="1024.959961" x2="1855.959961" y2="1145.959961" stroke="red" stroke-width="6.660000" />
<circle cx="1518.959961" cy="1342.959961" r="19.980000" fill="red">
  <title>Shanghai</title>
</circle><line x1="1855.959961" y1="1145.959961" x2="1518.959961" y2="1342.959961" stroke="red" stroke-width="6.660000" />
<circle cx="1374.959961" cy="1311.959961" r="19.980000" fill="red">
  <title>Beijing</title>
</circle><line x1="1518.959961" y1="1342.959961" x2="1374.959961" y2="1311.959961" stroke="red" stroke-width="6.660000" />
<circle cx="1402.959961" cy="1641.959961" r="19.980000" fill="red">
  <title>Delhi</title>
</circle><line x1="1374.959961" y1="1311.959961" x2="1402.959961" y2="1641.959961" stroke="red" stroke-width="6.660000" />
<circle cx="1007.960022" cy="1865.959961" r="19.980000" fill="red">
  <title>New York</title>
</circle><line x1="1402.959961" y1="1641.959961" x2="1007.960022" y2="1865.959961" stroke="red" stroke-width="6.660000" />
<circle cx="618.960022" cy="1724.959961" r="19.980000" fill="red">
  <title>Mexico City</title>
</circle><line x1="1007.960022" y1="1865.959961" x2="618.960022" y2="1724.959961" stroke="red" stroke-width="6.660000" />
<circle cx="526.960022" cy="1500.959961" r="19.980000" fill="red">
  <title>Buenos Aires</title>
</circle><line x1="618.960022" y1="1724.959961" x2="526.960022" y2="1500.959961" stroke="red" stroke-width="6.660000" />
<circle cx="525.960022" cy="1134.959961" r="19.980000" fill="red">
  <title>Karachi</title>
</circle><line x1="526.960022" y1="1500.959961" x2="525.960022" y2="1134.959961" stroke="red" stroke-width="6.660000" />
</svg>
