<?xml version="1.0" encoding="UTF-8" standalone="no"?>
<svg width="500" height="500" viewBox="0 0 2074.000000 2074.000000" xmlns="http://www.w3.org/2000/svg">
<rect x="19.000000" y="19.000000" width="2036.000000" height="2036.000000" fill="black" />
<circle cx="1615.959961" cy="367.959991" r="19.980000" fill="red">
  <title>Tokyo</title>
</circle><line x1="876.960022" y1="605.960022" x2="1615.959961" y2="367.959991" stroke="red" stroke-width="6.660000" />
<circle cx="1935.959961" cy="309.959991" r="19.980000" fill="red">
  <title>São Paulo</title>
</circle><line x1="1615.959961" y1="367.959991" x2="1935.959961" y2="309.959991" stroke="red" stroke-width="6.660000" />
<circle cx="2006.959961" cy="825.960022" r="19.980000" fill="red">
  <title>Cairo</title>
</circle><line x1="1935.959961" y1="309.959991" x2="2006.959961" y2="825.960022" stroke="red" stroke-width="6.660000" />
<circle cx="907.960022" cy="841.960022" r="19.980000" fill="red">
  <title>Mumbai</title>
</circle><line x1="2006.959961" y1="825.960022" x2="907.960022" y2="841.960022" stroke="red" stroke-width="6.660000" />
<circle cx="615.960022" cy="1720.959961" r="19.980000" fill="red">
  <title>Shanghai</title>
</circle><line x1="907.960022" y1="841.960022" x2="615.960022" y2="1720.959961" stroke="red" stroke-width="6.660000" />
<circle cx="826.960022" cy="1963.959961" r="19.980000" fill="red">
  <title>Delhi</title>
</circle><line x1="615.960022" y1="1720.959961" x2="826.960022" y2="1963.959961" stroke="red" stroke-width="6.660000" />
<circle cx="190.959991" cy="1727.959961" r="19.980000" fill="red">
  <title>Beijing</title>
</circle><line x1="826.960022" y1="1963.959961" x2="190.959991" y2="1727.959961" stroke="red" stroke-width="6.660000" />
<circle cx="351.959991" cy="1192.959961" r="19.980000" fill="red">
  <title>Mexico City</title>
</circle><line x1="190.959991" y1="1727.959961" x2="351.959991" y2="1192.959961" stroke="red" stroke-width="6.660000" />
<circle cx="442.959991" cy="484.959991" r="19.980000" fill="red">
  <title>Dhaka</title>
</circle><line x1="351.959991" y1="1192.959961" x2="442.959991" y2="484.959991" stroke="red" stroke-width="6.660000" />
<circle cx="876.960022" cy="605.960022" r="19.980000" fill="red">
  <title>Osaka</title>
</circle><line x1="442.959991" y1="484.959991" x2="876.960022" y2="605.960022" stroke="red" stroke-width="6.660000" />
</svg>
