<?xml version="1.0" encoding="UTF-8" standalone="no"?>
<svg width="500" height="500" viewBox="0 0 2074.000000 2074.000000" xmlns="http://www.w3.org/2000/svg">
<rect x="19.000000" y="19.000000" width="2036.000000" height="2036.000000" fill="black" />
<circle cx="1166.959961" cy="1048.959961" r="19.980000" fill="red">
  <title>Tokyo</title>
</circle><line x1="630.960022" y1="183.959991" x2="1166.959961" y2="1048.959961" stroke="red" stroke-width="6.660000" />
<circle cx="715.960022" cy="1534.959961" r="19.980000" fill="red">
  <title>Delhi</title>
</circle><line x1="1166.959961" y1="1048.959961" x2="715.960022" y2="1534.959961" stroke="red" stroke-width="6.660000" />
<circle cx="907.960022" cy="1066.959961" r="19.980000" fill="red">
  <title>São Paulo</title>
</circle><line x1="715.960022" y1="1534.959961" x2="907.960022" y2="1066.959961" stroke="red" stroke-width="6.660000" />
<circle cx="630.960022" cy="183.959991" r="19.980000" fill="red">
  <title>Shanghai</title>
</circle><line x1="907.960022" y1="1066.959961" x2="630.960022" y2="183.959991" stroke="red" stroke-width="6.660000" />
</svg>
