<?xml version="1.0" encoding="UTF-8" standalone="no"?>
<svg width="500" height="500" viewBox="0 0 2074.000000 2074.000000" xmlns="http://www.w3.org/2000/svg">
<rect x="19.000000" y="19.000000" width="2036.000000" height="2036.000000" fill="black" />
<circle cx="1534.959961" cy="936.960022" r="19.980000" fill="red">
  <title>Tokyo</title>
</circle><line x1="1975.959961" y1="124.959999" x2="1534.959961" y2="936.960022" stroke="red" stroke-width="6.660000" />
<circle cx="920.960022" cy="1588.959961" r="19.980000" fill="red">
  <title>Delhi</title>
</circle><line x1="1534.959961" y1="936.960022" x2="920.960022" y2="1588.959961" stroke="red" stroke-width="6.660000" />
<circle cx="326.959991" cy="828.960022" r="19.980000" fill="red">
  <title>Shanghai</title>
</circle><line x1="920.960022" y1="1588.959961" x2="326.959991" y2="828.960022" stroke="red" stroke-width="6.660000" />
<circle cx="1975.959961" cy="124.959999" r="19.980000" fill="red">
  <title>São Paulo</title>
</circle><line x1="326.959991" y1="828.960022" x2="1975.959961" y2="124.959999" stroke="red" stroke-width="6.660000" />
</svg>
