<?xml version="1.0" encoding="UTF-8" standalone="no"?>
<svg width="500" height="500" viewBox="0 0 2074.000000 2074.000000" xmlns="http://www.w3.org/2000/svg">
<rect x="19.000000" y="19.000000" width="2036.000000" height="2036.000000" fill="black" />
<circle cx="672.960022" cy="780.960022" r="19.980000" fill="red">
  <title>Tokyo</title>
</circle><line x1="1125.959961" y1="870.960022" x2="672.960022" y2="780.960022" stroke="red" stroke-width="6.660000" />
<circle cx="665.960022" cy="261.959991" r="19.980000" fill="red">
  <title>Delhi</title>
</circle><line x1="672.960022" y1="780.960022" x2="665.960022" y2="261.959991" stroke="red" stroke-width="6.660000" />
<circle cx="473.959991" cy="513.960022" r="19.980000" fill="red">
  <title>São Paulo</title>
</circle><line x1="665.960022" y1="261.959991" x2="473.959991" y2="513.960022" stroke="red" stroke-width="6.660000" />
<circle cx="597.960022" cy="927.960022" r="19.980000" fill="red">
  <title>Mexico City</title>
</circle><line x1="473.959991" y1="513.960022" x2="597.960022" y2="927.960022" stroke="red" stroke-width="6.660000" />
<circle cx="365.959991" cy="1511.959961" r="19.980000" fill="red">
  <title>Dhaka</title>
</circle><line x1="597.960022" y1="927.960022" x2="365.959991" y2="1511.959961" stroke="red" stroke-width="6.660000" />
<circle cx="786.960022" cy="1542.959961" r="19.980000" fill="red">
  <title>Chongqing</title>
</circle><line x1="365.959991" y1="1511.959961" x2="786.960022" y2="1542.959961" stroke="red" stroke-width="6.660000" />
<circle cx="1186.959961" cy="2027.959961" r="19.980000" fill="red">
  <title>Shanghai</title>
</circle><line x1="786.960022" y1="1542.959961" x2="1186.959961" y2="2027.959961" stroke="red" stroke-width="6.660000" />
<circle cx="1592.959961" cy="1798.959961" r="19.980000" fill="red">
  <title>Beijing</title>
</circle><line x1="1186.959961" y1="2027.959961" x2="1592.959961" y2="1798.959961" stroke="red" stroke-width="6.660000" />
<circle cx="1834.959961" cy="1449.959961" r="19.980000" fill="red">
  <title>Karachi</title>
</circle><line x1="1592.959961" y1="1798.959961" x2="1834.959961" y2="1449.959961" stroke="red" stroke-width="6.660000" />
<circle cx="1979.959961" cy="648.960022" r="19.980000" fill="red">
  <title>Mumbai</title>
</circle><line x1="1834.959961" y1="1449.959961" x2="1979.959961" y2="648.960022" stroke="red" stroke-width="6.660000" />
<circle cx="1916.959961" cy="110.959999" r="19.980000" fill="red">
  <title>Cairo</title>
</circle><line x1="1979.959961" y1="648.960022" x2="1916.959961" y2="110.959999" stroke="red" stroke-width="6.660000" />
<circle cx="1815.959961" cy="595.960022" r="19.980000" fill="red">
  <title>Buenos Aires</title>
</circle><line x1="1916.959961" y1="110.959999" x2="1815.959961" y2="595.960022" stroke="red" stroke-width="6.660000" />
<circle cx="1287.959961" cy="824.960022" r="19.980000" fill="red">
  <title>Osaka</title>
</circle><line x1="1815.959961" y1="595.960022" x2="1287.959961" y2="824.960022" stroke="red" stroke-width="6.660000" />
<circle cx="1125.959961" cy="870.960022" r="19.980000" fill="red">
  <title>New York</title>
</circle><line x1="1287.959961" y1="824.960022" x2="1125.959961" y2="870.960022" stroke="red" stroke-width="6.660000" />
</svg>
