<?xml version="1.0" encoding="UTF-8" standalone="no"?>
<svg width="500" height="500" viewBox="0 0 2074.000000 2074.000000" xmlns="http://www.w3.org/2000/svg">
<rect x="19.000000" y="19.000000" width="2036.000000" height="2036.000000" fill="black" />
<circle cx="1612.959961" cy="545.960022" r="19.980000" fill="red">
  <title>Tokyo</title>
</circle><line x1="1027.959961" y1="380.959991" x2="1612.959961" y2="545.960022" stroke="red" stroke-width="6.660000" />
<circle cx="1840.959961" cy="974.960022" r="19.980000" fill="red">
  <title>Mexico City</title>
</circle><line x1="1612.959961" y1="545.960022" x2="1840.959961" y2="974.960022" stroke="red" stroke-width="6.660000" />
<circle cx="1613.959961" cy="1432.959961" r="19.980000" fill="red">
  <title>Dhaka</title>
</circle><line x1="1840.959961" y1="974.960022" x2="1613.959961" y2="1432.959961" stroke="red" stroke-width="6.660000" />
<circle cx="1490.959961" cy="2007.959961" r="19.980000" fill="red">
  <title>Cairo</title>
</circle><line x1="1613.959961" y1="1432.959961" x2="1490.959961" y2="2007.959961" stroke="red" stroke-width="6.660000" />
<circle cx="526.960022" cy="1606.959961" r="19.980000" fill="red">
  <title>Mumbai</title>
</circle><line x1="1490.959961" y1="2007.959961" x2="526.960022" y2="1606.959961" stroke="red" stroke-width="6.660000" />
<circle cx="75.959999" cy="1432.959961" r="19.980000" fill="red">
  <title>Shanghai</title>
</circle><line x1="526.960022" y1="1606.959961" x2="75.959999" y2="1432.959961" stroke="red" stroke-width="6.660000" />
<circle cx="221.959991" cy="1346.959961" r="19.980000" fill="red">
  <title>Delhi</title>
</circle><line x1="75.959999" y1="1432.959961" x2="221.959991" y2="1346.959961" stroke="red" stroke-width="6.660000" />
<circle cx="428.959991" cy="680.960022" r="19.980000" fill="red">
  <title>São Paulo</title>
</circle><line x1="221.959991" y1="1346.959961" x2="428.959991" y2="680.960022" stroke="red" stroke-width="6.660000" />
<circle cx="130.959991" cy="86.959999" r="19.980000" fill="red">
  <title>Osaka</title>
</circle><line x1="428.959991" y1="680.960022" x2="130.959991" y2="86.959999" stroke="red" stroke-width="6.660000" />
<circle cx="1027.959961" cy="380.959991" r="19.980000" fill="red">
  <title>Beijing</title>
</circle><line x1="130.959991" y1="86.959999" x2="1027.959961" y2="380.959991" stroke="red" stroke-width="6.660000" />
</svg>
