<?xml version="1.0" encoding="UTF-8" standalone="no"?>
<svg width="500" height="500" viewBox="0 0 2074.000000 2074.000000" xmlns="http://www.w3.org/2000/svg">
<rect x="19.000000" y="19.000000" width="2036.000000" height="2036.000000" fill="black" />
<circle cx="1733.959961" cy="538.960022" r="19.980000" fill="red">
  <title>Tokyo</title>
</circle><line x1="1538.959961" y1="1682.959961" x2="1733.959961" y2="538.960022" stroke="red" stroke-width="6.660000" />
<circle cx="703.960022" cy="305.959991" r="19.980000" fill="red">
  <title>Mexico City</title>
</circle><line x1="1733.959961" y1="538.960022" x2="703.960022" y2="305.959991" stroke="red" stroke-width="6.660000" />
<circle cx="265.959991" cy="1361.959961" r="19.980000" fill="red">
  <title>São Paulo</title>
</circle><line x1="703.960022" y1="305.959991" x2="265.959991" y2="1361.959961" stroke="red" stroke-width="6.660000" />
<circle cx="1310.959961" cy="1989.959961" r="19.980000" fill="red">
  <title>Shanghai</title>
</circle><line x1="265.959991" y1="1361.959961" x2="1310.959961" y2="1989.959961" stroke="red" stroke-width="6.660000" />
<circle cx="1692.959961" cy="1860.959961" r="19.980000" fill="red">
  <title>Delhi</title>
</circle><line x1="1310.959961" y1="1989.959961" x2="1692.959961" y2="1860.959961" stroke="red" stroke-width="6.660000" />
<circle cx="1538.959961" cy="1682.959961" r="19.980000" fill="red">
  <title>Cairo</title>
</circle><line x1="1692.959961" y1="1860.959961" x2="1538.959961" y2="1682.959961" stroke="red" stroke-width="6.660000" />
</svg>
