<?xml version="1.0" encoding="UTF-8" standalone="no"?>
<svg width="500" height="500" viewBox="0 0 2074.000000 2074.000000" xmlns="http://www.w3.org/2000/svg">
<rect x="19.000000" y="19.000000" width="2036.000000" height="2036.000000" fill="black" />
<circle cx="1328.959961" cy="1114.959961" r="19.980000" fill="red">
  <title>Tokyo</title>
</circle><line x1="1514.959961" y1="1460.959961" x2="1328.959961" y2="1114.959961" stroke="red" stroke-width="6.660000" />
<circle cx="1622.959961" cy="941.960022" r="19.980000" fill="red">
  <title>Buenos Aires</title>
</circle><line x1="1328.959961" y1="1114.959961" x2="1622.959961" y2="941.960022" stroke="red" stroke-width="6.660000" />
<circle cx="1622.959961" cy="860.960022" r="19.980000" fill="red">
  <title>São Paulo</title>
</circle><line x1="1622.959961" y1="941.960022" x2="1622.959961" y2="860.960022" stroke="red" stroke-width="6.660000" />
<circle cx="1607.959961" cy="624.960022" r="19.980000" fill="red">
  <title>Karachi</title>
</circle><line x1="1622.959961" y1="860.960022" x2="1607.959961" y2="624.960022" stroke="red" stroke-width="6.660000" />
<circle cx="1554.959961" cy="325.959991" r="19.980000" fill="red">
  <title>Osaka</title>
</circle><line x1="1607.959961" y1="624.960022" x2="1554.959961" y2="325.959991" stroke="red" stroke-width="6.660000" />
<circle cx="561.960022" cy="75.959999" r="19.980000" fill="red">
  <title>Cairo</title>
</circle><line x1="1554.959961" y1="325.959991" x2="561.960022" y2="75.959999" stroke="red" stroke-width="6.660000" />
<circle cx="383.959991" cy="47.959999" r="19.980000" fill="red">
  <title>Dhaka</title>
</circle><line x1="561.960022" y1="75.959999" x2="383.959991" y2="47.959999" stroke="red" stroke-width="6.660000" />
<circle cx="668.960022" cy="905.960022" r="19.980000" fill="red">
  <title>Shanghai</title>
</circle><line x1="383.959991" y1="47.959999" x2="668.960022" y2="905.960022" stroke="red" stroke-width="6.660000" />
<circle cx="838.960022" cy="1022.960022" r="19.980000" fill="red">
  <title>New York</title>
</circle><line x1="668.960022" y1="905.960022" x2="838.960022" y2="1022.960022" stroke="red" stroke-width="6.660000" />
<circle cx="630.960022" cy="1432.959961" r="19.980000" fill="red">
  <title>Manila</title>
</circle><line x1="838.960022" y1="1022.960022" x2="630.960022" y2="1432.959961" stroke="red" stroke-width="6.660000" />
<circle cx="667.960022" cy="1541.959961" r="19.980000" fill="red">
  <title>Beijing</title>
</circle><line x1="630.960022" y1="1432.959961" x2="667.960022" y2="1541.959961" stroke="red" stroke-width="6.660000" />
<circle cx="170.959991" cy="1553.959961" r="19.980000" fill="red">
  <title>Istanbul</title>
</circle><line x1="667.960022" y1="1541.959961" x2="170.959991" y2="1553.959961" stroke="red" stroke-width="6.660000" />
<circle cx="222.959991" cy="2011.959961" r="19.980000" fill="red">
  <title>Mexico City</title>
</circle><line x1="170.959991" y1="1553.959961" x2="222.959991" y2="2011.959961" stroke="red" stroke-width="6.660000" />
<circle cx="498.959991" cy="1971.959961" r="19.980000" fill="red">
  <title>Mumbai</title>
</circle><line x1="222.959991" y1="2011.959961" x2="498.959991" y2="1971.959961" stroke="red" stroke-width="6.660000" />
<circle cx="1153.959961" cy="1922.959961" r="19.980000" fill="red">
  <title>Chongqing</title>
</circle><line x1="498.959991" y1="1971.959961" x2="1153.959961" y2="1922.959961" stroke="red" stroke-width="6.660000" />
<circle cx="1956.959961" cy="1740.959961" r="19.980000" fill="red">
  <title>Delhi</title>
</circle><line x1="1153.959961" y1="1922.959961" x2="1956.959961" y2="1740.959961" stroke="red" stroke-width="6.660000" />
<circle cx="1514.959961" cy="1460.959961" r="19.980000" fill="red">
  <title>Kolkata</title>
</circle><line x1="1956.959961" y1="1740.959961" x2="1514.959961" y2="1460.959961" stroke="red" stroke-width="6.660000" />
</svg>
