<?xml version="1.0" encoding="UTF-8" standalone="no"?>
<svg width="500" height="500" viewBox="0 0 2074.000000 2074.000000" xmlns="http://www.w3.org/2000/svg">
<rect x="19.000000" y="19.000000" width="2036.000000" height="2036.000000" fill="black" />
<circle cx="643.960022" cy="477.959991" r="19.980000" fill="red">
  <title>Tokyo</title>
</circle><line x1="41.959999" y1="984.960022" x2="643.960022" y2="477.959991" stroke="red" stroke-width="6.660000" />
<circle cx="1585.959961" cy="583.960022" r="19.980000" fill="red">
  <title>São Paulo</title>
</circle><line x1="643.960022" y1="477.959991" x2="1585.959961" y2="583.960022" stroke="red" stroke-width="6.660000" />
<circle cx="807.960022" cy="65.959999" r="19.980000" fill="red">
  <title>Delhi</title>
</circle><line x1="1585.959961" y1="583.960022" x2="807.960022" y2="65.959999" stroke="red" stroke-width="6.660000" />
<circle cx="639.960022" cy="63.959999" r="19.980000" fill="red">
  <title>Mexico City</title>
</circle><line x1="807.960022" y1="65.959999" x2="639.960022" y2="63.959999" stroke="red" stroke-width="6.660000" />
<circle cx="241.959991" cy="87.959999" r="19.980000" fill="red">
  <title>Shanghai</title>
</circle><line x1="639.960022" y1="63.959999" x2="241.959991" y2="87.959999" stroke="red" stroke-width="6.660000" />
<circle cx="41.959999" cy="984.960022" r="19.980000" fill="red">
  <title>Cairo</title>
</circle><line x1="241.959991" y1="87.959999" x2="41.959999" y2="984.960022" stroke="red" stroke-width="6.660000" />
</svg>
