<?xml version="1.0" encoding="UTF-8" standalone="no"?>
<svg width="500" height="500" viewBox="0 0 2074.000000 2074.000000" xmlns="http://www.w3.org/2000/svg">
<rect x="19.000000" y="19.000000" width="2036.000000" height="2036.000000" fill="black" />
<circle cx="1508.959961" cy="714.960022" r="19.980000" fill="red">
  <title>Tokyo</title>
</circle><line x1="1459.959961" y1="844.960022" x2="1508.959961" y2="714.960022" stroke="red" stroke-width="6.660000" />
<circle cx="1494.959961" cy="607.960022" r="19.980000" fill="red">
  <title>Shanghai</title>
</circle><line x1="1508.959961" y1="714.960022" x2="1494.959961" y2="607.960022" stroke="red" stroke-width="6.660000" />
<circle cx="1956.959961" cy="532.960022" r="19.980000" fill="red">
  <title>Cairo</title>
</circle><line x1="1494.959961" y1="607.960022" x2="1956.959961" y2="532.960022" stroke="red" stroke-width="6.660000" />
<circle cx="1915.959961" cy="678.960022" r="19.980000" fill="red">
  <title>Osaka</title>
</circle><line x1="1956.959961" y1="532.960022" x2="1915.959961" y2="678.960022" stroke="red" stroke-width="6.660000" />
<circle cx="1796.959961" cy="1288.959961" r="19.980000" fill="red">
  <title>Karachi</title>
</circle><line x1="1915.959961" y1="678.960022" x2="1796.959961" y2="1288.959961" stroke="red" stroke-width="6.660000" />
<circle cx="1501.959961" cy="1669.959961" r="19.980000" fill="red">
  <title>Beijing</title>
</circle><line x1="1796.959961" y1="1288.959961" x2="1501.959961" y2="1669.959961" stroke="red" stroke-width="6.660000" />
<circle cx="1520.959961" cy="2031.959961" r="19.980000" fill="red">
  <title>Manila</title>
</circle><line x1="1501.959961" y1="1669.959961" x2="1520.959961" y2="2031.959961" stroke="red" stroke-width="6.660000" />
<circle cx="1206.959961" cy="1918.959961" r="19.980000" fill="red">
  <title>São Paulo</title>
</circle><line x1="1520.959961" y1="2031.959961" x2="1206.959961" y2="1918.959961" stroke="red" stroke-width="6.660000" />
<circle cx="1014.960022" cy="2012.959961" r="19.980000" fill="red">
  <title>Delhi</title>
</circle><line x1="1206.959961" y1="1918.959961" x2="1014.960022" y2="2012.959961" stroke="red" stroke-width="6.660000" />
<circle cx="1311.959961" cy="1722.959961" r="19.980000" fill="red">
  <title>Mumbai</title>
</circle><line x1="1014.960022" y1="2012.959961" x2="1311.959961" y2="1722.959961" stroke="red" stroke-width="6.660000" />
<circle cx="1124.959961" cy="1486.959961" r="19.980000" fill="red">
  <title>Chongqing</title>
</circle><line x1="1311.959961" y1="1722.959961" x2="1124.959961" y2="1486.959961" stroke="red" stroke-width="6.660000" />
<circle cx="886.960022" cy="1238.959961" r="19.980000" fill="red">
  <title>Mexico City</title>
</circle><line x1="1124.959961" y1="1486.959961" x2="886.960022" y2="1238.959961" stroke="red" stroke-width="6.660000" />
<circle cx="678.960022" cy="747.960022" r="19.980000" fill="red">
  <title>New York</title>
</circle><line x1="886.960022" y1="1238.959961" x2="678.960022" y2="747.960022" stroke="red" stroke-width="6.660000" />
<circle cx="910.960022" cy="754.960022" r="19.980000" fill="red">
  <title>Dhaka</title>
</circle><line x1="678.960022" y1="747.960022" x2="910.960022" y2="754.960022" stroke="red" stroke-width="6.660000" />
<circle cx="1055.959961" cy="930.960022" r="19.980000" fill="red">
  <title>Kolkata</title>
</circle><line x1="910.960022" y1="754.960022" x2="1055.959961" y2="930.960022" stroke="red" stroke-width="6.660000" />
<circle cx="1342.959961" cy="745.960022" r="19.980000" fill="red">
  <title>Buenos Aires</title>
</circle><line x1="1055.959961" y1="930.960022" x2="1342.959961" y2="745.960022" stroke="red" stroke-width="6.660000" />
<circle cx="1459.959961" cy="844.960022" r="19.980000" fill="red">
  <title>Istanbul</title>
</circle><line x1="1342.959961" y1="745.960022" x2="1459.959961" y2="844.960022" stroke="red" stroke-width="6.660000" />
</svg>
