<?xml version="1.0" encoding="UTF-8" standalone="no"?>
<svg width="500" height="500" viewBox="0 0 2074.000000 2074.000000" xmlns="http://www.w3.org/2000/svg">
<rect x="19.000000" y="19.000000" width="2036.000000" height="2036.000000" fill="black" />
<circle cx="1606.959961" cy="1577.959961" r="19.980000" fill="red">
  <title>Tokyo</title>
</circle><line x1="1578.959961" y1="1204.959961" x2="1606.959961" y2="1577.959961" stroke="red" stroke-width="6.660000" />
<circle cx="1579.959961" cy="1486.959961" r="19.980000" fill="red">
  <title>Mumbai</title>
</circle><line x1="1606.959961" y1="1577.959961" x2="1579.959961" y2="1486.959961" stroke="red" stroke-width="6.660000" />
<circle cx="1147.959961" cy="1316.959961" r="19.980000" fill="red">
  <title>Istanbul</title>
</circle><line x1="1579.959961" y1="1486.959961" x2="1147.959961" y2="1316.959961" stroke="red" stroke-width="6.660000" />
<circle cx="856.960022" cy="1406.959961" r="19.980000" fill="red">
  <title>Manila</title>
</circle><line x1="1147.959961" y1="1316.959961" x2="856.960022" y2="1406.959961" stroke="red" stroke-width="6.660000" />
<circle cx="790.960022" cy="1744.959961" r="19.980000" fill="red">
  <title>São Paulo</title>
</circle><line x1="856.960022" y1="1406.959961" x2="790.960022" y2="1744.959961" stroke="red" stroke-width="6.660000" />
<circle cx="898.960022" cy="2004.959961" r="19.980000" fill="red">
  <title>Osaka</title>
</circle><line x1="790.960022" y1="1744.959961" x2="898.960022" y2="2004.959961" stroke="red" stroke-width="6.660000" />
<circle cx="726.960022" cy="1646.959961" r="19.980000" fill="red">
  <title>Shanghai</title>
</circle><line x1="898.960022" y1="2004.959961" x2="726.960022" y2="1646.959961" stroke="red" stroke-width="6.660000" />
<circle cx="76.959999" cy="1511.959961" r="19.980000" fill="red">
  <title>Karachi</title>
</circle><line x1="726.960022" y1="1646.959961" x2="76.959999" y2="1511.959961" stroke="red" stroke-width="6.660000" />
<circle cx="91.959999" cy="1313.959961" r="19.980000" fill="red">
  <title>Buenos Aires</title>
</circle><line x1="76.959999" y1="1511.959961" x2="91.959999" y2="1313.959961" stroke="red" stroke-width="6.660000" />
<circle cx="98.959999" cy="1055.959961" r="19.980000" fill="red">
  <title>Mexico City</title>
</circle><line x1="91.959999" y1="1313.959961" x2="98.959999" y2="1055.959961" stroke="red" stroke-width="6.660000" />
<circle cx="481.959991" cy="716.960022" r="19.980000" fill="red">
  <title>Kolkata</title>
</circle><line x1="98.959999" y1="1055.959961" x2="481.959991" y2="716.960022" stroke="red" stroke-width="6.660000" />
<circle cx="839.960022" cy="397.959991" r="19.980000" fill="red">
  <title>Dhaka</title>
</circle><line x1="481.959991" y1="716.960022" x2="839.960022" y2="397.959991" stroke="red" stroke-width="6.660000" />
<circle cx="1323.959961" cy="385.959991" r="19.980000" fill="red">
  <title>Beijing</title>
</circle><line x1="839.960022" y1="397.959991" x2="1323.959961" y2="385.959991" stroke="red" stroke-width="6.660000" />
<circle cx="923.960022" cy="854.960022" r="19.980000" fill="red">
  <title>Chongqing</title>
</circle><line x1="1323.959961" y1="385.959991" x2="923.960022" y2="854.960022" stroke="red" stroke-width="6.660000" />
<circle cx="964.960022" cy="902.960022" r="19.980000" fill="red">
  <title>Delhi</title>
</circle><line x1="923.960022" y1="854.960022" x2="964.960022" y2="902.960022" stroke="red" stroke-width="6.660000" />
<circle cx="1085.959961" cy="1076.959961" r="19.980000" fill="red">
  <title>Cairo</title>
</circle><line x1="964.960022" y1="902.960022" x2="1085.959961" y2="1076.959961" stroke="red" stroke-width="6.660000" />
<circle cx="1578.959961" cy="1204.959961" r="19.980000" fill="red">
  <title>New York</title>
</circle><line x1="1085.959961" y1="1076.959961" x2="1578.959961" y2="1204.959961" stroke="red" stroke-width="6.660000" />
</svg>
