<?xml version="1.0" encoding="UTF-8" standalone="no"?>
<svg width="500" height="500" viewBox="0 0 2074.000000 2074.000000" xmlns="http://www.w3.org/2000/svg">
<rect x="19.000000" y="19.000000" width="2036.000000" height="2036.000000" fill="black" />
<circle cx="735.960022" cy="725.960022" r="19.980000" fill="red">
  <title>Tokyo</title>
</circle><line x1="969.960022" y1="1321.959961" x2="735.960022" y2="725.960022" stroke="red" stroke-width="6.660000" />
<circle cx="258.959991" cy="154.959991" r="19.980000" fill="red">
  <title>Delhi</title>
</circle><line x1="735.960022" y1="725.960022" x2="258.959991" y2="154.959991" stroke="red" stroke-width="6.660000" />
<circle cx="732.960022" cy="369.959991" r="19.980000" fill="red">
  <title>New York</title>
</circle><line x1="258.959991" y1="154.959991" x2="732.960022" y2="369.959991" stroke="red" stroke-width="6.660000" />
<circle cx="1115.959961" cy="585.960022" r="19.980000" fill="red">
  <title>Osaka</title>
</circle><line x1="732.960022" y1="369.959991" x2="1115.959961" y2="585.960022" stroke="red" stroke-width="6.660000" />
<circle cx="1405.959961" cy="835.960022" r="19.980000" fill="red">
  <title>Tianjin</title>
</circle><line x1="1115.959961" y1="585.960022" x2="1405.959961" y2="835.960022" stroke="red" stroke-width="6.660000" />
<circle cx="1564.959961" cy="169.959991" r="19.980000" fill="red">
  <title>Lagos</title>
</circle><line x1="1405.959961" y1="835.960022" x2="1564.959961" y2="169.959991" stroke="red" stroke-width="6.660000" />
<circle cx="1759.959961" cy="430.959991" r="19.980000" fill="red">
  <title>Cairo</title>
</circle><line x1="1564.959961" y1="169.959991" x2="1759.959961" y2="430.959991" stroke="red" stroke-width="6.660000" />
<circle cx="1977.959961" cy="686.960022" r="19.980000" fill="red">
  <title>Buenos Aires</title>
</circle><line x1="1759.959961" y1="430.959991" x2="1977.959961" y2="686.960022" stroke="red" stroke-width="6.660000" />
<circle cx="1876.959961" cy="1164.959961" r="19.980000" fill="red">
  <title>Shanghai</title>
</circle><line x1="1977.959961" y1="686.960022" x2="1876.959961" y2="1164.959961" stroke="red" stroke-width="6.660000" />
<circle cx="1981.959961" cy="1274.959961" r="19.980000" fill="red">
  <title>São Paulo</title>
</circle><line x1="1876.959961" y1="1164.959961" x2="1981.959961" y2="1274.959961" stroke="red" stroke-width="6.660000" />
<circle cx="1620.959961" cy="1254.959961" r="19.980000" fill="red">
  <title>Chongqing</title>
</circle><line x1="1981.959961" y1="1274.959961" x2="1620.959961" y2="1254.959961" stroke="red" stroke-width="6.660000" />
<circle cx="1236.959961" cy="1449.959961" r="19.980000" fill="red">
  <title>Kolkata</title>
</circle><line x1="1620.959961" y1="1254.959961" x2="1236.959961" y2="1449.959961" stroke="red" stroke-width="6.660000" />
<circle cx="1093.959961" cy="1948.959961" r="19.980000" fill="red">
  <title>Beijing</title>
</circle><line x1="1236.959961" y1="1449.959961" x2="1093.959961" y2="1948.959961" stroke="red" stroke-width="6.660000" />
<circle cx="753.960022" cy="1643.959961" r="19.980000" fill="red">
  <title>Istanbul</title>
</circle><line x1="1093.959961" y1="1948.959961" x2="753.960022" y2="1643.959961" stroke="red" stroke-width="6.660000" />
<circle cx="658.960022" cy="1595.959961" r="19.980000" fill="red">
  <title>Karachi</title>
</circle><line x1="753.960022" y1="1643.959961" x2="658.960022" y2="1595.959961" stroke="red" stroke-width="6.660000" />
<circle cx="422.959991" cy="1723.959961" r="19.980000" fill="red">
  <title>Dhaka</title>
</circle><line x1="658.960022" y1="1595.959961" x2="422.959991" y2="1723.959961" stroke="red" stroke-width="6.660000" />
<circle cx="330.959991" cy="1456.959961" r="19.980000" fill="red">
  <title>Manila</title>
</circle><line x1="422.959991" y1="1723.959961" x2="330.959991" y2="1456.959961" stroke="red" stroke-width="6.660000" />
<circle cx="291.959991" cy="1276.959961" r="19.980000" fill="red">
  <title>Mexico City</title>
</circle><line x1="330.959991" y1="1456.959961" x2="291.959991" y2="1276.959961" stroke="red" stroke-width="6.660000" />
<circle cx="583.960022" cy="1508.959961" r="19.980000" fill="red">
  <title>Rio de Janeiro</title>
</circle><line x1="291.959991" y1="1276.959961" x2="583.960022" y2="1508.959961" stroke="red" stroke-width="6.660000" />
<circle cx="969.960022" cy="1321.959961" r="19.980000" fill="red">
  <title>Mumbai</title>
</circle><line x1="583.960022" y1="1508.959961" x2="969.960022" y2="1321.959961" stroke="red" stroke-width="6.660000" />
</svg>
