<?xml version="1.0" encoding="UTF-8" standalone="no"?>
<svg width="500" height="500" viewBox="0 0 2074.000000 2074.000000" xmlns="http://www.w3.org/2000/svg">
<rect x="19.000000" y="19.000000" width="2036.000000" height="2036.000000" fill="black" />
<circle cx="1172.959961" cy="422.959991" r="19.980000" fill="red">
  <title>Tokyo</title>
</circle><line x1="1760.959961" y1="76.959999" x2="1172.959961" y2="422.959991" stroke="red" stroke-width="6.660000" />
<circle cx="945.960022" cy="869.960022" r="19.980000" fill="red">
  <title>São Paulo</title>
</circle><line x1="1172.959961" y1="422.959991" x2="945.960022" y2="869.960022" stroke="red" stroke-width="6.660000" />
<circle cx="631.960022" cy="891.960022" r="19.980000" fill="red">
  <title>Mexico City</title>
</circle><line x1="945.960022" y1="869.960022" x2="631.960022" y2="891.960022" stroke="red" stroke-width="6.660000" />
<circle cx="719.960022" cy="1173.959961" r="19.980000" fill="red">
  <title>Osaka</title>
</circle><line x1="631.960022" y1="891.960022" x2="719.960022" y2="1173.959961" stroke="red" stroke-width="6.660000" />
<circle cx="721.960022" cy="1209.959961" r="19.980000" fill="red">
  <title>Delhi</title>
</circle><line x1="719.960022" y1="1173.959961" x2="721.960022" y2="1209.959961" stroke="red" stroke-width="6.660000" />
<circle cx="982.960022" cy="1413.959961" r="19.980000" fill="red">
  <title>Shanghai</title>
</circle><line x1="721.960022" y1="1209.959961" x2="982.960022" y2="1413.959961" stroke="red" stroke-width="6.660000" />
<circle cx="950.960022" cy="1892.959961" r="19.980000" fill="red">
  <title>Mumbai</title>
</circle><line x1="982.960022" y1="1413.959961" x2="950.960022" y2="1892.959961" stroke="red" stroke-width="6.660000" />
<circle cx="2000.959961" cy="2018.959961" r="19.980000" fill="red">
  <title>Beijing</title>
</circle><line x1="950.960022" y1="1892.959961" x2="2000.959961" y2="2018.959961" stroke="red" stroke-width="6.660000" />
<circle cx="2006.959961" cy="186.959991" r="19.980000" fill="red">
  <title>Cairo</title>
</circle><line x1="2000.959961" y1="2018.959961" x2="2006.959961" y2="186.959991" stroke="red" stroke-width="6.660000" />
<circle cx="1760.959961" cy="76.959999" r="19.980000" fill="red">
  <title>Dhaka</title>
</circle><line x1="2006.959961" y1="186.959991" x2="1760.959961" y2="76.959999" stroke="red" stroke-width="6.660000" />
</svg>
