<?xml version="1.0" encoding="UTF-8" standalone="no"?>
<svg width="500" height="500" viewBox="0 0 2074.000000 2074.000000" xmlns="http://www.w3.org/2000/svg">
<rect x="19.000000" y="19.000000" width="2036.000000" height="2036.000000" fill="black" />
<circle cx="625.960022" cy="1751.959961" r="19.980000" fill="red">
  <title>Tokyo</title>
</circle><line x1="543.960022" y1="1692.959961" x2="625.960022" y2="1751.959961" stroke="red" stroke-width="6.660000" />
<circle cx="917.960022" cy="1580.959961" r="19.980000" fill="red">
  <title>Mumbai</title>
</circle><line x1="625.960022" y1="1751.959961" x2="917.960022" y2="1580.959961" stroke="red" stroke-width="6.660000" />
<circle cx="1057.959961" cy="1429.959961" r="19.980000" fill="red">
  <title>Lagos</title>
</circle><line x1="917.960022" y1="1580.959961" x2="1057.959961" y2="1429.959961" stroke="red" stroke-width="6.660000" />
<circle cx="1356.959961" cy="1727.959961" r="19.980000" fill="red">
  <title>New York</title>
</circle><line x1="1057.959961" y1="1429.959961" x2="1356.959961" y2="1727.959961" stroke="red" stroke-width="6.660000" />
<circle cx="1633.959961" cy="1392.959961" r="19.980000" fill="red">
  <title>Rio de Janeiro</title>
</circle><line x1="1356.959961" y1="1727.959961" x2="1633.959961" y2="1392.959961" stroke="red" stroke-width="6.660000" />
<circle cx="1362.959961" cy="652.960022" r="19.980000" fill="red">
  <title>Beijing</title>
</circle><line x1="1633.959961" y1="1392.959961" x2="1362.959961" y2="652.960022" stroke="red" stroke-width="6.660000" />
<circle cx="1779.959961" cy="141.959991" r="19.980000" fill="red">
  <title>Delhi</title>
</circle><line x1="1362.959961" y1="652.960022" x2="1779.959961" y2="141.959991" stroke="red" stroke-width="6.660000" />
<circle cx="1328.959961" cy="276.959991" r="19.980000" fill="red">
  <title>Osaka</title>
</circle><line x1="1779.959961" y1="141.959991" x2="1328.959961" y2="276.959991" stroke="red" stroke-width="6.660000" />
<circle cx="1132.959961" cy="497.959991" r="19.980000" fill="red">
  <title>Manila</title>
</circle><line x1="1328.959961" y1="276.959991" x2="1132.959961" y2="497.959991" stroke="red" stroke-width="6.660000" />
<circle cx="647.960022" cy="498.959991" r="19.980000" fill="red">
  <title>Karachi</title>
</circle><line x1="1132.959961" y1="497.959991" x2="647.960022" y2="498.959991" stroke="red" stroke-width="6.660000" />
<circle cx="755.960022" cy="954.960022" r="19.980000" fill="red">
  <title>Kolkata</title>
</circle><line x1="647.960022" y1="498.959991" x2="755.960022" y2="954.960022" stroke="red" stroke-width="6.660000" />
<circle cx="953.960022" cy="974.960022" r="19.980000" fill="red">
  <title>Chongqing</title>
</circle><line x1="755.960022" y1="954.960022" x2="953.960022" y2="974.960022" stroke="red" stroke-width="6.660000" />
<circle cx="792.960022" cy="1083.959961" r="19.980000" fill="red">
  <title>Cairo</title>
</circle><line x1="953.960022" y1="974.960022" x2="792.960022" y2="1083.959961" stroke="red" stroke-width="6.660000" />
<circle cx="376.959991" cy="1049.959961" r="19.980000" fill="red">
  <title>Mexico City</title>
</circle><line x1="792.960022" y1="1083.959961" x2="376.959991" y2="1049.959961" stroke="red" stroke-width="6.660000" />
<circle cx="335.959991" cy="1175.959961" r="19.980000" fill="red">
  <title>Shanghai</title>
</circle><line x1="376.959991" y1="1049.959961" x2="335.959991" y2="1175.959961" stroke="red" stroke-width="6.660000" />
<circle cx="367.959991" cy="1419.959961" r="19.980000" fill="red">
  <title>Istanbul</title>
</circle><line x1="335.959991" y1="1175.959961" x2="367.959991" y2="1419.959961" stroke="red" stroke-width="6.660000" />
<circle cx="373.959991" cy="1742.959961" r="19.980000" fill="red">
  <title>São Paulo</title>
</circle><line x1="367.959991" y1="1419.959961" x2="373.959991" y2="1742.959961" stroke="red" stroke-width="6.660000" />
<circle cx="113.959999" cy="2016.959961" r="19.980000" fill="red">
  <title>Dhaka</title>
</circle><line x1="373.959991" y1="1742.959961" x2="113.959999" y2="2016.959961" stroke="red" stroke-width="6.660000" />
<circle cx="543.960022" cy="1692.959961" r="19.980000" fill="red">
  <title>Buenos Aires</title>
</circle><line x1="113.959999" y1="2016.959961" x2="543.960022" y2="1692.959961" stroke="red" stroke-width="6.660000" />
</svg>
