<?xml version="1.0" encoding="UTF-8" standalone="no"?>
<svg width="500" height="500" viewBox="0 0 2074.000000 2074.000000" xmlns="http://www.w3.org/2000/svg">
<rect x="19.000000" y="19.000000" width="2036.000000" height="2036.000000" fill="black" />
<circle cx="1973.959961" cy="138.959991" r="19.980000" fill="red">
  <title>Tokyo</title>
</circle><line x1="1908.959961" y1="656.960022" x2="1973.959961" y2="138.959991" stroke="red" stroke-width="6.660000" />
<circle cx="1867.959961" cy="264.959991" r="19.980000" fill="red">
  <title>Mexico City</title>
</circle><line x1="1973.959961" y1="138.959991" x2="1867.959961" y2="264.959991" stroke="red" stroke-width="6.660000" />
<circle cx="1451.959961" cy="698.960022" r="19.980000" fill="red">
  <title>Tianjin</title>
</circle><line x1="1867.959961" y1="264.959991" x2="1451.959961" y2="698.960022" stroke="red" stroke-width="6.660000" />
<circle cx="1250.959961" cy="724.960022" r="19.980000" fill="red">
  <title>New York</title>
</circle><line x1="1451.959961" y1="698.960022" x2="1250.959961" y2="724.960022" stroke="red" stroke-width="6.660000" />
<circle cx="1303.959961" cy="619.960022" r="19.980000" fill="red">
  <title>Lagos</title>
</circle><line x1="1250.959961" y1="724.960022" x2="1303.959961" y2="619.960022" stroke="red" stroke-width="6.660000" />
<circle cx="1001.960022" cy="265.959991" r="19.980000" fill="red">
  <title>Istanbul</title>
</circle><line x1="1303.959961" y1="619.960022" x2="1001.960022" y2="265.959991" stroke="red" stroke-width="6.660000" />
<circle cx="751.960022" cy="406.959991" r="19.980000" fill="red">
  <title>Delhi</title>
</circle><line x1="1001.960022" y1="265.959991" x2="751.960022" y2="406.959991" stroke="red" stroke-width="6.660000" />
<circle cx="136.959991" cy="487.959991" r="19.980000" fill="red">
  <title>Beijing</title>
</circle><line x1="751.960022" y1="406.959991" x2="136.959991" y2="487.959991" stroke="red" stroke-width="6.660000" />
<circle cx="293.959991" cy="1087.959961" r="19.980000" fill="red">
  <title>Shanghai</title>
</circle><line x1="136.959991" y1="487.959991" x2="293.959991" y2="1087.959961" stroke="red" stroke-width="6.660000" />
<circle cx="364.959991" cy="1819.959961" r="19.980000" fill="red">
  <title>Manila</title>
</circle><line x1="293.959991" y1="1087.959961" x2="364.959991" y2="1819.959961" stroke="red" stroke-width="6.660000" />
<circle cx="910.960022" cy="1092.959961" r="19.980000" fill="red">
  <title>Buenos Aires</title>
</circle><line x1="364.959991" y1="1819.959961" x2="910.960022" y2="1092.959961" stroke="red" stroke-width="6.660000" />
<circle cx="964.960022" cy="1072.959961" r="19.980000" fill="red">
  <title>Osaka</title>
</circle><line x1="910.960022" y1="1092.959961" x2="964.960022" y2="1072.959961" stroke="red" stroke-width="6.660000" />
<circle cx="868.960022" cy="938.960022" r="19.980000" fill="red">
  <title>Rio de Janeiro</title>
</circle><line x1="964.960022" y1="1072.959961" x2="868.960022" y2="938.960022" stroke="red" stroke-width="6.660000" />
<circle cx="1106.959961" cy="936.960022" r="19.980000" fill="red">
  <title>Kolkata</title>
</circle><line x1="868.960022" y1="938.960022" x2="1106.959961" y2="936.960022" stroke="red" stroke-width="6.660000" />
<circle cx="1236.959961" cy="1099.959961" r="19.980000" fill="red">
  <title>Dhaka</title>
</circle><line x1="1106.959961" y1="936.960022" x2="1236.959961" y2="1099.959961" stroke="red" stroke-width="6.660000" />
<circle cx="1351.959961" cy="904.960022" r="19.980000" fill="red">
  <title>Karachi</title>
</circle><line x1="1236.959961" y1="1099.959961" x2="1351.959961" y2="904.960022" stroke="red" stroke-width="6.660000" />
<circle cx="1794.959961" cy="1289.959961" r="19.980000" fill="red">
  <title>Mumbai</title>
</circle><line x1="1351.959961" y1="904.960022" x2="1794.959961" y2="1289.959961" stroke="red" stroke-width="6.660000" />
<circle cx="1806.959961" cy="1146.959961" r="19.980000" fill="red">
  <title>Chongqing</title>
</circle><line x1="1794.959961" y1="1289.959961" x2="1806.959961" y2="1146.959961" stroke="red" stroke-width="6.660000" />
<circle cx="1672.959961" cy="871.960022" r="19.980000" fill="red">
  <title>São Paulo</title>
</circle><line x1="1806.959961" y1="1146.959961" x2="1672.959961" y2="871.960022" stroke="red" stroke-width="6.660000" />
<circle cx="1908.959961" cy="656.960022" r="19.980000" fill="red">
  <title>Cairo</title>
</circle><line x1="1672.959961" y1="871.960022" x2="1908.959961" y2="656.960022" stroke="red" stroke-width="6.660000" />
</svg>
