<?xml version="1.0" encoding="UTF-8" standalone="no"?>
<svg width="500" height="500" viewBox="0 0 2074.000000 2074.000000" xmlns="http://www.w3.org/2000/svg">
<rect x="19.000000" y="19.000000" width="2036.000000" height="2036.000000" fill="black" />
<circle cx="984.960022" cy="570.960022" r="19.980000" fill="red">
  <title>Tokyo</title>
</circle><line x1="1098.959961" y1="1014.960022" x2="984.960022" y2="570.960022" stroke="red" stroke-width="6.660000" />
<circle cx="772.960022" cy="253.959991" r="19.980000" fill="red">
  <title>Buenos Aires</title>
</circle><line x1="984.960022" y1="570.960022" x2="772.960022" y2="253.959991" stroke="red" stroke-width="6.660000" />
<circle cx="915.960022" cy="44.959999" r="19.980000" fill="red">
  <title>Kolkata</title>
</circle><line x1="772.960022" y1="253.959991" x2="915.960022" y2="44.959999" stroke="red" stroke-width="6.660000" />
<circle cx="249.959991" cy="56.959999" r="19.980000" fill="red">
  <title>Shanghai</title>
</circle><line x1="915.960022" y1="44.959999" x2="249.959991" y2="56.959999" stroke="red" stroke-width="6.660000" />
<circle cx="181.959991" cy="471.959991" r="19.980000" fill="red">
  <title>Mumbai</title>
</circle><line x1="249.959991" y1="56.959999" x2="181.959991" y2="471.959991" stroke="red" stroke-width="6.660000" />
<circle cx="297.959991" cy="726.960022" r="19.980000" fill="red">
  <title>New York</title>
</circle><line x1="181.959991" y1="471.959991" x2="297.959991" y2="726.960022" stroke="red" stroke-width="6.660000" />
<circle cx="582.960022" cy="853.960022" r="19.980000" fill="red">
  <title>Tianjin</title>
</circle><line x1="297.959991" y1="726.960022" x2="582.960022" y2="853.960022" stroke="red" stroke-width="6.660000" />
<circle cx="315.959991" cy="1396.959961" r="19.980000" fill="red">
  <title>Delhi</title>
</circle><line x1="582.960022" y1="853.960022" x2="315.959991" y2="1396.959961" stroke="red" stroke-width="6.660000" />
<circle cx="945.960022" cy="1365.959961" r="19.980000" fill="red">
  <title>Dhaka</title>
</circle><line x1="315.959991" y1="1396.959961" x2="945.960022" y2="1365.959961" stroke="red" stroke-width="6.660000" />
<circle cx="1038.959961" cy="1382.959961" r="19.980000" fill="red">
  <title>Karachi</title>
</circle><line x1="945.960022" y1="1365.959961" x2="1038.959961" y2="1382.959961" stroke="red" stroke-width="6.660000" />
<circle cx="1099.959961" cy="1354.959961" r="19.980000" fill="red">
  <title>Cairo</title>
</circle><line x1="1038.959961" y1="1382.959961" x2="1099.959961" y2="1354.959961" stroke="red" stroke-width="6.660000" />
<circle cx="1209.959961" cy="1301.959961" r="19.980000" fill="red">
  <title>Rio de Janeiro</title>
</circle><line x1="1099.959961" y1="1354.959961" x2="1209.959961" y2="1301.959961" stroke="red" stroke-width="6.660000" />
<circle cx="1428.959961" cy="1455.959961" r="19.980000" fill="red">
  <title>Beijing</title>
</circle><line x1="1209.959961" y1="1301.959961" x2="1428.959961" y2="1455.959961" stroke="red" stroke-width="6.660000" />
<circle cx="1401.959961" cy="1756.959961" r="19.980000" fill="red">
  <title>Lagos</title>
</circle><line x1="1428.959961" y1="1455.959961" x2="1401.959961" y2="1756.959961" stroke="red" stroke-width="6.660000" />
<circle cx="1682.959961" cy="1649.959961" r="19.980000" fill="red">
  <title>Mexico City</title>
</circle><line x1="1401.959961" y1="1756.959961" x2="1682.959961" y2="1649.959961" stroke="red" stroke-width="6.660000" />
<circle cx="1546.959961" cy="1191.959961" r="19.980000" fill="red">
  <title>Manila</title>
</circle><line x1="1682.959961" y1="1649.959961" x2="1546.959961" y2="1191.959961" stroke="red" stroke-width="6.660000" />
<circle cx="1938.959961" cy="863.960022" r="19.980000" fill="red">
  <title>São Paulo</title>
</circle><line x1="1546.959961" y1="1191.959961" x2="1938.959961" y2="863.960022" stroke="red" stroke-width="6.660000" />
<circle cx="1564.959961" cy="845.960022" r="19.980000" fill="red">
  <title>Osaka</title>
</circle><line x1="1938.959961" y1="863.960022" x2="1564.959961" y2="845.960022" stroke="red" stroke-width="6.660000" />
<circle cx="1466.959961" cy="955.960022" r="19.980000" fill="red">
  <title>Chongqing</title>
</circle><line x1="1564.959961" y1="845.960022" x2="1466.959961" y2="955.960022" stroke="red" stroke-width="6.660000" />
<circle cx="1098.959961" cy="1014.960022" r="19.980000" fill="red">
  <title>Istanbul</title>
</circle><line x1="1466.959961" y1="955.960022" x2="1098.959961" y2="1014.960022" stroke="red" stroke-width="6.660000" />
</svg>
