<?xml version="1.0" encoding="UTF-8" standalone="no"?>
<svg width="500" height="500" viewBox="0 0 2074.000000 2074.000000" xmlns="http://www.w3.org/2000/svg">
<rect x="19.000000" y="19.000000" width="2036.000000" height="2036.000000" fill="black" />
<circle cx="1631.959961" cy="821.960022" r="19.980000" fill="red">
  <title>Tokyo</title>
</circle><line x1="1158.959961" y1="1387.959961" x2="1631.959961" y2="821.960022" stroke="red" stroke-width="6.660000" />
<circle cx="1870.959961" cy="843.960022" r="19.980000" fill="red">
  <title>São Paulo</title>
</circle><line x1="1631.959961" y1="821.960022" x2="1870.959961" y2="843.960022" stroke="red" stroke-width="6.660000" />
<circle cx="1459.959961" cy="801.960022" r="19.980000" fill="red">
  <title>Dhaka</title>
</circle><line x1="1870.959961" y1="843.960022" x2="1459.959961" y2="801.960022" stroke="red" stroke-width="6.660000" />
<circle cx="1086.959961" cy="682.960022" r="19.980000" fill="red">
  <title>Beijing</title>
</circle><line x1="1459.959961" y1="801.960022" x2="1086.959961" y2="682.960022" stroke="red" stroke-width="6.660000" />
<circle cx="1291.959961" cy="600.960022" r="19.980000" fill="red">
  <title>New York</title>
</circle><line x1="1086.959961" y1="682.960022" x2="1291.959961" y2="600.960022" stroke="red" stroke-width="6.660000" />
<circle cx="1501.959961" cy="71.959999" r="19.980000" fill="red">
  <title>Mumbai</title>
</circle><line x1="1291.959961" y1="600.960022" x2="1501.959961" y2="71.959999" stroke="red" stroke-width="6.660000" />
<circle cx="585.960022" cy="46.959999" r="19.980000" fill="red">
  <title>Delhi</title>
</circle><line x1="1501.959961" y1="71.959999" x2="585.960022" y2="46.959999" stroke="red" stroke-width="6.660000" />
<circle cx="278.959991" cy="1069.959961" r="19.980000" fill="red">
  <title>Karachi</title>
</circle><line x1="585.960022" y1="46.959999" x2="278.959991" y2="1069.959961" stroke="red" stroke-width="6.660000" />
<circle cx="203.959991" cy="1163.959961" r="19.980000" fill="red">
  <title>Mexico City</title>
</circle><line x1="278.959991" y1="1069.959961" x2="203.959991" y2="1163.959961" stroke="red" stroke-width="6.660000" />
<circle cx="998.960022" cy="1403.959961" r="19.980000" fill="red">
  <title>Osaka</title>
</circle><line x1="203.959991" y1="1163.959961" x2="998.960022" y2="1403.959961" stroke="red" stroke-width="6.660000" />
<circle cx="1266.959961" cy="1723.959961" r="19.980000" fill="red">
  <title>Cairo</title>
</circle><line x1="998.960022" y1="1403.959961" x2="1266.959961" y2="1723.959961" stroke="red" stroke-width="6.660000" />
<circle cx="1372.959961" cy="1691.959961" r="19.980000" fill="red">
  <title>Shanghai</title>
</circle><line x1="1266.959961" y1="1723.959961" x2="1372.959961" y2="1691.959961" stroke="red" stroke-width="6.660000" />
<circle cx="1260.959961" cy="1516.959961" r="19.980000" fill="red">
  <title>Buenos Aires</title>
</circle><line x1="1372.959961" y1="1691.959961" x2="1260.959961" y2="1516.959961" stroke="red" stroke-width="6.660000" />
<circle cx="1158.959961" cy="1387.959961" r="19.980000" fill="red">
  <title>Chongqing</title>
</circle><line x1="1260.959961" y1="1516.959961" x2="1158.959961" y2="1387.959961" stroke="red" stroke-width="6.660000" />
</svg>
