<?xml version="1.0" encoding="UTF-8" standalone="no"?>
<svg width="500" height="500" viewBox="0 0 2074.000000 2074.000000" xmlns="http://www.w3.org/2000/svg">
<rect x="19.000000" y="19.000000" width="2036.000000" height="2036.000000" fill="black" />
<circle cx="1674.959961" cy="1536.959961" r="19.980000" fill="red">
  <title>Tokyo</title>
</circle><line x1="1202.959961" y1="1606.959961" x2="1674.959961" y2="1536.959961" stroke="red" stroke-width="6.660000" />
<circle cx="1720.959961" cy="1098.959961" r="19.980000" fill="red">
  <title>Cairo</title>
</circle><line x1="1674.959961" y1="1536.959961" x2="1720.959961" y2="1098.959961" stroke="red" stroke-width="6.660000" />
<circle cx="1488.959961" cy="846.960022" r="19.980000" fill="red">
  <title>São Paulo</title>
</circle><line x1="1720.959961" y1="1098.959961" x2="1488.959961" y2="846.960022" stroke="red" stroke-width="6.660000" />
<circle cx="1237.959961" cy="103.959999" r="19.980000" fill="red">
  <title>Shanghai</title>
</circle><line x1="1488.959961" y1="846.960022" x2="1237.959961" y2="103.959999" stroke="red" stroke-width="6.660000" />
<circle cx="1157.959961" cy="241.959991" r="19.980000" fill="red">
  <title>Dhaka</title>
</circle><line x1="1237.959961" y1="103.959999" x2="1157.959961" y2="241.959991" stroke="red" stroke-width="6.660000" />
<circle cx="493.959991" cy="383.959991" r="19.980000" fill="red">
  <title>Delhi</title>
</circle><line x1="1157.959961" y1="241.959991" x2="493.959991" y2="383.959991" stroke="red" stroke-width="6.660000" />
<circle cx="568.960022" cy="647.960022" r="19.980000" fill="red">
  <title>Osaka</title>
</circle><line x1="493.959991" y1="383.959991" x2="568.960022" y2="647.960022" stroke="red" stroke-width="6.660000" />
<circle cx="629.960022" cy="761.960022" r="19.980000" fill="red">
  <title>Buenos Aires</title>
</circle><line x1="568.960022" y1="647.960022" x2="629.960022" y2="761.960022" stroke="red" stroke-width="6.660000" />
<circle cx="552.960022" cy="1189.959961" r="19.980000" fill="red">
  <title>Karachi</title>
</circle><line x1="629.960022" y1="761.960022" x2="552.960022" y2="1189.959961" stroke="red" stroke-width="6.660000" />
<circle cx="195.959991" cy="1376.959961" r="19.980000" fill="red">
  <title>New York</title>
</circle><line x1="552.960022" y1="1189.959961" x2="195.959991" y2="1376.959961" stroke="red" stroke-width="6.660000" />
<circle cx="366.959991" cy="1960.959961" r="19.980000" fill="red">
  <title>Mexico City</title>
</circle><line x1="195.959991" y1="1376.959961" x2="366.959991" y2="1960.959961" stroke="red" stroke-width="6.660000" />
<circle cx="1058.959961" cy="1730.959961" r="19.980000" fill="red">
  <title>Mumbai</title>
</circle><line x1="366.959991" y1="1960.959961" x2="1058.959961" y2="1730.959961" stroke="red" stroke-width="6.660000" />
<circle cx="1202.959961" cy="1606.959961" r="19.980000" fill="red">
  <title>Beijing</title>
</circle><line x1="1058.959961" y1="1730.959961" x2="1202.959961" y2="1606.959961" stroke="red" stroke-width="6.660000" />
</svg>
