<?xml version="1.0" encoding="UTF-8" standalone="no"?>
<svg width="500" height="500" viewBox="0 0 2074.000000 2074.000000" xmlns="http://www.w3.org/2000/svg">
<rect x="19.000000" y="19.000000" width="2036.000000" height="2036.000000" fill="black" />
<circle cx="571.960022" cy="1794.959961" r="19.980000" fill="red">
  <title>Tokyo</title>
</circle><line x1="372.959991" y1="2007.959961" x2="571.960022" y2="1794.959961" stroke="red" stroke-width="6.660000" />
<circle cx="1142.959961" cy="1079.959961" r="19.980000" fill="red">
  <title>Shanghai</title>
</circle><line x1="571.960022" y1="1794.959961" x2="1142.959961" y2="1079.959961" stroke="red" stroke-width="6.660000" />
<circle cx="2014.959961" cy="1881.959961" r="19.980000" fill="red">
  <title>Delhi</title>
</circle><line x1="1142.959961" y1="1079.959961" x2="2014.959961" y2="1881.959961" stroke="red" stroke-width="6.660000" />
<circle cx="1404.959961" cy="919.960022" r="19.980000" fill="red">
  <title>New York</title>
</circle><line x1="2014.959961" y1="1881.959961" x2="1404.959961" y2="919.960022" stroke="red" stroke-width="6.660000" />
<circle cx="1695.959961" cy="225.959991" r="19.980000" fill="red">
  <title>Beijing</title>
</circle><line x1="1404.959961" y1="919.960022" x2="1695.959961" y2="225.959991" stroke="red" stroke-width="6.660000" />
<circle cx="561.960022" cy="143.959991" r="19.980000" fill="red">
  <title>São Paulo</title>
</circle><line x1="1695.959961" y1="225.959991" x2="561.960022" y2="143.959991" stroke="red" stroke-width="6.660000" />
<circle cx="95.959999" cy="109.959999" r="19.980000" fill="red">
  <title>Cairo</title>
</circle><line x1="561.960022" y1="143.959991" x2="95.959999" y2="109.959999" stroke="red" stroke-width="6.660000" />
<circle cx="160.959991" cy="288.959991" r="19.980000" fill="red">
  <title>Mexico City</title>
</circle><line x1="95.959999" y1="109.959999" x2="160.959991" y2="288.959991" stroke="red" stroke-width="6.660000" />
<circle cx="166.959991" cy="1099.959961" r="19.980000" fill="red">
  <title>Mumbai</title>
</circle><line x1="160.959991" y1="288.959991" x2="166.959991" y2="1099.959961" stroke="red" stroke-width="6.660000" />
<circle cx="192.959991" cy="2034.959961" r="19.980000" fill="red">
  <title>Osaka</title>
</circle><line x1="166.959991" y1="1099.959961" x2="192.959991" y2="2034.959961" stroke="red" stroke-width="6.660000" />
<circle cx="372.959991" cy="2007.959961" r="19.980000" fill="red">
  <title>Dhaka</title>
</circle><line x1="192.959991" y1="2034.959961" x2="372.959991" y2="2007.959961" stroke="red" stroke-width="6.660000" />
</svg>
