<?xml version="1.0" encoding="UTF-8" standalone="no"?>
<svg width="500" height="500" viewBox="0 0 2074.000000 2074.000000" xmlns="http://www.w3.org/2000/svg">
<rect x="19.000000" y="19.000000" width="2036.000000" height="2036.000000" fill="black" />
<circle cx="564.960022" cy="491.959991" r="19.980000" fill="red">
  <title>Tokyo</title>
</circle><line x1="253.959991" y1="1551.959961" x2="564.960022" y2="491.959991" stroke="red" stroke-width="6.660000" />
<circle cx="973.960022" cy="918.960022" r="19.980000" fill="red">
  <title>São Paulo</title>
</circle><line x1="564.960022" y1="491.959991" x2="973.960022" y2="918.960022" stroke="red" stroke-width="6.660000" />
<circle cx="1712.959961" cy="633.960022" r="19.980000" fill="red">
  <title>Shanghai</title>
</circle><line x1="973.960022" y1="918.960022" x2="1712.959961" y2="633.960022" stroke="red" stroke-width="6.660000" />
<circle cx="1709.959961" cy="1466.959961" r="19.980000" fill="red">
  <title>Mexico City</title>
</circle><line x1="1712.959961" y1="633.960022" x2="1709.959961" y2="1466.959961" stroke="red" stroke-width="6.660000" />
<circle cx="1738.959961" cy="1694.959961" r="19.980000" fill="red">
  <title>Delhi</title>
</circle><line x1="1709.959961" y1="1466.959961" x2="1738.959961" y2="1694.959961" stroke="red" stroke-width="6.660000" />
<circle cx="253.959991" cy="1551.959961" r="19.980000" fill="red">
  <title>Cairo</title>
</circle><line x1="1738.959961" y1="1694.959961" x2="253.959991" y2="1551.959961" stroke="red" stroke-width="6.660000" />
</svg>
