<?xml version="1.0" encoding="UTF-8" standalone="no"?>
<svg width="500" height="500" viewBox="0 0 2074.000000 2074.000000" xmlns="http://www.w3.org/2000/svg">
<rect x="19.000000" y="19.000000" width="2036.000000" height="2036.000000" fill="black" />
<circle cx="115.959999" cy="1835.959961" r="19.980000" fill="red">
  <title>Tokyo</title>
</circle><line x1="128.959991" y1="1863.959961" x2="115.959999" y2="1835.959961" stroke="red" stroke-width="6.660000" />
<circle cx="185.959991" cy="1385.959961" r="19.980000" fill="red">
  <title>São Paulo</title>
</circle><line x1="115.959999" y1="1835.959961" x2="185.959991" y2="1385.959961" stroke="red" stroke-width="6.660000" />
<circle cx="279.959991" cy="1397.959961" r="19.980000" fill="red">
  <title>Beijing</title>
</circle><line x1="185.959991" y1="1385.959961" x2="279.959991" y2="1397.959961" stroke="red" stroke-width="6.660000" />
<circle cx="912.960022" cy="980.960022" r="19.980000" fill="red">
  <title>Osaka</title>
</circle><line x1="279.959991" y1="1397.959961" x2="912.960022" y2="980.960022" stroke="red" stroke-width="6.660000" />
<circle cx="918.960022" cy="647.960022" r="19.980000" fill="red">
  <title>Dhaka</title>
</circle><line x1="912.960022" y1="980.960022" x2="918.960022" y2="647.960022" stroke="red" stroke-width="6.660000" />
<circle cx="904.960022" cy="486.959991" r="19.980000" fill="red">
  <title>Mexico City</title>
</circle><line x1="918.960022" y1="647.960022" x2="904.960022" y2="486.959991" stroke="red" stroke-width="6.660000" />
<circle cx="325.959991" cy="99.959999" r="19.980000" fill="red">
  <title>Istanbul</title>
</circle><line x1="904.960022" y1="486.959991" x2="325.959991" y2="99.959999" stroke="red" stroke-width="6.660000" />
<circle cx="1150.959961" cy="65.959999" r="19.980000" fill="red">
  <title>Cairo</title>
</circle><line x1="325.959991" y1="99.959999" x2="1150.959961" y2="65.959999" stroke="red" stroke-width="6.660000" />
<circle cx="1438.959961" cy="401.959991" r="19.980000" fill="red">
  <title>Kolkata</title>
</circle><line x1="1150.959961" y1="65.959999" x2="1438.959961" y2="401.959991" stroke="red" stroke-width="6.660000" />
<circle cx="1598.959961" cy="363.959991" r="19.980000" fill="red">
  <title>New York</title>
</circle><line x1="1438.959961" y1="401.959991" x2="1598.959961" y2="363.959991" stroke="red" stroke-width="6.660000" />
<circle cx="1896.959961" cy="518.960022" r="19.980000" fill="red">
  <title>Manila</title>
</circle><line x1="1598.959961" y1="363.959991" x2="1896.959961" y2="518.960022" stroke="red" stroke-width="6.660000" />
<circle cx="1219.959961" cy="1265.959961" r="19.980000" fill="red">
  <title>Mumbai</title>
</circle><line x1="1896.959961" y1="518.960022" x2="1219.959961" y2="1265.959961" stroke="red" stroke-width="6.660000" />
<circle cx="1558.959961" cy="1649.959961" r="19.980000" fill="red">
  <title>Karachi</title>
</circle><line x1="1219.959961" y1="1265.959961" x2="1558.959961" y2="1649.959961" stroke="red" stroke-width="6.660000" />
<circle cx="1411.959961" cy="1821.959961" r="19.980000" fill="red">
  <title>Buenos Aires</title>
</circle><line x1="1558.959961" y1="1649.959961" x2="1411.959961" y2="1821.959961" stroke="red" stroke-width="6.660000" />
<circle cx="1117.959961" cy="1624.959961" r="19.980000" fill="red">
  <title>Delhi</title>
</circle><line x1="1411.959961" y1="1821.959961" x2="1117.959961" y2="1624.959961" stroke="red" stroke-width="6.660000" />
<circle cx="913.960022" cy="1694.959961" r="19.980000" fill="red">
  <title>Shanghai</title>
</circle><line x1="1117.959961" y1="1624.959961" x2="913.960022" y2="1694.959961" stroke="red" stroke-width="6.660000" />
<circle cx="128.959991" cy="1863.959961" r="19.980000" fill="red">
  <title>Chongqing</title>
</circle><line x1="913.960022" y1="1694.959961" x2="128.959991" y2="1863.959961" stroke="red" stroke-width="6.660000" />
</svg>
