<?xml version="1.0" encoding="UTF-8" standalone="no"?>
<svg width="500" height="500" viewBox="0 0 2074.000000 2074.000000" xmlns="http://www.w3.org/2000/svg">
<rect x="19.000000" y="19.000000" width="2036.000000" height="2036.000000" fill="black" />
<circle cx="1885.959961" cy="2037.959961" r="19.980000" fill="red">
  <title>Tokyo</title>
</circle><line x1="859.960022" y1="1646.959961" x2="1885.959961" y2="2037.959961" stroke="red" stroke-width="6.660000" />
<circle cx="1769.959961" cy="1265.959961" r="19.980000" fill="red">
  <title>Shanghai</title>
</circle><line x1="1885.959961" y1="2037.959961" x2="1769.959961" y2="1265.959961" stroke="red" stroke-width="6.660000" />
<circle cx="1938.959961" cy="223.959991" r="19.980000" fill="red">
  <title>São Paulo</title>
</circle><line x1="1769.959961" y1="1265.959961" x2="1938.959961" y2="223.959991" stroke="red" stroke-width="6.660000" />
<circle cx="1609.959961" cy="177.959991" r="19.980000" fill="red">
  <title>Mexico City</title>
</circle><line x1="1938.959961" y1="223.959991" x2="1609.959961" y2="177.959991" stroke="red" stroke-width="6.660000" />
<circle cx="507.959991" cy="472.959991" r="19.980000" fill="red">
  <title>Delhi</title>
</circle><line x1="1609.959961" y1="177.959991" x2="507.959991" y2="472.959991" stroke="red" stroke-width="6.660000" />
<circle cx="291.959991" cy="101.959999" r="19.980000" fill="red">
  <title>Mumbai</title>
</circle><line x1="507.959991" y1="472.959991" x2="291.959991" y2="101.959999" stroke="red" stroke-width="6.660000" />
<circle cx="83.959999" cy="1149.959961" r="19.980000" fill="red">
  <title>Cairo</title>
</circle><line x1="291.959991" y1="101.959999" x2="83.959999" y2="1149.959961" stroke="red" stroke-width="6.660000" />
<circle cx="859.960022" cy="1646.959961" r="19.980000" fill="red">
  <title>Beijing</title>
</circle><line x1="83.959999" y1="1149.959961" x2="859.960022" y2="1646.959961" stroke="red" stroke-width="6.660000" />
</svg>
