<?xml version="1.0" encoding="UTF-8" standalone="no"?>
<svg width="500" height="500" viewBox="0 0 2074.000000 2074.000000" xmlns="http://www.w3.org/2000/svg">
<rect x="19.000000" y="19.000000" width="2036.000000" height="2036.000000" fill="black" />
<circle cx="941.960022" cy="81.959999" r="19.980000" fill="red">
  <title>Tokyo</title>
</circle><line x1="1574.959961" y1="1097.959961" x2="941.960022" y2="81.959999" stroke="red" stroke-width="6.660000" />
<circle cx="665.960022" cy="179.959991" r="19.980000" fill="red">
  <title>Mumbai</title>
</circle><line x1="941.960022" y1="81.959999" x2="665.960022" y2="179.959991" stroke="red" stroke-width="6.660000" />
<circle cx="60.959999" cy="131.959991" r="19.980000" fill="red">
  <title>Delhi</title>
</circle><line x1="665.960022" y1="179.959991" x2="60.959999" y2="131.959991" stroke="red" stroke-width="6.660000" />
<circle cx="346.959991" cy="702.960022" r="19.980000" fill="red">
  <title>São Paulo</title>
</circle><line x1="60.959999" y1="131.959991" x2="346.959991" y2="702.960022" stroke="red" stroke-width="6.660000" />
<circle cx="335.959991" cy="773.960022" r="19.980000" fill="red">
  <title>Osaka</title>
</circle><line x1="346.959991" y1="702.960022" x2="335.959991" y2="773.960022" stroke="red" stroke-width="6.660000" />
<circle cx="555.960022" cy="1058.959961" r="19.980000" fill="red">
  <title>Beijing</title>
</circle><line x1="335.959991" y1="773.960022" x2="555.960022" y2="1058.959961" stroke="red" stroke-width="6.660000" />
<circle cx="72.959999" cy="1115.959961" r="19.980000" fill="red">
  <title>Buenos Aires</title>
</circle><line x1="555.960022" y1="1058.959961" x2="72.959999" y2="1115.959961" stroke="red" stroke-width="6.660000" />
<circle cx="62.959999" cy="1524.959961" r="19.980000" fill="red">
  <title>Shanghai</title>
</circle><line x1="72.959999" y1="1115.959961" x2="62.959999" y2="1524.959961" stroke="red" stroke-width="6.660000" />
<circle cx="469.959991" cy="1504.959961" r="19.980000" fill="red">
  <title>Karachi</title>
</circle><line x1="62.959999" y1="1524.959961" x2="469.959991" y2="1504.959961" stroke="red" stroke-width="6.660000" />
<circle cx="1084.959961" cy="1675.959961" r="19.980000" fill="red">
  <title>Dhaka</title>
</circle><line x1="469.959991" y1="1504.959961" x2="1084.959961" y2="1675.959961" stroke="red" stroke-width="6.660000" />
<circle cx="1129.959961" cy="1518.959961" r="19.980000" fill="red">
  <title>New York</title>
</circle><line x1="1084.959961" y1="1675.959961" x2="1129.959961" y2="1518.959961" stroke="red" stroke-width="6.660000" />
<circle cx="1513.959961" cy="1432.959961" r="19.980000" fill="red">
  <title>Mexico City</title>
</circle><line x1="1129.959961" y1="1518.959961" x2="1513.959961" y2="1432.959961" stroke="red" stroke-width="6.660000" />
<circle cx="1574.959961" cy="1097.959961" r="19.980000" fill="red">
  <title>Cairo</title>
</circle><line x1="1513.959961" y1="1432.959961" x2="1574.959961" y2="1097.959961" stroke="red" stroke-width="6.660000" />
</svg>
