<?xml version="1.0" encoding="UTF-8" standalone="no"?>
<svg width="500" height="500" viewBox="0 0 2074.000000 2074.000000" xmlns="http://www.w3.org/2000/svg">
<rect x="19.000000" y="19.000000" width="2036.000000" height="2036.000000" fill="black" />
<circle cx="62.959999" cy="868.960022" r="19.980000" fill="red">
  <title>Tokyo</title>
</circle><line x1="130.959991" y1="236.959991" x2="62.959999" y2="868.960022" stroke="red" stroke-width="6.660000" />
<circle cx="74.959999" cy="1119.959961" r="19.980000" fill="red">
  <title>Mexico City</title>
</circle><line x1="62.959999" y1="868.960022" x2="74.959999" y2="1119.959961" stroke="red" stroke-width="6.660000" />
<circle cx="515.960022" cy="1733.959961" r="19.980000" fill="red">
  <title>Beijing</title>
</circle><line x1="74.959999" y1="1119.959961" x2="515.960022" y2="1733.959961" stroke="red" stroke-width="6.660000" />
<circle cx="651.960022" cy="1624.959961" r="19.980000" fill="red">
  <title>Dhaka</title>
</circle><line x1="515.960022" y1="1733.959961" x2="651.960022" y2="1624.959961" stroke="red" stroke-width="6.660000" />
<circle cx="738.960022" cy="1809.959961" r="19.980000" fill="red">
  <title>Manila</title>
</circle><line x1="651.960022" y1="1624.959961" x2="738.960022" y2="1809.959961" stroke="red" stroke-width="6.660000" />
<circle cx="879.960022" cy="1718.959961" r="19.980000" fill="red">
  <title>Shanghai</title>
</circle><line x1="738.960022" y1="1809.959961" x2="879.960022" y2="1718.959961" stroke="red" stroke-width="6.660000" />
<circle cx="1135.959961" cy="1907.959961" r="19.980000" fill="red">
  <title>Istanbul</title>
</circle><line x1="879.960022" y1="1718.959961" x2="1135.959961" y2="1907.959961" stroke="red" stroke-width="6.660000" />
<circle cx="1209.959961" cy="1708.959961" r="19.980000" fill="red">
  <title>Osaka</title>
</circle><line x1="1135.959961" y1="1907.959961" x2="1209.959961" y2="1708.959961" stroke="red" stroke-width="6.660000" />
<circle cx="1489.959961" cy="1471.959961" r="19.980000" fill="red">
  <title>Rio de Janeiro</title>
</circle><line x1="1209.959961" y1="1708.959961" x2="1489.959961" y2="1471.959961" stroke="red" stroke-width="6.660000" />
<circle cx="1734.959961" cy="1579.959961" r="19.980000" fill="red">
  <title>Lagos</title>
</circle><line x1="1489.959961" y1="1471.959961" x2="1734.959961" y2="1579.959961" stroke="red" stroke-width="6.660000" />
<circle cx="1774.959961" cy="962.960022" r="19.980000" fill="red">
  <title>São Paulo</title>
</circle><line x1="1734.959961" y1="1579.959961" x2="1774.959961" y2="962.960022" stroke="red" stroke-width="6.660000" />
<circle cx="1943.959961" cy="469.959991" r="19.980000" fill="red">
  <title>Buenos Aires</title>
</circle><line x1="1774.959961" y1="962.960022" x2="1943.959961" y2="469.959991" stroke="red" stroke-width="6.660000" />
<circle cx="1380.959961" cy="1170.959961" r="19.980000" fill="red">
  <title>Mumbai</title>
</circle><line x1="1943.959961" y1="469.959991" x2="1380.959961" y2="1170.959961" stroke="red" stroke-width="6.660000" />
<circle cx="1017.960022" cy="1158.959961" r="19.980000" fill="red">
  <title>Kolkata</title>
</circle><line x1="1380.959961" y1="1170.959961" x2="1017.960022" y2="1158.959961" stroke="red" stroke-width="6.660000" />
<circle cx="928.960022" cy="1157.959961" r="19.980000" fill="red">
  <title>Chongqing</title>
</circle><line x1="1017.960022" y1="1158.959961" x2="928.960022" y2="1157.959961" stroke="red" stroke-width="6.660000" />
<circle cx="567.960022" cy="946.960022" r="19.980000" fill="red">
  <title>Karachi</title>
</circle><line x1="928.960022" y1="1157.959961" x2="567.960022" y2="946.960022" stroke="red" stroke-width="6.660000" />
<circle cx="830.960022" cy="615.960022" r="19.980000" fill="red">
  <title>Delhi</title>
</circle><line x1="567.960022" y1="946.960022" x2="830.960022" y2="615.960022" stroke="red" stroke-width="6.660000" />
<circle cx="428.959991" cy="184.959991" r="19.980000" fill="red">
  <title>Cairo</title>
</circle><line x1="830.960022" y1="615.960022" x2="428.959991" y2="184.959991" stroke="red" stroke-width="6.660000" />
<circle cx="130.959991" cy="236.959991" r="19.980000" fill="red">
  <title>New York</title>
</circle><line x1="428.959991" y1="184.959991" x2="130.959991" y2="236.959991" stroke="red" stroke-width="6.660000" />
</svg>
