<?xml version="1.0" encoding="UTF-8" standalone="no"?>
<svg width="500" height="500" viewBox="0 0 2074.000000 2074.000000" xmlns="http://www.w3.org/2000/svg">
<rect x="19.000000" y="19.000000" width="2036.000000" height="2036.000000" fill="black" />
<circle cx="600.960022" cy="1877.959961" r="19.980000" fill="red">
  <title>Tokyo</title>
</circle><line x1="58.959999" y1="1390.959961" x2="600.960022" y2="1877.959961" stroke="red" stroke-width="6.660000" />
<circle cx="1224.959961" cy="1999.959961" r="19.980000" fill="red">
  <title>Mexico City</title>
</circle><line x1="600.960022" y1="1877.959961" x2="1224.959961" y2="1999.959961" stroke="red" stroke-width="6.660000" />
<circle cx="1425.959961" cy="1910.959961" r="19.980000" fill="red">
  <title>Cairo</title>
</circle><line x1="1224.959961" y1="1999.959961" x2="1425.959961" y2="1910.959961" stroke="red" stroke-width="6.660000" />
<circle cx="1835.959961" cy="1776.959961" r="19.980000" fill="red">
  <title>Delhi</title>
</circle><line x1="1425.959961" y1="1910.959961" x2="1835.959961" y2="1776.959961" stroke="red" stroke-width="6.660000" />
<circle cx="1465.959961" cy="1404.959961" r="19.980000" fill="red">
  <title>Beijing</title>
</circle><line x1="1835.959961" y1="1776.959961" x2="1465.959961" y2="1404.959961" stroke="red" stroke-width="6.660000" />
<circle cx="1102.959961" cy="1513.959961" r="19.980000" fill="red">
  <title>Manila</title>
</circle><line x1="1465.959961" y1="1404.959961" x2="1102.959961" y2="1513.959961" stroke="red" stroke-width="6.660000" />
<circle cx="1081.959961" cy="1241.959961" r="19.980000" fill="red">
  <title>New York</title>
</circle><line x1="1102.959961" y1="1513.959961" x2="1081.959961" y2="1241.959961" stroke="red" stroke-width="6.660000" />
<circle cx="1278.959961" cy="1294.959961" r="19.980000" fill="red">
  <title>Osaka</title>
</circle><line x1="1081.959961" y1="1241.959961" x2="1278.959961" y2="1294.959961" stroke="red" stroke-width="6.660000" />
<circle cx="1542.959961" cy="1263.959961" r="19.980000" fill="red">
  <title>Istanbul</title>
</circle><line x1="1278.959961" y1="1294.959961" x2="1542.959961" y2="1263.959961" stroke="red" stroke-width="6.660000" />
<circle cx="1749.959961" cy="869.960022" r="19.980000" fill="red">
  <title>Mumbai</title>
</circle><line x1="1542.959961" y1="1263.959961" x2="1749.959961" y2="869.960022" stroke="red" stroke-width="6.660000" />
<circle cx="1884.959961" cy="598.960022" r="19.980000" fill="red">
  <title>São Paulo</title>
</circle><line x1="1749.959961" y1="869.960022" x2="1884.959961" y2="598.960022" stroke="red" stroke-width="6.660000" />
<circle cx="1716.959961" cy="104.959999" r="19.980000" fill="red">
  <title>Kolkata</title>
</circle><line x1="1884.959961" y1="598.960022" x2="1716.959961" y2="104.959999" stroke="red" stroke-width="6.660000" />
<circle cx="1607.959961" cy="285.959991" r="19.980000" fill="red">
  <title>Dhaka</title>
</circle><line x1="1716.959961" y1="104.959999" x2="1607.959961" y2="285.959991" stroke="red" stroke-width="6.660000" />
<circle cx="950.960022" cy="600.960022" r="19.980000" fill="red">
  <title>Buenos Aires</title>
</circle><line x1="1607.959961" y1="285.959991" x2="950.960022" y2="600.960022" stroke="red" stroke-width="6.660000" />
<circle cx="376.959991" cy="94.959999" r="19.980000" fill="red">
  <title>Chongqing</title>
</circle><line x1="950.960022" y1="600.960022" x2="376.959991" y2="94.959999" stroke="red" stroke-width="6.660000" />
<circle cx="712.960022" cy="951.960022" r="19.980000" fill="red">
  <title>Shanghai</title>
</circle><line x1="376.959991" y1="94.959999" x2="712.960022" y2="951.960022" stroke="red" stroke-width="6.660000" />
<circle cx="58.959999" cy="1390.959961" r="19.980000" fill="red">
  <title>Karachi</title>
</circle><line x1="712.960022" y1="951.960022" x2="58.959999" y2="1390.959961" stroke="red" stroke-width="6.660000" />
</svg>
