<?xml version="1.0" encoding="UTF-8" standalone="no"?>
<svg width="500" height="500" viewBox="0 0 2074.000000 2074.000000" xmlns="http://www.w3.org/2000/svg">
<rect x="19.000000" y="19.000000" width="2036.000000" height="2036.000000" fill="black" />
<circle cx="160.959991" cy="572.960022" r="19.980000" fill="red">
  <title>Tokyo</title>
</circle><line x1="80.959999" y1="285.959991" x2="160.959991" y2="572.960022" stroke="red" stroke-width="6.660000" />
<circle cx="150.959991" cy="1195.959961" r="19.980000" fill="red">
  <title>Mumbai</title>
</circle><line x1="160.959991" y1="572.960022" x2="150.959991" y2="1195.959961" stroke="red" stroke-width="6.660000" />
<circle cx="1724.959961" cy="1807.959961" r="19.980000" fill="red">
  <title>Cairo</title>
</circle><line x1="150.959991" y1="1195.959961" x2="1724.959961" y2="1807.959961" stroke="red" stroke-width="6.660000" />
<circle cx="1955.959961" cy="1690.959961" r="19.980000" fill="red">
  <title>Delhi</title>
</circle><line x1="1724.959961" y1="1807.959961" x2="1955.959961" y2="1690.959961" stroke="red" stroke-width="6.660000" />
<circle cx="1889.959961" cy="1336.959961" r="19.980000" fill="red">
  <title>São Paulo</title>
</circle><line x1="1955.959961" y1="1690.959961" x2="1889.959961" y2="1336.959961" stroke="red" stroke-width="6.660000" />
<circle cx="1051.959961" cy="1051.959961" r="19.980000" fill="red">
  <title>Mexico City</title>
</circle><line x1="1889.959961" y1="1336.959961" x2="1051.959961" y2="1051.959961" stroke="red" stroke-width="6.660000" />
<circle cx="184.959991" cy="705.960022" r="19.980000" fill="red">
  <title>Shanghai</title>
</circle><line x1="1051.959961" y1="1051.959961" x2="184.959991" y2="705.960022" stroke="red" stroke-width="6.660000" />
<circle cx="80.959999" cy="285.959991" r="19.980000" fill="red">
  <title>Beijing</title>
</circle><line x1="184.959991" y1="705.960022" x2="80.959999" y2="285.959991" stroke="red" stroke-width="6.660000" />
</svg>
