<?xml version="1.0" encoding="UTF-8" standalone="no"?>
<svg width="500" height="500" viewBox="0 0 2074.000000 2074.000000" xmlns="http://www.w3.org/2000/svg">
<rect x="19.000000" y="19.000000" width="2036.000000" height="2036.000000" fill="black" />
<circle cx="542.960022" cy="1393.959961" r="19.980000" fill="red">
  <title>Tokyo</title>
</circle><line x1="847.960022" y1="943.960022" x2="542.960022" y2="1393.959961" stroke="red" stroke-width="6.660000" />
<circle cx="757.960022" cy="1442.959961" r="19.980000" fill="red">
  <title>Buenos Aires</title>
</circle><line x1="542.960022" y1="1393.959961" x2="757.960022" y2="1442.959961" stroke="red" stroke-width="6.660000" />
<circle cx="684.960022" cy="1916.959961" r="19.980000" fill="red">
  <title>Beijing</title>
</circle><line x1="757.960022" y1="1442.959961" x2="684.960022" y2="1916.959961" stroke="red" stroke-width="6.660000" />
<circle cx="1104.959961" cy="1697.959961" r="19.980000" fill="red">
  <title>New York</title>
</circle><line x1="684.960022" y1="1916.959961" x2="1104.959961" y2="1697.959961" stroke="red" stroke-width="6.660000" />
<circle cx="1697.959961" cy="1981.959961" r="19.980000" fill="red">
  <title>Shanghai</title>
</circle><line x1="1104.959961" y1="1697.959961" x2="1697.959961" y2="1981.959961" stroke="red" stroke-width="6.660000" />
<circle cx="1717.959961" cy="1738.959961" r="19.980000" fill="red">
  <title>Osaka</title>
</circle><line x1="1697.959961" y1="1981.959961" x2="1717.959961" y2="1738.959961" stroke="red" stroke-width="6.660000" />
<circle cx="1581.959961" cy="964.960022" r="19.980000" fill="red">
  <title>Delhi</title>
</circle><line x1="1717.959961" y1="1738.959961" x2="1581.959961" y2="964.960022" stroke="red" stroke-width="6.660000" />
<circle cx="1705.959961" cy="796.960022" r="19.980000" fill="red">
  <title>Mumbai</title>
</circle><line x1="1581.959961" y1="964.960022" x2="1705.959961" y2="796.960022" stroke="red" stroke-width="6.660000" />
<circle cx="1865.959961" cy="487.959991" r="19.980000" fill="red">
  <title>Mexico City</title>
</circle><line x1="1705.959961" y1="796.960022" x2="1865.959961" y2="487.959991" stroke="red" stroke-width="6.660000" />
<circle cx="1946.959961" cy="401.959991" r="19.980000" fill="red">
  <title>Karachi</title>
</circle><line x1="1865.959961" y1="487.959991" x2="1946.959961" y2="401.959991" stroke="red" stroke-width="6.660000" />
<circle cx="1978.959961" cy="57.959999" r="19.980000" fill="red">
  <title>Istanbul</title>
</circle><line x1="1946.959961" y1="401.959991" x2="1978.959961" y2="57.959999" stroke="red" stroke-width="6.660000" />
<circle cx="1582.959961" cy="204.959991" r="19.980000" fill="red">
  <title>Chongqing</title>
</circle><line x1="1978.959961" y1="57.959999" x2="1582.959961" y2="204.959991" stroke="red" stroke-width="6.660000" />
<circle cx="1658.959961" cy="482.959991" r="19.980000" fill="red">
  <title>Kolkata</title>
</circle><line x1="1582.959961" y1="204.959991" x2="1658.959961" y2="482.959991" stroke="red" stroke-width="6.660000" />
<circle cx="969.960022" cy="826.960022" r="19.980000" fill="red">
  <title>São Paulo</title>
</circle><line x1="1658.959961" y1="482.959991" x2="969.960022" y2="826.960022" stroke="red" stroke-width="6.660000" />
<circle cx="938.960022" cy="795.960022" r="19.980000" fill="red">
  <title>Cairo</title>
</circle><line x1="969.960022" y1="826.960022" x2="938.960022" y2="795.960022" stroke="red" stroke-width="6.660000" />
<circle cx="847.960022" cy="943.960022" r="19.980000" fill="red">
  <title>Dhaka</title>
</circle><line x1="938.960022" y1="795.960022" x2="847.960022" y2="943.960022" stroke="red" stroke-width="6.660000" />
</svg>
