<?xml version="1.0" encoding="UTF-8" standalone="no"?>
<svg width="500" height="500" viewBox="0 0 2074.000000 2074.000000" xmlns="http://www.w3.org/2000/svg">
<rect x="19.000000" y="19.000000" width="2036.000000" height="2036.000000" fill="black" />
<circle cx="501.959991" cy="1199.959961" r="19.980000" fill="red">
  <title>Tokyo</title>
</circle><line x1="761.960022" y1="983.960022" x2="501.959991" y2="1199.959961" stroke="red" stroke-width="6.660000" />
<circle cx="195.959991" cy="968.960022" r="19.980000" fill="red">
  <title>Osaka</title>
</circle><line x1="501.959991" y1="1199.959961" x2="195.959991" y2="968.960022" stroke="red" stroke-width="6.660000" />
<circle cx="208.959991" cy="1075.959961" r="19.980000" fill="red">
  <title>Delhi</title>
</circle><line x1="195.959991" y1="968.960022" x2="208.959991" y2="1075.959961" stroke="red" stroke-width="6.660000" />
<circle cx="467.959991" cy="1461.959961" r="19.980000" fill="red">
  <title>New York</title>
</circle><line x1="208.959991" y1="1075.959961" x2="467.959991" y2="1461.959961" stroke="red" stroke-width="6.660000" />
<circle cx="417.959991" cy="1532.959961" r="19.980000" fill="red">
  <title>São Paulo</title>
</circle><line x1="467.959991" y1="1461.959961" x2="417.959991" y2="1532.959961" stroke="red" stroke-width="6.660000" />
<circle cx="651.960022" cy="1457.959961" r="19.980000" fill="red">
  <title>Buenos Aires</title>
</circle><line x1="417.959991" y1="1532.959961" x2="651.960022" y2="1457.959961" stroke="red" stroke-width="6.660000" />
<circle cx="661.960022" cy="1908.959961" r="19.980000" fill="red">
  <title>Rio de Janeiro</title>
</circle><line x1="651.960022" y1="1457.959961" x2="661.960022" y2="1908.959961" stroke="red" stroke-width="6.660000" />
<circle cx="1122.959961" cy="1627.959961" r="19.980000" fill="red">
  <title>Shanghai</title>
</circle><line x1="661.960022" y1="1908.959961" x2="1122.959961" y2="1627.959961" stroke="red" stroke-width="6.660000" />
<circle cx="1519.959961" cy="1608.959961" r="19.980000" fill="red">
  <title>Karachi</title>
</circle><line x1="1122.959961" y1="1627.959961" x2="1519.959961" y2="1608.959961" stroke="red" stroke-width="6.660000" />
<circle cx="2028.959961" cy="1935.959961" r="19.980000" fill="red">
  <title>Istanbul</title>
</circle><line x1="1519.959961" y1="1608.959961" x2="2028.959961" y2="1935.959961" stroke="red" stroke-width="6.660000" />
<circle cx="1653.959961" cy="1197.959961" r="19.980000" fill="red">
  <title>Mumbai</title>
</circle><line x1="2028.959961" y1="1935.959961" x2="1653.959961" y2="1197.959961" stroke="red" stroke-width="6.660000" />
<circle cx="1499.959961" cy="554.960022" r="19.980000" fill="red">
  <title>Mexico City</title>
</circle><line x1="1653.959961" y1="1197.959961" x2="1499.959961" y2="554.960022" stroke="red" stroke-width="6.660000" />
<circle cx="1674.959961" cy="123.959999" r="19.980000" fill="red">
  <title>Tianjin</title>
</circle><line x1="1499.959961" y1="554.960022" x2="1674.959961" y2="123.959999" stroke="red" stroke-width="6.660000" />
<circle cx="1529.959961" cy="181.959991" r="19.980000" fill="red">
  <title>Lagos</title>
</circle><line x1="1674.959961" y1="123.959999" x2="1529.959961" y2="181.959991" stroke="red" stroke-width="6.660000" />
<circle cx="1056.959961" cy="603.960022" r="19.980000" fill="red">
  <title>Cairo</title>
</circle><line x1="1529.959961" y1="181.959991" x2="1056.959961" y2="603.960022" stroke="red" stroke-width="6.660000" />
<circle cx="902.960022" cy="492.959991" r="19.980000" fill="red">
  <title>Kolkata</title>
</circle><line x1="1056.959961" y1="603.960022" x2="902.960022" y2="492.959991" stroke="red" stroke-width="6.660000" />
<circle cx="485.959991" cy="52.959999" r="19.980000" fill="red">
  <title>Dhaka</title>
</circle><line x1="902.960022" y1="492.959991" x2="485.959991" y2="52.959999" stroke="red" stroke-width="6.660000" />
<circle cx="851.960022" cy="638.960022" r="19.980000" fill="red">
  <title>Beijing</title>
</circle><line x1="485.959991" y1="52.959999" x2="851.960022" y2="638.960022" stroke="red" stroke-width="6.660000" />
<circle cx="1096.959961" cy="1072.959961" r="19.980000" fill="red">
  <title>Manila</title>
</circle><line x1="851.960022" y1="638.960022" x2="1096.959961" y2="1072.959961" stroke="red" stroke-width="6.660000" />
<circle cx="761.960022" cy="983.960022" r="19.980000" fill="red">
  <title>Chongqing</title>
</circle><line x1="1096.959961" y1="1072.959961" x2="761.960022" y2="983.960022" stroke="red" stroke-width="6.660000" />
</svg>
