<?xml version="1.0" encoding="UTF-8" standalone="no"?>
<svg width="500" height="500" viewBox="0 0 2074.000000 2074.000000" xmlns="http://www.w3.org/2000/svg">
<rect x="19.000000" y="19.000000" width="2036.000000" height="2036.000000" fill="black" />
<circle cx="2017.959961" cy="1182.959961" r="19.980000" fill="red">
  <title>Tokyo</title>
</circle><line x1="385.959991" y1="1347.959961" x2="2017.959961" y2="1182.959961" stroke="red" stroke-width="6.660000" />
<circle cx="726.960022" cy="1204.959961" r="19.980000" fill="red">
  <title>Delhi</title>
</circle><line x1="2017.959961" y1="1182.959961" x2="726.960022" y2="1204.959961" stroke="red" stroke-width="6.660000" />
<circle cx="120.959999" cy="221.959991" r="19.980000" fill="red">
  <title>São Paulo</title>
</circle><line x1="726.960022" y1="1204.959961" x2="120.959999" y2="221.959991" stroke="red" stroke-width="6.660000" />
<circle cx="385.959991" cy="1347.959961" r="19.980000" fill="red">
  <title>Shanghai</title>
</circle><line x1="120.959999" y1="221.959991" x2="385.959991" y2="1347.959961" stroke="red" stroke-width="6.660000" />
</svg>
