<?xml version="1.0" encoding="UTF-8" standalone="no"?>
<svg width="500" height="500" viewBox="0 0 2074.000000 2074.000000" xmlns="http://www.w3.org/2000/svg">
<rect x="19.000000" y="19.000000" width="2036.000000" height="2036.000000" fill="black" />
<circle cx="234.959991" cy="589.960022" r="19.980000" fill="red">
  <title>Tokyo</title>
</circle><line x1="363.959991" y1="1224.959961" x2="234.959991" y2="589.960022" stroke="red" stroke-width="6.660000" />
<circle cx="348.959991" cy="505.959991" r="19.980000" fill="red">
  <title>Dhaka</title>
</circle><line x1="234.959991" y1="589.960022" x2="348.959991" y2="505.959991" stroke="red" stroke-width="6.660000" />
<circle cx="1170.959961" cy="410.959991" r="19.980000" fill="red">
  <title>São Paulo</title>
</circle><line x1="348.959991" y1="505.959991" x2="1170.959961" y2="410.959991" stroke="red" stroke-width="6.660000" />
<circle cx="1259.959961" cy="397.959991" r="19.980000" fill="red">
  <title>Shanghai</title>
</circle><line x1="1170.959961" y1="410.959991" x2="1259.959961" y2="397.959991" stroke="red" stroke-width="6.660000" />
<circle cx="1186.959961" cy="813.960022" r="19.980000" fill="red">
  <title>Beijing</title>
</circle><line x1="1259.959961" y1="397.959991" x2="1186.959961" y2="813.960022" stroke="red" stroke-width="6.660000" />
<circle cx="1522.959961" cy="800.960022" r="19.980000" fill="red">
  <title>Osaka</title>
</circle><line x1="1186.959961" y1="813.960022" x2="1522.959961" y2="800.960022" stroke="red" stroke-width="6.660000" />
<circle cx="1799.959961" cy="477.959991" r="19.980000" fill="red">
  <title>Chongqing</title>
</circle><line x1="1522.959961" y1="800.960022" x2="1799.959961" y2="477.959991" stroke="red" stroke-width="6.660000" />
<circle cx="2002.959961" cy="124.959999" r="19.980000" fill="red">
  <title>Manila</title>
</circle><line x1="1799.959961" y1="477.959991" x2="2002.959961" y2="124.959999" stroke="red" stroke-width="6.660000" />
<circle cx="1983.959961" cy="829.960022" r="19.980000" fill="red">
  <title>Delhi</title>
</circle><line x1="2002.959961" y1="124.959999" x2="1983.959961" y2="829.960022" stroke="red" stroke-width="6.660000" />
<circle cx="1709.959961" cy="1348.959961" r="19.980000" fill="red">
  <title>Cairo</title>
</circle><line x1="1983.959961" y1="829.960022" x2="1709.959961" y2="1348.959961" stroke="red" stroke-width="6.660000" />
<circle cx="1815.959961" cy="1755.959961" r="19.980000" fill="red">
  <title>Karachi</title>
</circle><line x1="1709.959961" y1="1348.959961" x2="1815.959961" y2="1755.959961" stroke="red" stroke-width="6.660000" />
<circle cx="1672.959961" cy="2031.959961" r="19.980000" fill="red">
  <title>Mexico City</title>
</circle><line x1="1815.959961" y1="1755.959961" x2="1672.959961" y2="2031.959961" stroke="red" stroke-width="6.660000" />
<circle cx="1682.959961" cy="1956.959961" r="19.980000" fill="red">
  <title>New York</title>
</circle><line x1="1672.959961" y1="2031.959961" x2="1682.959961" y2="1956.959961" stroke="red" stroke-width="6.660000" />
<circle cx="1631.959961" cy="1727.959961" r="19.980000" fill="red">
  <title>Mumbai</title>
</circle><line x1="1682.959961" y1="1956.959961" x2="1631.959961" y2="1727.959961" stroke="red" stroke-width="6.660000" />
<circle cx="1376.959961" cy="1452.959961" r="19.980000" fill="red">
  <title>Istanbul</title>
</circle><line x1="1631.959961" y1="1727.959961" x2="1376.959961" y2="1452.959961" stroke="red" stroke-width="6.660000" />
<circle cx="749.960022" cy="1490.959961" r="19.980000" fill="red">
  <title>Buenos Aires</title>
</circle><line x1="1376.959961" y1="1452.959961" x2="749.960022" y2="1490.959961" stroke="red" stroke-width="6.660000" />
<circle cx="178.959991" cy="1572.959961" r="19.980000" fill="red">
  <title>Kolkata</title>
</circle><line x1="749.960022" y1="1490.959961" x2="178.959991" y2="1572.959961" stroke="red" stroke-width="6.660000" />
<circle cx="363.959991" cy="1224.959961" r="19.980000" fill="red">
  <title>Lagos</title>
</circle><line x1="178.959991" y1="1572.959961" x2="363.959991" y2="1224.959961" stroke="red" stroke-width="6.660000" />
</svg>
