<?xml version="1.0" encoding="UTF-8" standalone="no"?>
<svg width="500" height="500" viewBox="0 0 2074.000000 2074.000000" xmlns="http://www.w3.org/2000/svg">
<rect x="19.000000" y="19.000000" width="2036.000000" height="2036.000000" fill="black" />
<circle cx="940.960022" cy="164.959991" r="19.980000" fill="red">
  <title>Tokyo</title>
</circle><line x1="1884.959961" y1="117.959999" x2="940.960022" y2="164.959991" stroke="red" stroke-width="6.660000" />
<circle cx="927.960022" cy="639.960022" r="19.980000" fill="red">
  <title>Delhi</title>
</circle><line x1="940.960022" y1="164.959991" x2="927.960022" y2="639.960022" stroke="red" stroke-width="6.660000" />
<circle cx="797.960022" cy="723.960022" r="19.980000" fill="red">
  <title>Dhaka</title>
</circle><line x1="927.960022" y1="639.960022" x2="797.960022" y2="723.960022" stroke="red" stroke-width="6.660000" />
<circle cx="76.959999" cy="498.959991" r="19.980000" fill="red">
  <title>Karachi</title>
</circle><line x1="797.960022" y1="723.960022" x2="76.959999" y2="498.959991" stroke="red" stroke-width="6.660000" />
<circle cx="223.959991" cy="669.960022" r="19.980000" fill="red">
  <title>New York</title>
</circle><line x1="76.959999" y1="498.959991" x2="223.959991" y2="669.960022" stroke="red" stroke-width="6.660000" />
<circle cx="814.960022" cy="868.960022" r="19.980000" fill="red">
  <title>São Paulo</title>
</circle><line x1="223.959991" y1="669.960022" x2="814.960022" y2="868.960022" stroke="red" stroke-width="6.660000" />
<circle cx="775.960022" cy="1237.959961" r="19.980000" fill="red">
  <title>Shanghai</title>
</circle><line x1="814.960022" y1="868.960022" x2="775.960022" y2="1237.959961" stroke="red" stroke-width="6.660000" />
<circle cx="458.959991" cy="1592.959961" r="19.980000" fill="red">
  <title>Cairo</title>
</circle><line x1="775.960022" y1="1237.959961" x2="458.959991" y2="1592.959961" stroke="red" stroke-width="6.660000" />
<circle cx="922.960022" cy="1718.959961" r="19.980000" fill="red">
  <title>Osaka</title>
</circle><line x1="458.959991" y1="1592.959961" x2="922.960022" y2="1718.959961" stroke="red" stroke-width="6.660000" />
<circle cx="1775.959961" cy="1930.959961" r="19.980000" fill="red">
  <title>Beijing</title>
</circle><line x1="922.960022" y1="1718.959961" x2="1775.959961" y2="1930.959961" stroke="red" stroke-width="6.660000" />
<circle cx="1515.959961" cy="864.960022" r="19.980000" fill="red">
  <title>Mumbai</title>
</circle><line x1="1775.959961" y1="1930.959961" x2="1515.959961" y2="864.960022" stroke="red" stroke-width="6.660000" />
<circle cx="1884.959961" cy="117.959999" r="19.980000" fill="red">
  <title>Mexico City</title>
</circle><line x1="1515.959961" y1="864.960022" x2="1884.959961" y2="117.959999" stroke="red" stroke-width="6.660000" />
</svg>
