<?xml version="1.0" encoding="UTF-8" standalone="no"?>
<svg width="500" height="500" viewBox="0 0 2074.000000 2074.000000" xmlns="http://www.w3.org/2000/svg">
<rect x="19.000000" y="19.000000" width="2036.000000" height="2036.000000" fill="black" />
<circle cx="572.960022" cy="748.960022" r="19.980000" fill="red">
  <title>Tokyo</title>
</circle><line x1="469.959991" y1="506.959991" x2="572.960022" y2="748.960022" stroke="red" stroke-width="6.660000" />
<circle cx="1970.959961" cy="342.959991" r="19.980000" fill="red">
  <title>Mumbai</title>
</circle><line x1="572.960022" y1="748.960022" x2="1970.959961" y2="342.959991" stroke="red" stroke-width="6.660000" />
<circle cx="1670.959961" cy="1305.959961" r="19.980000" fill="red">
  <title>Cairo</title>
</circle><line x1="1970.959961" y1="342.959991" x2="1670.959961" y2="1305.959961" stroke="red" stroke-width="6.660000" />
<circle cx="1511.959961" cy="1520.959961" r="19.980000" fill="red">
  <title>Delhi</title>
</circle><line x1="1670.959961" y1="1305.959961" x2="1511.959961" y2="1520.959961" stroke="red" stroke-width="6.660000" />
<circle cx="1294.959961" cy="1953.959961" r="19.980000" fill="red">
  <title>Mexico City</title>
</circle><line x1="1511.959961" y1="1520.959961" x2="1294.959961" y2="1953.959961" stroke="red" stroke-width="6.660000" />
<circle cx="1292.959961" cy="1769.959961" r="19.980000" fill="red">
  <title>Beijing</title>
</circle><line x1="1294.959961" y1="1953.959961" x2="1292.959961" y2="1769.959961" stroke="red" stroke-width="6.660000" />
<circle cx="1191.959961" cy="1342.959961" r="19.980000" fill="red">
  <title>São Paulo</title>
</circle><line x1="1292.959961" y1="1769.959961" x2="1191.959961" y2="1342.959961" stroke="red" stroke-width="6.660000" />
<circle cx="868.960022" cy="1506.959961" r="19.980000" fill="red">
  <title>Dhaka</title>
</circle><line x1="1191.959961" y1="1342.959961" x2="868.960022" y2="1506.959961" stroke="red" stroke-width="6.660000" />
<circle cx="628.960022" cy="1337.959961" r="19.980000" fill="red">
  <title>Osaka</title>
</circle><line x1="868.960022" y1="1506.959961" x2="628.960022" y2="1337.959961" stroke="red" stroke-width="6.660000" />
<circle cx="542.960022" cy="716.960022" r="19.980000" fill="red">
  <title>Shanghai</title>
</circle><line x1="628.960022" y1="1337.959961" x2="542.960022" y2="716.960022" stroke="red" stroke-width="6.660000" />
<circle cx="469.959991" cy="506.959991" r="19.980000" fill="red">
  <title>New York</title>
</circle><line x1="542.960022" y1="716.960022" x2="469.959991" y2="506.959991" stroke="red" stroke-width="6.660000" />
</svg>
