<?xml version="1.0" encoding="UTF-8" standalone="no"?>
<svg width="500" height="500" viewBox="0 0 2074.000000 2074.000000" xmlns="http://www.w3.org/2000/svg">
<rect x="19.000000" y="19.000000" width="2036.000000" height="2036.000000" fill="black" />
<circle cx="285.959991" cy="1270.959961" r="19.980000" fill="red">
  <title>Tokyo</title>
</circle><line x1="1010.960022" y1="1839.959961" x2="285.959991" y2="1270.959961" stroke="red" stroke-width="6.660000" />
<circle cx="827.960022" cy="759.960022" r="19.980000" fill="red">
  <title>Delhi</title>
</circle><line x1="285.959991" y1="1270.959961" x2="827.960022" y2="759.960022" stroke="red" stroke-width="6.660000" />
<circle cx="1103.959961" cy="485.959991" r="19.980000" fill="red">
  <title>Cairo</title>
</circle><line x1="827.960022" y1="759.960022" x2="1103.959961" y2="485.959991" stroke="red" stroke-width="6.660000" />
<circle cx="1017.960022" cy="223.959991" r="19.980000" fill="red">
  <title>Mexico City</title>
</circle><line x1="1103.959961" y1="485.959991" x2="1017.960022" y2="223.959991" stroke="red" stroke-width="6.660000" />
<circle cx="1520.959961" cy="191.959991" r="19.980000" fill="red">
  <title>Beijing</title>
</circle><line x1="1017.960022" y1="223.959991" x2="1520.959961" y2="191.959991" stroke="red" stroke-width="6.660000" />
<circle cx="1589.959961" cy="671.960022" r="19.980000" fill="red">
  <title>Shanghai</title>
</circle><line x1="1520.959961" y1="191.959991" x2="1589.959961" y2="671.960022" stroke="red" stroke-width="6.660000" />
<circle cx="1165.959961" cy="870.960022" r="19.980000" fill="red">
  <title>São Paulo</title>
</circle><line x1="1589.959961" y1="671.960022" x2="1165.959961" y2="870.960022" stroke="red" stroke-width="6.660000" />
<circle cx="1010.960022" cy="1839.959961" r="19.980000" fill="red">
  <title>Mumbai</title>
</circle><line x1="1165.959961" y1="870.960022" x2="1010.960022" y2="1839.959961" stroke="red" stroke-width="6.660000" />
</svg>
