<?xml version="1.0" encoding="UTF-8" standalone="no"?>
<svg width="500" height="500" viewBox="0 0 2074.000000 2074.000000" xmlns="http://www.w3.org/2000/svg">
<rect x="19.000000" y="19.000000" width="2036.000000" height="2036.000000" fill="black" />
<circle cx="274.959991" cy="1395.959961" r="19.980000" fill="red">
  <title>Tokyo</title>
</circle><line x1="964.960022" y1="1406.959961" x2="274.959991" y2="1395.959961" stroke="red" stroke-width="6.660000" />
<circle cx="106.959999" cy="1510.959961" r="19.980000" fill="red">
  <title>Beijing</title>
</circle><line x1="274.959991" y1="1395.959961" x2="106.959999" y2="1510.959961" stroke="red" stroke-width="6.660000" />
<circle cx="562.960022" cy="1273.959961" r="19.980000" fill="red">
  <title>Buenos Aires</title>
</circle><line x1="106.959999" y1="1510.959961" x2="562.960022" y2="1273.959961" stroke="red" stroke-width="6.660000" />
<circle cx="1166.959961" cy="1415.959961" r="19.980000" fill="red">
  <title>Karachi</title>
</circle><line x1="562.960022" y1="1273.959961" x2="1166.959961" y2="1415.959961" stroke="red" stroke-width="6.660000" />
<circle cx="1362.959961" cy="1193.959961" r="19.980000" fill="red">
  <title>Mexico City</title>
</circle><line x1="1166.959961" y1="1415.959961" x2="1362.959961" y2="1193.959961" stroke="red" stroke-width="6.660000" />
<circle cx="1208.959961" cy="785.960022" r="19.980000" fill="red">
  <title>Dhaka</title>
</circle><line x1="1362.959961" y1="1193.959961" x2="1208.959961" y2="785.960022" stroke="red" stroke-width="6.660000" />
<circle cx="1089.959961" cy="710.960022" r="19.980000" fill="red">
  <title>São Paulo</title>
</circle><line x1="1208.959961" y1="785.960022" x2="1089.959961" y2="710.960022" stroke="red" stroke-width="6.660000" />
<circle cx="748.960022" cy="191.959991" r="19.980000" fill="red">
  <title>Cairo</title>
</circle><line x1="1089.959961" y1="710.960022" x2="748.960022" y2="191.959991" stroke="red" stroke-width="6.660000" />
<circle cx="814.960022" cy="185.959991" r="19.980000" fill="red">
  <title>New York</title>
</circle><line x1="748.960022" y1="191.959991" x2="814.960022" y2="185.959991" stroke="red" stroke-width="6.660000" />
<circle cx="1377.959961" cy="59.959999" r="19.980000" fill="red">
  <title>Osaka</title>
</circle><line x1="814.960022" y1="185.959991" x2="1377.959961" y2="59.959999" stroke="red" stroke-width="6.660000" />
<circle cx="1347.959961" cy="647.960022" r="19.980000" fill="red">
  <title>Istanbul</title>
</circle><line x1="1377.959961" y1="59.959999" x2="1347.959961" y2="647.960022" stroke="red" stroke-width="6.660000" />
<circle cx="2003.959961" cy="947.960022" r="19.980000" fill="red">
  <title>Manila</title>
</circle><line x1="1347.959961" y1="647.960022" x2="2003.959961" y2="947.960022" stroke="red" stroke-width="6.660000" />
<circle cx="1777.959961" cy="1122.959961" r="19.980000" fill="red">
  <title>Mumbai</title>
</circle><line x1="2003.959961" y1="947.960022" x2="1777.959961" y2="1122.959961" stroke="red" stroke-width="6.660000" />
<circle cx="1652.959961" cy="1418.959961" r="19.980000" fill="red">
  <title>Delhi</title>
</circle><line x1="1777.959961" y1="1122.959961" x2="1652.959961" y2="1418.959961" stroke="red" stroke-width="6.660000" />
<circle cx="1332.959961" cy="1583.959961" r="19.980000" fill="red">
  <title>Kolkata</title>
</circle><line x1="1652.959961" y1="1418.959961" x2="1332.959961" y2="1583.959961" stroke="red" stroke-width="6.660000" />
<circle cx="1440.959961" cy="1860.959961" r="19.980000" fill="red">
  <title>Shanghai</title>
</circle><line x1="1332.959961" y1="1583.959961" x2="1440.959961" y2="1860.959961" stroke="red" stroke-width="6.660000" />
<circle cx="1177.959961" cy="1637.959961" r="19.980000" fill="red">
  <title>Chongqing</title>
</circle><line x1="1440.959961" y1="1860.959961" x2="1177.959961" y2="1637.959961" stroke="red" stroke-width="6.660000" />
<circle cx="964.960022" cy="1406.959961" r="19.980000" fill="red">
  <title>Lagos</title>
</circle><line x1="1177.959961" y1="1637.959961" x2="964.960022" y2="1406.959961" stroke="red" stroke-width="6.660000" />
</svg>
