<?xml version="1.0" encoding="UTF-8" standalone="no"?>
<svg width="500" height="500" viewBox="0 0 2074.000000 2074.000000" xmlns="http://www.w3.org/2000/svg">
<rect x="19.000000" y="19.000000" width="2036.000000" height="2036.000000" fill="black" />
<circle cx="136.959991" cy="1951.959961" r="19.980000" fill="red">
  <title>Tokyo</title>
</circle><line x1="728.960022" y1="1491.959961" x2="136.959991" y2="1951.959961" stroke="red" stroke-width="6.660000" />
<circle cx="683.960022" cy="1870.959961" r="19.980000" fill="red">
  <title>São Paulo</title>
</circle><line x1="136.959991" y1="1951.959961" x2="683.960022" y2="1870.959961" stroke="red" stroke-width="6.660000" />
<circle cx="813.960022" cy="1885.959961" r="19.980000" fill="red">
  <title>Dhaka</title>
</circle><line x1="683.960022" y1="1870.959961" x2="813.960022" y2="1885.959961" stroke="red" stroke-width="6.660000" />
<circle cx="1476.959961" cy="1123.959961" r="19.980000" fill="red">
  <title>Delhi</title>
</circle><line x1="813.960022" y1="1885.959961" x2="1476.959961" y2="1123.959961" stroke="red" stroke-width="6.660000" />
<circle cx="1905.959961" cy="781.960022" r="19.980000" fill="red">
  <title>Osaka</title>
</circle><line x1="1476.959961" y1="1123.959961" x2="1905.959961" y2="781.960022" stroke="red" stroke-width="6.660000" />
<circle cx="1977.959961" cy="625.960022" r="19.980000" fill="red">
  <title>Karachi</title>
</circle><line x1="1905.959961" y1="781.960022" x2="1977.959961" y2="625.960022" stroke="red" stroke-width="6.660000" />
<circle cx="1938.959961" cy="359.959991" r="19.980000" fill="red">
  <title>Beijing</title>
</circle><line x1="1977.959961" y1="625.960022" x2="1938.959961" y2="359.959991" stroke="red" stroke-width="6.660000" />
<circle cx="1722.959961" cy="548.960022" r="19.980000" fill="red">
  <title>Cairo</title>
</circle><line x1="1938.959961" y1="359.959991" x2="1722.959961" y2="548.960022" stroke="red" stroke-width="6.660000" />
<circle cx="1437.959961" cy="724.960022" r="19.980000" fill="red">
  <title>Mexico City</title>
</circle><line x1="1722.959961" y1="548.960022" x2="1437.959961" y2="724.960022" stroke="red" stroke-width="6.660000" />
<circle cx="710.960022" cy="351.959991" r="19.980000" fill="red">
  <title>Shanghai</title>
</circle><line x1="1437.959961" y1="724.960022" x2="710.960022" y2="351.959991" stroke="red" stroke-width="6.660000" />
<circle cx="875.960022" cy="1145.959961" r="19.980000" fill="red">
  <title>New York</title>
</circle><line x1="710.960022" y1="351.959991" x2="875.960022" y2="1145.959961" stroke="red" stroke-width="6.660000" />
<circle cx="728.960022" cy="1491.959961" r="19.980000" fill="red">
  <title>Mumbai</title>
</circle><line x1="875.960022" y1="1145.959961" x2="728.960022" y2="1491.959961" stroke="red" stroke-width="6.660000" />
</svg>
