<?xml version="1.0" encoding="UTF-8" standalone="no"?>
<svg width="500" height="500" viewBox="0 0 2074.000000 2074.000000" xmlns="http://www.w3.org/2000/svg">
<rect x="19.000000" y="19.000000" width="2036.000000" height="2036.000000" fill="black" />
<circle cx="328.959991" cy="541.960022" r="19.980000" fill="red">
  <title>Tokyo</title>
</circle><line x1="707.960022" y1="1470.959961" x2="328.959991" y2="541.960022" stroke="red" stroke-width="6.660000" />
<circle cx="1863.959961" cy="1598.959961" r="19.980000" fill="red">
  <title>Delhi</title>
</circle><line x1="328.959991" y1="541.960022" x2="1863.959961" y2="1598.959961" stroke="red" stroke-width="6.660000" />
<circle cx="1812.959961" cy="1856.959961" r="19.980000" fill="red">
  <title>Shanghai</title>
</circle><line x1="1863.959961" y1="1598.959961" x2="1812.959961" y2="1856.959961" stroke="red" stroke-width="6.660000" />
<circle cx="707.960022" cy="1470.959961" r="19.980000" fill="red">
  <title>São Paulo</title>
</circle><line x1="1812.959961" y1="1856.959961" x2="707.960022" y2="1470.959961" stroke="red" stroke-width="6.660000" />
</svg>
