<?xml version="1.0" encoding="UTF-8" standalone="no"?>
<svg width="500" height="500" viewBox="0 0 2074.000000 2074.000000" xmlns="http://www.w3.org/2000/svg">
<rect x="19.000000" y="19.000000" width="2036.000000" height="2036.000000" fill="black" />
<circle cx="1169.959961" cy="1157.959961" r="19.980000" fill="red">
  <title>Tokyo</title>
</circle><line x1="1492.959961" y1="867.960022" x2="1169.959961" y2="1157.959961" stroke="red" stroke-width="6.660000" />
<circle cx="1918.959961" cy="1843.959961" r="19.980000" fill="red">
  <title>Cairo</title>
</circle><line x1="1169.959961" y1="1157.959961" x2="1918.959961" y2="1843.959961" stroke="red" stroke-width="6.660000" />
<circle cx="1556.959961" cy="1710.959961" r="19.980000" fill="red">
  <title>São Paulo</title>
</circle><line x1="1918.959961" y1="1843.959961" x2="1556.959961" y2="1710.959961" stroke="red" stroke-width="6.660000" />
<circle cx="819.960022" cy="1593.959961" r="19.980000" fill="red">
  <title>Dhaka</title>
</circle><line x1="1556.959961" y1="1710.959961" x2="819.960022" y2="1593.959961" stroke="red" stroke-width="6.660000" />
<circle cx="392.959991" cy="1394.959961" r="19.980000" fill="red">
  <title>Shanghai</title>
</circle><line x1="819.960022" y1="1593.959961" x2="392.959991" y2="1394.959961" stroke="red" stroke-width="6.660000" />
<circle cx="738.960022" cy="991.960022" r="19.980000" fill="red">
  <title>Delhi</title>
</circle><line x1="392.959991" y1="1394.959961" x2="738.960022" y2="991.960022" stroke="red" stroke-width="6.660000" />
<circle cx="521.960022" cy="164.959991" r="19.980000" fill="red">
  <title>Mumbai</title>
</circle><line x1="738.960022" y1="991.960022" x2="521.960022" y2="164.959991" stroke="red" stroke-width="6.660000" />
<circle cx="1048.959961" cy="600.960022" r="19.980000" fill="red">
  <title>Mexico City</title>
</circle><line x1="521.960022" y1="164.959991" x2="1048.959961" y2="600.960022" stroke="red" stroke-width="6.660000" />
<circle cx="1492.959961" cy="867.960022" r="19.980000" fill="red">
  <title>Beijing</title>
</circle><line x1="1048.959961" y1="600.960022" x2="1492.959961" y2="867.960022" stroke="red" stroke-width="6.660000" />
</svg>
