<?xml version="1.0" encoding="UTF-8" standalone="no"?>
<svg width="500" height="500" viewBox="0 0 2074.000000 2074.000000" xmlns="http://www.w3.org/2000/svg">
<rect x="19.000000" y="19.000000" width="2036.000000" height="2036.000000" fill="black" />
<circle cx="376.959991" cy="176.959991" r="19.980000" fill="red">
  <title>Tokyo</title>
</circle><line x1="379.959991" y1="174.959991" x2="376.959991" y2="176.959991" stroke="red" stroke-width="6.660000" />
<circle cx="723.960022" cy="597.960022" r="19.980000" fill="red">
  <title>Delhi</title>
</circle><line x1="376.959991" y1="176.959991" x2="723.960022" y2="597.960022" stroke="red" stroke-width="6.660000" />
<circle cx="776.960022" cy="1221.959961" r="19.980000" fill="red">
  <title>Dhaka</title>
</circle><line x1="723.960022" y1="597.960022" x2="776.960022" y2="1221.959961" stroke="red" stroke-width="6.660000" />
<circle cx="444.959991" cy="1343.959961" r="19.980000" fill="red">
  <title>Osaka</title>
</circle><line x1="776.960022" y1="1221.959961" x2="444.959991" y2="1343.959961" stroke="red" stroke-width="6.660000" />
<circle cx="667.960022" cy="1889.959961" r="19.980000" fill="red">
  <title>Karachi</title>
</circle><line x1="444.959991" y1="1343.959961" x2="667.960022" y2="1889.959961" stroke="red" stroke-width="6.660000" />
<circle cx="1726.959961" cy="1539.959961" r="19.980000" fill="red">
  <title>New York</title>
</circle><line x1="667.960022" y1="1889.959961" x2="1726.959961" y2="1539.959961" stroke="red" stroke-width="6.660000" />
<circle cx="1790.959961" cy="1362.959961" r="19.980000" fill="red">
  <title>Shanghai</title>
</circle><line x1="1726.959961" y1="1539.959961" x2="1790.959961" y2="1362.959961" stroke="red" stroke-width="6.660000" />
<circle cx="1668.959961" cy="809.960022" r="19.980000" fill="red">
  <title>Cairo</title>
</circle><line x1="1790.959961" y1="1362.959961" x2="1668.959961" y2="809.960022" stroke="red" stroke-width="6.660000" />
<circle cx="1961.959961" cy="548.960022" r="19.980000" fill="red">
  <title>Mumbai</title>
</circle><line x1="1668.959961" y1="809.960022" x2="1961.959961" y2="548.960022" stroke="red" stroke-width="6.660000" />
<circle cx="1901.959961" cy="145.959991" r="19.980000" fill="red">
  <title>Beijing</title>
</circle><line x1="1961.959961" y1="548.960022" x2="1901.959961" y2="145.959991" stroke="red" stroke-width="6.660000" />
<circle cx="1399.959961" cy="595.960022" r="19.980000" fill="red">
  <title>Mexico City</title>
</circle><line x1="1901.959961" y1="145.959991" x2="1399.959961" y2="595.960022" stroke="red" stroke-width="6.660000" />
<circle cx="379.959991" cy="174.959991" r="19.980000" fill="red">
  <title>São Paulo</title>
</circle><line x1="1399.959961" y1="595.960022" x2="379.959991" y2="174.959991" stroke="red" stroke-width="6.660000" />
</svg>
