<?xml version="1.0" encoding="UTF-8" standalone="no"?>
<svg width="500" height="500" viewBox="0 0 2074.000000 2074.000000" xmlns="http://www.w3.org/2000/svg">
<rect x="19.000000" y="19.000000" width="2036.000000" height="2036.000000" fill="black" />
<circle cx="1555.959961" cy="730.960022" r="19.980000" fill="red">
  <title>Tokyo</title>
</circle><line x1="1486.959961" y1="662.960022" x2="1555.959961" y2="730.960022" stroke="red" stroke-width="6.660000" />
<circle cx="1348.959961" cy="1482.959961" r="19.980000" fill="red">
  <title>Shanghai</title>
</circle><line x1="1555.959961" y1="730.960022" x2="1348.959961" y2="1482.959961" stroke="red" stroke-width="6.660000" />
<circle cx="424.959991" cy="1686.959961" r="19.980000" fill="red">
  <title>Delhi</title>
</circle><line x1="1348.959961" y1="1482.959961" x2="424.959991" y2="1686.959961" stroke="red" stroke-width="6.660000" />
<circle cx="1486.959961" cy="662.960022" r="19.980000" fill="red">
  <title>São Paulo</title>
</circle><line x1="424.959991" y1="1686.959961" x2="1486.959961" y2="662.960022" stroke="red" stroke-width="6.660000" />
</svg>
