<?xml version="1.0" encoding="UTF-8" standalone="no"?>
<svg width="500" height="500" viewBox="0 0 2074.000000 2074.000000" xmlns="http://www.w3.org/2000/svg">
<rect x="19.000000" y="19.000000" width="2036.000000" height="2036.000000" fill="black" />
<circle cx="100.959999" cy="1389.959961" r="19.980000" fill="red">
  <title>Tokyo</title>
</circle><line x1="283.959991" y1="917.960022" x2="100.959999" y2="1389.959961" stroke="red" stroke-width="6.660000" />
<circle cx="192.959991" cy="1651.959961" r="19.980000" fill="red">
  <title>São Paulo</title>
</circle><line x1="100.959999" y1="1389.959961" x2="192.959991" y2="1651.959961" stroke="red" stroke-width="6.660000" />
<circle cx="631.960022" cy="1776.959961" r="19.980000" fill="red">
  <title>New York</title>
</circle><line x1="192.959991" y1="1651.959961" x2="631.960022" y2="1776.959961" stroke="red" stroke-width="6.660000" />
<circle cx="949.960022" cy="1521.959961" r="19.980000" fill="red">
  <title>Kolkata</title>
</circle><line x1="631.960022" y1="1776.959961" x2="949.960022" y2="1521.959961" stroke="red" stroke-width="6.660000" />
<circle cx="867.960022" cy="1141.959961" r="19.980000" fill="red">
  <title>Beijing</title>
</circle><line x1="949.960022" y1="1521.959961" x2="867.960022" y2="1141.959961" stroke="red" stroke-width="6.660000" />
<circle cx="703.960022" cy="1019.960022" r="19.980000" fill="red">
  <title>Dhaka</title>
</circle><line x1="867.960022" y1="1141.959961" x2="703.960022" y2="1019.960022" stroke="red" stroke-width="6.660000" />
<circle cx="1063.959961" cy="1014.960022" r="19.980000" fill="red">
  <title>Delhi</title>
</circle><line x1="703.960022" y1="1019.960022" x2="1063.959961" y2="1014.960022" stroke="red" stroke-width="6.660000" />
<circle cx="1343.959961" cy="1379.959961" r="19.980000" fill="red">
  <title>Mumbai</title>
</circle><line x1="1063.959961" y1="1014.960022" x2="1343.959961" y2="1379.959961" stroke="red" stroke-width="6.660000" />
<circle cx="1379.959961" cy="1826.959961" r="19.980000" fill="red">
  <title>Buenos Aires</title>
</circle><line x1="1343.959961" y1="1379.959961" x2="1379.959961" y2="1826.959961" stroke="red" stroke-width="6.660000" />
<circle cx="1717.959961" cy="1469.959961" r="19.980000" fill="red">
  <title>Chongqing</title>
</circle><line x1="1379.959961" y1="1826.959961" x2="1717.959961" y2="1469.959961" stroke="red" stroke-width="6.660000" />
<circle cx="1525.959961" cy="1388.959961" r="19.980000" fill="red">
  <title>Shanghai</title>
</circle><line x1="1717.959961" y1="1469.959961" x2="1525.959961" y2="1388.959961" stroke="red" stroke-width="6.660000" />
<circle cx="1533.959961" cy="925.960022" r="19.980000" fill="red">
  <title>Cairo</title>
</circle><line x1="1525.959961" y1="1388.959961" x2="1533.959961" y2="925.960022" stroke="red" stroke-width="6.660000" />
<circle cx="1460.959961" cy="350.959991" r="19.980000" fill="red">
  <title>Istanbul</title>
</circle><line x1="1533.959961" y1="925.960022" x2="1460.959961" y2="350.959991" stroke="red" stroke-width="6.660000" />
<circle cx="1137.959961" cy="254.959991" r="19.980000" fill="red">
  <title>Mexico City</title>
</circle><line x1="1460.959961" y1="350.959991" x2="1137.959961" y2="254.959991" stroke="red" stroke-width="6.660000" />
<circle cx="176.959991" cy="186.959991" r="19.980000" fill="red">
  <title>Osaka</title>
</circle><line x1="1137.959961" y1="254.959991" x2="176.959991" y2="186.959991" stroke="red" stroke-width="6.660000" />
<circle cx="283.959991" cy="917.960022" r="19.980000" fill="red">
  <title>Karachi</title>
</circle><line x1="176.959991" y1="186.959991" x2="283.959991" y2="917.960022" stroke="red" stroke-width="6.660000" />
</svg>
