<?xml version="1.0" encoding="UTF-8" standalone="no"?>
<svg width="500" height="500" viewBox="0 0 2074.000000 2074.000000" xmlns="http://www.w3.org/2000/svg">
<rect x="19.000000" y="19.000000" width="2036.000000" height="2036.000000" fill="black" />
<circle cx="1672.959961" cy="718.960022" r="19.980000" fill="red">
  <title>Tokyo</title>
</circle><line x1="140.959991" y1="540.960022" x2="1672.959961" y2="718.960022" stroke="red" stroke-width="6.660000" />
<circle cx="1793.959961" cy="1356.959961" r="19.980000" fill="red">
  <title>Shanghai</title>
</circle><line x1="1672.959961" y1="718.960022" x2="1793.959961" y2="1356.959961" stroke="red" stroke-width="6.660000" />
<circle cx="1623.959961" cy="1798.959961" r="19.980000" fill="red">
  <title>Delhi</title>
</circle><line x1="1793.959961" y1="1356.959961" x2="1623.959961" y2="1798.959961" stroke="red" stroke-width="6.660000" />
<circle cx="179.959991" cy="691.960022" r="19.980000" fill="red">
  <title>São Paulo</title>
</circle><line x1="1623.959961" y1="1798.959961" x2="179.959991" y2="691.960022" stroke="red" stroke-width="6.660000" />
<circle cx="140.959991" cy="540.960022" r="19.980000" fill="red">
  <title>Mexico City</title>
</circle><line x1="179.959991" y1="691.960022" x2="140.959991" y2="540.960022" stroke="red" stroke-width="6.660000" />
</svg>
