<?xml version="1.0" encoding="UTF-8" standalone="no"?>
<svg width="500" height="500" viewBox="0 0 2074.000000 2074.000000" xmlns="http://www.w3.org/2000/svg">
<rect x="19.000000" y="19.000000" width="2036.000000" height="2036.000000" fill="black" />
<circle cx="66.959999" cy="1126.959961" r="19.980000" fill="red">
  <title>Tokyo</title>
</circle><line x1="312.959991" y1="1654.959961" x2="66.959999" y2="1126.959961" stroke="red" stroke-width="6.660000" />
<circle cx="509.959991" cy="1088.959961" r="19.980000" fill="red">
  <title>Manila</title>
</circle><line x1="66.959999" y1="1126.959961" x2="509.959991" y2="1088.959961" stroke="red" stroke-width="6.660000" />
<circle cx="571.960022" cy="809.960022" r="19.980000" fill="red">
  <title>Beijing</title>
</circle><line x1="509.959991" y1="1088.959961" x2="571.960022" y2="809.960022" stroke="red" stroke-width="6.660000" />
<circle cx="982.960022" cy="1089.959961" r="19.980000" fill="red">
  <title>New York</title>
</circle><line x1="571.960022" y1="809.960022" x2="982.960022" y2="1089.959961" stroke="red" stroke-width="6.660000" />
<circle cx="1049.959961" cy="1179.959961" r="19.980000" fill="red">
  <title>Karachi</title>
</circle><line x1="982.960022" y1="1089.959961" x2="1049.959961" y2="1179.959961" stroke="red" stroke-width="6.660000" />
<circle cx="1151.959961" cy="1216.959961" r="19.980000" fill="red">
  <title>Delhi</title>
</circle><line x1="1049.959961" y1="1179.959961" x2="1151.959961" y2="1216.959961" stroke="red" stroke-width="6.660000" />
<circle cx="1342.959961" cy="1206.959961" r="19.980000" fill="red">
  <title>Buenos Aires</title>
</circle><line x1="1151.959961" y1="1216.959961" x2="1342.959961" y2="1206.959961" stroke="red" stroke-width="6.660000" />
<circle cx="1712.959961" cy="417.959991" r="19.980000" fill="red">
  <title>Chongqing</title>
</circle><line x1="1342.959961" y1="1206.959961" x2="1712.959961" y2="417.959991" stroke="red" stroke-width="6.660000" />
<circle cx="1806.959961" cy="165.959991" r="19.980000" fill="red">
  <title>Shanghai</title>
</circle><line x1="1712.959961" y1="417.959991" x2="1806.959961" y2="165.959991" stroke="red" stroke-width="6.660000" />
<circle cx="1564.959961" cy="1286.959961" r="19.980000" fill="red">
  <title>Mexico City</title>
</circle><line x1="1806.959961" y1="165.959991" x2="1564.959961" y2="1286.959961" stroke="red" stroke-width="6.660000" />
<circle cx="1678.959961" cy="1421.959961" r="19.980000" fill="red">
  <title>Istanbul</title>
</circle><line x1="1564.959961" y1="1286.959961" x2="1678.959961" y2="1421.959961" stroke="red" stroke-width="6.660000" />
<circle cx="1975.959961" cy="1706.959961" r="19.980000" fill="red">
  <title>Kolkata</title>
</circle><line x1="1678.959961" y1="1421.959961" x2="1975.959961" y2="1706.959961" stroke="red" stroke-width="6.660000" />
<circle cx="1953.959961" cy="1921.959961" r="19.980000" fill="red">
  <title>São Paulo</title>
</circle><line x1="1975.959961" y1="1706.959961" x2="1953.959961" y2="1921.959961" stroke="red" stroke-width="6.660000" />
<circle cx="1537.959961" cy="1987.959961" r="19.980000" fill="red">
  <title>Cairo</title>
</circle><line x1="1953.959961" y1="1921.959961" x2="1537.959961" y2="1987.959961" stroke="red" stroke-width="6.660000" />
<circle cx="1290.959961" cy="1895.959961" r="19.980000" fill="red">
  <title>Mumbai</title>
</circle><line x1="1537.959961" y1="1987.959961" x2="1290.959961" y2="1895.959961" stroke="red" stroke-width="6.660000" />
<circle cx="1156.959961" cy="1603.959961" r="19.980000" fill="red">
  <title>Dhaka</title>
</circle><line x1="1290.959961" y1="1895.959961" x2="1156.959961" y2="1603.959961" stroke="red" stroke-width="6.660000" />
<circle cx="312.959991" cy="1654.959961" r="19.980000" fill="red">
  <title>Osaka</title>
</circle><line x1="1156.959961" y1="1603.959961" x2="312.959991" y2="1654.959961" stroke="red" stroke-width="6.660000" />
</svg>
