<?xml version="1.0" encoding="UTF-8" standalone="no"?>
<svg width="500" height="500" viewBox="0 0 2074.000000 2074.000000" xmlns="http://www.w3.org/2000/svg">
<rect x="19.000000" y="19.000000" width="2036.000000" height="2036.000000" fill="black" />
<circle cx="155.959991" cy="310.959991" r="19.980000" fill="red">
  <title>Tokyo</title>
</circle><line x1="308.959991" y1="98.959999" x2="155.959991" y2="310.959991" stroke="red" stroke-width="6.660000" />
<circle cx="425.959991" cy="561.960022" r="19.980000" fill="red">
  <title>Mexico City</title>
</circle><line x1="155.959991" y1="310.959991" x2="425.959991" y2="561.960022" stroke="red" stroke-width="6.660000" />
<circle cx="423.959991" cy="1073.959961" r="19.980000" fill="red">
  <title>Dhaka</title>
</circle><line x1="425.959991" y1="561.960022" x2="423.959991" y2="1073.959961" stroke="red" stroke-width="6.660000" />
<circle cx="647.960022" cy="1811.959961" r="19.980000" fill="red">
  <title>Shanghai</title>
</circle><line x1="423.959991" y1="1073.959961" x2="647.960022" y2="1811.959961" stroke="red" stroke-width="6.660000" />
<circle cx="1140.959961" cy="1780.959961" r="19.980000" fill="red">
  <title>Cairo</title>
</circle><line x1="647.960022" y1="1811.959961" x2="1140.959961" y2="1780.959961" stroke="red" stroke-width="6.660000" />
<circle cx="1225.959961" cy="1747.959961" r="19.980000" fill="red">
  <title>New York</title>
</circle><line x1="1140.959961" y1="1780.959961" x2="1225.959961" y2="1747.959961" stroke="red" stroke-width="6.660000" />
<circle cx="1385.959961" cy="1197.959961" r="19.980000" fill="red">
  <title>São Paulo</title>
</circle><line x1="1225.959961" y1="1747.959961" x2="1385.959961" y2="1197.959961" stroke="red" stroke-width="6.660000" />
<circle cx="1627.959961" cy="877.960022" r="19.980000" fill="red">
  <title>Delhi</title>
</circle><line x1="1385.959961" y1="1197.959961" x2="1627.959961" y2="877.960022" stroke="red" stroke-width="6.660000" />
<circle cx="1948.959961" cy="561.960022" r="19.980000" fill="red">
  <title>Karachi</title>
</circle><line x1="1627.959961" y1="877.960022" x2="1948.959961" y2="561.960022" stroke="red" stroke-width="6.660000" />
<circle cx="1351.959961" cy="465.959991" r="19.980000" fill="red">
  <title>Beijing</title>
</circle><line x1="1948.959961" y1="561.960022" x2="1351.959961" y2="465.959991" stroke="red" stroke-width="6.660000" />
<circle cx="1117.959961" cy="409.959991" r="19.980000" fill="red">
  <title>Mumbai</title>
</circle><line x1="1351.959961" y1="465.959991" x2="1117.959961" y2="409.959991" stroke="red" stroke-width="6.660000" />
<circle cx="308.959991" cy="98.959999" r="19.980000" fill="red">
  <title>Osaka</title>
</circle><line x1="1117.959961" y1="409.959991" x2="308.959991" y2="98.959999" stroke="red" stroke-width="6.660000" />
</svg>
