<?xml version="1.0" encoding="UTF-8" standalone="no"?>
<svg width="500" height="500" viewBox="0 0 2074.000000 2074.000000" xmlns="http://www.w3.org/2000/svg">
<rect x="19.000000" y="19.000000" width="2036.000000" height="2036.000000" fill="black" />
<circle cx="609.960022" cy="642.960022" r="19.980000" fill="red">
  <title>Tokyo</title>
</circle><line x1="412.959991" y1="363.959991" x2="609.960022" y2="642.960022" stroke="red" stroke-width="6.660000" />
<circle cx="339.959991" cy="698.960022" r="19.980000" fill="red">
  <title>Mumbai</title>
</circle><line x1="609.960022" y1="642.960022" x2="339.959991" y2="698.960022" stroke="red" stroke-width="6.660000" />
<circle cx="304.959991" cy="2037.959961" r="19.980000" fill="red">
  <title>New York</title>
</circle><line x1="339.959991" y1="698.960022" x2="304.959991" y2="2037.959961" stroke="red" stroke-width="6.660000" />
<circle cx="1240.959961" cy="1586.959961" r="19.980000" fill="red">
  <title>Cairo</title>
</circle><line x1="304.959991" y1="2037.959961" x2="1240.959961" y2="1586.959961" stroke="red" stroke-width="6.660000" />
<circle cx="2029.959961" cy="1896.959961" r="19.980000" fill="red">
  <title>Mexico City</title>
</circle><line x1="1240.959961" y1="1586.959961" x2="2029.959961" y2="1896.959961" stroke="red" stroke-width="6.660000" />
<circle cx="1589.959961" cy="1444.959961" r="19.980000" fill="red">
  <title>Beijing</title>
</circle><line x1="2029.959961" y1="1896.959961" x2="1589.959961" y2="1444.959961" stroke="red" stroke-width="6.660000" />
<circle cx="1545.959961" cy="1155.959961" r="19.980000" fill="red">
  <title>Chongqing</title>
</circle><line x1="1589.959961" y1="1444.959961" x2="1545.959961" y2="1155.959961" stroke="red" stroke-width="6.660000" />
<circle cx="1813.959961" cy="838.960022" r="19.980000" fill="red">
  <title>São Paulo</title>
</circle><line x1="1545.959961" y1="1155.959961" x2="1813.959961" y2="838.960022" stroke="red" stroke-width="6.660000" />
<circle cx="1938.959961" cy="409.959991" r="19.980000" fill="red">
  <title>Buenos Aires</title>
</circle><line x1="1813.959961" y1="838.960022" x2="1938.959961" y2="409.959991" stroke="red" stroke-width="6.660000" />
<circle cx="1672.959961" cy="157.959991" r="19.980000" fill="red">
  <title>Osaka</title>
</circle><line x1="1938.959961" y1="409.959991" x2="1672.959961" y2="157.959991" stroke="red" stroke-width="6.660000" />
<circle cx="1629.959961" cy="70.959999" r="19.980000" fill="red">
  <title>Delhi</title>
</circle><line x1="1672.959961" y1="157.959991" x2="1629.959961" y2="70.959999" stroke="red" stroke-width="6.660000" />
<circle cx="1158.959961" cy="678.960022" r="19.980000" fill="red">
  <title>Karachi</title>
</circle><line x1="1629.959961" y1="70.959999" x2="1158.959961" y2="678.960022" stroke="red" stroke-width="6.660000" />
<circle cx="855.960022" cy="49.959999" r="19.980000" fill="red">
  <title>Shanghai</title>
</circle><line x1="1158.959961" y1="678.960022" x2="855.960022" y2="49.959999" stroke="red" stroke-width="6.660000" />
<circle cx="427.959991" cy="349.959991" r="19.980000" fill="red">
  <title>Dhaka</title>
</circle><line x1="855.960022" y1="49.959999" x2="427.959991" y2="349.959991" stroke="red" stroke-width="6.660000" />
<circle cx="412.959991" cy="363.959991" r="19.980000" fill="red">
  <title>Istanbul</title>
</circle><line x1="427.959991" y1="349.959991" x2="412.959991" y2="363.959991" stroke="red" stroke-width="6.660000" />
</svg>
