<?xml version="1.0" encoding="UTF-8" standalone="no"?>
<svg width="500" height="500" viewBox="0 0 2074.000000 2074.000000" xmlns="http://www.w3.org/2000/svg">
<rect x="19.000000" y="19.000000" width="2036.000000" height="2036.000000" fill="black" />
<circle cx="1494.959961" cy="176.959991" r="19.980000" fill="red">
  <title>Tokyo</title>
</circle><line x1="1806.959961" y1="773.960022" x2="1494.959961" y2="176.959991" stroke="red" stroke-width="6.660000" />
<circle cx="1396.959961" cy="266.959991" r="19.980000" fill="red">
  <title>Kolkata</title>
</circle><line x1="1494.959961" y1="176.959991" x2="1396.959961" y2="266.959991" stroke="red" stroke-width="6.660000" />
<circle cx="1063.959961" cy="489.959991" r="19.980000" fill="red">
  <title>Tianjin</title>
</circle><line x1="1396.959961" y1="266.959991" x2="1063.959961" y2="489.959991" stroke="red" stroke-width="6.660000" />
<circle cx="658.960022" cy="167.959991" r="19.980000" fill="red">
  <title>São Paulo</title>
</circle><line x1="1063.959961" y1="489.959991" x2="658.960022" y2="167.959991" stroke="red" stroke-width="6.660000" />
<circle cx="363.959991" cy="118.959999" r="19.980000" fill="red">
  <title>Beijing</title>
</circle><line x1="658.960022" y1="167.959991" x2="363.959991" y2="118.959999" stroke="red" stroke-width="6.660000" />
<circle cx="179.959991" cy="301.959991" r="19.980000" fill="red">
  <title>New York</title>
</circle><line x1="363.959991" y1="118.959999" x2="179.959991" y2="301.959991" stroke="red" stroke-width="6.660000" />
<circle cx="149.959991" cy="411.959991" r="19.980000" fill="red">
  <title>Osaka</title>
</circle><line x1="179.959991" y1="301.959991" x2="149.959991" y2="411.959991" stroke="red" stroke-width="6.660000" />
<circle cx="464.959991" cy="440.959991" r="19.980000" fill="red">
  <title>Karachi</title>
</circle><line x1="149.959991" y1="411.959991" x2="464.959991" y2="440.959991" stroke="red" stroke-width="6.660000" />
<circle cx="331.959991" cy="656.960022" r="19.980000" fill="red">
  <title>Rio de Janeiro</title>
</circle><line x1="464.959991" y1="440.959991" x2="331.959991" y2="656.960022" stroke="red" stroke-width="6.660000" />
<circle cx="197.959991" cy="994.960022" r="19.980000" fill="red">
  <title>Mexico City</title>
</circle><line x1="331.959991" y1="656.960022" x2="197.959991" y2="994.960022" stroke="red" stroke-width="6.660000" />
<circle cx="810.960022" cy="1029.959961" r="19.980000" fill="red">
  <title>Istanbul</title>
</circle><line x1="197.959991" y1="994.960022" x2="810.960022" y2="1029.959961" stroke="red" stroke-width="6.660000" />
<circle cx="327.959991" cy="1391.959961" r="19.980000" fill="red">
  <title>Cairo</title>
</circle><line x1="810.960022" y1="1029.959961" x2="327.959991" y2="1391.959961" stroke="red" stroke-width="6.660000" />
<circle cx="112.959999" cy="1498.959961" r="19.980000" fill="red">
  <title>Chongqing</title>
</circle><line x1="327.959991" y1="1391.959961" x2="112.959999" y2="1498.959961" stroke="red" stroke-width="6.660000" />
<circle cx="238.959991" cy="1808.959961" r="19.980000" fill="red">
  <title>Delhi</title>
</circle><line x1="112.959999" y1="1498.959961" x2="238.959991" y2="1808.959961" stroke="red" stroke-width="6.660000" />
<circle cx="939.960022" cy="1927.959961" r="19.980000" fill="red">
  <title>Dhaka</title>
</circle><line x1="238.959991" y1="1808.959961" x2="939.960022" y2="1927.959961" stroke="red" stroke-width="6.660000" />
<circle cx="1166.959961" cy="1595.959961" r="19.980000" fill="red">
  <title>Manila</title>
</circle><line x1="939.960022" y1="1927.959961" x2="1166.959961" y2="1595.959961" stroke="red" stroke-width="6.660000" />
<circle cx="1432.959961" cy="1680.959961" r="19.980000" fill="red">
  <title>Buenos Aires</title>
</circle><line x1="1166.959961" y1="1595.959961" x2="1432.959961" y2="1680.959961" stroke="red" stroke-width="6.660000" />
<circle cx="2028.959961" cy="1711.959961" r="19.980000" fill="red">
  <title>Mumbai</title>
</circle><line x1="1432.959961" y1="1680.959961" x2="2028.959961" y2="1711.959961" stroke="red" stroke-width="6.660000" />
<circle cx="2036.959961" cy="934.960022" r="19.980000" fill="red">
  <title>Lagos</title>
</circle><line x1="2028.959961" y1="1711.959961" x2="2036.959961" y2="934.960022" stroke="red" stroke-width="6.660000" />
<circle cx="1806.959961" cy="773.960022" r="19.980000" fill="red">
  <title>Shanghai</title>
</circle><line x1="2036.959961" y1="934.960022" x2="1806.959961" y2="773.960022" stroke="red" stroke-width="6.660000" />
</svg>
