<?xml version="1.0" encoding="UTF-8" standalone="no"?>
<svg width="500" height="500" viewBox="0 0 2074.000000 2074.000000" xmlns="http://www.w3.org/2000/svg">
<rect x="19.000000" y="19.000000" width="2036.000000" height="2036.000000" fill="black" />
<circle cx="332.959991" cy="1847.959961" r="19.980000" fill="red">
  <title>Tokyo</title>
</circle><line x1="1024.959961" y1="1061.959961" x2="332.959991" y2="1847.959961" stroke="red" stroke-width="6.660000" />
<circle cx="1163.959961" cy="1950.959961" r="19.980000" fill="red">
  <title>São Paulo</title>
</circle><line x1="332.959991" y1="1847.959961" x2="1163.959961" y2="1950.959961" stroke="red" stroke-width="6.660000" />
<circle cx="1197.959961" cy="846.960022" r="19.980000" fill="red">
  <title>Delhi</title>
</circle><line x1="1163.959961" y1="1950.959961" x2="1197.959961" y2="846.960022" stroke="red" stroke-width="6.660000" />
<circle cx="1024.959961" cy="1061.959961" r="19.980000" fill="red">
  <title>Shanghai</title>
</circle><line x1="1197.959961" y1="846.960022" x2="1024.959961" y2="1061.959961" stroke="red" stroke-width="6.660000" />
</svg>
