<?xml version="1.0" encoding="UTF-8" standalone="no"?>
<svg width="500" height="500" viewBox="0 0 2074.000000 2074.000000" xmlns="http://www.w3.org/2000/svg">
<rect x="19.000000" y="19.000000" width="2036.000000" height="2036.000000" fill="black" />
<circle cx="1349.959961" cy="313.959991" r="19.980000" fill="red">
  <title>Tokyo</title>
</circle><line x1="1863.959961" y1="785.960022" x2="1349.959961" y2="313.959991" stroke="red" stroke-width="6.660000" />
<circle cx="87.959999" cy="1408.959961" r="19.980000" fill="red">
  <title>Delhi</title>
</circle><line x1="1349.959961" y1="313.959991" x2="87.959999" y2="1408.959961" stroke="red" stroke-width="6.660000" />
<circle cx="1082.959961" cy="1307.959961" r="19.980000" fill="red">
  <title>São Paulo</title>
</circle><line x1="87.959999" y1="1408.959961" x2="1082.959961" y2="1307.959961" stroke="red" stroke-width="6.660000" />
<circle cx="1863.959961" cy="785.960022" r="19.980000" fill="red">
  <title>Shanghai</title>
</circle><line x1="1082.959961" y1="1307.959961" x2="1863.959961" y2="785.960022" stroke="red" stroke-width="6.660000" />
</svg>
