<?xml version="1.0" encoding="UTF-8" standalone="no"?>
<svg width="500" height="500" viewBox="0 0 2074.000000 2074.000000" xmlns="http://www.w3.org/2000/svg">
<rect x="19.000000" y="19.000000" width="2036.000000" height="2036.000000" fill="black" />
<circle cx="1237.959961" cy="2013.959961" r="19.980000" fill="red">
  <title>Tokyo</title>
</circle><line x1="851.960022" y1="1220.959961" x2="1237.959961" y2="2013.959961" stroke="red" stroke-width="6.660000" />
<circle cx="1605.959961" cy="1976.959961" r="19.980000" fill="red">
  <title>Cairo</title>
</circle><line x1="1237.959961" y1="2013.959961" x2="1605.959961" y2="1976.959961" stroke="red" stroke-width="6.660000" />
<circle cx="1716.959961" cy="1660.959961" r="19.980000" fill="red">
  <title>Delhi</title>
</circle><line x1="1605.959961" y1="1976.959961" x2="1716.959961" y2="1660.959961" stroke="red" stroke-width="6.660000" />
<circle cx="1705.959961" cy="1060.959961" r="19.980000" fill="red">
  <title>Shanghai</title>
</circle><line x1="1716.959961" y1="1660.959961" x2="1705.959961" y2="1060.959961" stroke="red" stroke-width="6.660000" />
<circle cx="2012.959961" cy="445.959991" r="19.980000" fill="red">
  <title>Beijing</title>
</circle><line x1="1705.959961" y1="1060.959961" x2="2012.959961" y2="445.959991" stroke="red" stroke-width="6.660000" />
<circle cx="1293.959961" cy="854.960022" r="19.980000" fill="red">
  <title>Mexico City</title>
</circle><line x1="2012.959961" y1="445.959991" x2="1293.959961" y2="854.960022" stroke="red" stroke-width="6.660000" />
<circle cx="555.960022" cy="339.959991" r="19.980000" fill="red">
  <title>Dhaka</title>
</circle><line x1="1293.959961" y1="854.960022" x2="555.960022" y2="339.959991" stroke="red" stroke-width="6.660000" />
<circle cx="103.959999" cy="712.960022" r="19.980000" fill="red">
  <title>São Paulo</title>
</circle><line x1="555.960022" y1="339.959991" x2="103.959999" y2="712.960022" stroke="red" stroke-width="6.660000" />
<circle cx="748.960022" cy="989.960022" r="19.980000" fill="red">
  <title>Osaka</title>
</circle><line x1="103.959999" y1="712.960022" x2="748.960022" y2="989.960022" stroke="red" stroke-width="6.660000" />
<circle cx="851.960022" cy="1220.959961" r="19.980000" fill="red">
  <title>Mumbai</title>
</circle><line x1="748.960022" y1="989.960022" x2="851.960022" y2="1220.959961" stroke="red" stroke-width="6.660000" />
</svg>
