<?xml version="1.0" encoding="UTF-8" standalone="no"?>
<svg width="500" height="500" viewBox="0 0 2074.000000 2074.000000" xmlns="http://www.w3.org/2000/svg">
<rect x="19.000000" y="19.000000" width="2036.000000" height="2036.000000" fill="black" />
<circle cx="1402.959961" cy="1931.959961" r="19.980000" fill="red">
  <title>Tokyo</title>
</circle><line x1="1121.959961" y1="1562.959961" x2="1402.959961" y2="1931.959961" stroke="red" stroke-width="6.660000" />
<circle cx="1573.959961" cy="1446.959961" r="19.980000" fill="red">
  <title>Delhi</title>
</circle><line x1="1402.959961" y1="1931.959961" x2="1573.959961" y2="1446.959961" stroke="red" stroke-width="6.660000" />
<circle cx="1663.959961" cy="1353.959961" r="19.980000" fill="red">
  <title>Cairo</title>
</circle><line x1="1573.959961" y1="1446.959961" x2="1663.959961" y2="1353.959961" stroke="red" stroke-width="6.660000" />
<circle cx="1008.960022" cy="727.960022" r="19.980000" fill="red">
  <title>Mumbai</title>
</circle><line x1="1663.959961" y1="1353.959961" x2="1008.960022" y2="727.960022" stroke="red" stroke-width="6.660000" />
<circle cx="919.960022" cy="426.959991" r="19.980000" fill="red">
  <title>Beijing</title>
</circle><line x1="1008.960022" y1="727.960022" x2="919.960022" y2="426.959991" stroke="red" stroke-width="6.660000" />
<circle cx="523.960022" cy="231.959991" r="19.980000" fill="red">
  <title>São Paulo</title>
</circle><line x1="919.960022" y1="426.959991" x2="523.960022" y2="231.959991" stroke="red" stroke-width="6.660000" />
<circle cx="818.960022" cy="642.960022" r="19.980000" fill="red">
  <title>Shanghai</title>
</circle><line x1="523.960022" y1="231.959991" x2="818.960022" y2="642.960022" stroke="red" stroke-width="6.660000" />
<circle cx="1121.959961" cy="1562.959961" r="19.980000" fill="red">
  <title>Mexico City</title>
</circle><line x1="818.960022" y1="642.960022" x2="1121.959961" y2="1562.959961" stroke="red" stroke-width="6.660000" />
</svg>
