<?xml version="1.0" encoding="UTF-8" standalone="no"?>
<svg width="500" height="500" viewBox="0 0 2074.000000 2074.000000" xmlns="http://www.w3.org/2000/svg">
<rect x="19.000000" y="19.000000" width="2036.000000" height="2036.000000" fill="black" />
<circle cx="2023.959961" cy="1772.959961" r="19.980000" fill="red">
  <title>Tokyo</title>
</circle><line x1="1815.959961" y1="832.960022" x2="2023.959961" y2="1772.959961" stroke="red" stroke-width="6.660000" />
<circle cx="1172.959961" cy="1631.959961" r="19.980000" fill="red">
  <title>São Paulo</title>
</circle><line x1="2023.959961" y1="1772.959961" x2="1172.959961" y2="1631.959961" stroke="red" stroke-width="6.660000" />
<circle cx="455.959991" cy="1136.959961" r="19.980000" fill="red">
  <title>Beijing</title>
</circle><line x1="1172.959961" y1="1631.959961" x2="455.959991" y2="1136.959961" stroke="red" stroke-width="6.660000" />
<circle cx="818.960022" cy="951.960022" r="19.980000" fill="red">
  <title>Shanghai</title>
</circle><line x1="455.959991" y1="1136.959961" x2="818.960022" y2="951.960022" stroke="red" stroke-width="6.660000" />
<circle cx="1100.959961" cy="851.960022" r="19.980000" fill="red">
  <title>Delhi</title>
</circle><line x1="818.960022" y1="951.960022" x2="1100.959961" y2="851.960022" stroke="red" stroke-width="6.660000" />
<circle cx="1067.959961" cy="262.959991" r="19.980000" fill="red">
  <title>Dhaka</title>
</circle><line x1="1100.959961" y1="851.960022" x2="1067.959961" y2="262.959991" stroke="red" stroke-width="6.660000" />
<circle cx="1115.959961" cy="486.959991" r="19.980000" fill="red">
  <title>Cairo</title>
</circle><line x1="1067.959961" y1="262.959991" x2="1115.959961" y2="486.959991" stroke="red" stroke-width="6.660000" />
<circle cx="1684.959961" cy="851.960022" r="19.980000" fill="red">
  <title>Osaka</title>
</circle><line x1="1115.959961" y1="486.959991" x2="1684.959961" y2="851.960022" stroke="red" stroke-width="6.660000" />
<circle cx="1927.959961" cy="565.960022" r="19.980000" fill="red">
  <title>Mexico City</title>
</circle><line x1="1684.959961" y1="851.960022" x2="1927.959961" y2="565.960022" stroke="red" stroke-width="6.660000" />
<circle cx="1815.959961" cy="832.960022" r="19.980000" fill="red">
  <title>Mumbai</title>
</circle><line x1="1927.959961" y1="565.960022" x2="1815.959961" y2="832.960022" stroke="red" stroke-width="6.660000" />
</svg>
