<?xml version="1.0" encoding="UTF-8" standalone="no"?>
<svg width="500" height="500" viewBox="0 0 2074.000000 2074.000000" xmlns="http://www.w3.org/2000/svg">
<rect x="19.000000" y="19.000000" width="2036.000000" height="2036.000000" fill="black" />
<circle cx="772.960022" cy="756.960022" r="19.980000" fill="red">
  <title>Tokyo</title>
</circle><line x1="815.960022" y1="1109.959961" x2="772.960022" y2="756.960022" stroke="red" stroke-width="6.660000" />
<circle cx="1114.959961" cy="394.959991" r="19.980000" fill="red">
  <title>Delhi</title>
</circle><line x1="772.960022" y1="756.960022" x2="1114.959961" y2="394.959991" stroke="red" stroke-width="6.660000" />
<circle cx="1743.959961" cy="100.959999" r="19.980000" fill="red">
  <title>Osaka</title>
</circle><line x1="1114.959961" y1="394.959991" x2="1743.959961" y2="100.959999" stroke="red" stroke-width="6.660000" />
<circle cx="1235.959961" cy="453.959991" r="19.980000" fill="red">
  <title>New York</title>
</circle><line x1="1743.959961" y1="100.959999" x2="1235.959961" y2="453.959991" stroke="red" stroke-width="6.660000" />
<circle cx="1033.959961" cy="336.959991" r="19.980000" fill="red">
  <title>Istanbul</title>
</circle><line x1="1235.959961" y1="453.959991" x2="1033.959961" y2="336.959991" stroke="red" stroke-width="6.660000" />
<circle cx="973.960022" cy="390.959991" r="19.980000" fill="red">
  <title>Beijing</title>
</circle><line x1="1033.959961" y1="336.959991" x2="973.960022" y2="390.959991" stroke="red" stroke-width="6.660000" />
<circle cx="604.960022" cy="846.960022" r="19.980000" fill="red">
  <title>Mexico City</title>
</circle><line x1="973.960022" y1="390.959991" x2="604.960022" y2="846.960022" stroke="red" stroke-width="6.660000" />
<circle cx="313.959991" cy="719.960022" r="19.980000" fill="red">
  <title>Karachi</title>
</circle><line x1="604.960022" y1="846.960022" x2="313.959991" y2="719.960022" stroke="red" stroke-width="6.660000" />
<circle cx="136.959991" cy="236.959991" r="19.980000" fill="red">
  <title>Cairo</title>
</circle><line x1="313.959991" y1="719.960022" x2="136.959991" y2="236.959991" stroke="red" stroke-width="6.660000" />
<circle cx="269.959991" cy="731.960022" r="19.980000" fill="red">
  <title>Buenos Aires</title>
</circle><line x1="136.959991" y1="236.959991" x2="269.959991" y2="731.960022" stroke="red" stroke-width="6.660000" />
<circle cx="83.959999" cy="1192.959961" r="19.980000" fill="red">
  <title>Shanghai</title>
</circle><line x1="269.959991" y1="731.960022" x2="83.959999" y2="1192.959961" stroke="red" stroke-width="6.660000" />
<circle cx="175.959991" cy="1699.959961" r="19.980000" fill="red">
  <title>São Paulo</title>
</circle><line x1="83.959999" y1="1192.959961" x2="175.959991" y2="1699.959961" stroke="red" stroke-width="6.660000" />
<circle cx="584.960022" cy="1755.959961" r="19.980000" fill="red">
  <title>Mumbai</title>
</circle><line x1="175.959991" y1="1699.959961" x2="584.960022" y2="1755.959961" stroke="red" stroke-width="6.660000" />
<circle cx="646.960022" cy="1766.959961" r="19.980000" fill="red">
  <title>Kolkata</title>
</circle><line x1="584.960022" y1="1755.959961" x2="646.960022" y2="1766.959961" stroke="red" stroke-width="6.660000" />
<circle cx="687.960022" cy="1314.959961" r="19.980000" fill="red">
  <title>Dhaka</title>
</circle><line x1="646.960022" y1="1766.959961" x2="687.960022" y2="1314.959961" stroke="red" stroke-width="6.660000" />
<circle cx="815.960022" cy="1109.959961" r="19.980000" fill="red">
  <title>Chongqing</title>
</circle><line x1="687.960022" y1="1314.959961" x2="815.960022" y2="1109.959961" stroke="red" stroke-width="6.660000" />
</svg>
