<?xml version="1.0" encoding="UTF-8" standalone="no"?>
<svg width="500" height="500" viewBox="0 0 2074.000000 2074.000000" xmlns="http://www.w3.org/2000/svg">
<rect x="19.000000" y="19.000000" width="2036.000000" height="2036.000000" fill="black" />
<circle cx="424.959991" cy="1491.959961" r="19.980000" fill="red">
  <title>Tokyo</title>
</circle><line x1="537.960022" y1="1430.959961" x2="424.959991" y2="1491.959961" stroke="red" stroke-width="6.660000" />
<circle cx="250.959991" cy="1178.959961" r="19.980000" fill="red">
  <title>São Paulo</title>
</circle><line x1="424.959991" y1="1491.959961" x2="250.959991" y2="1178.959961" stroke="red" stroke-width="6.660000" />
<circle cx="370.959991" cy="1093.959961" r="19.980000" fill="red">
  <title>Karachi</title>
</circle><line x1="250.959991" y1="1178.959961" x2="370.959991" y2="1093.959961" stroke="red" stroke-width="6.660000" />
<circle cx="325.959991" cy="839.960022" r="19.980000" fill="red">
  <title>New York</title>
</circle><line x1="370.959991" y1="1093.959961" x2="325.959991" y2="839.960022" stroke="red" stroke-width="6.660000" />
<circle cx="381.959991" cy="900.960022" r="19.980000" fill="red">
  <title>Mexico City</title>
</circle><line x1="325.959991" y1="839.960022" x2="381.959991" y2="900.960022" stroke="red" stroke-width="6.660000" />
<circle cx="868.960022" cy="985.960022" r="19.980000" fill="red">
  <title>Buenos Aires</title>
</circle><line x1="381.959991" y1="900.960022" x2="868.960022" y2="985.960022" stroke="red" stroke-width="6.660000" />
<circle cx="991.960022" cy="762.960022" r="19.980000" fill="red">
  <title>Istanbul</title>
</circle><line x1="868.960022" y1="985.960022" x2="991.960022" y2="762.960022" stroke="red" stroke-width="6.660000" />
<circle cx="851.960022" cy="361.959991" r="19.980000" fill="red">
  <title>Chongqing</title>
</circle><line x1="991.960022" y1="762.960022" x2="851.960022" y2="361.959991" stroke="red" stroke-width="6.660000" />
<circle cx="985.960022" cy="587.960022" r="19.980000" fill="red">
  <title>Delhi</title>
</circle><line x1="851.960022" y1="361.959991" x2="985.960022" y2="587.960022" stroke="red" stroke-width="6.660000" />
<circle cx="1511.959961" cy="645.960022" r="19.980000" fill="red">
  <title>Shanghai</title>
</circle><line x1="985.960022" y1="587.960022" x2="1511.959961" y2="645.960022" stroke="red" stroke-width="6.660000" />
<circle cx="1720.959961" cy="1100.959961" r="19.980000" fill="red">
  <title>Osaka</title>
</circle><line x1="1511.959961" y1="645.960022" x2="1720.959961" y2="1100.959961" stroke="red" stroke-width="6.660000" />
<circle cx="1596.959961" cy="1200.959961" r="19.980000" fill="red">
  <title>Mumbai</title>
</circle><line x1="1720.959961" y1="1100.959961" x2="1596.959961" y2="1200.959961" stroke="red" stroke-width="6.660000" />
<circle cx="1745.959961" cy="1920.959961" r="19.980000" fill="red">
  <title>Dhaka</title>
</circle><line x1="1596.959961" y1="1200.959961" x2="1745.959961" y2="1920.959961" stroke="red" stroke-width="6.660000" />
<circle cx="1082.959961" cy="1605.959961" r="19.980000" fill="red">
  <title>Cairo</title>
</circle><line x1="1745.959961" y1="1920.959961" x2="1082.959961" y2="1605.959961" stroke="red" stroke-width="6.660000" />
<circle cx="537.960022" cy="1430.959961" r="19.980000" fill="red">
  <title>Beijing</title>
</circle><line x1="1082.959961" y1="1605.959961" x2="537.960022" y2="1430.959961" stroke="red" stroke-width="6.660000" />
</svg>
