<?xml version="1.0" encoding="UTF-8" standalone="no"?>
<svg width="500" height="500" viewBox="0 0 2074.000000 2074.000000" xmlns="http://www.w3.org/2000/svg">
<rect x="19.000000" y="19.000000" width="2036.000000" height="2036.000000" fill="black" />
<circle cx="1267.959961" cy="1949.959961" r="19.980000" fill="red">
  <title>Tokyo</title>
</circle><line x1="1966.959961" y1="899.960022" x2="1267.959961" y2="1949.959961" stroke="red" stroke-width="6.660000" />
<circle cx="1148.959961" cy="1302.959961" r="19.980000" fill="red">
  <title>Shanghai</title>
</circle><line x1="1267.959961" y1="1949.959961" x2="1148.959961" y2="1302.959961" stroke="red" stroke-width="6.660000" />
<circle cx="1775.959961" cy="819.960022" r="19.980000" fill="red">
  <title>Delhi</title>
</circle><line x1="1148.959961" y1="1302.959961" x2="1775.959961" y2="819.960022" stroke="red" stroke-width="6.660000" />
<circle cx="1966.959961" cy="899.960022" r="19.980000" fill="red">
  <title>São Paulo</title>
</circle><line x1="1775.959961" y1="819.960022" x2="1966.959961" y2="899.960022" stroke="red" stroke-width="6.660000" />
</svg>
