<?xml version="1.0" encoding="UTF-8" standalone="no"?>
<svg width="500" height="500" viewBox="0 0 2074.000000 2074.000000" xmlns="http://www.w3.org/2000/svg">
<rect x="19.000000" y="19.000000" width="2036.000000" height="2036.000000" fill="black" />
<circle cx="859.960022" cy="1375.959961" r="19.980000" fill="red">
  <title>Tokyo</title>
</circle><line x1="1473.959961" y1="1989.959961" x2="859.960022" y2="1375.959961" stroke="red" stroke-width="6.660000" />
<circle cx="217.959991" cy="1265.959961" r="19.980000" fill="red">
  <title>São Paulo</title>
</circle><line x1="859.960022" y1="1375.959961" x2="217.959991" y2="1265.959961" stroke="red" stroke-width="6.660000" />
<circle cx="352.959991" cy="1117.959961" r="19.980000" fill="red">
  <title>Karachi</title>
</circle><line x1="217.959991" y1="1265.959961" x2="352.959991" y2="1117.959961" stroke="red" stroke-width="6.660000" />
<circle cx="58.959999" cy="584.960022" r="19.980000" fill="red">
  <title>Delhi</title>
</circle><line x1="352.959991" y1="1117.959961" x2="58.959999" y2="584.960022" stroke="red" stroke-width="6.660000" />
<circle cx="212.959991" cy="436.959991" r="19.980000" fill="red">
  <title>Cairo</title>
</circle><line x1="58.959999" y1="584.960022" x2="212.959991" y2="436.959991" stroke="red" stroke-width="6.660000" />
<circle cx="1087.959961" cy="557.960022" r="19.980000" fill="red">
  <title>Mumbai</title>
</circle><line x1="212.959991" y1="436.959991" x2="1087.959961" y2="557.960022" stroke="red" stroke-width="6.660000" />
<circle cx="1137.959961" cy="846.960022" r="19.980000" fill="red">
  <title>New York</title>
</circle><line x1="1087.959961" y1="557.960022" x2="1137.959961" y2="846.960022" stroke="red" stroke-width="6.660000" />
<circle cx="1252.959961" cy="1165.959961" r="19.980000" fill="red">
  <title>Osaka</title>
</circle><line x1="1137.959961" y1="846.960022" x2="1252.959961" y2="1165.959961" stroke="red" stroke-width="6.660000" />
<circle cx="1853.959961" cy="1702.959961" r="19.980000" fill="red">
  <title>Beijing</title>
</circle><line x1="1252.959961" y1="1165.959961" x2="1853.959961" y2="1702.959961" stroke="red" stroke-width="6.660000" />
<circle cx="1960.959961" cy="1826.959961" r="19.980000" fill="red">
  <title>Dhaka</title>
</circle><line x1="1853.959961" y1="1702.959961" x2="1960.959961" y2="1826.959961" stroke="red" stroke-width="6.660000" />
<circle cx="1584.959961" cy="1851.959961" r="19.980000" fill="red">
  <title>Shanghai</title>
</circle><line x1="1960.959961" y1="1826.959961" x2="1584.959961" y2="1851.959961" stroke="red" stroke-width="6.660000" />
<circle cx="1473.959961" cy="1989.959961" r="19.980000" fill="red">
  <title>Mexico City</title>
</circle><line x1="1584.959961" y1="1851.959961" x2="1473.959961" y2="1989.959961" stroke="red" stroke-width="6.660000" />
</svg>
