<?xml version="1.0" encoding="UTF-8" standalone="no"?>
<svg width="500" height="500" viewBox="0 0 2074.000000 2074.000000" xmlns="http://www.w3.org/2000/svg">
<rect x="19.000000" y="19.000000" width="2036.000000" height="2036.000000" fill="black" />
<circle cx="170.959991" cy="61.959999" r="19.980000" fill="red">
  <title>Tokyo</title>
</circle><line x1="552.960022" y1="548.960022" x2="170.959991" y2="61.959999" stroke="red" stroke-width="6.660000" />
<circle cx="292.959991" cy="881.960022" r="19.980000" fill="red">
  <title>Mexico City</title>
</circle><line x1="170.959991" y1="61.959999" x2="292.959991" y2="881.960022" stroke="red" stroke-width="6.660000" />
<circle cx="1313.959961" cy="1404.959961" r="19.980000" fill="red">
  <title>São Paulo</title>
</circle><line x1="292.959991" y1="881.960022" x2="1313.959961" y2="1404.959961" stroke="red" stroke-width="6.660000" />
<circle cx="2030.959961" cy="956.960022" r="19.980000" fill="red">
  <title>Shanghai</title>
</circle><line x1="1313.959961" y1="1404.959961" x2="2030.959961" y2="956.960022" stroke="red" stroke-width="6.660000" />
<circle cx="2017.959961" cy="494.959991" r="19.980000" fill="red">
  <title>Delhi</title>
</circle><line x1="2030.959961" y1="956.960022" x2="2017.959961" y2="494.959991" stroke="red" stroke-width="6.660000" />
<circle cx="552.960022" cy="548.960022" r="19.980000" fill="red">
  <title>Cairo</title>
</circle><line x1="2017.959961" y1="494.959991" x2="552.960022" y2="548.960022" stroke="red" stroke-width="6.660000" />
</svg>
