<?xml version="1.0" encoding="UTF-8" standalone="no"?>
<svg width="500" height="500" viewBox="0 0 2074.000000 2074.000000" xmlns="http://www.w3.org/2000/svg">
<rect x="19.000000" y="19.000000" width="2036.000000" height="2036.000000" fill="black" />
<circle cx="744.960022" cy="1909.959961" r="19.980000" fill="red">
  <title>Tokyo</title>
</circle><line x1="453.959991" y1="1678.959961" x2="744.960022" y2="1909.959961" stroke="red" stroke-width="6.660000" />
<circle cx="1181.959961" cy="1879.959961" r="19.980000" fill="red">
  <title>Karachi</title>
</circle><line x1="744.960022" y1="1909.959961" x2="1181.959961" y2="1879.959961" stroke="red" stroke-width="6.660000" />
<circle cx="1414.959961" cy="2022.959961" r="19.980000" fill="red">
  <title>Dhaka</title>
</circle><line x1="1181.959961" y1="1879.959961" x2="1414.959961" y2="2022.959961" stroke="red" stroke-width="6.660000" />
<circle cx="1235.959961" cy="1827.959961" r="19.980000" fill="red">
  <title>New York</title>
</circle><line x1="1414.959961" y1="2022.959961" x2="1235.959961" y2="1827.959961" stroke="red" stroke-width="6.660000" />
<circle cx="1638.959961" cy="1395.959961" r="19.980000" fill="red">
  <title>Mumbai</title>
</circle><line x1="1235.959961" y1="1827.959961" x2="1638.959961" y2="1395.959961" stroke="red" stroke-width="6.660000" />
<circle cx="1435.959961" cy="1048.959961" r="19.980000" fill="red">
  <title>Shanghai</title>
</circle><line x1="1638.959961" y1="1395.959961" x2="1435.959961" y2="1048.959961" stroke="red" stroke-width="6.660000" />
<circle cx="1681.959961" cy="1177.959961" r="19.980000" fill="red">
  <title>Beijing</title>
</circle><line x1="1435.959961" y1="1048.959961" x2="1681.959961" y2="1177.959961" stroke="red" stroke-width="6.660000" />
<circle cx="1940.959961" cy="880.960022" r="19.980000" fill="red">
  <title>Osaka</title>
</circle><line x1="1681.959961" y1="1177.959961" x2="1940.959961" y2="880.960022" stroke="red" stroke-width="6.660000" />
<circle cx="1926.959961" cy="777.960022" r="19.980000" fill="red">
  <title>Istanbul</title>
</circle><line x1="1940.959961" y1="880.960022" x2="1926.959961" y2="777.960022" stroke="red" stroke-width="6.660000" />
<circle cx="1471.959961" cy="46.959999" r="19.980000" fill="red">
  <title>Lagos</title>
</circle><line x1="1926.959961" y1="777.960022" x2="1471.959961" y2="46.959999" stroke="red" stroke-width="6.660000" />
<circle cx="1209.959961" cy="886.960022" r="19.980000" fill="red">
  <title>Chongqing</title>
</circle><line x1="1471.959961" y1="46.959999" x2="1209.959961" y2="886.960022" stroke="red" stroke-width="6.660000" />
<circle cx="781.960022" cy="877.960022" r="19.980000" fill="red">
  <title>Delhi</title>
</circle><line x1="1209.959961" y1="886.960022" x2="781.960022" y2="877.960022" stroke="red" stroke-width="6.660000" />
<circle cx="701.960022" cy="632.960022" r="19.980000" fill="red">
  <title>Kolkata</title>
</circle><line x1="781.960022" y1="877.960022" x2="701.960022" y2="632.960022" stroke="red" stroke-width="6.660000" />
<circle cx="68.959999" cy="131.959991" r="19.980000" fill="red">
  <title>Mexico City</title>
</circle><line x1="701.960022" y1="632.960022" x2="68.959999" y2="131.959991" stroke="red" stroke-width="6.660000" />
<circle cx="411.959991" cy="1090.959961" r="19.980000" fill="red">
  <title>Cairo</title>
</circle><line x1="68.959999" y1="131.959991" x2="411.959991" y2="1090.959961" stroke="red" stroke-width="6.660000" />
<circle cx="246.959991" cy="1211.959961" r="19.980000" fill="red">
  <title>São Paulo</title>
</circle><line x1="411.959991" y1="1090.959961" x2="246.959991" y2="1211.959961" stroke="red" stroke-width="6.660000" />
<circle cx="312.959991" cy="1213.959961" r="19.980000" fill="red">
  <title>Buenos Aires</title>
</circle><line x1="246.959991" y1="1211.959961" x2="312.959991" y2="1213.959961" stroke="red" stroke-width="6.660000" />
<circle cx="648.960022" cy="1443.959961" r="19.980000" fill="red">
  <title>Manila</title>
</circle><line x1="312.959991" y1="1213.959961" x2="648.960022" y2="1443.959961" stroke="red" stroke-width="6.660000" />
<circle cx="453.959991" cy="1678.959961" r="19.980000" fill="red">
  <title>Rio de Janeiro</title>
</circle><line x1="648.960022" y1="1443.959961" x2="453.959991" y2="1678.959961" stroke="red" stroke-width="6.660000" />
</svg>
