<?xml version="1.0" encoding="UTF-8" standalone="no"?>
<svg width="500" height="500" viewBox="0 0 2074.000000 2074.000000" xmlns="http://www.w3.org/2000/svg">
<rect x="19.000000" y="19.000000" width="2036.000000" height="2036.000000" fill="black" />
<circle cx="1086.959961" cy="656.960022" r="19.980000" fill="red">
  <title>Tokyo</title>
</circle><line x1="519.960022" y1="76.959999" x2="1086.959961" y2="656.960022" stroke="red" stroke-width="6.660000" />
<circle cx="1802.959961" cy="1867.959961" r="19.980000" fill="red">
  <title>Delhi</title>
</circle><line x1="1086.959961" y1="656.960022" x2="1802.959961" y2="1867.959961" stroke="red" stroke-width="6.660000" />
<circle cx="1312.959961" cy="582.960022" r="19.980000" fill="red">
  <title>São Paulo</title>
</circle><line x1="1802.959961" y1="1867.959961" x2="1312.959961" y2="582.960022" stroke="red" stroke-width="6.660000" />
<circle cx="854.960022" cy="653.960022" r="19.980000" fill="red">
  <title>Shanghai</title>
</circle><line x1="1312.959961" y1="582.960022" x2="854.960022" y2="653.960022" stroke="red" stroke-width="6.660000" />
<circle cx="519.960022" cy="76.959999" r="19.980000" fill="red">
  <title>Mexico City</title>
</circle><line x1="854.960022" y1="653.960022" x2="519.960022" y2="76.959999" stroke="red" stroke-width="6.660000" />
</svg>
