<?xml version="1.0" encoding="UTF-8" standalone="no"?>
<svg width="500" height="500" viewBox="0 0 2074.000000 2074.000000" xmlns="http://www.w3.org/2000/svg">
<rect x="19.000000" y="19.000000" width="2036.000000" height="2036.000000" fill="black" />
<circle cx="1665.959961" cy="1131.959961" r="19.980000" fill="red">
  <title>Tokyo</title>
</circle><line x1="2002.959961" y1="201.959991" x2="1665.959961" y2="1131.959961" stroke="red" stroke-width="6.660000" />
<circle cx="1015.960022" cy="1719.959961" r="19.980000" fill="red">
  <title>Shanghai</title>
</circle><line x1="1665.959961" y1="1131.959961" x2="1015.960022" y2="1719.959961" stroke="red" stroke-width="6.660000" />
<circle cx="503.959991" cy="1392.959961" r="19.980000" fill="red">
  <title>Delhi</title>
</circle><line x1="1015.960022" y1="1719.959961" x2="503.959991" y2="1392.959961" stroke="red" stroke-width="6.660000" />
<circle cx="697.960022" cy="1602.959961" r="19.980000" fill="red">
  <title>Mumbai</title>
</circle><line x1="503.959991" y1="1392.959961" x2="697.960022" y2="1602.959961" stroke="red" stroke-width="6.660000" />
<circle cx="1035.959961" cy="2034.959961" r="19.980000" fill="red">
  <title>Cairo</title>
</circle><line x1="697.960022" y1="1602.959961" x2="1035.959961" y2="2034.959961" stroke="red" stroke-width="6.660000" />
<circle cx="1906.959961" cy="1616.959961" r="19.980000" fill="red">
  <title>Mexico City</title>
</circle><line x1="1035.959961" y1="2034.959961" x2="1906.959961" y2="1616.959961" stroke="red" stroke-width="6.660000" />
<circle cx="2002.959961" cy="201.959991" r="19.980000" fill="red">
  <title>São Paulo</title>
</circle><line x1="1906.959961" y1="1616.959961" x2="2002.959961" y2="201.959991" stroke="red" stroke-width="6.660000" />
</svg>
