<?xml version="1.0" encoding="UTF-8" standalone="no"?>
<svg width="500" height="500" viewBox="0 0 2074.000000 2074.000000" xmlns="http://www.w3.org/2000/svg">
<rect x="19.000000" y="19.000000" width="2036.000000" height="2036.000000" fill="black" />
<circle cx="1959.959961" cy="1022.960022" r="19.980000" fill="red">
  <title>Tokyo</title>
</circle><line x1="252.959991" y1="219.959991" x2="1959.959961" y2="1022.960022" stroke="red" stroke-width="6.660000" />
<circle cx="1897.959961" cy="1712.959961" r="19.980000" fill="red">
  <title>Cairo</title>
</circle><line x1="1959.959961" y1="1022.960022" x2="1897.959961" y2="1712.959961" stroke="red" stroke-width="6.660000" />
<circle cx="1042.959961" cy="1826.959961" r="19.980000" fill="red">
  <title>Shanghai</title>
</circle><line x1="1897.959961" y1="1712.959961" x2="1042.959961" y2="1826.959961" stroke="red" stroke-width="6.660000" />
<circle cx="226.959991" cy="1861.959961" r="19.980000" fill="red">
  <title>Mexico City</title>
</circle><line x1="1042.959961" y1="1826.959961" x2="226.959991" y2="1861.959961" stroke="red" stroke-width="6.660000" />
<circle cx="249.959991" cy="1803.959961" r="19.980000" fill="red">
  <title>Mumbai</title>
</circle><line x1="226.959991" y1="1861.959961" x2="249.959991" y2="1803.959961" stroke="red" stroke-width="6.660000" />
<circle cx="139.959991" cy="1419.959961" r="19.980000" fill="red">
  <title>Delhi</title>
</circle><line x1="249.959991" y1="1803.959961" x2="139.959991" y2="1419.959961" stroke="red" stroke-width="6.660000" />
<circle cx="252.959991" cy="219.959991" r="19.980000" fill="red">
  <title>São Paulo</title>
</circle><line x1="139.959991" y1="1419.959961" x2="252.959991" y2="219.959991" stroke="red" stroke-width="6.660000" />
</svg>
