<?xml version="1.0" encoding="UTF-8" standalone="no"?>
<svg width="500" height="500" viewBox="0 0 2074.000000 2074.000000" xmlns="http://www.w3.org/2000/svg">
<rect x="19.000000" y="19.000000" width="2036.000000" height="2036.000000" fill="black" />
<circle cx="1407.959961" cy="244.959991" r="19.980000" fill="red">
  <title>Tokyo</title>
</circle><line x1="2022.959961" y1="134.959991" x2="1407.959961" y2="244.959991" stroke="red" stroke-width="6.660000" />
<circle cx="1036.959961" cy="313.959991" r="19.980000" fill="red">
  <title>São Paulo</title>
</circle><line x1="1407.959961" y1="244.959991" x2="1036.959961" y2="313.959991" stroke="red" stroke-width="6.660000" />
<circle cx="40.959999" cy="532.960022" r="19.980000" fill="red">
  <title>Mexico City</title>
</circle><line x1="1036.959961" y1="313.959991" x2="40.959999" y2="532.960022" stroke="red" stroke-width="6.660000" />
<circle cx="210.959991" cy="1135.959961" r="19.980000" fill="red">
  <title>Shanghai</title>
</circle><line x1="40.959999" y1="532.960022" x2="210.959991" y2="1135.959961" stroke="red" stroke-width="6.660000" />
<circle cx="659.960022" cy="1800.959961" r="19.980000" fill="red">
  <title>Mumbai</title>
</circle><line x1="210.959991" y1="1135.959961" x2="659.960022" y2="1800.959961" stroke="red" stroke-width="6.660000" />
<circle cx="693.960022" cy="1032.959961" r="19.980000" fill="red">
  <title>Dhaka</title>
</circle><line x1="659.960022" y1="1800.959961" x2="693.960022" y2="1032.959961" stroke="red" stroke-width="6.660000" />
<circle cx="1146.959961" cy="718.960022" r="19.980000" fill="red">
  <title>Beijing</title>
</circle><line x1="693.960022" y1="1032.959961" x2="1146.959961" y2="718.960022" stroke="red" stroke-width="6.660000" />
<circle cx="1365.959961" cy="353.959991" r="19.980000" fill="red">
  <title>Delhi</title>
</circle><line x1="1146.959961" y1="718.960022" x2="1365.959961" y2="353.959991" stroke="red" stroke-width="6.660000" />
<circle cx="1502.959961" cy="297.959991" r="19.980000" fill="red">
  <title>Osaka</title>
</circle><line x1="1365.959961" y1="353.959991" x2="1502.959961" y2="297.959991" stroke="red" stroke-width="6.660000" />
<circle cx="2022.959961" cy="134.959991" r="19.980000" fill="red">
  <title>Cairo</title>
</circle><line x1="1502.959961" y1="297.959991" x2="2022.959961" y2="134.959991" stroke="red" stroke-width="6.660000" />
</svg>
