<?xml version="1.0" encoding="UTF-8" standalone="no"?>
<svg width="500" height="500" viewBox="0 0 2074.000000 2074.000000" xmlns="http://www.w3.org/2000/svg">
<rect x="19.000000" y="19.000000" width="2036.000000" height="2036.000000" fill="black" />
<circle cx="104.959999" cy="1601.959961" r="19.980000" fill="red">
  <title>Tokyo</title>
</circle><line x1="192.959991" y1="1300.959961" x2="104.959999" y2="1601.959961" stroke="red" stroke-width="6.660000" />
<circle cx="166.959991" cy="1682.959961" r="19.980000" fill="red">
  <title>Cairo</title>
</circle><line x1="104.959999" y1="1601.959961" x2="166.959991" y2="1682.959961" stroke="red" stroke-width="6.660000" />
<circle cx="189.959991" cy="1881.959961" r="19.980000" fill="red">
  <title>Beijing</title>
</circle><line x1="166.959991" y1="1682.959961" x2="189.959991" y2="1881.959961" stroke="red" stroke-width="6.660000" />
<circle cx="385.959991" cy="1936.959961" r="19.980000" fill="red">
  <title>São Paulo</title>
</circle><line x1="189.959991" y1="1881.959961" x2="385.959991" y2="1936.959961" stroke="red" stroke-width="6.660000" />
<circle cx="362.959991" cy="1775.959961" r="19.980000" fill="red">
  <title>Delhi</title>
</circle><line x1="385.959991" y1="1936.959961" x2="362.959991" y2="1775.959961" stroke="red" stroke-width="6.660000" />
<circle cx="1049.959961" cy="695.960022" r="19.980000" fill="red">
  <title>Mumbai</title>
</circle><line x1="362.959991" y1="1775.959961" x2="1049.959961" y2="695.960022" stroke="red" stroke-width="6.660000" />
<circle cx="1358.959961" cy="916.960022" r="19.980000" fill="red">
  <title>Osaka</title>
</circle><line x1="1049.959961" y1="695.960022" x2="1358.959961" y2="916.960022" stroke="red" stroke-width="6.660000" />
<circle cx="1722.959961" cy="392.959991" r="19.980000" fill="red">
  <title>Shanghai</title>
</circle><line x1="1358.959961" y1="916.960022" x2="1722.959961" y2="392.959991" stroke="red" stroke-width="6.660000" />
<circle cx="1277.959961" cy="323.959991" r="19.980000" fill="red">
  <title>Karachi</title>
</circle><line x1="1722.959961" y1="392.959991" x2="1277.959961" y2="323.959991" stroke="red" stroke-width="6.660000" />
<circle cx="722.960022" cy="346.959991" r="19.980000" fill="red">
  <title>Mexico City</title>
</circle><line x1="1277.959961" y1="323.959991" x2="722.960022" y2="346.959991" stroke="red" stroke-width="6.660000" />
<circle cx="541.960022" cy="427.959991" r="19.980000" fill="red">
  <title>New York</title>
</circle><line x1="722.960022" y1="346.959991" x2="541.960022" y2="427.959991" stroke="red" stroke-width="6.660000" />
<circle cx="192.959991" cy="1300.959961" r="19.980000" fill="red">
  <title>Dhaka</title>
</circle><line x1="541.960022" y1="427.959991" x2="192.959991" y2="1300.959961" stroke="red" stroke-width="6.660000" />
</svg>
