<?xml version="1.0" encoding="UTF-8" standalone="no"?>
<svg width="500" height="500" viewBox="0 0 2074.000000 2074.000000" xmlns="http://www.w3.org/2000/svg">
<rect x="19.000000" y="19.000000" width="2036.000000" height="2036.000000" fill="black" />
<circle cx="1462.959961" cy="1020.960022" r="19.980000" fill="red">
  <title>Tokyo</title>
</circle><line x1="1864.959961" y1="1061.959961" x2="1462.959961" y2="1020.960022" stroke="red" stroke-width="6.660000" />
<circle cx="1090.959961" cy="1052.959961" r="19.980000" fill="red">
  <title>São Paulo</title>
</circle><line x1="1462.959961" y1="1020.960022" x2="1090.959961" y2="1052.959961" stroke="red" stroke-width="6.660000" />
<circle cx="399.959991" cy="226.959991" r="19.980000" fill="red">
  <title>Dhaka</title>
</circle><line x1="1090.959961" y1="1052.959961" x2="399.959991" y2="226.959991" stroke="red" stroke-width="6.660000" />
<circle cx="427.959991" cy="473.959991" r="19.980000" fill="red">
  <title>Beijing</title>
</circle><line x1="399.959991" y1="226.959991" x2="427.959991" y2="473.959991" stroke="red" stroke-width="6.660000" />
<circle cx="777.960022" cy="1192.959961" r="19.980000" fill="red">
  <title>Cairo</title>
</circle><line x1="427.959991" y1="473.959991" x2="777.960022" y2="1192.959961" stroke="red" stroke-width="6.660000" />
<circle cx="1114.959961" cy="1428.959961" r="19.980000" fill="red">
  <title>Shanghai</title>
</circle><line x1="777.960022" y1="1192.959961" x2="1114.959961" y2="1428.959961" stroke="red" stroke-width="6.660000" />
<circle cx="1364.959961" cy="1819.959961" r="19.980000" fill="red">
  <title>Delhi</title>
</circle><line x1="1114.959961" y1="1428.959961" x2="1364.959961" y2="1819.959961" stroke="red" stroke-width="6.660000" />
<circle cx="1294.959961" cy="1189.959961" r="19.980000" fill="red">
  <title>Mumbai</title>
</circle><line x1="1364.959961" y1="1819.959961" x2="1294.959961" y2="1189.959961" stroke="red" stroke-width="6.660000" />
<circle cx="1864.959961" cy="1061.959961" r="19.980000" fill="red">
  <title>Mexico City</title>
</circle><line x1="1294.959961" y1="1189.959961" x2="1864.959961" y2="1061.959961" stroke="red" stroke-width="6.660000" />
</svg>
