<?xml version="1.0" encoding="UTF-8" standalone="no"?>
<svg width="500" height="500" viewBox="0 0 2074.000000 2074.000000" xmlns="http://www.w3.org/2000/svg">
<rect x="19.000000" y="19.000000" width="2036.000000" height="2036.000000" fill="black" />
<circle cx="1022.960022" cy="972.960022" r="19.980000" fill="red">
  <title>Tokyo</title>
</circle><line x1="1680.959961" y1="857.960022" x2="1022.960022" y2="972.960022" stroke="red" stroke-width="6.660000" />
<circle cx="686.960022" cy="823.960022" r="19.980000" fill="red">
  <title>São Paulo</title>
</circle><line x1="1022.960022" y1="972.960022" x2="686.960022" y2="823.960022" stroke="red" stroke-width="6.660000" />
<circle cx="885.960022" cy="136.959991" r="19.980000" fill="red">
  <title>Shanghai</title>
</circle><line x1="686.960022" y1="823.960022" x2="885.960022" y2="136.959991" stroke="red" stroke-width="6.660000" />
<circle cx="870.960022" cy="102.959999" r="19.980000" fill="red">
  <title>Mexico City</title>
</circle><line x1="885.960022" y1="136.959991" x2="870.960022" y2="102.959999" stroke="red" stroke-width="6.660000" />
<circle cx="536.960022" cy="800.960022" r="19.980000" fill="red">
  <title>Beijing</title>
</circle><line x1="870.960022" y1="102.959999" x2="536.960022" y2="800.960022" stroke="red" stroke-width="6.660000" />
<circle cx="148.959991" cy="1644.959961" r="19.980000" fill="red">
  <title>Osaka</title>
</circle><line x1="536.960022" y1="800.960022" x2="148.959991" y2="1644.959961" stroke="red" stroke-width="6.660000" />
<circle cx="171.959991" cy="1935.959961" r="19.980000" fill="red">
  <title>Dhaka</title>
</circle><line x1="148.959991" y1="1644.959961" x2="171.959991" y2="1935.959961" stroke="red" stroke-width="6.660000" />
<circle cx="931.960022" cy="1475.959961" r="19.980000" fill="red">
  <title>Cairo</title>
</circle><line x1="171.959991" y1="1935.959961" x2="931.960022" y2="1475.959961" stroke="red" stroke-width="6.660000" />
<circle cx="1155.959961" cy="1423.959961" r="19.980000" fill="red">
  <title>Mumbai</title>
</circle><line x1="931.960022" y1="1475.959961" x2="1155.959961" y2="1423.959961" stroke="red" stroke-width="6.660000" />
<circle cx="1680.959961" cy="857.960022" r="19.980000" fill="red">
  <title>Delhi</title>
</circle><line x1="1155.959961" y1="1423.959961" x2="1680.959961" y2="857.960022" stroke="red" stroke-width="6.660000" />
</svg>
