<?xml version="1.0" encoding="UTF-8" standalone="no"?>
<svg width="500" height="500" viewBox="0 0 2074.000000 2074.000000" xmlns="http://www.w3.org/2000/svg">
<rect x="19.000000" y="19.000000" width="2036.000000" height="2036.000000" fill="black" />
<circle cx="1242.959961" cy="95.959999" r="19.980000" fill="red">
  <title>Tokyo</title>
</circle><line x1="1589.959961" y1="45.959999" x2="1242.959961" y2="95.959999" stroke="red" stroke-width="6.660000" />
<circle cx="988.960022" cy="317.959991" r="19.980000" fill="red">
  <title>Cairo</title>
</circle><line x1="1242.959961" y1="95.959999" x2="988.960022" y2="317.959991" stroke="red" stroke-width="6.660000" />
<circle cx="811.960022" cy="228.959991" r="19.980000" fill="red">
  <title>New York</title>
</circle><line x1="988.960022" y1="317.959991" x2="811.960022" y2="228.959991" stroke="red" stroke-width="6.660000" />
<circle cx="43.959999" cy="385.959991" r="19.980000" fill="red">
  <title>Mumbai</title>
</circle><line x1="811.960022" y1="228.959991" x2="43.959999" y2="385.959991" stroke="red" stroke-width="6.660000" />
<circle cx="205.959991" cy="695.960022" r="19.980000" fill="red">
  <title>Mexico City</title>
</circle><line x1="43.959999" y1="385.959991" x2="205.959991" y2="695.960022" stroke="red" stroke-width="6.660000" />
<circle cx="318.959991" cy="1007.960022" r="19.980000" fill="red">
  <title>Karachi</title>
</circle><line x1="205.959991" y1="695.960022" x2="318.959991" y2="1007.960022" stroke="red" stroke-width="6.660000" />
<circle cx="1337.959961" cy="962.960022" r="19.980000" fill="red">
  <title>Delhi</title>
</circle><line x1="318.959991" y1="1007.960022" x2="1337.959961" y2="962.960022" stroke="red" stroke-width="6.660000" />
<circle cx="1312.959961" cy="1395.959961" r="19.980000" fill="red">
  <title>Beijing</title>
</circle><line x1="1337.959961" y1="962.960022" x2="1312.959961" y2="1395.959961" stroke="red" stroke-width="6.660000" />
<circle cx="1719.959961" cy="1177.959961" r="19.980000" fill="red">
  <title>Osaka</title>
</circle><line x1="1312.959961" y1="1395.959961" x2="1719.959961" y2="1177.959961" stroke="red" stroke-width="6.660000" />
<circle cx="1770.959961" cy="1035.959961" r="19.980000" fill="red">
  <title>São Paulo</title>
</circle><line x1="1719.959961" y1="1177.959961" x2="1770.959961" y2="1035.959961" stroke="red" stroke-width="6.660000" />
<circle cx="1591.959961" cy="674.960022" r="19.980000" fill="red">
  <title>Shanghai</title>
</circle><line x1="1770.959961" y1="1035.959961" x2="1591.959961" y2="674.960022" stroke="red" stroke-width="6.660000" />
<circle cx="1626.959961" cy="193.959991" r="19.980000" fill="red">
  <title>Dhaka</title>
</circle><line x1="1591.959961" y1="674.960022" x2="1626.959961" y2="193.959991" stroke="red" stroke-width="6.660000" />
<circle cx="1589.959961" cy="45.959999" r="19.980000" fill="red">
  <title>Buenos Aires</title>
</circle><line x1="1626.959961" y1="193.959991" x2="1589.959961" y2="45.959999" stroke="red" stroke-width="6.660000" />
</svg>
