<?xml version="1.0" encoding="UTF-8" standalone="no"?>
<svg width="500" height="500" viewBox="0 0 2074.000000 2074.000000" xmlns="http://www.w3.org/2000/svg">
<rect x="19.000000" y="19.000000" width="2036.000000" height="2036.000000" fill="black" />
<circle cx="87.959999" cy="637.960022" r="19.980000" fill="red">
  <title>Tokyo</title>
</circle><line x1="959.960022" y1="2033.959961" x2="87.959999" y2="637.960022" stroke="red" stroke-width="6.660000" />
<circle cx="216.959991" cy="72.959999" r="19.980000" fill="red">
  <title>New York</title>
</circle><line x1="87.959999" y1="637.960022" x2="216.959991" y2="72.959999" stroke="red" stroke-width="6.660000" />
<circle cx="1194.959961" cy="533.960022" r="19.980000" fill="red">
  <title>Beijing</title>
</circle><line x1="216.959991" y1="72.959999" x2="1194.959961" y2="533.960022" stroke="red" stroke-width="6.660000" />
<circle cx="1394.959961" cy="298.959991" r="19.980000" fill="red">
  <title>Mumbai</title>
</circle><line x1="1194.959961" y1="533.960022" x2="1394.959961" y2="298.959991" stroke="red" stroke-width="6.660000" />
<circle cx="1797.959961" cy="603.960022" r="19.980000" fill="red">
  <title>Shanghai</title>
</circle><line x1="1394.959961" y1="298.959991" x2="1797.959961" y2="603.960022" stroke="red" stroke-width="6.660000" />
<circle cx="1753.959961" cy="1003.960022" r="19.980000" fill="red">
  <title>Cairo</title>
</circle><line x1="1797.959961" y1="603.960022" x2="1753.959961" y2="1003.960022" stroke="red" stroke-width="6.660000" />
<circle cx="1858.959961" cy="1231.959961" r="19.980000" fill="red">
  <title>São Paulo</title>
</circle><line x1="1753.959961" y1="1003.960022" x2="1858.959961" y2="1231.959961" stroke="red" stroke-width="6.660000" />
<circle cx="1509.959961" cy="1079.959961" r="19.980000" fill="red">
  <title>Mexico City</title>
</circle><line x1="1858.959961" y1="1231.959961" x2="1509.959961" y2="1079.959961" stroke="red" stroke-width="6.660000" />
<circle cx="1519.959961" cy="1257.959961" r="19.980000" fill="red">
  <title>Dhaka</title>
</circle><line x1="1509.959961" y1="1079.959961" x2="1519.959961" y2="1257.959961" stroke="red" stroke-width="6.660000" />
<circle cx="1494.959961" cy="1323.959961" r="19.980000" fill="red">
  <title>Osaka</title>
</circle><line x1="1519.959961" y1="1257.959961" x2="1494.959961" y2="1323.959961" stroke="red" stroke-width="6.660000" />
<circle cx="959.960022" cy="2033.959961" r="19.980000" fill="red">
  <title>Delhi</title>
</circle><line x1="1494.959961" y1="1323.959961" x2="959.960022" y2="2033.959961" stroke="red" stroke-width="6.660000" />
</svg>
