<?xml version="1.0" encoding="UTF-8" standalone="no"?>
<svg width="500" height="500" viewBox="0 0 2074.000000 2074.000000" xmlns="http://www.w3.org/2000/svg">
<rect x="19.000000" y="19.000000" width="2036.000000" height="2036.000000" fill="black" />
<circle cx="1046.959961" cy="507.959991" r="19.980000" fill="red">
  <title>Tokyo</title>
</circle><line x1="1654.959961" y1="414.959991" x2="1046.959961" y2="507.959991" stroke="red" stroke-width="6.660000" />
<circle cx="623.960022" cy="473.959991" r="19.980000" fill="red">
  <title>Beijing</title>
</circle><line x1="1046.959961" y1="507.959991" x2="623.960022" y2="473.959991" stroke="red" stroke-width="6.660000" />
<circle cx="514.960022" cy="376.959991" r="19.980000" fill="red">
  <title>Dhaka</title>
</circle><line x1="623.960022" y1="473.959991" x2="514.960022" y2="376.959991" stroke="red" stroke-width="6.660000" />
<circle cx="137.959991" cy="466.959991" r="19.980000" fill="red">
  <title>Cairo</title>
</circle><line x1="514.960022" y1="376.959991" x2="137.959991" y2="466.959991" stroke="red" stroke-width="6.660000" />
<circle cx="627.960022" cy="937.960022" r="19.980000" fill="red">
  <title>Osaka</title>
</circle><line x1="137.959991" y1="466.959991" x2="627.960022" y2="937.960022" stroke="red" stroke-width="6.660000" />
<circle cx="826.960022" cy="1153.959961" r="19.980000" fill="red">
  <title>Mumbai</title>
</circle><line x1="627.960022" y1="937.960022" x2="826.960022" y2="1153.959961" stroke="red" stroke-width="6.660000" />
<circle cx="336.959991" cy="1702.959961" r="19.980000" fill="red">
  <title>Shanghai</title>
</circle><line x1="826.960022" y1="1153.959961" x2="336.959991" y2="1702.959961" stroke="red" stroke-width="6.660000" />
<circle cx="881.960022" cy="1197.959961" r="19.980000" fill="red">
  <title>Delhi</title>
</circle><line x1="336.959991" y1="1702.959961" x2="881.960022" y2="1197.959961" stroke="red" stroke-width="6.660000" />
<circle cx="1760.959961" cy="1816.959961" r="19.980000" fill="red">
  <title>Mexico City</title>
</circle><line x1="881.960022" y1="1197.959961" x2="1760.959961" y2="1816.959961" stroke="red" stroke-width="6.660000" />
<circle cx="1654.959961" cy="414.959991" r="19.980000" fill="red">
  <title>São Paulo</title>
</circle><line x1="1760.959961" y1="1816.959961" x2="1654.959961" y2="414.959991" stroke="red" stroke-width="6.660000" />
</svg>
