<?xml version="1.0" encoding="UTF-8" standalone="no"?>
<svg width="500" height="500" viewBox="0 0 2074.000000 2074.000000" xmlns="http://www.w3.org/2000/svg">
<rect x="19.000000" y="19.000000" width="2036.000000" height="2036.000000" fill="black" />
<circle cx="1828.959961" cy="920.960022" r="19.980000" fill="red">
  <title>Tokyo</title>
</circle><line x1="839.960022" y1="574.960022" x2="1828.959961" y2="920.960022" stroke="red" stroke-width="6.660000" />
<circle cx="615.960022" cy="1004.960022" r="19.980000" fill="red">
  <title>Delhi</title>
</circle><line x1="1828.959961" y1="920.960022" x2="615.960022" y2="1004.960022" stroke="red" stroke-width="6.660000" />
<circle cx="839.960022" cy="574.960022" r="19.980000" fill="red">
  <title>Shanghai</title>
</circle><line x1="615.960022" y1="1004.960022" x2="839.960022" y2="574.960022" stroke="red" stroke-width="6.660000" />
</svg>
