<?xml version="1.0" encoding="UTF-8" standalone="no"?>
<svg width="500" height="500" viewBox="0 0 2074.000000 2074.000000" xmlns="http://www.w3.org/2000/svg">
<rect x="19.000000" y="19.000000" width="2036.000000" height="2036.000000" fill="black" />
<circle cx="241.959991" cy="354.959991" r="19.980000" fill="red">
  <title>Tokyo</title>
</circle><line x1="393.959991" y1="976.960022" x2="241.959991" y2="354.959991" stroke="red" stroke-width="6.660000" />
<circle cx="950.960022" cy="934.960022" r="19.980000" fill="red">
  <title>Mumbai</title>
</circle><line x1="241.959991" y1="354.959991" x2="950.960022" y2="934.960022" stroke="red" stroke-width="6.660000" />
<circle cx="1248.959961" cy="1135.959961" r="19.980000" fill="red">
  <title>Shanghai</title>
</circle><line x1="950.960022" y1="934.960022" x2="1248.959961" y2="1135.959961" stroke="red" stroke-width="6.660000" />
<circle cx="1358.959961" cy="1054.959961" r="19.980000" fill="red">
  <title>New York</title>
</circle><line x1="1248.959961" y1="1135.959961" x2="1358.959961" y2="1054.959961" stroke="red" stroke-width="6.660000" />
<circle cx="1418.959961" cy="125.959999" r="19.980000" fill="red">
  <title>Delhi</title>
</circle><line x1="1358.959961" y1="1054.959961" x2="1418.959961" y2="125.959999" stroke="red" stroke-width="6.660000" />
<circle cx="1781.959961" cy="507.959991" r="19.980000" fill="red">
  <title>Beijing</title>
</circle><line x1="1418.959961" y1="125.959999" x2="1781.959961" y2="507.959991" stroke="red" stroke-width="6.660000" />
<circle cx="1685.959961" cy="1147.959961" r="19.980000" fill="red">
  <title>São Paulo</title>
</circle><line x1="1781.959961" y1="507.959991" x2="1685.959961" y2="1147.959961" stroke="red" stroke-width="6.660000" />
<circle cx="1662.959961" cy="1549.959961" r="19.980000" fill="red">
  <title>Cairo</title>
</circle><line x1="1685.959961" y1="1147.959961" x2="1662.959961" y2="1549.959961" stroke="red" stroke-width="6.660000" />
<circle cx="1312.959961" cy="1793.959961" r="19.980000" fill="red">
  <title>Mexico City</title>
</circle><line x1="1662.959961" y1="1549.959961" x2="1312.959961" y2="1793.959961" stroke="red" stroke-width="6.660000" />
<circle cx="346.959991" cy="1711.959961" r="19.980000" fill="red">
  <title>Dhaka</title>
</circle><line x1="1312.959961" y1="1793.959961" x2="346.959991" y2="1711.959961" stroke="red" stroke-width="6.660000" />
<circle cx="393.959991" cy="976.960022" r="19.980000" fill="red">
  <title>Osaka</title>
</circle><line x1="346.959991" y1="1711.959961" x2="393.959991" y2="976.960022" stroke="red" stroke-width="6.660000" />
</svg>
