<?xml version="1.0" encoding="UTF-8" standalone="no"?>
<svg width="500" height="500" viewBox="0 0 2074.000000 2074.000000" xmlns="http://www.w3.org/2000/svg">
<rect x="19.000000" y="19.000000" width="2036.000000" height="2036.000000" fill="black" />
<circle cx="1135.959961" cy="1514.959961" r="19.980000" fill="red">
  <title>Tokyo</title>
</circle><line x1="1009.960022" y1="1502.959961" x2="1135.959961" y2="1514.959961" stroke="red" stroke-width="6.660000" />
<circle cx="1636.959961" cy="1959.959961" r="19.980000" fill="red">
  <title>Shanghai</title>
</circle><line x1="1135.959961" y1="1514.959961" x2="1636.959961" y2="1959.959961" stroke="red" stroke-width="6.660000" />
<circle cx="1668.959961" cy="964.960022" r="19.980000" fill="red">
  <title>Beijing</title>
</circle><line x1="1636.959961" y1="1959.959961" x2="1668.959961" y2="964.960022" stroke="red" stroke-width="6.660000" />
<circle cx="1861.959961" cy="908.960022" r="19.980000" fill="red">
  <title>Kolkata</title>
</circle><line x1="1668.959961" y1="964.960022" x2="1861.959961" y2="908.960022" stroke="red" stroke-width="6.660000" />
<circle cx="1810.959961" cy="797.960022" r="19.980000" fill="red">
  <title>Istanbul</title>
</circle><line x1="1861.959961" y1="908.960022" x2="1810.959961" y2="797.960022" stroke="red" stroke-width="6.660000" />
<circle cx="1473.959961" cy="751.960022" r="19.980000" fill="red">
  <title>Mumbai</title>
</circle><line x1="1810.959961" y1="797.960022" x2="1473.959961" y2="751.960022" stroke="red" stroke-width="6.660000" />
<circle cx="1747.959961" cy="143.959991" r="19.980000" fill="red">
  <title>Cairo</title>
</circle><line x1="1473.959961" y1="751.960022" x2="1747.959961" y2="143.959991" stroke="red" stroke-width="6.660000" />
<circle cx="1314.959961" cy="229.959991" r="19.980000" fill="red">
  <title>Chongqing</title>
</circle><line x1="1747.959961" y1="143.959991" x2="1314.959961" y2="229.959991" stroke="red" stroke-width="6.660000" />
<circle cx="1229.959961" cy="181.959991" r="19.980000" fill="red">
  <title>Delhi</title>
</circle><line x1="1314.959961" y1="229.959991" x2="1229.959961" y2="181.959991" stroke="red" stroke-width="6.660000" />
<circle cx="677.960022" cy="212.959991" r="19.980000" fill="red">
  <title>Mexico City</title>
</circle><line x1="1229.959961" y1="181.959991" x2="677.960022" y2="212.959991" stroke="red" stroke-width="6.660000" />
<circle cx="715.960022" cy="631.960022" r="19.980000" fill="red">
  <title>Osaka</title>
</circle><line x1="677.960022" y1="212.959991" x2="715.960022" y2="631.960022" stroke="red" stroke-width="6.660000" />
<circle cx="267.959991" cy="881.960022" r="19.980000" fill="red">
  <title>Dhaka</title>
</circle><line x1="715.960022" y1="631.960022" x2="267.959991" y2="881.960022" stroke="red" stroke-width="6.660000" />
<circle cx="253.959991" cy="934.960022" r="19.980000" fill="red">
  <title>Buenos Aires</title>
</circle><line x1="267.959991" y1="881.960022" x2="253.959991" y2="934.960022" stroke="red" stroke-width="6.660000" />
<circle cx="274.959991" cy="1053.959961" r="19.980000" fill="red">
  <title>Manila</title>
</circle><line x1="253.959991" y1="934.960022" x2="274.959991" y2="1053.959961" stroke="red" stroke-width="6.660000" />
<circle cx="486.959991" cy="1386.959961" r="19.980000" fill="red">
  <title>São Paulo</title>
</circle><line x1="274.959991" y1="1053.959961" x2="486.959991" y2="1386.959961" stroke="red" stroke-width="6.660000" />
<circle cx="248.959991" cy="1792.959961" r="19.980000" fill="red">
  <title>Karachi</title>
</circle><line x1="486.959991" y1="1386.959961" x2="248.959991" y2="1792.959961" stroke="red" stroke-width="6.660000" />
<circle cx="1009.960022" cy="1502.959961" r="19.980000" fill="red">
  <title>New York</title>
</circle><line x1="248.959991" y1="1792.959961" x2="1009.960022" y2="1502.959961" stroke="red" stroke-width="6.660000" />
</svg>
