<?xml version="1.0" encoding="UTF-8" standalone="no"?>
<svg width="500" height="500" viewBox="0 0 2074.000000 2074.000000" xmlns="http://www.w3.org/2000/svg">
<rect x="19.000000" y="19.000000" width="2036.000000" height="2036.000000" fill="black" />
<circle cx="1969.959961" cy="1911.959961" r="19.980000" fill="red">
  <title>Tokyo</title>
</circle><line x1="1998.959961" y1="1200.959961" x2="1969.959961" y2="1911.959961" stroke="red" stroke-width="6.660000" />
<circle cx="1434.959961" cy="1280.959961" r="19.980000" fill="red">
  <title>Shanghai</title>
</circle><line x1="1969.959961" y1="1911.959961" x2="1434.959961" y2="1280.959961" stroke="red" stroke-width="6.660000" />
<circle cx="1425.959961" cy="1260.959961" r="19.980000" fill="red">
  <title>Mexico City</title>
</circle><line x1="1434.959961" y1="1280.959961" x2="1425.959961" y2="1260.959961" stroke="red" stroke-width="6.660000" />
<circle cx="511.959991" cy="1845.959961" r="19.980000" fill="red">
  <title>New York</title>
</circle><line x1="1425.959961" y1="1260.959961" x2="511.959991" y2="1845.959961" stroke="red" stroke-width="6.660000" />
<circle cx="174.959991" cy="1472.959961" r="19.980000" fill="red">
  <title>Beijing</title>
</circle><line x1="511.959991" y1="1845.959961" x2="174.959991" y2="1472.959961" stroke="red" stroke-width="6.660000" />
<circle cx="42.959999" cy="860.960022" r="19.980000" fill="red">
  <title>Cairo</title>
</circle><line x1="174.959991" y1="1472.959961" x2="42.959999" y2="860.960022" stroke="red" stroke-width="6.660000" />
<circle cx="87.959999" cy="157.959991" r="19.980000" fill="red">
  <title>Dhaka</title>
</circle><line x1="42.959999" y1="860.960022" x2="87.959999" y2="157.959991" stroke="red" stroke-width="6.660000" />
<circle cx="448.959991" cy="298.959991" r="19.980000" fill="red">
  <title>Delhi</title>
</circle><line x1="87.959999" y1="157.959991" x2="448.959991" y2="298.959991" stroke="red" stroke-width="6.660000" />
<circle cx="624.960022" cy="702.960022" r="19.980000" fill="red">
  <title>Karachi</title>
</circle><line x1="448.959991" y1="298.959991" x2="624.960022" y2="702.960022" stroke="red" stroke-width="6.660000" />
<circle cx="1534.959961" cy="403.959991" r="19.980000" fill="red">
  <title>Osaka</title>
</circle><line x1="624.960022" y1="702.960022" x2="1534.959961" y2="403.959991" stroke="red" stroke-width="6.660000" />
<circle cx="1571.959961" cy="352.959991" r="19.980000" fill="red">
  <title>São Paulo</title>
</circle><line x1="1534.959961" y1="403.959991" x2="1571.959961" y2="352.959991" stroke="red" stroke-width="6.660000" />
<circle cx="1998.959961" cy="1200.959961" r="19.980000" fill="red">
  <title>Mumbai</title>
</circle><line x1="1571.959961" y1="352.959991" x2="1998.959961" y2="1200.959961" stroke="red" stroke-width="6.660000" />
</svg>
