<?xml version="1.0" encoding="UTF-8" standalone="no"?>
<svg width="500" height="500" viewBox="0 0 2074.000000 2074.000000" xmlns="http://www.w3.org/2000/svg">
<rect x="19.000000" y="19.000000" width="2036.000000" height="2036.000000" fill="black" />
<circle cx="105.959999" cy="829.960022" r="19.980000" fill="red">
  <title>Tokyo</title>
</circle><line x1="778.960022" y1="958.960022" x2="105.959999" y2="829.960022" stroke="red" stroke-width="6.660000" />
<circle cx="96.959999" cy="1542.959961" r="19.980000" fill="red">
  <title>São Paulo</title>
</circle><line x1="105.959999" y1="829.960022" x2="96.959999" y2="1542.959961" stroke="red" stroke-width="6.660000" />
<circle cx="1298.959961" cy="1823.959961" r="19.980000" fill="red">
  <title>Mumbai</title>
</circle><line x1="96.959999" y1="1542.959961" x2="1298.959961" y2="1823.959961" stroke="red" stroke-width="6.660000" />
<circle cx="1717.959961" cy="1875.959961" r="19.980000" fill="red">
  <title>Shanghai</title>
</circle><line x1="1298.959961" y1="1823.959961" x2="1717.959961" y2="1875.959961" stroke="red" stroke-width="6.660000" />
<circle cx="1841.959961" cy="915.960022" r="19.980000" fill="red">
  <title>Osaka</title>
</circle><line x1="1717.959961" y1="1875.959961" x2="1841.959961" y2="915.960022" stroke="red" stroke-width="6.660000" />
<circle cx="1910.959961" cy="889.960022" r="19.980000" fill="red">
  <title>Beijing</title>
</circle><line x1="1841.959961" y1="915.960022" x2="1910.959961" y2="889.960022" stroke="red" stroke-width="6.660000" />
<circle cx="1952.959961" cy="76.959999" r="19.980000" fill="red">
  <title>Delhi</title>
</circle><line x1="1910.959961" y1="889.960022" x2="1952.959961" y2="76.959999" stroke="red" stroke-width="6.660000" />
<circle cx="1897.959961" cy="475.959991" r="19.980000" fill="red">
  <title>Mexico City</title>
</circle><line x1="1952.959961" y1="76.959999" x2="1897.959961" y2="475.959991" stroke="red" stroke-width="6.660000" />
<circle cx="1098.959961" cy="836.960022" r="19.980000" fill="red">
  <title>Dhaka</title>
</circle><line x1="1897.959961" y1="475.959991" x2="1098.959961" y2="836.960022" stroke="red" stroke-width="6.660000" />
<circle cx="778.960022" cy="958.960022" r="19.980000" fill="red">
  <title>Cairo</title>
</circle><line x1="1098.959961" y1="836.960022" x2="778.960022" y2="958.960022" stroke="red" stroke-width="6.660000" />
</svg>
