<?xml version="1.0" encoding="UTF-8" standalone="no"?>
<svg width="500" height="500" viewBox="0 0 2074.000000 2074.000000" xmlns="http://www.w3.org/2000/svg">
<rect x="19.000000" y="19.000000" width="2036.000000" height="2036.000000" fill="black" />
<circle cx="891.960022" cy="53.959999" r="19.980000" fill="red">
  <title>Tokyo</title>
</circle><line x1="547.960022" y1="199.959991" x2="891.960022" y2="53.959999" stroke="red" stroke-width="6.660000" />
<circle cx="1157.959961" cy="183.959991" r="19.980000" fill="red">
  <title>Mumbai</title>
</circle><line x1="891.960022" y1="53.959999" x2="1157.959961" y2="183.959991" stroke="red" stroke-width="6.660000" />
<circle cx="1345.959961" cy="67.959999" r="19.980000" fill="red">
  <title>Istanbul</title>
</circle><line x1="1157.959961" y1="183.959991" x2="1345.959961" y2="67.959999" stroke="red" stroke-width="6.660000" />
<circle cx="1741.959961" cy="180.959991" r="19.980000" fill="red">
  <title>New York</title>
</circle><line x1="1345.959961" y1="67.959999" x2="1741.959961" y2="180.959991" stroke="red" stroke-width="6.660000" />
<circle cx="1628.959961" cy="199.959991" r="19.980000" fill="red">
  <title>Kolkata</title>
</circle><line x1="1741.959961" y1="180.959991" x2="1628.959961" y2="199.959991" stroke="red" stroke-width="6.660000" />
<circle cx="1355.959961" cy="592.960022" r="19.980000" fill="red">
  <title>Dhaka</title>
</circle><line x1="1628.959961" y1="199.959991" x2="1355.959961" y2="592.960022" stroke="red" stroke-width="6.660000" />
<circle cx="1319.959961" cy="661.960022" r="19.980000" fill="red">
  <title>Shanghai</title>
</circle><line x1="1355.959961" y1="592.960022" x2="1319.959961" y2="661.960022" stroke="red" stroke-width="6.660000" />
<circle cx="1858.959961" cy="817.960022" r="19.980000" fill="red">
  <title>Delhi</title>
</circle><line x1="1319.959961" y1="661.960022" x2="1858.959961" y2="817.960022" stroke="red" stroke-width="6.660000" />
<circle cx="1919.959961" cy="896.960022" r="19.980000" fill="red">
  <title>São Paulo</title>
</circle><line x1="1858.959961" y1="817.960022" x2="1919.959961" y2="896.960022" stroke="red" stroke-width="6.660000" />
<circle cx="1237.959961" cy="1982.959961" r="19.980000" fill="red">
  <title>Chongqing</title>
</circle><line x1="1919.959961" y1="896.960022" x2="1237.959961" y2="1982.959961" stroke="red" stroke-width="6.660000" />
<circle cx="464.959991" cy="1772.959961" r="19.980000" fill="red">
  <title>Buenos Aires</title>
</circle><line x1="1237.959961" y1="1982.959961" x2="464.959991" y2="1772.959961" stroke="red" stroke-width="6.660000" />
<circle cx="81.959999" cy="1448.959961" r="19.980000" fill="red">
  <title>Manila</title>
</circle><line x1="464.959991" y1="1772.959961" x2="81.959999" y2="1448.959961" stroke="red" stroke-width="6.660000" />
<circle cx="107.959999" cy="1324.959961" r="19.980000" fill="red">
  <title>Cairo</title>
</circle><line x1="81.959999" y1="1448.959961" x2="107.959999" y2="1324.959961" stroke="red" stroke-width="6.660000" />
<circle cx="260.959991" cy="1264.959961" r="19.980000" fill="red">
  <title>Beijing</title>
</circle><line x1="107.959999" y1="1324.959961" x2="260.959991" y2="1264.959961" stroke="red" stroke-width="6.660000" />
<circle cx="882.960022" cy="828.960022" r="19.980000" fill="red">
  <title>Mexico City</title>
</circle><line x1="260.959991" y1="1264.959961" x2="882.960022" y2="828.960022" stroke="red" stroke-width="6.660000" />
<circle cx="915.960022" cy="286.959991" r="19.980000" fill="red">
  <title>Karachi</title>
</circle><line x1="882.960022" y1="828.960022" x2="915.960022" y2="286.959991" stroke="red" stroke-width="6.660000" />
<circle cx="547.960022" cy="199.959991" r="19.980000" fill="red">
  <title>Osaka</title>
</circle><line x1="915.960022" y1="286.959991" x2="547.960022" y2="199.959991" stroke="red" stroke-width="6.660000" />
</svg>
