<?xml version="1.0" encoding="UTF-8" standalone="no"?>
<svg width="500" height="500" viewBox="0 0 2074.000000 2074.000000" xmlns="http://www.w3.org/2000/svg">
<rect x="19.000000" y="19.000000" width="2036.000000" height="2036.000000" fill="black" />
<circle cx="1231.959961" cy="839.960022" r="19.980000" fill="red">
  <title>Tokyo</title>
</circle><line x1="933.960022" y1="211.959991" x2="1231.959961" y2="839.960022" stroke="red" stroke-width="6.660000" />
<circle cx="1808.959961" cy="1141.959961" r="19.980000" fill="red">
  <title>Mexico City</title>
</circle><line x1="1231.959961" y1="839.960022" x2="1808.959961" y2="1141.959961" stroke="red" stroke-width="6.660000" />
<circle cx="1864.959961" cy="1908.959961" r="19.980000" fill="red">
  <title>São Paulo</title>
</circle><line x1="1808.959961" y1="1141.959961" x2="1864.959961" y2="1908.959961" stroke="red" stroke-width="6.660000" />
<circle cx="1428.959961" cy="1723.959961" r="19.980000" fill="red">
  <title>Delhi</title>
</circle><line x1="1864.959961" y1="1908.959961" x2="1428.959961" y2="1723.959961" stroke="red" stroke-width="6.660000" />
<circle cx="534.960022" cy="1722.959961" r="19.980000" fill="red">
  <title>Mumbai</title>
</circle><line x1="1428.959961" y1="1723.959961" x2="534.960022" y2="1722.959961" stroke="red" stroke-width="6.660000" />
<circle cx="388.959991" cy="2034.959961" r="19.980000" fill="red">
  <title>Cairo</title>
</circle><line x1="534.960022" y1="1722.959961" x2="388.959991" y2="2034.959961" stroke="red" stroke-width="6.660000" />
<circle cx="153.959991" cy="1688.959961" r="19.980000" fill="red">
  <title>Beijing</title>
</circle><line x1="388.959991" y1="2034.959961" x2="153.959991" y2="1688.959961" stroke="red" stroke-width="6.660000" />
<circle cx="933.960022" cy="211.959991" r="19.980000" fill="red">
  <title>Shanghai</title>
</circle><line x1="153.959991" y1="1688.959961" x2="933.960022" y2="211.959991" stroke="red" stroke-width="6.660000" />
</svg>
