<?xml version="1.0" encoding="UTF-8" standalone="no"?>
<svg width="500" height="500" viewBox="0 0 2074.000000 2074.000000" xmlns="http://www.w3.org/2000/svg">
<rect x="19.000000" y="19.000000" width="2036.000000" height="2036.000000" fill="black" />
<circle cx="974.960022" cy="902.960022" r="19.980000" fill="red">
  <title>Tokyo</title>
</circle><line x1="981.960022" y1="154.959991" x2="974.960022" y2="902.960022" stroke="red" stroke-width="6.660000" />
<circle cx="738.960022" cy="702.960022" r="19.980000" fill="red">
  <title>Delhi</title>
</circle><line x1="974.960022" y1="902.960022" x2="738.960022" y2="702.960022" stroke="red" stroke-width="6.660000" />
<circle cx="61.959999" cy="885.960022" r="19.980000" fill="red">
  <title>Buenos Aires</title>
</circle><line x1="738.960022" y1="702.960022" x2="61.959999" y2="885.960022" stroke="red" stroke-width="6.660000" />
<circle cx="238.959991" cy="998.960022" r="19.980000" fill="red">
  <title>Mexico City</title>
</circle><line x1="61.959999" y1="885.960022" x2="238.959991" y2="998.960022" stroke="red" stroke-width="6.660000" />
<circle cx="463.959991" cy="1851.959961" r="19.980000" fill="red">
  <title>Mumbai</title>
</circle><line x1="238.959991" y1="998.960022" x2="463.959991" y2="1851.959961" stroke="red" stroke-width="6.660000" />
<circle cx="910.960022" cy="1744.959961" r="19.980000" fill="red">
  <title>Karachi</title>
</circle><line x1="463.959991" y1="1851.959961" x2="910.960022" y2="1744.959961" stroke="red" stroke-width="6.660000" />
<circle cx="976.960022" cy="1815.959961" r="19.980000" fill="red">
  <title>Shanghai</title>
</circle><line x1="910.960022" y1="1744.959961" x2="976.960022" y2="1815.959961" stroke="red" stroke-width="6.660000" />
<circle cx="1087.959961" cy="1777.959961" r="19.980000" fill="red">
  <title>Dhaka</title>
</circle><line x1="976.960022" y1="1815.959961" x2="1087.959961" y2="1777.959961" stroke="red" stroke-width="6.660000" />
<circle cx="1242.959961" cy="1687.959961" r="19.980000" fill="red">
  <title>Osaka</title>
</circle><line x1="1087.959961" y1="1777.959961" x2="1242.959961" y2="1687.959961" stroke="red" stroke-width="6.660000" />
<circle cx="1666.959961" cy="1855.959961" r="19.980000" fill="red">
  <title>New York</title>
</circle><line x1="1242.959961" y1="1687.959961" x2="1666.959961" y2="1855.959961" stroke="red" stroke-width="6.660000" />
<circle cx="1667.959961" cy="1275.959961" r="19.980000" fill="red">
  <title>Beijing</title>
</circle><line x1="1666.959961" y1="1855.959961" x2="1667.959961" y2="1275.959961" stroke="red" stroke-width="6.660000" />
<circle cx="1771.959961" cy="684.960022" r="19.980000" fill="red">
  <title>Cairo</title>
</circle><line x1="1667.959961" y1="1275.959961" x2="1771.959961" y2="684.960022" stroke="red" stroke-width="6.660000" />
<circle cx="981.960022" cy="154.959991" r="19.980000" fill="red">
  <title>São Paulo</title>
</circle><line x1="1771.959961" y1="684.960022" x2="981.960022" y2="154.959991" stroke="red" stroke-width="6.660000" />
</svg>
