<?xml version="1.0" encoding="UTF-8" standalone="no"?>
<svg width="500" height="500" viewBox="0 0 2074.000000 2074.000000" xmlns="http://www.w3.org/2000/svg">
<rect x="19.000000" y="19.000000" width="2036.000000" height="2036.000000" fill="black" />
<circle cx="774.960022" cy="1696.959961" r="19.980000" fill="red">
  <title>Tokyo</title>
</circle><line x1="227.959991" y1="1804.959961" x2="774.960022" y2="1696.959961" stroke="red" stroke-width="6.660000" />
<circle cx="918.960022" cy="1919.959961" r="19.980000" fill="red">
  <title>Cairo</title>
</circle><line x1="774.960022" y1="1696.959961" x2="918.960022" y2="1919.959961" stroke="red" stroke-width="6.660000" />
<circle cx="1291.959961" cy="1854.959961" r="19.980000" fill="red">
  <title>Dhaka</title>
</circle><line x1="918.960022" y1="1919.959961" x2="1291.959961" y2="1854.959961" stroke="red" stroke-width="6.660000" />
<circle cx="1562.959961" cy="1587.959961" r="19.980000" fill="red">
  <title>Shanghai</title>
</circle><line x1="1291.959961" y1="1854.959961" x2="1562.959961" y2="1587.959961" stroke="red" stroke-width="6.660000" />
<circle cx="1852.959961" cy="1298.959961" r="19.980000" fill="red">
  <title>Osaka</title>
</circle><line x1="1562.959961" y1="1587.959961" x2="1852.959961" y2="1298.959961" stroke="red" stroke-width="6.660000" />
<circle cx="2031.959961" cy="1530.959961" r="19.980000" fill="red">
  <title>Delhi</title>
</circle><line x1="1852.959961" y1="1298.959961" x2="2031.959961" y2="1530.959961" stroke="red" stroke-width="6.660000" />
<circle cx="1769.959961" cy="1469.959961" r="19.980000" fill="red">
  <title>Rio de Janeiro</title>
</circle><line x1="2031.959961" y1="1530.959961" x2="1769.959961" y2="1469.959961" stroke="red" stroke-width="6.660000" />
<circle cx="1132.959961" cy="1440.959961" r="19.980000" fill="red">
  <title>Mumbai</title>
</circle><line x1="1769.959961" y1="1469.959961" x2="1132.959961" y2="1440.959961" stroke="red" stroke-width="6.660000" />
<circle cx="1068.959961" cy="1222.959961" r="19.980000" fill="red">
  <title>Istanbul</title>
</circle><line x1="1132.959961" y1="1440.959961" x2="1068.959961" y2="1222.959961" stroke="red" stroke-width="6.660000" />
<circle cx="1261.959961" cy="1026.959961" r="19.980000" fill="red">
  <title>Mexico City</title>
</circle><line x1="1068.959961" y1="1222.959961" x2="1261.959961" y2="1026.959961" stroke="red" stroke-width="6.660000" />
<circle cx="1296.959961" cy="405.959991" r="19.980000" fill="red">
  <title>Lagos</title>
</circle><line x1="1261.959961" y1="1026.959961" x2="1296.959961" y2="405.959991" stroke="red" stroke-width="6.660000" />
<circle cx="1182.959961" cy="115.959999" r="19.980000" fill="red">
  <title>New York</title>
</circle><line x1="1296.959961" y1="405.959991" x2="1182.959961" y2="115.959999" stroke="red" stroke-width="6.660000" />
<circle cx="1052.959961" cy="322.959991" r="19.980000" fill="red">
  <title>Chongqing</title>
</circle><line x1="1182.959961" y1="115.959999" x2="1052.959961" y2="322.959991" stroke="red" stroke-width="6.660000" />
<circle cx="881.960022" cy="221.959991" r="19.980000" fill="red">
  <title>Manila</title>
</circle><line x1="1052.959961" y1="322.959991" x2="881.960022" y2="221.959991" stroke="red" stroke-width="6.660000" />
<circle cx="796.960022" cy="306.959991" r="19.980000" fill="red">
  <title>Buenos Aires</title>
</circle><line x1="881.960022" y1="221.959991" x2="796.960022" y2="306.959991" stroke="red" stroke-width="6.660000" />
<circle cx="212.959991" cy="62.959999" r="19.980000" fill="red">
  <title>São Paulo</title>
</circle><line x1="796.960022" y1="306.959991" x2="212.959991" y2="62.959999" stroke="red" stroke-width="6.660000" />
<circle cx="495.959991" cy="496.959991" r="19.980000" fill="red">
  <title>Beijing</title>
</circle><line x1="212.959991" y1="62.959999" x2="495.959991" y2="496.959991" stroke="red" stroke-width="6.660000" />
<circle cx="428.959991" cy="993.960022" r="19.980000" fill="red">
  <title>Tianjin</title>
</circle><line x1="495.959991" y1="496.959991" x2="428.959991" y2="993.960022" stroke="red" stroke-width="6.660000" />
<circle cx="464.959991" cy="1086.959961" r="19.980000" fill="red">
  <title>Karachi</title>
</circle><line x1="428.959991" y1="993.960022" x2="464.959991" y2="1086.959961" stroke="red" stroke-width="6.660000" />
<circle cx="227.959991" cy="1804.959961" r="19.980000" fill="red">
  <title>Kolkata</title>
</circle><line x1="464.959991" y1="1086.959961" x2="227.959991" y2="1804.959961" stroke="red" stroke-width="6.660000" />
</svg>
