<?xml version="1.0" encoding="UTF-8" standalone="no"?>
<svg width="500" height="500" viewBox="0 0 2074.000000 2074.000000" xmlns="http://www.w3.org/2000/svg">
<rect x="19.000000" y="19.000000" width="2036.000000" height="2036.000000" fill="black" />
<circle cx="1456.959961" cy="1348.959961" r="19.980000" fill="red">
  <title>Tokyo</title>
</circle><line x1="1520.959961" y1="1970.959961" x2="1456.959961" y2="1348.959961" stroke="red" stroke-width="6.660000" />
<circle cx="1355.959961" cy="1167.959961" r="19.980000" fill="red">
  <title>Beijing</title>
</circle><line x1="1456.959961" y1="1348.959961" x2="1355.959961" y2="1167.959961" stroke="red" stroke-width="6.660000" />
<circle cx="1383.959961" cy="497.959991" r="19.980000" fill="red">
  <title>Karachi</title>
</circle><line x1="1355.959961" y1="1167.959961" x2="1383.959961" y2="497.959991" stroke="red" stroke-width="6.660000" />
<circle cx="938.960022" cy="422.959991" r="19.980000" fill="red">
  <title>Shanghai</title>
</circle><line x1="1383.959961" y1="497.959991" x2="938.960022" y2="422.959991" stroke="red" stroke-width="6.660000" />
<circle cx="633.960022" cy="149.959991" r="19.980000" fill="red">
  <title>Dhaka</title>
</circle><line x1="938.960022" y1="422.959991" x2="633.960022" y2="149.959991" stroke="red" stroke-width="6.660000" />
<circle cx="719.960022" cy="307.959991" r="19.980000" fill="red">
  <title>Buenos Aires</title>
</circle><line x1="633.960022" y1="149.959991" x2="719.960022" y2="307.959991" stroke="red" stroke-width="6.660000" />
<circle cx="325.959991" cy="969.960022" r="19.980000" fill="red">
  <title>São Paulo</title>
</circle><line x1="719.960022" y1="307.959991" x2="325.959991" y2="969.960022" stroke="red" stroke-width="6.660000" />
<circle cx="144.959991" cy="1153.959961" r="19.980000" fill="red">
  <title>Delhi</title>
</circle><line x1="325.959991" y1="969.960022" x2="144.959991" y2="1153.959961" stroke="red" stroke-width="6.660000" />
<circle cx="377.959991" cy="1755.959961" r="19.980000" fill="red">
  <title>Mumbai</title>
</circle><line x1="144.959991" y1="1153.959961" x2="377.959991" y2="1755.959961" stroke="red" stroke-width="6.660000" />
<circle cx="566.960022" cy="1668.959961" r="19.980000" fill="red">
  <title>Cairo</title>
</circle><line x1="377.959991" y1="1755.959961" x2="566.960022" y2="1668.959961" stroke="red" stroke-width="6.660000" />
<circle cx="847.960022" cy="1303.959961" r="19.980000" fill="red">
  <title>New York</title>
</circle><line x1="566.960022" y1="1668.959961" x2="847.960022" y2="1303.959961" stroke="red" stroke-width="6.660000" />
<circle cx="974.960022" cy="1456.959961" r="19.980000" fill="red">
  <title>Chongqing</title>
</circle><line x1="847.960022" y1="1303.959961" x2="974.960022" y2="1456.959961" stroke="red" stroke-width="6.660000" />
<circle cx="959.960022" cy="1977.959961" r="19.980000" fill="red">
  <title>Mexico City</title>
</circle><line x1="974.960022" y1="1456.959961" x2="959.960022" y2="1977.959961" stroke="red" stroke-width="6.660000" />
<circle cx="1124.959961" cy="2016.959961" r="19.980000" fill="red">
  <title>Istanbul</title>
</circle><line x1="959.960022" y1="1977.959961" x2="1124.959961" y2="2016.959961" stroke="red" stroke-width="6.660000" />
<circle cx="1520.959961" cy="1970.959961" r="19.980000" fill="red">
  <title>Osaka</title>
</circle><line x1="1124.959961" y1="2016.959961" x2="1520.959961" y2="1970.959961" stroke="red" stroke-width="6.660000" />
</svg>
