<?xml version="1.0" encoding="UTF-8" standalone="no"?>
<svg width="500" height="500" viewBox="0 0 2074.000000 2074.000000" xmlns="http://www.w3.org/2000/svg">
<rect x="19.000000" y="19.000000" width="2036.000000" height="2036.000000" fill="black" />
<circle cx="749.960022" cy="1248.959961" r="19.980000" fill="red">
  <title>Tokyo</title>
</circle><line x1="432.959991" y1="1139.959961" x2="749.960022" y2="1248.959961" stroke="red" stroke-width="6.660000" />
<circle cx="899.960022" cy="1290.959961" r="19.980000" fill="red">
  <title>Beijing</title>
</circle><line x1="749.960022" y1="1248.959961" x2="899.960022" y2="1290.959961" stroke="red" stroke-width="6.660000" />
<circle cx="699.960022" cy="982.960022" r="19.980000" fill="red">
  <title>Cairo</title>
</circle><line x1="899.960022" y1="1290.959961" x2="699.960022" y2="982.960022" stroke="red" stroke-width="6.660000" />
<circle cx="1519.959961" cy="444.959991" r="19.980000" fill="red">
  <title>Shanghai</title>
</circle><line x1="699.960022" y1="982.960022" x2="1519.959961" y2="444.959991" stroke="red" stroke-width="6.660000" />
<circle cx="1786.959961" cy="1130.959961" r="19.980000" fill="red">
  <title>Mumbai</title>
</circle><line x1="1519.959961" y1="444.959991" x2="1786.959961" y2="1130.959961" stroke="red" stroke-width="6.660000" />
<circle cx="1669.959961" cy="1925.959961" r="19.980000" fill="red">
  <title>Mexico City</title>
</circle><line x1="1786.959961" y1="1130.959961" x2="1669.959961" y2="1925.959961" stroke="red" stroke-width="6.660000" />
<circle cx="902.960022" cy="2016.959961" r="19.980000" fill="red">
  <title>Osaka</title>
</circle><line x1="1669.959961" y1="1925.959961" x2="902.960022" y2="2016.959961" stroke="red" stroke-width="6.660000" />
<circle cx="129.959991" cy="2035.959961" r="19.980000" fill="red">
  <title>São Paulo</title>
</circle><line x1="902.960022" y1="2016.959961" x2="129.959991" y2="2035.959961" stroke="red" stroke-width="6.660000" />
<circle cx="182.959991" cy="1961.959961" r="19.980000" fill="red">
  <title>Delhi</title>
</circle><line x1="129.959991" y1="2035.959961" x2="182.959991" y2="1961.959961" stroke="red" stroke-width="6.660000" />
<circle cx="432.959991" cy="1139.959961" r="19.980000" fill="red">
  <title>Dhaka</title>
</circle><line x1="182.959991" y1="1961.959961" x2="432.959991" y2="1139.959961" stroke="red" stroke-width="6.660000" />
</svg>
