<?xml version="1.0" encoding="UTF-8" standalone="no"?>
<svg width="500" height="500" viewBox="0 0 2074.000000 2074.000000" xmlns="http://www.w3.org/2000/svg">
<rect x="19.000000" y="19.000000" width="2036.000000" height="2036.000000" fill="black" />
<circle cx="442.959991" cy="1662.959961" r="19.980000" fill="red">
  <title>Tokyo</title>
</circle><line x1="1484.959961" y1="1018.960022" x2="442.959991" y2="1662.959961" stroke="red" stroke-width="6.660000" />
<circle cx="901.960022" cy="573.960022" r="19.980000" fill="red">
  <title>Delhi</title>
</circle><line x1="442.959991" y1="1662.959961" x2="901.960022" y2="573.960022" stroke="red" stroke-width="6.660000" />
<circle cx="1170.959961" cy="724.960022" r="19.980000" fill="red">
  <title>São Paulo</title>
</circle><line x1="901.960022" y1="573.960022" x2="1170.959961" y2="724.960022" stroke="red" stroke-width="6.660000" />
<circle cx="1663.959961" cy="753.960022" r="19.980000" fill="red">
  <title>Shanghai</title>
</circle><line x1="1170.959961" y1="724.960022" x2="1663.959961" y2="753.960022" stroke="red" stroke-width="6.660000" />
<circle cx="1484.959961" cy="1018.960022" r="19.980000" fill="red">
  <title>Mexico City</title>
</circle><line x1="1663.959961" y1="753.960022" x2="1484.959961" y2="1018.960022" stroke="red" stroke-width="6.660000" />
</svg>
