<?xml version="1.0" encoding="UTF-8" standalone="no"?>
<svg width="500" height="500" viewBox="0 0 2074.000000 2074.000000" xmlns="http://www.w3.org/2000/svg">
<rect x="19.000000" y="19.000000" width="2036.000000" height="2036.000000" fill="black" />
<circle cx="109.959999" cy="321.959991" r="19.980000" fill="red">
  <title>Tokyo</title>
</circle><line x1="411.959991" y1="708.960022" x2="109.959999" y2="321.959991" stroke="red" stroke-width="6.660000" />
<circle cx="86.959999" cy="130.959991" r="19.980000" fill="red">
  <title>Shanghai</title>
</circle><line x1="109.959999" y1="321.959991" x2="86.959999" y2="130.959991" stroke="red" stroke-width="6.660000" />
<circle cx="654.960022" cy="64.959999" r="19.980000" fill="red">
  <title>New York</title>
</circle><line x1="86.959999" y1="130.959991" x2="654.960022" y2="64.959999" stroke="red" stroke-width="6.660000" />
<circle cx="1433.959961" cy="601.960022" r="19.980000" fill="red">
  <title>Karachi</title>
</circle><line x1="654.960022" y1="64.959999" x2="1433.959961" y2="601.960022" stroke="red" stroke-width="6.660000" />
<circle cx="1490.959961" cy="1197.959961" r="19.980000" fill="red">
  <title>Mumbai</title>
</circle><line x1="1433.959961" y1="601.960022" x2="1490.959961" y2="1197.959961" stroke="red" stroke-width="6.660000" />
<circle cx="1451.959961" cy="1290.959961" r="19.980000" fill="red">
  <title>Mexico City</title>
</circle><line x1="1490.959961" y1="1197.959961" x2="1451.959961" y2="1290.959961" stroke="red" stroke-width="6.660000" />
<circle cx="1928.959961" cy="1756.959961" r="19.980000" fill="red">
  <title>Buenos Aires</title>
</circle><line x1="1451.959961" y1="1290.959961" x2="1928.959961" y2="1756.959961" stroke="red" stroke-width="6.660000" />
<circle cx="1643.959961" cy="1820.959961" r="19.980000" fill="red">
  <title>Beijing</title>
</circle><line x1="1928.959961" y1="1756.959961" x2="1643.959961" y2="1820.959961" stroke="red" stroke-width="6.660000" />
<circle cx="1444.959961" cy="1716.959961" r="19.980000" fill="red">
  <title>Delhi</title>
</circle><line x1="1643.959961" y1="1820.959961" x2="1444.959961" y2="1716.959961" stroke="red" stroke-width="6.660000" />
<circle cx="462.959991" cy="1794.959961" r="19.980000" fill="red">
  <title>Osaka</title>
</circle><line x1="1444.959961" y1="1716.959961" x2="462.959991" y2="1794.959961" stroke="red" stroke-width="6.660000" />
<circle cx="41.959999" cy="1901.959961" r="19.980000" fill="red">
  <title>São Paulo</title>
</circle><line x1="462.959991" y1="1794.959961" x2="41.959999" y2="1901.959961" stroke="red" stroke-width="6.660000" />
<circle cx="155.959991" cy="1833.959961" r="19.980000" fill="red">
  <title>Cairo</title>
</circle><line x1="41.959999" y1="1901.959961" x2="155.959991" y2="1833.959961" stroke="red" stroke-width="6.660000" />
<circle cx="411.959991" cy="708.960022" r="19.980000" fill="red">
  <title>Dhaka</title>
</circle><line x1="155.959991" y1="1833.959961" x2="411.959991" y2="708.960022" stroke="red" stroke-width="6.660000" />
</svg>
