<?xml version="1.0" encoding="UTF-8" standalone="no"?>
<svg width="500" height="500" viewBox="0 0 2074.000000 2074.000000" xmlns="http://www.w3.org/2000/svg">
<rect x="19.000000" y="19.000000" width="2036.000000" height="2036.000000" fill="black" />
<circle cx="764.960022" cy="125.959999" r="19.980000" fill="red">
  <title>Tokyo</title>
</circle><line x1="1021.960022" y1="1284.959961" x2="764.960022" y2="125.959999" stroke="red" stroke-width="6.660000" />
<circle cx="1842.959961" cy="359.959991" r="19.980000" fill="red">
  <title>Delhi</title>
</circle><line x1="764.960022" y1="125.959999" x2="1842.959961" y2="359.959991" stroke="red" stroke-width="6.660000" />
<circle cx="1439.959961" cy="718.960022" r="19.980000" fill="red">
  <title>Cairo</title>
</circle><line x1="1842.959961" y1="359.959991" x2="1439.959961" y2="718.960022" stroke="red" stroke-width="6.660000" />
<circle cx="1480.959961" cy="1601.959961" r="19.980000" fill="red">
  <title>Mexico City</title>
</circle><line x1="1439.959961" y1="718.960022" x2="1480.959961" y2="1601.959961" stroke="red" stroke-width="6.660000" />
<circle cx="1149.959961" cy="1460.959961" r="19.980000" fill="red">
  <title>São Paulo</title>
</circle><line x1="1480.959961" y1="1601.959961" x2="1149.959961" y2="1460.959961" stroke="red" stroke-width="6.660000" />
<circle cx="1021.960022" cy="1284.959961" r="19.980000" fill="red">
  <title>Shanghai</title>
</circle><line x1="1149.959961" y1="1460.959961" x2="1021.960022" y2="1284.959961" stroke="red" stroke-width="6.660000" />
</svg>
