<?xml version="1.0" encoding="UTF-8" standalone="no"?>
<svg width="500" height="500" viewBox="0 0 2074.000000 2074.000000" xmlns="http://www.w3.org/2000/svg">
<rect x="19.000000" y="19.000000" width="2036.000000" height="2036.000000" fill="black" />
<circle cx="1504.959961" cy="292.959991" r="19.980000" fill="red">
  <title>Tokyo</title>
</circle><line x1="1193.959961" y1="895.960022" x2="1504.959961" y2="292.959991" stroke="red" stroke-width="6.660000" />
<circle cx="640.960022" cy="127.959999" r="19.980000" fill="red">
  <title>Mumbai</title>
</circle><line x1="1504.959961" y1="292.959991" x2="640.960022" y2="127.959999" stroke="red" stroke-width="6.660000" />
<circle cx="603.960022" cy="402.959991" r="19.980000" fill="red">
  <title>Mexico City</title>
</circle><line x1="640.960022" y1="127.959999" x2="603.960022" y2="402.959991" stroke="red" stroke-width="6.660000" />
<circle cx="587.960022" cy="432.959991" r="19.980000" fill="red">
  <title>Kolkata</title>
</circle><line x1="603.960022" y1="402.959991" x2="587.960022" y2="432.959991" stroke="red" stroke-width="6.660000" />
<circle cx="392.959991" cy="621.960022" r="19.980000" fill="red">
  <title>Chongqing</title>
</circle><line x1="587.960022" y1="432.959991" x2="392.959991" y2="621.960022" stroke="red" stroke-width="6.660000" />
<circle cx="508.959991" cy="765.960022" r="19.980000" fill="red">
  <title>New York</title>
</circle><line x1="392.959991" y1="621.960022" x2="508.959991" y2="765.960022" stroke="red" stroke-width="6.660000" />
<circle cx="251.959991" cy="920.960022" r="19.980000" fill="red">
  <title>Buenos Aires</title>
</circle><line x1="508.959991" y1="765.960022" x2="251.959991" y2="920.960022" stroke="red" stroke-width="6.660000" />
<circle cx="180.959991" cy="1152.959961" r="19.980000" fill="red">
  <title>Lagos</title>
</circle><line x1="251.959991" y1="920.960022" x2="180.959991" y2="1152.959961" stroke="red" stroke-width="6.660000" />
<circle cx="207.959991" cy="1155.959961" r="19.980000" fill="red">
  <title>Manila</title>
</circle><line x1="180.959991" y1="1152.959961" x2="207.959991" y2="1155.959961" stroke="red" stroke-width="6.660000" />
<circle cx="614.960022" cy="989.960022" r="19.980000" fill="red">
  <title>Rio de Janeiro</title>
</circle><line x1="207.959991" y1="1155.959961" x2="614.960022" y2="989.960022" stroke="red" stroke-width="6.660000" />
<circle cx="1011.960022" cy="871.960022" r="19.980000" fill="red">
  <title>Karachi</title>
</circle><line x1="614.960022" y1="989.960022" x2="1011.960022" y2="871.960022" stroke="red" stroke-width="6.660000" />
<circle cx="987.960022" cy="1179.959961" r="19.980000" fill="red">
  <title>Tianjin</title>
</circle><line x1="1011.960022" y1="871.960022" x2="987.960022" y2="1179.959961" stroke="red" stroke-width="6.660000" />
<circle cx="983.960022" cy="1496.959961" r="19.980000" fill="red">
  <title>Shanghai</title>
</circle><line x1="987.960022" y1="1179.959961" x2="983.960022" y2="1496.959961" stroke="red" stroke-width="6.660000" />
<circle cx="606.960022" cy="1786.959961" r="19.980000" fill="red">
  <title>Delhi</title>
</circle><line x1="983.960022" y1="1496.959961" x2="606.960022" y2="1786.959961" stroke="red" stroke-width="6.660000" />
<circle cx="848.960022" cy="1873.959961" r="19.980000" fill="red">
  <title>São Paulo</title>
</circle><line x1="606.960022" y1="1786.959961" x2="848.960022" y2="1873.959961" stroke="red" stroke-width="6.660000" />
<circle cx="965.960022" cy="1952.959961" r="19.980000" fill="red">
  <title>Istanbul</title>
</circle><line x1="848.960022" y1="1873.959961" x2="965.960022" y2="1952.959961" stroke="red" stroke-width="6.660000" />
<circle cx="1411.959961" cy="1600.959961" r="19.980000" fill="red">
  <title>Cairo</title>
</circle><line x1="965.960022" y1="1952.959961" x2="1411.959961" y2="1600.959961" stroke="red" stroke-width="6.660000" />
<circle cx="1659.959961" cy="1577.959961" r="19.980000" fill="red">
  <title>Beijing</title>
</circle><line x1="1411.959961" y1="1600.959961" x2="1659.959961" y2="1577.959961" stroke="red" stroke-width="6.660000" />
<circle cx="1345.959961" cy="942.960022" r="19.980000" fill="red">
  <title>Osaka</title>
</circle><line x1="1659.959961" y1="1577.959961" x2="1345.959961" y2="942.960022" stroke="red" stroke-width="6.660000" />
<circle cx="1193.959961" cy="895.960022" r="19.980000" fill="red">
  <title>Dhaka</title>
</circle><line x1="1345.959961" y1="942.960022" x2="1193.959961" y2="895.960022" stroke="red" stroke-width="6.660000" />
</svg>
