<?xml version="1.0" encoding="UTF-8" standalone="no"?>
<svg width="500" height="500" viewBox="0 0 2074.000000 2074.000000" xmlns="http://www.w3.org/2000/svg">
<rect x="19.000000" y="19.000000" width="2036.000000" height="2036.000000" fill="black" />
<circle cx="568.960022" cy="1235.959961" r="19.980000" fill="red">
  <title>Tokyo</title>
</circle><line x1="738.960022" y1="1518.959961" x2="568.960022" y2="1235.959961" stroke="red" stroke-width="6.660000" />
<circle cx="348.959991" cy="583.960022" r="19.980000" fill="red">
  <title>Delhi</title>
</circle><line x1="568.960022" y1="1235.959961" x2="348.959991" y2="583.960022" stroke="red" stroke-width="6.660000" />
<circle cx="90.959999" cy="352.959991" r="19.980000" fill="red">
  <title>Mexico City</title>
</circle><line x1="348.959991" y1="583.960022" x2="90.959999" y2="352.959991" stroke="red" stroke-width="6.660000" />
<circle cx="720.960022" cy="873.960022" r="19.980000" fill="red">
  <title>Shanghai</title>
</circle><line x1="90.959999" y1="352.959991" x2="720.960022" y2="873.960022" stroke="red" stroke-width="6.660000" />
<circle cx="1653.959961" cy="1046.959961" r="19.980000" fill="red">
  <title>Cairo</title>
</circle><line x1="720.960022" y1="873.960022" x2="1653.959961" y2="1046.959961" stroke="red" stroke-width="6.660000" />
<circle cx="738.960022" cy="1518.959961" r="19.980000" fill="red">
  <title>São Paulo</title>
</circle><line x1="1653.959961" y1="1046.959961" x2="738.960022" y2="1518.959961" stroke="red" stroke-width="6.660000" />
</svg>
