<?xml version="1.0" encoding="UTF-8" standalone="no"?>
<svg width="500" height="500" viewBox="0 0 2074.000000 2074.000000" xmlns="http://www.w3.org/2000/svg">
<rect x="19.000000" y="19.000000" width="2036.000000" height="2036.000000" fill="black" />
<circle cx="962.960022" cy="205.959991" r="19.980000" fill="red">
  <title>Tokyo</title>
</circle><line x1="881.960022" y1="358.959991" x2="962.960022" y2="205.959991" stroke="red" stroke-width="6.660000" />
<circle cx="1431.959961" cy="155.959991" r="19.980000" fill="red">
  <title>Mexico City</title>
</circle><line x1="962.960022" y1="205.959991" x2="1431.959961" y2="155.959991" stroke="red" stroke-width="6.660000" />
<circle cx="1915.959961" cy="670.960022" r="19.980000" fill="red">
  <title>Delhi</title>
</circle><line x1="1431.959961" y1="155.959991" x2="1915.959961" y2="670.960022" stroke="red" stroke-width="6.660000" />
<circle cx="1459.959961" cy="927.960022" r="19.980000" fill="red">
  <title>São Paulo</title>
</circle><line x1="1915.959961" y1="670.960022" x2="1459.959961" y2="927.960022" stroke="red" stroke-width="6.660000" />
<circle cx="1716.959961" cy="1310.959961" r="19.980000" fill="red">
  <title>Cairo</title>
</circle><line x1="1459.959961" y1="927.960022" x2="1716.959961" y2="1310.959961" stroke="red" stroke-width="6.660000" />
<circle cx="693.960022" cy="1626.959961" r="19.980000" fill="red">
  <title>Shanghai</title>
</circle><line x1="1716.959961" y1="1310.959961" x2="693.960022" y2="1626.959961" stroke="red" stroke-width="6.660000" />
<circle cx="424.959991" cy="1036.959961" r="19.980000" fill="red">
  <title>Dhaka</title>
</circle><line x1="693.960022" y1="1626.959961" x2="424.959991" y2="1036.959961" stroke="red" stroke-width="6.660000" />
<circle cx="461.959991" cy="437.959991" r="19.980000" fill="red">
  <title>Beijing</title>
</circle><line x1="424.959991" y1="1036.959961" x2="461.959991" y2="437.959991" stroke="red" stroke-width="6.660000" />
<circle cx="434.959991" cy="380.959991" r="19.980000" fill="red">
  <title>Mumbai</title>
</circle><line x1="461.959991" y1="437.959991" x2="434.959991" y2="380.959991" stroke="red" stroke-width="6.660000" />
<circle cx="881.960022" cy="358.959991" r="19.980000" fill="red">
  <title>Osaka</title>
</circle><line x1="434.959991" y1="380.959991" x2="881.960022" y2="358.959991" stroke="red" stroke-width="6.660000" />
</svg>
