<?xml version="1.0" encoding="UTF-8" standalone="no"?>
<svg width="500" height="500" viewBox="0 0 2074.000000 2074.000000" xmlns="http://www.w3.org/2000/svg">
<rect x="19.000000" y="19.000000" width="2036.000000" height="2036.000000" fill="black" />
<circle cx="309.959991" cy="435.959991" r="19.980000" fill="red">
  <title>Tokyo</title>
</circle><line x1="159.959991" y1="1392.959961" x2="309.959991" y2="435.959991" stroke="red" stroke-width="6.660000" />
<circle cx="786.960022" cy="287.959991" r="19.980000" fill="red">
  <title>Delhi</title>
</circle><line x1="309.959991" y1="435.959991" x2="786.960022" y2="287.959991" stroke="red" stroke-width="6.660000" />
<circle cx="1690.959961" cy="474.959991" r="19.980000" fill="red">
  <title>Dhaka</title>
</circle><line x1="786.960022" y1="287.959991" x2="1690.959961" y2="474.959991" stroke="red" stroke-width="6.660000" />
<circle cx="1712.959961" cy="929.960022" r="19.980000" fill="red">
  <title>São Paulo</title>
</circle><line x1="1690.959961" y1="474.959991" x2="1712.959961" y2="929.960022" stroke="red" stroke-width="6.660000" />
<circle cx="1133.959961" cy="897.960022" r="19.980000" fill="red">
  <title>Cairo</title>
</circle><line x1="1712.959961" y1="929.960022" x2="1133.959961" y2="897.960022" stroke="red" stroke-width="6.660000" />
<circle cx="886.960022" cy="836.960022" r="19.980000" fill="red">
  <title>Shanghai</title>
</circle><line x1="1133.959961" y1="897.960022" x2="886.960022" y2="836.960022" stroke="red" stroke-width="6.660000" />
<circle cx="563.960022" cy="1563.959961" r="19.980000" fill="red">
  <title>Beijing</title>
</circle><line x1="886.960022" y1="836.960022" x2="563.960022" y2="1563.959961" stroke="red" stroke-width="6.660000" />
<circle cx="635.960022" cy="1666.959961" r="19.980000" fill="red">
  <title>Mexico City</title>
</circle><line x1="563.960022" y1="1563.959961" x2="635.960022" y2="1666.959961" stroke="red" stroke-width="6.660000" />
<circle cx="159.959991" cy="1392.959961" r="19.980000" fill="red">
  <title>Mumbai</title>
</circle><line x1="635.960022" y1="1666.959961" x2="159.959991" y2="1392.959961" stroke="red" stroke-width="6.660000" />
</svg>
