<?xml version="1.0" encoding="UTF-8" standalone="no"?>
<svg width="500" height="500" viewBox="0 0 2074.000000 2074.000000" xmlns="http://www.w3.org/2000/svg">
<rect x="19.000000" y="19.000000" width="2036.000000" height="2036.000000" fill="black" />
<circle cx="138.959991" cy="377.959991" r="19.980000" fill="red">
  <title>Tokyo</title>
</circle><line x1="706.960022" y1="1978.959961" x2="138.959991" y2="377.959991" stroke="red" stroke-width="6.660000" />
<circle cx="160.959991" cy="192.959991" r="19.980000" fill="red">
  <title>Mumbai</title>
</circle><line x1="138.959991" y1="377.959991" x2="160.959991" y2="192.959991" stroke="red" stroke-width="6.660000" />
<circle cx="386.959991" cy="155.959991" r="19.980000" fill="red">
  <title>São Paulo</title>
</circle><line x1="160.959991" y1="192.959991" x2="386.959991" y2="155.959991" stroke="red" stroke-width="6.660000" />
<circle cx="641.960022" cy="397.959991" r="19.980000" fill="red">
  <title>Beijing</title>
</circle><line x1="386.959991" y1="155.959991" x2="641.960022" y2="397.959991" stroke="red" stroke-width="6.660000" />
<circle cx="1074.959961" cy="295.959991" r="19.980000" fill="red">
  <title>Shanghai</title>
</circle><line x1="641.960022" y1="397.959991" x2="1074.959961" y2="295.959991" stroke="red" stroke-width="6.660000" />
<circle cx="1957.959961" cy="484.959991" r="19.980000" fill="red">
  <title>Cairo</title>
</circle><line x1="1074.959961" y1="295.959991" x2="1957.959961" y2="484.959991" stroke="red" stroke-width="6.660000" />
<circle cx="1986.959961" cy="731.960022" r="19.980000" fill="red">
  <title>Dhaka</title>
</circle><line x1="1957.959961" y1="484.959991" x2="1986.959961" y2="731.960022" stroke="red" stroke-width="6.660000" />
<circle cx="1361.959961" cy="922.960022" r="19.980000" fill="red">
  <title>Delhi</title>
</circle><line x1="1986.959961" y1="731.960022" x2="1361.959961" y2="922.960022" stroke="red" stroke-width="6.660000" />
<circle cx="706.960022" cy="1978.959961" r="19.980000" fill="red">
  <title>Mexico City</title>
</circle><line x1="1361.959961" y1="922.960022" x2="706.960022" y2="1978.959961" stroke="red" stroke-width="6.660000" />
</svg>
