<?xml version="1.0" encoding="UTF-8" standalone="no"?>
<svg width="500" height="500" viewBox="0 0 2074.000000 2074.000000" xmlns="http://www.w3.org/2000/svg">
<rect x="19.000000" y="19.000000" width="2036.000000" height="2036.000000" fill="black" />
<circle cx="1227.959961" cy="1988.959961" r="19.980000" fill="red">
  <title>Tokyo</title>
</circle><line x1="330.959991" y1="1948.959961" x2="1227.959961" y2="1988.959961" stroke="red" stroke-width="6.660000" />
<circle cx="2020.959961" cy="966.960022" r="19.980000" fill="red">
  <title>Mexico City</title>
</circle><line x1="1227.959961" y1="1988.959961" x2="2020.959961" y2="966.960022" stroke="red" stroke-width="6.660000" />
<circle cx="1817.959961" cy="161.959991" r="19.980000" fill="red">
  <title>São Paulo</title>
</circle><line x1="2020.959961" y1="966.960022" x2="1817.959961" y2="161.959991" stroke="red" stroke-width="6.660000" />
<circle cx="1590.959961" cy="126.959999" r="19.980000" fill="red">
  <title>Dhaka</title>
</circle><line x1="1817.959961" y1="161.959991" x2="1590.959961" y2="126.959999" stroke="red" stroke-width="6.660000" />
<circle cx="206.959991" cy="206.959991" r="19.980000" fill="red">
  <title>Beijing</title>
</circle><line x1="1590.959961" y1="126.959999" x2="206.959991" y2="206.959991" stroke="red" stroke-width="6.660000" />
<circle cx="146.959991" cy="748.960022" r="19.980000" fill="red">
  <title>Cairo</title>
</circle><line x1="206.959991" y1="206.959991" x2="146.959991" y2="748.960022" stroke="red" stroke-width="6.660000" />
<circle cx="616.960022" cy="1294.959961" r="19.980000" fill="red">
  <title>Osaka</title>
</circle><line x1="146.959991" y1="748.960022" x2="616.960022" y2="1294.959961" stroke="red" stroke-width="6.660000" />
<circle cx="542.960022" cy="1532.959961" r="19.980000" fill="red">
  <title>Delhi</title>
</circle><line x1="616.960022" y1="1294.959961" x2="542.960022" y2="1532.959961" stroke="red" stroke-width="6.660000" />
<circle cx="126.959999" cy="1511.959961" r="19.980000" fill="red">
  <title>Shanghai</title>
</circle><line x1="542.960022" y1="1532.959961" x2="126.959999" y2="1511.959961" stroke="red" stroke-width="6.660000" />
<circle cx="330.959991" cy="1948.959961" r="19.980000" fill="red">
  <title>Mumbai</title>
</circle><line x1="126.959999" y1="1511.959961" x2="330.959991" y2="1948.959961" stroke="red" stroke-width="6.660000" />
</svg>
