<?xml version="1.0" encoding="UTF-8" standalone="no"?>
<svg width="500" height="500" viewBox="0 0 2074.000000 2074.000000" xmlns="http://www.w3.org/2000/svg">
<rect x="19.000000" y="19.000000" width="2036.000000" height="2036.000000" fill="black" />
<circle cx="636.960022" cy="1365.959961" r="19.980000" fill="red">
  <title>Tokyo</title>
</circle><line x1="1919.959961" y1="205.959991" x2="636.960022" y2="1365.959961" stroke="red" stroke-width="6.660000" />
<circle cx="453.959991" cy="1184.959961" r="19.980000" fill="red">
  <title>Delhi</title>
</circle><line x1="636.960022" y1="1365.959961" x2="453.959991" y2="1184.959961" stroke="red" stroke-width="6.660000" />
<circle cx="59.959999" cy="1278.959961" r="19.980000" fill="red">
  <title>Shanghai</title>
</circle><line x1="453.959991" y1="1184.959961" x2="59.959999" y2="1278.959961" stroke="red" stroke-width="6.660000" />
<circle cx="148.959991" cy="783.960022" r="19.980000" fill="red">
  <title>São Paulo</title>
</circle><line x1="59.959999" y1="1278.959961" x2="148.959991" y2="783.960022" stroke="red" stroke-width="6.660000" />
<circle cx="1932.959961" cy="100.959999" r="19.980000" fill="red">
  <title>Cairo</title>
</circle><line x1="148.959991" y1="783.960022" x2="1932.959961" y2="100.959999" stroke="red" stroke-width="6.660000" />
<circle cx="1919.959961" cy="205.959991" r="19.980000" fill="red">
  <title>Mexico City</title>
</circle><line x1="1932.959961" y1="100.959999" x2="1919.959961" y2="205.959991" stroke="red" stroke-width="6.660000" />
</svg>
