<?xml version="1.0" encoding="UTF-8" standalone="no"?>
<svg width="500" height="500" viewBox="0 0 2074.000000 2074.000000" xmlns="http://www.w3.org/2000/svg">
<rect x="19.000000" y="19.000000" width="2036.000000" height="2036.000000" fill="black" />
<circle cx="776.960022" cy="1535.959961" r="19.980000" fill="red">
  <title>Tokyo</title>
</circle><line x1="236.959991" y1="1567.959961" x2="776.960022" y2="1535.959961" stroke="red" stroke-width="6.660000" />
<circle cx="1001.960022" cy="1408.959961" r="19.980000" fill="red">
  <title>Kolkata</title>
</circle><line x1="776.960022" y1="1535.959961" x2="1001.960022" y2="1408.959961" stroke="red" stroke-width="6.660000" />
<circle cx="1181.959961" cy="1504.959961" r="19.980000" fill="red">
  <title>Chongqing</title>
</circle><line x1="1001.960022" y1="1408.959961" x2="1181.959961" y2="1504.959961" stroke="red" stroke-width="6.660000" />
<circle cx="1511.959961" cy="1589.959961" r="19.980000" fill="red">
  <title>Buenos Aires</title>
</circle><line x1="1181.959961" y1="1504.959961" x2="1511.959961" y2="1589.959961" stroke="red" stroke-width="6.660000" />
<circle cx="1992.959961" cy="1467.959961" r="19.980000" fill="red">
  <title>Mexico City</title>
</circle><line x1="1511.959961" y1="1589.959961" x2="1992.959961" y2="1467.959961" stroke="red" stroke-width="6.660000" />
<circle cx="1369.959961" cy="865.960022" r="19.980000" fill="red">
  <title>Cairo</title>
</circle><line x1="1992.959961" y1="1467.959961" x2="1369.959961" y2="865.960022" stroke="red" stroke-width="6.660000" />
<circle cx="1289.959961" cy="168.959991" r="19.980000" fill="red">
  <title>Karachi</title>
</circle><line x1="1369.959961" y1="865.960022" x2="1289.959961" y2="168.959991" stroke="red" stroke-width="6.660000" />
<circle cx="1025.959961" cy="708.960022" r="19.980000" fill="red">
  <title>São Paulo</title>
</circle><line x1="1289.959961" y1="168.959991" x2="1025.959961" y2="708.960022" stroke="red" stroke-width="6.660000" />
<circle cx="670.960022" cy="748.960022" r="19.980000" fill="red">
  <title>Istanbul</title>
</circle><line x1="1025.959961" y1="708.960022" x2="670.960022" y2="748.960022" stroke="red" stroke-width="6.660000" />
<circle cx="690.960022" cy="511.959991" r="19.980000" fill="red">
  <title>Mumbai</title>
</circle><line x1="670.960022" y1="748.960022" x2="690.960022" y2="511.959991" stroke="red" stroke-width="6.660000" />
<circle cx="499.959991" cy="168.959991" r="19.980000" fill="red">
  <title>Beijing</title>
</circle><line x1="690.960022" y1="511.959991" x2="499.959991" y2="168.959991" stroke="red" stroke-width="6.660000" />
<circle cx="257.959991" cy="519.960022" r="19.980000" fill="red">
  <title>New York</title>
</circle><line x1="499.959991" y1="168.959991" x2="257.959991" y2="519.960022" stroke="red" stroke-width="6.660000" />
<circle cx="345.959991" cy="798.960022" r="19.980000" fill="red">
  <title>Delhi</title>
</circle><line x1="257.959991" y1="519.960022" x2="345.959991" y2="798.960022" stroke="red" stroke-width="6.660000" />
<circle cx="323.959991" cy="1089.959961" r="19.980000" fill="red">
  <title>Dhaka</title>
</circle><line x1="345.959991" y1="798.960022" x2="323.959991" y2="1089.959961" stroke="red" stroke-width="6.660000" />
<circle cx="405.959991" cy="1377.959961" r="19.980000" fill="red">
  <title>Shanghai</title>
</circle><line x1="323.959991" y1="1089.959961" x2="405.959991" y2="1377.959961" stroke="red" stroke-width="6.660000" />
<circle cx="236.959991" cy="1567.959961" r="19.980000" fill="red">
  <title>Osaka</title>
</circle><line x1="405.959991" y1="1377.959961" x2="236.959991" y2="1567.959961" stroke="red" stroke-width="6.660000" />
</svg>
