<?xml version="1.0" encoding="UTF-8" standalone="no"?>
<svg width="500" height="500" viewBox="0 0 2074.000000 2074.000000" xmlns="http://www.w3.org/2000/svg">
<rect x="19.000000" y="19.000000" width="2036.000000" height="2036.000000" fill="black" />
<circle cx="324.959991" cy="413.959991" r="19.980000" fill="red">
  <title>Tokyo</title>
</circle><line x1="163.959991" y1="585.960022" x2="324.959991" y2="413.959991" stroke="red" stroke-width="6.660000" />
<circle cx="658.960022" cy="637.960022" r="19.980000" fill="red">
  <title>Delhi</title>
</circle><line x1="324.959991" y1="413.959991" x2="658.960022" y2="637.960022" stroke="red" stroke-width="6.660000" />
<circle cx="870.960022" cy="886.960022" r="19.980000" fill="red">
  <title>Shanghai</title>
</circle><line x1="658.960022" y1="637.960022" x2="870.960022" y2="886.960022" stroke="red" stroke-width="6.660000" />
<circle cx="1304.959961" cy="750.960022" r="19.980000" fill="red">
  <title>Istanbul</title>
</circle><line x1="870.960022" y1="886.960022" x2="1304.959961" y2="750.960022" stroke="red" stroke-width="6.660000" />
<circle cx="1684.959961" cy="331.959991" r="19.980000" fill="red">
  <title>Mexico City</title>
</circle><line x1="1304.959961" y1="750.960022" x2="1684.959961" y2="331.959991" stroke="red" stroke-width="6.660000" />
<circle cx="1954.959961" cy="186.959991" r="19.980000" fill="red">
  <title>Dhaka</title>
</circle><line x1="1684.959961" y1="331.959991" x2="1954.959961" y2="186.959991" stroke="red" stroke-width="6.660000" />
<circle cx="1793.959961" cy="727.960022" r="19.980000" fill="red">
  <title>São Paulo</title>
</circle><line x1="1954.959961" y1="186.959991" x2="1793.959961" y2="727.960022" stroke="red" stroke-width="6.660000" />
<circle cx="1915.959961" cy="1135.959961" r="19.980000" fill="red">
  <title>Chongqing</title>
</circle><line x1="1793.959961" y1="727.960022" x2="1915.959961" y2="1135.959961" stroke="red" stroke-width="6.660000" />
<circle cx="1754.959961" cy="1577.959961" r="19.980000" fill="red">
  <title>Mumbai</title>
</circle><line x1="1915.959961" y1="1135.959961" x2="1754.959961" y2="1577.959961" stroke="red" stroke-width="6.660000" />
<circle cx="1409.959961" cy="1756.959961" r="19.980000" fill="red">
  <title>Karachi</title>
</circle><line x1="1754.959961" y1="1577.959961" x2="1409.959961" y2="1756.959961" stroke="red" stroke-width="6.660000" />
<circle cx="1423.959961" cy="1340.959961" r="19.980000" fill="red">
  <title>Beijing</title>
</circle><line x1="1409.959961" y1="1756.959961" x2="1423.959961" y2="1340.959961" stroke="red" stroke-width="6.660000" />
<circle cx="1130.959961" cy="1329.959961" r="19.980000" fill="red">
  <title>New York</title>
</circle><line x1="1423.959961" y1="1340.959961" x2="1130.959961" y2="1329.959961" stroke="red" stroke-width="6.660000" />
<circle cx="1125.959961" cy="1320.959961" r="19.980000" fill="red">
  <title>Manila</title>
</circle><line x1="1130.959961" y1="1329.959961" x2="1125.959961" y2="1320.959961" stroke="red" stroke-width="6.660000" />
<circle cx="701.960022" cy="1590.959961" r="19.980000" fill="red">
  <title>Kolkata</title>
</circle><line x1="1125.959961" y1="1320.959961" x2="701.960022" y2="1590.959961" stroke="red" stroke-width="6.660000" />
<circle cx="564.960022" cy="1069.959961" r="19.980000" fill="red">
  <title>Osaka</title>
</circle><line x1="701.960022" y1="1590.959961" x2="564.960022" y2="1069.959961" stroke="red" stroke-width="6.660000" />
<circle cx="462.959991" cy="610.960022" r="19.980000" fill="red">
  <title>Cairo</title>
</circle><line x1="564.960022" y1="1069.959961" x2="462.959991" y2="610.960022" stroke="red" stroke-width="6.660000" />
<circle cx="163.959991" cy="585.960022" r="19.980000" fill="red">
  <title>Buenos Aires</title>
</circle><line x1="462.959991" y1="610.960022" x2="163.959991" y2="585.960022" stroke="red" stroke-width="6.660000" />
</svg>
