<?xml version="1.0" encoding="UTF-8" standalone="no"?>
<svg width="500" height="500" viewBox="0 0 2074.000000 2074.000000" xmlns="http://www.w3.org/2000/svg">
<rect x="19.000000" y="19.000000" width="2036.000000" height="2036.000000" fill="black" />
<circle cx="1895.959961" cy="1546.959961" r="19.980000" fill="red">
  <title>Tokyo</title>
</circle><line x1="1533.959961" y1="912.960022" x2="1895.959961" y2="1546.959961" stroke="red" stroke-width="6.660000" />
<circle cx="1918.959961" cy="1784.959961" r="19.980000" fill="red">
  <title>São Paulo</title>
</circle><line x1="1895.959961" y1="1546.959961" x2="1918.959961" y2="1784.959961" stroke="red" stroke-width="6.660000" />
<circle cx="853.960022" cy="1797.959961" r="19.980000" fill="red">
  <title>New York</title>
</circle><line x1="1918.959961" y1="1784.959961" x2="853.960022" y2="1797.959961" stroke="red" stroke-width="6.660000" />
<circle cx="622.960022" cy="1929.959961" r="19.980000" fill="red">
  <title>Delhi</title>
</circle><line x1="853.960022" y1="1797.959961" x2="622.960022" y2="1929.959961" stroke="red" stroke-width="6.660000" />
<circle cx="999.960022" cy="1041.959961" r="19.980000" fill="red">
  <title>Cairo</title>
</circle><line x1="622.960022" y1="1929.959961" x2="999.960022" y2="1041.959961" stroke="red" stroke-width="6.660000" />
<circle cx="1205.959961" cy="1041.959961" r="19.980000" fill="red">
  <title>Shanghai</title>
</circle><line x1="999.960022" y1="1041.959961" x2="1205.959961" y2="1041.959961" stroke="red" stroke-width="6.660000" />
<circle cx="1301.959961" cy="665.960022" r="19.980000" fill="red">
  <title>Beijing</title>
</circle><line x1="1205.959961" y1="1041.959961" x2="1301.959961" y2="665.960022" stroke="red" stroke-width="6.660000" />
<circle cx="345.959991" cy="92.959999" r="19.980000" fill="red">
  <title>Mexico City</title>
</circle><line x1="1301.959961" y1="665.960022" x2="345.959991" y2="92.959999" stroke="red" stroke-width="6.660000" />
<circle cx="1266.959961" cy="376.959991" r="19.980000" fill="red">
  <title>Karachi</title>
</circle><line x1="345.959991" y1="92.959999" x2="1266.959961" y2="376.959991" stroke="red" stroke-width="6.660000" />
<circle cx="1673.959961" cy="472.959991" r="19.980000" fill="red">
  <title>Dhaka</title>
</circle><line x1="1266.959961" y1="376.959991" x2="1673.959961" y2="472.959991" stroke="red" stroke-width="6.660000" />
<circle cx="1482.959961" cy="903.960022" r="19.980000" fill="red">
  <title>Osaka</title>
</circle><line x1="1673.959961" y1="472.959991" x2="1482.959961" y2="903.960022" stroke="red" stroke-width="6.660000" />
<circle cx="1533.959961" cy="912.960022" r="19.980000" fill="red">
  <title>Mumbai</title>
</circle><line x1="1482.959961" y1="903.960022" x2="1533.959961" y2="912.960022" stroke="red" stroke-width="6.660000" />
</svg>
