<?xml version="1.0" encoding="UTF-8" standalone="no"?>
<svg width="500" height="500" viewBox="0 0 2074.000000 2074.000000" xmlns="http://www.w3.org/2000/svg">
<rect x="19.000000" y="19.000000" width="2036.000000" height="2036.000000" fill="black" />
<circle cx="895.960022" cy="1027.959961" r="19.980000" fill="red">
  <title>Tokyo</title>
</circle><line x1="317.959991" y1="496.959991" x2="895.960022" y2="1027.959961" stroke="red" stroke-width="6.660000" />
<circle cx="516.960022" cy="1678.959961" r="19.980000" fill="red">
  <title>Cairo</title>
</circle><line x1="895.960022" y1="1027.959961" x2="516.960022" y2="1678.959961" stroke="red" stroke-width="6.660000" />
<circle cx="1290.959961" cy="1921.959961" r="19.980000" fill="red">
  <title>São Paulo</title>
</circle><line x1="516.960022" y1="1678.959961" x2="1290.959961" y2="1921.959961" stroke="red" stroke-width="6.660000" />
<circle cx="1558.959961" cy="1869.959961" r="19.980000" fill="red">
  <title>Mexico City</title>
</circle><line x1="1290.959961" y1="1921.959961" x2="1558.959961" y2="1869.959961" stroke="red" stroke-width="6.660000" />
<circle cx="1831.959961" cy="1697.959961" r="19.980000" fill="red">
  <title>Shanghai</title>
</circle><line x1="1558.959961" y1="1869.959961" x2="1831.959961" y2="1697.959961" stroke="red" stroke-width="6.660000" />
<circle cx="1396.959961" cy="273.959991" r="19.980000" fill="red">
  <title>Delhi</title>
</circle><line x1="1831.959961" y1="1697.959961" x2="1396.959961" y2="273.959991" stroke="red" stroke-width="6.660000" />
<circle cx="317.959991" cy="496.959991" r="19.980000" fill="red">
  <title>Mumbai</title>
</circle><line x1="1396.959961" y1="273.959991" x2="317.959991" y2="496.959991" stroke="red" stroke-width="6.660000" />
</svg>
