<?xml version="1.0" encoding="UTF-8" standalone="no"?>
<svg width="500" height="500" viewBox="0 0 2074.000000 2074.000000" xmlns="http://www.w3.org/2000/svg">
<rect x="19.000000" y="19.000000" width="2036.000000" height="2036.000000" fill="black" />
<circle cx="949.960022" cy="493.959991" r="19.980000" fill="red">
  <title>Tokyo</title>
</circle><line x1="1298.959961" y1="299.959991" x2="949.960022" y2="493.959991" stroke="red" stroke-width="6.660000" />
<circle cx="711.960022" cy="124.959999" r="19.980000" fill="red">
  <title>Karachi</title>
</circle><line x1="949.960022" y1="493.959991" x2="711.960022" y2="124.959999" stroke="red" stroke-width="6.660000" />
<circle cx="215.959991" cy="434.959991" r="19.980000" fill="red">
  <title>Beijing</title>
</circle><line x1="711.960022" y1="124.959999" x2="215.959991" y2="434.959991" stroke="red" stroke-width="6.660000" />
<circle cx="217.959991" cy="1294.959961" r="19.980000" fill="red">
  <title>New York</title>
</circle><line x1="215.959991" y1="434.959991" x2="217.959991" y2="1294.959961" stroke="red" stroke-width="6.660000" />
<circle cx="787.960022" cy="1646.959961" r="19.980000" fill="red">
  <title>São Paulo</title>
</circle><line x1="217.959991" y1="1294.959961" x2="787.960022" y2="1646.959961" stroke="red" stroke-width="6.660000" />
<circle cx="802.960022" cy="1694.959961" r="19.980000" fill="red">
  <title>Mexico City</title>
</circle><line x1="787.960022" y1="1646.959961" x2="802.960022" y2="1694.959961" stroke="red" stroke-width="6.660000" />
<circle cx="1336.959961" cy="1769.959961" r="19.980000" fill="red">
  <title>Dhaka</title>
</circle><line x1="802.960022" y1="1694.959961" x2="1336.959961" y2="1769.959961" stroke="red" stroke-width="6.660000" />
<circle cx="1465.959961" cy="887.960022" r="19.980000" fill="red">
  <title>Shanghai</title>
</circle><line x1="1336.959961" y1="1769.959961" x2="1465.959961" y2="887.960022" stroke="red" stroke-width="6.660000" />
<circle cx="1824.959961" cy="746.960022" r="19.980000" fill="red">
  <title>Osaka</title>
</circle><line x1="1465.959961" y1="887.960022" x2="1824.959961" y2="746.960022" stroke="red" stroke-width="6.660000" />
<circle cx="1229.959961" cy="835.960022" r="19.980000" fill="red">
  <title>Mumbai</title>
</circle><line x1="1824.959961" y1="746.960022" x2="1229.959961" y2="835.960022" stroke="red" stroke-width="6.660000" />
<circle cx="935.960022" cy="791.960022" r="19.980000" fill="red">
  <title>Delhi</title>
</circle><line x1="1229.959961" y1="835.960022" x2="935.960022" y2="791.960022" stroke="red" stroke-width="6.660000" />
<circle cx="978.960022" cy="574.960022" r="19.980000" fill="red">
  <title>Cairo</title>
</circle><line x1="935.960022" y1="791.960022" x2="978.960022" y2="574.960022" stroke="red" stroke-width="6.660000" />
<circle cx="1298.959961" cy="299.959991" r="19.980000" fill="red">
  <title>Buenos Aires</title>
</circle><line x1="978.960022" y1="574.960022" x2="1298.959961" y2="299.959991" stroke="red" stroke-width="6.660000" />
</svg>
