<?xml version="1.0" encoding="UTF-8" standalone="no"?>
<svg width="500" height="500" viewBox="0 0 2074.000000 2074.000000" xmlns="http://www.w3.org/2000/svg">
<rect x="19.000000" y="19.000000" width="2036.000000" height="2036.000000" fill="black" />
<circle cx="959.960022" cy="1556.959961" r="19.980000" fill="red">
  <title>Tokyo</title>
</circle><line x1="1473.959961" y1="1045.959961" x2="959.960022" y2="1556.959961" stroke="red" stroke-width="6.660000" />
<circle cx="528.960022" cy="1137.959961" r="19.980000" fill="red">
  <title>São Paulo</title>
</circle><line x1="959.960022" y1="1556.959961" x2="528.960022" y2="1137.959961" stroke="red" stroke-width="6.660000" />
<circle cx="54.959999" cy="719.960022" r="19.980000" fill="red">
  <title>Cairo</title>
</circle><line x1="528.960022" y1="1137.959961" x2="54.959999" y2="719.960022" stroke="red" stroke-width="6.660000" />
<circle cx="455.959991" cy="1946.959961" r="19.980000" fill="red">
  <title>Mumbai</title>
</circle><line x1="54.959999" y1="719.960022" x2="455.959991" y2="1946.959961" stroke="red" stroke-width="6.660000" />
<circle cx="1127.959961" cy="1826.959961" r="19.980000" fill="red">
  <title>Shanghai</title>
</circle><line x1="455.959991" y1="1946.959961" x2="1127.959961" y2="1826.959961" stroke="red" stroke-width="6.660000" />
<circle cx="1070.959961" cy="1643.959961" r="19.980000" fill="red">
  <title>Delhi</title>
</circle><line x1="1127.959961" y1="1826.959961" x2="1070.959961" y2="1643.959961" stroke="red" stroke-width="6.660000" />
<circle cx="1675.959961" cy="929.960022" r="19.980000" fill="red">
  <title>Mexico City</title>
</circle><line x1="1070.959961" y1="1643.959961" x2="1675.959961" y2="929.960022" stroke="red" stroke-width="6.660000" />
<circle cx="1724.959961" cy="372.959991" r="19.980000" fill="red">
  <title>Beijing</title>
</circle><line x1="1675.959961" y1="929.960022" x2="1724.959961" y2="372.959991" stroke="red" stroke-width="6.660000" />
<circle cx="1473.959961" cy="1045.959961" r="19.980000" fill="red">
  <title>Dhaka</title>
</circle><line x1="1724.959961" y1="372.959991" x2="1473.959961" y2="1045.959961" stroke="red" stroke-width="6.660000" />
</svg>
