<?xml version="1.0" encoding="UTF-8" standalone="no"?>
<svg width="500" height="500" viewBox="0 0 2074.000000 2074.000000" xmlns="http://www.w3.org/2000/svg">
<rect x="19.000000" y="19.000000" width="2036.000000" height="2036.000000" fill="black" />
<circle cx="890.960022" cy="1829.959961" r="19.980000" fill="red">
  <title>Tokyo</title>
</circle><line x1="421.959991" y1="1626.959961" x2="890.960022" y2="1829.959961" stroke="red" stroke-width="6.660000" />
<circle cx="1149.959961" cy="1914.959961" r="19.980000" fill="red">
  <title>Chongqing</title>
</circle><line x1="890.960022" y1="1829.959961" x2="1149.959961" y2="1914.959961" stroke="red" stroke-width="6.660000" />
<circle cx="1352.959961" cy="1979.959961" r="19.980000" fill="red">
  <title>Shanghai</title>
</circle><line x1="1149.959961" y1="1914.959961" x2="1352.959961" y2="1979.959961" stroke="red" stroke-width="6.660000" />
<circle cx="1734.959961" cy="1758.959961" r="19.980000" fill="red">
  <title>Dhaka</title>
</circle><line x1="1352.959961" y1="1979.959961" x2="1734.959961" y2="1758.959961" stroke="red" stroke-width="6.660000" />
<circle cx="1306.959961" cy="1069.959961" r="19.980000" fill="red">
  <title>Osaka</title>
</circle><line x1="1734.959961" y1="1758.959961" x2="1306.959961" y2="1069.959961" stroke="red" stroke-width="6.660000" />
<circle cx="839.960022" cy="1434.959961" r="19.980000" fill="red">
  <title>New York</title>
</circle><line x1="1306.959961" y1="1069.959961" x2="839.960022" y2="1434.959961" stroke="red" stroke-width="6.660000" />
<circle cx="661.960022" cy="1255.959961" r="19.980000" fill="red">
  <title>Beijing</title>
</circle><line x1="839.960022" y1="1434.959961" x2="661.960022" y2="1255.959961" stroke="red" stroke-width="6.660000" />
<circle cx="363.959991" cy="291.959991" r="19.980000" fill="red">
  <title>São Paulo</title>
</circle><line x1="661.960022" y1="1255.959961" x2="363.959991" y2="291.959991" stroke="red" stroke-width="6.660000" />
<circle cx="379.959991" cy="100.959999" r="19.980000" fill="red">
  <title>Mumbai</title>
</circle><line x1="363.959991" y1="291.959991" x2="379.959991" y2="100.959999" stroke="red" stroke-width="6.660000" />
<circle cx="453.959991" cy="998.960022" r="19.980000" fill="red">
  <title>Delhi</title>
</circle><line x1="379.959991" y1="100.959999" x2="453.959991" y2="998.960022" stroke="red" stroke-width="6.660000" />
<circle cx="601.960022" cy="1278.959961" r="19.980000" fill="red">
  <title>Mexico City</title>
</circle><line x1="453.959991" y1="998.960022" x2="601.960022" y2="1278.959961" stroke="red" stroke-width="6.660000" />
<circle cx="348.959991" cy="1585.959961" r="19.980000" fill="red">
  <title>Cairo</title>
</circle><line x1="601.960022" y1="1278.959961" x2="348.959991" y2="1585.959961" stroke="red" stroke-width="6.660000" />
<circle cx="97.959999" cy="1821.959961" r="19.980000" fill="red">
  <title>Buenos Aires</title>
</circle><line x1="348.959991" y1="1585.959961" x2="97.959999" y2="1821.959961" stroke="red" stroke-width="6.660000" />
<circle cx="421.959991" cy="1626.959961" r="19.980000" fill="red">
  <title>Karachi</title>
</circle><line x1="97.959999" y1="1821.959961" x2="421.959991" y2="1626.959961" stroke="red" stroke-width="6.660000" />
</svg>
