<?xml version="1.0" encoding="UTF-8" standalone="no"?>
<svg width="500" height="500" viewBox="0 0 2074.000000 2074.000000" xmlns="http://www.w3.org/2000/svg">
<rect x="19.000000" y="19.000000" width="2036.000000" height="2036.000000" fill="black" />
<circle cx="1057.959961" cy="1068.959961" r="19.980000" fill="red">
  <title>Tokyo</title>
</circle><line x1="1584.959961" y1="1474.959961" x2="1057.959961" y2="1068.959961" stroke="red" stroke-width="6.660000" />
<circle cx="999.960022" cy="555.960022" r="19.980000" fill="red">
  <title>Shanghai</title>
</circle><line x1="1057.959961" y1="1068.959961" x2="999.960022" y2="555.960022" stroke="red" stroke-width="6.660000" />
<circle cx="1257.959961" cy="751.960022" r="19.980000" fill="red">
  <title>Delhi</title>
</circle><line x1="999.960022" y1="555.960022" x2="1257.959961" y2="751.960022" stroke="red" stroke-width="6.660000" />
<circle cx="1584.959961" cy="1474.959961" r="19.980000" fill="red">
  <title>São Paulo</title>
</circle><line x1="1257.959961" y1="751.960022" x2="1584.959961" y2="1474.959961" stroke="red" stroke-width="6.660000" />
</svg>
