<?xml version="1.0" encoding="UTF-8" standalone="no"?>
<svg width="500" height="500" viewBox="0 0 2074.000000 2074.000000" xmlns="http://www.w3.org/2000/svg">
<rect x="19.000000" y="19.000000" width="2036.000000" height="2036.000000" fill="black" />
<circle cx="1100.959961" cy="1440.959961" r="19.980000" fill="red">
  <title>Tokyo</title>
</circle><line x1="1060.959961" y1="1047.959961" x2="1100.959961" y2="1440.959961" stroke="red" stroke-width="6.660000" />
<circle cx="1094.959961" cy="1850.959961" r="19.980000" fill="red">
  <title>Shanghai</title>
</circle><line x1="1100.959961" y1="1440.959961" x2="1094.959961" y2="1850.959961" stroke="red" stroke-width="6.660000" />
<circle cx="749.960022" cy="1336.959961" r="19.980000" fill="red">
  <title>Beijing</title>
</circle><line x1="1094.959961" y1="1850.959961" x2="749.960022" y2="1336.959961" stroke="red" stroke-width="6.660000" />
<circle cx="187.959991" cy="1233.959961" r="19.980000" fill="red">
  <title>Delhi</title>
</circle><line x1="749.960022" y1="1336.959961" x2="187.959991" y2="1233.959961" stroke="red" stroke-width="6.660000" />
<circle cx="723.960022" cy="318.959991" r="19.980000" fill="red">
  <title>Mumbai</title>
</circle><line x1="187.959991" y1="1233.959961" x2="723.960022" y2="318.959991" stroke="red" stroke-width="6.660000" />
<circle cx="1457.959961" cy="134.959991" r="19.980000" fill="red">
  <title>São Paulo</title>
</circle><line x1="723.960022" y1="318.959991" x2="1457.959961" y2="134.959991" stroke="red" stroke-width="6.660000" />
<circle cx="1146.959961" cy="758.960022" r="19.980000" fill="red">
  <title>Cairo</title>
</circle><line x1="1457.959961" y1="134.959991" x2="1146.959961" y2="758.960022" stroke="red" stroke-width="6.660000" />
<circle cx="1060.959961" cy="1047.959961" r="19.980000" fill="red">
  <title>Mexico City</title>
</circle><line x1="1146.959961" y1="758.960022" x2="1060.959961" y2="1047.959961" stroke="red" stroke-width="6.660000" />
</svg>
