<?xml version="1.0" encoding="UTF-8" standalone="no"?>
<svg width="500" height="500" viewBox="0 0 2074.000000 2074.000000" xmlns="http://www.w3.org/2000/svg">
<rect x="19.000000" y="19.000000" width="2036.000000" height="2036.000000" fill="black" />
<circle cx="1187.959961" cy="1625.959961" r="19.980000" fill="red">
  <title>Tokyo</title>
</circle><line x1="991.960022" y1="1770.959961" x2="1187.959961" y2="1625.959961" stroke="red" stroke-width="6.660000" />
<circle cx="1240.959961" cy="1474.959961" r="19.980000" fill="red">
  <title>Karachi</title>
</circle><line x1="1187.959961" y1="1625.959961" x2="1240.959961" y2="1474.959961" stroke="red" stroke-width="6.660000" />
<circle cx="1613.959961" cy="1971.959961" r="19.980000" fill="red">
  <title>Chongqing</title>
</circle><line x1="1240.959961" y1="1474.959961" x2="1613.959961" y2="1971.959961" stroke="red" stroke-width="6.660000" />
<circle cx="1876.959961" cy="1403.959961" r="19.980000" fill="red">
  <title>Istanbul</title>
</circle><line x1="1613.959961" y1="1971.959961" x2="1876.959961" y2="1403.959961" stroke="red" stroke-width="6.660000" />
<circle cx="1628.959961" cy="1090.959961" r="19.980000" fill="red">
  <title>Osaka</title>
</circle><line x1="1876.959961" y1="1403.959961" x2="1628.959961" y2="1090.959961" stroke="red" stroke-width="6.660000" />
<circle cx="1707.959961" cy="1025.959961" r="19.980000" fill="red">
  <title>Kolkata</title>
</circle><line x1="1628.959961" y1="1090.959961" x2="1707.959961" y2="1025.959961" stroke="red" stroke-width="6.660000" />
<circle cx="1886.959961" cy="963.960022" r="19.980000" fill="red">
  <title>New York</title>
</circle><line x1="1707.959961" y1="1025.959961" x2="1886.959961" y2="963.960022" stroke="red" stroke-width="6.660000" />
<circle cx="1932.959961" cy="48.959999" r="19.980000" fill="red">
  <title>Dhaka</title>
</circle><line x1="1886.959961" y1="963.960022" x2="1932.959961" y2="48.959999" stroke="red" stroke-width="6.660000" />
<circle cx="1268.959961" cy="211.959991" r="19.980000" fill="red">
  <title>Cairo</title>
</circle><line x1="1932.959961" y1="48.959999" x2="1268.959961" y2="211.959991" stroke="red" stroke-width="6.660000" />
<circle cx="407.959991" cy="449.959991" r="19.980000" fill="red">
  <title>Shanghai</title>
</circle><line x1="1268.959961" y1="211.959991" x2="407.959991" y2="449.959991" stroke="red" stroke-width="6.660000" />
<circle cx="1170.959961" cy="876.960022" r="19.980000" fill="red">
  <title>Beijing</title>
</circle><line x1="407.959991" y1="449.959991" x2="1170.959961" y2="876.960022" stroke="red" stroke-width="6.660000" />
<circle cx="1118.959961" cy="1281.959961" r="19.980000" fill="red">
  <title>São Paulo</title>
</circle><line x1="1170.959961" y1="876.960022" x2="1118.959961" y2="1281.959961" stroke="red" stroke-width="6.660000" />
<circle cx="906.960022" cy="1359.959961" r="19.980000" fill="red">
  <title>Lagos</title>
</circle><line x1="1118.959961" y1="1281.959961" x2="906.960022" y2="1359.959961" stroke="red" stroke-width="6.660000" />
<circle cx="499.959991" cy="1600.959961" r="19.980000" fill="red">
  <title>Buenos Aires</title>
</circle><line x1="906.960022" y1="1359.959961" x2="499.959991" y2="1600.959961" stroke="red" stroke-width="6.660000" />
<circle cx="101.959999" cy="1918.959961" r="19.980000" fill="red">
  <title>Delhi</title>
</circle><line x1="499.959991" y1="1600.959961" x2="101.959999" y2="1918.959961" stroke="red" stroke-width="6.660000" />
<circle cx="819.960022" cy="1883.959961" r="19.980000" fill="red">
  <title>Mexico City</title>
</circle><line x1="101.959999" y1="1918.959961" x2="819.960022" y2="1883.959961" stroke="red" stroke-width="6.660000" />
<circle cx="860.960022" cy="1930.959961" r="19.980000" fill="red">
  <title>Mumbai</title>
</circle><line x1="819.960022" y1="1883.959961" x2="860.960022" y2="1930.959961" stroke="red" stroke-width="6.660000" />
<circle cx="991.960022" cy="1770.959961" r="19.980000" fill="red">
  <title>Manila</title>
</circle><line x1="860.960022" y1="1930.959961" x2="991.960022" y2="1770.959961" stroke="red" stroke-width="6.660000" />
</svg>
