<?xml version="1.0" encoding="UTF-8" standalone="no"?>
<svg width="500" height="500" viewBox="0 0 2074.000000 2074.000000" xmlns="http://www.w3.org/2000/svg">
<rect x="19.000000" y="19.000000" width="2036.000000" height="2036.000000" fill="black" />
<circle cx="1079.959961" cy="377.959991" r="19.980000" fill="red">
  <title>Tokyo</title>
</circle><line x1="1199.959961" y1="124.959999" x2="1079.959961" y2="377.959991" stroke="red" stroke-width="6.660000" />
<circle cx="815.960022" cy="594.960022" r="19.980000" fill="red">
  <title>Shanghai</title>
</circle><line x1="1079.959961" y1="377.959991" x2="815.960022" y2="594.960022" stroke="red" stroke-width="6.660000" />
<circle cx="752.960022" cy="412.959991" r="19.980000" fill="red">
  <title>Mumbai</title>
</circle><line x1="815.960022" y1="594.960022" x2="752.960022" y2="412.959991" stroke="red" stroke-width="6.660000" />
<circle cx="411.959991" cy="405.959991" r="19.980000" fill="red">
  <title>Dhaka</title>
</circle><line x1="752.960022" y1="412.959991" x2="411.959991" y2="405.959991" stroke="red" stroke-width="6.660000" />
<circle cx="142.959991" cy="844.960022" r="19.980000" fill="red">
  <title>Cairo</title>
</circle><line x1="411.959991" y1="405.959991" x2="142.959991" y2="844.960022" stroke="red" stroke-width="6.660000" />
<circle cx="602.960022" cy="1032.959961" r="19.980000" fill="red">
  <title>Karachi</title>
</circle><line x1="142.959991" y1="844.960022" x2="602.960022" y2="1032.959961" stroke="red" stroke-width="6.660000" />
<circle cx="727.960022" cy="1417.959961" r="19.980000" fill="red">
  <title>Tianjin</title>
</circle><line x1="602.960022" y1="1032.959961" x2="727.960022" y2="1417.959961" stroke="red" stroke-width="6.660000" />
<circle cx="962.960022" cy="1748.959961" r="19.980000" fill="red">
  <title>New York</title>
</circle><line x1="727.960022" y1="1417.959961" x2="962.960022" y2="1748.959961" stroke="red" stroke-width="6.660000" />
<circle cx="1347.959961" cy="976.960022" r="19.980000" fill="red">
  <title>Manila</title>
</circle><line x1="962.960022" y1="1748.959961" x2="1347.959961" y2="976.960022" stroke="red" stroke-width="6.660000" />
<circle cx="1650.959961" cy="1009.960022" r="19.980000" fill="red">
  <title>Istanbul</title>
</circle><line x1="1347.959961" y1="976.960022" x2="1650.959961" y2="1009.960022" stroke="red" stroke-width="6.660000" />
<circle cx="1814.959961" cy="1313.959961" r="19.980000" fill="red">
  <title>Chongqing</title>
</circle><line x1="1650.959961" y1="1009.960022" x2="1814.959961" y2="1313.959961" stroke="red" stroke-width="6.660000" />
<circle cx="1923.959961" cy="1216.959961" r="19.980000" fill="red">
  <title>Mexico City</title>
</circle><line x1="1814.959961" y1="1313.959961" x2="1923.959961" y2="1216.959961" stroke="red" stroke-width="6.660000" />
<circle cx="1883.959961" cy="1114.959961" r="19.980000" fill="red">
  <title>Buenos Aires</title>
</circle><line x1="1923.959961" y1="1216.959961" x2="1883.959961" y2="1114.959961" stroke="red" stroke-width="6.660000" />
<circle cx="2002.959961" cy="555.960022" r="19.980000" fill="red">
  <title>Osaka</title>
</circle><line x1="1883.959961" y1="1114.959961" x2="2002.959961" y2="555.960022" stroke="red" stroke-width="6.660000" />
<circle cx="1789.959961" cy="546.960022" r="19.980000" fill="red">
  <title>Delhi</title>
</circle><line x1="2002.959961" y1="555.960022" x2="1789.959961" y2="546.960022" stroke="red" stroke-width="6.660000" />
<circle cx="1652.959961" cy="641.960022" r="19.980000" fill="red">
  <title>São Paulo</title>
</circle><line x1="1789.959961" y1="546.960022" x2="1652.959961" y2="641.960022" stroke="red" stroke-width="6.660000" />
<circle cx="1532.959961" cy="814.960022" r="19.980000" fill="red">
  <title>Rio de Janeiro</title>
</circle><line x1="1652.959961" y1="641.960022" x2="1532.959961" y2="814.960022" stroke="red" stroke-width="6.660000" />
<circle cx="1225.959961" cy="692.960022" r="19.980000" fill="red">
  <title>Kolkata</title>
</circle><line x1="1532.959961" y1="814.960022" x2="1225.959961" y2="692.960022" stroke="red" stroke-width="6.660000" />
<circle cx="1148.959961" cy="438.959991" r="19.980000" fill="red">
  <title>Beijing</title>
</circle><line x1="1225.959961" y1="692.960022" x2="1148.959961" y2="438.959991" stroke="red" stroke-width="6.660000" />
<circle cx="1199.959961" cy="124.959999" r="19.980000" fill="red">
  <title>Lagos</title>
</circle><line x1="1148.959961" y1="438.959991" x2="1199.959961" y2="124.959999" stroke="red" stroke-width="6.660000" />
</svg>
