<?xml version="1.0" encoding="UTF-8" standalone="no"?>
<svg width="500" height="500" viewBox="0 0 2074.000000 2074.000000" xmlns="http://www.w3.org/2000/svg">
<rect x="19.000000" y="19.000000" width="2036.000000" height="2036.000000" fill="black" />
<circle cx="1255.959961" cy="331.959991" r="19.980000" fill="red">
  <title>Tokyo</title>
</circle><line x1="1210.959961" y1="961.960022" x2="1255.959961" y2="331.959991" stroke="red" stroke-width="6.660000" />
<circle cx="1351.959961" cy="248.959991" r="19.980000" fill="red">
  <title>Buenos Aires</title>
</circle><line x1="1255.959961" y1="331.959991" x2="1351.959961" y2="248.959991" stroke="red" stroke-width="6.660000" />
<circle cx="681.960022" cy="317.959991" r="19.980000" fill="red">
  <title>Karachi</title>
</circle><line x1="1351.959961" y1="248.959991" x2="681.960022" y2="317.959991" stroke="red" stroke-width="6.660000" />
<circle cx="522.960022" cy="602.960022" r="19.980000" fill="red">
  <title>Osaka</title>
</circle><line x1="681.960022" y1="317.959991" x2="522.960022" y2="602.960022" stroke="red" stroke-width="6.660000" />
<circle cx="346.959991" cy="609.960022" r="19.980000" fill="red">
  <title>Chongqing</title>
</circle><line x1="522.960022" y1="602.960022" x2="346.959991" y2="609.960022" stroke="red" stroke-width="6.660000" />
<circle cx="158.959991" cy="735.960022" r="19.980000" fill="red">
  <title>Mumbai</title>
</circle><line x1="346.959991" y1="609.960022" x2="158.959991" y2="735.960022" stroke="red" stroke-width="6.660000" />
<circle cx="597.960022" cy="1043.959961" r="19.980000" fill="red">
  <title>Beijing</title>
</circle><line x1="158.959991" y1="735.960022" x2="597.960022" y2="1043.959961" stroke="red" stroke-width="6.660000" />
<circle cx="417.959991" cy="1222.959961" r="19.980000" fill="red">
  <title>Kolkata</title>
</circle><line x1="597.960022" y1="1043.959961" x2="417.959991" y2="1222.959961" stroke="red" stroke-width="6.660000" />
<circle cx="608.960022" cy="1755.959961" r="19.980000" fill="red">
  <title>Lagos</title>
</circle><line x1="417.959991" y1="1222.959961" x2="608.960022" y2="1755.959961" stroke="red" stroke-width="6.660000" />
<circle cx="686.960022" cy="1780.959961" r="19.980000" fill="red">
  <title>Rio de Janeiro</title>
</circle><line x1="608.960022" y1="1755.959961" x2="686.960022" y2="1780.959961" stroke="red" stroke-width="6.660000" />
<circle cx="1321.959961" cy="1424.959961" r="19.980000" fill="red">
  <title>Delhi</title>
</circle><line x1="686.960022" y1="1780.959961" x2="1321.959961" y2="1424.959961" stroke="red" stroke-width="6.660000" />
<circle cx="1703.959961" cy="1425.959961" r="19.980000" fill="red">
  <title>New York</title>
</circle><line x1="1321.959961" y1="1424.959961" x2="1703.959961" y2="1425.959961" stroke="red" stroke-width="6.660000" />
<circle cx="1714.959961" cy="1519.959961" r="19.980000" fill="red">
  <title>Cairo</title>
</circle><line x1="1703.959961" y1="1425.959961" x2="1714.959961" y2="1519.959961" stroke="red" stroke-width="6.660000" />
<circle cx="1813.959961" cy="1699.959961" r="19.980000" fill="red">
  <title>Manila</title>
</circle><line x1="1714.959961" y1="1519.959961" x2="1813.959961" y2="1699.959961" stroke="red" stroke-width="6.660000" />
<circle cx="1987.959961" cy="1724.959961" r="19.980000" fill="red">
  <title>Mexico City</title>
</circle><line x1="1813.959961" y1="1699.959961" x2="1987.959961" y2="1724.959961" stroke="red" stroke-width="6.660000" />
<circle cx="2005.959961" cy="1520.959961" r="19.980000" fill="red">
  <title>Istanbul</title>
</circle><line x1="1987.959961" y1="1724.959961" x2="2005.959961" y2="1520.959961" stroke="red" stroke-width="6.660000" />
<circle cx="1979.959961" cy="1025.959961" r="19.980000" fill="red">
  <title>Shanghai</title>
</circle><line x1="2005.959961" y1="1520.959961" x2="1979.959961" y2="1025.959961" stroke="red" stroke-width="6.660000" />
<circle cx="1467.959961" cy="1251.959961" r="19.980000" fill="red">
  <title>Dhaka</title>
</circle><line x1="1979.959961" y1="1025.959961" x2="1467.959961" y2="1251.959961" stroke="red" stroke-width="6.660000" />
<circle cx="1210.959961" cy="961.960022" r="19.980000" fill="red">
  <title>São Paulo</title>
</circle><line x1="1467.959961" y1="1251.959961" x2="1210.959961" y2="961.960022" stroke="red" stroke-width="6.660000" />
</svg>
