<?xml version="1.0" encoding="UTF-8" standalone="no"?>
<svg width="500" height="500" viewBox="0 0 2074.000000 2074.000000" xmlns="http://www.w3.org/2000/svg">
<rect x="19.000000" y="19.000000" width="2036.000000" height="2036.000000" fill="black" />
<circle cx="253.959991" cy="328.959991" r="19.980000" fill="red">
  <title>Tokyo</title>
</circle><line x1="1764.959961" y1="563.960022" x2="253.959991" y2="328.959991" stroke="red" stroke-width="6.660000" />
<circle cx="393.959991" cy="1492.959961" r="19.980000" fill="red">
  <title>Delhi</title>
</circle><line x1="253.959991" y1="328.959991" x2="393.959991" y2="1492.959961" stroke="red" stroke-width="6.660000" />
<circle cx="1373.959961" cy="1159.959961" r="19.980000" fill="red">
  <title>São Paulo</title>
</circle><line x1="393.959991" y1="1492.959961" x2="1373.959961" y2="1159.959961" stroke="red" stroke-width="6.660000" />
<circle cx="1843.959961" cy="1180.959961" r="19.980000" fill="red">
  <title>Mexico City</title>
</circle><line x1="1373.959961" y1="1159.959961" x2="1843.959961" y2="1180.959961" stroke="red" stroke-width="6.660000" />
<circle cx="1764.959961" cy="563.960022" r="19.980000" fill="red">
  <title>Shanghai</title>
</circle><line x1="1843.959961" y1="1180.959961" x2="1764.959961" y2="563.960022" stroke="red" stroke-width="6.660000" />
</svg>
