<?xml version="1.0" encoding="UTF-8" standalone="no"?>
<svg width="500" height="500" viewBox="0 0 2074.000000 2074.000000" xmlns="http://www.w3.org/2000/svg">
<rect x="19.000000" y="19.000000" width="2036.000000" height="2036.000000" fill="black" />
<circle cx="1295.959961" cy="890.960022" r="19.980000" fill="red">
  <title>Tokyo</title>
</circle><line x1="1555.959961" y1="665.960022" x2="1295.959961" y2="890.960022" stroke="red" stroke-width="6.660000" />
<circle cx="1097.959961" cy="738.960022" r="19.980000" fill="red">
  <title>Shanghai</title>
</circle><line x1="1295.959961" y1="890.960022" x2="1097.959961" y2="738.960022" stroke="red" stroke-width="6.660000" />
<circle cx="1094.959961" cy="564.960022" r="19.980000" fill="red">
  <title>Buenos Aires</title>
</circle><line x1="1097.959961" y1="738.960022" x2="1094.959961" y2="564.960022" stroke="red" stroke-width="6.660000" />
<circle cx="1074.959961" cy="421.959991" r="19.980000" fill="red">
  <title>Manila</title>
</circle><line x1="1094.959961" y1="564.960022" x2="1074.959961" y2="421.959991" stroke="red" stroke-width="6.660000" />
<circle cx="1165.959961" cy="223.959991" r="19.980000" fill="red">
  <title>Istanbul</title>
</circle><line x1="1074.959961" y1="421.959991" x2="1165.959961" y2="223.959991" stroke="red" stroke-width="6.660000" />
<circle cx="849.960022" cy="422.959991" r="19.980000" fill="red">
  <title>Kolkata</title>
</circle><line x1="1165.959961" y1="223.959991" x2="849.960022" y2="422.959991" stroke="red" stroke-width="6.660000" />
<circle cx="462.959991" cy="90.959999" r="19.980000" fill="red">
  <title>Dhaka</title>
</circle><line x1="849.960022" y1="422.959991" x2="462.959991" y2="90.959999" stroke="red" stroke-width="6.660000" />
<circle cx="810.960022" cy="619.960022" r="19.980000" fill="red">
  <title>Karachi</title>
</circle><line x1="462.959991" y1="90.959999" x2="810.960022" y2="619.960022" stroke="red" stroke-width="6.660000" />
<circle cx="839.960022" cy="1252.959961" r="19.980000" fill="red">
  <title>Chongqing</title>
</circle><line x1="810.960022" y1="619.960022" x2="839.960022" y2="1252.959961" stroke="red" stroke-width="6.660000" />
<circle cx="298.959991" cy="1734.959961" r="19.980000" fill="red">
  <title>São Paulo</title>
</circle><line x1="839.960022" y1="1252.959961" x2="298.959991" y2="1734.959961" stroke="red" stroke-width="6.660000" />
<circle cx="817.960022" cy="1796.959961" r="19.980000" fill="red">
  <title>New York</title>
</circle><line x1="298.959991" y1="1734.959961" x2="817.960022" y2="1796.959961" stroke="red" stroke-width="6.660000" />
<circle cx="1318.959961" cy="1851.959961" r="19.980000" fill="red">
  <title>Beijing</title>
</circle><line x1="817.960022" y1="1796.959961" x2="1318.959961" y2="1851.959961" stroke="red" stroke-width="6.660000" />
<circle cx="1560.959961" cy="1759.959961" r="19.980000" fill="red">
  <title>Osaka</title>
</circle><line x1="1318.959961" y1="1851.959961" x2="1560.959961" y2="1759.959961" stroke="red" stroke-width="6.660000" />
<circle cx="1892.959961" cy="1643.959961" r="19.980000" fill="red">
  <title>Mumbai</title>
</circle><line x1="1560.959961" y1="1759.959961" x2="1892.959961" y2="1643.959961" stroke="red" stroke-width="6.660000" />
<circle cx="1610.959961" cy="1535.959961" r="19.980000" fill="red">
  <title>Delhi</title>
</circle><line x1="1892.959961" y1="1643.959961" x2="1610.959961" y2="1535.959961" stroke="red" stroke-width="6.660000" />
<circle cx="1578.959961" cy="1098.959961" r="19.980000" fill="red">
  <title>Mexico City</title>
</circle><line x1="1610.959961" y1="1535.959961" x2="1578.959961" y2="1098.959961" stroke="red" stroke-width="6.660000" />
<circle cx="1555.959961" cy="665.960022" r="19.980000" fill="red">
  <title>Cairo</title>
</circle><line x1="1578.959961" y1="1098.959961" x2="1555.959961" y2="665.960022" stroke="red" stroke-width="6.660000" />
</svg>
