<?xml version="1.0" encoding="UTF-8" standalone="no"?>
<svg width="500" height="500" viewBox="0 0 2074.000000 2074.000000" xmlns="http://www.w3.org/2000/svg">
<rect x="19.000000" y="19.000000" width="2036.000000" height="2036.000000" fill="black" />
<circle cx="1441.959961" cy="716.960022" r="19.980000" fill="red">
  <title>Tokyo</title>
</circle><line x1="1927.959961" y1="103.959999" x2="1441.959961" y2="716.960022" stroke="red" stroke-width="6.660000" />
<circle cx="1676.959961" cy="1040.959961" r="19.980000" fill="red">
  <title>Buenos Aires</title>
</circle><line x1="1441.959961" y1="716.960022" x2="1676.959961" y2="1040.959961" stroke="red" stroke-width="6.660000" />
<circle cx="1791.959961" cy="1356.959961" r="19.980000" fill="red">
  <title>Cairo</title>
</circle><line x1="1676.959961" y1="1040.959961" x2="1791.959961" y2="1356.959961" stroke="red" stroke-width="6.660000" />
<circle cx="1671.959961" cy="1330.959961" r="19.980000" fill="red">
  <title>Mumbai</title>
</circle><line x1="1791.959961" y1="1356.959961" x2="1671.959961" y2="1330.959961" stroke="red" stroke-width="6.660000" />
<circle cx="1352.959961" cy="1834.959961" r="19.980000" fill="red">
  <title>Shanghai</title>
</circle><line x1="1671.959961" y1="1330.959961" x2="1352.959961" y2="1834.959961" stroke="red" stroke-width="6.660000" />
<circle cx="419.959991" cy="1978.959961" r="19.980000" fill="red">
  <title>Karachi</title>
</circle><line x1="1352.959961" y1="1834.959961" x2="419.959991" y2="1978.959961" stroke="red" stroke-width="6.660000" />
<circle cx="385.959991" cy="1363.959961" r="19.980000" fill="red">
  <title>Osaka</title>
</circle><line x1="419.959991" y1="1978.959961" x2="385.959991" y2="1363.959961" stroke="red" stroke-width="6.660000" />
<circle cx="85.959999" cy="1307.959961" r="19.980000" fill="red">
  <title>Dhaka</title>
</circle><line x1="385.959991" y1="1363.959961" x2="85.959999" y2="1307.959961" stroke="red" stroke-width="6.660000" />
<circle cx="162.959991" cy="770.960022" r="19.980000" fill="red">
  <title>Chongqing</title>
</circle><line x1="85.959999" y1="1307.959961" x2="162.959991" y2="770.960022" stroke="red" stroke-width="6.660000" />
<circle cx="166.959991" cy="605.960022" r="19.980000" fill="red">
  <title>New York</title>
</circle><line x1="162.959991" y1="770.960022" x2="166.959991" y2="605.960022" stroke="red" stroke-width="6.660000" />
<circle cx="471.959991" cy="333.959991" r="19.980000" fill="red">
  <title>Delhi</title>
</circle><line x1="166.959991" y1="605.960022" x2="471.959991" y2="333.959991" stroke="red" stroke-width="6.660000" />
<circle cx="1011.960022" cy="279.959991" r="19.980000" fill="red">
  <title>Beijing</title>
</circle><line x1="471.959991" y1="333.959991" x2="1011.960022" y2="279.959991" stroke="red" stroke-width="6.660000" />
<circle cx="1008.960022" cy="166.959991" r="19.980000" fill="red">
  <title>Istanbul</title>
</circle><line x1="1011.960022" y1="279.959991" x2="1008.960022" y2="166.959991" stroke="red" stroke-width="6.660000" />
<circle cx="1870.959961" cy="55.959999" r="19.980000" fill="red">
  <title>São Paulo</title>
</circle><line x1="1008.960022" y1="166.959991" x2="1870.959961" y2="55.959999" stroke="red" stroke-width="6.660000" />
<circle cx="1927.959961" cy="103.959999" r="19.980000" fill="red">
  <title>Mexico City</title>
</circle><line x1="1870.959961" y1="55.959999" x2="1927.959961" y2="103.959999" stroke="red" stroke-width="6.660000" />
</svg>
