<?xml version="1.0" encoding="UTF-8" standalone="no"?>
<svg width="500" height="500" viewBox="0 0 2074.000000 2074.000000" xmlns="http://www.w3.org/2000/svg">
<rect x="19.000000" y="19.000000" width="2036.000000" height="2036.000000" fill="black" />
<circle cx="1780.959961" cy="1673.959961" r="19.980000" fill="red">
  <title>Tokyo</title>
</circle><line x1="1787.959961" y1="1761.959961" x2="1780.959961" y2="1673.959961" stroke="red" stroke-width="6.660000" />
<circle cx="1883.959961" cy="1182.959961" r="19.980000" fill="red">
  <title>Delhi</title>
</circle><line x1="1780.959961" y1="1673.959961" x2="1883.959961" y2="1182.959961" stroke="red" stroke-width="6.660000" />
<circle cx="1755.959961" cy="1230.959961" r="19.980000" fill="red">
  <title>Buenos Aires</title>
</circle><line x1="1883.959961" y1="1182.959961" x2="1755.959961" y2="1230.959961" stroke="red" stroke-width="6.660000" />
<circle cx="1358.959961" cy="932.960022" r="19.980000" fill="red">
  <title>Chongqing</title>
</circle><line x1="1755.959961" y1="1230.959961" x2="1358.959961" y2="932.960022" stroke="red" stroke-width="6.660000" />
<circle cx="1709.959961" cy="532.960022" r="19.980000" fill="red">
  <title>Manila</title>
</circle><line x1="1358.959961" y1="932.960022" x2="1709.959961" y2="532.960022" stroke="red" stroke-width="6.660000" />
<circle cx="1946.959961" cy="75.959999" r="19.980000" fill="red">
  <title>Istanbul</title>
</circle><line x1="1709.959961" y1="532.960022" x2="1946.959961" y2="75.959999" stroke="red" stroke-width="6.660000" />
<circle cx="982.960022" cy="42.959999" r="19.980000" fill="red">
  <title>Mexico City</title>
</circle><line x1="1946.959961" y1="75.959999" x2="982.960022" y2="42.959999" stroke="red" stroke-width="6.660000" />
<circle cx="833.960022" cy="180.959991" r="19.980000" fill="red">
  <title>Lagos</title>
</circle><line x1="982.960022" y1="42.959999" x2="833.960022" y2="180.959991" stroke="red" stroke-width="6.660000" />
<circle cx="753.960022" cy="348.959991" r="19.980000" fill="red">
  <title>Osaka</title>
</circle><line x1="833.960022" y1="180.959991" x2="753.960022" y2="348.959991" stroke="red" stroke-width="6.660000" />
<circle cx="667.960022" cy="332.959991" r="19.980000" fill="red">
  <title>Karachi</title>
</circle><line x1="753.960022" y1="348.959991" x2="667.960022" y2="332.959991" stroke="red" stroke-width="6.660000" />
<circle cx="508.959991" cy="426.959991" r="19.980000" fill="red">
  <title>Shanghai</title>
</circle><line x1="667.960022" y1="332.959991" x2="508.959991" y2="426.959991" stroke="red" stroke-width="6.660000" />
<circle cx="250.959991" cy="772.960022" r="19.980000" fill="red">
  <title>Mumbai</title>
</circle><line x1="508.959991" y1="426.959991" x2="250.959991" y2="772.960022" stroke="red" stroke-width="6.660000" />
<circle cx="399.959991" cy="1454.959961" r="19.980000" fill="red">
  <title>Cairo</title>
</circle><line x1="250.959991" y1="772.960022" x2="399.959991" y2="1454.959961" stroke="red" stroke-width="6.660000" />
<circle cx="420.959991" cy="1706.959961" r="19.980000" fill="red">
  <title>New York</title>
</circle><line x1="399.959991" y1="1454.959961" x2="420.959991" y2="1706.959961" stroke="red" stroke-width="6.660000" />
<circle cx="687.960022" cy="1688.959961" r="19.980000" fill="red">
  <title>Kolkata</title>
</circle><line x1="420.959991" y1="1706.959961" x2="687.960022" y2="1688.959961" stroke="red" stroke-width="6.660000" />
<circle cx="973.960022" cy="1907.959961" r="19.980000" fill="red">
  <title>Beijing</title>
</circle><line x1="687.960022" y1="1688.959961" x2="973.960022" y2="1907.959961" stroke="red" stroke-width="6.660000" />
<circle cx="1112.959961" cy="1328.959961" r="19.980000" fill="red">
  <title>São Paulo</title>
</circle><line x1="973.960022" y1="1907.959961" x2="1112.959961" y2="1328.959961" stroke="red" stroke-width="6.660000" />
<circle cx="1787.959961" cy="1761.959961" r="19.980000" fill="red">
  <title>Dhaka</title>
</circle><line x1="1112.959961" y1="1328.959961" x2="1787.959961" y2="1761.959961" stroke="red" stroke-width="6.660000" />
</svg>
