<?xml version="1.0" encoding="UTF-8" standalone="no"?>
<svg width="500" height="500" viewBox="0 0 2074.000000 2074.000000" xmlns="http://www.w3.org/2000/svg">
<rect x="19.000000" y="19.000000" width="2036.000000" height="2036.000000" fill="black" />
<circle cx="637.960022" cy="995.960022" r="19.980000" fill="red">
  <title>Tokyo</title>
</circle><line x1="165.959991" y1="1873.959961" x2="637.960022" y2="995.960022" stroke="red" stroke-width="6.660000" />
<circle cx="670.960022" cy="861.960022" r="19.980000" fill="red">
  <title>Beijing</title>
</circle><line x1="637.960022" y1="995.960022" x2="670.960022" y2="861.960022" stroke="red" stroke-width="6.660000" />
<circle cx="738.960022" cy="637.960022" r="19.980000" fill="red">
  <title>Mumbai</title>
</circle><line x1="670.960022" y1="861.960022" x2="738.960022" y2="637.960022" stroke="red" stroke-width="6.660000" />
<circle cx="1768.959961" cy="265.959991" r="19.980000" fill="red">
  <title>Dhaka</title>
</circle><line x1="738.960022" y1="637.960022" x2="1768.959961" y2="265.959991" stroke="red" stroke-width="6.660000" />
<circle cx="1721.959961" cy="1025.959961" r="19.980000" fill="red">
  <title>New York</title>
</circle><line x1="1768.959961" y1="265.959991" x2="1721.959961" y2="1025.959961" stroke="red" stroke-width="6.660000" />
<circle cx="1819.959961" cy="1128.959961" r="19.980000" fill="red">
  <title>Mexico City</title>
</circle><line x1="1721.959961" y1="1025.959961" x2="1819.959961" y2="1128.959961" stroke="red" stroke-width="6.660000" />
<circle cx="1144.959961" cy="1116.959961" r="19.980000" fill="red">
  <title>Cairo</title>
</circle><line x1="1819.959961" y1="1128.959961" x2="1144.959961" y2="1116.959961" stroke="red" stroke-width="6.660000" />
<circle cx="1130.959961" cy="1824.959961" r="19.980000" fill="red">
  <title>São Paulo</title>
</circle><line x1="1144.959961" y1="1116.959961" x2="1130.959961" y2="1824.959961" stroke="red" stroke-width="6.660000" />
<circle cx="521.960022" cy="1890.959961" r="19.980000" fill="red">
  <title>Shanghai</title>
</circle><line x1="1130.959961" y1="1824.959961" x2="521.960022" y2="1890.959961" stroke="red" stroke-width="6.660000" />
<circle cx="207.959991" cy="1912.959961" r="19.980000" fill="red">
  <title>Delhi</title>
</circle><line x1="521.960022" y1="1890.959961" x2="207.959991" y2="1912.959961" stroke="red" stroke-width="6.660000" />
<circle cx="165.959991" cy="1873.959961" r="19.980000" fill="red">
  <title>Osaka</title>
</circle><line x1="207.959991" y1="1912.959961" x2="165.959991" y2="1873.959961" stroke="red" stroke-width="6.660000" />
</svg>
