<?xml version="1.0" encoding="UTF-8" standalone="no"?>
<svg width="500" height="500" viewBox="0 0 2074.000000 2074.000000" xmlns="http://www.w3.org/2000/svg">
<rect x="19.000000" y="19.000000" width="2036.000000" height="2036.000000" fill="black" />
<circle cx="1666.959961" cy="1645.959961" r="19.980000" fill="red">
  <title>Tokyo</title>
</circle><line x1="232.959991" y1="1984.959961" x2="1666.959961" y2="1645.959961" stroke="red" stroke-width="6.660000" />
<circle cx="1489.959961" cy="1163.959961" r="19.980000" fill="red">
  <title>Mexico City</title>
</circle><line x1="1666.959961" y1="1645.959961" x2="1489.959961" y2="1163.959961" stroke="red" stroke-width="6.660000" />
<circle cx="1834.959961" cy="381.959991" r="19.980000" fill="red">
  <title>Shanghai</title>
</circle><line x1="1489.959961" y1="1163.959961" x2="1834.959961" y2="381.959991" stroke="red" stroke-width="6.660000" />
<circle cx="1492.959961" cy="531.960022" r="19.980000" fill="red">
  <title>Cairo</title>
</circle><line x1="1834.959961" y1="381.959991" x2="1492.959961" y2="531.960022" stroke="red" stroke-width="6.660000" />
<circle cx="558.960022" cy="799.960022" r="19.980000" fill="red">
  <title>São Paulo</title>
</circle><line x1="1492.959961" y1="531.960022" x2="558.960022" y2="799.960022" stroke="red" stroke-width="6.660000" />
<circle cx="353.959991" cy="536.960022" r="19.980000" fill="red">
  <title>Beijing</title>
</circle><line x1="558.960022" y1="799.960022" x2="353.959991" y2="536.960022" stroke="red" stroke-width="6.660000" />
<circle cx="444.959991" cy="853.960022" r="19.980000" fill="red">
  <title>Delhi</title>
</circle><line x1="353.959991" y1="536.960022" x2="444.959991" y2="853.960022" stroke="red" stroke-width="6.660000" />
<circle cx="214.959991" cy="1514.959961" r="19.980000" fill="red">
  <title>Mumbai</title>
</circle><line x1="444.959991" y1="853.960022" x2="214.959991" y2="1514.959961" stroke="red" stroke-width="6.660000" />
<circle cx="232.959991" cy="1984.959961" r="19.980000" fill="red">
  <title>Dhaka</title>
</circle><line x1="214.959991" y1="1514.959961" x2="232.959991" y2="1984.959961" stroke="red" stroke-width="6.660000" />
</svg>
