<?xml version="1.0" encoding="UTF-8" standalone="no"?>
<svg width="500" height="500" viewBox="0 0 2074.000000 2074.000000" xmlns="http://www.w3.org/2000/svg">
<rect x="19.000000" y="19.000000" width="2036.000000" height="2036.000000" fill="black" />
<circle cx="1778.959961" cy="1942.959961" r="19.980000" fill="red">
  <title>Tokyo</title>
</circle><line x1="1722.959961" y1="1391.959961" x2="1778.959961" y2="1942.959961" stroke="red" stroke-width="6.660000" />
<circle cx="1511.959961" cy="1561.959961" r="19.980000" fill="red">
  <title>Cairo</title>
</circle><line x1="1778.959961" y1="1942.959961" x2="1511.959961" y2="1561.959961" stroke="red" stroke-width="6.660000" />
<circle cx="895.960022" cy="1781.959961" r="19.980000" fill="red">
  <title>Beijing</title>
</circle><line x1="1511.959961" y1="1561.959961" x2="895.960022" y2="1781.959961" stroke="red" stroke-width="6.660000" />
<circle cx="592.960022" cy="1909.959961" r="19.980000" fill="red">
  <title>São Paulo</title>
</circle><line x1="895.960022" y1="1781.959961" x2="592.960022" y2="1909.959961" stroke="red" stroke-width="6.660000" />
<circle cx="671.960022" cy="1609.959961" r="19.980000" fill="red">
  <title>Shanghai</title>
</circle><line x1="592.960022" y1="1909.959961" x2="671.960022" y2="1609.959961" stroke="red" stroke-width="6.660000" />
<circle cx="370.959991" cy="1505.959961" r="19.980000" fill="red">
  <title>Osaka</title>
</circle><line x1="671.960022" y1="1609.959961" x2="370.959991" y2="1505.959961" stroke="red" stroke-width="6.660000" />
<circle cx="844.960022" cy="792.960022" r="19.980000" fill="red">
  <title>Dhaka</title>
</circle><line x1="370.959991" y1="1505.959961" x2="844.960022" y2="792.960022" stroke="red" stroke-width="6.660000" />
<circle cx="372.959991" cy="273.959991" r="19.980000" fill="red">
  <title>Karachi</title>
</circle><line x1="844.960022" y1="792.960022" x2="372.959991" y2="273.959991" stroke="red" stroke-width="6.660000" />
<circle cx="752.960022" cy="566.960022" r="19.980000" fill="red">
  <title>Buenos Aires</title>
</circle><line x1="372.959991" y1="273.959991" x2="752.960022" y2="566.960022" stroke="red" stroke-width="6.660000" />
<circle cx="1316.959961" cy="989.960022" r="19.980000" fill="red">
  <title>Mexico City</title>
</circle><line x1="752.960022" y1="566.960022" x2="1316.959961" y2="989.960022" stroke="red" stroke-width="6.660000" />
<circle cx="1651.959961" cy="1048.959961" r="19.980000" fill="red">
  <title>Delhi</title>
</circle><line x1="1316.959961" y1="989.960022" x2="1651.959961" y2="1048.959961" stroke="red" stroke-width="6.660000" />
<circle cx="2010.959961" cy="988.960022" r="19.980000" fill="red">
  <title>Mumbai</title>
</circle><line x1="1651.959961" y1="1048.959961" x2="2010.959961" y2="988.960022" stroke="red" stroke-width="6.660000" />
<circle cx="1722.959961" cy="1391.959961" r="19.980000" fill="red">
  <title>New York</title>
</circle><line x1="2010.959961" y1="988.960022" x2="1722.959961" y2="1391.959961" stroke="red" stroke-width="6.660000" />
</svg>
