<?xml version="1.0" encoding="UTF-8" standalone="no"?>
<svg width="500" height="500" viewBox="0 0 2074.000000 2074.000000" xmlns="http://www.w3.org/2000/svg">
<rect x="19.000000" y="19.000000" width="2036.000000" height="2036.000000" fill="black" />
<circle cx="552.960022" cy="712.960022" r="19.980000" fill="red">
  <title>Tokyo</title>
</circle><line x1="122.959999" y1="132.959991" x2="552.960022" y2="712.960022" stroke="red" stroke-width="6.660000" />
<circle cx="1298.959961" cy="831.960022" r="19.980000" fill="red">
  <title>Cairo</title>
</circle><line x1="552.960022" y1="712.960022" x2="1298.959961" y2="831.960022" stroke="red" stroke-width="6.660000" />
<circle cx="1546.959961" cy="419.959991" r="19.980000" fill="red">
  <title>Kolkata</title>
</circle><line x1="1298.959961" y1="831.960022" x2="1546.959961" y2="419.959991" stroke="red" stroke-width="6.660000" />
<circle cx="1854.959961" cy="582.960022" r="19.980000" fill="red">
  <title>Beijing</title>
</circle><line x1="1546.959961" y1="419.959991" x2="1854.959961" y2="582.960022" stroke="red" stroke-width="6.660000" />
<circle cx="1956.959961" cy="881.960022" r="19.980000" fill="red">
  <title>São Paulo</title>
</circle><line x1="1854.959961" y1="582.960022" x2="1956.959961" y2="881.960022" stroke="red" stroke-width="6.660000" />
<circle cx="1904.959961" cy="1464.959961" r="19.980000" fill="red">
  <title>Istanbul</title>
</circle><line x1="1956.959961" y1="881.960022" x2="1904.959961" y2="1464.959961" stroke="red" stroke-width="6.660000" />
<circle cx="1686.959961" cy="1386.959961" r="19.980000" fill="red">
  <title>Mumbai</title>
</circle><line x1="1904.959961" y1="1464.959961" x2="1686.959961" y2="1386.959961" stroke="red" stroke-width="6.660000" />
<circle cx="1531.959961" cy="1313.959961" r="19.980000" fill="red">
  <title>Buenos Aires</title>
</circle><line x1="1686.959961" y1="1386.959961" x2="1531.959961" y2="1313.959961" stroke="red" stroke-width="6.660000" />
<circle cx="1167.959961" cy="1819.959961" r="19.980000" fill="red">
  <title>Shanghai</title>
</circle><line x1="1531.959961" y1="1313.959961" x2="1167.959961" y2="1819.959961" stroke="red" stroke-width="6.660000" />
<circle cx="1251.959961" cy="2033.959961" r="19.980000" fill="red">
  <title>Delhi</title>
</circle><line x1="1167.959961" y1="1819.959961" x2="1251.959961" y2="2033.959961" stroke="red" stroke-width="6.660000" />
<circle cx="947.960022" cy="1862.959961" r="19.980000" fill="red">
  <title>Osaka</title>
</circle><line x1="1251.959961" y1="2033.959961" x2="947.960022" y2="1862.959961" stroke="red" stroke-width="6.660000" />
<circle cx="662.960022" cy="2017.959961" r="19.980000" fill="red">
  <title>Chongqing</title>
</circle><line x1="947.960022" y1="1862.959961" x2="662.960022" y2="2017.959961" stroke="red" stroke-width="6.660000" />
<circle cx="110.959999" cy="1618.959961" r="19.980000" fill="red">
  <title>Mexico City</title>
</circle><line x1="662.960022" y1="2017.959961" x2="110.959999" y2="1618.959961" stroke="red" stroke-width="6.660000" />
<circle cx="658.960022" cy="962.960022" r="19.980000" fill="red">
  <title>Karachi</title>
</circle><line x1="110.959999" y1="1618.959961" x2="658.960022" y2="962.960022" stroke="red" stroke-width="6.660000" />
<circle cx="138.959991" cy="156.959991" r="19.980000" fill="red">
  <title>New York</title>
</circle><line x1="658.960022" y1="962.960022" x2="138.959991" y2="156.959991" stroke="red" stroke-width="6.660000" />
<circle cx="122.959999" cy="132.959991" r="19.980000" fill="red">
  <title>Dhaka</title>
</circle><line x1="138.959991" y1="156.959991" x2="122.959999" y2="132.959991" stroke="red" stroke-width="6.660000" />
</svg>
