<?xml version="1.0" encoding="UTF-8" standalone="no"?>
<svg width="500" height="500" viewBox="0 0 2074.000000 2074.000000" xmlns="http://www.w3.org/2000/svg">
<rect x="19.000000" y="19.000000" width="2036.000000" height="2036.000000" fill="black" />
<circle cx="945.960022" cy="1466.959961" r="19.980000" fill="red">
  <title>Tokyo</title>
</circle><line x1="1147.959961" y1="1509.959961" x2="945.960022" y2="1466.959961" stroke="red" stroke-width="6.660000" />
<circle cx="505.959991" cy="2033.959961" r="19.980000" fill="red">
  <title>Beijing</title>
</circle><line x1="945.960022" y1="1466.959961" x2="505.959991" y2="2033.959961" stroke="red" stroke-width="6.660000" />
<circle cx="268.959991" cy="1919.959961" r="19.980000" fill="red">
  <title>Delhi</title>
</circle><line x1="505.959991" y1="2033.959961" x2="268.959991" y2="1919.959961" stroke="red" stroke-width="6.660000" />
<circle cx="517.960022" cy="2001.959961" r="19.980000" fill="red">
  <title>Mumbai</title>
</circle><line x1="268.959991" y1="1919.959961" x2="517.960022" y2="2001.959961" stroke="red" stroke-width="6.660000" />
<circle cx="938.960022" cy="1424.959961" r="19.980000" fill="red">
  <title>Manila</title>
</circle><line x1="517.960022" y1="2001.959961" x2="938.960022" y2="1424.959961" stroke="red" stroke-width="6.660000" />
<circle cx="486.959991" cy="843.960022" r="19.980000" fill="red">
  <title>Cairo</title>
</circle><line x1="938.960022" y1="1424.959961" x2="486.959991" y2="843.960022" stroke="red" stroke-width="6.660000" />
<circle cx="243.959991" cy="571.960022" r="19.980000" fill="red">
  <title>Buenos Aires</title>
</circle><line x1="486.959991" y1="843.960022" x2="243.959991" y2="571.960022" stroke="red" stroke-width="6.660000" />
<circle cx="300.959991" cy="148.959991" r="19.980000" fill="red">
  <title>Shanghai</title>
</circle><line x1="243.959991" y1="571.960022" x2="300.959991" y2="148.959991" stroke="red" stroke-width="6.660000" />
<circle cx="858.960022" cy="133.959991" r="19.980000" fill="red">
  <title>Mexico City</title>
</circle><line x1="300.959991" y1="148.959991" x2="858.960022" y2="133.959991" stroke="red" stroke-width="6.660000" />
<circle cx="1018.960022" cy="568.960022" r="19.980000" fill="red">
  <title>New York</title>
</circle><line x1="858.960022" y1="133.959991" x2="1018.960022" y2="568.960022" stroke="red" stroke-width="6.660000" />
<circle cx="1194.959961" cy="55.959999" r="19.980000" fill="red">
  <title>Kolkata</title>
</circle><line x1="1018.960022" y1="568.960022" x2="1194.959961" y2="55.959999" stroke="red" stroke-width="6.660000" />
<circle cx="1378.959961" cy="113.959999" r="19.980000" fill="red">
  <title>Dhaka</title>
</circle><line x1="1194.959961" y1="55.959999" x2="1378.959961" y2="113.959999" stroke="red" stroke-width="6.660000" />
<circle cx="1904.959961" cy="537.960022" r="19.980000" fill="red">
  <title>Karachi</title>
</circle><line x1="1378.959961" y1="113.959999" x2="1904.959961" y2="537.960022" stroke="red" stroke-width="6.660000" />
<circle cx="1936.959961" cy="1199.959961" r="19.980000" fill="red">
  <title>Lagos</title>
</circle><line x1="1904.959961" y1="537.960022" x2="1936.959961" y2="1199.959961" stroke="red" stroke-width="6.660000" />
<circle cx="1977.959961" cy="1366.959961" r="19.980000" fill="red">
  <title>São Paulo</title>
</circle><line x1="1936.959961" y1="1199.959961" x2="1977.959961" y2="1366.959961" stroke="red" stroke-width="6.660000" />
<circle cx="1662.959961" cy="1117.959961" r="19.980000" fill="red">
  <title>Osaka</title>
</circle><line x1="1977.959961" y1="1366.959961" x2="1662.959961" y2="1117.959961" stroke="red" stroke-width="6.660000" />
<circle cx="1371.959961" cy="1438.959961" r="19.980000" fill="red">
  <title>Chongqing</title>
</circle><line x1="1662.959961" y1="1117.959961" x2="1371.959961" y2="1438.959961" stroke="red" stroke-width="6.660000" />
<circle cx="1147.959961" cy="1509.959961" r="19.980000" fill="red">
  <title>Istanbul</title>
</circle><line x1="1371.959961" y1="1438.959961" x2="1147.959961" y2="1509.959961" stroke="red" stroke-width="6.660000" />
</svg>
