<?xml version="1.0" encoding="UTF-8" standalone="no"?>
<svg width="500" height="500" viewBox="0 0 2074.000000 2074.000000" xmlns="http://www.w3.org/2000/svg">
<rect x="19.000000" y="19.000000" width="2036.000000" height="2036.000000" fill="black" />
<circle cx="1344.959961" cy="1682.959961" r="19.980000" fill="red">
  <title>Tokyo</title>
</circle><line x1="1670.959961" y1="1638.959961" x2="1344.959961" y2="1682.959961" stroke="red" stroke-width="6.660000" />
<circle cx="918.960022" cy="1894.959961" r="19.980000" fill="red">
  <title>Dhaka</title>
</circle><line x1="1344.959961" y1="1682.959961" x2="918.960022" y2="1894.959961" stroke="red" stroke-width="6.660000" />
<circle cx="760.960022" cy="1679.959961" r="19.980000" fill="red">
  <title>Osaka</title>
</circle><line x1="918.960022" y1="1894.959961" x2="760.960022" y2="1679.959961" stroke="red" stroke-width="6.660000" />
<circle cx="771.960022" cy="1565.959961" r="19.980000" fill="red">
  <title>São Paulo</title>
</circle><line x1="760.960022" y1="1679.959961" x2="771.960022" y2="1565.959961" stroke="red" stroke-width="6.660000" />
<circle cx="155.959991" cy="1790.959961" r="19.980000" fill="red">
  <title>Delhi</title>
</circle><line x1="771.960022" y1="1565.959961" x2="155.959991" y2="1790.959961" stroke="red" stroke-width="6.660000" />
<circle cx="146.959991" cy="1749.959961" r="19.980000" fill="red">
  <title>Beijing</title>
</circle><line x1="155.959991" y1="1790.959961" x2="146.959991" y2="1749.959961" stroke="red" stroke-width="6.660000" />
<circle cx="61.959999" cy="694.960022" r="19.980000" fill="red">
  <title>Buenos Aires</title>
</circle><line x1="146.959991" y1="1749.959961" x2="61.959999" y2="694.960022" stroke="red" stroke-width="6.660000" />
<circle cx="398.959991" cy="747.960022" r="19.980000" fill="red">
  <title>Mexico City</title>
</circle><line x1="61.959999" y1="694.960022" x2="398.959991" y2="747.960022" stroke="red" stroke-width="6.660000" />
<circle cx="608.960022" cy="874.960022" r="19.980000" fill="red">
  <title>Shanghai</title>
</circle><line x1="398.959991" y1="747.960022" x2="608.960022" y2="874.960022" stroke="red" stroke-width="6.660000" />
<circle cx="1086.959961" cy="548.960022" r="19.980000" fill="red">
  <title>Mumbai</title>
</circle><line x1="608.960022" y1="874.960022" x2="1086.959961" y2="548.960022" stroke="red" stroke-width="6.660000" />
<circle cx="1079.959961" cy="103.959999" r="19.980000" fill="red">
  <title>Karachi</title>
</circle><line x1="1086.959961" y1="548.960022" x2="1079.959961" y2="103.959999" stroke="red" stroke-width="6.660000" />
<circle cx="1900.959961" cy="785.960022" r="19.980000" fill="red">
  <title>Cairo</title>
</circle><line x1="1079.959961" y1="103.959999" x2="1900.959961" y2="785.960022" stroke="red" stroke-width="6.660000" />
<circle cx="1670.959961" cy="1638.959961" r="19.980000" fill="red">
  <title>New York</title>
</circle><line x1="1900.959961" y1="785.960022" x2="1670.959961" y2="1638.959961" stroke="red" stroke-width="6.660000" />
</svg>
