<?xml version="1.0" encoding="UTF-8" standalone="no"?>
<svg width="500" height="500" viewBox="0 0 2074.000000 2074.000000" xmlns="http://www.w3.org/2000/svg">
<rect x="19.000000" y="19.000000" width="2036.000000" height="2036.000000" fill="black" />
<circle cx="1427.959961" cy="920.960022" r="19.980000" fill="red">
  <title>Tokyo</title>
</circle><line x1="1811.959961" y1="862.960022" x2="1427.959961" y2="920.960022" stroke="red" stroke-width="6.660000" />
<circle cx="1305.959961" cy="1800.959961" r="19.980000" fill="red">
  <title>Delhi</title>
</circle><line x1="1427.959961" y1="920.960022" x2="1305.959961" y2="1800.959961" stroke="red" stroke-width="6.660000" />
<circle cx="887.960022" cy="1447.959961" r="19.980000" fill="red">
  <title>Beijing</title>
</circle><line x1="1305.959961" y1="1800.959961" x2="887.960022" y2="1447.959961" stroke="red" stroke-width="6.660000" />
<circle cx="110.959999" cy="1616.959961" r="19.980000" fill="red">
  <title>Shanghai</title>
</circle><line x1="887.960022" y1="1447.959961" x2="110.959999" y2="1616.959961" stroke="red" stroke-width="6.660000" />
<circle cx="198.959991" cy="907.960022" r="19.980000" fill="red">
  <title>São Paulo</title>
</circle><line x1="110.959999" y1="1616.959961" x2="198.959991" y2="907.960022" stroke="red" stroke-width="6.660000" />
<circle cx="1000.960022" cy="674.960022" r="19.980000" fill="red">
  <title>Mexico City</title>
</circle><line x1="198.959991" y1="907.960022" x2="1000.960022" y2="674.960022" stroke="red" stroke-width="6.660000" />
<circle cx="1402.959961" cy="101.959999" r="19.980000" fill="red">
  <title>Cairo</title>
</circle><line x1="1000.960022" y1="674.960022" x2="1402.959961" y2="101.959999" stroke="red" stroke-width="6.660000" />
<circle cx="1811.959961" cy="862.960022" r="19.980000" fill="red">
  <title>Mumbai</title>
</circle><line x1="1402.959961" y1="101.959999" x2="1811.959961" y2="862.960022" stroke="red" stroke-width="6.660000" />
</svg>
