<?xml version="1.0" encoding="UTF-8" standalone="no"?>
<svg width="500" height="500" viewBox="0 0 2074.000000 2074.000000" xmlns="http://www.w3.org/2000/svg">
<rect x="19.000000" y="19.000000" width="2036.000000" height="2036.000000" fill="black" />
<circle cx="843.960022" cy="117.959999" r="19.980000" fill="red">
  <title>Tokyo</title>
</circle><line x1="254.959991" y1="671.960022" x2="843.960022" y2="117.959999" stroke="red" stroke-width="6.660000" />
<circle cx="1171.959961" cy="180.959991" r="19.980000" fill="red">
  <title>Karachi</title>
</circle><line x1="843.960022" y1="117.959999" x2="1171.959961" y2="180.959991" stroke="red" stroke-width="6.660000" />
<circle cx="951.960022" cy="505.959991" r="19.980000" fill="red">
  <title>Osaka</title>
</circle><line x1="1171.959961" y1="180.959991" x2="951.960022" y2="505.959991" stroke="red" stroke-width="6.660000" />
<circle cx="985.960022" cy="814.960022" r="19.980000" fill="red">
  <title>Mexico City</title>
</circle><line x1="951.960022" y1="505.959991" x2="985.960022" y2="814.960022" stroke="red" stroke-width="6.660000" />
<circle cx="1321.959961" cy="788.960022" r="19.980000" fill="red">
  <title>Chongqing</title>
</circle><line x1="985.960022" y1="814.960022" x2="1321.959961" y2="788.960022" stroke="red" stroke-width="6.660000" />
<circle cx="1762.959961" cy="1022.960022" r="19.980000" fill="red">
  <title>Dhaka</title>
</circle><line x1="1321.959961" y1="788.960022" x2="1762.959961" y2="1022.960022" stroke="red" stroke-width="6.660000" />
<circle cx="1840.959961" cy="1570.959961" r="19.980000" fill="red">
  <title>São Paulo</title>
</circle><line x1="1762.959961" y1="1022.960022" x2="1840.959961" y2="1570.959961" stroke="red" stroke-width="6.660000" />
<circle cx="1405.959961" cy="1972.959961" r="19.980000" fill="red">
  <title>Beijing</title>
</circle><line x1="1840.959961" y1="1570.959961" x2="1405.959961" y2="1972.959961" stroke="red" stroke-width="6.660000" />
<circle cx="1165.959961" cy="1261.959961" r="19.980000" fill="red">
  <title>Cairo</title>
</circle><line x1="1405.959961" y1="1972.959961" x2="1165.959961" y2="1261.959961" stroke="red" stroke-width="6.660000" />
<circle cx="716.960022" cy="1244.959961" r="19.980000" fill="red">
  <title>Delhi</title>
</circle><line x1="1165.959961" y1="1261.959961" x2="716.960022" y2="1244.959961" stroke="red" stroke-width="6.660000" />
<circle cx="607.960022" cy="1604.959961" r="19.980000" fill="red">
  <title>New York</title>
</circle><line x1="716.960022" y1="1244.959961" x2="607.960022" y2="1604.959961" stroke="red" stroke-width="6.660000" />
<circle cx="102.959999" cy="1469.959961" r="19.980000" fill="red">
  <title>Istanbul</title>
</circle><line x1="607.960022" y1="1604.959961" x2="102.959999" y2="1469.959961" stroke="red" stroke-width="6.660000" />
<circle cx="325.959991" cy="1225.959961" r="19.980000" fill="red">
  <title>Shanghai</title>
</circle><line x1="102.959999" y1="1469.959961" x2="325.959991" y2="1225.959961" stroke="red" stroke-width="6.660000" />
<circle cx="155.959991" cy="1110.959961" r="19.980000" fill="red">
  <title>Buenos Aires</title>
</circle><line x1="325.959991" y1="1225.959961" x2="155.959991" y2="1110.959961" stroke="red" stroke-width="6.660000" />
<circle cx="252.959991" cy="907.960022" r="19.980000" fill="red">
  <title>Kolkata</title>
</circle><line x1="155.959991" y1="1110.959961" x2="252.959991" y2="907.960022" stroke="red" stroke-width="6.660000" />
<circle cx="254.959991" cy="671.960022" r="19.980000" fill="red">
  <title>Mumbai</title>
</circle><line x1="252.959991" y1="907.960022" x2="254.959991" y2="671.960022" stroke="red" stroke-width="6.660000" />
</svg>
