<?xml version="1.0" encoding="UTF-8" standalone="no"?>
<svg width="500" height="500" viewBox="0 0 2074.000000 2074.000000" xmlns="http://www.w3.org/2000/svg">
<rect x="19.000000" y="19.000000" width="2036.000000" height="2036.000000" fill="black" />
<circle cx="1984.959961" cy="670.960022" r="19.980000" fill="red">
  <title>Tokyo</title>
</circle><line x1="1847.959961" y1="1077.959961" x2="1984.959961" y2="670.960022" stroke="red" stroke-width="6.660000" />
<circle cx="1052.959961" cy="435.959991" r="19.980000" fill="red">
  <title>Mexico City</title>
</circle><line x1="1984.959961" y1="670.960022" x2="1052.959961" y2="435.959991" stroke="red" stroke-width="6.660000" />
<circle cx="170.959991" cy="1064.959961" r="19.980000" fill="red">
  <title>Shanghai</title>
</circle><line x1="1052.959961" y1="435.959991" x2="170.959991" y2="1064.959961" stroke="red" stroke-width="6.660000" />
<circle cx="832.960022" cy="1781.959961" r="19.980000" fill="red">
  <title>Cairo</title>
</circle><line x1="170.959991" y1="1064.959961" x2="832.960022" y2="1781.959961" stroke="red" stroke-width="6.660000" />
<circle cx="1549.959961" cy="1279.959961" r="19.980000" fill="red">
  <title>Delhi</title>
</circle><line x1="832.960022" y1="1781.959961" x2="1549.959961" y2="1279.959961" stroke="red" stroke-width="6.660000" />
<circle cx="1904.959961" cy="1781.959961" r="19.980000" fill="red">
  <title>São Paulo</title>
</circle><line x1="1549.959961" y1="1279.959961" x2="1904.959961" y2="1781.959961" stroke="red" stroke-width="6.660000" />
<circle cx="1944.959961" cy="1294.959961" r="19.980000" fill="red">
  <title>Mumbai</title>
</circle><line x1="1904.959961" y1="1781.959961" x2="1944.959961" y2="1294.959961" stroke="red" stroke-width="6.660000" />
<circle cx="1847.959961" cy="1077.959961" r="19.980000" fill="red">
  <title>Beijing</title>
</circle><line x1="1944.959961" y1="1294.959961" x2="1847.959961" y2="1077.959961" stroke="red" stroke-width="6.660000" />
</svg>
