<?xml version="1.0" encoding="UTF-8" standalone="no"?>
<svg width="500" height="500" viewBox="0 0 2074.000000 2074.000000" xmlns="http://www.w3.org/2000/svg">
<rect x="19.000000" y="19.000000" width="2036.000000" height="2036.000000" fill="black" />
<circle cx="2031.959961" cy="613.960022" r="19.980000" fill="red">
  <title>Tokyo</title>
</circle><line x1="1508.959961" y1="399.959991" x2="2031.959961" y2="613.960022" stroke="red" stroke-width="6.660000" />
<circle cx="1462.959961" cy="906.960022" r="19.980000" fill="red">
  <title>Shanghai</title>
</circle><line x1="2031.959961" y1="613.960022" x2="1462.959961" y2="906.960022" stroke="red" stroke-width="6.660000" />
<circle cx="1135.959961" cy="718.960022" r="19.980000" fill="red">
  <title>Delhi</title>
</circle><line x1="1462.959961" y1="906.960022" x2="1135.959961" y2="718.960022" stroke="red" stroke-width="6.660000" />
<circle cx="1415.959961" cy="262.959991" r="19.980000" fill="red">
  <title>Mexico City</title>
</circle><line x1="1135.959961" y1="718.960022" x2="1415.959961" y2="262.959991" stroke="red" stroke-width="6.660000" />
<circle cx="1508.959961" cy="399.959991" r="19.980000" fill="red">
  <title>São Paulo</title>
</circle><line x1="1415.959961" y1="262.959991" x2="1508.959961" y2="399.959991" stroke="red" stroke-width="6.660000" />
</svg>
