<?xml version="1.0" encoding="UTF-8" standalone="no"?>
<svg width="500" height="500" viewBox="0 0 2074.000000 2074.000000" xmlns="http://www.w3.org/2000/svg">
<rect x="19.000000" y="19.000000" width="2036.000000" height="2036.000000" fill="black" />
<circle cx="1409.959961" cy="1318.959961" r="19.980000" fill="red">
  <title>Tokyo</title>
</circle><line x1="1214.959961" y1="1220.959961" x2="1409.959961" y2="1318.959961" stroke="red" stroke-width="6.660000" />
<circle cx="1640.959961" cy="1873.959961" r="19.980000" fill="red">
  <title>Shanghai</title>
</circle><line x1="1409.959961" y1="1318.959961" x2="1640.959961" y2="1873.959961" stroke="red" stroke-width="6.660000" />
<circle cx="862.960022" cy="1400.959961" r="19.980000" fill="red">
  <title>Delhi</title>
</circle><line x1="1640.959961" y1="1873.959961" x2="862.960022" y2="1400.959961" stroke="red" stroke-width="6.660000" />
<circle cx="724.960022" cy="786.960022" r="19.980000" fill="red">
  <title>São Paulo</title>
</circle><line x1="862.960022" y1="1400.959961" x2="724.960022" y2="786.960022" stroke="red" stroke-width="6.660000" />
<circle cx="1214.959961" cy="1220.959961" r="19.980000" fill="red">
  <title>Mexico City</title>
</circle><line x1="724.960022" y1="786.960022" x2="1214.959961" y2="1220.959961" stroke="red" stroke-width="6.660000" />
</svg>
