<?xml version="1.0" encoding="UTF-8" standalone="no"?>
<svg width="500" height="500" viewBox="0 0 2074.000000 2074.000000" xmlns="http://www.w3.org/2000/svg">
<rect x="19.000000" y="19.000000" width="2036.000000" height="2036.000000" fill="black" />
<circle cx="911.960022" cy="377.959991" r="19.980000" fill="red">
  <title>Tokyo</title>
</circle><line x1="1327.959961" y1="839.960022" x2="911.960022" y2="377.959991" stroke="red" stroke-width="6.660000" />
<circle cx="1927.959961" cy="48.959999" r="19.980000" fill="red">
  <title>Shanghai</title>
</circle><line x1="911.960022" y1="377.959991" x2="1927.959961" y2="48.959999" stroke="red" stroke-width="6.660000" />
<circle cx="2003.959961" cy="115.959999" r="19.980000" fill="red">
  <title>Cairo</title>
</circle><line x1="1927.959961" y1="48.959999" x2="2003.959961" y2="115.959999" stroke="red" stroke-width="6.660000" />
<circle cx="1555.959961" cy="947.960022" r="19.980000" fill="red">
  <title>Delhi</title>
</circle><line x1="2003.959961" y1="115.959999" x2="1555.959961" y2="947.960022" stroke="red" stroke-width="6.660000" />
<circle cx="1400.959961" cy="1156.959961" r="19.980000" fill="red">
  <title>Dhaka</title>
</circle><line x1="1555.959961" y1="947.960022" x2="1400.959961" y2="1156.959961" stroke="red" stroke-width="6.660000" />
<circle cx="1335.959961" cy="1139.959961" r="19.980000" fill="red">
  <title>Osaka</title>
</circle><line x1="1400.959961" y1="1156.959961" x2="1335.959961" y2="1139.959961" stroke="red" stroke-width="6.660000" />
<circle cx="1256.959961" cy="1138.959961" r="19.980000" fill="red">
  <title>Beijing</title>
</circle><line x1="1335.959961" y1="1139.959961" x2="1256.959961" y2="1138.959961" stroke="red" stroke-width="6.660000" />
<circle cx="669.960022" cy="1595.959961" r="19.980000" fill="red">
  <title>Karachi</title>
</circle><line x1="1256.959961" y1="1138.959961" x2="669.960022" y2="1595.959961" stroke="red" stroke-width="6.660000" />
<circle cx="167.959991" cy="1674.959961" r="19.980000" fill="red">
  <title>São Paulo</title>
</circle><line x1="669.960022" y1="1595.959961" x2="167.959991" y2="1674.959961" stroke="red" stroke-width="6.660000" />
<circle cx="1249.959961" cy="1114.959961" r="19.980000" fill="red">
  <title>Mexico City</title>
</circle><line x1="167.959991" y1="1674.959961" x2="1249.959961" y2="1114.959961" stroke="red" stroke-width="6.660000" />
<circle cx="1302.959961" cy="899.960022" r="19.980000" fill="red">
  <title>Mumbai</title>
</circle><line x1="1249.959961" y1="1114.959961" x2="1302.959961" y2="899.960022" stroke="red" stroke-width="6.660000" />
<circle cx="1327.959961" cy="839.960022" r="19.980000" fill="red">
  <title>New York</title>
</circle><line x1="1302.959961" y1="899.960022" x2="1327.959961" y2="839.960022" stroke="red" stroke-width="6.660000" />
</svg>
