<?xml version="1.0" encoding="UTF-8" standalone="no"?>
<svg width="500" height="500" viewBox="0 0 2074.000000 2074.000000" xmlns="http://www.w3.org/2000/svg">
<rect x="19.000000" y="19.000000" width="2036.000000" height="2036.000000" fill="black" />
<circle cx="1526.959961" cy="244.959991" r="19.980000" fill="red">
  <title>Tokyo</title>
</circle><line x1="1332.959961" y1="843.960022" x2="1526.959961" y2="244.959991" stroke="red" stroke-width="6.660000" />
<circle cx="1878.959961" cy="98.959999" r="19.980000" fill="red">
  <title>Manila</title>
</circle><line x1="1526.959961" y1="244.959991" x2="1878.959961" y2="98.959999" stroke="red" stroke-width="6.660000" />
<circle cx="1774.959961" cy="275.959991" r="19.980000" fill="red">
  <title>New York</title>
</circle><line x1="1878.959961" y1="98.959999" x2="1774.959961" y2="275.959991" stroke="red" stroke-width="6.660000" />
<circle cx="1935.959961" cy="535.960022" r="19.980000" fill="red">
  <title>Chongqing</title>
</circle><line x1="1774.959961" y1="275.959991" x2="1935.959961" y2="535.960022" stroke="red" stroke-width="6.660000" />
<circle cx="1761.959961" cy="1239.959961" r="19.980000" fill="red">
  <title>Delhi</title>
</circle><line x1="1935.959961" y1="535.960022" x2="1761.959961" y2="1239.959961" stroke="red" stroke-width="6.660000" />
<circle cx="1966.959961" cy="1672.959961" r="19.980000" fill="red">
  <title>Istanbul</title>
</circle><line x1="1761.959961" y1="1239.959961" x2="1966.959961" y2="1672.959961" stroke="red" stroke-width="6.660000" />
<circle cx="953.960022" cy="1694.959961" r="19.980000" fill="red">
  <title>Dhaka</title>
</circle><line x1="1966.959961" y1="1672.959961" x2="953.960022" y2="1694.959961" stroke="red" stroke-width="6.660000" />
<circle cx="374.959991" cy="1454.959961" r="19.980000" fill="red">
  <title>Kolkata</title>
</circle><line x1="953.960022" y1="1694.959961" x2="374.959991" y2="1454.959961" stroke="red" stroke-width="6.660000" />
<circle cx="289.959991" cy="1212.959961" r="19.980000" fill="red">
  <title>São Paulo</title>
</circle><line x1="374.959991" y1="1454.959961" x2="289.959991" y2="1212.959961" stroke="red" stroke-width="6.660000" />
<circle cx="647.960022" cy="1245.959961" r="19.980000" fill="red">
  <title>Beijing</title>
</circle><line x1="289.959991" y1="1212.959961" x2="647.960022" y2="1245.959961" stroke="red" stroke-width="6.660000" />
<circle cx="672.960022" cy="1219.959961" r="19.980000" fill="red">
  <title>Osaka</title>
</circle><line x1="647.960022" y1="1245.959961" x2="672.960022" y2="1219.959961" stroke="red" stroke-width="6.660000" />
<circle cx="656.960022" cy="1172.959961" r="19.980000" fill="red">
  <title>Lagos</title>
</circle><line x1="672.960022" y1="1219.959961" x2="656.960022" y2="1172.959961" stroke="red" stroke-width="6.660000" />
<circle cx="676.960022" cy="1138.959961" r="19.980000" fill="red">
  <title>Buenos Aires</title>
</circle><line x1="656.960022" y1="1172.959961" x2="676.960022" y2="1138.959961" stroke="red" stroke-width="6.660000" />
<circle cx="576.960022" cy="589.960022" r="19.980000" fill="red">
  <title>Mexico City</title>
</circle><line x1="676.960022" y1="1138.959961" x2="576.960022" y2="589.960022" stroke="red" stroke-width="6.660000" />
<circle cx="332.959991" cy="258.959991" r="19.980000" fill="red">
  <title>Mumbai</title>
</circle><line x1="576.960022" y1="589.960022" x2="332.959991" y2="258.959991" stroke="red" stroke-width="6.660000" />
<circle cx="40.959999" cy="254.959991" r="19.980000" fill="red">
  <title>Karachi</title>
</circle><line x1="332.959991" y1="258.959991" x2="40.959999" y2="254.959991" stroke="red" stroke-width="6.660000" />
<circle cx="507.959991" cy="437.959991" r="19.980000" fill="red">
  <title>Cairo</title>
</circle><line x1="40.959999" y1="254.959991" x2="507.959991" y2="437.959991" stroke="red" stroke-width="6.660000" />
<circle cx="902.960022" cy="906.960022" r="19.980000" fill="red">
  <title>Rio de Janeiro</title>
</circle><line x1="507.959991" y1="437.959991" x2="902.960022" y2="906.960022" stroke="red" stroke-width="6.660000" />
<circle cx="1332.959961" cy="843.960022" r="19.980000" fill="red">
  <title>Shanghai</title>
</circle><line x1="902.960022" y1="906.960022" x2="1332.959961" y2="843.960022" stroke="red" stroke-width="6.660000" />
</svg>
