<?xml version="1.0" encoding="UTF-8" standalone="no"?>
<svg width="500" height="500" viewBox="0 0 2074.000000 2074.000000" xmlns="http://www.w3.org/2000/svg">
<rect x="19.000000" y="19.000000" width="2036.000000" height="2036.000000" fill="black" />
<circle cx="1883.959961" cy="163.959991" r="19.980000" fill="red">
  <title>Tokyo</title>
</circle><line x1="1826.959961" y1="1642.959961" x2="1883.959961" y2="163.959991" stroke="red" stroke-width="6.660000" />
<circle cx="610.960022" cy="725.960022" r="19.980000" fill="red">
  <title>Shanghai</title>
</circle><line x1="1883.959961" y1="163.959991" x2="610.960022" y2="725.960022" stroke="red" stroke-width="6.660000" />
<circle cx="460.959991" cy="945.960022" r="19.980000" fill="red">
  <title>Mexico City</title>
</circle><line x1="610.960022" y1="725.960022" x2="460.959991" y2="945.960022" stroke="red" stroke-width="6.660000" />
<circle cx="817.960022" cy="1619.959961" r="19.980000" fill="red">
  <title>Cairo</title>
</circle><line x1="460.959991" y1="945.960022" x2="817.960022" y2="1619.959961" stroke="red" stroke-width="6.660000" />
<circle cx="638.960022" cy="1970.959961" r="19.980000" fill="red">
  <title>Delhi</title>
</circle><line x1="817.960022" y1="1619.959961" x2="638.960022" y2="1970.959961" stroke="red" stroke-width="6.660000" />
<circle cx="1703.959961" cy="1712.959961" r="19.980000" fill="red">
  <title>São Paulo</title>
</circle><line x1="638.960022" y1="1970.959961" x2="1703.959961" y2="1712.959961" stroke="red" stroke-width="6.660000" />
<circle cx="1826.959961" cy="1642.959961" r="19.980000" fill="red">
  <title>Mumbai</title>
</circle><line x1="1703.959961" y1="1712.959961" x2="1826.959961" y2="1642.959961" stroke="red" stroke-width="6.660000" />
</svg>
