<?xml version="1.0" encoding="UTF-8" standalone="no"?>
<svg width="500" height="500" viewBox="0 0 2074.000000 2074.000000" xmlns="http://www.w3.org/2000/svg">
<rect x="19.000000" y="19.000000" width="2036.000000" height="2036.000000" fill="black" />
<circle cx="1687.959961" cy="547.960022" r="19.980000" fill="red">
  <title>Tokyo</title>
</circle><line x1="2021.959961" y1="143.959991" x2="1687.959961" y2="547.960022" stroke="red" stroke-width="6.660000" />
<circle cx="1919.959961" cy="1803.959961" r="19.980000" fill="red">
  <title>Shanghai</title>
</circle><line x1="1687.959961" y1="547.960022" x2="1919.959961" y2="1803.959961" stroke="red" stroke-width="6.660000" />
<circle cx="1788.959961" cy="2010.959961" r="19.980000" fill="red">
  <title>Mumbai</title>
</circle><line x1="1919.959961" y1="1803.959961" x2="1788.959961" y2="2010.959961" stroke="red" stroke-width="6.660000" />
<circle cx="1698.959961" cy="1787.959961" r="19.980000" fill="red">
  <title>Chongqing</title>
</circle><line x1="1788.959961" y1="2010.959961" x2="1698.959961" y2="1787.959961" stroke="red" stroke-width="6.660000" />
<circle cx="1285.959961" cy="1802.959961" r="19.980000" fill="red">
  <title>Kolkata</title>
</circle><line x1="1698.959961" y1="1787.959961" x2="1285.959961" y2="1802.959961" stroke="red" stroke-width="6.660000" />
<circle cx="791.960022" cy="1799.959961" r="19.980000" fill="red">
  <title>Delhi</title>
</circle><line x1="1285.959961" y1="1802.959961" x2="791.960022" y2="1799.959961" stroke="red" stroke-width="6.660000" />
<circle cx="487.959991" cy="1766.959961" r="19.980000" fill="red">
  <title>Mexico City</title>
</circle><line x1="791.960022" y1="1799.959961" x2="487.959991" y2="1766.959961" stroke="red" stroke-width="6.660000" />
<circle cx="371.959991" cy="2009.959961" r="19.980000" fill="red">
  <title>Karachi</title>
</circle><line x1="487.959991" y1="1766.959961" x2="371.959991" y2="2009.959961" stroke="red" stroke-width="6.660000" />
<circle cx="154.959991" cy="1918.959961" r="19.980000" fill="red">
  <title>Istanbul</title>
</circle><line x1="371.959991" y1="2009.959961" x2="154.959991" y2="1918.959961" stroke="red" stroke-width="6.660000" />
<circle cx="442.959991" cy="1591.959961" r="19.980000" fill="red">
  <title>Beijing</title>
</circle><line x1="154.959991" y1="1918.959961" x2="442.959991" y2="1591.959961" stroke="red" stroke-width="6.660000" />
<circle cx="845.960022" cy="986.960022" r="19.980000" fill="red">
  <title>Dhaka</title>
</circle><line x1="442.959991" y1="1591.959961" x2="845.960022" y2="986.960022" stroke="red" stroke-width="6.660000" />
<circle cx="724.960022" cy="916.960022" r="19.980000" fill="red">
  <title>Osaka</title>
</circle><line x1="845.960022" y1="986.960022" x2="724.960022" y2="916.960022" stroke="red" stroke-width="6.660000" />
<circle cx="446.959991" cy="131.959991" r="19.980000" fill="red">
  <title>New York</title>
</circle><line x1="724.960022" y1="916.960022" x2="446.959991" y2="131.959991" stroke="red" stroke-width="6.660000" />
<circle cx="473.959991" cy="112.959999" r="19.980000" fill="red">
  <title>São Paulo</title>
</circle><line x1="446.959991" y1="131.959991" x2="473.959991" y2="112.959999" stroke="red" stroke-width="6.660000" />
<circle cx="1445.959961" cy="571.960022" r="19.980000" fill="red">
  <title>Cairo</title>
</circle><line x1="473.959991" y1="112.959999" x2="1445.959961" y2="571.960022" stroke="red" stroke-width="6.660000" />
<circle cx="2021.959961" cy="143.959991" r="19.980000" fill="red">
  <title>Buenos Aires</title>
</circle><line x1="1445.959961" y1="571.960022" x2="2021.959961" y2="143.959991" stroke="red" stroke-width="6.660000" />
</svg>
