<?xml version="1.0" encoding="UTF-8" standalone="no"?>
<svg width="500" height="500" viewBox="0 0 2074.000000 2074.000000" xmlns="http://www.w3.org/2000/svg">
<rect x="19.000000" y="19.000000" width="2036.000000" height="2036.000000" fill="black" />
<circle cx="1326.959961" cy="95.959999" r="19.980000" fill="red">
  <title>Tokyo</title>
</circle><line x1="1223.959961" y1="983.960022" x2="1326.959961" y2="95.959999" stroke="red" stroke-width="6.660000" />
<circle cx="481.959991" cy="177.959991" r="19.980000" fill="red">
  <title>Delhi</title>
</circle><line x1="1326.959961" y1="95.959999" x2="481.959991" y2="177.959991" stroke="red" stroke-width="6.660000" />
<circle cx="690.960022" cy="1510.959961" r="19.980000" fill="red">
  <title>Mexico City</title>
</circle><line x1="481.959991" y1="177.959991" x2="690.960022" y2="1510.959961" stroke="red" stroke-width="6.660000" />
<circle cx="906.960022" cy="1788.959961" r="19.980000" fill="red">
  <title>São Paulo</title>
</circle><line x1="690.960022" y1="1510.959961" x2="906.960022" y2="1788.959961" stroke="red" stroke-width="6.660000" />
<circle cx="1223.959961" cy="983.960022" r="19.980000" fill="red">
  <title>Shanghai</title>
</circle><line x1="906.960022" y1="1788.959961" x2="1223.959961" y2="983.960022" stroke="red" stroke-width="6.660000" />
</svg>
