<?xml version="1.0" encoding="UTF-8" standalone="no"?>
<svg width="500" height="500" viewBox="0 0 2074.000000 2074.000000" xmlns="http://www.w3.org/2000/svg">
<rect x="19.000000" y="19.000000" width="2036.000000" height="2036.000000" fill="black" />
<circle cx="1987.959961" cy="1230.959961" r="19.980000" fill="red">
  <title>Tokyo</title>
</circle><line x1="1871.959961" y1="1453.959961" x2="1987.959961" y2="1230.959961" stroke="red" stroke-width="6.660000" />
<circle cx="1996.959961" cy="624.960022" r="19.980000" fill="red">
  <title>Delhi</title>
</circle><line x1="1987.959961" y1="1230.959961" x2="1996.959961" y2="624.960022" stroke="red" stroke-width="6.660000" />
<circle cx="2022.959961" cy="164.959991" r="19.980000" fill="red">
  <title>Dhaka</title>
</circle><line x1="1996.959961" y1="624.960022" x2="2022.959961" y2="164.959991" stroke="red" stroke-width="6.660000" />
<circle cx="1375.959961" cy="621.960022" r="19.980000" fill="red">
  <title>Beijing</title>
</circle><line x1="2022.959961" y1="164.959991" x2="1375.959961" y2="621.960022" stroke="red" stroke-width="6.660000" />
<circle cx="328.959991" cy="684.960022" r="19.980000" fill="red">
  <title>Mumbai</title>
</circle><line x1="1375.959961" y1="621.960022" x2="328.959991" y2="684.960022" stroke="red" stroke-width="6.660000" />
<circle cx="390.959991" cy="792.960022" r="19.980000" fill="red">
  <title>São Paulo</title>
</circle><line x1="328.959991" y1="684.960022" x2="390.959991" y2="792.960022" stroke="red" stroke-width="6.660000" />
<circle cx="1516.959961" cy="1001.960022" r="19.980000" fill="red">
  <title>Cairo</title>
</circle><line x1="390.959991" y1="792.960022" x2="1516.959961" y2="1001.960022" stroke="red" stroke-width="6.660000" />
<circle cx="1719.959961" cy="1397.959961" r="19.980000" fill="red">
  <title>Mexico City</title>
</circle><line x1="1516.959961" y1="1001.960022" x2="1719.959961" y2="1397.959961" stroke="red" stroke-width="6.660000" />
<circle cx="1871.959961" cy="1453.959961" r="19.980000" fill="red">
  <title>Shanghai</title>
</circle><line x1="1719.959961" y1="1397.959961" x2="1871.959961" y2="1453.959961" stroke="red" stroke-width="6.660000" />
</svg>
