<?xml version="1.0" encoding="UTF-8" standalone="no"?>
<svg width="500" height="500" viewBox="0 0 2074.000000 2074.000000" xmlns="http://www.w3.org/2000/svg">
<rect x="19.000000" y="19.000000" width="2036.000000" height="2036.000000" fill="black" />
<circle cx="173.959991" cy="474.959991" r="19.980000" fill="red">
  <title>Tokyo</title>
</circle><line x1="138.959991" y1="433.959991" x2="173.959991" y2="474.959991" stroke="red" stroke-width="6.660000" />
<circle cx="324.959991" cy="434.959991" r="19.980000" fill="red">
  <title>Delhi</title>
</circle><line x1="173.959991" y1="474.959991" x2="324.959991" y2="434.959991" stroke="red" stroke-width="6.660000" />
<circle cx="138.959991" cy="433.959991" r="19.980000" fill="red">
  <title>Shanghai</title>
</circle><line x1="324.959991" y1="434.959991" x2="138.959991" y2="433.959991" stroke="red" stroke-width="6.660000" />
</svg>
