<?xml version="1.0" encoding="UTF-8" standalone="no"?>
<svg width="500" height="500" viewBox="0 0 2074.000000 2074.000000" xmlns="http://www.w3.org/2000/svg">
<rect x="19.000000" y="19.000000" width="2036.000000" height="2036.000000" fill="black" />
<circle cx="769.960022" cy="295.959991" r="19.980000" fill="red">
  <title>Tokyo</title>
</circle><line x1="398.959991" y1="331.959991" x2="769.960022" y2="295.959991" stroke="red" stroke-width="6.660000" />
<circle cx="783.960022" cy="1275.959961" r="19.980000" fill="red">
  <title>Delhi</title>
</circle><line x1="769.960022" y1="295.959991" x2="783.960022" y2="1275.959961" stroke="red" stroke-width="6.660000" />
<circle cx="377.959991" cy="1051.959961" r="19.980000" fill="red">
  <title>Shanghai</title>
</circle><line x1="783.960022" y1="1275.959961" x2="377.959991" y2="1051.959961" stroke="red" stroke-width="6.660000" />
<circle cx="398.959991" cy="331.959991" r="19.980000" fill="red">
  <title>São Paulo</title>
</circle><line x1="377.959991" y1="1051.959961" x2="398.959991" y2="331.959991" stroke="red" stroke-width="6.660000" />
</svg>
