<?xml version="1.0" encoding="UTF-8" standalone="no"?>
<svg width="500" height="500" viewBox="0 0 2074.000000 2074.000000" xmlns="http://www.w3.org/2000/svg">
<rect x="19.000000" y="19.000000" width="2036.000000" height="2036.000000" fill="black" />
<circle cx="743.960022" cy="1402.959961" r="19.980000" fill="red">
  <title>Tokyo</title>
</circle><line x1="438.959991" y1="1074.959961" x2="743.960022" y2="1402.959961" stroke="red" stroke-width="6.660000" />
<circle cx="1661.959961" cy="1475.959961" r="19.980000" fill="red">
  <title>São Paulo</title>
</circle><line x1="743.960022" y1="1402.959961" x2="1661.959961" y2="1475.959961" stroke="red" stroke-width="6.660000" />
<circle cx="1776.959961" cy="1349.959961" r="19.980000" fill="red">
  <title>Mexico City</title>
</circle><line x1="1661.959961" y1="1475.959961" x2="1776.959961" y2="1349.959961" stroke="red" stroke-width="6.660000" />
<circle cx="2028.959961" cy="518.960022" r="19.980000" fill="red">
  <title>Delhi</title>
</circle><line x1="1776.959961" y1="1349.959961" x2="2028.959961" y2="518.960022" stroke="red" stroke-width="6.660000" />
<circle cx="1403.959961" cy="719.960022" r="19.980000" fill="red">
  <title>Cairo</title>
</circle><line x1="2028.959961" y1="518.960022" x2="1403.959961" y2="719.960022" stroke="red" stroke-width="6.660000" />
<circle cx="873.960022" cy="959.960022" r="19.980000" fill="red">
  <title>Beijing</title>
</circle><line x1="1403.959961" y1="719.960022" x2="873.960022" y2="959.960022" stroke="red" stroke-width="6.660000" />
<circle cx="562.960022" cy="307.959991" r="19.980000" fill="red">
  <title>Shanghai</title>
</circle><line x1="873.960022" y1="959.960022" x2="562.960022" y2="307.959991" stroke="red" stroke-width="6.660000" />
<circle cx="438.959991" cy="1074.959961" r="19.980000" fill="red">
  <title>Mumbai</title>
</circle><line x1="562.960022" y1="307.959991" x2="438.959991" y2="1074.959961" stroke="red" stroke-width="6.660000" />
</svg>
