<?xml version="1.0" encoding="UTF-8" standalone="no"?>
<svg width="500" height="500" viewBox="0 0 2074.000000 2074.000000" xmlns="http://www.w3.org/2000/svg">
<rect x="19.000000" y="19.000000" width="2036.000000" height="2036.000000" fill="black" />
<circle cx="873.960022" cy="1840.959961" r="19.980000" fill="red">
  <title>Tokyo</title>
</circle><line x1="1819.959961" y1="1352.959961" x2="873.960022" y2="1840.959961" stroke="red" stroke-width="6.660000" />
<circle cx="486.959991" cy="296.959991" r="19.980000" fill="red">
  <title>Delhi</title>
</circle><line x1="873.960022" y1="1840.959961" x2="486.959991" y2="296.959991" stroke="red" stroke-width="6.660000" />
<circle cx="1700.959961" cy="593.960022" r="19.980000" fill="red">
  <title>Shanghai</title>
</circle><line x1="486.959991" y1="296.959991" x2="1700.959961" y2="593.960022" stroke="red" stroke-width="6.660000" />
<circle cx="1819.959961" cy="1352.959961" r="19.980000" fill="red">
  <title>São Paulo</title>
</circle><line x1="1700.959961" y1="593.960022" x2="1819.959961" y2="1352.959961" stroke="red" stroke-width="6.660000" />
</svg>
