<?xml version="1.0" encoding="UTF-8" standalone="no"?>
<svg width="500" height="500" viewBox="0 0 2074.000000 2074.000000" xmlns="http://www.w3.org/2000/svg">
<rect x="19.000000" y="19.000000" width="2036.000000" height="2036.000000" fill="black" />
<circle cx="1365.959961" cy="509.959991" r="19.980000" fill="red">
  <title>Tokyo</title>
</circle><line x1="1644.959961" y1="1126.959961" x2="1365.959961" y2="509.959991" stroke="red" stroke-width="6.660000" />
<circle cx="1865.959961" cy="66.959999" r="19.980000" fill="red">
  <title>Delhi</title>
</circle><line x1="1365.959961" y1="509.959991" x2="1865.959961" y2="66.959999" stroke="red" stroke-width="6.660000" />
<circle cx="1333.959961" cy="141.959991" r="19.980000" fill="red">
  <title>Shanghai</title>
</circle><line x1="1865.959961" y1="66.959999" x2="1333.959961" y2="141.959991" stroke="red" stroke-width="6.660000" />
<circle cx="1078.959961" cy="359.959991" r="19.980000" fill="red">
  <title>Cairo</title>
</circle><line x1="1333.959961" y1="141.959991" x2="1078.959961" y2="359.959991" stroke="red" stroke-width="6.660000" />
<circle cx="573.960022" cy="85.959999" r="19.980000" fill="red">
  <title>Osaka</title>
</circle><line x1="1078.959961" y1="359.959991" x2="573.960022" y2="85.959999" stroke="red" stroke-width="6.660000" />
<circle cx="506.959991" cy="842.960022" r="19.980000" fill="red">
  <title>Mexico City</title>
</circle><line x1="573.960022" y1="85.959999" x2="506.959991" y2="842.960022" stroke="red" stroke-width="6.660000" />
<circle cx="616.960022" cy="930.960022" r="19.980000" fill="red">
  <title>Dhaka</title>
</circle><line x1="506.959991" y1="842.960022" x2="616.960022" y2="930.960022" stroke="red" stroke-width="6.660000" />
<circle cx="391.959991" cy="1979.959961" r="19.980000" fill="red">
  <title>New York</title>
</circle><line x1="616.960022" y1="930.960022" x2="391.959991" y2="1979.959961" stroke="red" stroke-width="6.660000" />
<circle cx="946.960022" cy="1734.959961" r="19.980000" fill="red">
  <title>Mumbai</title>
</circle><line x1="391.959991" y1="1979.959961" x2="946.960022" y2="1734.959961" stroke="red" stroke-width="6.660000" />
<circle cx="1370.959961" cy="1998.959961" r="19.980000" fill="red">
  <title>São Paulo</title>
</circle><line x1="946.960022" y1="1734.959961" x2="1370.959961" y2="1998.959961" stroke="red" stroke-width="6.660000" />
<circle cx="1644.959961" cy="1126.959961" r="19.980000" fill="red">
  <title>Beijing</title>
</circle><line x1="1370.959961" y1="1998.959961" x2="1644.959961" y2="1126.959961" stroke="red" stroke-width="6.660000" />
</svg>
