<?xml version="1.0" encoding="UTF-8" standalone="no"?>
<svg width="500" height="500" viewBox="0 0 2074.000000 2074.000000" xmlns="http://www.w3.org/2000/svg">
<rect x="19.000000" y="19.000000" width="2036.000000" height="2036.000000" fill="black" />
<circle cx="1415.959961" cy="987.960022" r="19.980000" fill="red">
  <title>Tokyo</title>
</circle><line x1="1364.959961" y1="616.960022" x2="1415.959961" y2="987.960022" stroke="red" stroke-width="6.660000" />
<circle cx="1254.959961" cy="1110.959961" r="19.980000" fill="red">
  <title>Chongqing</title>
</circle><line x1="1415.959961" y1="987.960022" x2="1254.959961" y2="1110.959961" stroke="red" stroke-width="6.660000" />
<circle cx="1306.959961" cy="1357.959961" r="19.980000" fill="red">
  <title>Rio de Janeiro</title>
</circle><line x1="1254.959961" y1="1110.959961" x2="1306.959961" y2="1357.959961" stroke="red" stroke-width="6.660000" />
<circle cx="1070.959961" cy="1222.959961" r="19.980000" fill="red">
  <title>Manila</title>
</circle><line x1="1306.959961" y1="1357.959961" x2="1070.959961" y2="1222.959961" stroke="red" stroke-width="6.660000" />
<circle cx="913.960022" cy="1166.959961" r="19.980000" fill="red">
  <title>São Paulo</title>
</circle><line x1="1070.959961" y1="1222.959961" x2="913.960022" y2="1166.959961" stroke="red" stroke-width="6.660000" />
<circle cx="798.960022" cy="1654.959961" r="19.980000" fill="red">
  <title>New York</title>
</circle><line x1="913.960022" y1="1166.959961" x2="798.960022" y2="1654.959961" stroke="red" stroke-width="6.660000" />
<circle cx="350.959991" cy="1960.959961" r="19.980000" fill="red">
  <title>Delhi</title>
</circle><line x1="798.960022" y1="1654.959961" x2="350.959991" y2="1960.959961" stroke="red" stroke-width="6.660000" />
<circle cx="496.959991" cy="1193.959961" r="19.980000" fill="red">
  <title>Karachi</title>
</circle><line x1="350.959991" y1="1960.959961" x2="496.959991" y2="1193.959961" stroke="red" stroke-width="6.660000" />
<circle cx="482.959991" cy="896.960022" r="19.980000" fill="red">
  <title>Lagos</title>
</circle><line x1="496.959991" y1="1193.959961" x2="482.959991" y2="896.960022" stroke="red" stroke-width="6.660000" />
<circle cx="91.959999" cy="823.960022" r="19.980000" fill="red">
  <title>Mexico City</title>
</circle><line x1="482.959991" y1="896.960022" x2="91.959999" y2="823.960022" stroke="red" stroke-width="6.660000" />
<circle cx="53.959999" cy="791.960022" r="19.980000" fill="red">
  <title>Osaka</title>
</circle><line x1="91.959999" y1="823.960022" x2="53.959999" y2="791.960022" stroke="red" stroke-width="6.660000" />
<circle cx="243.959991" cy="528.960022" r="19.980000" fill="red">
  <title>Mumbai</title>
</circle><line x1="53.959999" y1="791.960022" x2="243.959991" y2="528.960022" stroke="red" stroke-width="6.660000" />
<circle cx="194.959991" cy="372.959991" r="19.980000" fill="red">
  <title>Cairo</title>
</circle><line x1="243.959991" y1="528.960022" x2="194.959991" y2="372.959991" stroke="red" stroke-width="6.660000" />
<circle cx="911.960022" cy="560.960022" r="19.980000" fill="red">
  <title>Kolkata</title>
</circle><line x1="194.959991" y1="372.959991" x2="911.960022" y2="560.960022" stroke="red" stroke-width="6.660000" />
<circle cx="1283.959961" cy="389.959991" r="19.980000" fill="red">
  <title>Beijing</title>
</circle><line x1="911.960022" y1="560.960022" x2="1283.959961" y2="389.959991" stroke="red" stroke-width="6.660000" />
<circle cx="1182.959961" cy="121.959999" r="19.980000" fill="red">
  <title>Istanbul</title>
</circle><line x1="1283.959961" y1="389.959991" x2="1182.959961" y2="121.959999" stroke="red" stroke-width="6.660000" />
<circle cx="1863.959961" cy="123.959999" r="19.980000" fill="red">
  <title>Shanghai</title>
</circle><line x1="1182.959961" y1="121.959999" x2="1863.959961" y2="123.959999" stroke="red" stroke-width="6.660000" />
<circle cx="1688.959961" cy="564.960022" r="19.980000" fill="red">
  <title>Dhaka</title>
</circle><line x1="1863.959961" y1="123.959999" x2="1688.959961" y2="564.960022" stroke="red" stroke-width="6.660000" />
<circle cx="1364.959961" cy="616.960022" r="19.980000" fill="red">
  <title>Buenos Aires</title>
</circle><line x1="1688.959961" y1="564.960022" x2="1364.959961" y2="616.960022" stroke="red" stroke-width="6.660000" />
</svg>
