<?xml version="1.0" encoding="UTF-8" standalone="no"?>
<svg width="500" height="500" viewBox="0 0 2074.000000 2074.000000" xmlns="http://www.w3.org/2000/svg">
<rect x="19.000000" y="19.000000" width="2036.000000" height="2036.000000" fill="black" />
<circle cx="97.959999" cy="843.960022" r="19.980000" fill="red">
  <title>Tokyo</title>
</circle><line x1="120.959999" y1="462.959991" x2="97.959999" y2="843.960022" stroke="red" stroke-width="6.660000" />
<circle cx="568.960022" cy="722.960022" r="19.980000" fill="red">
  <title>New York</title>
</circle><line x1="97.959999" y1="843.960022" x2="568.960022" y2="722.960022" stroke="red" stroke-width="6.660000" />
<circle cx="868.960022" cy="1036.959961" r="19.980000" fill="red">
  <title>Mexico City</title>
</circle><line x1="568.960022" y1="722.960022" x2="868.960022" y2="1036.959961" stroke="red" stroke-width="6.660000" />
<circle cx="736.960022" cy="1507.959961" r="19.980000" fill="red">
  <title>Dhaka</title>
</circle><line x1="868.960022" y1="1036.959961" x2="736.960022" y2="1507.959961" stroke="red" stroke-width="6.660000" />
<circle cx="701.960022" cy="1701.959961" r="19.980000" fill="red">
  <title>Lagos</title>
</circle><line x1="736.960022" y1="1507.959961" x2="701.960022" y2="1701.959961" stroke="red" stroke-width="6.660000" />
<circle cx="571.960022" cy="1838.959961" r="19.980000" fill="red">
  <title>São Paulo</title>
</circle><line x1="701.960022" y1="1701.959961" x2="571.960022" y2="1838.959961" stroke="red" stroke-width="6.660000" />
<circle cx="950.960022" cy="1862.959961" r="19.980000" fill="red">
  <title>Cairo</title>
</circle><line x1="571.960022" y1="1838.959961" x2="950.960022" y2="1862.959961" stroke="red" stroke-width="6.660000" />
<circle cx="1138.959961" cy="1864.959961" r="19.980000" fill="red">
  <title>Osaka</title>
</circle><line x1="950.960022" y1="1862.959961" x2="1138.959961" y2="1864.959961" stroke="red" stroke-width="6.660000" />
<circle cx="1146.959961" cy="1380.959961" r="19.980000" fill="red">
  <title>Chongqing</title>
</circle><line x1="1138.959961" y1="1864.959961" x2="1146.959961" y2="1380.959961" stroke="red" stroke-width="6.660000" />
<circle cx="1070.959961" cy="1323.959961" r="19.980000" fill="red">
  <title>Kolkata</title>
</circle><line x1="1146.959961" y1="1380.959961" x2="1070.959961" y2="1323.959961" stroke="red" stroke-width="6.660000" />
<circle cx="1265.959961" cy="1315.959961" r="19.980000" fill="red">
  <title>Istanbul</title>
</circle><line x1="1070.959961" y1="1323.959961" x2="1265.959961" y2="1315.959961" stroke="red" stroke-width="6.660000" />
<circle cx="1430.959961" cy="1415.959961" r="19.980000" fill="red">
  <title>Delhi</title>
</circle><line x1="1265.959961" y1="1315.959961" x2="1430.959961" y2="1415.959961" stroke="red" stroke-width="6.660000" />
<circle cx="1736.959961" cy="1274.959961" r="19.980000" fill="red">
  <title>Buenos Aires</title>
</circle><line x1="1430.959961" y1="1415.959961" x2="1736.959961" y2="1274.959961" stroke="red" stroke-width="6.660000" />
<circle cx="1619.959961" cy="887.960022" r="19.980000" fill="red">
  <title>Shanghai</title>
</circle><line x1="1736.959961" y1="1274.959961" x2="1619.959961" y2="887.960022" stroke="red" stroke-width="6.660000" />
<circle cx="1018.960022" cy="262.959991" r="19.980000" fill="red">
  <title>Beijing</title>
</circle><line x1="1619.959961" y1="887.960022" x2="1018.960022" y2="262.959991" stroke="red" stroke-width="6.660000" />
<circle cx="968.960022" cy="135.959991" r="19.980000" fill="red">
  <title>Karachi</title>
</circle><line x1="1018.960022" y1="262.959991" x2="968.960022" y2="135.959991" stroke="red" stroke-width="6.660000" />
<circle cx="58.959999" cy="95.959999" r="19.980000" fill="red">
  <title>Mumbai</title>
</circle><line x1="968.960022" y1="135.959991" x2="58.959999" y2="95.959999" stroke="red" stroke-width="6.660000" />
<circle cx="120.959999" cy="462.959991" r="19.980000" fill="red">
  <title>Manila</title>
</circle><line x1="58.959999" y1="95.959999" x2="120.959999" y2="462.959991" stroke="red" stroke-width="6.660000" />
</svg>
