<?xml version="1.0" encoding="UTF-8" standalone="no"?>
<svg width="500" height="500" viewBox="0 0 2074.000000 2074.000000" xmlns="http://www.w3.org/2000/svg">
<rect x="19.000000" y="19.000000" width="2036.000000" height="2036.000000" fill="black" />
<circle cx="698.960022" cy="1156.959961" r="19.980000" fill="red">
  <title>Tokyo</title>
</circle><line x1="942.960022" y1="1187.959961" x2="698.960022" y2="1156.959961" stroke="red" stroke-width="6.660000" />
<circle cx="609.960022" cy="1695.959961" r="19.980000" fill="red">
  <title>São Paulo</title>
</circle><line x1="698.960022" y1="1156.959961" x2="609.960022" y2="1695.959961" stroke="red" stroke-width="6.660000" />
<circle cx="769.960022" cy="1904.959961" r="19.980000" fill="red">
  <title>New York</title>
</circle><line x1="609.960022" y1="1695.959961" x2="769.960022" y2="1904.959961" stroke="red" stroke-width="6.660000" />
<circle cx="1433.959961" cy="1883.959961" r="19.980000" fill="red">
  <title>Delhi</title>
</circle><line x1="769.960022" y1="1904.959961" x2="1433.959961" y2="1883.959961" stroke="red" stroke-width="6.660000" />
<circle cx="2026.959961" cy="1883.959961" r="19.980000" fill="red">
  <title>Dhaka</title>
</circle><line x1="1433.959961" y1="1883.959961" x2="2026.959961" y2="1883.959961" stroke="red" stroke-width="6.660000" />
<circle cx="1395.959961" cy="1171.959961" r="19.980000" fill="red">
  <title>Beijing</title>
</circle><line x1="2026.959961" y1="1883.959961" x2="1395.959961" y2="1171.959961" stroke="red" stroke-width="6.660000" />
<circle cx="1192.959961" cy="1145.959961" r="19.980000" fill="red">
  <title>Karachi</title>
</circle><line x1="1395.959961" y1="1171.959961" x2="1192.959961" y2="1145.959961" stroke="red" stroke-width="6.660000" />
<circle cx="1273.959961" cy="1079.959961" r="19.980000" fill="red">
  <title>Shanghai</title>
</circle><line x1="1192.959961" y1="1145.959961" x2="1273.959961" y2="1079.959961" stroke="red" stroke-width="6.660000" />
<circle cx="1439.959961" cy="792.960022" r="19.980000" fill="red">
  <title>Osaka</title>
</circle><line x1="1273.959961" y1="1079.959961" x2="1439.959961" y2="792.960022" stroke="red" stroke-width="6.660000" />
<circle cx="1470.959961" cy="78.959999" r="19.980000" fill="red">
  <title>Mexico City</title>
</circle><line x1="1439.959961" y1="792.960022" x2="1470.959961" y2="78.959999" stroke="red" stroke-width="6.660000" />
<circle cx="1061.959961" cy="757.960022" r="19.980000" fill="red">
  <title>Cairo</title>
</circle><line x1="1470.959961" y1="78.959999" x2="1061.959961" y2="757.960022" stroke="red" stroke-width="6.660000" />
<circle cx="942.960022" cy="1187.959961" r="19.980000" fill="red">
  <title>Mumbai</title>
</circle><line x1="1061.959961" y1="757.960022" x2="942.960022" y2="1187.959961" stroke="red" stroke-width="6.660000" />
</svg>
