<?xml version="1.0" encoding="UTF-8" standalone="no"?>
<svg width="500" height="500" viewBox="0 0 2074.000000 2074.000000" xmlns="http://www.w3.org/2000/svg">
<rect x="19.000000" y="19.000000" width="2036.000000" height="2036.000000" fill="black" />
<circle cx="1187.959961" cy="1371.959961" r="19.980000" fill="red">
  <title>Tokyo</title>
</circle><line x1="842.960022" y1="1330.959961" x2="1187.959961" y2="1371.959961" stroke="red" stroke-width="6.660000" />
<circle cx="1840.959961" cy="1780.959961" r="19.980000" fill="red">
  <title>Mexico City</title>
</circle><line x1="1187.959961" y1="1371.959961" x2="1840.959961" y2="1780.959961" stroke="red" stroke-width="6.660000" />
<circle cx="1875.959961" cy="1448.959961" r="19.980000" fill="red">
  <title>Cairo</title>
</circle><line x1="1840.959961" y1="1780.959961" x2="1875.959961" y2="1448.959961" stroke="red" stroke-width="6.660000" />
<circle cx="1967.959961" cy="414.959991" r="19.980000" fill="red">
  <title>São Paulo</title>
</circle><line x1="1875.959961" y1="1448.959961" x2="1967.959961" y2="414.959991" stroke="red" stroke-width="6.660000" />
<circle cx="800.960022" cy="451.959991" r="19.980000" fill="red">
  <title>Mumbai</title>
</circle><line x1="1967.959961" y1="414.959991" x2="800.960022" y2="451.959991" stroke="red" stroke-width="6.660000" />
<circle cx="617.960022" cy="325.959991" r="19.980000" fill="red">
  <title>New York</title>
</circle><line x1="800.960022" y1="451.959991" x2="617.960022" y2="325.959991" stroke="red" stroke-width="6.660000" />
<circle cx="587.960022" cy="182.959991" r="19.980000" fill="red">
  <title>Delhi</title>
</circle><line x1="617.960022" y1="325.959991" x2="587.960022" y2="182.959991" stroke="red" stroke-width="6.660000" />
<circle cx="91.959999" cy="120.959999" r="19.980000" fill="red">
  <title>Beijing</title>
</circle><line x1="587.960022" y1="182.959991" x2="91.959999" y2="120.959999" stroke="red" stroke-width="6.660000" />
<circle cx="442.959991" cy="834.960022" r="19.980000" fill="red">
  <title>Karachi</title>
</circle><line x1="91.959999" y1="120.959999" x2="442.959991" y2="834.960022" stroke="red" stroke-width="6.660000" />
<circle cx="331.959991" cy="1001.960022" r="19.980000" fill="red">
  <title>Buenos Aires</title>
</circle><line x1="442.959991" y1="834.960022" x2="331.959991" y2="1001.960022" stroke="red" stroke-width="6.660000" />
<circle cx="50.959999" cy="1408.959961" r="19.980000" fill="red">
  <title>Shanghai</title>
</circle><line x1="331.959991" y1="1001.960022" x2="50.959999" y2="1408.959961" stroke="red" stroke-width="6.660000" />
<circle cx="776.960022" cy="1293.959961" r="19.980000" fill="red">
  <title>Dhaka</title>
</circle><line x1="50.959999" y1="1408.959961" x2="776.960022" y2="1293.959961" stroke="red" stroke-width="6.660000" />
<circle cx="842.960022" cy="1330.959961" r="19.980000" fill="red">
  <title>Osaka</title>
</circle><line x1="776.960022" y1="1293.959961" x2="842.960022" y2="1330.959961" stroke="red" stroke-width="6.660000" />
</svg>
