<?xml version="1.0" encoding="UTF-8" standalone="no"?>
<svg width="500" height="500" viewBox="0 0 2074.000000 2074.000000" xmlns="http://www.w3.org/2000/svg">
<rect x="19.000000" y="19.000000" width="2036.000000" height="2036.000000" fill="black" />
<circle cx="65.959999" cy="157.959991" r="19.980000" fill="red">
  <title>Tokyo</title>
</circle><line x1="758.960022" y1="605.960022" x2="65.959999" y2="157.959991" stroke="red" stroke-width="6.660000" />
<circle cx="923.960022" cy="596.960022" r="19.980000" fill="red">
  <title>Shanghai</title>
</circle><line x1="65.959999" y1="157.959991" x2="923.960022" y2="596.960022" stroke="red" stroke-width="6.660000" />
<circle cx="1624.959961" cy="1199.959961" r="19.980000" fill="red">
  <title>Cairo</title>
</circle><line x1="923.960022" y1="596.960022" x2="1624.959961" y2="1199.959961" stroke="red" stroke-width="6.660000" />
<circle cx="1773.959961" cy="1676.959961" r="19.980000" fill="red">
  <title>São Paulo</title>
</circle><line x1="1624.959961" y1="1199.959961" x2="1773.959961" y2="1676.959961" stroke="red" stroke-width="6.660000" />
<circle cx="1236.959961" cy="730.960022" r="19.980000" fill="red">
  <title>Delhi</title>
</circle><line x1="1773.959961" y1="1676.959961" x2="1236.959961" y2="730.960022" stroke="red" stroke-width="6.660000" />
<circle cx="758.960022" cy="605.960022" r="19.980000" fill="red">
  <title>Mexico City</title>
</circle><line x1="1236.959961" y1="730.960022" x2="758.960022" y2="605.960022" stroke="red" stroke-width="6.660000" />
</svg>
