<?xml version="1.0" encoding="UTF-8" standalone="no"?>
<svg width="500" height="500" viewBox="0 0 2074.000000 2074.000000" xmlns="http://www.w3.org/2000/svg">
<rect x="19.000000" y="19.000000" width="2036.000000" height="2036.000000" fill="black" />
<circle cx="2031.959961" cy="923.960022" r="19.980000" fill="red">
  <title>Tokyo</title>
</circle><line x1="1868.959961" y1="1626.959961" x2="2031.959961" y2="923.960022" stroke="red" stroke-width="6.660000" />
<circle cx="1799.959961" cy="600.960022" r="19.980000" fill="red">
  <title>São Paulo</title>
</circle><line x1="2031.959961" y1="923.960022" x2="1799.959961" y2="600.960022" stroke="red" stroke-width="6.660000" />
<circle cx="1470.959961" cy="579.960022" r="19.980000" fill="red">
  <title>Beijing</title>
</circle><line x1="1799.959961" y1="600.960022" x2="1470.959961" y2="579.960022" stroke="red" stroke-width="6.660000" />
<circle cx="1476.959961" cy="109.959999" r="19.980000" fill="red">
  <title>Karachi</title>
</circle><line x1="1470.959961" y1="579.960022" x2="1476.959961" y2="109.959999" stroke="red" stroke-width="6.660000" />
<circle cx="1251.959961" cy="96.959999" r="19.980000" fill="red">
  <title>Dhaka</title>
</circle><line x1="1476.959961" y1="109.959999" x2="1251.959961" y2="96.959999" stroke="red" stroke-width="6.660000" />
<circle cx="1161.959961" cy="71.959999" r="19.980000" fill="red">
  <title>Delhi</title>
</circle><line x1="1251.959961" y1="96.959999" x2="1161.959961" y2="71.959999" stroke="red" stroke-width="6.660000" />
<circle cx="1024.959961" cy="219.959991" r="19.980000" fill="red">
  <title>Mumbai</title>
</circle><line x1="1161.959961" y1="71.959999" x2="1024.959961" y2="219.959991" stroke="red" stroke-width="6.660000" />
<circle cx="780.960022" cy="542.960022" r="19.980000" fill="red">
  <title>Osaka</title>
</circle><line x1="1024.959961" y1="219.959991" x2="780.960022" y2="542.960022" stroke="red" stroke-width="6.660000" />
<circle cx="44.959999" cy="495.959991" r="19.980000" fill="red">
  <title>Cairo</title>
</circle><line x1="780.960022" y1="542.960022" x2="44.959999" y2="495.959991" stroke="red" stroke-width="6.660000" />
<circle cx="99.959999" cy="1313.959961" r="19.980000" fill="red">
  <title>Mexico City</title>
</circle><line x1="44.959999" y1="495.959991" x2="99.959999" y2="1313.959961" stroke="red" stroke-width="6.660000" />
<circle cx="938.960022" cy="1953.959961" r="19.980000" fill="red">
  <title>Shanghai</title>
</circle><line x1="99.959999" y1="1313.959961" x2="938.960022" y2="1953.959961" stroke="red" stroke-width="6.660000" />
<circle cx="1868.959961" cy="1626.959961" r="19.980000" fill="red">
  <title>New York</title>
</circle><line x1="938.960022" y1="1953.959961" x2="1868.959961" y2="1626.959961" stroke="red" stroke-width="6.660000" />
</svg>
