<?xml version="1.0" encoding="UTF-8" standalone="no"?>
<svg width="500" height="500" viewBox="0 0 2074.000000 2074.000000" xmlns="http://www.w3.org/2000/svg">
<rect x="19.000000" y="19.000000" width="2036.000000" height="2036.000000" fill="black" />
<circle cx="961.960022" cy="1695.959961" r="19.980000" fill="red">
  <title>Tokyo</title>
</circle><line x1="510.959991" y1="1871.959961" x2="961.960022" y2="1695.959961" stroke="red" stroke-width="6.660000" />
<circle cx="1033.959961" cy="1748.959961" r="19.980000" fill="red">
  <title>Delhi</title>
</circle><line x1="961.960022" y1="1695.959961" x2="1033.959961" y2="1748.959961" stroke="red" stroke-width="6.660000" />
<circle cx="1411.959961" cy="1405.959961" r="19.980000" fill="red">
  <title>Kolkata</title>
</circle><line x1="1033.959961" y1="1748.959961" x2="1411.959961" y2="1405.959961" stroke="red" stroke-width="6.660000" />
<circle cx="1116.959961" cy="1085.959961" r="19.980000" fill="red">
  <title>Lagos</title>
</circle><line x1="1411.959961" y1="1405.959961" x2="1116.959961" y2="1085.959961" stroke="red" stroke-width="6.660000" />
<circle cx="1672.959961" cy="601.960022" r="19.980000" fill="red">
  <title>Karachi</title>
</circle><line x1="1116.959961" y1="1085.959961" x2="1672.959961" y2="601.960022" stroke="red" stroke-width="6.660000" />
<circle cx="1817.959961" cy="229.959991" r="19.980000" fill="red">
  <title>Mumbai</title>
</circle><line x1="1672.959961" y1="601.960022" x2="1817.959961" y2="229.959991" stroke="red" stroke-width="6.660000" />
<circle cx="1746.959961" cy="426.959991" r="19.980000" fill="red">
  <title>New York</title>
</circle><line x1="1817.959961" y1="229.959991" x2="1746.959961" y2="426.959991" stroke="red" stroke-width="6.660000" />
<circle cx="604.960022" cy="407.959991" r="19.980000" fill="red">
  <title>Manila</title>
</circle><line x1="1746.959961" y1="426.959991" x2="604.960022" y2="407.959991" stroke="red" stroke-width="6.660000" />
<circle cx="520.960022" cy="104.959999" r="19.980000" fill="red">
  <title>Shanghai</title>
</circle><line x1="604.960022" y1="407.959991" x2="520.960022" y2="104.959999" stroke="red" stroke-width="6.660000" />
<circle cx="324.959991" cy="51.959999" r="19.980000" fill="red">
  <title>Cairo</title>
</circle><line x1="520.960022" y1="104.959999" x2="324.959991" y2="51.959999" stroke="red" stroke-width="6.660000" />
<circle cx="210.959991" cy="636.960022" r="19.980000" fill="red">
  <title>Beijing</title>
</circle><line x1="324.959991" y1="51.959999" x2="210.959991" y2="636.960022" stroke="red" stroke-width="6.660000" />
<circle cx="234.959991" cy="885.960022" r="19.980000" fill="red">
  <title>Buenos Aires</title>
</circle><line x1="210.959991" y1="636.960022" x2="234.959991" y2="885.960022" stroke="red" stroke-width="6.660000" />
<circle cx="327.959991" cy="875.960022" r="19.980000" fill="red">
  <title>Dhaka</title>
</circle><line x1="234.959991" y1="885.960022" x2="327.959991" y2="875.960022" stroke="red" stroke-width="6.660000" />
<circle cx="362.959991" cy="920.960022" r="19.980000" fill="red">
  <title>São Paulo</title>
</circle><line x1="327.959991" y1="875.960022" x2="362.959991" y2="920.960022" stroke="red" stroke-width="6.660000" />
<circle cx="481.959991" cy="799.960022" r="19.980000" fill="red">
  <title>Mexico City</title>
</circle><line x1="362.959991" y1="920.960022" x2="481.959991" y2="799.960022" stroke="red" stroke-width="6.660000" />
<circle cx="483.959991" cy="947.960022" r="19.980000" fill="red">
  <title>Istanbul</title>
</circle><line x1="481.959991" y1="799.960022" x2="483.959991" y2="947.960022" stroke="red" stroke-width="6.660000" />
<circle cx="590.960022" cy="1671.959961" r="19.980000" fill="red">
  <title>Chongqing</title>
</circle><line x1="483.959991" y1="947.960022" x2="590.960022" y2="1671.959961" stroke="red" stroke-width="6.660000" />
<circle cx="510.959991" cy="1871.959961" r="19.980000" fill="red">
  <title>Osaka</title>
</circle><line x1="590.960022" y1="1671.959961" x2="510.959991" y2="1871.959961" stroke="red" stroke-width="6.660000" />
</svg>
