<?xml version="1.0" encoding="UTF-8" standalone="no"?>
<svg width="500" height="500" viewBox="0 0 2074.000000 2074.000000" xmlns="http://www.w3.org/2000/svg">
<rect x="19.000000" y="19.000000" width="2036.000000" height="2036.000000" fill="black" />
<circle cx="1699.959961" cy="499.959991" r="19.980000" fill="red">
  <title>Tokyo</title>
</circle><line x1="1893.959961" y1="1764.959961" x2="1699.959961" y2="499.959991" stroke="red" stroke-width="6.660000" />
<circle cx="1600.959961" cy="203.959991" r="19.980000" fill="red">
  <title>Delhi</title>
</circle><line x1="1699.959961" y1="499.959991" x2="1600.959961" y2="203.959991" stroke="red" stroke-width="6.660000" />
<circle cx="825.960022" cy="324.959991" r="19.980000" fill="red">
  <title>Mumbai</title>
</circle><line x1="1600.959961" y1="203.959991" x2="825.960022" y2="324.959991" stroke="red" stroke-width="6.660000" />
<circle cx="522.960022" cy="177.959991" r="19.980000" fill="red">
  <title>Shanghai</title>
</circle><line x1="825.960022" y1="324.959991" x2="522.960022" y2="177.959991" stroke="red" stroke-width="6.660000" />
<circle cx="279.959991" cy="569.960022" r="19.980000" fill="red">
  <title>Dhaka</title>
</circle><line x1="522.960022" y1="177.959991" x2="279.959991" y2="569.960022" stroke="red" stroke-width="6.660000" />
<circle cx="306.959991" cy="683.960022" r="19.980000" fill="red">
  <title>Cairo</title>
</circle><line x1="279.959991" y1="569.960022" x2="306.959991" y2="683.960022" stroke="red" stroke-width="6.660000" />
<circle cx="464.959991" cy="795.960022" r="19.980000" fill="red">
  <title>Mexico City</title>
</circle><line x1="306.959991" y1="683.960022" x2="464.959991" y2="795.960022" stroke="red" stroke-width="6.660000" />
<circle cx="1222.959961" cy="976.960022" r="19.980000" fill="red">
  <title>Osaka</title>
</circle><line x1="464.959991" y1="795.960022" x2="1222.959961" y2="976.960022" stroke="red" stroke-width="6.660000" />
<circle cx="1327.959961" cy="1825.959961" r="19.980000" fill="red">
  <title>São Paulo</title>
</circle><line x1="1222.959961" y1="976.960022" x2="1327.959961" y2="1825.959961" stroke="red" stroke-width="6.660000" />
<circle cx="1893.959961" cy="1764.959961" r="19.980000" fill="red">
  <title>Beijing</title>
</circle><line x1="1327.959961" y1="1825.959961" x2="1893.959961" y2="1764.959961" stroke="red" stroke-width="6.660000" />
</svg>
