<?xml version="1.0" encoding="UTF-8" standalone="no"?>
<svg width="500" height="500" viewBox="0 0 2074.000000 2074.000000" xmlns="http://www.w3.org/2000/svg">
<rect x="19.000000" y="19.000000" width="2036.000000" height="2036.000000" fill="black" />
<circle cx="1550.959961" cy="1223.959961" r="19.980000" fill="red">
  <title>Tokyo</title>
</circle><line x1="1976.959961" y1="1439.959961" x2="1550.959961" y2="1223.959961" stroke="red" stroke-width="6.660000" />
<circle cx="1399.959961" cy="1246.959961" r="19.980000" fill="red">
  <title>Delhi</title>
</circle><line x1="1550.959961" y1="1223.959961" x2="1399.959961" y2="1246.959961" stroke="red" stroke-width="6.660000" />
<circle cx="605.960022" cy="1809.959961" r="19.980000" fill="red">
  <title>Mexico City</title>
</circle><line x1="1399.959961" y1="1246.959961" x2="605.960022" y2="1809.959961" stroke="red" stroke-width="6.660000" />
<circle cx="71.959999" cy="1351.959961" r="19.980000" fill="red">
  <title>New York</title>
</circle><line x1="605.960022" y1="1809.959961" x2="71.959999" y2="1351.959961" stroke="red" stroke-width="6.660000" />
<circle cx="391.959991" cy="1325.959961" r="19.980000" fill="red">
  <title>Karachi</title>
</circle><line x1="71.959999" y1="1351.959961" x2="391.959991" y2="1325.959961" stroke="red" stroke-width="6.660000" />
<circle cx="543.960022" cy="233.959991" r="19.980000" fill="red">
  <title>Shanghai</title>
</circle><line x1="391.959991" y1="1325.959961" x2="543.960022" y2="233.959991" stroke="red" stroke-width="6.660000" />
<circle cx="1384.959961" cy="98.959999" r="19.980000" fill="red">
  <title>Cairo</title>
</circle><line x1="543.960022" y1="233.959991" x2="1384.959961" y2="98.959999" stroke="red" stroke-width="6.660000" />
<circle cx="1325.959961" cy="271.959991" r="19.980000" fill="red">
  <title>Buenos Aires</title>
</circle><line x1="1384.959961" y1="98.959999" x2="1325.959961" y2="271.959991" stroke="red" stroke-width="6.660000" />
<circle cx="1529.959961" cy="631.960022" r="19.980000" fill="red">
  <title>Mumbai</title>
</circle><line x1="1325.959961" y1="271.959991" x2="1529.959961" y2="631.960022" stroke="red" stroke-width="6.660000" />
<circle cx="1666.959961" cy="972.960022" r="19.980000" fill="red">
  <title>Osaka</title>
</circle><line x1="1529.959961" y1="631.960022" x2="1666.959961" y2="972.960022" stroke="red" stroke-width="6.660000" />
<circle cx="1996.959961" cy="922.960022" r="19.980000" fill="red">
  <title>Beijing</title>
</circle><line x1="1666.959961" y1="972.960022" x2="1996.959961" y2="922.960022" stroke="red" stroke-width="6.660000" />
<circle cx="2031.959961" cy="1157.959961" r="19.980000" fill="red">
  <title>São Paulo</title>
</circle><line x1="1996.959961" y1="922.960022" x2="2031.959961" y2="1157.959961" stroke="red" stroke-width="6.660000" />
<circle cx="1976.959961" cy="1439.959961" r="19.980000" fill="red">
  <title>Dhaka</title>
</circle><line x1="2031.959961" y1="1157.959961" x2="1976.959961" y2="1439.959961" stroke="red" stroke-width="6.660000" />
</svg>
