<?xml version="1.0" encoding="UTF-8" standalone="no"?>
<svg width="500" height="500" viewBox="0 0 2074.000000 2074.000000" xmlns="http://www.w3.org/2000/svg">
<rect x="19.000000" y="19.000000" width="2036.000000" height="2036.000000" fill="black" />
<circle cx="1556.959961" cy="1456.959961" r="19.980000" fill="red">
  <title>Tokyo</title>
</circle><line x1="1987.959961" y1="1807.959961" x2="1556.959961" y2="1456.959961" stroke="red" stroke-width="6.660000" />
<circle cx="1396.959961" cy="1539.959961" r="19.980000" fill="red">
  <title>Mexico City</title>
</circle><line x1="1556.959961" y1="1456.959961" x2="1396.959961" y2="1539.959961" stroke="red" stroke-width="6.660000" />
<circle cx="1198.959961" cy="1823.959961" r="19.980000" fill="red">
  <title>Beijing</title>
</circle><line x1="1396.959961" y1="1539.959961" x2="1198.959961" y2="1823.959961" stroke="red" stroke-width="6.660000" />
<circle cx="1130.959961" cy="1626.959961" r="19.980000" fill="red">
  <title>Buenos Aires</title>
</circle><line x1="1198.959961" y1="1823.959961" x2="1130.959961" y2="1626.959961" stroke="red" stroke-width="6.660000" />
<circle cx="1034.959961" cy="1379.959961" r="19.980000" fill="red">
  <title>Rio de Janeiro</title>
</circle><line x1="1130.959961" y1="1626.959961" x2="1034.959961" y2="1379.959961" stroke="red" stroke-width="6.660000" />
<circle cx="232.959991" cy="1265.959961" r="19.980000" fill="red">
  <title>Shanghai</title>
</circle><line x1="1034.959961" y1="1379.959961" x2="232.959991" y2="1265.959961" stroke="red" stroke-width="6.660000" />
<circle cx="693.960022" cy="717.960022" r="19.980000" fill="red">
  <title>São Paulo</title>
</circle><line x1="232.959991" y1="1265.959961" x2="693.960022" y2="717.960022" stroke="red" stroke-width="6.660000" />
<circle cx="637.960022" cy="569.960022" r="19.980000" fill="red">
  <title>Istanbul</title>
</circle><line x1="693.960022" y1="717.960022" x2="637.960022" y2="569.960022" stroke="red" stroke-width="6.660000" />
<circle cx="324.959991" cy="423.959991" r="19.980000" fill="red">
  <title>Chongqing</title>
</circle><line x1="637.960022" y1="569.960022" x2="324.959991" y2="423.959991" stroke="red" stroke-width="6.660000" />
<circle cx="208.959991" cy="155.959991" r="19.980000" fill="red">
  <title>Kolkata</title>
</circle><line x1="324.959991" y1="423.959991" x2="208.959991" y2="155.959991" stroke="red" stroke-width="6.660000" />
<circle cx="725.960022" cy="182.959991" r="19.980000" fill="red">
  <title>Lagos</title>
</circle><line x1="208.959991" y1="155.959991" x2="725.960022" y2="182.959991" stroke="red" stroke-width="6.660000" />
<circle cx="1725.959961" cy="209.959991" r="19.980000" fill="red">
  <title>Dhaka</title>
</circle><line x1="725.960022" y1="182.959991" x2="1725.959961" y2="209.959991" stroke="red" stroke-width="6.660000" />
<circle cx="1637.959961" cy="608.960022" r="19.980000" fill="red">
  <title>Delhi</title>
</circle><line x1="1725.959961" y1="209.959991" x2="1637.959961" y2="608.960022" stroke="red" stroke-width="6.660000" />
<circle cx="1618.959961" cy="993.960022" r="19.980000" fill="red">
  <title>Karachi</title>
</circle><line x1="1637.959961" y1="608.960022" x2="1618.959961" y2="993.960022" stroke="red" stroke-width="6.660000" />
<circle cx="1871.959961" cy="937.960022" r="19.980000" fill="red">
  <title>Osaka</title>
</circle><line x1="1618.959961" y1="993.960022" x2="1871.959961" y2="937.960022" stroke="red" stroke-width="6.660000" />
<circle cx="1911.959961" cy="1253.959961" r="19.980000" fill="red">
  <title>Mumbai</title>
</circle><line x1="1871.959961" y1="937.960022" x2="1911.959961" y2="1253.959961" stroke="red" stroke-width="6.660000" />
<circle cx="2032.959961" cy="1219.959961" r="19.980000" fill="red">
  <title>Cairo</title>
</circle><line x1="1911.959961" y1="1253.959961" x2="2032.959961" y2="1219.959961" stroke="red" stroke-width="6.660000" />
<circle cx="2027.959961" cy="1300.959961" r="19.980000" fill="red">
  <title>New York</title>
</circle><line x1="2032.959961" y1="1219.959961" x2="2027.959961" y2="1300.959961" stroke="red" stroke-width="6.660000" />
<circle cx="1987.959961" cy="1807.959961" r="19.980000" fill="red">
  <title>Manila</title>
</circle><line x1="2027.959961" y1="1300.959961" x2="1987.959961" y2="1807.959961" stroke="red" stroke-width="6.660000" />
</svg>
