<?xml version="1.0" encoding="UTF-8" standalone="no"?>
<svg width="500" height="500" viewBox="0 0 2074.000000 2074.000000" xmlns="http://www.w3.org/2000/svg">
<rect x="19.000000" y="19.000000" width="2036.000000" height="2036.000000" fill="black" />
<circle cx="61.959999" cy="1744.959961" r="19.980000" fill="red">
  <title>Tokyo</title>
</circle><line x1="109.959999" y1="1300.959961" x2="61.959999" y2="1744.959961" stroke="red" stroke-width="6.660000" />
<circle cx="417.959991" cy="1915.959961" r="19.980000" fill="red">
  <title>Shanghai</title>
</circle><line x1="61.959999" y1="1744.959961" x2="417.959991" y2="1915.959961" stroke="red" stroke-width="6.660000" />
<circle cx="874.960022" cy="1437.959961" r="19.980000" fill="red">
  <title>Cairo</title>
</circle><line x1="417.959991" y1="1915.959961" x2="874.960022" y2="1437.959961" stroke="red" stroke-width="6.660000" />
<circle cx="1626.959961" cy="1095.959961" r="19.980000" fill="red">
  <title>Mumbai</title>
</circle><line x1="874.960022" y1="1437.959961" x2="1626.959961" y2="1095.959961" stroke="red" stroke-width="6.660000" />
<circle cx="1964.959961" cy="53.959999" r="19.980000" fill="red">
  <title>Beijing</title>
</circle><line x1="1626.959961" y1="1095.959961" x2="1964.959961" y2="53.959999" stroke="red" stroke-width="6.660000" />
<circle cx="1149.959961" cy="473.959991" r="19.980000" fill="red">
  <title>Mexico City</title>
</circle><line x1="1964.959961" y1="53.959999" x2="1149.959961" y2="473.959991" stroke="red" stroke-width="6.660000" />
<circle cx="995.960022" cy="762.960022" r="19.980000" fill="red">
  <title>Delhi</title>
</circle><line x1="1149.959961" y1="473.959991" x2="995.960022" y2="762.960022" stroke="red" stroke-width="6.660000" />
<circle cx="122.959999" cy="235.959991" r="19.980000" fill="red">
  <title>Dhaka</title>
</circle><line x1="995.960022" y1="762.960022" x2="122.959999" y2="235.959991" stroke="red" stroke-width="6.660000" />
<circle cx="109.959999" cy="1300.959961" r="19.980000" fill="red">
  <title>São Paulo</title>
</circle><line x1="122.959999" y1="235.959991" x2="109.959999" y2="1300.959961" stroke="red" stroke-width="6.660000" />
</svg>
