<?xml version="1.0" encoding="UTF-8" standalone="no"?>
<svg width="500" height="500" viewBox="0 0 2074.000000 2074.000000" xmlns="http://www.w3.org/2000/svg">
<rect x="19.000000" y="19.000000" width="2036.000000" height="2036.000000" fill="black" />
<circle cx="787.960022" cy="1251.959961" r="19.980000" fill="red">
  <title>Tokyo</title>
</circle><line x1="390.959991" y1="773.960022" x2="787.960022" y2="1251.959961" stroke="red" stroke-width="6.660000" />
<circle cx="1749.959961" cy="684.960022" r="19.980000" fill="red">
  <title>Delhi</title>
</circle><line x1="787.960022" y1="1251.959961" x2="1749.959961" y2="684.960022" stroke="red" stroke-width="6.660000" />
<circle cx="1869.959961" cy="1088.959961" r="19.980000" fill="red">
  <title>Mumbai</title>
</circle><line x1="1749.959961" y1="684.960022" x2="1869.959961" y2="1088.959961" stroke="red" stroke-width="6.660000" />
<circle cx="2011.959961" cy="1979.959961" r="19.980000" fill="red">
  <title>Cairo</title>
</circle><line x1="1869.959961" y1="1088.959961" x2="2011.959961" y2="1979.959961" stroke="red" stroke-width="6.660000" />
<circle cx="1156.959961" cy="1731.959961" r="19.980000" fill="red">
  <title>São Paulo</title>
</circle><line x1="2011.959961" y1="1979.959961" x2="1156.959961" y2="1731.959961" stroke="red" stroke-width="6.660000" />
<circle cx="100.959999" cy="1776.959961" r="19.980000" fill="red">
  <title>Shanghai</title>
</circle><line x1="1156.959961" y1="1731.959961" x2="100.959999" y2="1776.959961" stroke="red" stroke-width="6.660000" />
<circle cx="390.959991" cy="773.960022" r="19.980000" fill="red">
  <title>Mexico City</title>
</circle><line x1="100.959999" y1="1776.959961" x2="390.959991" y2="773.960022" stroke="red" stroke-width="6.660000" />
</svg>
