<?xml version="1.0" encoding="UTF-8" standalone="no"?>
<svg width="500" height="500" viewBox="0 0 2074.000000 2074.000000" xmlns="http://www.w3.org/2000/svg">
<rect x="19.000000" y="19.000000" width="2036.000000" height="2036.000000" fill="black" />
<circle cx="1101.959961" cy="945.960022" r="19.980000" fill="red">
  <title>Tokyo</title>
</circle><line x1="744.960022" y1="1024.959961" x2="1101.959961" y2="945.960022" stroke="red" stroke-width="6.660000" />
<circle cx="1436.959961" cy="870.960022" r="19.980000" fill="red">
  <title>New York</title>
</circle><line x1="1101.959961" y1="945.960022" x2="1436.959961" y2="870.960022" stroke="red" stroke-width="6.660000" />
<circle cx="1447.959961" cy="790.960022" r="19.980000" fill="red">
  <title>Mexico City</title>
</circle><line x1="1436.959961" y1="870.960022" x2="1447.959961" y2="790.960022" stroke="red" stroke-width="6.660000" />
<circle cx="1505.959961" cy="634.960022" r="19.980000" fill="red">
  <title>Lagos</title>
</circle><line x1="1447.959961" y1="790.960022" x2="1505.959961" y2="634.960022" stroke="red" stroke-width="6.660000" />
<circle cx="1858.959961" cy="892.960022" r="19.980000" fill="red">
  <title>Osaka</title>
</circle><line x1="1505.959961" y1="634.960022" x2="1858.959961" y2="892.960022" stroke="red" stroke-width="6.660000" />
<circle cx="2008.959961" cy="823.960022" r="19.980000" fill="red">
  <title>Buenos Aires</title>
</circle><line x1="1858.959961" y1="892.960022" x2="2008.959961" y2="823.960022" stroke="red" stroke-width="6.660000" />
<circle cx="1931.959961" cy="1531.959961" r="19.980000" fill="red">
  <title>Manila</title>
</circle><line x1="2008.959961" y1="823.960022" x2="1931.959961" y2="1531.959961" stroke="red" stroke-width="6.660000" />
<circle cx="2023.959961" cy="1701.959961" r="19.980000" fill="red">
  <title>Beijing</title>
</circle><line x1="1931.959961" y1="1531.959961" x2="2023.959961" y2="1701.959961" stroke="red" stroke-width="6.660000" />
<circle cx="1176.959961" cy="1806.959961" r="19.980000" fill="red">
  <title>Kolkata</title>
</circle><line x1="2023.959961" y1="1701.959961" x2="1176.959961" y2="1806.959961" stroke="red" stroke-width="6.660000" />
<circle cx="722.960022" cy="1466.959961" r="19.980000" fill="red">
  <title>Chongqing</title>
</circle><line x1="1176.959961" y1="1806.959961" x2="722.960022" y2="1466.959961" stroke="red" stroke-width="6.660000" />
<circle cx="629.960022" cy="1421.959961" r="19.980000" fill="red">
  <title>Mumbai</title>
</circle><line x1="722.960022" y1="1466.959961" x2="629.960022" y2="1421.959961" stroke="red" stroke-width="6.660000" />
<circle cx="393.959991" cy="1736.959961" r="19.980000" fill="red">
  <title>Delhi</title>
</circle><line x1="629.960022" y1="1421.959961" x2="393.959991" y2="1736.959961" stroke="red" stroke-width="6.660000" />
<circle cx="71.959999" cy="1540.959961" r="19.980000" fill="red">
  <title>Karachi</title>
</circle><line x1="393.959991" y1="1736.959961" x2="71.959999" y2="1540.959961" stroke="red" stroke-width="6.660000" />
<circle cx="306.959991" cy="1184.959961" r="19.980000" fill="red">
  <title>Dhaka</title>
</circle><line x1="71.959999" y1="1540.959961" x2="306.959991" y2="1184.959961" stroke="red" stroke-width="6.660000" />
<circle cx="119.959999" cy="938.960022" r="19.980000" fill="red">
  <title>Cairo</title>
</circle><line x1="306.959991" y1="1184.959961" x2="119.959999" y2="938.960022" stroke="red" stroke-width="6.660000" />
<circle cx="90.959999" cy="771.960022" r="19.980000" fill="red">
  <title>São Paulo</title>
</circle><line x1="119.959999" y1="938.960022" x2="90.959999" y2="771.960022" stroke="red" stroke-width="6.660000" />
<circle cx="741.960022" cy="495.959991" r="19.980000" fill="red">
  <title>Shanghai</title>
</circle><line x1="90.959999" y1="771.960022" x2="741.960022" y2="495.959991" stroke="red" stroke-width="6.660000" />
<circle cx="744.960022" cy="1024.959961" r="19.980000" fill="red">
  <title>Istanbul</title>
</circle><line x1="741.960022" y1="495.959991" x2="744.960022" y2="1024.959961" stroke="red" stroke-width="6.660000" />
</svg>
