<?xml version="1.0" encoding="UTF-8" standalone="no"?>
<svg width="500" height="500" viewBox="0 0 2074.000000 2074.000000" xmlns="http://www.w3.org/2000/svg">
<rect x="19.000000" y="19.000000" width="2036.000000" height="2036.000000" fill="black" />
<circle cx="1648.959961" cy="1863.959961" r="19.980000" fill="red">
  <title>Tokyo</title>
</circle><line x1="1364.959961" y1="1881.959961" x2="1648.959961" y2="1863.959961" stroke="red" stroke-width="6.660000" />
<circle cx="1565.959961" cy="1294.959961" r="19.980000" fill="red">
  <title>São Paulo</title>
</circle><line x1="1648.959961" y1="1863.959961" x2="1565.959961" y2="1294.959961" stroke="red" stroke-width="6.660000" />
<circle cx="1512.959961" cy="770.960022" r="19.980000" fill="red">
  <title>Buenos Aires</title>
</circle><line x1="1565.959961" y1="1294.959961" x2="1512.959961" y2="770.960022" stroke="red" stroke-width="6.660000" />
<circle cx="1923.959961" cy="604.960022" r="19.980000" fill="red">
  <title>Chongqing</title>
</circle><line x1="1512.959961" y1="770.960022" x2="1923.959961" y2="604.960022" stroke="red" stroke-width="6.660000" />
<circle cx="1776.959961" cy="488.959991" r="19.980000" fill="red">
  <title>Shanghai</title>
</circle><line x1="1923.959961" y1="604.960022" x2="1776.959961" y2="488.959991" stroke="red" stroke-width="6.660000" />
<circle cx="1603.959961" cy="114.959999" r="19.980000" fill="red">
  <title>New York</title>
</circle><line x1="1776.959961" y1="488.959991" x2="1603.959961" y2="114.959999" stroke="red" stroke-width="6.660000" />
<circle cx="901.960022" cy="683.960022" r="19.980000" fill="red">
  <title>Cairo</title>
</circle><line x1="1603.959961" y1="114.959999" x2="901.960022" y2="683.960022" stroke="red" stroke-width="6.660000" />
<circle cx="561.960022" cy="518.960022" r="19.980000" fill="red">
  <title>Mexico City</title>
</circle><line x1="901.960022" y1="683.960022" x2="561.960022" y2="518.960022" stroke="red" stroke-width="6.660000" />
<circle cx="635.960022" cy="252.959991" r="19.980000" fill="red">
  <title>Manila</title>
</circle><line x1="561.960022" y1="518.960022" x2="635.960022" y2="252.959991" stroke="red" stroke-width="6.660000" />
<circle cx="123.959999" cy="203.959991" r="19.980000" fill="red">
  <title>Delhi</title>
</circle><line x1="635.960022" y1="252.959991" x2="123.959999" y2="203.959991" stroke="red" stroke-width="6.660000" />
<circle cx="126.959999" cy="329.959991" r="19.980000" fill="red">
  <title>Beijing</title>
</circle><line x1="123.959999" y1="203.959991" x2="126.959999" y2="329.959991" stroke="red" stroke-width="6.660000" />
<circle cx="157.959991" cy="531.960022" r="19.980000" fill="red">
  <title>Dhaka</title>
</circle><line x1="126.959999" y1="329.959991" x2="157.959991" y2="531.960022" stroke="red" stroke-width="6.660000" />
<circle cx="342.959991" cy="809.960022" r="19.980000" fill="red">
  <title>Istanbul</title>
</circle><line x1="157.959991" y1="531.960022" x2="342.959991" y2="809.960022" stroke="red" stroke-width="6.660000" />
<circle cx="429.959991" cy="891.960022" r="19.980000" fill="red">
  <title>Mumbai</title>
</circle><line x1="342.959991" y1="809.960022" x2="429.959991" y2="891.960022" stroke="red" stroke-width="6.660000" />
<circle cx="205.959991" cy="1819.959961" r="19.980000" fill="red">
  <title>Osaka</title>
</circle><line x1="429.959991" y1="891.960022" x2="205.959991" y2="1819.959961" stroke="red" stroke-width="6.660000" />
<circle cx="168.959991" cy="1952.959961" r="19.980000" fill="red">
  <title>Kolkata</title>
</circle><line x1="205.959991" y1="1819.959961" x2="168.959991" y2="1952.959961" stroke="red" stroke-width="6.660000" />
<circle cx="1364.959961" cy="1881.959961" r="19.980000" fill="red">
  <title>Karachi</title>
</circle><line x1="168.959991" y1="1952.959961" x2="1364.959961" y2="1881.959961" stroke="red" stroke-width="6.660000" />
</svg>
