<?xml version="1.0" encoding="UTF-8" standalone="no"?>
<svg width="500" height="500" viewBox="0 0 2074.000000 2074.000000" xmlns="http://www.w3.org/2000/svg">
<rect x="19.000000" y="19.000000" width="2036.000000" height="2036.000000" fill="black" />
<circle cx="1867.959961" cy="1346.959961" r="19.980000" fill="red">
  <title>Tokyo</title>
</circle><line x1="1067.959961" y1="1904.959961" x2="1867.959961" y2="1346.959961" stroke="red" stroke-width="6.660000" />
<circle cx="1354.959961" cy="854.960022" r="19.980000" fill="red">
  <title>Shanghai</title>
</circle><line x1="1867.959961" y1="1346.959961" x2="1354.959961" y2="854.960022" stroke="red" stroke-width="6.660000" />
<circle cx="632.960022" cy="230.959991" r="19.980000" fill="red">
  <title>Cairo</title>
</circle><line x1="1354.959961" y1="854.960022" x2="632.960022" y2="230.959991" stroke="red" stroke-width="6.660000" />
<circle cx="700.960022" cy="1828.959961" r="19.980000" fill="red">
  <title>São Paulo</title>
</circle><line x1="632.960022" y1="230.959991" x2="700.960022" y2="1828.959961" stroke="red" stroke-width="6.660000" />
<circle cx="316.959991" cy="1928.959961" r="19.980000" fill="red">
  <title>Delhi</title>
</circle><line x1="700.960022" y1="1828.959961" x2="316.959991" y2="1928.959961" stroke="red" stroke-width="6.660000" />
<circle cx="1067.959961" cy="1904.959961" r="19.980000" fill="red">
  <title>Mexico City</title>
</circle><line x1="316.959991" y1="1928.959961" x2="1067.959961" y2="1904.959961" stroke="red" stroke-width="6.660000" />
</svg>
