<?xml version="1.0" encoding="UTF-8" standalone="no"?>
<svg width="500" height="500" viewBox="0 0 2074.000000 2074.000000" xmlns="http://www.w3.org/2000/svg">
<rect x="19.000000" y="19.000000" width="2036.000000" height="2036.000000" fill="black" />
<circle cx="1674.959961" cy="157.959991" r="19.980000" fill="red">
  <title>Tokyo</title>
</circle><line x1="1473.959961" y1="679.960022" x2="1674.959961" y2="157.959991" stroke="red" stroke-width="6.660000" />
<circle cx="1820.959961" cy="508.959991" r="19.980000" fill="red">
  <title>Cairo</title>
</circle><line x1="1674.959961" y1="157.959991" x2="1820.959961" y2="508.959991" stroke="red" stroke-width="6.660000" />
<circle cx="1975.959961" cy="1570.959961" r="19.980000" fill="red">
  <title>Mexico City</title>
</circle><line x1="1820.959961" y1="508.959991" x2="1975.959961" y2="1570.959961" stroke="red" stroke-width="6.660000" />
<circle cx="738.960022" cy="1663.959961" r="19.980000" fill="red">
  <title>Dhaka</title>
</circle><line x1="1975.959961" y1="1570.959961" x2="738.960022" y2="1663.959961" stroke="red" stroke-width="6.660000" />
<circle cx="382.959991" cy="777.960022" r="19.980000" fill="red">
  <title>Delhi</title>
</circle><line x1="738.960022" y1="1663.959961" x2="382.959991" y2="777.960022" stroke="red" stroke-width="6.660000" />
<circle cx="560.960022" cy="454.959991" r="19.980000" fill="red">
  <title>Mumbai</title>
</circle><line x1="382.959991" y1="777.960022" x2="560.960022" y2="454.959991" stroke="red" stroke-width="6.660000" />
<circle cx="964.960022" cy="822.960022" r="19.980000" fill="red">
  <title>Shanghai</title>
</circle><line x1="560.960022" y1="454.959991" x2="964.960022" y2="822.960022" stroke="red" stroke-width="6.660000" />
<circle cx="1230.959961" cy="618.960022" r="19.980000" fill="red">
  <title>São Paulo</title>
</circle><line x1="964.960022" y1="822.960022" x2="1230.959961" y2="618.960022" stroke="red" stroke-width="6.660000" />
<circle cx="1473.959961" cy="679.960022" r="19.980000" fill="red">
  <title>Beijing</title>
</circle><line x1="1230.959961" y1="618.960022" x2="1473.959961" y2="679.960022" stroke="red" stroke-width="6.660000" />
</svg>
