<?xml version="1.0" encoding="UTF-8" standalone="no"?>
<svg width="500" height="500" viewBox="0 0 2074.000000 2074.000000" xmlns="http://www.w3.org/2000/svg">
<rect x="19.000000" y="19.000000" width="2036.000000" height="2036.000000" fill="black" />
<circle cx="1751.959961" cy="1859.959961" r="19.980000" fill="red">
  <title>Tokyo</title>
</circle><line x1="626.960022" y1="1954.959961" x2="1751.959961" y2="1859.959961" stroke="red" stroke-width="6.660000" />
<circle cx="1567.959961" cy="1226.959961" r="19.980000" fill="red">
  <title>Cairo</title>
</circle><line x1="1751.959961" y1="1859.959961" x2="1567.959961" y2="1226.959961" stroke="red" stroke-width="6.660000" />
<circle cx="1673.959961" cy="961.960022" r="19.980000" fill="red">
  <title>Delhi</title>
</circle><line x1="1567.959961" y1="1226.959961" x2="1673.959961" y2="961.960022" stroke="red" stroke-width="6.660000" />
<circle cx="1798.959961" cy="105.959999" r="19.980000" fill="red">
  <title>Beijing</title>
</circle><line x1="1673.959961" y1="961.960022" x2="1798.959961" y2="105.959999" stroke="red" stroke-width="6.660000" />
<circle cx="1182.959961" cy="245.959991" r="19.980000" fill="red">
  <title>Dhaka</title>
</circle><line x1="1798.959961" y1="105.959999" x2="1182.959961" y2="245.959991" stroke="red" stroke-width="6.660000" />
<circle cx="1003.960022" cy="458.959991" r="19.980000" fill="red">
  <title>Shanghai</title>
</circle><line x1="1182.959961" y1="245.959991" x2="1003.960022" y2="458.959991" stroke="red" stroke-width="6.660000" />
<circle cx="526.960022" cy="562.960022" r="19.980000" fill="red">
  <title>São Paulo</title>
</circle><line x1="1003.960022" y1="458.959991" x2="526.960022" y2="562.960022" stroke="red" stroke-width="6.660000" />
<circle cx="1038.959961" cy="1219.959961" r="19.980000" fill="red">
  <title>Osaka</title>
</circle><line x1="526.960022" y1="562.960022" x2="1038.959961" y2="1219.959961" stroke="red" stroke-width="6.660000" />
<circle cx="890.960022" cy="1504.959961" r="19.980000" fill="red">
  <title>Mexico City</title>
</circle><line x1="1038.959961" y1="1219.959961" x2="890.960022" y2="1504.959961" stroke="red" stroke-width="6.660000" />
<circle cx="626.960022" cy="1954.959961" r="19.980000" fill="red">
  <title>Mumbai</title>
</circle><line x1="890.960022" y1="1504.959961" x2="626.960022" y2="1954.959961" stroke="red" stroke-width="6.660000" />
</svg>
