<?xml version="1.0" encoding="UTF-8" standalone="no"?>
<svg width="500" height="500" viewBox="0 0 2074.000000 2074.000000" xmlns="http://www.w3.org/2000/svg">
<rect x="19.000000" y="19.000000" width="2036.000000" height="2036.000000" fill="black" />
<circle cx="44.959999" cy="1951.959961" r="19.980000" fill="red">
  <title>Tokyo</title>
</circle><line x1="227.959991" y1="1752.959961" x2="44.959999" y2="1951.959961" stroke="red" stroke-width="6.660000" />
<circle cx="221.959991" cy="1606.959961" r="19.980000" fill="red">
  <title>Mumbai</title>
</circle><line x1="44.959999" y1="1951.959961" x2="221.959991" y2="1606.959961" stroke="red" stroke-width="6.660000" />
<circle cx="81.959999" cy="773.960022" r="19.980000" fill="red">
  <title>Shanghai</title>
</circle><line x1="221.959991" y1="1606.959961" x2="81.959999" y2="773.960022" stroke="red" stroke-width="6.660000" />
<circle cx="80.959999" cy="622.960022" r="19.980000" fill="red">
  <title>New York</title>
</circle><line x1="81.959999" y1="773.960022" x2="80.959999" y2="622.960022" stroke="red" stroke-width="6.660000" />
<circle cx="433.959991" cy="353.959991" r="19.980000" fill="red">
  <title>São Paulo</title>
</circle><line x1="80.959999" y1="622.960022" x2="433.959991" y2="353.959991" stroke="red" stroke-width="6.660000" />
<circle cx="620.960022" cy="296.959991" r="19.980000" fill="red">
  <title>Delhi</title>
</circle><line x1="433.959991" y1="353.959991" x2="620.960022" y2="296.959991" stroke="red" stroke-width="6.660000" />
<circle cx="950.960022" cy="333.959991" r="19.980000" fill="red">
  <title>Karachi</title>
</circle><line x1="620.960022" y1="296.959991" x2="950.960022" y2="333.959991" stroke="red" stroke-width="6.660000" />
<circle cx="1595.959961" cy="92.959999" r="19.980000" fill="red">
  <title>Cairo</title>
</circle><line x1="950.960022" y1="333.959991" x2="1595.959961" y2="92.959999" stroke="red" stroke-width="6.660000" />
<circle cx="962.960022" cy="356.959991" r="19.980000" fill="red">
  <title>Dhaka</title>
</circle><line x1="1595.959961" y1="92.959999" x2="962.960022" y2="356.959991" stroke="red" stroke-width="6.660000" />
<circle cx="1104.959961" cy="1015.960022" r="19.980000" fill="red">
  <title>Mexico City</title>
</circle><line x1="962.960022" y1="356.959991" x2="1104.959961" y2="1015.960022" stroke="red" stroke-width="6.660000" />
<circle cx="703.960022" cy="1253.959961" r="19.980000" fill="red">
  <title>Beijing</title>
</circle><line x1="1104.959961" y1="1015.960022" x2="703.960022" y2="1253.959961" stroke="red" stroke-width="6.660000" />
<circle cx="227.959991" cy="1752.959961" r="19.980000" fill="red">
  <title>Osaka</title>
</circle><line x1="703.960022" y1="1253.959961" x2="227.959991" y2="1752.959961" stroke="red" stroke-width="6.660000" />
</svg>
