<?xml version="1.0" encoding="UTF-8" standalone="no"?>
<svg width="500" height="500" viewBox="0 0 2074.000000 2074.000000" xmlns="http://www.w3.org/2000/svg">
<rect x="19.000000" y="19.000000" width="2036.000000" height="2036.000000" fill="black" />
<circle cx="1612.959961" cy="804.960022" r="19.980000" fill="red">
  <title>Tokyo</title>
</circle><line x1="659.960022" y1="1919.959961" x2="1612.959961" y2="804.960022" stroke="red" stroke-width="6.660000" />
<circle cx="90.959999" cy="2003.959961" r="19.980000" fill="red">
  <title>Delhi</title>
</circle><line x1="1612.959961" y1="804.960022" x2="90.959999" y2="2003.959961" stroke="red" stroke-width="6.660000" />
<circle cx="659.960022" cy="1919.959961" r="19.980000" fill="red">
  <title>Shanghai</title>
</circle><line x1="90.959999" y1="2003.959961" x2="659.960022" y2="1919.959961" stroke="red" stroke-width="6.660000" />
</svg>
