<?xml version="1.0" encoding="UTF-8" standalone="no"?>
<svg width="500" height="500" viewBox="0 0 2074.000000 2074.000000" xmlns="http://www.w3.org/2000/svg">
<rect x="19.000000" y="19.000000" width="2036.000000" height="2036.000000" fill="black" />
<circle cx="1970.959961" cy="1042.959961" r="19.980000" fill="red">
  <title>Tokyo</title>
</circle><line x1="1185.959961" y1="1137.959961" x2="1970.959961" y2="1042.959961" stroke="red" stroke-width="6.660000" />
<circle cx="2037.959961" cy="1494.959961" r="19.980000" fill="red">
  <title>Shanghai</title>
</circle><line x1="1970.959961" y1="1042.959961" x2="2037.959961" y2="1494.959961" stroke="red" stroke-width="6.660000" />
<circle cx="662.960022" cy="1551.959961" r="19.980000" fill="red">
  <title>Mexico City</title>
</circle><line x1="2037.959961" y1="1494.959961" x2="662.960022" y2="1551.959961" stroke="red" stroke-width="6.660000" />
<circle cx="377.959991" cy="1580.959961" r="19.980000" fill="red">
  <title>Delhi</title>
</circle><line x1="662.960022" y1="1551.959961" x2="377.959991" y2="1580.959961" stroke="red" stroke-width="6.660000" />
<circle cx="1185.959961" cy="1137.959961" r="19.980000" fill="red">
  <title>São Paulo</title>
</circle><line x1="377.959991" y1="1580.959961" x2="1185.959961" y2="1137.959961" stroke="red" stroke-width="6.660000" />
</svg>
