<?xml version="1.0" encoding="UTF-8" standalone="no"?>
<svg width="500" height="500" viewBox="0 0 2074.000000 2074.000000" xmlns="http://www.w3.org/2000/svg">
<rect x="19.000000" y="19.000000" width="2036.000000" height="2036.000000" fill="black" />
<circle cx="1711.959961" cy="1554.959961" r="19.980000" fill="red">
  <title>Tokyo</title>
</circle><line x1="1726.959961" y1="1212.959961" x2="1711.959961" y2="1554.959961" stroke="red" stroke-width="6.660000" />
<circle cx="1377.959961" cy="1760.959961" r="19.980000" fill="red">
  <title>Beijing</title>
</circle><line x1="1711.959961" y1="1554.959961" x2="1377.959961" y2="1760.959961" stroke="red" stroke-width="6.660000" />
<circle cx="732.960022" cy="2007.959961" r="19.980000" fill="red">
  <title>Cairo</title>
</circle><line x1="1377.959961" y1="1760.959961" x2="732.960022" y2="2007.959961" stroke="red" stroke-width="6.660000" />
<circle cx="634.960022" cy="1953.959961" r="19.980000" fill="red">
  <title>New York</title>
</circle><line x1="732.960022" y1="2007.959961" x2="634.960022" y2="1953.959961" stroke="red" stroke-width="6.660000" />
<circle cx="1075.959961" cy="1278.959961" r="19.980000" fill="red">
  <title>Delhi</title>
</circle><line x1="634.960022" y1="1953.959961" x2="1075.959961" y2="1278.959961" stroke="red" stroke-width="6.660000" />
<circle cx="711.960022" cy="1080.959961" r="19.980000" fill="red">
  <title>Dhaka</title>
</circle><line x1="1075.959961" y1="1278.959961" x2="711.960022" y2="1080.959961" stroke="red" stroke-width="6.660000" />
<circle cx="159.959991" cy="358.959991" r="19.980000" fill="red">
  <title>Chongqing</title>
</circle><line x1="711.960022" y1="1080.959961" x2="159.959991" y2="358.959991" stroke="red" stroke-width="6.660000" />
<circle cx="552.960022" cy="492.959991" r="19.980000" fill="red">
  <title>Mumbai</title>
</circle><line x1="159.959991" y1="358.959991" x2="552.960022" y2="492.959991" stroke="red" stroke-width="6.660000" />
<circle cx="1097.959961" cy="489.959991" r="19.980000" fill="red">
  <title>Osaka</title>
</circle><line x1="552.960022" y1="492.959991" x2="1097.959961" y2="489.959991" stroke="red" stroke-width="6.660000" />
<circle cx="1412.959961" cy="431.959991" r="19.980000" fill="red">
  <title>Shanghai</title>
</circle><line x1="1097.959961" y1="489.959991" x2="1412.959961" y2="431.959991" stroke="red" stroke-width="6.660000" />
<circle cx="1433.959961" cy="359.959991" r="19.980000" fill="red">
  <title>Buenos Aires</title>
</circle><line x1="1412.959961" y1="431.959991" x2="1433.959961" y2="359.959991" stroke="red" stroke-width="6.660000" />
<circle cx="1903.959961" cy="206.959991" r="19.980000" fill="red">
  <title>São Paulo</title>
</circle><line x1="1433.959961" y1="359.959991" x2="1903.959961" y2="206.959991" stroke="red" stroke-width="6.660000" />
<circle cx="1790.959961" cy="1061.959961" r="19.980000" fill="red">
  <title>Mexico City</title>
</circle><line x1="1903.959961" y1="206.959991" x2="1790.959961" y2="1061.959961" stroke="red" stroke-width="6.660000" />
<circle cx="1726.959961" cy="1212.959961" r="19.980000" fill="red">
  <title>Karachi</title>
</circle><line x1="1790.959961" y1="1061.959961" x2="1726.959961" y2="1212.959961" stroke="red" stroke-width="6.660000" />
</svg>
