<?xml version="1.0" encoding="UTF-8" standalone="no"?>
<svg width="500" height="500" viewBox="0 0 2074.000000 2074.000000" xmlns="http://www.w3.org/2000/svg">
<rect x="19.000000" y="19.000000" width="2036.000000" height="2036.000000" fill="black" />
<circle cx="1272.959961" cy="240.959991" r="19.980000" fill="red">
  <title>Tokyo</title>
</circle><line x1="848.960022" y1="362.959991" x2="1272.959961" y2="240.959991" stroke="red" stroke-width="6.660000" />
<circle cx="878.960022" cy="596.960022" r="19.980000" fill="red">
  <title>Shanghai</title>
</circle><line x1="1272.959961" y1="240.959991" x2="878.960022" y2="596.960022" stroke="red" stroke-width="6.660000" />
<circle cx="1374.959961" cy="990.960022" r="19.980000" fill="red">
  <title>New York</title>
</circle><line x1="878.960022" y1="596.960022" x2="1374.959961" y2="990.960022" stroke="red" stroke-width="6.660000" />
<circle cx="1580.959961" cy="989.960022" r="19.980000" fill="red">
  <title>Mumbai</title>
</circle><line x1="1374.959961" y1="990.960022" x2="1580.959961" y2="989.960022" stroke="red" stroke-width="6.660000" />
<circle cx="1859.959961" cy="1311.959961" r="19.980000" fill="red">
  <title>Buenos Aires</title>
</circle><line x1="1580.959961" y1="989.960022" x2="1859.959961" y2="1311.959961" stroke="red" stroke-width="6.660000" />
<circle cx="1749.959961" cy="1339.959961" r="19.980000" fill="red">
  <title>Istanbul</title>
</circle><line x1="1859.959961" y1="1311.959961" x2="1749.959961" y2="1339.959961" stroke="red" stroke-width="6.660000" />
<circle cx="1366.959961" cy="1745.959961" r="19.980000" fill="red">
  <title>Karachi</title>
</circle><line x1="1749.959961" y1="1339.959961" x2="1366.959961" y2="1745.959961" stroke="red" stroke-width="6.660000" />
<circle cx="1318.959961" cy="1732.959961" r="19.980000" fill="red">
  <title>Beijing</title>
</circle><line x1="1366.959961" y1="1745.959961" x2="1318.959961" y2="1732.959961" stroke="red" stroke-width="6.660000" />
<circle cx="782.960022" cy="1667.959961" r="19.980000" fill="red">
  <title>Osaka</title>
</circle><line x1="1318.959961" y1="1732.959961" x2="782.960022" y2="1667.959961" stroke="red" stroke-width="6.660000" />
<circle cx="358.959991" cy="1487.959961" r="19.980000" fill="red">
  <title>Delhi</title>
</circle><line x1="782.960022" y1="1667.959961" x2="358.959991" y2="1487.959961" stroke="red" stroke-width="6.660000" />
<circle cx="110.959999" cy="1657.959961" r="19.980000" fill="red">
  <title>Dhaka</title>
</circle><line x1="358.959991" y1="1487.959961" x2="110.959999" y2="1657.959961" stroke="red" stroke-width="6.660000" />
<circle cx="149.959991" cy="1440.959961" r="19.980000" fill="red">
  <title>Mexico City</title>
</circle><line x1="110.959999" y1="1657.959961" x2="149.959991" y2="1440.959961" stroke="red" stroke-width="6.660000" />
<circle cx="120.959999" cy="712.960022" r="19.980000" fill="red">
  <title>Chongqing</title>
</circle><line x1="149.959991" y1="1440.959961" x2="120.959999" y2="712.960022" stroke="red" stroke-width="6.660000" />
<circle cx="165.959991" cy="46.959999" r="19.980000" fill="red">
  <title>São Paulo</title>
</circle><line x1="120.959999" y1="712.960022" x2="165.959991" y2="46.959999" stroke="red" stroke-width="6.660000" />
<circle cx="848.960022" cy="362.959991" r="19.980000" fill="red">
  <title>Cairo</title>
</circle><line x1="165.959991" y1="46.959999" x2="848.960022" y2="362.959991" stroke="red" stroke-width="6.660000" />
</svg>
