<?xml version="1.0" encoding="UTF-8" standalone="no"?>
<svg width="500" height="500" viewBox="0 0 2074.000000 2074.000000" xmlns="http://www.w3.org/2000/svg">
<rect x="19.000000" y="19.000000" width="2036.000000" height="2036.000000" fill="black" />
<circle cx="331.959991" cy="1477.959961" r="19.980000" fill="red">
  <title>Tokyo</title>
</circle><line x1="950.960022" y1="1519.959961" x2="331.959991" y2="1477.959961" stroke="red" stroke-width="6.660000" />
<circle cx="285.959991" cy="1070.959961" r="19.980000" fill="red">
  <title>Cairo</title>
</circle><line x1="331.959991" y1="1477.959961" x2="285.959991" y2="1070.959961" stroke="red" stroke-width="6.660000" />
<circle cx="1092.959961" cy="886.960022" r="19.980000" fill="red">
  <title>Karachi</title>
</circle><line x1="285.959991" y1="1070.959961" x2="1092.959961" y2="886.960022" stroke="red" stroke-width="6.660000" />
<circle cx="1052.959961" cy="324.959991" r="19.980000" fill="red">
  <title>Mexico City</title>
</circle><line x1="1092.959961" y1="886.960022" x2="1052.959961" y2="324.959991" stroke="red" stroke-width="6.660000" />
<circle cx="1037.959961" cy="277.959991" r="19.980000" fill="red">
  <title>Shanghai</title>
</circle><line x1="1052.959961" y1="324.959991" x2="1037.959961" y2="277.959991" stroke="red" stroke-width="6.660000" />
<circle cx="1514.959961" cy="659.960022" r="19.980000" fill="red">
  <title>Delhi</title>
</circle><line x1="1037.959961" y1="277.959991" x2="1514.959961" y2="659.960022" stroke="red" stroke-width="6.660000" />
<circle cx="1803.959961" cy="1196.959961" r="19.980000" fill="red">
  <title>Dhaka</title>
</circle><line x1="1514.959961" y1="659.960022" x2="1803.959961" y2="1196.959961" stroke="red" stroke-width="6.660000" />
<circle cx="1870.959961" cy="1539.959961" r="19.980000" fill="red">
  <title>Mumbai</title>
</circle><line x1="1803.959961" y1="1196.959961" x2="1870.959961" y2="1539.959961" stroke="red" stroke-width="6.660000" />
<circle cx="1912.959961" cy="1811.959961" r="19.980000" fill="red">
  <title>Osaka</title>
</circle><line x1="1870.959961" y1="1539.959961" x2="1912.959961" y2="1811.959961" stroke="red" stroke-width="6.660000" />
<circle cx="1626.959961" cy="1577.959961" r="19.980000" fill="red">
  <title>Beijing</title>
</circle><line x1="1912.959961" y1="1811.959961" x2="1626.959961" y2="1577.959961" stroke="red" stroke-width="6.660000" />
<circle cx="1023.960022" cy="1445.959961" r="19.980000" fill="red">
  <title>New York</title>
</circle><line x1="1626.959961" y1="1577.959961" x2="1023.960022" y2="1445.959961" stroke="red" stroke-width="6.660000" />
<circle cx="950.960022" cy="1519.959961" r="19.980000" fill="red">
  <title>São Paulo</title>
</circle><line x1="1023.960022" y1="1445.959961" x2="950.960022" y2="1519.959961" stroke="red" stroke-width="6.660000" />
</svg>
