<?xml version="1.0" encoding="UTF-8" standalone="no"?>
<svg width="500" height="500" viewBox="0 0 2074.000000 2074.000000" xmlns="http://www.w3.org/2000/svg">
<rect x="19.000000" y="19.000000" width="2036.000000" height="2036.000000" fill="black" />
<circle cx="1913.959961" cy="1123.959961" r="19.980000" fill="red">
  <title>Tokyo</title>
</circle><line x1="1814.959961" y1="904.960022" x2="1913.959961" y2="1123.959961" stroke="red" stroke-width="6.660000" />
<circle cx="1871.959961" cy="1179.959961" r="19.980000" fill="red">
  <title>Mumbai</title>
</circle><line x1="1913.959961" y1="1123.959961" x2="1871.959961" y2="1179.959961" stroke="red" stroke-width="6.660000" />
<circle cx="1652.959961" cy="1598.959961" r="19.980000" fill="red">
  <title>Dhaka</title>
</circle><line x1="1871.959961" y1="1179.959961" x2="1652.959961" y2="1598.959961" stroke="red" stroke-width="6.660000" />
<circle cx="1485.959961" cy="1561.959961" r="19.980000" fill="red">
  <title>Manila</title>
</circle><line x1="1652.959961" y1="1598.959961" x2="1485.959961" y2="1561.959961" stroke="red" stroke-width="6.660000" />
<circle cx="968.960022" cy="1886.959961" r="19.980000" fill="red">
  <title>Delhi</title>
</circle><line x1="1485.959961" y1="1561.959961" x2="968.960022" y2="1886.959961" stroke="red" stroke-width="6.660000" />
<circle cx="554.960022" cy="1681.959961" r="19.980000" fill="red">
  <title>Buenos Aires</title>
</circle><line x1="968.960022" y1="1886.959961" x2="554.960022" y2="1681.959961" stroke="red" stroke-width="6.660000" />
<circle cx="58.959999" cy="1641.959961" r="19.980000" fill="red">
  <title>Cairo</title>
</circle><line x1="554.960022" y1="1681.959961" x2="58.959999" y2="1641.959961" stroke="red" stroke-width="6.660000" />
<circle cx="316.959991" cy="1437.959961" r="19.980000" fill="red">
  <title>New York</title>
</circle><line x1="58.959999" y1="1641.959961" x2="316.959991" y2="1437.959961" stroke="red" stroke-width="6.660000" />
<circle cx="332.959991" cy="1066.959961" r="19.980000" fill="red">
  <title>Chongqing</title>
</circle><line x1="316.959991" y1="1437.959961" x2="332.959991" y2="1066.959961" stroke="red" stroke-width="6.660000" />
<circle cx="523.960022" cy="1266.959961" r="19.980000" fill="red">
  <title>São Paulo</title>
</circle><line x1="332.959991" y1="1066.959961" x2="523.960022" y2="1266.959961" stroke="red" stroke-width="6.660000" />
<circle cx="743.960022" cy="1289.959961" r="19.980000" fill="red">
  <title>Karachi</title>
</circle><line x1="523.960022" y1="1266.959961" x2="743.960022" y2="1289.959961" stroke="red" stroke-width="6.660000" />
<circle cx="729.960022" cy="1165.959961" r="19.980000" fill="red">
  <title>Osaka</title>
</circle><line x1="743.960022" y1="1289.959961" x2="729.960022" y2="1165.959961" stroke="red" stroke-width="6.660000" />
<circle cx="631.960022" cy="794.960022" r="19.980000" fill="red">
  <title>Kolkata</title>
</circle><line x1="729.960022" y1="1165.959961" x2="631.960022" y2="794.960022" stroke="red" stroke-width="6.660000" />
<circle cx="919.960022" cy="401.959991" r="19.980000" fill="red">
  <title>Istanbul</title>
</circle><line x1="631.960022" y1="794.960022" x2="919.960022" y2="401.959991" stroke="red" stroke-width="6.660000" />
<circle cx="1091.959961" cy="196.959991" r="19.980000" fill="red">
  <title>Mexico City</title>
</circle><line x1="919.960022" y1="401.959991" x2="1091.959961" y2="196.959991" stroke="red" stroke-width="6.660000" />
<circle cx="1320.959961" cy="645.960022" r="19.980000" fill="red">
  <title>Shanghai</title>
</circle><line x1="1091.959961" y1="196.959991" x2="1320.959961" y2="645.960022" stroke="red" stroke-width="6.660000" />
<circle cx="1814.959961" cy="904.960022" r="19.980000" fill="red">
  <title>Beijing</title>
</circle><line x1="1320.959961" y1="645.960022" x2="1814.959961" y2="904.960022" stroke="red" stroke-width="6.660000" />
</svg>
