<?xml version="1.0" encoding="UTF-8" standalone="no"?>
<svg width="500" height="500" viewBox="0 0 2074.000000 2074.000000" xmlns="http://www.w3.org/2000/svg">
<rect x="19.000000" y="19.000000" width="2036.000000" height="2036.000000" fill="black" />
<circle cx="1069.959961" cy="1478.959961" r="19.980000" fill="red">
  <title>Tokyo</title>
</circle><line x1="969.960022" y1="1197.959961" x2="1069.959961" y2="1478.959961" stroke="red" stroke-width="6.660000" />
<circle cx="1608.959961" cy="1612.959961" r="19.980000" fill="red">
  <title>Delhi</title>
</circle><line x1="1069.959961" y1="1478.959961" x2="1608.959961" y2="1612.959961" stroke="red" stroke-width="6.660000" />
<circle cx="1282.959961" cy="986.960022" r="19.980000" fill="red">
  <title>Mexico City</title>
</circle><line x1="1608.959961" y1="1612.959961" x2="1282.959961" y2="986.960022" stroke="red" stroke-width="6.660000" />
<circle cx="1105.959961" cy="1118.959961" r="19.980000" fill="red">
  <title>Mumbai</title>
</circle><line x1="1282.959961" y1="986.960022" x2="1105.959961" y2="1118.959961" stroke="red" stroke-width="6.660000" />
<circle cx="802.960022" cy="755.960022" r="19.980000" fill="red">
  <title>Karachi</title>
</circle><line x1="1105.959961" y1="1118.959961" x2="802.960022" y2="755.960022" stroke="red" stroke-width="6.660000" />
<circle cx="491.959991" cy="835.960022" r="19.980000" fill="red">
  <title>Beijing</title>
</circle><line x1="802.960022" y1="755.960022" x2="491.959991" y2="835.960022" stroke="red" stroke-width="6.660000" />
<circle cx="387.959991" cy="1181.959961" r="19.980000" fill="red">
  <title>Shanghai</title>
</circle><line x1="491.959991" y1="835.960022" x2="387.959991" y2="1181.959961" stroke="red" stroke-width="6.660000" />
<circle cx="127.959999" cy="1896.959961" r="19.980000" fill="red">
  <title>Osaka</title>
</circle><line x1="387.959991" y1="1181.959961" x2="127.959999" y2="1896.959961" stroke="red" stroke-width="6.660000" />
<circle cx="221.959991" cy="1962.959961" r="19.980000" fill="red">
  <title>Dhaka</title>
</circle><line x1="127.959999" y1="1896.959961" x2="221.959991" y2="1962.959961" stroke="red" stroke-width="6.660000" />
<circle cx="508.959991" cy="1407.959961" r="19.980000" fill="red">
  <title>Cairo</title>
</circle><line x1="221.959991" y1="1962.959961" x2="508.959991" y2="1407.959961" stroke="red" stroke-width="6.660000" />
<circle cx="538.960022" cy="1284.959961" r="19.980000" fill="red">
  <title>New York</title>
</circle><line x1="508.959991" y1="1407.959961" x2="538.960022" y2="1284.959961" stroke="red" stroke-width="6.660000" />
<circle cx="969.960022" cy="1197.959961" r="19.980000" fill="red">
  <title>São Paulo</title>
</circle><line x1="538.960022" y1="1284.959961" x2="969.960022" y2="1197.959961" stroke="red" stroke-width="6.660000" />
</svg>
