<?xml version="1.0" encoding="UTF-8" standalone="no"?>
<svg width="500" height="500" viewBox="0 0 2074.000000 2074.000000" xmlns="http://www.w3.org/2000/svg">
<rect x="19.000000" y="19.000000" width="2036.000000" height="2036.000000" fill="black" />
<circle cx="1739.959961" cy="1380.959961" r="19.980000" fill="red">
  <title>Tokyo</title>
</circle><line x1="1231.959961" y1="1009.960022" x2="1739.959961" y2="1380.959961" stroke="red" stroke-width="6.660000" />
<circle cx="1810.959961" cy="1294.959961" r="19.980000" fill="red">
  <title>Dhaka</title>
</circle><line x1="1739.959961" y1="1380.959961" x2="1810.959961" y2="1294.959961" stroke="red" stroke-width="6.660000" />
<circle cx="1792.959961" cy="685.960022" r="19.980000" fill="red">
  <title>São Paulo</title>
</circle><line x1="1810.959961" y1="1294.959961" x2="1792.959961" y2="685.960022" stroke="red" stroke-width="6.660000" />
<circle cx="1949.959961" cy="132.959991" r="19.980000" fill="red">
  <title>Buenos Aires</title>
</circle><line x1="1792.959961" y1="685.960022" x2="1949.959961" y2="132.959991" stroke="red" stroke-width="6.660000" />
<circle cx="1697.959961" cy="123.959999" r="19.980000" fill="red">
  <title>Mumbai</title>
</circle><line x1="1949.959961" y1="132.959991" x2="1697.959961" y2="123.959999" stroke="red" stroke-width="6.660000" />
<circle cx="418.959991" cy="135.959991" r="19.980000" fill="red">
  <title>Cairo</title>
</circle><line x1="1697.959961" y1="123.959999" x2="418.959991" y2="135.959991" stroke="red" stroke-width="6.660000" />
<circle cx="111.959999" cy="124.959999" r="19.980000" fill="red">
  <title>Chongqing</title>
</circle><line x1="418.959991" y1="135.959991" x2="111.959999" y2="124.959999" stroke="red" stroke-width="6.660000" />
<circle cx="400.959991" cy="531.960022" r="19.980000" fill="red">
  <title>New York</title>
</circle><line x1="111.959999" y1="124.959999" x2="400.959991" y2="531.960022" stroke="red" stroke-width="6.660000" />
<circle cx="60.959999" cy="1437.959961" r="19.980000" fill="red">
  <title>Beijing</title>
</circle><line x1="400.959991" y1="531.960022" x2="60.959999" y2="1437.959961" stroke="red" stroke-width="6.660000" />
<circle cx="46.959999" cy="1534.959961" r="19.980000" fill="red">
  <title>Delhi</title>
</circle><line x1="60.959999" y1="1437.959961" x2="46.959999" y2="1534.959961" stroke="red" stroke-width="6.660000" />
<circle cx="878.960022" cy="1702.959961" r="19.980000" fill="red">
  <title>Shanghai</title>
</circle><line x1="46.959999" y1="1534.959961" x2="878.960022" y2="1702.959961" stroke="red" stroke-width="6.660000" />
<circle cx="1340.959961" cy="1651.959961" r="19.980000" fill="red">
  <title>Karachi</title>
</circle><line x1="878.960022" y1="1702.959961" x2="1340.959961" y2="1651.959961" stroke="red" stroke-width="6.660000" />
<circle cx="1115.959961" cy="1275.959961" r="19.980000" fill="red">
  <title>Osaka</title>
</circle><line x1="1340.959961" y1="1651.959961" x2="1115.959961" y2="1275.959961" stroke="red" stroke-width="6.660000" />
<circle cx="1231.959961" cy="1009.960022" r="19.980000" fill="red">
  <title>Mexico City</title>
</circle><line x1="1115.959961" y1="1275.959961" x2="1231.959961" y2="1009.960022" stroke="red" stroke-width="6.660000" />
</svg>
