<?xml version="1.0" encoding="UTF-8" standalone="no"?>
<svg width="500" height="500" viewBox="0 0 2074.000000 2074.000000" xmlns="http://www.w3.org/2000/svg">
<rect x="19.000000" y="19.000000" width="2036.000000" height="2036.000000" fill="black" />
<circle cx="658.960022" cy="845.960022" r="19.980000" fill="red">
  <title>Tokyo</title>
</circle><line x1="741.960022" y1="745.960022" x2="658.960022" y2="845.960022" stroke="red" stroke-width="6.660000" />
<circle cx="487.959991" cy="1028.959961" r="19.980000" fill="red">
  <title>Delhi</title>
</circle><line x1="658.960022" y1="845.960022" x2="487.959991" y2="1028.959961" stroke="red" stroke-width="6.660000" />
<circle cx="344.959991" cy="1906.959961" r="19.980000" fill="red">
  <title>Dhaka</title>
</circle><line x1="487.959991" y1="1028.959961" x2="344.959991" y2="1906.959961" stroke="red" stroke-width="6.660000" />
<circle cx="826.960022" cy="1499.959961" r="19.980000" fill="red">
  <title>Osaka</title>
</circle><line x1="344.959991" y1="1906.959961" x2="826.960022" y2="1499.959961" stroke="red" stroke-width="6.660000" />
<circle cx="845.960022" cy="906.960022" r="19.980000" fill="red">
  <title>Shanghai</title>
</circle><line x1="826.960022" y1="1499.959961" x2="845.960022" y2="906.960022" stroke="red" stroke-width="6.660000" />
<circle cx="1145.959961" cy="645.960022" r="19.980000" fill="red">
  <title>Mexico City</title>
</circle><line x1="845.960022" y1="906.960022" x2="1145.959961" y2="645.960022" stroke="red" stroke-width="6.660000" />
<circle cx="1907.959961" cy="679.960022" r="19.980000" fill="red">
  <title>Mumbai</title>
</circle><line x1="1145.959961" y1="645.960022" x2="1907.959961" y2="679.960022" stroke="red" stroke-width="6.660000" />
<circle cx="927.960022" cy="396.959991" r="19.980000" fill="red">
  <title>Cairo</title>
</circle><line x1="1907.959961" y1="679.960022" x2="927.960022" y2="396.959991" stroke="red" stroke-width="6.660000" />
<circle cx="913.960022" cy="410.959991" r="19.980000" fill="red">
  <title>Beijing</title>
</circle><line x1="927.960022" y1="396.959991" x2="913.960022" y2="410.959991" stroke="red" stroke-width="6.660000" />
<circle cx="392.959991" cy="485.959991" r="19.980000" fill="red">
  <title>São Paulo</title>
</circle><line x1="913.960022" y1="410.959991" x2="392.959991" y2="485.959991" stroke="red" stroke-width="6.660000" />
<circle cx="741.960022" cy="745.960022" r="19.980000" fill="red">
  <title>New York</title>
</circle><line x1="392.959991" y1="485.959991" x2="741.960022" y2="745.960022" stroke="red" stroke-width="6.660000" />
</svg>
