<?xml version="1.0" encoding="UTF-8" standalone="no"?>
<svg width="500" height="500" viewBox="0 0 2074.000000 2074.000000" xmlns="http://www.w3.org/2000/svg">
<rect x="19.000000" y="19.000000" width="2036.000000" height="2036.000000" fill="black" />
<circle cx="1001.960022" cy="1683.959961" r="19.980000" fill="red">
  <title>Tokyo</title>
</circle><line x1="955.960022" y1="1012.960022" x2="1001.960022" y2="1683.959961" stroke="red" stroke-width="6.660000" />
<circle cx="1549.959961" cy="1492.959961" r="19.980000" fill="red">
  <title>Delhi</title>
</circle><line x1="1001.960022" y1="1683.959961" x2="1549.959961" y2="1492.959961" stroke="red" stroke-width="6.660000" />
<circle cx="1979.959961" cy="1490.959961" r="19.980000" fill="red">
  <title>Dhaka</title>
</circle><line x1="1549.959961" y1="1492.959961" x2="1979.959961" y2="1490.959961" stroke="red" stroke-width="6.660000" />
<circle cx="2037.959961" cy="1282.959961" r="19.980000" fill="red">
  <title>Cairo</title>
</circle><line x1="1979.959961" y1="1490.959961" x2="2037.959961" y2="1282.959961" stroke="red" stroke-width="6.660000" />
<circle cx="1874.959961" cy="636.960022" r="19.980000" fill="red">
  <title>São Paulo</title>
</circle><line x1="2037.959961" y1="1282.959961" x2="1874.959961" y2="636.960022" stroke="red" stroke-width="6.660000" />
<circle cx="1580.959961" cy="848.960022" r="19.980000" fill="red">
  <title>Osaka</title>
</circle><line x1="1874.959961" y1="636.960022" x2="1580.959961" y2="848.960022" stroke="red" stroke-width="6.660000" />
<circle cx="1394.959961" cy="708.960022" r="19.980000" fill="red">
  <title>Mumbai</title>
</circle><line x1="1580.959961" y1="848.960022" x2="1394.959961" y2="708.960022" stroke="red" stroke-width="6.660000" />
<circle cx="1433.959961" cy="328.959991" r="19.980000" fill="red">
  <title>Buenos Aires</title>
</circle><line x1="1394.959961" y1="708.960022" x2="1433.959961" y2="328.959991" stroke="red" stroke-width="6.660000" />
<circle cx="1183.959961" cy="76.959999" r="19.980000" fill="red">
  <title>Beijing</title>
</circle><line x1="1433.959961" y1="328.959991" x2="1183.959961" y2="76.959999" stroke="red" stroke-width="6.660000" />
<circle cx="927.960022" cy="488.959991" r="19.980000" fill="red">
  <title>Shanghai</title>
</circle><line x1="1183.959961" y1="76.959999" x2="927.960022" y2="488.959991" stroke="red" stroke-width="6.660000" />
<circle cx="417.959991" cy="827.960022" r="19.980000" fill="red">
  <title>Mexico City</title>
</circle><line x1="927.960022" y1="488.959991" x2="417.959991" y2="827.960022" stroke="red" stroke-width="6.660000" />
<circle cx="665.960022" cy="1098.959961" r="19.980000" fill="red">
  <title>New York</title>
</circle><line x1="417.959991" y1="827.960022" x2="665.960022" y2="1098.959961" stroke="red" stroke-width="6.660000" />
<circle cx="955.960022" cy="1012.960022" r="19.980000" fill="red">
  <title>Karachi</title>
</circle><line x1="665.960022" y1="1098.959961" x2="955.960022" y2="1012.960022" stroke="red" stroke-width="6.660000" />
</svg>
