<?xml version="1.0" encoding="UTF-8" standalone="no"?>
<svg width="500" height="500" viewBox="0 0 2074.000000 2074.000000" xmlns="http://www.w3.org/2000/svg">
<rect x="19.000000" y="19.000000" width="2036.000000" height="2036.000000" fill="black" />
<circle cx="327.959991" cy="1767.959961" r="19.980000" fill="red">
  <title>Tokyo</title>
</circle><line x1="1133.959961" y1="1445.959961" x2="327.959991" y2="1767.959961" stroke="red" stroke-width="6.660000" />
<circle cx="134.959991" cy="1087.959961" r="19.980000" fill="red">
  <title>Shanghai</title>
</circle><line x1="327.959991" y1="1767.959961" x2="134.959991" y2="1087.959961" stroke="red" stroke-width="6.660000" />
<circle cx="385.959991" cy="1066.959961" r="19.980000" fill="red">
  <title>São Paulo</title>
</circle><line x1="134.959991" y1="1087.959961" x2="385.959991" y2="1066.959961" stroke="red" stroke-width="6.660000" />
<circle cx="833.960022" cy="593.960022" r="19.980000" fill="red">
  <title>Beijing</title>
</circle><line x1="385.959991" y1="1066.959961" x2="833.960022" y2="593.960022" stroke="red" stroke-width="6.660000" />
<circle cx="784.960022" cy="386.959991" r="19.980000" fill="red">
  <title>Karachi</title>
</circle><line x1="833.960022" y1="593.960022" x2="784.960022" y2="386.959991" stroke="red" stroke-width="6.660000" />
<circle cx="587.960022" cy="377.959991" r="19.980000" fill="red">
  <title>Lagos</title>
</circle><line x1="784.960022" y1="386.959991" x2="587.960022" y2="377.959991" stroke="red" stroke-width="6.660000" />
<circle cx="281.959991" cy="370.959991" r="19.980000" fill="red">
  <title>Manila</title>
</circle><line x1="587.960022" y1="377.959991" x2="281.959991" y2="370.959991" stroke="red" stroke-width="6.660000" />
<circle cx="461.959991" cy="158.959991" r="19.980000" fill="red">
  <title>Dhaka</title>
</circle><line x1="281.959991" y1="370.959991" x2="461.959991" y2="158.959991" stroke="red" stroke-width="6.660000" />
<circle cx="659.960022" cy="87.959999" r="19.980000" fill="red">
  <title>Buenos Aires</title>
</circle><line x1="461.959991" y1="158.959991" x2="659.960022" y2="87.959999" stroke="red" stroke-width="6.660000" />
<circle cx="1004.960022" cy="315.959991" r="19.980000" fill="red">
  <title>Kolkata</title>
</circle><line x1="659.960022" y1="87.959999" x2="1004.960022" y2="315.959991" stroke="red" stroke-width="6.660000" />
<circle cx="1244.959961" cy="445.959991" r="19.980000" fill="red">
  <title>New York</title>
</circle><line x1="1004.960022" y1="315.959991" x2="1244.959961" y2="445.959991" stroke="red" stroke-width="6.660000" />
<circle cx="1404.959961" cy="311.959991" r="19.980000" fill="red">
  <title>Delhi</title>
</circle><line x1="1244.959961" y1="445.959991" x2="1404.959961" y2="311.959991" stroke="red" stroke-width="6.660000" />
<circle cx="1540.959961" cy="96.959999" r="19.980000" fill="red">
  <title>Mexico City</title>
</circle><line x1="1404.959961" y1="311.959991" x2="1540.959961" y2="96.959999" stroke="red" stroke-width="6.660000" />
<circle cx="1670.959961" cy="177.959991" r="19.980000" fill="red">
  <title>Cairo</title>
</circle><line x1="1540.959961" y1="96.959999" x2="1670.959961" y2="177.959991" stroke="red" stroke-width="6.660000" />
<circle cx="2025.959961" cy="552.960022" r="19.980000" fill="red">
  <title>Istanbul</title>
</circle><line x1="1670.959961" y1="177.959991" x2="2025.959961" y2="552.960022" stroke="red" stroke-width="6.660000" />
<circle cx="1840.959961" cy="1075.959961" r="19.980000" fill="red">
  <title>Chongqing</title>
</circle><line x1="2025.959961" y1="552.960022" x2="1840.959961" y2="1075.959961" stroke="red" stroke-width="6.660000" />
<circle cx="1723.959961" cy="1120.959961" r="19.980000" fill="red">
  <title>Mumbai</title>
</circle><line x1="1840.959961" y1="1075.959961" x2="1723.959961" y2="1120.959961" stroke="red" stroke-width="6.660000" />
<circle cx="1419.959961" cy="934.960022" r="19.980000" fill="red">
  <title>Rio de Janeiro</title>
</circle><line x1="1723.959961" y1="1120.959961" x2="1419.959961" y2="934.960022" stroke="red" stroke-width="6.660000" />
<circle cx="1404.959961" cy="921.960022" r="19.980000" fill="red">
  <title>Tianjin</title>
</circle><line x1="1419.959961" y1="934.960022" x2="1404.959961" y2="921.960022" stroke="red" stroke-width="6.660000" />
<circle cx="1133.959961" cy="1445.959961" r="19.980000" fill="red">
  <title>Osaka</title>
</circle><line x1="1404.959961" y1="921.960022" x2="1133.959961" y2="1445.959961" stroke="red" stroke-width="6.660000" />
</svg>
