<?xml version="1.0" encoding="UTF-8" standalone="no"?>
<svg width="500" height="500" viewBox="0 0 2074.000000 2074.000000" xmlns="http://www.w3.org/2000/svg">
<rect x="19.000000" y="19.000000" width="2036.000000" height="2036.000000" fill="black" />
<circle cx="108.959999" cy="1270.959961" r="19.980000" fill="red">
  <title>Tokyo</title>
</circle><line x1="320.959991" y1="310.959991" x2="108.959999" y2="1270.959961" stroke="red" stroke-width="6.660000" />
<circle cx="106.959999" cy="1662.959961" r="19.980000" fill="red">
  <title>Delhi</title>
</circle><line x1="108.959999" y1="1270.959961" x2="106.959999" y2="1662.959961" stroke="red" stroke-width="6.660000" />
<circle cx="203.959991" cy="1813.959961" r="19.980000" fill="red">
  <title>Mexico City</title>
</circle><line x1="106.959999" y1="1662.959961" x2="203.959991" y2="1813.959961" stroke="red" stroke-width="6.660000" />
<circle cx="224.959991" cy="1533.959961" r="19.980000" fill="red">
  <title>Mumbai</title>
</circle><line x1="203.959991" y1="1813.959961" x2="224.959991" y2="1533.959961" stroke="red" stroke-width="6.660000" />
<circle cx="483.959991" cy="1427.959961" r="19.980000" fill="red">
  <title>Buenos Aires</title>
</circle><line x1="224.959991" y1="1533.959961" x2="483.959991" y2="1427.959961" stroke="red" stroke-width="6.660000" />
<circle cx="637.960022" cy="1338.959961" r="19.980000" fill="red">
  <title>Istanbul</title>
</circle><line x1="483.959991" y1="1427.959961" x2="637.960022" y2="1338.959961" stroke="red" stroke-width="6.660000" />
<circle cx="1085.959961" cy="2007.959961" r="19.980000" fill="red">
  <title>Beijing</title>
</circle><line x1="637.960022" y1="1338.959961" x2="1085.959961" y2="2007.959961" stroke="red" stroke-width="6.660000" />
<circle cx="1413.959961" cy="1981.959961" r="19.980000" fill="red">
  <title>São Paulo</title>
</circle><line x1="1085.959961" y1="2007.959961" x2="1413.959961" y2="1981.959961" stroke="red" stroke-width="6.660000" />
<circle cx="1564.959961" cy="1624.959961" r="19.980000" fill="red">
  <title>Dhaka</title>
</circle><line x1="1413.959961" y1="1981.959961" x2="1564.959961" y2="1624.959961" stroke="red" stroke-width="6.660000" />
<circle cx="1482.959961" cy="1510.959961" r="19.980000" fill="red">
  <title>Chongqing</title>
</circle><line x1="1564.959961" y1="1624.959961" x2="1482.959961" y2="1510.959961" stroke="red" stroke-width="6.660000" />
<circle cx="1362.959961" cy="1022.960022" r="19.980000" fill="red">
  <title>Cairo</title>
</circle><line x1="1482.959961" y1="1510.959961" x2="1362.959961" y2="1022.960022" stroke="red" stroke-width="6.660000" />
<circle cx="1002.960022" cy="527.960022" r="19.980000" fill="red">
  <title>Karachi</title>
</circle><line x1="1362.959961" y1="1022.960022" x2="1002.960022" y2="527.960022" stroke="red" stroke-width="6.660000" />
<circle cx="635.960022" cy="331.959991" r="19.980000" fill="red">
  <title>Shanghai</title>
</circle><line x1="1002.960022" y1="527.960022" x2="635.960022" y2="331.959991" stroke="red" stroke-width="6.660000" />
<circle cx="523.960022" cy="172.959991" r="19.980000" fill="red">
  <title>New York</title>
</circle><line x1="635.960022" y1="331.959991" x2="523.960022" y2="172.959991" stroke="red" stroke-width="6.660000" />
<circle cx="320.959991" cy="310.959991" r="19.980000" fill="red">
  <title>Osaka</title>
</circle><line x1="523.960022" y1="172.959991" x2="320.959991" y2="310.959991" stroke="red" stroke-width="6.660000" />
</svg>
