<?xml version="1.0" encoding="UTF-8" standalone="no"?>
<svg width="500" height="500" viewBox="0 0 2074.000000 2074.000000" xmlns="http://www.w3.org/2000/svg">
<rect x="19.000000" y="19.000000" width="2036.000000" height="2036.000000" fill="black" />
<circle cx="1981.959961" cy="1839.959961" r="19.980000" fill="red">
  <title>Tokyo</title>
</circle><line x1="933.960022" y1="1509.959961" x2="1981.959961" y2="1839.959961" stroke="red" stroke-width="6.660000" />
<circle cx="1436.959961" cy="964.960022" r="19.980000" fill="red">
  <title>Delhi</title>
</circle><line x1="1981.959961" y1="1839.959961" x2="1436.959961" y2="964.960022" stroke="red" stroke-width="6.660000" />
<circle cx="1147.959961" cy="127.959999" r="19.980000" fill="red">
  <title>Shanghai</title>
</circle><line x1="1436.959961" y1="964.960022" x2="1147.959961" y2="127.959999" stroke="red" stroke-width="6.660000" />
<circle cx="933.960022" cy="1509.959961" r="19.980000" fill="red">
  <title>São Paulo</title>
</circle><line x1="1147.959961" y1="127.959999" x2="933.960022" y2="1509.959961" stroke="red" stroke-width="6.660000" />
</svg>
