<?xml version="1.0" encoding="UTF-8" standalone="no"?>
<svg width="500" height="500" viewBox="0 0 2074.000000 2074.000000" xmlns="http://www.w3.org/2000/svg">
<rect x="19.000000" y="19.000000" width="2036.000000" height="2036.000000" fill="black" />
<circle cx="1422.959961" cy="598.960022" r="19.980000" fill="red">
  <title>Tokyo</title>
</circle><line x1="894.960022" y1="579.960022" x2="1422.959961" y2="598.960022" stroke="red" stroke-width="6.660000" />
<circle cx="1432.959961" cy="302.959991" r="19.980000" fill="red">
  <title>Manila</title>
</circle><line x1="1422.959961" y1="598.960022" x2="1432.959961" y2="302.959991" stroke="red" stroke-width="6.660000" />
<circle cx="1877.959961" cy="576.960022" r="19.980000" fill="red">
  <title>New York</title>
</circle><line x1="1432.959961" y1="302.959991" x2="1877.959961" y2="576.960022" stroke="red" stroke-width="6.660000" />
<circle cx="1907.959961" cy="762.960022" r="19.980000" fill="red">
  <title>Rio de Janeiro</title>
</circle><line x1="1877.959961" y1="576.960022" x2="1907.959961" y2="762.960022" stroke="red" stroke-width="6.660000" />
<circle cx="1660.959961" cy="975.960022" r="19.980000" fill="red">
  <title>Beijing</title>
</circle><line x1="1907.959961" y1="762.960022" x2="1660.959961" y2="975.960022" stroke="red" stroke-width="6.660000" />
<circle cx="1532.959961" cy="1279.959961" r="19.980000" fill="red">
  <title>Lagos</title>
</circle><line x1="1660.959961" y1="975.960022" x2="1532.959961" y2="1279.959961" stroke="red" stroke-width="6.660000" />
<circle cx="1885.959961" cy="1643.959961" r="19.980000" fill="red">
  <title>Shanghai</title>
</circle><line x1="1532.959961" y1="1279.959961" x2="1885.959961" y2="1643.959961" stroke="red" stroke-width="6.660000" />
<circle cx="1844.959961" cy="1945.959961" r="19.980000" fill="red">
  <title>Buenos Aires</title>
</circle><line x1="1885.959961" y1="1643.959961" x2="1844.959961" y2="1945.959961" stroke="red" stroke-width="6.660000" />
<circle cx="1816.959961" cy="2000.959961" r="19.980000" fill="red">
  <title>Delhi</title>
</circle><line x1="1844.959961" y1="1945.959961" x2="1816.959961" y2="2000.959961" stroke="red" stroke-width="6.660000" />
<circle cx="1573.959961" cy="1647.959961" r="19.980000" fill="red">
  <title>Karachi</title>
</circle><line x1="1816.959961" y1="2000.959961" x2="1573.959961" y2="1647.959961" stroke="red" stroke-width="6.660000" />
<circle cx="1267.959961" cy="1542.959961" r="19.980000" fill="red">
  <title>São Paulo</title>
</circle><line x1="1573.959961" y1="1647.959961" x2="1267.959961" y2="1542.959961" stroke="red" stroke-width="6.660000" />
<circle cx="541.960022" cy="1670.959961" r="19.980000" fill="red">
  <title>Mumbai</title>
</circle><line x1="1267.959961" y1="1542.959961" x2="541.960022" y2="1670.959961" stroke="red" stroke-width="6.660000" />
<circle cx="524.960022" cy="1569.959961" r="19.980000" fill="red">
  <title>Kolkata</title>
</circle><line x1="541.960022" y1="1670.959961" x2="524.960022" y2="1569.959961" stroke="red" stroke-width="6.660000" />
<circle cx="141.959991" cy="1444.959961" r="19.980000" fill="red">
  <title>Cairo</title>
</circle><line x1="524.960022" y1="1569.959961" x2="141.959991" y2="1444.959961" stroke="red" stroke-width="6.660000" />
<circle cx="185.959991" cy="872.960022" r="19.980000" fill="red">
  <title>Istanbul</title>
</circle><line x1="141.959991" y1="1444.959961" x2="185.959991" y2="872.960022" stroke="red" stroke-width="6.660000" />
<circle cx="46.959999" cy="544.960022" r="19.980000" fill="red">
  <title>Chongqing</title>
</circle><line x1="185.959991" y1="872.960022" x2="46.959999" y2="544.960022" stroke="red" stroke-width="6.660000" />
<circle cx="73.959999" cy="479.959991" r="19.980000" fill="red">
  <title>Osaka</title>
</circle><line x1="46.959999" y1="544.960022" x2="73.959999" y2="479.959991" stroke="red" stroke-width="6.660000" />
<circle cx="275.959991" cy="197.959991" r="19.980000" fill="red">
  <title>Mexico City</title>
</circle><line x1="73.959999" y1="479.959991" x2="275.959991" y2="197.959991" stroke="red" stroke-width="6.660000" />
<circle cx="784.960022" cy="145.959991" r="19.980000" fill="red">
  <title>Tianjin</title>
</circle><line x1="275.959991" y1="197.959991" x2="784.960022" y2="145.959991" stroke="red" stroke-width="6.660000" />
<circle cx="894.960022" cy="579.960022" r="19.980000" fill="red">
  <title>Dhaka</title>
</circle><line x1="784.960022" y1="145.959991" x2="894.960022" y2="579.960022" stroke="red" stroke-width="6.660000" />
</svg>
