<?xml version="1.0" encoding="UTF-8" standalone="no"?>
<svg width="500" height="500" viewBox="0 0 2074.000000 2074.000000" xmlns="http://www.w3.org/2000/svg">
<rect x="19.000000" y="19.000000" width="2036.000000" height="2036.000000" fill="black" />
<circle cx="608.960022" cy="1876.959961" r="19.980000" fill="red">
  <title>Tokyo</title>
</circle><line x1="907.960022" y1="210.959991" x2="608.960022" y2="1876.959961" stroke="red" stroke-width="6.660000" />
<circle cx="1395.959961" cy="383.959991" r="19.980000" fill="red">
  <title>Delhi</title>
</circle><line x1="608.960022" y1="1876.959961" x2="1395.959961" y2="383.959991" stroke="red" stroke-width="6.660000" />
<circle cx="907.960022" cy="210.959991" r="19.980000" fill="red">
  <title>Shanghai</title>
</circle><line x1="1395.959961" y1="383.959991" x2="907.960022" y2="210.959991" stroke="red" stroke-width="6.660000" />
</svg>
