<?xml version="1.0" encoding="UTF-8" standalone="no"?>
<svg width="500" height="500" viewBox="0 0 2074.000000 2074.000000" xmlns="http://www.w3.org/2000/svg">
<rect x="19.000000" y="19.000000" width="2036.000000" height="2036.000000" fill="black" />
<circle cx="120.959999" cy="1016.960022" r="19.980000" fill="red">
  <title>Tokyo</title>
</circle><line x1="368.959991" y1="1120.959961" x2="120.959999" y2="1016.960022" stroke="red" stroke-width="6.660000" />
<circle cx="94.959999" cy="434.959991" r="19.980000" fill="red">
  <title>Beijing</title>
</circle><line x1="120.959999" y1="1016.960022" x2="94.959999" y2="434.959991" stroke="red" stroke-width="6.660000" />
<circle cx="54.959999" cy="107.959999" r="19.980000" fill="red">
  <title>Shanghai</title>
</circle><line x1="94.959999" y1="434.959991" x2="54.959999" y2="107.959999" stroke="red" stroke-width="6.660000" />
<circle cx="721.960022" cy="857.960022" r="19.980000" fill="red">
  <title>Mexico City</title>
</circle><line x1="54.959999" y1="107.959999" x2="721.960022" y2="857.960022" stroke="red" stroke-width="6.660000" />
<circle cx="1986.959961" cy="1157.959961" r="19.980000" fill="red">
  <title>São Paulo</title>
</circle><line x1="721.960022" y1="857.960022" x2="1986.959961" y2="1157.959961" stroke="red" stroke-width="6.660000" />
<circle cx="1971.959961" cy="1361.959961" r="19.980000" fill="red">
  <title>Mumbai</title>
</circle><line x1="1986.959961" y1="1157.959961" x2="1971.959961" y2="1361.959961" stroke="red" stroke-width="6.660000" />
<circle cx="1694.959961" cy="1265.959961" r="19.980000" fill="red">
  <title>Delhi</title>
</circle><line x1="1971.959961" y1="1361.959961" x2="1694.959961" y2="1265.959961" stroke="red" stroke-width="6.660000" />
<circle cx="622.960022" cy="1200.959961" r="19.980000" fill="red">
  <title>Cairo</title>
</circle><line x1="1694.959961" y1="1265.959961" x2="622.960022" y2="1200.959961" stroke="red" stroke-width="6.660000" />
<circle cx="368.959991" cy="1120.959961" r="19.980000" fill="red">
  <title>Dhaka</title>
</circle><line x1="622.960022" y1="1200.959961" x2="368.959991" y2="1120.959961" stroke="red" stroke-width="6.660000" />
</svg>
