<?xml version="1.0" encoding="UTF-8" standalone="no"?>
<svg width="500" height="500" viewBox="0 0 2074.000000 2074.000000" xmlns="http://www.w3.org/2000/svg">
<rect x="19.000000" y="19.000000" width="2036.000000" height="2036.000000" fill="black" />
<circle cx="1804.959961" cy="593.960022" r="19.980000" fill="red">
  <title>Tokyo</title>
</circle><line x1="1953.959961" y1="111.959999" x2="1804.959961" y2="593.960022" stroke="red" stroke-width="6.660000" />
<circle cx="1037.959961" cy="523.960022" r="19.980000" fill="red">
  <title>Dhaka</title>
</circle><line x1="1804.959961" y1="593.960022" x2="1037.959961" y2="523.960022" stroke="red" stroke-width="6.660000" />
<circle cx="467.959991" cy="109.959999" r="19.980000" fill="red">
  <title>Chongqing</title>
</circle><line x1="1037.959961" y1="523.960022" x2="467.959991" y2="109.959999" stroke="red" stroke-width="6.660000" />
<circle cx="214.959991" cy="711.960022" r="19.980000" fill="red">
  <title>Mumbai</title>
</circle><line x1="467.959991" y1="109.959999" x2="214.959991" y2="711.960022" stroke="red" stroke-width="6.660000" />
<circle cx="298.959991" cy="1563.959961" r="19.980000" fill="red">
  <title>São Paulo</title>
</circle><line x1="214.959991" y1="711.960022" x2="298.959991" y2="1563.959961" stroke="red" stroke-width="6.660000" />
<circle cx="831.960022" cy="1594.959961" r="19.980000" fill="red">
  <title>Buenos Aires</title>
</circle><line x1="298.959991" y1="1563.959961" x2="831.960022" y2="1594.959961" stroke="red" stroke-width="6.660000" />
<circle cx="910.960022" cy="1586.959961" r="19.980000" fill="red">
  <title>Delhi</title>
</circle><line x1="831.960022" y1="1594.959961" x2="910.960022" y2="1586.959961" stroke="red" stroke-width="6.660000" />
<circle cx="820.960022" cy="1312.959961" r="19.980000" fill="red">
  <title>Karachi</title>
</circle><line x1="910.960022" y1="1586.959961" x2="820.960022" y2="1312.959961" stroke="red" stroke-width="6.660000" />
<circle cx="1428.959961" cy="955.960022" r="19.980000" fill="red">
  <title>New York</title>
</circle><line x1="820.960022" y1="1312.959961" x2="1428.959961" y2="955.960022" stroke="red" stroke-width="6.660000" />
<circle cx="1491.959961" cy="981.960022" r="19.980000" fill="red">
  <title>Cairo</title>
</circle><line x1="1428.959961" y1="955.960022" x2="1491.959961" y2="981.960022" stroke="red" stroke-width="6.660000" />
<circle cx="1714.959961" cy="1283.959961" r="19.980000" fill="red">
  <title>Mexico City</title>
</circle><line x1="1491.959961" y1="981.960022" x2="1714.959961" y2="1283.959961" stroke="red" stroke-width="6.660000" />
<circle cx="1930.959961" cy="741.960022" r="19.980000" fill="red">
  <title>Beijing</title>
</circle><line x1="1714.959961" y1="1283.959961" x2="1930.959961" y2="741.960022" stroke="red" stroke-width="6.660000" />
<circle cx="1884.959961" cy="672.960022" r="19.980000" fill="red">
  <title>Shanghai</title>
</circle><line x1="1930.959961" y1="741.960022" x2="1884.959961" y2="672.960022" stroke="red" stroke-width="6.660000" />
<circle cx="1953.959961" cy="111.959999" r="19.980000" fill="red">
  <title>Osaka</title>
</circle><line x1="1884.959961" y1="672.960022" x2="1953.959961" y2="111.959999" stroke="red" stroke-width="6.660000" />
</svg>
