<?xml version="1.0" encoding="UTF-8" standalone="no"?>
<svg width="500" height="500" viewBox="0 0 2074.000000 2074.000000" xmlns="http://www.w3.org/2000/svg">
<rect x="19.000000" y="19.000000" width="2036.000000" height="2036.000000" fill="black" />
<circle cx="1211.959961" cy="115.959999" r="19.980000" fill="red">
  <title>Tokyo</title>
</circle><line x1="1375.959961" y1="262.959991" x2="1211.959961" y2="115.959999" stroke="red" stroke-width="6.660000" />
<circle cx="1213.959961" cy="824.960022" r="19.980000" fill="red">
  <title>Mexico City</title>
</circle><line x1="1211.959961" y1="115.959999" x2="1213.959961" y2="824.960022" stroke="red" stroke-width="6.660000" />
<circle cx="842.960022" cy="960.960022" r="19.980000" fill="red">
  <title>Kolkata</title>
</circle><line x1="1213.959961" y1="824.960022" x2="842.960022" y2="960.960022" stroke="red" stroke-width="6.660000" />
<circle cx="567.960022" cy="527.960022" r="19.980000" fill="red">
  <title>Buenos Aires</title>
</circle><line x1="842.960022" y1="960.960022" x2="567.960022" y2="527.960022" stroke="red" stroke-width="6.660000" />
<circle cx="200.959991" cy="571.960022" r="19.980000" fill="red">
  <title>Karachi</title>
</circle><line x1="567.960022" y1="527.960022" x2="200.959991" y2="571.960022" stroke="red" stroke-width="6.660000" />
<circle cx="313.959991" cy="949.960022" r="19.980000" fill="red">
  <title>Chongqing</title>
</circle><line x1="200.959991" y1="571.960022" x2="313.959991" y2="949.960022" stroke="red" stroke-width="6.660000" />
<circle cx="425.959991" cy="1243.959961" r="19.980000" fill="red">
  <title>New York</title>
</circle><line x1="313.959991" y1="949.960022" x2="425.959991" y2="1243.959961" stroke="red" stroke-width="6.660000" />
<circle cx="92.959999" cy="1492.959961" r="19.980000" fill="red">
  <title>São Paulo</title>
</circle><line x1="425.959991" y1="1243.959961" x2="92.959999" y2="1492.959961" stroke="red" stroke-width="6.660000" />
<circle cx="209.959991" cy="2006.959961" r="19.980000" fill="red">
  <title>Rio de Janeiro</title>
</circle><line x1="92.959999" y1="1492.959961" x2="209.959991" y2="2006.959961" stroke="red" stroke-width="6.660000" />
<circle cx="608.960022" cy="1984.959961" r="19.980000" fill="red">
  <title>Shanghai</title>
</circle><line x1="209.959991" y1="2006.959961" x2="608.960022" y2="1984.959961" stroke="red" stroke-width="6.660000" />
<circle cx="1302.959961" cy="1922.959961" r="19.980000" fill="red">
  <title>Dhaka</title>
</circle><line x1="608.960022" y1="1984.959961" x2="1302.959961" y2="1922.959961" stroke="red" stroke-width="6.660000" />
<circle cx="1697.959961" cy="1984.959961" r="19.980000" fill="red">
  <title>Beijing</title>
</circle><line x1="1302.959961" y1="1922.959961" x2="1697.959961" y2="1984.959961" stroke="red" stroke-width="6.660000" />
<circle cx="1952.959961" cy="1944.959961" r="19.980000" fill="red">
  <title>Lagos</title>
</circle><line x1="1697.959961" y1="1984.959961" x2="1952.959961" y2="1944.959961" stroke="red" stroke-width="6.660000" />
<circle cx="1787.959961" cy="1299.959961" r="19.980000" fill="red">
  <title>Istanbul</title>
</circle><line x1="1952.959961" y1="1944.959961" x2="1787.959961" y2="1299.959961" stroke="red" stroke-width="6.660000" />
<circle cx="1505.959961" cy="1463.959961" r="19.980000" fill="red">
  <title>Mumbai</title>
</circle><line x1="1787.959961" y1="1299.959961" x2="1505.959961" y2="1463.959961" stroke="red" stroke-width="6.660000" />
<circle cx="1399.959961" cy="1384.959961" r="19.980000" fill="red">
  <title>Tianjin</title>
</circle><line x1="1505.959961" y1="1463.959961" x2="1399.959961" y2="1384.959961" stroke="red" stroke-width="6.660000" />
<circle cx="1458.959961" cy="1031.959961" r="19.980000" fill="red">
  <title>Delhi</title>
</circle><line x1="1399.959961" y1="1384.959961" x2="1458.959961" y2="1031.959961" stroke="red" stroke-width="6.660000" />
<circle cx="1696.959961" cy="1037.959961" r="19.980000" fill="red">
  <title>Cairo</title>
</circle><line x1="1458.959961" y1="1031.959961" x2="1696.959961" y2="1037.959961" stroke="red" stroke-width="6.660000" />
<circle cx="1959.959961" cy="529.960022" r="19.980000" fill="red">
  <title>Osaka</title>
</circle><line x1="1696.959961" y1="1037.959961" x2="1959.959961" y2="529.960022" stroke="red" stroke-width="6.660000" />
<circle cx="1375.959961" cy="262.959991" r="19.980000" fill="red">
  <title>Manila</title>
</circle><line x1="1959.959961" y1="529.960022" x2="1375.959961" y2="262.959991" stroke="red" stroke-width="6.660000" />
</svg>
