<?xml version="1.0" encoding="UTF-8" standalone="no"?>
<svg width="500" height="500" viewBox="0 0 2074.000000 2074.000000" xmlns="http://www.w3.org/2000/svg">
<rect x="19.000000" y="19.000000" width="2036.000000" height="2036.000000" fill="black" />
<circle cx="1761.959961" cy="355.959991" r="19.980000" fill="red">
  <title>Tokyo</title>
</circle><line x1="1414.959961" y1="83.959999" x2="1761.959961" y2="355.959991" stroke="red" stroke-width="6.660000" />
<circle cx="1207.959961" cy="481.959991" r="19.980000" fill="red">
  <title>Delhi</title>
</circle><line x1="1761.959961" y1="355.959991" x2="1207.959961" y2="481.959991" stroke="red" stroke-width="6.660000" />
<circle cx="1414.959961" cy="83.959999" r="19.980000" fill="red">
  <title>Shanghai</title>
</circle><line x1="1207.959961" y1="481.959991" x2="1414.959961" y2="83.959999" stroke="red" stroke-width="6.660000" />
</svg>
