<?xml version="1.0" encoding="UTF-8" standalone="no"?>
<svg width="500" height="500" viewBox="0 0 2074.000000 2074.000000" xmlns="http://www.w3.org/2000/svg">
<rect x="19.000000" y="19.000000" width="2036.000000" height="2036.000000" fill="black" />
<circle cx="1572.959961" cy="457.959991" r="19.980000" fill="red">
  <title>Tokyo</title>
</circle><line x1="1650.959961" y1="976.960022" x2="1572.959961" y2="457.959991" stroke="red" stroke-width="6.660000" />
<circle cx="1448.959961" cy="167.959991" r="19.980000" fill="red">
  <title>Mexico City</title>
</circle><line x1="1572.959961" y1="457.959991" x2="1448.959961" y2="167.959991" stroke="red" stroke-width="6.660000" />
<circle cx="1037.959961" cy="189.959991" r="19.980000" fill="red">
  <title>Delhi</title>
</circle><line x1="1448.959961" y1="167.959991" x2="1037.959961" y2="189.959991" stroke="red" stroke-width="6.660000" />
<circle cx="994.960022" cy="727.960022" r="19.980000" fill="red">
  <title>Beijing</title>
</circle><line x1="1037.959961" y1="189.959991" x2="994.960022" y2="727.960022" stroke="red" stroke-width="6.660000" />
<circle cx="221.959991" cy="1075.959961" r="19.980000" fill="red">
  <title>São Paulo</title>
</circle><line x1="994.960022" y1="727.960022" x2="221.959991" y2="1075.959961" stroke="red" stroke-width="6.660000" />
<circle cx="757.960022" cy="1580.959961" r="19.980000" fill="red">
  <title>Dhaka</title>
</circle><line x1="221.959991" y1="1075.959961" x2="757.960022" y2="1580.959961" stroke="red" stroke-width="6.660000" />
<circle cx="868.960022" cy="1694.959961" r="19.980000" fill="red">
  <title>Cairo</title>
</circle><line x1="757.960022" y1="1580.959961" x2="868.960022" y2="1694.959961" stroke="red" stroke-width="6.660000" />
<circle cx="1244.959961" cy="1663.959961" r="19.980000" fill="red">
  <title>Shanghai</title>
</circle><line x1="868.960022" y1="1694.959961" x2="1244.959961" y2="1663.959961" stroke="red" stroke-width="6.660000" />
<circle cx="1650.959961" cy="976.960022" r="19.980000" fill="red">
  <title>Mumbai</title>
</circle><line x1="1244.959961" y1="1663.959961" x2="1650.959961" y2="976.960022" stroke="red" stroke-width="6.660000" />
</svg>
