<?xml version="1.0" encoding="UTF-8" standalone="no"?>
<svg width="500" height="500" viewBox="0 0 2074.000000 2074.000000" xmlns="http://www.w3.org/2000/svg">
<rect x="19.000000" y="19.000000" width="2036.000000" height="2036.000000" fill="black" />
<circle cx="1939.959961" cy="1905.959961" r="19.980000" fill="red">
  <title>Tokyo</title>
</circle><line x1="1702.959961" y1="1776.959961" x2="1939.959961" y2="1905.959961" stroke="red" stroke-width="6.660000" />
<circle cx="1986.959961" cy="1313.959961" r="19.980000" fill="red">
  <title>Shanghai</title>
</circle><line x1="1939.959961" y1="1905.959961" x2="1986.959961" y2="1313.959961" stroke="red" stroke-width="6.660000" />
<circle cx="1912.959961" cy="1308.959961" r="19.980000" fill="red">
  <title>Delhi</title>
</circle><line x1="1986.959961" y1="1313.959961" x2="1912.959961" y2="1308.959961" stroke="red" stroke-width="6.660000" />
<circle cx="1724.959961" cy="805.960022" r="19.980000" fill="red">
  <title>Beijing</title>
</circle><line x1="1912.959961" y1="1308.959961" x2="1724.959961" y2="805.960022" stroke="red" stroke-width="6.660000" />
<circle cx="1470.959961" cy="213.959991" r="19.980000" fill="red">
  <title>Mumbai</title>
</circle><line x1="1724.959961" y1="805.960022" x2="1470.959961" y2="213.959991" stroke="red" stroke-width="6.660000" />
<circle cx="802.960022" cy="395.959991" r="19.980000" fill="red">
  <title>Buenos Aires</title>
</circle><line x1="1470.959961" y1="213.959991" x2="802.960022" y2="395.959991" stroke="red" stroke-width="6.660000" />
<circle cx="575.960022" cy="378.959991" r="19.980000" fill="red">
  <title>Mexico City</title>
</circle><line x1="802.960022" y1="395.959991" x2="575.960022" y2="378.959991" stroke="red" stroke-width="6.660000" />
<circle cx="499.959991" cy="597.960022" r="19.980000" fill="red">
  <title>New York</title>
</circle><line x1="575.960022" y1="378.959991" x2="499.959991" y2="597.960022" stroke="red" stroke-width="6.660000" />
<circle cx="523.960022" cy="685.960022" r="19.980000" fill="red">
  <title>Chongqing</title>
</circle><line x1="499.959991" y1="597.960022" x2="523.960022" y2="685.960022" stroke="red" stroke-width="6.660000" />
<circle cx="81.959999" cy="985.960022" r="19.980000" fill="red">
  <title>Osaka</title>
</circle><line x1="523.960022" y1="685.960022" x2="81.959999" y2="985.960022" stroke="red" stroke-width="6.660000" />
<circle cx="421.959991" cy="805.960022" r="19.980000" fill="red">
  <title>São Paulo</title>
</circle><line x1="81.959999" y1="985.960022" x2="421.959991" y2="805.960022" stroke="red" stroke-width="6.660000" />
<circle cx="902.960022" cy="1140.959961" r="19.980000" fill="red">
  <title>Karachi</title>
</circle><line x1="421.959991" y1="805.960022" x2="902.960022" y2="1140.959961" stroke="red" stroke-width="6.660000" />
<circle cx="537.960022" cy="1996.959961" r="19.980000" fill="red">
  <title>Dhaka</title>
</circle><line x1="902.960022" y1="1140.959961" x2="537.960022" y2="1996.959961" stroke="red" stroke-width="6.660000" />
<circle cx="1702.959961" cy="1776.959961" r="19.980000" fill="red">
  <title>Cairo</title>
</circle><line x1="537.960022" y1="1996.959961" x2="1702.959961" y2="1776.959961" stroke="red" stroke-width="6.660000" />
</svg>
