<?xml version="1.0" encoding="UTF-8" standalone="no"?>
<svg width="500" height="500" viewBox="0 0 2074.000000 2074.000000" xmlns="http://www.w3.org/2000/svg">
<rect x="19.000000" y="19.000000" width="2036.000000" height="2036.000000" fill="black" />
<circle cx="1782.959961" cy="1589.959961" r="19.980000" fill="red">
  <title>Tokyo</title>
</circle><line x1="1506.959961" y1="944.960022" x2="1782.959961" y2="1589.959961" stroke="red" stroke-width="6.660000" />
<circle cx="1603.959961" cy="1858.959961" r="19.980000" fill="red">
  <title>Cairo</title>
</circle><line x1="1782.959961" y1="1589.959961" x2="1603.959961" y2="1858.959961" stroke="red" stroke-width="6.660000" />
<circle cx="1480.959961" cy="1881.959961" r="19.980000" fill="red">
  <title>Shanghai</title>
</circle><line x1="1603.959961" y1="1858.959961" x2="1480.959961" y2="1881.959961" stroke="red" stroke-width="6.660000" />
<circle cx="1241.959961" cy="1724.959961" r="19.980000" fill="red">
  <title>São Paulo</title>
</circle><line x1="1480.959961" y1="1881.959961" x2="1241.959961" y2="1724.959961" stroke="red" stroke-width="6.660000" />
<circle cx="1220.959961" cy="1697.959961" r="19.980000" fill="red">
  <title>Dhaka</title>
</circle><line x1="1241.959961" y1="1724.959961" x2="1220.959961" y2="1697.959961" stroke="red" stroke-width="6.660000" />
<circle cx="1095.959961" cy="1988.959961" r="19.980000" fill="red">
  <title>Karachi</title>
</circle><line x1="1220.959961" y1="1697.959961" x2="1095.959961" y2="1988.959961" stroke="red" stroke-width="6.660000" />
<circle cx="982.960022" cy="1902.959961" r="19.980000" fill="red">
  <title>Delhi</title>
</circle><line x1="1095.959961" y1="1988.959961" x2="982.960022" y2="1902.959961" stroke="red" stroke-width="6.660000" />
<circle cx="248.959991" cy="1727.959961" r="19.980000" fill="red">
  <title>Mumbai</title>
</circle><line x1="982.960022" y1="1902.959961" x2="248.959991" y2="1727.959961" stroke="red" stroke-width="6.660000" />
<circle cx="401.959991" cy="1366.959961" r="19.980000" fill="red">
  <title>New York</title>
</circle><line x1="248.959991" y1="1727.959961" x2="401.959991" y2="1366.959961" stroke="red" stroke-width="6.660000" />
<circle cx="1028.959961" cy="1469.959961" r="19.980000" fill="red">
  <title>Osaka</title>
</circle><line x1="401.959991" y1="1366.959961" x2="1028.959961" y2="1469.959961" stroke="red" stroke-width="6.660000" />
<circle cx="1456.959961" cy="946.960022" r="19.980000" fill="red">
  <title>Beijing</title>
</circle><line x1="1028.959961" y1="1469.959961" x2="1456.959961" y2="946.960022" stroke="red" stroke-width="6.660000" />
<circle cx="1277.959961" cy="407.959991" r="19.980000" fill="red">
  <title>Chongqing</title>
</circle><line x1="1456.959961" y1="946.960022" x2="1277.959961" y2="407.959991" stroke="red" stroke-width="6.660000" />
<circle cx="1500.959961" cy="419.959991" r="19.980000" fill="red">
  <title>Mexico City</title>
</circle><line x1="1277.959961" y1="407.959991" x2="1500.959961" y2="419.959991" stroke="red" stroke-width="6.660000" />
<circle cx="1635.959961" cy="507.959991" r="19.980000" fill="red">
  <title>Buenos Aires</title>
</circle><line x1="1500.959961" y1="419.959991" x2="1635.959961" y2="507.959991" stroke="red" stroke-width="6.660000" />
<circle cx="1506.959961" cy="944.960022" r="19.980000" fill="red">
  <title>Istanbul</title>
</circle><line x1="1635.959961" y1="507.959991" x2="1506.959961" y2="944.960022" stroke="red" stroke-width="6.660000" />
</svg>
