<?xml version="1.0" encoding="UTF-8" standalone="no"?>
<svg width="500" height="500" viewBox="0 0 2074.000000 2074.000000" xmlns="http://www.w3.org/2000/svg">
<rect x="19.000000" y="19.000000" width="2036.000000" height="2036.000000" fill="black" />
<circle cx="1539.959961" cy="1615.959961" r="19.980000" fill="red">
  <title>Tokyo</title>
</circle><line x1="241.959991" y1="1670.959961" x2="1539.959961" y2="1615.959961" stroke="red" stroke-width="6.660000" />
<circle cx="1415.959961" cy="922.960022" r="19.980000" fill="red">
  <title>Cairo</title>
</circle><line x1="1539.959961" y1="1615.959961" x2="1415.959961" y2="922.960022" stroke="red" stroke-width="6.660000" />
<circle cx="1573.959961" cy="874.960022" r="19.980000" fill="red">
  <title>New York</title>
</circle><line x1="1415.959961" y1="922.960022" x2="1573.959961" y2="874.960022" stroke="red" stroke-width="6.660000" />
<circle cx="1978.959961" cy="309.959991" r="19.980000" fill="red">
  <title>Mexico City</title>
</circle><line x1="1573.959961" y1="874.960022" x2="1978.959961" y2="309.959991" stroke="red" stroke-width="6.660000" />
<circle cx="888.960022" cy="392.959991" r="19.980000" fill="red">
  <title>Delhi</title>
</circle><line x1="1978.959961" y1="309.959991" x2="888.960022" y2="392.959991" stroke="red" stroke-width="6.660000" />
<circle cx="245.959991" cy="520.960022" r="19.980000" fill="red">
  <title>São Paulo</title>
</circle><line x1="888.960022" y1="392.959991" x2="245.959991" y2="520.960022" stroke="red" stroke-width="6.660000" />
<circle cx="89.959999" cy="352.959991" r="19.980000" fill="red">
  <title>Dhaka</title>
</circle><line x1="245.959991" y1="520.960022" x2="89.959999" y2="352.959991" stroke="red" stroke-width="6.660000" />
<circle cx="67.959999" cy="769.960022" r="19.980000" fill="red">
  <title>Shanghai</title>
</circle><line x1="89.959999" y1="352.959991" x2="67.959999" y2="769.960022" stroke="red" stroke-width="6.660000" />
<circle cx="450.959991" cy="1064.959961" r="19.980000" fill="red">
  <title>Beijing</title>
</circle><line x1="67.959999" y1="769.960022" x2="450.959991" y2="1064.959961" stroke="red" stroke-width="6.660000" />
<circle cx="45.959999" cy="1565.959961" r="19.980000" fill="red">
  <title>Osaka</title>
</circle><line x1="450.959991" y1="1064.959961" x2="45.959999" y2="1565.959961" stroke="red" stroke-width="6.660000" />
<circle cx="241.959991" cy="1670.959961" r="19.980000" fill="red">
  <title>Mumbai</title>
</circle><line x1="45.959999" y1="1565.959961" x2="241.959991" y2="1670.959961" stroke="red" stroke-width="6.660000" />
</svg>
