<?xml version="1.0" encoding="UTF-8" standalone="no"?>
<svg width="500" height="500" viewBox="0 0 2074.000000 2074.000000" xmlns="http://www.w3.org/2000/svg">
<rect x="19.000000" y="19.000000" width="2036.000000" height="2036.000000" fill="black" />
<circle cx="428.959991" cy="1457.959961" r="19.980000" fill="red">
  <title>Tokyo</title>
</circle><line x1="249.959991" y1="1486.959961" x2="428.959991" y2="1457.959961" stroke="red" stroke-width="6.660000" />
<circle cx="869.960022" cy="1080.959961" r="19.980000" fill="red">
  <title>Shanghai</title>
</circle><line x1="428.959991" y1="1457.959961" x2="869.960022" y2="1080.959961" stroke="red" stroke-width="6.660000" />
<circle cx="1636.959961" cy="1185.959961" r="19.980000" fill="red">
  <title>Buenos Aires</title>
</circle><line x1="869.960022" y1="1080.959961" x2="1636.959961" y2="1185.959961" stroke="red" stroke-width="6.660000" />
<circle cx="1858.959961" cy="1557.959961" r="19.980000" fill="red">
  <title>Dhaka</title>
</circle><line x1="1636.959961" y1="1185.959961" x2="1858.959961" y2="1557.959961" stroke="red" stroke-width="6.660000" />
<circle cx="2021.959961" cy="1089.959961" r="19.980000" fill="red">
  <title>New York</title>
</circle><line x1="1858.959961" y1="1557.959961" x2="2021.959961" y2="1089.959961" stroke="red" stroke-width="6.660000" />
<circle cx="1810.959961" cy="486.959991" r="19.980000" fill="red">
  <title>Karachi</title>
</circle><line x1="2021.959961" y1="1089.959961" x2="1810.959961" y2="486.959991" stroke="red" stroke-width="6.660000" />
<circle cx="1828.959961" cy="106.959999" r="19.980000" fill="red">
  <title>Cairo</title>
</circle><line x1="1810.959961" y1="486.959991" x2="1828.959961" y2="106.959999" stroke="red" stroke-width="6.660000" />
<circle cx="1363.959961" cy="135.959991" r="19.980000" fill="red">
  <title>São Paulo</title>
</circle><line x1="1828.959961" y1="106.959999" x2="1363.959961" y2="135.959991" stroke="red" stroke-width="6.660000" />
<circle cx="889.960022" cy="394.959991" r="19.980000" fill="red">
  <title>Beijing</title>
</circle><line x1="1363.959961" y1="135.959991" x2="889.960022" y2="394.959991" stroke="red" stroke-width="6.660000" />
<circle cx="641.960022" cy="557.960022" r="19.980000" fill="red">
  <title>Delhi</title>
</circle><line x1="889.960022" y1="394.959991" x2="641.960022" y2="557.960022" stroke="red" stroke-width="6.660000" />
<circle cx="204.959991" cy="260.959991" r="19.980000" fill="red">
  <title>Mexico City</title>
</circle><line x1="641.960022" y1="557.960022" x2="204.959991" y2="260.959991" stroke="red" stroke-width="6.660000" />
<circle cx="420.959991" cy="543.960022" r="19.980000" fill="red">
  <title>Mumbai</title>
</circle><line x1="204.959991" y1="260.959991" x2="420.959991" y2="543.960022" stroke="red" stroke-width="6.660000" />
<circle cx="249.959991" cy="1486.959961" r="19.980000" fill="red">
  <title>Osaka</title>
</circle><line x1="420.959991" y1="543.960022" x2="249.959991" y2="1486.959961" stroke="red" stroke-width="6.660000" />
</svg>
