<?xml version="1.0" encoding="UTF-8" standalone="no"?>
<svg width="500" height="500" viewBox="0 0 2074.000000 2074.000000" xmlns="http://www.w3.org/2000/svg">
<rect x="19.000000" y="19.000000" width="2036.000000" height="2036.000000" fill="black" />
<circle cx="1600.959961" cy="765.960022" r="19.980000" fill="red">
  <title>Tokyo</title>
</circle><line x1="1440.959961" y1="1233.959961" x2="1600.959961" y2="765.960022" stroke="red" stroke-width="6.660000" />
<circle cx="1736.959961" cy="839.960022" r="19.980000" fill="red">
  <title>São Paulo</title>
</circle><line x1="1600.959961" y1="765.960022" x2="1736.959961" y2="839.960022" stroke="red" stroke-width="6.660000" />
<circle cx="2010.959961" cy="559.960022" r="19.980000" fill="red">
  <title>Rio de Janeiro</title>
</circle><line x1="1736.959961" y1="839.960022" x2="2010.959961" y2="559.960022" stroke="red" stroke-width="6.660000" />
<circle cx="1641.959961" cy="422.959991" r="19.980000" fill="red">
  <title>Shanghai</title>
</circle><line x1="2010.959961" y1="559.960022" x2="1641.959961" y2="422.959991" stroke="red" stroke-width="6.660000" />
<circle cx="1074.959961" cy="68.959999" r="19.980000" fill="red">
  <title>Osaka</title>
</circle><line x1="1641.959961" y1="422.959991" x2="1074.959961" y2="68.959999" stroke="red" stroke-width="6.660000" />
<circle cx="926.960022" cy="581.960022" r="19.980000" fill="red">
  <title>Mumbai</title>
</circle><line x1="1074.959961" y1="68.959999" x2="926.960022" y2="581.960022" stroke="red" stroke-width="6.660000" />
<circle cx="676.960022" cy="355.959991" r="19.980000" fill="red">
  <title>Cairo</title>
</circle><line x1="926.960022" y1="581.960022" x2="676.960022" y2="355.959991" stroke="red" stroke-width="6.660000" />
<circle cx="547.960022" cy="143.959991" r="19.980000" fill="red">
  <title>Beijing</title>
</circle><line x1="676.960022" y1="355.959991" x2="547.960022" y2="143.959991" stroke="red" stroke-width="6.660000" />
<circle cx="58.959999" cy="626.960022" r="19.980000" fill="red">
  <title>Karachi</title>
</circle><line x1="547.960022" y1="143.959991" x2="58.959999" y2="626.960022" stroke="red" stroke-width="6.660000" />
<circle cx="239.959991" cy="1072.959961" r="19.980000" fill="red">
  <title>Buenos Aires</title>
</circle><line x1="58.959999" y1="626.960022" x2="239.959991" y2="1072.959961" stroke="red" stroke-width="6.660000" />
<circle cx="221.959991" cy="1627.959961" r="19.980000" fill="red">
  <title>Manila</title>
</circle><line x1="239.959991" y1="1072.959961" x2="221.959991" y2="1627.959961" stroke="red" stroke-width="6.660000" />
<circle cx="434.959991" cy="1604.959961" r="19.980000" fill="red">
  <title>Delhi</title>
</circle><line x1="221.959991" y1="1627.959961" x2="434.959991" y2="1604.959961" stroke="red" stroke-width="6.660000" />
<circle cx="625.960022" cy="1859.959961" r="19.980000" fill="red">
  <title>Tianjin</title>
</circle><line x1="434.959991" y1="1604.959961" x2="625.960022" y2="1859.959961" stroke="red" stroke-width="6.660000" />
<circle cx="861.960022" cy="1823.959961" r="19.980000" fill="red">
  <title>Lagos</title>
</circle><line x1="625.960022" y1="1859.959961" x2="861.960022" y2="1823.959961" stroke="red" stroke-width="6.660000" />
<circle cx="1231.959961" cy="1295.959961" r="19.980000" fill="red">
  <title>Kolkata</title>
</circle><line x1="861.960022" y1="1823.959961" x2="1231.959961" y2="1295.959961" stroke="red" stroke-width="6.660000" />
<circle cx="1646.959961" cy="1459.959961" r="19.980000" fill="red">
  <title>Dhaka</title>
</circle><line x1="1231.959961" y1="1295.959961" x2="1646.959961" y2="1459.959961" stroke="red" stroke-width="6.660000" />
<circle cx="1911.959961" cy="1625.959961" r="19.980000" fill="red">
  <title>New York</title>
</circle><line x1="1646.959961" y1="1459.959961" x2="1911.959961" y2="1625.959961" stroke="red" stroke-width="6.660000" />
<circle cx="1886.959961" cy="1715.959961" r="19.980000" fill="red">
  <title>Mexico City</title>
</circle><line x1="1911.959961" y1="1625.959961" x2="1886.959961" y2="1715.959961" stroke="red" stroke-width="6.660000" />
<circle cx="1732.959961" cy="1493.959961" r="19.980000" fill="red">
  <title>Istanbul</title>
</circle><line x1="1886.959961" y1="1715.959961" x2="1732.959961" y2="1493.959961" stroke="red" stroke-width="6.660000" />
<circle cx="1440.959961" cy="1233.959961" r="19.980000" fill="red">
  <title>Chongqing</title>
</circle><line x1="1732.959961" y1="1493.959961" x2="1440.959961" y2="1233.959961" stroke="red" stroke-width="6.660000" />
</svg>
