<?xml version="1.0" encoding="UTF-8" standalone="no"?>
<svg width="500" height="500" viewBox="0 0 2074.000000 2074.000000" xmlns="http://www.w3.org/2000/svg">
<rect x="19.000000" y="19.000000" width="2036.000000" height="2036.000000" fill="black" />
<circle cx="907.960022" cy="1186.959961" r="19.980000" fill="red">
  <title>Tokyo</title>
</circle><line x1="1036.959961" y1="943.960022" x2="907.960022" y2="1186.959961" stroke="red" stroke-width="6.660000" />
<circle cx="1209.959961" cy="1849.959961" r="19.980000" fill="red">
  <title>Beijing</title>
</circle><line x1="907.960022" y1="1186.959961" x2="1209.959961" y2="1849.959961" stroke="red" stroke-width="6.660000" />
<circle cx="688.960022" cy="1559.959961" r="19.980000" fill="red">
  <title>Osaka</title>
</circle><line x1="1209.959961" y1="1849.959961" x2="688.960022" y2="1559.959961" stroke="red" stroke-width="6.660000" />
<circle cx="538.960022" cy="1472.959961" r="19.980000" fill="red">
  <title>Buenos Aires</title>
</circle><line x1="688.960022" y1="1559.959961" x2="538.960022" y2="1472.959961" stroke="red" stroke-width="6.660000" />
<circle cx="238.959991" cy="550.960022" r="19.980000" fill="red">
  <title>Delhi</title>
</circle><line x1="538.960022" y1="1472.959961" x2="238.959991" y2="550.960022" stroke="red" stroke-width="6.660000" />
<circle cx="214.959991" cy="394.959991" r="19.980000" fill="red">
  <title>Istanbul</title>
</circle><line x1="238.959991" y1="550.960022" x2="214.959991" y2="394.959991" stroke="red" stroke-width="6.660000" />
<circle cx="354.959991" cy="122.959999" r="19.980000" fill="red">
  <title>New York</title>
</circle><line x1="214.959991" y1="394.959991" x2="354.959991" y2="122.959999" stroke="red" stroke-width="6.660000" />
<circle cx="552.960022" cy="149.959991" r="19.980000" fill="red">
  <title>Mexico City</title>
</circle><line x1="354.959991" y1="122.959999" x2="552.960022" y2="149.959991" stroke="red" stroke-width="6.660000" />
<circle cx="876.960022" cy="756.960022" r="19.980000" fill="red">
  <title>Dhaka</title>
</circle><line x1="552.960022" y1="149.959991" x2="876.960022" y2="756.960022" stroke="red" stroke-width="6.660000" />
<circle cx="1438.959961" cy="694.960022" r="19.980000" fill="red">
  <title>Karachi</title>
</circle><line x1="876.960022" y1="756.960022" x2="1438.959961" y2="694.960022" stroke="red" stroke-width="6.660000" />
<circle cx="1785.959961" cy="538.960022" r="19.980000" fill="red">
  <title>Mumbai</title>
</circle><line x1="1438.959961" y1="694.960022" x2="1785.959961" y2="538.960022" stroke="red" stroke-width="6.660000" />
<circle cx="1886.959961" cy="800.960022" r="19.980000" fill="red">
  <title>São Paulo</title>
</circle><line x1="1785.959961" y1="538.960022" x2="1886.959961" y2="800.960022" stroke="red" stroke-width="6.660000" />
<circle cx="1760.959961" cy="978.960022" r="19.980000" fill="red">
  <title>Cairo</title>
</circle><line x1="1886.959961" y1="800.960022" x2="1760.959961" y2="978.960022" stroke="red" stroke-width="6.660000" />
<circle cx="1485.959961" cy="817.960022" r="19.980000" fill="red">
  <title>Shanghai</title>
</circle><line x1="1760.959961" y1="978.960022" x2="1485.959961" y2="817.960022" stroke="red" stroke-width="6.660000" />
<circle cx="1036.959961" cy="943.960022" r="19.980000" fill="red">
  <title>Chongqing</title>
</circle><line x1="1485.959961" y1="817.960022" x2="1036.959961" y2="943.960022" stroke="red" stroke-width="6.660000" />
</svg>
