<?xml version="1.0" encoding="UTF-8" standalone="no"?>
<svg width="500" height="500" viewBox="0 0 2074.000000 2074.000000" xmlns="http://www.w3.org/2000/svg">
<rect x="19.000000" y="19.000000" width="2036.000000" height="2036.000000" fill="black" />
<circle cx="1926.959961" cy="1331.959961" r="19.980000" fill="red">
  <title>Tokyo</title>
</circle><line x1="1912.959961" y1="1362.959961" x2="1926.959961" y2="1331.959961" stroke="red" stroke-width="6.660000" />
<circle cx="1571.959961" cy="1307.959961" r="19.980000" fill="red">
  <title>Mexico City</title>
</circle><line x1="1926.959961" y1="1331.959961" x2="1571.959961" y2="1307.959961" stroke="red" stroke-width="6.660000" />
<circle cx="1689.959961" cy="1215.959961" r="19.980000" fill="red">
  <title>Cairo</title>
</circle><line x1="1571.959961" y1="1307.959961" x2="1689.959961" y2="1215.959961" stroke="red" stroke-width="6.660000" />
<circle cx="1699.959961" cy="339.959991" r="19.980000" fill="red">
  <title>Beijing</title>
</circle><line x1="1689.959961" y1="1215.959961" x2="1699.959961" y2="339.959991" stroke="red" stroke-width="6.660000" />
<circle cx="1538.959961" cy="366.959991" r="19.980000" fill="red">
  <title>Dhaka</title>
</circle><line x1="1699.959961" y1="339.959991" x2="1538.959961" y2="366.959991" stroke="red" stroke-width="6.660000" />
<circle cx="614.960022" cy="47.959999" r="19.980000" fill="red">
  <title>São Paulo</title>
</circle><line x1="1538.959961" y1="366.959991" x2="614.960022" y2="47.959999" stroke="red" stroke-width="6.660000" />
<circle cx="1106.959961" cy="1109.959961" r="19.980000" fill="red">
  <title>Delhi</title>
</circle><line x1="614.960022" y1="47.959999" x2="1106.959961" y2="1109.959961" stroke="red" stroke-width="6.660000" />
<circle cx="515.960022" cy="2012.959961" r="19.980000" fill="red">
  <title>Shanghai</title>
</circle><line x1="1106.959961" y1="1109.959961" x2="515.960022" y2="2012.959961" stroke="red" stroke-width="6.660000" />
<circle cx="1681.959961" cy="1586.959961" r="19.980000" fill="red">
  <title>New York</title>
</circle><line x1="515.960022" y1="2012.959961" x2="1681.959961" y2="1586.959961" stroke="red" stroke-width="6.660000" />
<circle cx="1999.959961" cy="1582.959961" r="19.980000" fill="red">
  <title>Mumbai</title>
</circle><line x1="1681.959961" y1="1586.959961" x2="1999.959961" y2="1582.959961" stroke="red" stroke-width="6.660000" />
<circle cx="1912.959961" cy="1362.959961" r="19.980000" fill="red">
  <title>Osaka</title>
</circle><line x1="1999.959961" y1="1582.959961" x2="1912.959961" y2="1362.959961" stroke="red" stroke-width="6.660000" />
</svg>
