<?xml version="1.0" encoding="UTF-8" standalone="no"?>
<svg width="500" height="500" viewBox="0 0 2074.000000 2074.000000" xmlns="http://www.w3.org/2000/svg">
<rect x="19.000000" y="19.000000" width="2036.000000" height="2036.000000" fill="black" />
<circle cx="702.960022" cy="683.960022" r="19.980000" fill="red">
  <title>Tokyo</title>
</circle><line x1="877.960022" y1="659.960022" x2="702.960022" y2="683.960022" stroke="red" stroke-width="6.660000" />
<circle cx="309.959991" cy="955.960022" r="19.980000" fill="red">
  <title>Delhi</title>
</circle><line x1="702.960022" y1="683.960022" x2="309.959991" y2="955.960022" stroke="red" stroke-width="6.660000" />
<circle cx="294.959991" cy="2009.959961" r="19.980000" fill="red">
  <title>Mexico City</title>
</circle><line x1="309.959991" y1="955.960022" x2="294.959991" y2="2009.959961" stroke="red" stroke-width="6.660000" />
<circle cx="1013.960022" cy="1871.959961" r="19.980000" fill="red">
  <title>Karachi</title>
</circle><line x1="294.959991" y1="2009.959961" x2="1013.960022" y2="1871.959961" stroke="red" stroke-width="6.660000" />
<circle cx="1084.959961" cy="1611.959961" r="19.980000" fill="red">
  <title>Dhaka</title>
</circle><line x1="1013.960022" y1="1871.959961" x2="1084.959961" y2="1611.959961" stroke="red" stroke-width="6.660000" />
<circle cx="1323.959961" cy="1120.959961" r="19.980000" fill="red">
  <title>Mumbai</title>
</circle><line x1="1084.959961" y1="1611.959961" x2="1323.959961" y2="1120.959961" stroke="red" stroke-width="6.660000" />
<circle cx="1740.959961" cy="962.960022" r="19.980000" fill="red">
  <title>New York</title>
</circle><line x1="1323.959961" y1="1120.959961" x2="1740.959961" y2="962.960022" stroke="red" stroke-width="6.660000" />
<circle cx="2007.959961" cy="1096.959961" r="19.980000" fill="red">
  <title>Kolkata</title>
</circle><line x1="1740.959961" y1="962.960022" x2="2007.959961" y2="1096.959961" stroke="red" stroke-width="6.660000" />
<circle cx="1790.959961" cy="940.960022" r="19.980000" fill="red">
  <title>São Paulo</title>
</circle><line x1="2007.959961" y1="1096.959961" x2="1790.959961" y2="940.960022" stroke="red" stroke-width="6.660000" />
<circle cx="1612.959961" cy="129.959991" r="19.980000" fill="red">
  <title>Beijing</title>
</circle><line x1="1790.959961" y1="940.960022" x2="1612.959961" y2="129.959991" stroke="red" stroke-width="6.660000" />
<circle cx="1467.959961" cy="40.959999" r="19.980000" fill="red">
  <title>Cairo</title>
</circle><line x1="1612.959961" y1="129.959991" x2="1467.959961" y2="40.959999" stroke="red" stroke-width="6.660000" />
<circle cx="754.960022" cy="279.959991" r="19.980000" fill="red">
  <title>Manila</title>
</circle><line x1="1467.959961" y1="40.959999" x2="754.960022" y2="279.959991" stroke="red" stroke-width="6.660000" />
<circle cx="433.959991" cy="109.959999" r="19.980000" fill="red">
  <title>Istanbul</title>
</circle><line x1="754.960022" y1="279.959991" x2="433.959991" y2="109.959999" stroke="red" stroke-width="6.660000" />
<circle cx="140.959991" cy="82.959999" r="19.980000" fill="red">
  <title>Buenos Aires</title>
</circle><line x1="433.959991" y1="109.959999" x2="140.959991" y2="82.959999" stroke="red" stroke-width="6.660000" />
<circle cx="441.959991" cy="435.959991" r="19.980000" fill="red">
  <title>Chongqing</title>
</circle><line x1="140.959991" y1="82.959999" x2="441.959991" y2="435.959991" stroke="red" stroke-width="6.660000" />
<circle cx="818.960022" cy="619.960022" r="19.980000" fill="red">
  <title>Osaka</title>
</circle><line x1="441.959991" y1="435.959991" x2="818.960022" y2="619.960022" stroke="red" stroke-width="6.660000" />
<circle cx="877.960022" cy="659.960022" r="19.980000" fill="red">
  <title>Shanghai</title>
</circle><line x1="818.960022" y1="619.960022" x2="877.960022" y2="659.960022" stroke="red" stroke-width="6.660000" />
</svg>
