<?xml version="1.0" encoding="UTF-8" standalone="no"?>
<svg width="500" height="500" viewBox="0 0 2074.000000 2074.000000" xmlns="http://www.w3.org/2000/svg">
<rect x="19.000000" y="19.000000" width="2036.000000" height="2036.000000" fill="black" />
<circle cx="1231.959961" cy="92.959999" r="19.980000" fill="red">
  <title>Tokyo</title>
</circle><line x1="1909.959961" y1="228.959991" x2="1231.959961" y2="92.959999" stroke="red" stroke-width="6.660000" />
<circle cx="277.959991" cy="230.959991" r="19.980000" fill="red">
  <title>São Paulo</title>
</circle><line x1="1231.959961" y1="92.959999" x2="277.959991" y2="230.959991" stroke="red" stroke-width="6.660000" />
<circle cx="581.960022" cy="1148.959961" r="19.980000" fill="red">
  <title>Shanghai</title>
</circle><line x1="277.959991" y1="230.959991" x2="581.960022" y2="1148.959961" stroke="red" stroke-width="6.660000" />
<circle cx="1245.959961" cy="779.960022" r="19.980000" fill="red">
  <title>New York</title>
</circle><line x1="581.960022" y1="1148.959961" x2="1245.959961" y2="779.960022" stroke="red" stroke-width="6.660000" />
<circle cx="1225.959961" cy="993.960022" r="19.980000" fill="red">
  <title>Buenos Aires</title>
</circle><line x1="1245.959961" y1="779.960022" x2="1225.959961" y2="993.960022" stroke="red" stroke-width="6.660000" />
<circle cx="1321.959961" cy="1689.959961" r="19.980000" fill="red">
  <title>Mexico City</title>
</circle><line x1="1225.959961" y1="993.960022" x2="1321.959961" y2="1689.959961" stroke="red" stroke-width="6.660000" />
<circle cx="1428.959961" cy="1840.959961" r="19.980000" fill="red">
  <title>Cairo</title>
</circle><line x1="1321.959961" y1="1689.959961" x2="1428.959961" y2="1840.959961" stroke="red" stroke-width="6.660000" />
<circle cx="1830.959961" cy="2001.959961" r="19.980000" fill="red">
  <title>Chongqing</title>
</circle><line x1="1428.959961" y1="1840.959961" x2="1830.959961" y2="2001.959961" stroke="red" stroke-width="6.660000" />
<circle cx="1885.959961" cy="1665.959961" r="19.980000" fill="red">
  <title>Dhaka</title>
</circle><line x1="1830.959961" y1="2001.959961" x2="1885.959961" y2="1665.959961" stroke="red" stroke-width="6.660000" />
<circle cx="1921.959961" cy="1022.960022" r="19.980000" fill="red">
  <title>Mumbai</title>
</circle><line x1="1885.959961" y1="1665.959961" x2="1921.959961" y2="1022.960022" stroke="red" stroke-width="6.660000" />
<circle cx="1974.959961" cy="976.960022" r="19.980000" fill="red">
  <title>Beijing</title>
</circle><line x1="1921.959961" y1="1022.960022" x2="1974.959961" y2="976.960022" stroke="red" stroke-width="6.660000" />
<circle cx="1752.959961" cy="1062.959961" r="19.980000" fill="red">
  <title>Delhi</title>
</circle><line x1="1974.959961" y1="976.960022" x2="1752.959961" y2="1062.959961" stroke="red" stroke-width="6.660000" />
<circle cx="1608.959961" cy="863.960022" r="19.980000" fill="red">
  <title>Karachi</title>
</circle><line x1="1752.959961" y1="1062.959961" x2="1608.959961" y2="863.960022" stroke="red" stroke-width="6.660000" />
<circle cx="1909.959961" cy="228.959991" r="19.980000" fill="red">
  <title>Osaka</title>
</circle><line x1="1608.959961" y1="863.960022" x2="1909.959961" y2="228.959991" stroke="red" stroke-width="6.660000" />
</svg>
