<?xml version="1.0" encoding="UTF-8" standalone="no"?>
<svg width="500" height="500" viewBox="0 0 2074.000000 2074.000000" xmlns="http://www.w3.org/2000/svg">
<rect x="19.000000" y="19.000000" width="2036.000000" height="2036.000000" fill="black" />
<circle cx="329.959991" cy="71.959999" r="19.980000" fill="red">
  <title>Tokyo</title>
</circle><line x1="1597.959961" y1="518.960022" x2="329.959991" y2="71.959999" stroke="red" stroke-width="6.660000" />
<circle cx="169.959991" cy="1887.959961" r="19.980000" fill="red">
  <title>Shanghai</title>
</circle><line x1="329.959991" y1="71.959999" x2="169.959991" y2="1887.959961" stroke="red" stroke-width="6.660000" />
<circle cx="789.960022" cy="831.960022" r="19.980000" fill="red">
  <title>Delhi</title>
</circle><line x1="169.959991" y1="1887.959961" x2="789.960022" y2="831.960022" stroke="red" stroke-width="6.660000" />
<circle cx="1597.959961" cy="518.960022" r="19.980000" fill="red">
  <title>São Paulo</title>
</circle><line x1="789.960022" y1="831.960022" x2="1597.959961" y2="518.960022" stroke="red" stroke-width="6.660000" />
</svg>
