<?xml version="1.0" encoding="UTF-8" standalone="no"?>
<svg width="500" height="500" viewBox="0 0 2074.000000 2074.000000" xmlns="http://www.w3.org/2000/svg">
<rect x="19.000000" y="19.000000" width="2036.000000" height="2036.000000" fill="black" />
<circle cx="800.960022" cy="1429.959961" r="19.980000" fill="red">
  <title>Tokyo</title>
</circle><line x1="1312.959961" y1="1175.959961" x2="800.960022" y2="1429.959961" stroke="red" stroke-width="6.660000" />
<circle cx="720.960022" cy="1370.959961" r="19.980000" fill="red">
  <title>Dhaka</title>
</circle><line x1="800.960022" y1="1429.959961" x2="720.960022" y2="1370.959961" stroke="red" stroke-width="6.660000" />
<circle cx="512.960022" cy="1800.959961" r="19.980000" fill="red">
  <title>Shanghai</title>
</circle><line x1="720.960022" y1="1370.959961" x2="512.960022" y2="1800.959961" stroke="red" stroke-width="6.660000" />
<circle cx="585.960022" cy="1832.959961" r="19.980000" fill="red">
  <title>Osaka</title>
</circle><line x1="512.960022" y1="1800.959961" x2="585.960022" y2="1832.959961" stroke="red" stroke-width="6.660000" />
<circle cx="1074.959961" cy="1709.959961" r="19.980000" fill="red">
  <title>Mumbai</title>
</circle><line x1="585.960022" y1="1832.959961" x2="1074.959961" y2="1709.959961" stroke="red" stroke-width="6.660000" />
<circle cx="1462.959961" cy="1782.959961" r="19.980000" fill="red">
  <title>Delhi</title>
</circle><line x1="1074.959961" y1="1709.959961" x2="1462.959961" y2="1782.959961" stroke="red" stroke-width="6.660000" />
<circle cx="1450.959961" cy="1099.959961" r="19.980000" fill="red">
  <title>Mexico City</title>
</circle><line x1="1462.959961" y1="1782.959961" x2="1450.959961" y2="1099.959961" stroke="red" stroke-width="6.660000" />
<circle cx="1961.959961" cy="593.960022" r="19.980000" fill="red">
  <title>Beijing</title>
</circle><line x1="1450.959961" y1="1099.959961" x2="1961.959961" y2="593.960022" stroke="red" stroke-width="6.660000" />
<circle cx="1850.959961" cy="937.960022" r="19.980000" fill="red">
  <title>Cairo</title>
</circle><line x1="1961.959961" y1="593.960022" x2="1850.959961" y2="937.960022" stroke="red" stroke-width="6.660000" />
<circle cx="1312.959961" cy="1175.959961" r="19.980000" fill="red">
  <title>São Paulo</title>
</circle><line x1="1850.959961" y1="937.960022" x2="1312.959961" y2="1175.959961" stroke="red" stroke-width="6.660000" />
</svg>
