<?xml version="1.0" encoding="UTF-8" standalone="no"?>
<svg width="500" height="500" viewBox="0 0 2074.000000 2074.000000" xmlns="http://www.w3.org/2000/svg">
<rect x="19.000000" y="19.000000" width="2036.000000" height="2036.000000" fill="black" />
<circle cx="2000.959961" cy="693.960022" r="19.980000" fill="red">
  <title>Tokyo</title>
</circle><line x1="1844.959961" y1="1096.959961" x2="2000.959961" y2="693.960022" stroke="red" stroke-width="6.660000" />
<circle cx="1638.959961" cy="332.959991" r="19.980000" fill="red">
  <title>Delhi</title>
</circle><line x1="2000.959961" y1="693.960022" x2="1638.959961" y2="332.959991" stroke="red" stroke-width="6.660000" />
<circle cx="1112.959961" cy="1060.959961" r="19.980000" fill="red">
  <title>Beijing</title>
</circle><line x1="1638.959961" y1="332.959991" x2="1112.959961" y2="1060.959961" stroke="red" stroke-width="6.660000" />
<circle cx="565.960022" cy="629.960022" r="19.980000" fill="red">
  <title>Shanghai</title>
</circle><line x1="1112.959961" y1="1060.959961" x2="565.960022" y2="629.960022" stroke="red" stroke-width="6.660000" />
<circle cx="176.959991" cy="1697.959961" r="19.980000" fill="red">
  <title>Dhaka</title>
</circle><line x1="565.960022" y1="629.960022" x2="176.959991" y2="1697.959961" stroke="red" stroke-width="6.660000" />
<circle cx="592.960022" cy="1736.959961" r="19.980000" fill="red">
  <title>Mexico City</title>
</circle><line x1="176.959991" y1="1697.959961" x2="592.960022" y2="1736.959961" stroke="red" stroke-width="6.660000" />
<circle cx="971.960022" cy="1965.959961" r="19.980000" fill="red">
  <title>Cairo</title>
</circle><line x1="592.960022" y1="1736.959961" x2="971.960022" y2="1965.959961" stroke="red" stroke-width="6.660000" />
<circle cx="1526.959961" cy="1785.959961" r="19.980000" fill="red">
  <title>Mumbai</title>
</circle><line x1="971.960022" y1="1965.959961" x2="1526.959961" y2="1785.959961" stroke="red" stroke-width="6.660000" />
<circle cx="1898.959961" cy="1970.959961" r="19.980000" fill="red">
  <title>Osaka</title>
</circle><line x1="1526.959961" y1="1785.959961" x2="1898.959961" y2="1970.959961" stroke="red" stroke-width="6.660000" />
<circle cx="1519.959961" cy="1548.959961" r="19.980000" fill="red">
  <title>New York</title>
</circle><line x1="1898.959961" y1="1970.959961" x2="1519.959961" y2="1548.959961" stroke="red" stroke-width="6.660000" />
<circle cx="1844.959961" cy="1096.959961" r="19.980000" fill="red">
  <title>São Paulo</title>
</circle><line x1="1519.959961" y1="1548.959961" x2="1844.959961" y2="1096.959961" stroke="red" stroke-width="6.660000" />
</svg>
