<?xml version="1.0" encoding="UTF-8" standalone="no"?>
<svg width="500" height="500" viewBox="0 0 2074.000000 2074.000000" xmlns="http://www.w3.org/2000/svg">
<rect x="19.000000" y="19.000000" width="2036.000000" height="2036.000000" fill="black" />
<circle cx="908.960022" cy="393.959991" r="19.980000" fill="red">
  <title>Tokyo</title>
</circle><line x1="926.960022" y1="583.960022" x2="908.960022" y2="393.959991" stroke="red" stroke-width="6.660000" />
<circle cx="1388.959961" cy="140.959991" r="19.980000" fill="red">
  <title>São Paulo</title>
</circle><line x1="908.960022" y1="393.959991" x2="1388.959961" y2="140.959991" stroke="red" stroke-width="6.660000" />
<circle cx="1135.959961" cy="388.959991" r="19.980000" fill="red">
  <title>Cairo</title>
</circle><line x1="1388.959961" y1="140.959991" x2="1135.959961" y2="388.959991" stroke="red" stroke-width="6.660000" />
<circle cx="1254.959961" cy="774.960022" r="19.980000" fill="red">
  <title>Mumbai</title>
</circle><line x1="1135.959961" y1="388.959991" x2="1254.959961" y2="774.960022" stroke="red" stroke-width="6.660000" />
<circle cx="1742.959961" cy="750.960022" r="19.980000" fill="red">
  <title>Delhi</title>
</circle><line x1="1254.959961" y1="774.960022" x2="1742.959961" y2="750.960022" stroke="red" stroke-width="6.660000" />
<circle cx="2027.959961" cy="961.960022" r="19.980000" fill="red">
  <title>New York</title>
</circle><line x1="1742.959961" y1="750.960022" x2="2027.959961" y2="961.960022" stroke="red" stroke-width="6.660000" />
<circle cx="1776.959961" cy="1447.959961" r="19.980000" fill="red">
  <title>Shanghai</title>
</circle><line x1="2027.959961" y1="961.960022" x2="1776.959961" y2="1447.959961" stroke="red" stroke-width="6.660000" />
<circle cx="1454.959961" cy="1783.959961" r="19.980000" fill="red">
  <title>Karachi</title>
</circle><line x1="1776.959961" y1="1447.959961" x2="1454.959961" y2="1783.959961" stroke="red" stroke-width="6.660000" />
<circle cx="1040.959961" cy="1943.959961" r="19.980000" fill="red">
  <title>Buenos Aires</title>
</circle><line x1="1454.959961" y1="1783.959961" x2="1040.959961" y2="1943.959961" stroke="red" stroke-width="6.660000" />
<circle cx="975.960022" cy="1213.959961" r="19.980000" fill="red">
  <title>Beijing</title>
</circle><line x1="1040.959961" y1="1943.959961" x2="975.960022" y2="1213.959961" stroke="red" stroke-width="6.660000" />
<circle cx="755.960022" cy="1380.959961" r="19.980000" fill="red">
  <title>Osaka</title>
</circle><line x1="975.960022" y1="1213.959961" x2="755.960022" y2="1380.959961" stroke="red" stroke-width="6.660000" />
<circle cx="131.959991" cy="919.960022" r="19.980000" fill="red">
  <title>Mexico City</title>
</circle><line x1="755.960022" y1="1380.959961" x2="131.959991" y2="919.960022" stroke="red" stroke-width="6.660000" />
<circle cx="926.960022" cy="583.960022" r="19.980000" fill="red">
  <title>Dhaka</title>
</circle><line x1="131.959991" y1="919.960022" x2="926.960022" y2="583.960022" stroke="red" stroke-width="6.660000" />
</svg>
