<?xml version="1.0" encoding="UTF-8" standalone="no"?>
<svg width="500" height="500" viewBox="0 0 2074.000000 2074.000000" xmlns="http://www.w3.org/2000/svg">
<rect x="19.000000" y="19.000000" width="2036.000000" height="2036.000000" fill="black" />
<circle cx="1867.959961" cy="954.960022" r="19.980000" fill="red">
  <title>Tokyo</title>
</circle><line x1="1080.959961" y1="433.959991" x2="1867.959961" y2="954.960022" stroke="red" stroke-width="6.660000" />
<circle cx="1019.960022" cy="1468.959961" r="19.980000" fill="red">
  <title>Mexico City</title>
</circle><line x1="1867.959961" y1="954.960022" x2="1019.960022" y2="1468.959961" stroke="red" stroke-width="6.660000" />
<circle cx="666.960022" cy="1446.959961" r="19.980000" fill="red">
  <title>Beijing</title>
</circle><line x1="1019.960022" y1="1468.959961" x2="666.960022" y2="1446.959961" stroke="red" stroke-width="6.660000" />
<circle cx="298.959991" cy="1929.959961" r="19.980000" fill="red">
  <title>Shanghai</title>
</circle><line x1="666.960022" y1="1446.959961" x2="298.959991" y2="1929.959961" stroke="red" stroke-width="6.660000" />
<circle cx="413.959991" cy="1445.959961" r="19.980000" fill="red">
  <title>Delhi</title>
</circle><line x1="298.959991" y1="1929.959961" x2="413.959991" y2="1445.959961" stroke="red" stroke-width="6.660000" />
<circle cx="61.959999" cy="866.960022" r="19.980000" fill="red">
  <title>Mumbai</title>
</circle><line x1="413.959991" y1="1445.959961" x2="61.959999" y2="866.960022" stroke="red" stroke-width="6.660000" />
<circle cx="947.960022" cy="786.960022" r="19.980000" fill="red">
  <title>São Paulo</title>
</circle><line x1="61.959999" y1="866.960022" x2="947.960022" y2="786.960022" stroke="red" stroke-width="6.660000" />
<circle cx="1080.959961" cy="433.959991" r="19.980000" fill="red">
  <title>Cairo</title>
</circle><line x1="947.960022" y1="786.960022" x2="1080.959961" y2="433.959991" stroke="red" stroke-width="6.660000" />
</svg>
