<?xml version="1.0" encoding="UTF-8" standalone="no"?>
<svg width="500" height="500" viewBox="0 0 2074.000000 2074.000000" xmlns="http://www.w3.org/2000/svg">
<rect x="19.000000" y="19.000000" width="2036.000000" height="2036.000000" fill="black" />
<circle cx="466.959991" cy="40.959999" r="19.980000" fill="red">
  <title>Tokyo</title>
</circle><line x1="329.959991" y1="211.959991" x2="466.959991" y2="40.959999" stroke="red" stroke-width="6.660000" />
<circle cx="406.959991" cy="188.959991" r="19.980000" fill="red">
  <title>Mexico City</title>
</circle><line x1="466.959991" y1="40.959999" x2="406.959991" y2="188.959991" stroke="red" stroke-width="6.660000" />
<circle cx="858.960022" cy="895.960022" r="19.980000" fill="red">
  <title>Dhaka</title>
</circle><line x1="406.959991" y1="188.959991" x2="858.960022" y2="895.960022" stroke="red" stroke-width="6.660000" />
<circle cx="1294.959961" cy="507.959991" r="19.980000" fill="red">
  <title>Cairo</title>
</circle><line x1="858.960022" y1="895.960022" x2="1294.959961" y2="507.959991" stroke="red" stroke-width="6.660000" />
<circle cx="1702.959961" cy="612.960022" r="19.980000" fill="red">
  <title>Mumbai</title>
</circle><line x1="1294.959961" y1="507.959991" x2="1702.959961" y2="612.960022" stroke="red" stroke-width="6.660000" />
<circle cx="1711.959961" cy="616.960022" r="19.980000" fill="red">
  <title>Kolkata</title>
</circle><line x1="1702.959961" y1="612.960022" x2="1711.959961" y2="616.960022" stroke="red" stroke-width="6.660000" />
<circle cx="2021.959961" cy="788.960022" r="19.980000" fill="red">
  <title>São Paulo</title>
</circle><line x1="1711.959961" y1="616.960022" x2="2021.959961" y2="788.960022" stroke="red" stroke-width="6.660000" />
<circle cx="1610.959961" cy="1269.959961" r="19.980000" fill="red">
  <title>Delhi</title>
</circle><line x1="2021.959961" y1="788.960022" x2="1610.959961" y2="1269.959961" stroke="red" stroke-width="6.660000" />
<circle cx="1846.959961" cy="1625.959961" r="19.980000" fill="red">
  <title>Lagos</title>
</circle><line x1="1610.959961" y1="1269.959961" x2="1846.959961" y2="1625.959961" stroke="red" stroke-width="6.660000" />
<circle cx="1812.959961" cy="2008.959961" r="19.980000" fill="red">
  <title>Beijing</title>
</circle><line x1="1846.959961" y1="1625.959961" x2="1812.959961" y2="2008.959961" stroke="red" stroke-width="6.660000" />
<circle cx="1636.959961" cy="1830.959961" r="19.980000" fill="red">
  <title>Rio de Janeiro</title>
</circle><line x1="1812.959961" y1="2008.959961" x2="1636.959961" y2="1830.959961" stroke="red" stroke-width="6.660000" />
<circle cx="1351.959961" cy="1283.959961" r="19.980000" fill="red">
  <title>Manila</title>
</circle><line x1="1636.959961" y1="1830.959961" x2="1351.959961" y2="1283.959961" stroke="red" stroke-width="6.660000" />
<circle cx="1102.959961" cy="1264.959961" r="19.980000" fill="red">
  <title>Karachi</title>
</circle><line x1="1351.959961" y1="1283.959961" x2="1102.959961" y2="1264.959961" stroke="red" stroke-width="6.660000" />
<circle cx="785.960022" cy="1756.959961" r="19.980000" fill="red">
  <title>Chongqing</title>
</circle><line x1="1102.959961" y1="1264.959961" x2="785.960022" y2="1756.959961" stroke="red" stroke-width="6.660000" />
<circle cx="376.959991" cy="2004.959961" r="19.980000" fill="red">
  <title>Tianjin</title>
</circle><line x1="785.960022" y1="1756.959961" x2="376.959991" y2="2004.959961" stroke="red" stroke-width="6.660000" />
<circle cx="231.959991" cy="1813.959961" r="19.980000" fill="red">
  <title>Osaka</title>
</circle><line x1="376.959991" y1="2004.959961" x2="231.959991" y2="1813.959961" stroke="red" stroke-width="6.660000" />
<circle cx="207.959991" cy="1477.959961" r="19.980000" fill="red">
  <title>New York</title>
</circle><line x1="231.959991" y1="1813.959961" x2="207.959991" y2="1477.959961" stroke="red" stroke-width="6.660000" />
<circle cx="188.959991" cy="1350.959961" r="19.980000" fill="red">
  <title>Istanbul</title>
</circle><line x1="207.959991" y1="1477.959961" x2="188.959991" y2="1350.959961" stroke="red" stroke-width="6.660000" />
<circle cx="312.959991" cy="392.959991" r="19.980000" fill="red">
  <title>Shanghai</title>
</circle><line x1="188.959991" y1="1350.959961" x2="312.959991" y2="392.959991" stroke="red" stroke-width="6.660000" />
<circle cx="329.959991" cy="211.959991" r="19.980000" fill="red">
  <title>Buenos Aires</title>
</circle><line x1="312.959991" y1="392.959991" x2="329.959991" y2="211.959991" stroke="red" stroke-width="6.660000" />
</svg>
