<?xml version="1.0" encoding="UTF-8" standalone="no"?>
<svg width="500" height="500" viewBox="0 0 2074.000000 2074.000000" xmlns="http://www.w3.org/2000/svg">
<rect x="19.000000" y="19.000000" width="2036.000000" height="2036.000000" fill="black" />
<circle cx="1141.959961" cy="1684.959961" r="19.980000" fill="red">
  <title>Tokyo</title>
</circle><line x1="1024.959961" y1="1109.959961" x2="1141.959961" y2="1684.959961" stroke="red" stroke-width="6.660000" />
<circle cx="1178.959961" cy="1884.959961" r="19.980000" fill="red">
  <title>Shanghai</title>
</circle><line x1="1141.959961" y1="1684.959961" x2="1178.959961" y2="1884.959961" stroke="red" stroke-width="6.660000" />
<circle cx="1255.959961" cy="1650.959961" r="19.980000" fill="red">
  <title>Mexico City</title>
</circle><line x1="1178.959961" y1="1884.959961" x2="1255.959961" y2="1650.959961" stroke="red" stroke-width="6.660000" />
<circle cx="1630.959961" cy="921.960022" r="19.980000" fill="red">
  <title>Mumbai</title>
</circle><line x1="1255.959961" y1="1650.959961" x2="1630.959961" y2="921.960022" stroke="red" stroke-width="6.660000" />
<circle cx="1792.959961" cy="801.960022" r="19.980000" fill="red">
  <title>Cairo</title>
</circle><line x1="1630.959961" y1="921.960022" x2="1792.959961" y2="801.960022" stroke="red" stroke-width="6.660000" />
<circle cx="1335.959961" cy="883.960022" r="19.980000" fill="red">
  <title>Delhi</title>
</circle><line x1="1792.959961" y1="801.960022" x2="1335.959961" y2="883.960022" stroke="red" stroke-width="6.660000" />
<circle cx="947.960022" cy="213.959991" r="19.980000" fill="red">
  <title>Osaka</title>
</circle><line x1="1335.959961" y1="883.960022" x2="947.960022" y2="213.959991" stroke="red" stroke-width="6.660000" />
<circle cx="170.959991" cy="118.959999" r="19.980000" fill="red">
  <title>Dhaka</title>
</circle><line x1="947.960022" y1="213.959991" x2="170.959991" y2="118.959999" stroke="red" stroke-width="6.660000" />
<circle cx="79.959999" cy="956.960022" r="19.980000" fill="red">
  <title>Beijing</title>
</circle><line x1="170.959991" y1="118.959999" x2="79.959999" y2="956.960022" stroke="red" stroke-width="6.660000" />
<circle cx="106.959999" cy="1201.959961" r="19.980000" fill="red">
  <title>São Paulo</title>
</circle><line x1="79.959999" y1="956.960022" x2="106.959999" y2="1201.959961" stroke="red" stroke-width="6.660000" />
<circle cx="1024.959961" cy="1109.959961" r="19.980000" fill="red">
  <title>New York</title>
</circle><line x1="106.959999" y1="1201.959961" x2="1024.959961" y2="1109.959961" stroke="red" stroke-width="6.660000" />
</svg>
