<?xml version="1.0" encoding="UTF-8" standalone="no"?>
<svg width="500" height="500" viewBox="0 0 2074.000000 2074.000000" xmlns="http://www.w3.org/2000/svg">
<rect x="19.000000" y="19.000000" width="2036.000000" height="2036.000000" fill="black" />
<circle cx="429.959991" cy="430.959991" r="19.980000" fill="red">
  <title>Tokyo</title>
</circle><line x1="526.960022" y1="439.959991" x2="429.959991" y2="430.959991" stroke="red" stroke-width="6.660000" />
<circle cx="86.959999" cy="960.960022" r="19.980000" fill="red">
  <title>Delhi</title>
</circle><line x1="429.959991" y1="430.959991" x2="86.959999" y2="960.960022" stroke="red" stroke-width="6.660000" />
<circle cx="338.959991" cy="1415.959961" r="19.980000" fill="red">
  <title>Cairo</title>
</circle><line x1="86.959999" y1="960.960022" x2="338.959991" y2="1415.959961" stroke="red" stroke-width="6.660000" />
<circle cx="50.959999" cy="1583.959961" r="19.980000" fill="red">
  <title>Karachi</title>
</circle><line x1="338.959991" y1="1415.959961" x2="50.959999" y2="1583.959961" stroke="red" stroke-width="6.660000" />
<circle cx="54.959999" cy="1984.959961" r="19.980000" fill="red">
  <title>Mumbai</title>
</circle><line x1="50.959999" y1="1583.959961" x2="54.959999" y2="1984.959961" stroke="red" stroke-width="6.660000" />
<circle cx="141.959991" cy="1844.959961" r="19.980000" fill="red">
  <title>Kolkata</title>
</circle><line x1="54.959999" y1="1984.959961" x2="141.959991" y2="1844.959961" stroke="red" stroke-width="6.660000" />
<circle cx="767.960022" cy="1895.959961" r="19.980000" fill="red">
  <title>Lagos</title>
</circle><line x1="141.959991" y1="1844.959961" x2="767.960022" y2="1895.959961" stroke="red" stroke-width="6.660000" />
<circle cx="1748.959961" cy="1567.959961" r="19.980000" fill="red">
  <title>Buenos Aires</title>
</circle><line x1="767.960022" y1="1895.959961" x2="1748.959961" y2="1567.959961" stroke="red" stroke-width="6.660000" />
<circle cx="1453.959961" cy="1009.960022" r="19.980000" fill="red">
  <title>Istanbul</title>
</circle><line x1="1748.959961" y1="1567.959961" x2="1453.959961" y2="1009.960022" stroke="red" stroke-width="6.660000" />
<circle cx="1558.959961" cy="824.960022" r="19.980000" fill="red">
  <title>Osaka</title>
</circle><line x1="1453.959961" y1="1009.960022" x2="1558.959961" y2="824.960022" stroke="red" stroke-width="6.660000" />
<circle cx="1831.959961" cy="177.959991" r="19.980000" fill="red">
  <title>Mexico City</title>
</circle><line x1="1558.959961" y1="824.960022" x2="1831.959961" y2="177.959991" stroke="red" stroke-width="6.660000" />
<circle cx="1651.959961" cy="91.959999" r="19.980000" fill="red">
  <title>New York</title>
</circle><line x1="1831.959961" y1="177.959991" x2="1651.959961" y2="91.959999" stroke="red" stroke-width="6.660000" />
<circle cx="1400.959961" cy="188.959991" r="19.980000" fill="red">
  <title>Manila</title>
</circle><line x1="1651.959961" y1="91.959999" x2="1400.959961" y2="188.959991" stroke="red" stroke-width="6.660000" />
<circle cx="997.960022" cy="169.959991" r="19.980000" fill="red">
  <title>Beijing</title>
</circle><line x1="1400.959961" y1="188.959991" x2="997.960022" y2="169.959991" stroke="red" stroke-width="6.660000" />
<circle cx="730.960022" cy="232.959991" r="19.980000" fill="red">
  <title>Dhaka</title>
</circle><line x1="997.960022" y1="169.959991" x2="730.960022" y2="232.959991" stroke="red" stroke-width="6.660000" />
<circle cx="533.960022" cy="59.959999" r="19.980000" fill="red">
  <title>Shanghai</title>
</circle><line x1="730.960022" y1="232.959991" x2="533.960022" y2="59.959999" stroke="red" stroke-width="6.660000" />
<circle cx="720.960022" cy="283.959991" r="19.980000" fill="red">
  <title>São Paulo</title>
</circle><line x1="533.960022" y1="59.959999" x2="720.960022" y2="283.959991" stroke="red" stroke-width="6.660000" />
<circle cx="526.960022" cy="439.959991" r="19.980000" fill="red">
  <title>Chongqing</title>
</circle><line x1="720.960022" y1="283.959991" x2="526.960022" y2="439.959991" stroke="red" stroke-width="6.660000" />
</svg>
