<?xml version="1.0" encoding="UTF-8" standalone="no"?>
<svg width="500" height="500" viewBox="0 0 2074.000000 2074.000000" xmlns="http://www.w3.org/2000/svg">
<rect x="19.000000" y="19.000000" width="2036.000000" height="2036.000000" fill="black" />
<circle cx="1546.959961" cy="1140.959961" r="19.980000" fill="red">
  <title>Tokyo</title>
</circle><line x1="1775.959961" y1="1023.960022" x2="1546.959961" y2="1140.959961" stroke="red" stroke-width="6.660000" />
<circle cx="1391.959961" cy="1779.959961" r="19.980000" fill="red">
  <title>São Paulo</title>
</circle><line x1="1546.959961" y1="1140.959961" x2="1391.959961" y2="1779.959961" stroke="red" stroke-width="6.660000" />
<circle cx="1401.959961" cy="1947.959961" r="19.980000" fill="red">
  <title>Shanghai</title>
</circle><line x1="1391.959961" y1="1779.959961" x2="1401.959961" y2="1947.959961" stroke="red" stroke-width="6.660000" />
<circle cx="1276.959961" cy="1411.959961" r="19.980000" fill="red">
  <title>Buenos Aires</title>
</circle><line x1="1401.959961" y1="1947.959961" x2="1276.959961" y2="1411.959961" stroke="red" stroke-width="6.660000" />
<circle cx="798.960022" cy="678.960022" r="19.980000" fill="red">
  <title>Delhi</title>
</circle><line x1="1276.959961" y1="1411.959961" x2="798.960022" y2="678.960022" stroke="red" stroke-width="6.660000" />
<circle cx="769.960022" cy="246.959991" r="19.980000" fill="red">
  <title>Mumbai</title>
</circle><line x1="798.960022" y1="678.960022" x2="769.960022" y2="246.959991" stroke="red" stroke-width="6.660000" />
<circle cx="1192.959961" cy="420.959991" r="19.980000" fill="red">
  <title>Cairo</title>
</circle><line x1="769.960022" y1="246.959991" x2="1192.959961" y2="420.959991" stroke="red" stroke-width="6.660000" />
<circle cx="1288.959961" cy="530.960022" r="19.980000" fill="red">
  <title>New York</title>
</circle><line x1="1192.959961" y1="420.959991" x2="1288.959961" y2="530.960022" stroke="red" stroke-width="6.660000" />
<circle cx="1735.959961" cy="227.959991" r="19.980000" fill="red">
  <title>Dhaka</title>
</circle><line x1="1288.959961" y1="530.960022" x2="1735.959961" y2="227.959991" stroke="red" stroke-width="6.660000" />
<circle cx="1835.959961" cy="489.959991" r="19.980000" fill="red">
  <title>Mexico City</title>
</circle><line x1="1735.959961" y1="227.959991" x2="1835.959961" y2="489.959991" stroke="red" stroke-width="6.660000" />
<circle cx="1712.959961" cy="556.960022" r="19.980000" fill="red">
  <title>Karachi</title>
</circle><line x1="1835.959961" y1="489.959991" x2="1712.959961" y2="556.960022" stroke="red" stroke-width="6.660000" />
<circle cx="1735.959961" cy="729.960022" r="19.980000" fill="red">
  <title>Beijing</title>
</circle><line x1="1712.959961" y1="556.960022" x2="1735.959961" y2="729.960022" stroke="red" stroke-width="6.660000" />
<circle cx="1775.959961" cy="1023.960022" r="19.980000" fill="red">
  <title>Osaka</title>
</circle><line x1="1735.959961" y1="729.960022" x2="1775.959961" y2="1023.960022" stroke="red" stroke-width="6.660000" />
</svg>
