<?xml version="1.0" encoding="UTF-8" standalone="no"?>
<svg width="500" height="500" viewBox="0 0 2074.000000 2074.000000" xmlns="http://www.w3.org/2000/svg">
<rect x="19.000000" y="19.000000" width="2036.000000" height="2036.000000" fill="black" />
<circle cx="1583.959961" cy="1959.959961" r="19.980000" fill="red">
  <title>Tokyo</title>
</circle><line x1="879.960022" y1="1238.959961" x2="1583.959961" y2="1959.959961" stroke="red" stroke-width="6.660000" />
<circle cx="829.960022" cy="1952.959961" r="19.980000" fill="red">
  <title>Mumbai</title>
</circle><line x1="1583.959961" y1="1959.959961" x2="829.960022" y2="1952.959961" stroke="red" stroke-width="6.660000" />
<circle cx="80.959999" cy="1471.959961" r="19.980000" fill="red">
  <title>Delhi</title>
</circle><line x1="829.960022" y1="1952.959961" x2="80.959999" y2="1471.959961" stroke="red" stroke-width="6.660000" />
<circle cx="633.960022" cy="805.960022" r="19.980000" fill="red">
  <title>Mexico City</title>
</circle><line x1="80.959999" y1="1471.959961" x2="633.960022" y2="805.960022" stroke="red" stroke-width="6.660000" />
<circle cx="684.960022" cy="42.959999" r="19.980000" fill="red">
  <title>São Paulo</title>
</circle><line x1="633.960022" y1="805.960022" x2="684.960022" y2="42.959999" stroke="red" stroke-width="6.660000" />
<circle cx="1727.959961" cy="259.959991" r="19.980000" fill="red">
  <title>Cairo</title>
</circle><line x1="684.960022" y1="42.959999" x2="1727.959961" y2="259.959991" stroke="red" stroke-width="6.660000" />
<circle cx="1256.959961" cy="776.960022" r="19.980000" fill="red">
  <title>Shanghai</title>
</circle><line x1="1727.959961" y1="259.959991" x2="1256.959961" y2="776.960022" stroke="red" stroke-width="6.660000" />
<circle cx="879.960022" cy="1238.959961" r="19.980000" fill="red">
  <title>Beijing</title>
</circle><line x1="1256.959961" y1="776.960022" x2="879.960022" y2="1238.959961" stroke="red" stroke-width="6.660000" />
</svg>
