<?xml version="1.0" encoding="UTF-8" standalone="no"?>
<svg width="500" height="500" viewBox="0 0 2074.000000 2074.000000" xmlns="http://www.w3.org/2000/svg">
<rect x="19.000000" y="19.000000" width="2036.000000" height="2036.000000" fill="black" />
<circle cx="1633.959961" cy="375.959991" r="19.980000" fill="red">
  <title>Tokyo</title>
</circle><line x1="1645.959961" y1="946.960022" x2="1633.959961" y2="375.959991" stroke="red" stroke-width="6.660000" />
<circle cx="704.960022" cy="81.959999" r="19.980000" fill="red">
  <title>Mexico City</title>
</circle><line x1="1633.959961" y1="375.959991" x2="704.960022" y2="81.959999" stroke="red" stroke-width="6.660000" />
<circle cx="316.959991" cy="645.960022" r="19.980000" fill="red">
  <title>Cairo</title>
</circle><line x1="704.960022" y1="81.959999" x2="316.959991" y2="645.960022" stroke="red" stroke-width="6.660000" />
<circle cx="116.959999" cy="599.960022" r="19.980000" fill="red">
  <title>Osaka</title>
</circle><line x1="316.959991" y1="645.960022" x2="116.959999" y2="599.960022" stroke="red" stroke-width="6.660000" />
<circle cx="113.959999" cy="713.960022" r="19.980000" fill="red">
  <title>Buenos Aires</title>
</circle><line x1="116.959999" y1="599.960022" x2="113.959999" y2="713.960022" stroke="red" stroke-width="6.660000" />
<circle cx="450.959991" cy="818.960022" r="19.980000" fill="red">
  <title>São Paulo</title>
</circle><line x1="113.959999" y1="713.960022" x2="450.959991" y2="818.960022" stroke="red" stroke-width="6.660000" />
<circle cx="362.959991" cy="1307.959961" r="19.980000" fill="red">
  <title>Dhaka</title>
</circle><line x1="450.959991" y1="818.960022" x2="362.959991" y2="1307.959961" stroke="red" stroke-width="6.660000" />
<circle cx="1024.959961" cy="1787.959961" r="19.980000" fill="red">
  <title>Shanghai</title>
</circle><line x1="362.959991" y1="1307.959961" x2="1024.959961" y2="1787.959961" stroke="red" stroke-width="6.660000" />
<circle cx="1147.959961" cy="1879.959961" r="19.980000" fill="red">
  <title>Beijing</title>
</circle><line x1="1024.959961" y1="1787.959961" x2="1147.959961" y2="1879.959961" stroke="red" stroke-width="6.660000" />
<circle cx="1127.959961" cy="1346.959961" r="19.980000" fill="red">
  <title>Delhi</title>
</circle><line x1="1147.959961" y1="1879.959961" x2="1127.959961" y2="1346.959961" stroke="red" stroke-width="6.660000" />
<circle cx="1304.959961" cy="1094.959961" r="19.980000" fill="red">
  <title>New York</title>
</circle><line x1="1127.959961" y1="1346.959961" x2="1304.959961" y2="1094.959961" stroke="red" stroke-width="6.660000" />
<circle cx="1925.959961" cy="1404.959961" r="19.980000" fill="red">
  <title>Mumbai</title>
</circle><line x1="1304.959961" y1="1094.959961" x2="1925.959961" y2="1404.959961" stroke="red" stroke-width="6.660000" />
<circle cx="1645.959961" cy="946.960022" r="19.980000" fill="red">
  <title>Karachi</title>
</circle><line x1="1925.959961" y1="1404.959961" x2="1645.959961" y2="946.960022" stroke="red" stroke-width="6.660000" />
</svg>
