<?xml version="1.0" encoding="UTF-8" standalone="no"?>
<svg width="500" height="500" viewBox="0 0 2074.000000 2074.000000" xmlns="http://www.w3.org/2000/svg">
<rect x="19.000000" y="19.000000" width="2036.000000" height="2036.000000" fill="black" />
<circle cx="1979.959961" cy="1584.959961" r="19.980000" fill="red">
  <title>Tokyo</title>
</circle><line x1="1345.959961" y1="1498.959961" x2="1979.959961" y2="1584.959961" stroke="red" stroke-width="6.660000" />
<circle cx="1652.959961" cy="1369.959961" r="19.980000" fill="red">
  <title>Cairo</title>
</circle><line x1="1979.959961" y1="1584.959961" x2="1652.959961" y2="1369.959961" stroke="red" stroke-width="6.660000" />
<circle cx="1500.959961" cy="1036.959961" r="19.980000" fill="red">
  <title>Lagos</title>
</circle><line x1="1652.959961" y1="1369.959961" x2="1500.959961" y2="1036.959961" stroke="red" stroke-width="6.660000" />
<circle cx="1455.959961" cy="955.960022" r="19.980000" fill="red">
  <title>Kolkata</title>
</circle><line x1="1500.959961" y1="1036.959961" x2="1455.959961" y2="955.960022" stroke="red" stroke-width="6.660000" />
<circle cx="1620.959961" cy="908.960022" r="19.980000" fill="red">
  <title>New York</title>
</circle><line x1="1455.959961" y1="955.960022" x2="1620.959961" y2="908.960022" stroke="red" stroke-width="6.660000" />
<circle cx="1985.959961" cy="794.960022" r="19.980000" fill="red">
  <title>Beijing</title>
</circle><line x1="1620.959961" y1="908.960022" x2="1985.959961" y2="794.960022" stroke="red" stroke-width="6.660000" />
<circle cx="1889.959961" cy="706.960022" r="19.980000" fill="red">
  <title>Tianjin</title>
</circle><line x1="1985.959961" y1="794.960022" x2="1889.959961" y2="706.960022" stroke="red" stroke-width="6.660000" />
<circle cx="1688.959961" cy="652.960022" r="19.980000" fill="red">
  <title>Mexico City</title>
</circle><line x1="1889.959961" y1="706.960022" x2="1688.959961" y2="652.960022" stroke="red" stroke-width="6.660000" />
<circle cx="1688.959961" cy="357.959991" r="19.980000" fill="red">
  <title>Osaka</title>
</circle><line x1="1688.959961" y1="652.960022" x2="1688.959961" y2="357.959991" stroke="red" stroke-width="6.660000" />
<circle cx="1014.960022" cy="585.960022" r="19.980000" fill="red">
  <title>Istanbul</title>
</circle><line x1="1688.959961" y1="357.959991" x2="1014.960022" y2="585.960022" stroke="red" stroke-width="6.660000" />
<circle cx="456.959991" cy="224.959991" r="19.980000" fill="red">
  <title>Mumbai</title>
</circle><line x1="1014.960022" y1="585.960022" x2="456.959991" y2="224.959991" stroke="red" stroke-width="6.660000" />
<circle cx="484.959991" cy="584.960022" r="19.980000" fill="red">
  <title>Delhi</title>
</circle><line x1="456.959991" y1="224.959991" x2="484.959991" y2="584.960022" stroke="red" stroke-width="6.660000" />
<circle cx="57.959999" cy="891.960022" r="19.980000" fill="red">
  <title>São Paulo</title>
</circle><line x1="484.959991" y1="584.960022" x2="57.959999" y2="891.960022" stroke="red" stroke-width="6.660000" />
<circle cx="594.960022" cy="1198.959961" r="19.980000" fill="red">
  <title>Karachi</title>
</circle><line x1="57.959999" y1="891.960022" x2="594.960022" y2="1198.959961" stroke="red" stroke-width="6.660000" />
<circle cx="649.960022" cy="1468.959961" r="19.980000" fill="red">
  <title>Dhaka</title>
</circle><line x1="594.960022" y1="1198.959961" x2="649.960022" y2="1468.959961" stroke="red" stroke-width="6.660000" />
<circle cx="131.959991" cy="1901.959961" r="19.980000" fill="red">
  <title>Manila</title>
</circle><line x1="649.960022" y1="1468.959961" x2="131.959991" y2="1901.959961" stroke="red" stroke-width="6.660000" />
<circle cx="845.960022" cy="1522.959961" r="19.980000" fill="red">
  <title>Buenos Aires</title>
</circle><line x1="131.959991" y1="1901.959961" x2="845.960022" y2="1522.959961" stroke="red" stroke-width="6.660000" />
<circle cx="943.960022" cy="1192.959961" r="19.980000" fill="red">
  <title>Shanghai</title>
</circle><line x1="845.960022" y1="1522.959961" x2="943.960022" y2="1192.959961" stroke="red" stroke-width="6.660000" />
<circle cx="1055.959961" cy="1519.959961" r="19.980000" fill="red">
  <title>Rio de Janeiro</title>
</circle><line x1="943.960022" y1="1192.959961" x2="1055.959961" y2="1519.959961" stroke="red" stroke-width="6.660000" />
<circle cx="1345.959961" cy="1498.959961" r="19.980000" fill="red">
  <title>Chongqing</title>
</circle><line x1="1055.959961" y1="1519.959961" x2="1345.959961" y2="1498.959961" stroke="red" stroke-width="6.660000" />
</svg>
