<?xml version="1.0" encoding="UTF-8" standalone="no"?>
<svg width="500" height="500" viewBox="0 0 2074.000000 2074.000000" xmlns="http://www.w3.org/2000/svg">
<rect x="19.000000" y="19.000000" width="2036.000000" height="2036.000000" fill="black" />
<circle cx="332.959991" cy="1259.959961" r="19.980000" fill="red">
  <title>Tokyo</title>
</circle><line x1="463.959991" y1="337.959991" x2="332.959991" y2="1259.959961" stroke="red" stroke-width="6.660000" />
<circle cx="342.959991" cy="1848.959961" r="19.980000" fill="red">
  <title>Beijing</title>
</circle><line x1="332.959991" y1="1259.959961" x2="342.959991" y2="1848.959961" stroke="red" stroke-width="6.660000" />
<circle cx="1574.959961" cy="1961.959961" r="19.980000" fill="red">
  <title>Delhi</title>
</circle><line x1="342.959991" y1="1848.959961" x2="1574.959961" y2="1961.959961" stroke="red" stroke-width="6.660000" />
<circle cx="2000.959961" cy="1845.959961" r="19.980000" fill="red">
  <title>Mexico City</title>
</circle><line x1="1574.959961" y1="1961.959961" x2="2000.959961" y2="1845.959961" stroke="red" stroke-width="6.660000" />
<circle cx="1718.959961" cy="1576.959961" r="19.980000" fill="red">
  <title>Cairo</title>
</circle><line x1="2000.959961" y1="1845.959961" x2="1718.959961" y2="1576.959961" stroke="red" stroke-width="6.660000" />
<circle cx="2030.959961" cy="718.960022" r="19.980000" fill="red">
  <title>Dhaka</title>
</circle><line x1="1718.959961" y1="1576.959961" x2="2030.959961" y2="718.960022" stroke="red" stroke-width="6.660000" />
<circle cx="1597.959961" cy="540.960022" r="19.980000" fill="red">
  <title>Shanghai</title>
</circle><line x1="2030.959961" y1="718.960022" x2="1597.959961" y2="540.960022" stroke="red" stroke-width="6.660000" />
<circle cx="1174.959961" cy="900.960022" r="19.980000" fill="red">
  <title>Mumbai</title>
</circle><line x1="1597.959961" y1="540.960022" x2="1174.959961" y2="900.960022" stroke="red" stroke-width="6.660000" />
<circle cx="1130.959961" cy="668.960022" r="19.980000" fill="red">
  <title>São Paulo</title>
</circle><line x1="1174.959961" y1="900.960022" x2="1130.959961" y2="668.960022" stroke="red" stroke-width="6.660000" />
<circle cx="782.960022" cy="217.959991" r="19.980000" fill="red">
  <title>Osaka</title>
</circle><line x1="1130.959961" y1="668.960022" x2="782.960022" y2="217.959991" stroke="red" stroke-width="6.660000" />
<circle cx="463.959991" cy="337.959991" r="19.980000" fill="red">
  <title>New York</title>
</circle><line x1="782.960022" y1="217.959991" x2="463.959991" y2="337.959991" stroke="red" stroke-width="6.660000" />
</svg>
