<?xml version="1.0" encoding="UTF-8" standalone="no"?>
<svg width="500" height="500" viewBox="0 0 2074.000000 2074.000000" xmlns="http://www.w3.org/2000/svg">
<rect x="19.000000" y="19.000000" width="2036.000000" height="2036.000000" fill="black" />
<circle cx="1879.959961" cy="1646.959961" r="19.980000" fill="red">
  <title>Tokyo</title>
</circle><line x1="1825.959961" y1="1572.959961" x2="1879.959961" y2="1646.959961" stroke="red" stroke-width="6.660000" />
<circle cx="1261.959961" cy="1896.959961" r="19.980000" fill="red">
  <title>Delhi</title>
</circle><line x1="1879.959961" y1="1646.959961" x2="1261.959961" y2="1896.959961" stroke="red" stroke-width="6.660000" />
<circle cx="1255.959961" cy="1485.959961" r="19.980000" fill="red">
  <title>Shanghai</title>
</circle><line x1="1261.959961" y1="1896.959961" x2="1255.959961" y2="1485.959961" stroke="red" stroke-width="6.660000" />
<circle cx="672.960022" cy="1654.959961" r="19.980000" fill="red">
  <title>Chongqing</title>
</circle><line x1="1255.959961" y1="1485.959961" x2="672.960022" y2="1654.959961" stroke="red" stroke-width="6.660000" />
<circle cx="390.959991" cy="1976.959961" r="19.980000" fill="red">
  <title>Karachi</title>
</circle><line x1="672.960022" y1="1654.959961" x2="390.959991" y2="1976.959961" stroke="red" stroke-width="6.660000" />
<circle cx="478.959991" cy="1569.959961" r="19.980000" fill="red">
  <title>Osaka</title>
</circle><line x1="390.959991" y1="1976.959961" x2="478.959991" y2="1569.959961" stroke="red" stroke-width="6.660000" />
<circle cx="144.959991" cy="1475.959961" r="19.980000" fill="red">
  <title>Dhaka</title>
</circle><line x1="478.959991" y1="1569.959961" x2="144.959991" y2="1475.959961" stroke="red" stroke-width="6.660000" />
<circle cx="394.959991" cy="1244.959961" r="19.980000" fill="red">
  <title>Cairo</title>
</circle><line x1="144.959991" y1="1475.959961" x2="394.959991" y2="1244.959961" stroke="red" stroke-width="6.660000" />
<circle cx="758.960022" cy="1091.959961" r="19.980000" fill="red">
  <title>New York</title>
</circle><line x1="394.959991" y1="1244.959961" x2="758.960022" y2="1091.959961" stroke="red" stroke-width="6.660000" />
<circle cx="395.959991" cy="611.960022" r="19.980000" fill="red">
  <title>Istanbul</title>
</circle><line x1="758.960022" y1="1091.959961" x2="395.959991" y2="611.960022" stroke="red" stroke-width="6.660000" />
<circle cx="334.959991" cy="537.960022" r="19.980000" fill="red">
  <title>Beijing</title>
</circle><line x1="395.959991" y1="611.960022" x2="334.959991" y2="537.960022" stroke="red" stroke-width="6.660000" />
<circle cx="348.959991" cy="168.959991" r="19.980000" fill="red">
  <title>Mumbai</title>
</circle><line x1="334.959991" y1="537.960022" x2="348.959991" y2="168.959991" stroke="red" stroke-width="6.660000" />
<circle cx="1211.959961" cy="41.959999" r="19.980000" fill="red">
  <title>Mexico City</title>
</circle><line x1="348.959991" y1="168.959991" x2="1211.959961" y2="41.959999" stroke="red" stroke-width="6.660000" />
<circle cx="1729.959961" cy="919.960022" r="19.980000" fill="red">
  <title>São Paulo</title>
</circle><line x1="1211.959961" y1="41.959999" x2="1729.959961" y2="919.960022" stroke="red" stroke-width="6.660000" />
<circle cx="1825.959961" cy="1572.959961" r="19.980000" fill="red">
  <title>Buenos Aires</title>
</circle><line x1="1729.959961" y1="919.960022" x2="1825.959961" y2="1572.959961" stroke="red" stroke-width="6.660000" />
</svg>
