<?xml version="1.0" encoding="UTF-8" standalone="no"?>
<svg width="500" height="500" viewBox="0 0 2074.000000 2074.000000" xmlns="http://www.w3.org/2000/svg">
<rect x="19.000000" y="19.000000" width="2036.000000" height="2036.000000" fill="black" />
<circle cx="1214.959961" cy="810.960022" r="19.980000" fill="red">
  <title>Tokyo</title>
</circle><line x1="1726.959961" y1="213.959991" x2="1214.959961" y2="810.960022" stroke="red" stroke-width="6.660000" />
<circle cx="1106.959961" cy="1001.960022" r="19.980000" fill="red">
  <title>São Paulo</title>
</circle><line x1="1214.959961" y1="810.960022" x2="1106.959961" y2="1001.960022" stroke="red" stroke-width="6.660000" />
<circle cx="1339.959961" cy="1036.959961" r="19.980000" fill="red">
  <title>Rio de Janeiro</title>
</circle><line x1="1106.959961" y1="1001.960022" x2="1339.959961" y2="1036.959961" stroke="red" stroke-width="6.660000" />
<circle cx="1618.959961" cy="1164.959961" r="19.980000" fill="red">
  <title>Dhaka</title>
</circle><line x1="1339.959961" y1="1036.959961" x2="1618.959961" y2="1164.959961" stroke="red" stroke-width="6.660000" />
<circle cx="1821.959961" cy="1085.959961" r="19.980000" fill="red">
  <title>Osaka</title>
</circle><line x1="1618.959961" y1="1164.959961" x2="1821.959961" y2="1085.959961" stroke="red" stroke-width="6.660000" />
<circle cx="1819.959961" cy="1432.959961" r="19.980000" fill="red">
  <title>New York</title>
</circle><line x1="1821.959961" y1="1085.959961" x2="1819.959961" y2="1432.959961" stroke="red" stroke-width="6.660000" />
<circle cx="1934.959961" cy="1742.959961" r="19.980000" fill="red">
  <title>Buenos Aires</title>
</circle><line x1="1819.959961" y1="1432.959961" x2="1934.959961" y2="1742.959961" stroke="red" stroke-width="6.660000" />
<circle cx="1563.959961" cy="1880.959961" r="19.980000" fill="red">
  <title>Shanghai</title>
</circle><line x1="1934.959961" y1="1742.959961" x2="1563.959961" y2="1880.959961" stroke="red" stroke-width="6.660000" />
<circle cx="1015.960022" cy="1693.959961" r="19.980000" fill="red">
  <title>Beijing</title>
</circle><line x1="1563.959961" y1="1880.959961" x2="1015.960022" y2="1693.959961" stroke="red" stroke-width="6.660000" />
<circle cx="696.960022" cy="1880.959961" r="19.980000" fill="red">
  <title>Istanbul</title>
</circle><line x1="1015.960022" y1="1693.959961" x2="696.960022" y2="1880.959961" stroke="red" stroke-width="6.660000" />
<circle cx="429.959991" cy="1964.959961" r="19.980000" fill="red">
  <title>Mumbai</title>
</circle><line x1="696.960022" y1="1880.959961" x2="429.959991" y2="1964.959961" stroke="red" stroke-width="6.660000" />
<circle cx="380.959991" cy="1872.959961" r="19.980000" fill="red">
  <title>Kolkata</title>
</circle><line x1="429.959991" y1="1964.959961" x2="380.959991" y2="1872.959961" stroke="red" stroke-width="6.660000" />
<circle cx="653.960022" cy="1496.959961" r="19.980000" fill="red">
  <title>Manila</title>
</circle><line x1="380.959991" y1="1872.959961" x2="653.960022" y2="1496.959961" stroke="red" stroke-width="6.660000" />
<circle cx="413.959991" cy="1074.959961" r="19.980000" fill="red">
  <title>Cairo</title>
</circle><line x1="653.960022" y1="1496.959961" x2="413.959991" y2="1074.959961" stroke="red" stroke-width="6.660000" />
<circle cx="244.959991" cy="539.960022" r="19.980000" fill="red">
  <title>Chongqing</title>
</circle><line x1="413.959991" y1="1074.959961" x2="244.959991" y2="539.960022" stroke="red" stroke-width="6.660000" />
<circle cx="685.960022" cy="275.959991" r="19.980000" fill="red">
  <title>Karachi</title>
</circle><line x1="244.959991" y1="539.960022" x2="685.960022" y2="275.959991" stroke="red" stroke-width="6.660000" />
<circle cx="1155.959961" cy="135.959991" r="19.980000" fill="red">
  <title>Delhi</title>
</circle><line x1="685.960022" y1="275.959991" x2="1155.959961" y2="135.959991" stroke="red" stroke-width="6.660000" />
<circle cx="1968.959961" cy="178.959991" r="19.980000" fill="red">
  <title>Lagos</title>
</circle><line x1="1155.959961" y1="135.959991" x2="1968.959961" y2="178.959991" stroke="red" stroke-width="6.660000" />
<circle cx="1726.959961" cy="213.959991" r="19.980000" fill="red">
  <title>Mexico City</title>
</circle><line x1="1968.959961" y1="178.959991" x2="1726.959961" y2="213.959991" stroke="red" stroke-width="6.660000" />
</svg>
