<?xml version="1.0" encoding="UTF-8" standalone="no"?>
<svg width="500" height="500" viewBox="0 0 2074.000000 2074.000000" xmlns="http://www.w3.org/2000/svg">
<rect x="19.000000" y="19.000000" width="2036.000000" height="2036.000000" fill="black" />
<circle cx="233.959991" cy="151.959991" r="19.980000" fill="red">
  <title>Tokyo</title>
</circle><line x1="995.960022" y1="153.959991" x2="233.959991" y2="151.959991" stroke="red" stroke-width="6.660000" />
<circle cx="534.960022" cy="492.959991" r="19.980000" fill="red">
  <title>New York</title>
</circle><line x1="233.959991" y1="151.959991" x2="534.960022" y2="492.959991" stroke="red" stroke-width="6.660000" />
<circle cx="994.960022" cy="670.960022" r="19.980000" fill="red">
  <title>Cairo</title>
</circle><line x1="534.960022" y1="492.959991" x2="994.960022" y2="670.960022" stroke="red" stroke-width="6.660000" />
<circle cx="987.960022" cy="832.960022" r="19.980000" fill="red">
  <title>Dhaka</title>
</circle><line x1="994.960022" y1="670.960022" x2="987.960022" y2="832.960022" stroke="red" stroke-width="6.660000" />
<circle cx="62.959999" cy="1601.959961" r="19.980000" fill="red">
  <title>São Paulo</title>
</circle><line x1="987.960022" y1="832.960022" x2="62.959999" y2="1601.959961" stroke="red" stroke-width="6.660000" />
<circle cx="1210.959961" cy="1267.959961" r="19.980000" fill="red">
  <title>Chongqing</title>
</circle><line x1="62.959999" y1="1601.959961" x2="1210.959961" y2="1267.959961" stroke="red" stroke-width="6.660000" />
<circle cx="1599.959961" cy="1739.959961" r="19.980000" fill="red">
  <title>Shanghai</title>
</circle><line x1="1210.959961" y1="1267.959961" x2="1599.959961" y2="1739.959961" stroke="red" stroke-width="6.660000" />
<circle cx="1694.959961" cy="1572.959961" r="19.980000" fill="red">
  <title>Mexico City</title>
</circle><line x1="1599.959961" y1="1739.959961" x2="1694.959961" y2="1572.959961" stroke="red" stroke-width="6.660000" />
<circle cx="1763.959961" cy="1312.959961" r="19.980000" fill="red">
  <title>Mumbai</title>
</circle><line x1="1694.959961" y1="1572.959961" x2="1763.959961" y2="1312.959961" stroke="red" stroke-width="6.660000" />
<circle cx="2018.959961" cy="879.960022" r="19.980000" fill="red">
  <title>Delhi</title>
</circle><line x1="1763.959961" y1="1312.959961" x2="2018.959961" y2="879.960022" stroke="red" stroke-width="6.660000" />
<circle cx="1709.959961" cy="882.960022" r="19.980000" fill="red">
  <title>Beijing</title>
</circle><line x1="2018.959961" y1="879.960022" x2="1709.959961" y2="882.960022" stroke="red" stroke-width="6.660000" />
<circle cx="1667.959961" cy="110.959999" r="19.980000" fill="red">
  <title>Buenos Aires</title>
</circle><line x1="1709.959961" y1="882.960022" x2="1667.959961" y2="110.959999" stroke="red" stroke-width="6.660000" />
<circle cx="1094.959961" cy="40.959999" r="19.980000" fill="red">
  <title>Osaka</title>
</circle><line x1="1667.959961" y1="110.959999" x2="1094.959961" y2="40.959999" stroke="red" stroke-width="6.660000" />
<circle cx="995.960022" cy="153.959991" r="19.980000" fill="red">
  <title>Karachi</title>
</circle><line x1="1094.959961" y1="40.959999" x2="995.960022" y2="153.959991" stroke="red" stroke-width="6.660000" />
</svg>
