<?xml version="1.0" encoding="UTF-8" standalone="no"?>
<svg width="500" height="500" viewBox="0 0 2074.000000 2074.000000" xmlns="http://www.w3.org/2000/svg">
<rect x="19.000000" y="19.000000" width="2036.000000" height="2036.000000" fill="black" />
<circle cx="472.959991" cy="1803.959961" r="19.980000" fill="red">
  <title>Tokyo</title>
</circle><line x1="685.960022" y1="1642.959961" x2="472.959991" y2="1803.959961" stroke="red" stroke-width="6.660000" />
<circle cx="368.959991" cy="1470.959961" r="19.980000" fill="red">
  <title>Mexico City</title>
</circle><line x1="472.959991" y1="1803.959961" x2="368.959991" y2="1470.959961" stroke="red" stroke-width="6.660000" />
<circle cx="99.959999" cy="899.960022" r="19.980000" fill="red">
  <title>Istanbul</title>
</circle><line x1="368.959991" y1="1470.959961" x2="99.959999" y2="899.960022" stroke="red" stroke-width="6.660000" />
<circle cx="532.960022" cy="341.959991" r="19.980000" fill="red">
  <title>Karachi</title>
</circle><line x1="99.959999" y1="899.960022" x2="532.960022" y2="341.959991" stroke="red" stroke-width="6.660000" />
<circle cx="780.960022" cy="426.959991" r="19.980000" fill="red">
  <title>Cairo</title>
</circle><line x1="532.960022" y1="341.959991" x2="780.960022" y2="426.959991" stroke="red" stroke-width="6.660000" />
<circle cx="871.960022" cy="690.960022" r="19.980000" fill="red">
  <title>São Paulo</title>
</circle><line x1="780.960022" y1="426.959991" x2="871.960022" y2="690.960022" stroke="red" stroke-width="6.660000" />
<circle cx="902.960022" cy="1002.960022" r="19.980000" fill="red">
  <title>Beijing</title>
</circle><line x1="871.960022" y1="690.960022" x2="902.960022" y2="1002.960022" stroke="red" stroke-width="6.660000" />
<circle cx="977.960022" cy="476.959991" r="19.980000" fill="red">
  <title>New York</title>
</circle><line x1="902.960022" y1="1002.960022" x2="977.960022" y2="476.959991" stroke="red" stroke-width="6.660000" />
<circle cx="1037.959961" cy="403.959991" r="19.980000" fill="red">
  <title>Chongqing</title>
</circle><line x1="977.960022" y1="476.959991" x2="1037.959961" y2="403.959991" stroke="red" stroke-width="6.660000" />
<circle cx="1450.959961" cy="269.959991" r="19.980000" fill="red">
  <title>Shanghai</title>
</circle><line x1="1037.959961" y1="403.959991" x2="1450.959961" y2="269.959991" stroke="red" stroke-width="6.660000" />
<circle cx="1855.959961" cy="533.960022" r="19.980000" fill="red">
  <title>Kolkata</title>
</circle><line x1="1450.959961" y1="269.959991" x2="1855.959961" y2="533.960022" stroke="red" stroke-width="6.660000" />
<circle cx="1710.959961" cy="1089.959961" r="19.980000" fill="red">
  <title>Dhaka</title>
</circle><line x1="1855.959961" y1="533.960022" x2="1710.959961" y2="1089.959961" stroke="red" stroke-width="6.660000" />
<circle cx="1356.959961" cy="1095.959961" r="19.980000" fill="red">
  <title>Delhi</title>
</circle><line x1="1710.959961" y1="1089.959961" x2="1356.959961" y2="1095.959961" stroke="red" stroke-width="6.660000" />
<circle cx="1513.959961" cy="1415.959961" r="19.980000" fill="red">
  <title>Buenos Aires</title>
</circle><line x1="1356.959961" y1="1095.959961" x2="1513.959961" y2="1415.959961" stroke="red" stroke-width="6.660000" />
<circle cx="1293.959961" cy="1700.959961" r="19.980000" fill="red">
  <title>Mumbai</title>
</circle><line x1="1513.959961" y1="1415.959961" x2="1293.959961" y2="1700.959961" stroke="red" stroke-width="6.660000" />
<circle cx="685.960022" cy="1642.959961" r="19.980000" fill="red">
  <title>Osaka</title>
</circle><line x1="1293.959961" y1="1700.959961" x2="685.960022" y2="1642.959961" stroke="red" stroke-width="6.660000" />
</svg>
