<?xml version="1.0" encoding="UTF-8" standalone="no"?>
<svg width="500" height="500" viewBox="0 0 2074.000000 2074.000000" xmlns="http://www.w3.org/2000/svg">
<rect x="19.000000" y="19.000000" width="2036.000000" height="2036.000000" fill="black" />
<circle cx="2004.959961" cy="1437.959961" r="19.980000" fill="red">
  <title>Tokyo</title>
</circle><line x1="1048.959961" y1="121.959999" x2="2004.959961" y2="1437.959961" stroke="red" stroke-width="6.660000" />
<circle cx="1024.959961" cy="556.960022" r="19.980000" fill="red">
  <title>Shanghai</title>
</circle><line x1="2004.959961" y1="1437.959961" x2="1024.959961" y2="556.960022" stroke="red" stroke-width="6.660000" />
<circle cx="166.959991" cy="784.960022" r="19.980000" fill="red">
  <title>Delhi</title>
</circle><line x1="1024.959961" y1="556.960022" x2="166.959991" y2="784.960022" stroke="red" stroke-width="6.660000" />
<circle cx="1048.959961" cy="121.959999" r="19.980000" fill="red">
  <title>São Paulo</title>
</circle><line x1="166.959991" y1="784.960022" x2="1048.959961" y2="121.959999" stroke="red" stroke-width="6.660000" />
</svg>
