<?xml version="1.0" encoding="UTF-8" standalone="no"?>
<svg width="500" height="500" viewBox="0 0 2074.000000 2074.000000" xmlns="http://www.w3.org/2000/svg">
<rect x="19.000000" y="19.000000" width="2036.000000" height="2036.000000" fill="black" />
<circle cx="514.960022" cy="811.960022" r="19.980000" fill="red">
  <title>Tokyo</title>
</circle><line x1="739.960022" y1="1839.959961" x2="514.960022" y2="811.960022" stroke="red" stroke-width="6.660000" />
<circle cx="549.960022" cy="341.959991" r="19.980000" fill="red">
  <title>Delhi</title>
</circle><line x1="514.960022" y1="811.960022" x2="549.960022" y2="341.959991" stroke="red" stroke-width="6.660000" />
<circle cx="1134.959961" cy="490.959991" r="19.980000" fill="red">
  <title>Shanghai</title>
</circle><line x1="549.960022" y1="341.959991" x2="1134.959961" y2="490.959991" stroke="red" stroke-width="6.660000" />
<circle cx="1681.959961" cy="606.960022" r="19.980000" fill="red">
  <title>Beijing</title>
</circle><line x1="1134.959961" y1="490.959991" x2="1681.959961" y2="606.960022" stroke="red" stroke-width="6.660000" />
<circle cx="1876.959961" cy="1025.959961" r="19.980000" fill="red">
  <title>Mexico City</title>
</circle><line x1="1681.959961" y1="606.960022" x2="1876.959961" y2="1025.959961" stroke="red" stroke-width="6.660000" />
<circle cx="1730.959961" cy="1620.959961" r="19.980000" fill="red">
  <title>Cairo</title>
</circle><line x1="1876.959961" y1="1025.959961" x2="1730.959961" y2="1620.959961" stroke="red" stroke-width="6.660000" />
<circle cx="1116.959961" cy="1690.959961" r="19.980000" fill="red">
  <title>Mumbai</title>
</circle><line x1="1730.959961" y1="1620.959961" x2="1116.959961" y2="1690.959961" stroke="red" stroke-width="6.660000" />
<circle cx="739.960022" cy="1839.959961" r="19.980000" fill="red">
  <title>São Paulo</title>
</circle><line x1="1116.959961" y1="1690.959961" x2="739.960022" y2="1839.959961" stroke="red" stroke-width="6.660000" />
</svg>
