<?xml version="1.0" encoding="UTF-8" standalone="no"?>
<svg width="500" height="500" viewBox="0 0 2074.000000 2074.000000" xmlns="http://www.w3.org/2000/svg">
<rect x="19.000000" y="19.000000" width="2036.000000" height="2036.000000" fill="black" />
<circle cx="376.959991" cy="1050.959961" r="19.980000" fill="red">
  <title>Tokyo</title>
</circle><line x1="200.959991" y1="1408.959961" x2="376.959991" y2="1050.959961" stroke="red" stroke-width="6.660000" />
<circle cx="212.959991" cy="1005.960022" r="19.980000" fill="red">
  <title>Shanghai</title>
</circle><line x1="376.959991" y1="1050.959961" x2="212.959991" y2="1005.960022" stroke="red" stroke-width="6.660000" />
<circle cx="242.959991" cy="171.959991" r="19.980000" fill="red">
  <title>Delhi</title>
</circle><line x1="212.959991" y1="1005.960022" x2="242.959991" y2="171.959991" stroke="red" stroke-width="6.660000" />
<circle cx="779.960022" cy="213.959991" r="19.980000" fill="red">
  <title>Mumbai</title>
</circle><line x1="242.959991" y1="171.959991" x2="779.960022" y2="213.959991" stroke="red" stroke-width="6.660000" />
<circle cx="1520.959961" cy="182.959991" r="19.980000" fill="red">
  <title>Mexico City</title>
</circle><line x1="779.960022" y1="213.959991" x2="1520.959961" y2="182.959991" stroke="red" stroke-width="6.660000" />
<circle cx="1406.959961" cy="1653.959961" r="19.980000" fill="red">
  <title>Cairo</title>
</circle><line x1="1520.959961" y1="182.959991" x2="1406.959961" y2="1653.959961" stroke="red" stroke-width="6.660000" />
<circle cx="200.959991" cy="1408.959961" r="19.980000" fill="red">
  <title>São Paulo</title>
</circle><line x1="1406.959961" y1="1653.959961" x2="200.959991" y2="1408.959961" stroke="red" stroke-width="6.660000" />
</svg>
