<?xml version="1.0" encoding="UTF-8" standalone="no"?>
<svg width="500" height="500" viewBox="0 0 2074.000000 2074.000000" xmlns="http://www.w3.org/2000/svg">
<rect x="19.000000" y="19.000000" width="2036.000000" height="2036.000000" fill="black" />
<circle cx="1430.959961" cy="202.959991" r="19.980000" fill="red">
  <title>Tokyo</title>
</circle><line x1="963.960022" y1="158.959991" x2="1430.959961" y2="202.959991" stroke="red" stroke-width="6.660000" />
<circle cx="1164.959961" cy="600.960022" r="19.980000" fill="red">
  <title>Mumbai</title>
</circle><line x1="1430.959961" y1="202.959991" x2="1164.959961" y2="600.960022" stroke="red" stroke-width="6.660000" />
<circle cx="1514.959961" cy="691.960022" r="19.980000" fill="red">
  <title>Istanbul</title>
</circle><line x1="1164.959961" y1="600.960022" x2="1514.959961" y2="691.960022" stroke="red" stroke-width="6.660000" />
<circle cx="1897.959961" cy="619.960022" r="19.980000" fill="red">
  <title>Shanghai</title>
</circle><line x1="1514.959961" y1="691.960022" x2="1897.959961" y2="619.960022" stroke="red" stroke-width="6.660000" />
<circle cx="1946.959961" cy="907.960022" r="19.980000" fill="red">
  <title>Kolkata</title>
</circle><line x1="1897.959961" y1="619.960022" x2="1946.959961" y2="907.960022" stroke="red" stroke-width="6.660000" />
<circle cx="1654.959961" cy="1253.959961" r="19.980000" fill="red">
  <title>Dhaka</title>
</circle><line x1="1946.959961" y1="907.960022" x2="1654.959961" y2="1253.959961" stroke="red" stroke-width="6.660000" />
<circle cx="1855.959961" cy="1602.959961" r="19.980000" fill="red">
  <title>New York</title>
</circle><line x1="1654.959961" y1="1253.959961" x2="1855.959961" y2="1602.959961" stroke="red" stroke-width="6.660000" />
<circle cx="1832.959961" cy="2024.959961" r="19.980000" fill="red">
  <title>Karachi</title>
</circle><line x1="1855.959961" y1="1602.959961" x2="1832.959961" y2="2024.959961" stroke="red" stroke-width="6.660000" />
<circle cx="993.960022" cy="1334.959961" r="19.980000" fill="red">
  <title>Beijing</title>
</circle><line x1="1832.959961" y1="2024.959961" x2="993.960022" y2="1334.959961" stroke="red" stroke-width="6.660000" />
<circle cx="919.960022" cy="1346.959961" r="19.980000" fill="red">
  <title>Cairo</title>
</circle><line x1="993.960022" y1="1334.959961" x2="919.960022" y2="1346.959961" stroke="red" stroke-width="6.660000" />
<circle cx="855.960022" cy="871.960022" r="19.980000" fill="red">
  <title>Manila</title>
</circle><line x1="919.960022" y1="1346.959961" x2="855.960022" y2="871.960022" stroke="red" stroke-width="6.660000" />
<circle cx="245.959991" cy="613.960022" r="19.980000" fill="red">
  <title>Osaka</title>
</circle><line x1="855.960022" y1="871.960022" x2="245.959991" y2="613.960022" stroke="red" stroke-width="6.660000" />
<circle cx="376.959991" cy="376.959991" r="19.980000" fill="red">
  <title>Chongqing</title>
</circle><line x1="245.959991" y1="613.960022" x2="376.959991" y2="376.959991" stroke="red" stroke-width="6.660000" />
<circle cx="456.959991" cy="192.959991" r="19.980000" fill="red">
  <title>Buenos Aires</title>
</circle><line x1="376.959991" y1="376.959991" x2="456.959991" y2="192.959991" stroke="red" stroke-width="6.660000" />
<circle cx="513.960022" cy="71.959999" r="19.980000" fill="red">
  <title>São Paulo</title>
</circle><line x1="456.959991" y1="192.959991" x2="513.960022" y2="71.959999" stroke="red" stroke-width="6.660000" />
<circle cx="561.960022" cy="47.959999" r="19.980000" fill="red">
  <title>Mexico City</title>
</circle><line x1="513.960022" y1="71.959999" x2="561.960022" y2="47.959999" stroke="red" stroke-width="6.660000" />
<circle cx="963.960022" cy="158.959991" r="19.980000" fill="red">
  <title>Delhi</title>
</circle><line x1="561.960022" y1="47.959999" x2="963.960022" y2="158.959991" stroke="red" stroke-width="6.660000" />
</svg>
