<?xml version="1.0" encoding="UTF-8" standalone="no"?>
<svg width="500" height="500" viewBox="0 0 2074.000000 2074.000000" xmlns="http://www.w3.org/2000/svg">
<rect x="19.000000" y="19.000000" width="2036.000000" height="2036.000000" fill="black" />
<circle cx="175.959991" cy="1282.959961" r="19.980000" fill="red">
  <title>Tokyo</title>
</circle><line x1="487.959991" y1="1930.959961" x2="175.959991" y2="1282.959961" stroke="red" stroke-width="6.660000" />
<circle cx="548.960022" cy="1115.959961" r="19.980000" fill="red">
  <title>Delhi</title>
</circle><line x1="175.959991" y1="1282.959961" x2="548.960022" y2="1115.959961" stroke="red" stroke-width="6.660000" />
<circle cx="677.960022" cy="966.960022" r="19.980000" fill="red">
  <title>Beijing</title>
</circle><line x1="548.960022" y1="1115.959961" x2="677.960022" y2="966.960022" stroke="red" stroke-width="6.660000" />
<circle cx="627.960022" cy="993.960022" r="19.980000" fill="red">
  <title>Buenos Aires</title>
</circle><line x1="677.960022" y1="966.960022" x2="627.960022" y2="993.960022" stroke="red" stroke-width="6.660000" />
<circle cx="335.959991" cy="1014.960022" r="19.980000" fill="red">
  <title>Cairo</title>
</circle><line x1="627.960022" y1="993.960022" x2="335.959991" y2="1014.960022" stroke="red" stroke-width="6.660000" />
<circle cx="251.959991" cy="792.960022" r="19.980000" fill="red">
  <title>Istanbul</title>
</circle><line x1="335.959991" y1="1014.960022" x2="251.959991" y2="792.960022" stroke="red" stroke-width="6.660000" />
<circle cx="167.959991" cy="388.959991" r="19.980000" fill="red">
  <title>Kolkata</title>
</circle><line x1="251.959991" y1="792.960022" x2="167.959991" y2="388.959991" stroke="red" stroke-width="6.660000" />
<circle cx="238.959991" cy="94.959999" r="19.980000" fill="red">
  <title>Osaka</title>
</circle><line x1="167.959991" y1="388.959991" x2="238.959991" y2="94.959999" stroke="red" stroke-width="6.660000" />
<circle cx="1285.959961" cy="131.959991" r="19.980000" fill="red">
  <title>Karachi</title>
</circle><line x1="238.959991" y1="94.959999" x2="1285.959961" y2="131.959991" stroke="red" stroke-width="6.660000" />
<circle cx="1331.959961" cy="89.959999" r="19.980000" fill="red">
  <title>Mexico City</title>
</circle><line x1="1285.959961" y1="131.959991" x2="1331.959961" y2="89.959999" stroke="red" stroke-width="6.660000" />
<circle cx="1312.959961" cy="468.959991" r="19.980000" fill="red">
  <title>Chongqing</title>
</circle><line x1="1331.959961" y1="89.959999" x2="1312.959961" y2="468.959991" stroke="red" stroke-width="6.660000" />
<circle cx="1474.959961" cy="744.960022" r="19.980000" fill="red">
  <title>Mumbai</title>
</circle><line x1="1312.959961" y1="468.959991" x2="1474.959961" y2="744.960022" stroke="red" stroke-width="6.660000" />
<circle cx="2001.959961" cy="541.960022" r="19.980000" fill="red">
  <title>New York</title>
</circle><line x1="1474.959961" y1="744.960022" x2="2001.959961" y2="541.960022" stroke="red" stroke-width="6.660000" />
<circle cx="2036.959961" cy="677.960022" r="19.980000" fill="red">
  <title>Manila</title>
</circle><line x1="2001.959961" y1="541.960022" x2="2036.959961" y2="677.960022" stroke="red" stroke-width="6.660000" />
<circle cx="1768.959961" cy="1293.959961" r="19.980000" fill="red">
  <title>Shanghai</title>
</circle><line x1="2036.959961" y1="677.960022" x2="1768.959961" y2="1293.959961" stroke="red" stroke-width="6.660000" />
<circle cx="1608.959961" cy="1953.959961" r="19.980000" fill="red">
  <title>Dhaka</title>
</circle><line x1="1768.959961" y1="1293.959961" x2="1608.959961" y2="1953.959961" stroke="red" stroke-width="6.660000" />
<circle cx="1464.959961" cy="1766.959961" r="19.980000" fill="red">
  <title>Lagos</title>
</circle><line x1="1608.959961" y1="1953.959961" x2="1464.959961" y2="1766.959961" stroke="red" stroke-width="6.660000" />
<circle cx="487.959991" cy="1930.959961" r="19.980000" fill="red">
  <title>São Paulo</title>
</circle><line x1="1464.959961" y1="1766.959961" x2="487.959991" y2="1930.959961" stroke="red" stroke-width="6.660000" />
</svg>
