<?xml version="1.0" encoding="UTF-8" standalone="no"?>
<svg width="500" height="500" viewBox="0 0 2074.000000 2074.000000" xmlns="http://www.w3.org/2000/svg">
<rect x="19.000000" y="19.000000" width="2036.000000" height="2036.000000" fill="black" />
<circle cx="1287.959961" cy="1586.959961" r="19.980000" fill="red">
  <title>Tokyo</title>
</circle><line x1="1294.959961" y1="1469.959961" x2="1287.959961" y2="1586.959961" stroke="red" stroke-width="6.660000" />
<circle cx="1591.959961" cy="1640.959961" r="19.980000" fill="red">
  <title>Dhaka</title>
</circle><line x1="1287.959961" y1="1586.959961" x2="1591.959961" y2="1640.959961" stroke="red" stroke-width="6.660000" />
<circle cx="1910.959961" cy="1738.959961" r="19.980000" fill="red">
  <title>Beijing</title>
</circle><line x1="1591.959961" y1="1640.959961" x2="1910.959961" y2="1738.959961" stroke="red" stroke-width="6.660000" />
<circle cx="1800.959961" cy="1681.959961" r="19.980000" fill="red">
  <title>Delhi</title>
</circle><line x1="1910.959961" y1="1738.959961" x2="1800.959961" y2="1681.959961" stroke="red" stroke-width="6.660000" />
<circle cx="1354.959961" cy="1725.959961" r="19.980000" fill="red">
  <title>Buenos Aires</title>
</circle><line x1="1800.959961" y1="1681.959961" x2="1354.959961" y2="1725.959961" stroke="red" stroke-width="6.660000" />
<circle cx="1237.959961" cy="2036.959961" r="19.980000" fill="red">
  <title>Karachi</title>
</circle><line x1="1354.959961" y1="1725.959961" x2="1237.959961" y2="2036.959961" stroke="red" stroke-width="6.660000" />
<circle cx="517.960022" cy="1645.959961" r="19.980000" fill="red">
  <title>Mumbai</title>
</circle><line x1="1237.959961" y1="2036.959961" x2="517.960022" y2="1645.959961" stroke="red" stroke-width="6.660000" />
<circle cx="141.959991" cy="750.960022" r="19.980000" fill="red">
  <title>Cairo</title>
</circle><line x1="517.960022" y1="1645.959961" x2="141.959991" y2="750.960022" stroke="red" stroke-width="6.660000" />
<circle cx="1270.959961" cy="602.960022" r="19.980000" fill="red">
  <title>São Paulo</title>
</circle><line x1="141.959991" y1="750.960022" x2="1270.959961" y2="602.960022" stroke="red" stroke-width="6.660000" />
<circle cx="1765.959961" cy="620.960022" r="19.980000" fill="red">
  <title>New York</title>
</circle><line x1="1270.959961" y1="602.960022" x2="1765.959961" y2="620.960022" stroke="red" stroke-width="6.660000" />
<circle cx="1915.959961" cy="689.960022" r="19.980000" fill="red">
  <title>Mexico City</title>
</circle><line x1="1765.959961" y1="620.960022" x2="1915.959961" y2="689.960022" stroke="red" stroke-width="6.660000" />
<circle cx="1721.959961" cy="756.960022" r="19.980000" fill="red">
  <title>Shanghai</title>
</circle><line x1="1915.959961" y1="689.960022" x2="1721.959961" y2="756.960022" stroke="red" stroke-width="6.660000" />
<circle cx="1294.959961" cy="1469.959961" r="19.980000" fill="red">
  <title>Osaka</title>
</circle><line x1="1721.959961" y1="756.960022" x2="1294.959961" y2="1469.959961" stroke="red" stroke-width="6.660000" />
</svg>
