<?xml version="1.0" encoding="UTF-8" standalone="no"?>
<svg width="500" height="500" viewBox="0 0 2074.000000 2074.000000" xmlns="http://www.w3.org/2000/svg">
<rect x="19.000000" y="19.000000" width="2036.000000" height="2036.000000" fill="black" />
<circle cx="1203.959961" cy="1087.959961" r="19.980000" fill="red">
  <title>Tokyo</title>
</circle><line x1="1409.959961" y1="1129.959961" x2="1203.959961" y2="1087.959961" stroke="red" stroke-width="6.660000" />
<circle cx="1605.959961" cy="933.960022" r="19.980000" fill="red">
  <title>Dhaka</title>
</circle><line x1="1203.959961" y1="1087.959961" x2="1605.959961" y2="933.960022" stroke="red" stroke-width="6.660000" />
<circle cx="2011.959961" cy="217.959991" r="19.980000" fill="red">
  <title>Buenos Aires</title>
</circle><line x1="1605.959961" y1="933.960022" x2="2011.959961" y2="217.959991" stroke="red" stroke-width="6.660000" />
<circle cx="1035.959961" cy="117.959999" r="19.980000" fill="red">
  <title>Karachi</title>
</circle><line x1="2011.959961" y1="217.959991" x2="1035.959961" y2="117.959999" stroke="red" stroke-width="6.660000" />
<circle cx="893.960022" cy="524.960022" r="19.980000" fill="red">
  <title>Cairo</title>
</circle><line x1="1035.959961" y1="117.959999" x2="893.960022" y2="524.960022" stroke="red" stroke-width="6.660000" />
<circle cx="485.959991" cy="290.959991" r="19.980000" fill="red">
  <title>Delhi</title>
</circle><line x1="893.960022" y1="524.960022" x2="485.959991" y2="290.959991" stroke="red" stroke-width="6.660000" />
<circle cx="375.959991" cy="361.959991" r="19.980000" fill="red">
  <title>Istanbul</title>
</circle><line x1="485.959991" y1="290.959991" x2="375.959991" y2="361.959991" stroke="red" stroke-width="6.660000" />
<circle cx="502.959991" cy="635.960022" r="19.980000" fill="red">
  <title>São Paulo</title>
</circle><line x1="375.959991" y1="361.959991" x2="502.959991" y2="635.960022" stroke="red" stroke-width="6.660000" />
<circle cx="829.960022" cy="962.960022" r="19.980000" fill="red">
  <title>Mumbai</title>
</circle><line x1="502.959991" y1="635.960022" x2="829.960022" y2="962.960022" stroke="red" stroke-width="6.660000" />
<circle cx="929.960022" cy="1100.959961" r="19.980000" fill="red">
  <title>Chongqing</title>
</circle><line x1="829.960022" y1="962.960022" x2="929.960022" y2="1100.959961" stroke="red" stroke-width="6.660000" />
<circle cx="466.959991" cy="1146.959961" r="19.980000" fill="red">
  <title>New York</title>
</circle><line x1="929.960022" y1="1100.959961" x2="466.959991" y2="1146.959961" stroke="red" stroke-width="6.660000" />
<circle cx="60.959999" cy="1798.959961" r="19.980000" fill="red">
  <title>Beijing</title>
</circle><line x1="466.959991" y1="1146.959961" x2="60.959999" y2="1798.959961" stroke="red" stroke-width="6.660000" />
<circle cx="207.959991" cy="1955.959961" r="19.980000" fill="red">
  <title>Shanghai</title>
</circle><line x1="60.959999" y1="1798.959961" x2="207.959991" y2="1955.959961" stroke="red" stroke-width="6.660000" />
<circle cx="683.960022" cy="1539.959961" r="19.980000" fill="red">
  <title>Kolkata</title>
</circle><line x1="207.959991" y1="1955.959961" x2="683.960022" y2="1539.959961" stroke="red" stroke-width="6.660000" />
<circle cx="1243.959961" cy="1954.959961" r="19.980000" fill="red">
  <title>Mexico City</title>
</circle><line x1="683.960022" y1="1539.959961" x2="1243.959961" y2="1954.959961" stroke="red" stroke-width="6.660000" />
<circle cx="1732.959961" cy="1541.959961" r="19.980000" fill="red">
  <title>Osaka</title>
</circle><line x1="1243.959961" y1="1954.959961" x2="1732.959961" y2="1541.959961" stroke="red" stroke-width="6.660000" />
<circle cx="1409.959961" cy="1129.959961" r="19.980000" fill="red">
  <title>Manila</title>
</circle><line x1="1732.959961" y1="1541.959961" x2="1409.959961" y2="1129.959961" stroke="red" stroke-width="6.660000" />
</svg>
