<?xml version="1.0" encoding="UTF-8" standalone="no"?>
<svg width="500" height="500" viewBox="0 0 2074.000000 2074.000000" xmlns="http://www.w3.org/2000/svg">
<rect x="19.000000" y="19.000000" width="2036.000000" height="2036.000000" fill="black" />
<circle cx="885.960022" cy="840.960022" r="19.980000" fill="red">
  <title>Tokyo</title>
</circle><line x1="246.959991" y1="801.960022" x2="885.960022" y2="840.960022" stroke="red" stroke-width="6.660000" />
<circle cx="1183.959961" cy="1609.959961" r="19.980000" fill="red">
  <title>Beijing</title>
</circle><line x1="885.960022" y1="840.960022" x2="1183.959961" y2="1609.959961" stroke="red" stroke-width="6.660000" />
<circle cx="1635.959961" cy="1912.959961" r="19.980000" fill="red">
  <title>Tianjin</title>
</circle><line x1="1183.959961" y1="1609.959961" x2="1635.959961" y2="1912.959961" stroke="red" stroke-width="6.660000" />
<circle cx="1990.959961" cy="2007.959961" r="19.980000" fill="red">
  <title>Cairo</title>
</circle><line x1="1635.959961" y1="1912.959961" x2="1990.959961" y2="2007.959961" stroke="red" stroke-width="6.660000" />
<circle cx="1665.959961" cy="1858.959961" r="19.980000" fill="red">
  <title>Istanbul</title>
</circle><line x1="1990.959961" y1="2007.959961" x2="1665.959961" y2="1858.959961" stroke="red" stroke-width="6.660000" />
<circle cx="1747.959961" cy="1426.959961" r="19.980000" fill="red">
  <title>Delhi</title>
</circle><line x1="1665.959961" y1="1858.959961" x2="1747.959961" y2="1426.959961" stroke="red" stroke-width="6.660000" />
<circle cx="1901.959961" cy="1408.959961" r="19.980000" fill="red">
  <title>Lagos</title>
</circle><line x1="1747.959961" y1="1426.959961" x2="1901.959961" y2="1408.959961" stroke="red" stroke-width="6.660000" />
<circle cx="1731.959961" cy="1080.959961" r="19.980000" fill="red">
  <title>Mumbai</title>
</circle><line x1="1901.959961" y1="1408.959961" x2="1731.959961" y2="1080.959961" stroke="red" stroke-width="6.660000" />
<circle cx="1852.959961" cy="519.960022" r="19.980000" fill="red">
  <title>Mexico City</title>
</circle><line x1="1731.959961" y1="1080.959961" x2="1852.959961" y2="519.960022" stroke="red" stroke-width="6.660000" />
<circle cx="998.960022" cy="273.959991" r="19.980000" fill="red">
  <title>Dhaka</title>
</circle><line x1="1852.959961" y1="519.960022" x2="998.960022" y2="273.959991" stroke="red" stroke-width="6.660000" />
<circle cx="929.960022" cy="246.959991" r="19.980000" fill="red">
  <title>Karachi</title>
</circle><line x1="998.960022" y1="273.959991" x2="929.960022" y2="246.959991" stroke="red" stroke-width="6.660000" />
<circle cx="786.960022" cy="94.959999" r="19.980000" fill="red">
  <title>Shanghai</title>
</circle><line x1="929.960022" y1="246.959991" x2="786.960022" y2="94.959999" stroke="red" stroke-width="6.660000" />
<circle cx="661.960022" cy="43.959999" r="19.980000" fill="red">
  <title>Manila</title>
</circle><line x1="786.960022" y1="94.959999" x2="661.960022" y2="43.959999" stroke="red" stroke-width="6.660000" />
<circle cx="566.960022" cy="166.959991" r="19.980000" fill="red">
  <title>Osaka</title>
</circle><line x1="661.960022" y1="43.959999" x2="566.960022" y2="166.959991" stroke="red" stroke-width="6.660000" />
<circle cx="369.959991" cy="265.959991" r="19.980000" fill="red">
  <title>São Paulo</title>
</circle><line x1="566.960022" y1="166.959991" x2="369.959991" y2="265.959991" stroke="red" stroke-width="6.660000" />
<circle cx="98.959999" cy="232.959991" r="19.980000" fill="red">
  <title>Rio de Janeiro</title>
</circle><line x1="369.959991" y1="265.959991" x2="98.959999" y2="232.959991" stroke="red" stroke-width="6.660000" />
<circle cx="381.959991" cy="381.959991" r="19.980000" fill="red">
  <title>Chongqing</title>
</circle><line x1="98.959999" y1="232.959991" x2="381.959991" y2="381.959991" stroke="red" stroke-width="6.660000" />
<circle cx="334.959991" cy="513.960022" r="19.980000" fill="red">
  <title>Kolkata</title>
</circle><line x1="381.959991" y1="381.959991" x2="334.959991" y2="513.960022" stroke="red" stroke-width="6.660000" />
<circle cx="60.959999" cy="710.960022" r="19.980000" fill="red">
  <title>New York</title>
</circle><line x1="334.959991" y1="513.960022" x2="60.959999" y2="710.960022" stroke="red" stroke-width="6.660000" />
<circle cx="246.959991" cy="801.960022" r="19.980000" fill="red">
  <title>Buenos Aires</title>
</circle><line x1="60.959999" y1="710.960022" x2="246.959991" y2="801.960022" stroke="red" stroke-width="6.660000" />
</svg>
