<?xml version="1.0" encoding="UTF-8" standalone="no"?>
<svg width="500" height="500" viewBox="0 0 2074.000000 2074.000000" xmlns="http://www.w3.org/2000/svg">
<rect x="19.000000" y="19.000000" width="2036.000000" height="2036.000000" fill="black" />
<circle cx="1426.959961" cy="1337.959961" r="19.980000" fill="red">
  <title>Tokyo</title>
</circle><line x1="1138.959961" y1="1057.959961" x2="1426.959961" y2="1337.959961" stroke="red" stroke-width="6.660000" />
<circle cx="1590.959961" cy="2035.959961" r="19.980000" fill="red">
  <title>Shanghai</title>
</circle><line x1="1426.959961" y1="1337.959961" x2="1590.959961" y2="2035.959961" stroke="red" stroke-width="6.660000" />
<circle cx="1985.959961" cy="1122.959961" r="19.980000" fill="red">
  <title>Cairo</title>
</circle><line x1="1590.959961" y1="2035.959961" x2="1985.959961" y2="1122.959961" stroke="red" stroke-width="6.660000" />
<circle cx="2035.959961" cy="757.960022" r="19.980000" fill="red">
  <title>Dhaka</title>
</circle><line x1="1985.959961" y1="1122.959961" x2="2035.959961" y2="757.960022" stroke="red" stroke-width="6.660000" />
<circle cx="1888.959961" cy="556.960022" r="19.980000" fill="red">
  <title>Mexico City</title>
</circle><line x1="2035.959961" y1="757.960022" x2="1888.959961" y2="556.960022" stroke="red" stroke-width="6.660000" />
<circle cx="1776.959961" cy="152.959991" r="19.980000" fill="red">
  <title>New York</title>
</circle><line x1="1888.959961" y1="556.960022" x2="1776.959961" y2="152.959991" stroke="red" stroke-width="6.660000" />
<circle cx="1651.959961" cy="614.960022" r="19.980000" fill="red">
  <title>Karachi</title>
</circle><line x1="1776.959961" y1="152.959991" x2="1651.959961" y2="614.960022" stroke="red" stroke-width="6.660000" />
<circle cx="1332.959961" cy="432.959991" r="19.980000" fill="red">
  <title>Delhi</title>
</circle><line x1="1651.959961" y1="614.960022" x2="1332.959961" y2="432.959991" stroke="red" stroke-width="6.660000" />
<circle cx="296.959991" cy="497.959991" r="19.980000" fill="red">
  <title>São Paulo</title>
</circle><line x1="1332.959961" y1="432.959991" x2="296.959991" y2="497.959991" stroke="red" stroke-width="6.660000" />
<circle cx="472.959991" cy="1349.959961" r="19.980000" fill="red">
  <title>Beijing</title>
</circle><line x1="296.959991" y1="497.959991" x2="472.959991" y2="1349.959961" stroke="red" stroke-width="6.660000" />
<circle cx="871.960022" cy="1405.959961" r="19.980000" fill="red">
  <title>Osaka</title>
</circle><line x1="472.959991" y1="1349.959961" x2="871.960022" y2="1405.959961" stroke="red" stroke-width="6.660000" />
<circle cx="1138.959961" cy="1057.959961" r="19.980000" fill="red">
  <title>Mumbai</title>
</circle><line x1="871.960022" y1="1405.959961" x2="1138.959961" y2="1057.959961" stroke="red" stroke-width="6.660000" />
</svg>
