<?xml version="1.0" encoding="UTF-8" standalone="no"?>
<svg width="500" height="500" viewBox="0 0 2074.000000 2074.000000" xmlns="http://www.w3.org/2000/svg">
<rect x="19.000000" y="19.000000" width="2036.000000" height="2036.000000" fill="black" />
<circle cx="1587.959961" cy="1154.959961" r="19.980000" fill="red">
  <title>Tokyo</title>
</circle><line x1="1691.959961" y1="1627.959961" x2="1587.959961" y2="1154.959961" stroke="red" stroke-width="6.660000" />
<circle cx="1569.959961" cy="1087.959961" r="19.980000" fill="red">
  <title>Mumbai</title>
</circle><line x1="1587.959961" y1="1154.959961" x2="1569.959961" y2="1087.959961" stroke="red" stroke-width="6.660000" />
<circle cx="1763.959961" cy="719.960022" r="19.980000" fill="red">
  <title>Shanghai</title>
</circle><line x1="1569.959961" y1="1087.959961" x2="1763.959961" y2="719.960022" stroke="red" stroke-width="6.660000" />
<circle cx="1942.959961" cy="353.959991" r="19.980000" fill="red">
  <title>Chongqing</title>
</circle><line x1="1763.959961" y1="719.960022" x2="1942.959961" y2="353.959991" stroke="red" stroke-width="6.660000" />
<circle cx="1496.959961" cy="512.960022" r="19.980000" fill="red">
  <title>Delhi</title>
</circle><line x1="1942.959961" y1="353.959991" x2="1496.959961" y2="512.960022" stroke="red" stroke-width="6.660000" />
<circle cx="853.960022" cy="575.960022" r="19.980000" fill="red">
  <title>Istanbul</title>
</circle><line x1="1496.959961" y1="512.960022" x2="853.960022" y2="575.960022" stroke="red" stroke-width="6.660000" />
<circle cx="198.959991" cy="257.959991" r="19.980000" fill="red">
  <title>Beijing</title>
</circle><line x1="853.960022" y1="575.960022" x2="198.959991" y2="257.959991" stroke="red" stroke-width="6.660000" />
<circle cx="206.959991" cy="222.959991" r="19.980000" fill="red">
  <title>Mexico City</title>
</circle><line x1="198.959991" y1="257.959991" x2="206.959991" y2="222.959991" stroke="red" stroke-width="6.660000" />
<circle cx="170.959991" cy="402.959991" r="19.980000" fill="red">
  <title>Kolkata</title>
</circle><line x1="206.959991" y1="222.959991" x2="170.959991" y2="402.959991" stroke="red" stroke-width="6.660000" />
<circle cx="411.959991" cy="694.960022" r="19.980000" fill="red">
  <title>Buenos Aires</title>
</circle><line x1="170.959991" y1="402.959991" x2="411.959991" y2="694.960022" stroke="red" stroke-width="6.660000" />
<circle cx="612.960022" cy="759.960022" r="19.980000" fill="red">
  <title>Osaka</title>
</circle><line x1="411.959991" y1="694.960022" x2="612.960022" y2="759.960022" stroke="red" stroke-width="6.660000" />
<circle cx="1066.959961" cy="1192.959961" r="19.980000" fill="red">
  <title>São Paulo</title>
</circle><line x1="612.960022" y1="759.960022" x2="1066.959961" y2="1192.959961" stroke="red" stroke-width="6.660000" />
<circle cx="876.960022" cy="1416.959961" r="19.980000" fill="red">
  <title>Lagos</title>
</circle><line x1="1066.959961" y1="1192.959961" x2="876.960022" y2="1416.959961" stroke="red" stroke-width="6.660000" />
<circle cx="311.959991" cy="1769.959961" r="19.980000" fill="red">
  <title>Dhaka</title>
</circle><line x1="876.960022" y1="1416.959961" x2="311.959991" y2="1769.959961" stroke="red" stroke-width="6.660000" />
<circle cx="169.959991" cy="1808.959961" r="19.980000" fill="red">
  <title>Cairo</title>
</circle><line x1="311.959991" y1="1769.959961" x2="169.959991" y2="1808.959961" stroke="red" stroke-width="6.660000" />
<circle cx="308.959991" cy="1904.959961" r="19.980000" fill="red">
  <title>Rio de Janeiro</title>
</circle><line x1="169.959991" y1="1808.959961" x2="308.959991" y2="1904.959961" stroke="red" stroke-width="6.660000" />
<circle cx="467.959991" cy="1818.959961" r="19.980000" fill="red">
  <title>Karachi</title>
</circle><line x1="308.959991" y1="1904.959961" x2="467.959991" y2="1818.959961" stroke="red" stroke-width="6.660000" />
<circle cx="1153.959961" cy="1701.959961" r="19.980000" fill="red">
  <title>New York</title>
</circle><line x1="467.959991" y1="1818.959961" x2="1153.959961" y2="1701.959961" stroke="red" stroke-width="6.660000" />
<circle cx="1691.959961" cy="1627.959961" r="19.980000" fill="red">
  <title>Manila</title>
</circle><line x1="1153.959961" y1="1701.959961" x2="1691.959961" y2="1627.959961" stroke="red" stroke-width="6.660000" />
</svg>
