<?xml version="1.0" encoding="UTF-8" standalone="no"?>
<svg width="500" height="500" viewBox="0 0 2074.000000 2074.000000" xmlns="http://www.w3.org/2000/svg">
<rect x="19.000000" y="19.000000" width="2036.000000" height="2036.000000" fill="black" />
<circle cx="149.959991" cy="331.959991" r="19.980000" fill="red">
  <title>Tokyo</title>
</circle><line x1="244.959991" y1="419.959991" x2="149.959991" y2="331.959991" stroke="red" stroke-width="6.660000" />
<circle cx="271.959991" cy="1026.959961" r="19.980000" fill="red">
  <title>Mexico City</title>
</circle><line x1="149.959991" y1="331.959991" x2="271.959991" y2="1026.959961" stroke="red" stroke-width="6.660000" />
<circle cx="469.959991" cy="1013.960022" r="19.980000" fill="red">
  <title>Chongqing</title>
</circle><line x1="271.959991" y1="1026.959961" x2="469.959991" y2="1013.960022" stroke="red" stroke-width="6.660000" />
<circle cx="469.959991" cy="1263.959961" r="19.980000" fill="red">
  <title>Dhaka</title>
</circle><line x1="469.959991" y1="1013.960022" x2="469.959991" y2="1263.959961" stroke="red" stroke-width="6.660000" />
<circle cx="315.959991" cy="1954.959961" r="19.980000" fill="red">
  <title>Delhi</title>
</circle><line x1="469.959991" y1="1263.959961" x2="315.959991" y2="1954.959961" stroke="red" stroke-width="6.660000" />
<circle cx="1103.959961" cy="1808.959961" r="19.980000" fill="red">
  <title>São Paulo</title>
</circle><line x1="315.959991" y1="1954.959961" x2="1103.959961" y2="1808.959961" stroke="red" stroke-width="6.660000" />
<circle cx="1445.959961" cy="1884.959961" r="19.980000" fill="red">
  <title>Karachi</title>
</circle><line x1="1103.959961" y1="1808.959961" x2="1445.959961" y2="1884.959961" stroke="red" stroke-width="6.660000" />
<circle cx="1223.959961" cy="1638.959961" r="19.980000" fill="red">
  <title>Mumbai</title>
</circle><line x1="1445.959961" y1="1884.959961" x2="1223.959961" y2="1638.959961" stroke="red" stroke-width="6.660000" />
<circle cx="1595.959961" cy="426.959991" r="19.980000" fill="red">
  <title>Osaka</title>
</circle><line x1="1223.959961" y1="1638.959961" x2="1595.959961" y2="426.959991" stroke="red" stroke-width="6.660000" />
<circle cx="1993.959961" cy="452.959991" r="19.980000" fill="red">
  <title>New York</title>
</circle><line x1="1595.959961" y1="426.959991" x2="1993.959961" y2="452.959991" stroke="red" stroke-width="6.660000" />
<circle cx="1680.959961" cy="308.959991" r="19.980000" fill="red">
  <title>Beijing</title>
</circle><line x1="1993.959961" y1="452.959991" x2="1680.959961" y2="308.959991" stroke="red" stroke-width="6.660000" />
<circle cx="1454.959961" cy="71.959999" r="19.980000" fill="red">
  <title>Cairo</title>
</circle><line x1="1680.959961" y1="308.959991" x2="1454.959961" y2="71.959999" stroke="red" stroke-width="6.660000" />
<circle cx="1101.959961" cy="538.960022" r="19.980000" fill="red">
  <title>Shanghai</title>
</circle><line x1="1454.959961" y1="71.959999" x2="1101.959961" y2="538.960022" stroke="red" stroke-width="6.660000" />
<circle cx="244.959991" cy="419.959991" r="19.980000" fill="red">
  <title>Buenos Aires</title>
</circle><line x1="1101.959961" y1="538.960022" x2="244.959991" y2="419.959991" stroke="red" stroke-width="6.660000" />
</svg>
