<?xml version="1.0" encoding="UTF-8" standalone="no"?>
<svg width="500" height="500" viewBox="0 0 2074.000000 2074.000000" xmlns="http://www.w3.org/2000/svg">
<rect x="19.000000" y="19.000000" width="2036.000000" height="2036.000000" fill="black" />
<circle cx="1428.959961" cy="1690.959961" r="19.980000" fill="red">
  <title>Tokyo</title>
</circle><line x1="1128.959961" y1="1953.959961" x2="1428.959961" y2="1690.959961" stroke="red" stroke-width="6.660000" />
<circle cx="1227.959961" cy="1621.959961" r="19.980000" fill="red">
  <title>Mumbai</title>
</circle><line x1="1428.959961" y1="1690.959961" x2="1227.959961" y2="1621.959961" stroke="red" stroke-width="6.660000" />
<circle cx="1207.959961" cy="1601.959961" r="19.980000" fill="red">
  <title>Beijing</title>
</circle><line x1="1227.959961" y1="1621.959961" x2="1207.959961" y2="1601.959961" stroke="red" stroke-width="6.660000" />
<circle cx="1467.959961" cy="119.959999" r="19.980000" fill="red">
  <title>Mexico City</title>
</circle><line x1="1207.959961" y1="1601.959961" x2="1467.959961" y2="119.959999" stroke="red" stroke-width="6.660000" />
<circle cx="707.960022" cy="337.959991" r="19.980000" fill="red">
  <title>Shanghai</title>
</circle><line x1="1467.959961" y1="119.959999" x2="707.960022" y2="337.959991" stroke="red" stroke-width="6.660000" />
<circle cx="672.960022" cy="269.959991" r="19.980000" fill="red">
  <title>Dhaka</title>
</circle><line x1="707.960022" y1="337.959991" x2="672.960022" y2="269.959991" stroke="red" stroke-width="6.660000" />
<circle cx="554.960022" cy="387.959991" r="19.980000" fill="red">
  <title>Buenos Aires</title>
</circle><line x1="672.960022" y1="269.959991" x2="554.960022" y2="387.959991" stroke="red" stroke-width="6.660000" />
<circle cx="542.960022" cy="860.960022" r="19.980000" fill="red">
  <title>Delhi</title>
</circle><line x1="554.960022" y1="387.959991" x2="542.960022" y2="860.960022" stroke="red" stroke-width="6.660000" />
<circle cx="153.959991" cy="1301.959961" r="19.980000" fill="red">
  <title>São Paulo</title>
</circle><line x1="542.960022" y1="860.960022" x2="153.959991" y2="1301.959961" stroke="red" stroke-width="6.660000" />
<circle cx="397.959991" cy="1910.959961" r="19.980000" fill="red">
  <title>Karachi</title>
</circle><line x1="153.959991" y1="1301.959961" x2="397.959991" y2="1910.959961" stroke="red" stroke-width="6.660000" />
<circle cx="439.959991" cy="1925.959961" r="19.980000" fill="red">
  <title>Osaka</title>
</circle><line x1="397.959991" y1="1910.959961" x2="439.959991" y2="1925.959961" stroke="red" stroke-width="6.660000" />
<circle cx="523.960022" cy="2032.959961" r="19.980000" fill="red">
  <title>Cairo</title>
</circle><line x1="439.959991" y1="1925.959961" x2="523.960022" y2="2032.959961" stroke="red" stroke-width="6.660000" />
<circle cx="1128.959961" cy="1953.959961" r="19.980000" fill="red">
  <title>New York</title>
</circle><line x1="523.960022" y1="2032.959961" x2="1128.959961" y2="1953.959961" stroke="red" stroke-width="6.660000" />
</svg>
