<?xml version="1.0" encoding="UTF-8" standalone="no"?>
<svg width="500" height="500" viewBox="0 0 2074.000000 2074.000000" xmlns="http://www.w3.org/2000/svg">
<rect x="19.000000" y="19.000000" width="2036.000000" height="2036.000000" fill="black" />
<circle cx="1730.959961" cy="708.960022" r="19.980000" fill="red">
  <title>Tokyo</title>
</circle><line x1="1682.959961" y1="1617.959961" x2="1730.959961" y2="708.960022" stroke="red" stroke-width="6.660000" />
<circle cx="1308.959961" cy="563.960022" r="19.980000" fill="red">
  <title>Delhi</title>
</circle><line x1="1730.959961" y1="708.960022" x2="1308.959961" y2="563.960022" stroke="red" stroke-width="6.660000" />
<circle cx="1043.959961" cy="682.960022" r="19.980000" fill="red">
  <title>Beijing</title>
</circle><line x1="1308.959961" y1="563.960022" x2="1043.959961" y2="682.960022" stroke="red" stroke-width="6.660000" />
<circle cx="536.960022" cy="609.960022" r="19.980000" fill="red">
  <title>São Paulo</title>
</circle><line x1="1043.959961" y1="682.960022" x2="536.960022" y2="609.960022" stroke="red" stroke-width="6.660000" />
<circle cx="291.959991" cy="194.959991" r="19.980000" fill="red">
  <title>Cairo</title>
</circle><line x1="536.960022" y1="609.960022" x2="291.959991" y2="194.959991" stroke="red" stroke-width="6.660000" />
<circle cx="340.959991" cy="487.959991" r="19.980000" fill="red">
  <title>Mumbai</title>
</circle><line x1="291.959991" y1="194.959991" x2="340.959991" y2="487.959991" stroke="red" stroke-width="6.660000" />
<circle cx="153.959991" cy="1205.959961" r="19.980000" fill="red">
  <title>Dhaka</title>
</circle><line x1="340.959991" y1="487.959991" x2="153.959991" y2="1205.959961" stroke="red" stroke-width="6.660000" />
<circle cx="128.959991" cy="1266.959961" r="19.980000" fill="red">
  <title>Shanghai</title>
</circle><line x1="153.959991" y1="1205.959961" x2="128.959991" y2="1266.959961" stroke="red" stroke-width="6.660000" />
<circle cx="1682.959961" cy="1617.959961" r="19.980000" fill="red">
  <title>Mexico City</title>
</circle><line x1="128.959991" y1="1266.959961" x2="1682.959961" y2="1617.959961" stroke="red" stroke-width="6.660000" />
</svg>
