<?xml version="1.0" encoding="UTF-8" standalone="no"?>
<svg width="500" height="500" viewBox="0 0 2074.000000 2074.000000" xmlns="http://www.w3.org/2000/svg">
<rect x="19.000000" y="19.000000" width="2036.000000" height="2036.000000" fill="black" />
<circle cx="880.960022" cy="1494.959961" r="19.980000" fill="red">
  <title>Tokyo</title>
</circle><line x1="745.960022" y1="380.959991" x2="880.960022" y2="1494.959961" stroke="red" stroke-width="6.660000" />
<circle cx="1010.960022" cy="1378.959961" r="19.980000" fill="red">
  <title>Shanghai</title>
</circle><line x1="880.960022" y1="1494.959961" x2="1010.960022" y2="1378.959961" stroke="red" stroke-width="6.660000" />
<circle cx="1908.959961" cy="1509.959961" r="19.980000" fill="red">
  <title>Osaka</title>
</circle><line x1="1010.960022" y1="1378.959961" x2="1908.959961" y2="1509.959961" stroke="red" stroke-width="6.660000" />
<circle cx="1985.959961" cy="1900.959961" r="19.980000" fill="red">
  <title>Dhaka</title>
</circle><line x1="1908.959961" y1="1509.959961" x2="1985.959961" y2="1900.959961" stroke="red" stroke-width="6.660000" />
<circle cx="851.960022" cy="1984.959961" r="19.980000" fill="red">
  <title>Beijing</title>
</circle><line x1="1985.959961" y1="1900.959961" x2="851.960022" y2="1984.959961" stroke="red" stroke-width="6.660000" />
<circle cx="344.959991" cy="1778.959961" r="19.980000" fill="red">
  <title>New York</title>
</circle><line x1="851.960022" y1="1984.959961" x2="344.959991" y2="1778.959961" stroke="red" stroke-width="6.660000" />
<circle cx="319.959991" cy="1243.959961" r="19.980000" fill="red">
  <title>Mumbai</title>
</circle><line x1="344.959991" y1="1778.959961" x2="319.959991" y2="1243.959961" stroke="red" stroke-width="6.660000" />
<circle cx="519.960022" cy="507.959991" r="19.980000" fill="red">
  <title>Mexico City</title>
</circle><line x1="319.959991" y1="1243.959961" x2="519.960022" y2="507.959991" stroke="red" stroke-width="6.660000" />
<circle cx="574.960022" cy="124.959999" r="19.980000" fill="red">
  <title>Delhi</title>
</circle><line x1="519.960022" y1="507.959991" x2="574.960022" y2="124.959999" stroke="red" stroke-width="6.660000" />
<circle cx="932.960022" cy="161.959991" r="19.980000" fill="red">
  <title>Karachi</title>
</circle><line x1="574.960022" y1="124.959999" x2="932.960022" y2="161.959991" stroke="red" stroke-width="6.660000" />
<circle cx="856.960022" cy="372.959991" r="19.980000" fill="red">
  <title>São Paulo</title>
</circle><line x1="932.960022" y1="161.959991" x2="856.960022" y2="372.959991" stroke="red" stroke-width="6.660000" />
<circle cx="745.960022" cy="380.959991" r="19.980000" fill="red">
  <title>Cairo</title>
</circle><line x1="856.960022" y1="372.959991" x2="745.960022" y2="380.959991" stroke="red" stroke-width="6.660000" />
</svg>
