<?xml version="1.0" encoding="UTF-8" standalone="no"?>
<svg width="500" height="500" viewBox="0 0 2074.000000 2074.000000" xmlns="http://www.w3.org/2000/svg">
<rect x="19.000000" y="19.000000" width="2036.000000" height="2036.000000" fill="black" />
<circle cx="350.959991" cy="764.960022" r="19.980000" fill="red">
  <title>Tokyo</title>
</circle><line x1="178.959991" y1="808.960022" x2="350.959991" y2="764.960022" stroke="red" stroke-width="6.660000" />
<circle cx="673.960022" cy="1959.959961" r="19.980000" fill="red">
  <title>Shanghai</title>
</circle><line x1="350.959991" y1="764.960022" x2="673.960022" y2="1959.959961" stroke="red" stroke-width="6.660000" />
<circle cx="1469.959961" cy="1484.959961" r="19.980000" fill="red">
  <title>Cairo</title>
</circle><line x1="673.960022" y1="1959.959961" x2="1469.959961" y2="1484.959961" stroke="red" stroke-width="6.660000" />
<circle cx="1849.959961" cy="638.960022" r="19.980000" fill="red">
  <title>Mexico City</title>
</circle><line x1="1469.959961" y1="1484.959961" x2="1849.959961" y2="638.960022" stroke="red" stroke-width="6.660000" />
<circle cx="1793.959961" cy="353.959991" r="19.980000" fill="red">
  <title>Delhi</title>
</circle><line x1="1849.959961" y1="638.960022" x2="1793.959961" y2="353.959991" stroke="red" stroke-width="6.660000" />
<circle cx="922.960022" cy="60.959999" r="19.980000" fill="red">
  <title>São Paulo</title>
</circle><line x1="1793.959961" y1="353.959991" x2="922.960022" y2="60.959999" stroke="red" stroke-width="6.660000" />
<circle cx="178.959991" cy="808.960022" r="19.980000" fill="red">
  <title>Mumbai</title>
</circle><line x1="922.960022" y1="60.959999" x2="178.959991" y2="808.960022" stroke="red" stroke-width="6.660000" />
</svg>
