<?xml version="1.0" encoding="UTF-8" standalone="no"?>
<svg width="500" height="500" viewBox="0 0 2074.000000 2074.000000" xmlns="http://www.w3.org/2000/svg">
<rect x="19.000000" y="19.000000" width="2036.000000" height="2036.000000" fill="black" />
<circle cx="1978.959961" cy="1376.959961" r="19.980000" fill="red">
  <title>Tokyo</title>
</circle><line x1="1698.959961" y1="801.960022" x2="1978.959961" y2="1376.959961" stroke="red" stroke-width="6.660000" />
<circle cx="1101.959961" cy="1461.959961" r="19.980000" fill="red">
  <title>Beijing</title>
</circle><line x1="1978.959961" y1="1376.959961" x2="1101.959961" y2="1461.959961" stroke="red" stroke-width="6.660000" />
<circle cx="988.960022" cy="1894.959961" r="19.980000" fill="red">
  <title>Cairo</title>
</circle><line x1="1101.959961" y1="1461.959961" x2="988.960022" y2="1894.959961" stroke="red" stroke-width="6.660000" />
<circle cx="981.960022" cy="1386.959961" r="19.980000" fill="red">
  <title>Shanghai</title>
</circle><line x1="988.960022" y1="1894.959961" x2="981.960022" y2="1386.959961" stroke="red" stroke-width="6.660000" />
<circle cx="893.960022" cy="1346.959961" r="19.980000" fill="red">
  <title>Delhi</title>
</circle><line x1="981.960022" y1="1386.959961" x2="893.960022" y2="1346.959961" stroke="red" stroke-width="6.660000" />
<circle cx="838.960022" cy="1367.959961" r="19.980000" fill="red">
  <title>Dhaka</title>
</circle><line x1="893.960022" y1="1346.959961" x2="838.960022" y2="1367.959961" stroke="red" stroke-width="6.660000" />
<circle cx="470.959991" cy="1076.959961" r="19.980000" fill="red">
  <title>Mexico City</title>
</circle><line x1="838.960022" y1="1367.959961" x2="470.959991" y2="1076.959961" stroke="red" stroke-width="6.660000" />
<circle cx="224.959991" cy="292.959991" r="19.980000" fill="red">
  <title>São Paulo</title>
</circle><line x1="470.959991" y1="1076.959961" x2="224.959991" y2="292.959991" stroke="red" stroke-width="6.660000" />
<circle cx="311.959991" cy="51.959999" r="19.980000" fill="red">
  <title>Osaka</title>
</circle><line x1="224.959991" y1="292.959991" x2="311.959991" y2="51.959999" stroke="red" stroke-width="6.660000" />
<circle cx="777.960022" cy="360.959991" r="19.980000" fill="red">
  <title>Mumbai</title>
</circle><line x1="311.959991" y1="51.959999" x2="777.960022" y2="360.959991" stroke="red" stroke-width="6.660000" />
<circle cx="1849.959961" cy="251.959991" r="19.980000" fill="red">
  <title>New York</title>
</circle><line x1="777.960022" y1="360.959991" x2="1849.959961" y2="251.959991" stroke="red" stroke-width="6.660000" />
<circle cx="1698.959961" cy="801.960022" r="19.980000" fill="red">
  <title>Karachi</title>
</circle><line x1="1849.959961" y1="251.959991" x2="1698.959961" y2="801.960022" stroke="red" stroke-width="6.660000" />
</svg>
