<?xml version="1.0" encoding="UTF-8" standalone="no"?>
<svg width="500" height="500" viewBox="0 0 2074.000000 2074.000000" xmlns="http://www.w3.org/2000/svg">
<rect x="19.000000" y="19.000000" width="2036.000000" height="2036.000000" fill="black" />
<circle cx="465.959991" cy="205.959991" r="19.980000" fill="red">
  <title>Tokyo</title>
</circle><line x1="142.959991" y1="306.959991" x2="465.959991" y2="205.959991" stroke="red" stroke-width="6.660000" />
<circle cx="731.960022" cy="314.959991" r="19.980000" fill="red">
  <title>Cairo</title>
</circle><line x1="465.959991" y1="205.959991" x2="731.960022" y2="314.959991" stroke="red" stroke-width="6.660000" />
<circle cx="884.960022" cy="454.959991" r="19.980000" fill="red">
  <title>Mexico City</title>
</circle><line x1="731.960022" y1="314.959991" x2="884.960022" y2="454.959991" stroke="red" stroke-width="6.660000" />
<circle cx="973.960022" cy="789.960022" r="19.980000" fill="red">
  <title>Dhaka</title>
</circle><line x1="884.960022" y1="454.959991" x2="973.960022" y2="789.960022" stroke="red" stroke-width="6.660000" />
<circle cx="1248.959961" cy="711.960022" r="19.980000" fill="red">
  <title>Karachi</title>
</circle><line x1="973.960022" y1="789.960022" x2="1248.959961" y2="711.960022" stroke="red" stroke-width="6.660000" />
<circle cx="1490.959961" cy="529.960022" r="19.980000" fill="red">
  <title>Buenos Aires</title>
</circle><line x1="1248.959961" y1="711.960022" x2="1490.959961" y2="529.960022" stroke="red" stroke-width="6.660000" />
<circle cx="1827.959961" cy="1044.959961" r="19.980000" fill="red">
  <title>New York</title>
</circle><line x1="1490.959961" y1="529.960022" x2="1827.959961" y2="1044.959961" stroke="red" stroke-width="6.660000" />
<circle cx="1566.959961" cy="1606.959961" r="19.980000" fill="red">
  <title>Tianjin</title>
</circle><line x1="1827.959961" y1="1044.959961" x2="1566.959961" y2="1606.959961" stroke="red" stroke-width="6.660000" />
<circle cx="1301.959961" cy="1374.959961" r="19.980000" fill="red">
  <title>Delhi</title>
</circle><line x1="1566.959961" y1="1606.959961" x2="1301.959961" y2="1374.959961" stroke="red" stroke-width="6.660000" />
<circle cx="1239.959961" cy="1257.959961" r="19.980000" fill="red">
  <title>Beijing</title>
</circle><line x1="1301.959961" y1="1374.959961" x2="1239.959961" y2="1257.959961" stroke="red" stroke-width="6.660000" />
<circle cx="1148.959961" cy="1073.959961" r="19.980000" fill="red">
  <title>Chongqing</title>
</circle><line x1="1239.959961" y1="1257.959961" x2="1148.959961" y2="1073.959961" stroke="red" stroke-width="6.660000" />
<circle cx="1043.959961" cy="1026.959961" r="19.980000" fill="red">
  <title>Kolkata</title>
</circle><line x1="1148.959961" y1="1073.959961" x2="1043.959961" y2="1026.959961" stroke="red" stroke-width="6.660000" />
<circle cx="966.960022" cy="973.960022" r="19.980000" fill="red">
  <title>São Paulo</title>
</circle><line x1="1043.959961" y1="1026.959961" x2="966.960022" y2="973.960022" stroke="red" stroke-width="6.660000" />
<circle cx="761.960022" cy="1290.959961" r="19.980000" fill="red">
  <title>Rio de Janeiro</title>
</circle><line x1="966.960022" y1="973.960022" x2="761.960022" y2="1290.959961" stroke="red" stroke-width="6.660000" />
<circle cx="600.960022" cy="1974.959961" r="19.980000" fill="red">
  <title>Istanbul</title>
</circle><line x1="761.960022" y1="1290.959961" x2="600.960022" y2="1974.959961" stroke="red" stroke-width="6.660000" />
<circle cx="381.959991" cy="1862.959961" r="19.980000" fill="red">
  <title>Osaka</title>
</circle><line x1="600.960022" y1="1974.959961" x2="381.959991" y2="1862.959961" stroke="red" stroke-width="6.660000" />
<circle cx="130.959991" cy="1040.959961" r="19.980000" fill="red">
  <title>Mumbai</title>
</circle><line x1="381.959991" y1="1862.959961" x2="130.959991" y2="1040.959961" stroke="red" stroke-width="6.660000" />
<circle cx="363.959991" cy="632.960022" r="19.980000" fill="red">
  <title>Lagos</title>
</circle><line x1="130.959991" y1="1040.959961" x2="363.959991" y2="632.960022" stroke="red" stroke-width="6.660000" />
<circle cx="528.960022" cy="494.959991" r="19.980000" fill="red">
  <title>Shanghai</title>
</circle><line x1="363.959991" y1="632.960022" x2="528.960022" y2="494.959991" stroke="red" stroke-width="6.660000" />
<circle cx="142.959991" cy="306.959991" r="19.980000" fill="red">
  <title>Manila</title>
</circle><line x1="528.960022" y1="494.959991" x2="142.959991" y2="306.959991" stroke="red" stroke-width="6.660000" />
</svg>
