<?xml version="1.0" encoding="UTF-8" standalone="no"?>
<svg width="500" height="500" viewBox="0 0 2074.000000 2074.000000" xmlns="http://www.w3.org/2000/svg">
<rect x="19.000000" y="19.000000" width="2036.000000" height="2036.000000" fill="black" />
<circle cx="800.960022" cy="1408.959961" r="19.980000" fill="red">
  <title>Tokyo</title>
</circle><line x1="1135.959961" y1="1220.959961" x2="800.960022" y2="1408.959961" stroke="red" stroke-width="6.660000" />
<circle cx="1960.959961" cy="1755.959961" r="19.980000" fill="red">
  <title>Delhi</title>
</circle><line x1="800.960022" y1="1408.959961" x2="1960.959961" y2="1755.959961" stroke="red" stroke-width="6.660000" />
<circle cx="1135.959961" cy="1220.959961" r="19.980000" fill="red">
  <title>Shanghai</title>
</circle><line x1="1960.959961" y1="1755.959961" x2="1135.959961" y2="1220.959961" stroke="red" stroke-width="6.660000" />
</svg>
