<?xml version="1.0" encoding="UTF-8" standalone="no"?>
<svg width="500" height="500" viewBox="0 0 2074.000000 2074.000000" xmlns="http://www.w3.org/2000/svg">
<rect x="19.000000" y="19.000000" width="2036.000000" height="2036.000000" fill="black" />
<circle cx="111.959999" cy="322.959991" r="19.980000" fill="red">
  <title>Tokyo</title>
</circle><line x1="968.960022" y1="1081.959961" x2="111.959999" y2="322.959991" stroke="red" stroke-width="6.660000" />
<circle cx="575.960022" cy="1921.959961" r="19.980000" fill="red">
  <title>Shanghai</title>
</circle><line x1="111.959999" y1="322.959991" x2="575.960022" y2="1921.959961" stroke="red" stroke-width="6.660000" />
<circle cx="1615.959961" cy="1729.959961" r="19.980000" fill="red">
  <title>Delhi</title>
</circle><line x1="575.960022" y1="1921.959961" x2="1615.959961" y2="1729.959961" stroke="red" stroke-width="6.660000" />
<circle cx="968.960022" cy="1081.959961" r="19.980000" fill="red">
  <title>São Paulo</title>
</circle><line x1="1615.959961" y1="1729.959961" x2="968.960022" y2="1081.959961" stroke="red" stroke-width="6.660000" />
</svg>
