<?xml version="1.0" encoding="UTF-8" standalone="no"?>
<svg width="500" height="500" viewBox="0 0 2074.000000 2074.000000" xmlns="http://www.w3.org/2000/svg">
<rect x="19.000000" y="19.000000" width="2036.000000" height="2036.000000" fill="black" />
<circle cx="215.959991" cy="121.959999" r="19.980000" fill="red">
  <title>Tokyo</title>
</circle><line x1="206.959991" y1="1537.959961" x2="215.959991" y2="121.959999" stroke="red" stroke-width="6.660000" />
<circle cx="924.960022" cy="354.959991" r="19.980000" fill="red">
  <title>Mumbai</title>
</circle><line x1="215.959991" y1="121.959999" x2="924.960022" y2="354.959991" stroke="red" stroke-width="6.660000" />
<circle cx="1267.959961" cy="1071.959961" r="19.980000" fill="red">
  <title>Delhi</title>
</circle><line x1="924.960022" y1="354.959991" x2="1267.959961" y2="1071.959961" stroke="red" stroke-width="6.660000" />
<circle cx="1577.959961" cy="1140.959961" r="19.980000" fill="red">
  <title>São Paulo</title>
</circle><line x1="1267.959961" y1="1071.959961" x2="1577.959961" y2="1140.959961" stroke="red" stroke-width="6.660000" />
<circle cx="1790.959961" cy="1235.959961" r="19.980000" fill="red">
  <title>Shanghai</title>
</circle><line x1="1577.959961" y1="1140.959961" x2="1790.959961" y2="1235.959961" stroke="red" stroke-width="6.660000" />
<circle cx="1317.959961" cy="1656.959961" r="19.980000" fill="red">
  <title>Beijing</title>
</circle><line x1="1790.959961" y1="1235.959961" x2="1317.959961" y2="1656.959961" stroke="red" stroke-width="6.660000" />
<circle cx="783.960022" cy="1270.959961" r="19.980000" fill="red">
  <title>Mexico City</title>
</circle><line x1="1317.959961" y1="1656.959961" x2="783.960022" y2="1270.959961" stroke="red" stroke-width="6.660000" />
<circle cx="206.959991" cy="1537.959961" r="19.980000" fill="red">
  <title>Cairo</title>
</circle><line x1="783.960022" y1="1270.959961" x2="206.959991" y2="1537.959961" stroke="red" stroke-width="6.660000" />
</svg>
