<?xml version="1.0" encoding="UTF-8" standalone="no"?>
<svg width="500" height="500" viewBox="0 0 2074.000000 2074.000000" xmlns="http://www.w3.org/2000/svg">
<rect x="19.000000" y="19.000000" width="2036.000000" height="2036.000000" fill="black" />
<circle cx="86.959999" cy="921.960022" r="19.980000" fill="red">
  <title>Tokyo</title>
</circle><line x1="150.959991" y1="1142.959961" x2="86.959999" y2="921.960022" stroke="red" stroke-width="6.660000" />
<circle cx="775.960022" cy="196.959991" r="19.980000" fill="red">
  <title>São Paulo</title>
</circle><line x1="86.959999" y1="921.960022" x2="775.960022" y2="196.959991" stroke="red" stroke-width="6.660000" />
<circle cx="1601.959961" cy="610.960022" r="19.980000" fill="red">
  <title>Cairo</title>
</circle><line x1="775.960022" y1="196.959991" x2="1601.959961" y2="610.960022" stroke="red" stroke-width="6.660000" />
<circle cx="1097.959961" cy="1775.959961" r="19.980000" fill="red">
  <title>Delhi</title>
</circle><line x1="1601.959961" y1="610.960022" x2="1097.959961" y2="1775.959961" stroke="red" stroke-width="6.660000" />
<circle cx="167.959991" cy="1890.959961" r="19.980000" fill="red">
  <title>Shanghai</title>
</circle><line x1="1097.959961" y1="1775.959961" x2="167.959991" y2="1890.959961" stroke="red" stroke-width="6.660000" />
<circle cx="150.959991" cy="1142.959961" r="19.980000" fill="red">
  <title>Mexico City</title>
</circle><line x1="167.959991" y1="1890.959961" x2="150.959991" y2="1142.959961" stroke="red" stroke-width="6.660000" />
</svg>
