<?xml version="1.0" encoding="UTF-8" standalone="no"?>
<svg width="500" height="500" viewBox="0 0 2074.000000 2074.000000" xmlns="http://www.w3.org/2000/svg">
<rect x="19.000000" y="19.000000" width="2036.000000" height="2036.000000" fill="black" />
<circle cx="846.960022" cy="160.959991" r="19.980000" fill="red">
  <title>Tokyo</title>
</circle><line x1="1085.959961" y1="382.959991" x2="846.960022" y2="160.959991" stroke="red" stroke-width="6.660000" />
<circle cx="663.960022" cy="594.960022" r="19.980000" fill="red">
  <title>Cairo</title>
</circle><line x1="846.960022" y1="160.959991" x2="663.960022" y2="594.960022" stroke="red" stroke-width="6.660000" />
<circle cx="586.960022" cy="589.960022" r="19.980000" fill="red">
  <title>Shanghai</title>
</circle><line x1="663.960022" y1="594.960022" x2="586.960022" y2="589.960022" stroke="red" stroke-width="6.660000" />
<circle cx="280.959991" cy="1624.959961" r="19.980000" fill="red">
  <title>Beijing</title>
</circle><line x1="586.960022" y1="589.960022" x2="280.959991" y2="1624.959961" stroke="red" stroke-width="6.660000" />
<circle cx="342.959991" cy="1929.959961" r="19.980000" fill="red">
  <title>Buenos Aires</title>
</circle><line x1="280.959991" y1="1624.959961" x2="342.959991" y2="1929.959961" stroke="red" stroke-width="6.660000" />
<circle cx="1062.959961" cy="2013.959961" r="19.980000" fill="red">
  <title>New York</title>
</circle><line x1="342.959991" y1="1929.959961" x2="1062.959961" y2="2013.959961" stroke="red" stroke-width="6.660000" />
<circle cx="1296.959961" cy="1990.959961" r="19.980000" fill="red">
  <title>Mumbai</title>
</circle><line x1="1062.959961" y1="2013.959961" x2="1296.959961" y2="1990.959961" stroke="red" stroke-width="6.660000" />
<circle cx="1980.959961" cy="1595.959961" r="19.980000" fill="red">
  <title>Osaka</title>
</circle><line x1="1296.959961" y1="1990.959961" x2="1980.959961" y2="1595.959961" stroke="red" stroke-width="6.660000" />
<circle cx="1951.959961" cy="1253.959961" r="19.980000" fill="red">
  <title>Dhaka</title>
</circle><line x1="1980.959961" y1="1595.959961" x2="1951.959961" y2="1253.959961" stroke="red" stroke-width="6.660000" />
<circle cx="1859.959961" cy="774.960022" r="19.980000" fill="red">
  <title>Delhi</title>
</circle><line x1="1951.959961" y1="1253.959961" x2="1859.959961" y2="774.960022" stroke="red" stroke-width="6.660000" />
<circle cx="2014.959961" cy="125.959999" r="19.980000" fill="red">
  <title>São Paulo</title>
</circle><line x1="1859.959961" y1="774.960022" x2="2014.959961" y2="125.959999" stroke="red" stroke-width="6.660000" />
<circle cx="1178.959961" cy="857.960022" r="19.980000" fill="red">
  <title>Mexico City</title>
</circle><line x1="2014.959961" y1="125.959999" x2="1178.959961" y2="857.960022" stroke="red" stroke-width="6.660000" />
<circle cx="1085.959961" cy="382.959991" r="19.980000" fill="red">
  <title>Karachi</title>
</circle><line x1="1178.959961" y1="857.960022" x2="1085.959961" y2="382.959991" stroke="red" stroke-width="6.660000" />
</svg>
