<?xml version="1.0" encoding="UTF-8" standalone="no"?>
<svg width="500" height="500" viewBox="0 0 2074.000000 2074.000000" xmlns="http://www.w3.org/2000/svg">
<rect x="19.000000" y="19.000000" width="2036.000000" height="2036.000000" fill="black" />
<circle cx="1920.959961" cy="825.960022" r="19.980000" fill="red">
  <title>Tokyo</title>
</circle><line x1="1910.959961" y1="1493.959961" x2="1920.959961" y2="825.960022" stroke="red" stroke-width="6.660000" />
<circle cx="1679.959961" cy="873.960022" r="19.980000" fill="red">
  <title>Delhi</title>
</circle><line x1="1920.959961" y1="825.960022" x2="1679.959961" y2="873.960022" stroke="red" stroke-width="6.660000" />
<circle cx="1467.959961" cy="109.959999" r="19.980000" fill="red">
  <title>São Paulo</title>
</circle><line x1="1679.959961" y1="873.960022" x2="1467.959961" y2="109.959999" stroke="red" stroke-width="6.660000" />
<circle cx="1482.959961" cy="156.959991" r="19.980000" fill="red">
  <title>Osaka</title>
</circle><line x1="1467.959961" y1="109.959999" x2="1482.959961" y2="156.959991" stroke="red" stroke-width="6.660000" />
<circle cx="425.959991" cy="547.960022" r="19.980000" fill="red">
  <title>Dhaka</title>
</circle><line x1="1482.959961" y1="156.959991" x2="425.959991" y2="547.960022" stroke="red" stroke-width="6.660000" />
<circle cx="103.959999" cy="1363.959961" r="19.980000" fill="red">
  <title>Shanghai</title>
</circle><line x1="425.959991" y1="547.960022" x2="103.959999" y2="1363.959961" stroke="red" stroke-width="6.660000" />
<circle cx="142.959991" cy="1649.959961" r="19.980000" fill="red">
  <title>Karachi</title>
</circle><line x1="103.959999" y1="1363.959961" x2="142.959991" y2="1649.959961" stroke="red" stroke-width="6.660000" />
<circle cx="156.959991" cy="1421.959961" r="19.980000" fill="red">
  <title>Mexico City</title>
</circle><line x1="142.959991" y1="1649.959961" x2="156.959991" y2="1421.959961" stroke="red" stroke-width="6.660000" />
<circle cx="864.960022" cy="1185.959961" r="19.980000" fill="red">
  <title>New York</title>
</circle><line x1="156.959991" y1="1421.959961" x2="864.960022" y2="1185.959961" stroke="red" stroke-width="6.660000" />
<circle cx="1014.960022" cy="1794.959961" r="19.980000" fill="red">
  <title>Beijing</title>
</circle><line x1="864.960022" y1="1185.959961" x2="1014.960022" y2="1794.959961" stroke="red" stroke-width="6.660000" />
<circle cx="1774.959961" cy="1940.959961" r="19.980000" fill="red">
  <title>Mumbai</title>
</circle><line x1="1014.960022" y1="1794.959961" x2="1774.959961" y2="1940.959961" stroke="red" stroke-width="6.660000" />
<circle cx="1910.959961" cy="1493.959961" r="19.980000" fill="red">
  <title>Cairo</title>
</circle><line x1="1774.959961" y1="1940.959961" x2="1910.959961" y2="1493.959961" stroke="red" stroke-width="6.660000" />
</svg>
