<?xml version="1.0" encoding="UTF-8" standalone="no"?>
<svg width="500" height="500" viewBox="0 0 2074.000000 2074.000000" xmlns="http://www.w3.org/2000/svg">
<rect x="19.000000" y="19.000000" width="2036.000000" height="2036.000000" fill="black" />
<circle cx="665.960022" cy="596.960022" r="19.980000" fill="red">
  <title>Tokyo</title>
</circle><line x1="1287.959961" y1="603.960022" x2="665.960022" y2="596.960022" stroke="red" stroke-width="6.660000" />
<circle cx="1076.959961" cy="769.960022" r="19.980000" fill="red">
  <title>Shanghai</title>
</circle><line x1="665.960022" y1="596.960022" x2="1076.959961" y2="769.960022" stroke="red" stroke-width="6.660000" />
<circle cx="1198.959961" cy="1269.959961" r="19.980000" fill="red">
  <title>Mumbai</title>
</circle><line x1="1076.959961" y1="769.960022" x2="1198.959961" y2="1269.959961" stroke="red" stroke-width="6.660000" />
<circle cx="1305.959961" cy="1338.959961" r="19.980000" fill="red">
  <title>Beijing</title>
</circle><line x1="1198.959961" y1="1269.959961" x2="1305.959961" y2="1338.959961" stroke="red" stroke-width="6.660000" />
<circle cx="1479.959961" cy="1365.959961" r="19.980000" fill="red">
  <title>São Paulo</title>
</circle><line x1="1305.959961" y1="1338.959961" x2="1479.959961" y2="1365.959961" stroke="red" stroke-width="6.660000" />
<circle cx="1512.959961" cy="1325.959961" r="19.980000" fill="red">
  <title>Delhi</title>
</circle><line x1="1479.959961" y1="1365.959961" x2="1512.959961" y2="1325.959961" stroke="red" stroke-width="6.660000" />
<circle cx="1866.959961" cy="1129.959961" r="19.980000" fill="red">
  <title>Cairo</title>
</circle><line x1="1512.959961" y1="1325.959961" x2="1866.959961" y2="1129.959961" stroke="red" stroke-width="6.660000" />
<circle cx="1287.959961" cy="603.960022" r="19.980000" fill="red">
  <title>Mexico City</title>
</circle><line x1="1866.959961" y1="1129.959961" x2="1287.959961" y2="603.960022" stroke="red" stroke-width="6.660000" />
</svg>
