<?xml version="1.0" encoding="UTF-8" standalone="no"?>
<svg width="500" height="500" viewBox="0 0 2074.000000 2074.000000" xmlns="http://www.w3.org/2000/svg">
<rect x="19.000000" y="19.000000" width="2036.000000" height="2036.000000" fill="black" />
<circle cx="1814.959961" cy="1384.959961" r="19.980000" fill="red">
  <title>Tokyo</title>
</circle><line x1="1854.959961" y1="739.960022" x2="1814.959961" y2="1384.959961" stroke="red" stroke-width="6.660000" />
<circle cx="1962.959961" cy="1750.959961" r="19.980000" fill="red">
  <title>Shanghai</title>
</circle><line x1="1814.959961" y1="1384.959961" x2="1962.959961" y2="1750.959961" stroke="red" stroke-width="6.660000" />
<circle cx="1932.959961" cy="1777.959961" r="19.980000" fill="red">
  <title>Mumbai</title>
</circle><line x1="1962.959961" y1="1750.959961" x2="1932.959961" y2="1777.959961" stroke="red" stroke-width="6.660000" />
<circle cx="509.959991" cy="1918.959961" r="19.980000" fill="red">
  <title>Cairo</title>
</circle><line x1="1932.959961" y1="1777.959961" x2="509.959991" y2="1918.959961" stroke="red" stroke-width="6.660000" />
<circle cx="507.959991" cy="1642.959961" r="19.980000" fill="red">
  <title>Dhaka</title>
</circle><line x1="509.959991" y1="1918.959961" x2="507.959991" y2="1642.959961" stroke="red" stroke-width="6.660000" />
<circle cx="310.959991" cy="991.960022" r="19.980000" fill="red">
  <title>São Paulo</title>
</circle><line x1="507.959991" y1="1642.959961" x2="310.959991" y2="991.960022" stroke="red" stroke-width="6.660000" />
<circle cx="98.959999" cy="955.960022" r="19.980000" fill="red">
  <title>Beijing</title>
</circle><line x1="310.959991" y1="991.960022" x2="98.959999" y2="955.960022" stroke="red" stroke-width="6.660000" />
<circle cx="68.959999" cy="305.959991" r="19.980000" fill="red">
  <title>Chongqing</title>
</circle><line x1="98.959999" y1="955.960022" x2="68.959999" y2="305.959991" stroke="red" stroke-width="6.660000" />
<circle cx="990.960022" cy="258.959991" r="19.980000" fill="red">
  <title>Karachi</title>
</circle><line x1="68.959999" y1="305.959991" x2="990.960022" y2="258.959991" stroke="red" stroke-width="6.660000" />
<circle cx="784.960022" cy="820.960022" r="19.980000" fill="red">
  <title>New York</title>
</circle><line x1="990.960022" y1="258.959991" x2="784.960022" y2="820.960022" stroke="red" stroke-width="6.660000" />
<circle cx="872.960022" cy="884.960022" r="19.980000" fill="red">
  <title>Buenos Aires</title>
</circle><line x1="784.960022" y1="820.960022" x2="872.960022" y2="884.960022" stroke="red" stroke-width="6.660000" />
<circle cx="1215.959961" cy="858.960022" r="19.980000" fill="red">
  <title>Osaka</title>
</circle><line x1="872.960022" y1="884.960022" x2="1215.959961" y2="858.960022" stroke="red" stroke-width="6.660000" />
<circle cx="1857.959961" cy="697.960022" r="19.980000" fill="red">
  <title>Delhi</title>
</circle><line x1="1215.959961" y1="858.960022" x2="1857.959961" y2="697.960022" stroke="red" stroke-width="6.660000" />
<circle cx="1854.959961" cy="739.960022" r="19.980000" fill="red">
  <title>Mexico City</title>
</circle><line x1="1857.959961" y1="697.960022" x2="1854.959961" y2="739.960022" stroke="red" stroke-width="6.660000" />
</svg>
