<?xml version="1.0" encoding="UTF-8" standalone="no"?>
<svg width="500" height="500" viewBox="0 0 2074.000000 2074.000000" xmlns="http://www.w3.org/2000/svg">
<rect x="19.000000" y="19.000000" width="2036.000000" height="2036.000000" fill="black" />
<circle cx="873.960022" cy="299.959991" r="19.980000" fill="red">
  <title>Tokyo</title>
</circle><line x1="564.960022" y1="1159.959961" x2="873.960022" y2="299.959991" stroke="red" stroke-width="6.660000" />
<circle cx="1731.959961" cy="287.959991" r="19.980000" fill="red">
  <title>Shanghai</title>
</circle><line x1="873.960022" y1="299.959991" x2="1731.959961" y2="287.959991" stroke="red" stroke-width="6.660000" />
<circle cx="1199.959961" cy="1484.959961" r="19.980000" fill="red">
  <title>Delhi</title>
</circle><line x1="1731.959961" y1="287.959991" x2="1199.959961" y2="1484.959961" stroke="red" stroke-width="6.660000" />
<circle cx="564.960022" cy="1159.959961" r="19.980000" fill="red">
  <title>São Paulo</title>
</circle><line x1="1199.959961" y1="1484.959961" x2="564.960022" y2="1159.959961" stroke="red" stroke-width="6.660000" />
</svg>
