<?xml version="1.0" encoding="UTF-8" standalone="no"?>
<svg width="500" height="500" viewBox="0 0 2074.000000 2074.000000" xmlns="http://www.w3.org/2000/svg">
<rect x="19.000000" y="19.000000" width="2036.000000" height="2036.000000" fill="black" />
<circle cx="1421.959961" cy="1762.959961" r="19.980000" fill="red">
  <title>Tokyo</title>
</circle><line x1="1223.959961" y1="1922.959961" x2="1421.959961" y2="1762.959961" stroke="red" stroke-width="6.660000" />
<circle cx="1501.959961" cy="803.960022" r="19.980000" fill="red">
  <title>São Paulo</title>
</circle><line x1="1421.959961" y1="1762.959961" x2="1501.959961" y2="803.960022" stroke="red" stroke-width="6.660000" />
<circle cx="1068.959961" cy="89.959999" r="19.980000" fill="red">
  <title>Shanghai</title>
</circle><line x1="1501.959961" y1="803.960022" x2="1068.959961" y2="89.959999" stroke="red" stroke-width="6.660000" />
<circle cx="585.960022" cy="181.959991" r="19.980000" fill="red">
  <title>Cairo</title>
</circle><line x1="1068.959961" y1="89.959999" x2="585.960022" y2="181.959991" stroke="red" stroke-width="6.660000" />
<circle cx="62.959999" cy="1231.959961" r="19.980000" fill="red">
  <title>Delhi</title>
</circle><line x1="585.960022" y1="181.959991" x2="62.959999" y2="1231.959961" stroke="red" stroke-width="6.660000" />
<circle cx="1223.959961" cy="1922.959961" r="19.980000" fill="red">
  <title>Mexico City</title>
</circle><line x1="62.959999" y1="1231.959961" x2="1223.959961" y2="1922.959961" stroke="red" stroke-width="6.660000" />
</svg>
