<?xml version="1.0" encoding="UTF-8" standalone="no"?>
<svg width="500" height="500" viewBox="0 0 2074.000000 2074.000000" xmlns="http://www.w3.org/2000/svg">
<rect x="19.000000" y="19.000000" width="2036.000000" height="2036.000000" fill="black" />
<circle cx="523.960022" cy="1995.959961" r="19.980000" fill="red">
  <title>Tokyo</title>
</circle><line x1="393.959991" y1="1709.959961" x2="523.960022" y2="1995.959961" stroke="red" stroke-width="6.660000" />
<circle cx="332.959991" cy="1609.959961" r="19.980000" fill="red">
  <title>São Paulo</title>
</circle><line x1="523.960022" y1="1995.959961" x2="332.959991" y2="1609.959961" stroke="red" stroke-width="6.660000" />
<circle cx="284.959991" cy="1342.959961" r="19.980000" fill="red">
  <title>Dhaka</title>
</circle><line x1="332.959991" y1="1609.959961" x2="284.959991" y2="1342.959961" stroke="red" stroke-width="6.660000" />
<circle cx="784.960022" cy="966.960022" r="19.980000" fill="red">
  <title>Lagos</title>
</circle><line x1="284.959991" y1="1342.959961" x2="784.960022" y2="966.960022" stroke="red" stroke-width="6.660000" />
<circle cx="1323.959961" cy="1004.960022" r="19.980000" fill="red">
  <title>Chongqing</title>
</circle><line x1="784.960022" y1="966.960022" x2="1323.959961" y2="1004.960022" stroke="red" stroke-width="6.660000" />
<circle cx="1539.959961" cy="1305.959961" r="19.980000" fill="red">
  <title>Buenos Aires</title>
</circle><line x1="1323.959961" y1="1004.960022" x2="1539.959961" y2="1305.959961" stroke="red" stroke-width="6.660000" />
<circle cx="1413.959961" cy="684.960022" r="19.980000" fill="red">
  <title>New York</title>
</circle><line x1="1539.959961" y1="1305.959961" x2="1413.959961" y2="684.960022" stroke="red" stroke-width="6.660000" />
<circle cx="1883.959961" cy="247.959991" r="19.980000" fill="red">
  <title>Cairo</title>
</circle><line x1="1413.959961" y1="684.960022" x2="1883.959961" y2="247.959991" stroke="red" stroke-width="6.660000" />
<circle cx="1863.959961" cy="246.959991" r="19.980000" fill="red">
  <title>Istanbul</title>
</circle><line x1="1883.959961" y1="247.959991" x2="1863.959961" y2="246.959991" stroke="red" stroke-width="6.660000" />
<circle cx="1267.959961" cy="120.959999" r="19.980000" fill="red">
  <title>Mumbai</title>
</circle><line x1="1863.959961" y1="246.959991" x2="1267.959961" y2="120.959999" stroke="red" stroke-width="6.660000" />
<circle cx="756.960022" cy="348.959991" r="19.980000" fill="red">
  <title>Kolkata</title>
</circle><line x1="1267.959961" y1="120.959999" x2="756.960022" y2="348.959991" stroke="red" stroke-width="6.660000" />
<circle cx="789.960022" cy="414.959991" r="19.980000" fill="red">
  <title>Karachi</title>
</circle><line x1="756.960022" y1="348.959991" x2="789.960022" y2="414.959991" stroke="red" stroke-width="6.660000" />
<circle cx="801.960022" cy="545.960022" r="19.980000" fill="red">
  <title>Shanghai</title>
</circle><line x1="789.960022" y1="414.959991" x2="801.960022" y2="545.960022" stroke="red" stroke-width="6.660000" />
<circle cx="551.960022" cy="726.960022" r="19.980000" fill="red">
  <title>Beijing</title>
</circle><line x1="801.960022" y1="545.960022" x2="551.960022" y2="726.960022" stroke="red" stroke-width="6.660000" />
<circle cx="320.959991" cy="474.959991" r="19.980000" fill="red">
  <title>Delhi</title>
</circle><line x1="551.960022" y1="726.960022" x2="320.959991" y2="474.959991" stroke="red" stroke-width="6.660000" />
<circle cx="204.959991" cy="1038.959961" r="19.980000" fill="red">
  <title>Manila</title>
</circle><line x1="320.959991" y1="474.959991" x2="204.959991" y2="1038.959961" stroke="red" stroke-width="6.660000" />
<circle cx="237.959991" cy="1507.959961" r="19.980000" fill="red">
  <title>Mexico City</title>
</circle><line x1="204.959991" y1="1038.959961" x2="237.959991" y2="1507.959961" stroke="red" stroke-width="6.660000" />
<circle cx="393.959991" cy="1709.959961" r="19.980000" fill="red">
  <title>Osaka</title>
</circle><line x1="237.959991" y1="1507.959961" x2="393.959991" y2="1709.959961" stroke="red" stroke-width="6.660000" />
</svg>
