<?xml version="1.0" encoding="UTF-8" standalone="no"?>
<svg width="500" height="500" viewBox="0 0 2074.000000 2074.000000" xmlns="http://www.w3.org/2000/svg">
<rect x="19.000000" y="19.000000" width="2036.000000" height="2036.000000" fill="black" />
<circle cx="275.959991" cy="1377.959961" r="19.980000" fill="red">
  <title>Tokyo</title>
</circle><line x1="1104.959961" y1="1184.959961" x2="275.959991" y2="1377.959961" stroke="red" stroke-width="6.660000" />
<circle cx="620.960022" cy="212.959991" r="19.980000" fill="red">
  <title>Shanghai</title>
</circle><line x1="275.959991" y1="1377.959961" x2="620.960022" y2="212.959991" stroke="red" stroke-width="6.660000" />
<circle cx="978.960022" cy="692.960022" r="19.980000" fill="red">
  <title>São Paulo</title>
</circle><line x1="620.960022" y1="212.959991" x2="978.960022" y2="692.960022" stroke="red" stroke-width="6.660000" />
<circle cx="1699.959961" cy="1377.959961" r="19.980000" fill="red">
  <title>Delhi</title>
</circle><line x1="978.960022" y1="692.960022" x2="1699.959961" y2="1377.959961" stroke="red" stroke-width="6.660000" />
<circle cx="1104.959961" cy="1184.959961" r="19.980000" fill="red">
  <title>Mexico City</title>
</circle><line x1="1699.959961" y1="1377.959961" x2="1104.959961" y2="1184.959961" stroke="red" stroke-width="6.660000" />
</svg>
