<?xml version="1.0" encoding="UTF-8" standalone="no"?>
<svg width="500" height="500" viewBox="0 0 2074.000000 2074.000000" xmlns="http://www.w3.org/2000/svg">
<rect x="19.000000" y="19.000000" width="2036.000000" height="2036.000000" fill="black" />
<circle cx="1989.959961" cy="725.960022" r="19.980000" fill="red">
  <title>Tokyo</title>
</circle><line x1="1934.959961" y1="1757.959961" x2="1989.959961" y2="725.960022" stroke="red" stroke-width="6.660000" />
<circle cx="1655.959961" cy="439.959991" r="19.980000" fill="red">
  <title>São Paulo</title>
</circle><line x1="1989.959961" y1="725.960022" x2="1655.959961" y2="439.959991" stroke="red" stroke-width="6.660000" />
<circle cx="1116.959961" cy="85.959999" r="19.980000" fill="red">
  <title>Mexico City</title>
</circle><line x1="1655.959961" y1="439.959991" x2="1116.959961" y2="85.959999" stroke="red" stroke-width="6.660000" />
<circle cx="591.960022" cy="99.959999" r="19.980000" fill="red">
  <title>Buenos Aires</title>
</circle><line x1="1116.959961" y1="85.959999" x2="591.960022" y2="99.959999" stroke="red" stroke-width="6.660000" />
<circle cx="897.960022" cy="461.959991" r="19.980000" fill="red">
  <title>Mumbai</title>
</circle><line x1="591.960022" y1="99.959999" x2="897.960022" y2="461.959991" stroke="red" stroke-width="6.660000" />
<circle cx="1114.959961" cy="648.960022" r="19.980000" fill="red">
  <title>Delhi</title>
</circle><line x1="897.960022" y1="461.959991" x2="1114.959961" y2="648.960022" stroke="red" stroke-width="6.660000" />
<circle cx="533.960022" cy="934.960022" r="19.980000" fill="red">
  <title>Karachi</title>
</circle><line x1="1114.959961" y1="648.960022" x2="533.960022" y2="934.960022" stroke="red" stroke-width="6.660000" />
<circle cx="506.959991" cy="1000.960022" r="19.980000" fill="red">
  <title>Chongqing</title>
</circle><line x1="533.960022" y1="934.960022" x2="506.959991" y2="1000.960022" stroke="red" stroke-width="6.660000" />
<circle cx="283.959991" cy="1006.960022" r="19.980000" fill="red">
  <title>Dhaka</title>
</circle><line x1="506.959991" y1="1000.960022" x2="283.959991" y2="1006.960022" stroke="red" stroke-width="6.660000" />
<circle cx="137.959991" cy="1276.959961" r="19.980000" fill="red">
  <title>Istanbul</title>
</circle><line x1="283.959991" y1="1006.960022" x2="137.959991" y2="1276.959961" stroke="red" stroke-width="6.660000" />
<circle cx="418.959991" cy="1634.959961" r="19.980000" fill="red">
  <title>Shanghai</title>
</circle><line x1="137.959991" y1="1276.959961" x2="418.959991" y2="1634.959961" stroke="red" stroke-width="6.660000" />
<circle cx="1028.959961" cy="1846.959961" r="19.980000" fill="red">
  <title>New York</title>
</circle><line x1="418.959991" y1="1634.959961" x2="1028.959961" y2="1846.959961" stroke="red" stroke-width="6.660000" />
<circle cx="1086.959961" cy="2022.959961" r="19.980000" fill="red">
  <title>Cairo</title>
</circle><line x1="1028.959961" y1="1846.959961" x2="1086.959961" y2="2022.959961" stroke="red" stroke-width="6.660000" />
<circle cx="1743.959961" cy="2007.959961" r="19.980000" fill="red">
  <title>Beijing</title>
</circle><line x1="1086.959961" y1="2022.959961" x2="1743.959961" y2="2007.959961" stroke="red" stroke-width="6.660000" />
<circle cx="1934.959961" cy="1757.959961" r="19.980000" fill="red">
  <title>Osaka</title>
</circle><line x1="1743.959961" y1="2007.959961" x2="1934.959961" y2="1757.959961" stroke="red" stroke-width="6.660000" />
</svg>
