<?xml version="1.0" encoding="UTF-8" standalone="no"?>
<svg width="500" height="500" viewBox="0 0 2074.000000 2074.000000" xmlns="http://www.w3.org/2000/svg">
<rect x="19.000000" y="19.000000" width="2036.000000" height="2036.000000" fill="black" />
<circle cx="1919.959961" cy="1624.959961" r="19.980000" fill="red">
  <title>Tokyo</title>
</circle><line x1="1858.959961" y1="782.960022" x2="1919.959961" y2="1624.959961" stroke="red" stroke-width="6.660000" />
<circle cx="1339.959961" cy="1993.959961" r="19.980000" fill="red">
  <title>São Paulo</title>
</circle><line x1="1919.959961" y1="1624.959961" x2="1339.959961" y2="1993.959961" stroke="red" stroke-width="6.660000" />
<circle cx="1160.959961" cy="1347.959961" r="19.980000" fill="red">
  <title>Cairo</title>
</circle><line x1="1339.959961" y1="1993.959961" x2="1160.959961" y2="1347.959961" stroke="red" stroke-width="6.660000" />
<circle cx="918.960022" cy="931.960022" r="19.980000" fill="red">
  <title>Mumbai</title>
</circle><line x1="1160.959961" y1="1347.959961" x2="918.960022" y2="931.960022" stroke="red" stroke-width="6.660000" />
<circle cx="62.959999" cy="1299.959961" r="19.980000" fill="red">
  <title>Shanghai</title>
</circle><line x1="918.960022" y1="931.960022" x2="62.959999" y2="1299.959961" stroke="red" stroke-width="6.660000" />
<circle cx="790.960022" cy="521.960022" r="19.980000" fill="red">
  <title>Delhi</title>
</circle><line x1="62.959999" y1="1299.959961" x2="790.960022" y2="521.960022" stroke="red" stroke-width="6.660000" />
<circle cx="1886.959961" cy="56.959999" r="19.980000" fill="red">
  <title>Beijing</title>
</circle><line x1="790.960022" y1="521.960022" x2="1886.959961" y2="56.959999" stroke="red" stroke-width="6.660000" />
<circle cx="1858.959961" cy="782.960022" r="19.980000" fill="red">
  <title>Mexico City</title>
</circle><line x1="1886.959961" y1="56.959999" x2="1858.959961" y2="782.960022" stroke="red" stroke-width="6.660000" />
</svg>
