<?xml version="1.0" encoding="UTF-8" standalone="no"?>
<svg width="500" height="500" viewBox="0 0 2074.000000 2074.000000" xmlns="http://www.w3.org/2000/svg">
<rect x="19.000000" y="19.000000" width="2036.000000" height="2036.000000" fill="black" />
<circle cx="1837.959961" cy="1679.959961" r="19.980000" fill="red">
  <title>Tokyo</title>
</circle><line x1="1959.959961" y1="1935.959961" x2="1837.959961" y2="1679.959961" stroke="red" stroke-width="6.660000" />
<circle cx="1979.959961" cy="1252.959961" r="19.980000" fill="red">
  <title>Chongqing</title>
</circle><line x1="1837.959961" y1="1679.959961" x2="1979.959961" y2="1252.959961" stroke="red" stroke-width="6.660000" />
<circle cx="1755.959961" cy="1195.959961" r="19.980000" fill="red">
  <title>Mumbai</title>
</circle><line x1="1979.959961" y1="1252.959961" x2="1755.959961" y2="1195.959961" stroke="red" stroke-width="6.660000" />
<circle cx="1483.959961" cy="1108.959961" r="19.980000" fill="red">
  <title>Buenos Aires</title>
</circle><line x1="1755.959961" y1="1195.959961" x2="1483.959961" y2="1108.959961" stroke="red" stroke-width="6.660000" />
<circle cx="1416.959961" cy="951.960022" r="19.980000" fill="red">
  <title>Delhi</title>
</circle><line x1="1483.959961" y1="1108.959961" x2="1416.959961" y2="951.960022" stroke="red" stroke-width="6.660000" />
<circle cx="1516.959961" cy="625.960022" r="19.980000" fill="red">
  <title>Mexico City</title>
</circle><line x1="1416.959961" y1="951.960022" x2="1516.959961" y2="625.960022" stroke="red" stroke-width="6.660000" />
<circle cx="1177.959961" cy="430.959991" r="19.980000" fill="red">
  <title>Manila</title>
</circle><line x1="1516.959961" y1="625.960022" x2="1177.959961" y2="430.959991" stroke="red" stroke-width="6.660000" />
<circle cx="911.960022" cy="66.959999" r="19.980000" fill="red">
  <title>Rio de Janeiro</title>
</circle><line x1="1177.959961" y1="430.959991" x2="911.960022" y2="66.959999" stroke="red" stroke-width="6.660000" />
<circle cx="1051.959961" cy="394.959991" r="19.980000" fill="red">
  <title>Kolkata</title>
</circle><line x1="911.960022" y1="66.959999" x2="1051.959961" y2="394.959991" stroke="red" stroke-width="6.660000" />
<circle cx="796.960022" cy="627.960022" r="19.980000" fill="red">
  <title>São Paulo</title>
</circle><line x1="1051.959961" y1="394.959991" x2="796.960022" y2="627.960022" stroke="red" stroke-width="6.660000" />
<circle cx="451.959991" cy="519.960022" r="19.980000" fill="red">
  <title>Shanghai</title>
</circle><line x1="796.960022" y1="627.960022" x2="451.959991" y2="519.960022" stroke="red" stroke-width="6.660000" />
<circle cx="186.959991" cy="808.960022" r="19.980000" fill="red">
  <title>Beijing</title>
</circle><line x1="451.959991" y1="519.960022" x2="186.959991" y2="808.960022" stroke="red" stroke-width="6.660000" />
<circle cx="373.959991" cy="1142.959961" r="19.980000" fill="red">
  <title>Karachi</title>
</circle><line x1="186.959991" y1="808.960022" x2="373.959991" y2="1142.959961" stroke="red" stroke-width="6.660000" />
<circle cx="484.959991" cy="1446.959961" r="19.980000" fill="red">
  <title>New York</title>
</circle><line x1="373.959991" y1="1142.959961" x2="484.959991" y2="1446.959961" stroke="red" stroke-width="6.660000" />
<circle cx="340.959991" cy="1876.959961" r="19.980000" fill="red">
  <title>Dhaka</title>
</circle><line x1="484.959991" y1="1446.959961" x2="340.959991" y2="1876.959961" stroke="red" stroke-width="6.660000" />
<circle cx="478.959991" cy="1849.959961" r="19.980000" fill="red">
  <title>Osaka</title>
</circle><line x1="340.959991" y1="1876.959961" x2="478.959991" y2="1849.959961" stroke="red" stroke-width="6.660000" />
<circle cx="595.960022" cy="1536.959961" r="19.980000" fill="red">
  <title>Istanbul</title>
</circle><line x1="478.959991" y1="1849.959961" x2="595.960022" y2="1536.959961" stroke="red" stroke-width="6.660000" />
<circle cx="1307.959961" cy="1590.959961" r="19.980000" fill="red">
  <title>Lagos</title>
</circle><line x1="595.960022" y1="1536.959961" x2="1307.959961" y2="1590.959961" stroke="red" stroke-width="6.660000" />
<circle cx="1959.959961" cy="1935.959961" r="19.980000" fill="red">
  <title>Cairo</title>
</circle><line x1="1307.959961" y1="1590.959961" x2="1959.959961" y2="1935.959961" stroke="red" stroke-width="6.660000" />
</svg>
