<?xml version="1.0" encoding="UTF-8" standalone="no"?>
<svg width="500" height="500" viewBox="0 0 2074.000000 2074.000000" xmlns="http://www.w3.org/2000/svg">
<rect x="19.000000" y="19.000000" width="2036.000000" height="2036.000000" fill="black" />
<circle cx="1370.959961" cy="1258.959961" r="19.980000" fill="red">
  <title>Tokyo</title>
</circle><line x1="1931.959961" y1="390.959991" x2="1370.959961" y2="1258.959961" stroke="red" stroke-width="6.660000" />
<circle cx="2006.959961" cy="1634.959961" r="19.980000" fill="red">
  <title>Mumbai</title>
</circle><line x1="1370.959961" y1="1258.959961" x2="2006.959961" y2="1634.959961" stroke="red" stroke-width="6.660000" />
<circle cx="1983.959961" cy="1647.959961" r="19.980000" fill="red">
  <title>São Paulo</title>
</circle><line x1="2006.959961" y1="1634.959961" x2="1983.959961" y2="1647.959961" stroke="red" stroke-width="6.660000" />
<circle cx="1288.959961" cy="1669.959961" r="19.980000" fill="red">
  <title>Cairo</title>
</circle><line x1="1983.959961" y1="1647.959961" x2="1288.959961" y2="1669.959961" stroke="red" stroke-width="6.660000" />
<circle cx="723.960022" cy="1736.959961" r="19.980000" fill="red">
  <title>New York</title>
</circle><line x1="1288.959961" y1="1669.959961" x2="723.960022" y2="1736.959961" stroke="red" stroke-width="6.660000" />
<circle cx="363.959991" cy="2023.959961" r="19.980000" fill="red">
  <title>Mexico City</title>
</circle><line x1="723.960022" y1="1736.959961" x2="363.959991" y2="2023.959961" stroke="red" stroke-width="6.660000" />
<circle cx="58.959999" cy="873.960022" r="19.980000" fill="red">
  <title>Osaka</title>
</circle><line x1="363.959991" y1="2023.959961" x2="58.959999" y2="873.960022" stroke="red" stroke-width="6.660000" />
<circle cx="898.960022" cy="1038.959961" r="19.980000" fill="red">
  <title>Shanghai</title>
</circle><line x1="58.959999" y1="873.960022" x2="898.960022" y2="1038.959961" stroke="red" stroke-width="6.660000" />
<circle cx="1120.959961" cy="812.960022" r="19.980000" fill="red">
  <title>Dhaka</title>
</circle><line x1="898.960022" y1="1038.959961" x2="1120.959961" y2="812.960022" stroke="red" stroke-width="6.660000" />
<circle cx="1298.959961" cy="58.959999" r="19.980000" fill="red">
  <title>Karachi</title>
</circle><line x1="1120.959961" y1="812.960022" x2="1298.959961" y2="58.959999" stroke="red" stroke-width="6.660000" />
<circle cx="1487.959961" cy="47.959999" r="19.980000" fill="red">
  <title>Delhi</title>
</circle><line x1="1298.959961" y1="58.959999" x2="1487.959961" y2="47.959999" stroke="red" stroke-width="6.660000" />
<circle cx="1931.959961" cy="390.959991" r="19.980000" fill="red">
  <title>Beijing</title>
</circle><line x1="1487.959961" y1="47.959999" x2="1931.959961" y2="390.959991" stroke="red" stroke-width="6.660000" />
</svg>
