<?xml version="1.0" encoding="UTF-8" standalone="no"?>
<svg width="500" height="500" viewBox="0 0 2074.000000 2074.000000" xmlns="http://www.w3.org/2000/svg">
<rect x="19.000000" y="19.000000" width="2036.000000" height="2036.000000" fill="black" />
<circle cx="1531.959961" cy="1829.959961" r="19.980000" fill="red">
  <title>Tokyo</title>
</circle><line x1="1322.959961" y1="1214.959961" x2="1531.959961" y2="1829.959961" stroke="red" stroke-width="6.660000" />
<circle cx="1680.959961" cy="1873.959961" r="19.980000" fill="red">
  <title>Delhi</title>
</circle><line x1="1531.959961" y1="1829.959961" x2="1680.959961" y2="1873.959961" stroke="red" stroke-width="6.660000" />
<circle cx="1865.959961" cy="1455.959961" r="19.980000" fill="red">
  <title>Rio de Janeiro</title>
</circle><line x1="1680.959961" y1="1873.959961" x2="1865.959961" y2="1455.959961" stroke="red" stroke-width="6.660000" />
<circle cx="1711.959961" cy="1288.959961" r="19.980000" fill="red">
  <title>Shanghai</title>
</circle><line x1="1865.959961" y1="1455.959961" x2="1711.959961" y2="1288.959961" stroke="red" stroke-width="6.660000" />
<circle cx="1832.959961" cy="1234.959961" r="19.980000" fill="red">
  <title>New York</title>
</circle><line x1="1711.959961" y1="1288.959961" x2="1832.959961" y2="1234.959961" stroke="red" stroke-width="6.660000" />
<circle cx="1783.959961" cy="1194.959961" r="19.980000" fill="red">
  <title>Chongqing</title>
</circle><line x1="1832.959961" y1="1234.959961" x2="1783.959961" y2="1194.959961" stroke="red" stroke-width="6.660000" />
<circle cx="2026.959961" cy="864.960022" r="19.980000" fill="red">
  <title>Osaka</title>
</circle><line x1="1783.959961" y1="1194.959961" x2="2026.959961" y2="864.960022" stroke="red" stroke-width="6.660000" />
<circle cx="1902.959961" cy="707.960022" r="19.980000" fill="red">
  <title>Lagos</title>
</circle><line x1="2026.959961" y1="864.960022" x2="1902.959961" y2="707.960022" stroke="red" stroke-width="6.660000" />
<circle cx="1590.959961" cy="856.960022" r="19.980000" fill="red">
  <title>São Paulo</title>
</circle><line x1="1902.959961" y1="707.960022" x2="1590.959961" y2="856.960022" stroke="red" stroke-width="6.660000" />
<circle cx="972.960022" cy="67.959999" r="19.980000" fill="red">
  <title>Kolkata</title>
</circle><line x1="1590.959961" y1="856.960022" x2="972.960022" y2="67.959999" stroke="red" stroke-width="6.660000" />
<circle cx="1034.959961" cy="615.960022" r="19.980000" fill="red">
  <title>Manila</title>
</circle><line x1="972.960022" y1="67.959999" x2="1034.959961" y2="615.960022" stroke="red" stroke-width="6.660000" />
<circle cx="1036.959961" cy="956.960022" r="19.980000" fill="red">
  <title>Mumbai</title>
</circle><line x1="1034.959961" y1="615.960022" x2="1036.959961" y2="956.960022" stroke="red" stroke-width="6.660000" />
<circle cx="573.960022" cy="1242.959961" r="19.980000" fill="red">
  <title>Istanbul</title>
</circle><line x1="1036.959961" y1="956.960022" x2="573.960022" y2="1242.959961" stroke="red" stroke-width="6.660000" />
<circle cx="572.960022" cy="1638.959961" r="19.980000" fill="red">
  <title>Dhaka</title>
</circle><line x1="573.960022" y1="1242.959961" x2="572.960022" y2="1638.959961" stroke="red" stroke-width="6.660000" />
<circle cx="200.959991" cy="1727.959961" r="19.980000" fill="red">
  <title>Beijing</title>
</circle><line x1="572.960022" y1="1638.959961" x2="200.959991" y2="1727.959961" stroke="red" stroke-width="6.660000" />
<circle cx="597.960022" cy="1392.959961" r="19.980000" fill="red">
  <title>Karachi</title>
</circle><line x1="200.959991" y1="1727.959961" x2="597.960022" y2="1392.959961" stroke="red" stroke-width="6.660000" />
<circle cx="954.960022" cy="1179.959961" r="19.980000" fill="red">
  <title>Buenos Aires</title>
</circle><line x1="597.960022" y1="1392.959961" x2="954.960022" y2="1179.959961" stroke="red" stroke-width="6.660000" />
<circle cx="1248.959961" cy="1132.959961" r="19.980000" fill="red">
  <title>Cairo</title>
</circle><line x1="954.960022" y1="1179.959961" x2="1248.959961" y2="1132.959961" stroke="red" stroke-width="6.660000" />
<circle cx="1322.959961" cy="1214.959961" r="19.980000" fill="red">
  <title>Mexico City</title>
</circle><line x1="1248.959961" y1="1132.959961" x2="1322.959961" y2="1214.959961" stroke="red" stroke-width="6.660000" />
</svg>
