<?xml version="1.0" encoding="UTF-8" standalone="no"?>
<svg width="500" height="500" viewBox="0 0 2074.000000 2074.000000" xmlns="http://www.w3.org/2000/svg">
<rect x="19.000000" y="19.000000" width="2036.000000" height="2036.000000" fill="black" />
<circle cx="2000.959961" cy="1572.959961" r="19.980000" fill="red">
  <title>Tokyo</title>
</circle><line x1="1798.959961" y1="876.960022" x2="2000.959961" y2="1572.959961" stroke="red" stroke-width="6.660000" />
<circle cx="2021.959961" cy="1999.959961" r="19.980000" fill="red">
  <title>Dhaka</title>
</circle><line x1="2000.959961" y1="1572.959961" x2="2021.959961" y2="1999.959961" stroke="red" stroke-width="6.660000" />
<circle cx="1054.959961" cy="2030.959961" r="19.980000" fill="red">
  <title>Beijing</title>
</circle><line x1="2021.959961" y1="1999.959961" x2="1054.959961" y2="2030.959961" stroke="red" stroke-width="6.660000" />
<circle cx="914.960022" cy="1826.959961" r="19.980000" fill="red">
  <title>Mexico City</title>
</circle><line x1="1054.959961" y1="2030.959961" x2="914.960022" y2="1826.959961" stroke="red" stroke-width="6.660000" />
<circle cx="452.959991" cy="1094.959961" r="19.980000" fill="red">
  <title>São Paulo</title>
</circle><line x1="914.960022" y1="1826.959961" x2="452.959991" y2="1094.959961" stroke="red" stroke-width="6.660000" />
<circle cx="474.959991" cy="745.960022" r="19.980000" fill="red">
  <title>Chongqing</title>
</circle><line x1="452.959991" y1="1094.959961" x2="474.959991" y2="745.960022" stroke="red" stroke-width="6.660000" />
<circle cx="328.959991" cy="539.960022" r="19.980000" fill="red">
  <title>Istanbul</title>
</circle><line x1="474.959991" y1="745.960022" x2="328.959991" y2="539.960022" stroke="red" stroke-width="6.660000" />
<circle cx="300.959991" cy="290.959991" r="19.980000" fill="red">
  <title>Kolkata</title>
</circle><line x1="328.959991" y1="539.960022" x2="300.959991" y2="290.959991" stroke="red" stroke-width="6.660000" />
<circle cx="141.959991" cy="94.959999" r="19.980000" fill="red">
  <title>Osaka</title>
</circle><line x1="300.959991" y1="290.959991" x2="141.959991" y2="94.959999" stroke="red" stroke-width="6.660000" />
<circle cx="539.960022" cy="326.959991" r="19.980000" fill="red">
  <title>Cairo</title>
</circle><line x1="141.959991" y1="94.959999" x2="539.960022" y2="326.959991" stroke="red" stroke-width="6.660000" />
<circle cx="642.960022" cy="556.960022" r="19.980000" fill="red">
  <title>Delhi</title>
</circle><line x1="539.960022" y1="326.959991" x2="642.960022" y2="556.960022" stroke="red" stroke-width="6.660000" />
<circle cx="779.960022" cy="684.960022" r="19.980000" fill="red">
  <title>Mumbai</title>
</circle><line x1="642.960022" y1="556.960022" x2="779.960022" y2="684.960022" stroke="red" stroke-width="6.660000" />
<circle cx="1305.959961" cy="867.960022" r="19.980000" fill="red">
  <title>Karachi</title>
</circle><line x1="779.960022" y1="684.960022" x2="1305.959961" y2="867.960022" stroke="red" stroke-width="6.660000" />
<circle cx="1249.959961" cy="230.959991" r="19.980000" fill="red">
  <title>New York</title>
</circle><line x1="1305.959961" y1="867.960022" x2="1249.959961" y2="230.959991" stroke="red" stroke-width="6.660000" />
<circle cx="1934.959961" cy="319.959991" r="19.980000" fill="red">
  <title>Buenos Aires</title>
</circle><line x1="1249.959961" y1="230.959991" x2="1934.959961" y2="319.959991" stroke="red" stroke-width="6.660000" />
<circle cx="1798.959961" cy="876.960022" r="19.980000" fill="red">
  <title>Shanghai</title>
</circle><line x1="1934.959961" y1="319.959991" x2="1798.959961" y2="876.960022" stroke="red" stroke-width="6.660000" />
</svg>
