<?xml version="1.0" encoding="UTF-8" standalone="no"?>
<svg width="500" height="500" viewBox="0 0 2074.000000 2074.000000" xmlns="http://www.w3.org/2000/svg">
<rect x="19.000000" y="19.000000" width="2036.000000" height="2036.000000" fill="black" />
<circle cx="1963.959961" cy="290.959991" r="19.980000" fill="red">
  <title>Tokyo</title>
</circle><line x1="1877.959961" y1="336.959991" x2="1963.959961" y2="290.959991" stroke="red" stroke-width="6.660000" />
<circle cx="1791.959961" cy="1046.959961" r="19.980000" fill="red">
  <title>Shanghai</title>
</circle><line x1="1963.959961" y1="290.959991" x2="1791.959961" y2="1046.959961" stroke="red" stroke-width="6.660000" />
<circle cx="1522.959961" cy="1883.959961" r="19.980000" fill="red">
  <title>Beijing</title>
</circle><line x1="1791.959961" y1="1046.959961" x2="1522.959961" y2="1883.959961" stroke="red" stroke-width="6.660000" />
<circle cx="1253.959961" cy="1651.959961" r="19.980000" fill="red">
  <title>Mexico City</title>
</circle><line x1="1522.959961" y1="1883.959961" x2="1253.959961" y2="1651.959961" stroke="red" stroke-width="6.660000" />
<circle cx="87.959999" cy="588.960022" r="19.980000" fill="red">
  <title>Delhi</title>
</circle><line x1="1253.959961" y1="1651.959961" x2="87.959999" y2="588.960022" stroke="red" stroke-width="6.660000" />
<circle cx="209.959991" cy="74.959999" r="19.980000" fill="red">
  <title>Dhaka</title>
</circle><line x1="87.959999" y1="588.960022" x2="209.959991" y2="74.959999" stroke="red" stroke-width="6.660000" />
<circle cx="641.960022" cy="298.959991" r="19.980000" fill="red">
  <title>São Paulo</title>
</circle><line x1="209.959991" y1="74.959999" x2="641.960022" y2="298.959991" stroke="red" stroke-width="6.660000" />
<circle cx="1520.959961" cy="818.960022" r="19.980000" fill="red">
  <title>Mumbai</title>
</circle><line x1="641.960022" y1="298.959991" x2="1520.959961" y2="818.960022" stroke="red" stroke-width="6.660000" />
<circle cx="1877.959961" cy="336.959991" r="19.980000" fill="red">
  <title>Cairo</title>
</circle><line x1="1520.959961" y1="818.960022" x2="1877.959961" y2="336.959991" stroke="red" stroke-width="6.660000" />
</svg>
