<?xml version="1.0" encoding="UTF-8" standalone="no"?>
<svg width="500" height="500" viewBox="0 0 2074.000000 2074.000000" xmlns="http://www.w3.org/2000/svg">
<rect x="19.000000" y="19.000000" width="2036.000000" height="2036.000000" fill="black" />
<circle cx="396.959991" cy="1598.959961" r="19.980000" fill="red">
  <title>Tokyo</title>
</circle><line x1="1177.959961" y1="1881.959961" x2="396.959991" y2="1598.959961" stroke="red" stroke-width="6.660000" />
<circle cx="370.959991" cy="1369.959961" r="19.980000" fill="red">
  <title>Mexico City</title>
</circle><line x1="396.959991" y1="1598.959961" x2="370.959991" y2="1369.959961" stroke="red" stroke-width="6.660000" />
<circle cx="400.959991" cy="656.960022" r="19.980000" fill="red">
  <title>São Paulo</title>
</circle><line x1="370.959991" y1="1369.959961" x2="400.959991" y2="656.960022" stroke="red" stroke-width="6.660000" />
<circle cx="289.959991" cy="156.959991" r="19.980000" fill="red">
  <title>Beijing</title>
</circle><line x1="400.959991" y1="656.960022" x2="289.959991" y2="156.959991" stroke="red" stroke-width="6.660000" />
<circle cx="1405.959961" cy="578.960022" r="19.980000" fill="red">
  <title>Mumbai</title>
</circle><line x1="289.959991" y1="156.959991" x2="1405.959961" y2="578.960022" stroke="red" stroke-width="6.660000" />
<circle cx="1583.959961" cy="1340.959961" r="19.980000" fill="red">
  <title>Cairo</title>
</circle><line x1="1405.959961" y1="578.960022" x2="1583.959961" y2="1340.959961" stroke="red" stroke-width="6.660000" />
<circle cx="1640.959961" cy="1520.959961" r="19.980000" fill="red">
  <title>Dhaka</title>
</circle><line x1="1583.959961" y1="1340.959961" x2="1640.959961" y2="1520.959961" stroke="red" stroke-width="6.660000" />
<circle cx="1501.959961" cy="1456.959961" r="19.980000" fill="red">
  <title>Delhi</title>
</circle><line x1="1640.959961" y1="1520.959961" x2="1501.959961" y2="1456.959961" stroke="red" stroke-width="6.660000" />
<circle cx="1177.959961" cy="1881.959961" r="19.980000" fill="red">
  <title>Shanghai</title>
</circle><line x1="1501.959961" y1="1456.959961" x2="1177.959961" y2="1881.959961" stroke="red" stroke-width="6.660000" />
</svg>
