<?xml version="1.0" encoding="UTF-8" standalone="no"?>
<svg width="500" height="500" viewBox="0 0 2074.000000 2074.000000" xmlns="http://www.w3.org/2000/svg">
<rect x="19.000000" y="19.000000" width="2036.000000" height="2036.000000" fill="black" />
<circle cx="2016.959961" cy="1886.959961" r="19.980000" fill="red">
  <title>Tokyo</title>
</circle><line x1="1649.959961" y1="1554.959961" x2="2016.959961" y2="1886.959961" stroke="red" stroke-width="6.660000" />
<circle cx="1875.959961" cy="1365.959961" r="19.980000" fill="red">
  <title>São Paulo</title>
</circle><line x1="2016.959961" y1="1886.959961" x2="1875.959961" y2="1365.959961" stroke="red" stroke-width="6.660000" />
<circle cx="1830.959961" cy="1274.959961" r="19.980000" fill="red">
  <title>Delhi</title>
</circle><line x1="1875.959961" y1="1365.959961" x2="1830.959961" y2="1274.959961" stroke="red" stroke-width="6.660000" />
<circle cx="920.960022" cy="414.959991" r="19.980000" fill="red">
  <title>Mexico City</title>
</circle><line x1="1830.959961" y1="1274.959961" x2="920.960022" y2="414.959991" stroke="red" stroke-width="6.660000" />
<circle cx="197.959991" cy="199.959991" r="19.980000" fill="red">
  <title>Shanghai</title>
</circle><line x1="920.960022" y1="414.959991" x2="197.959991" y2="199.959991" stroke="red" stroke-width="6.660000" />
<circle cx="375.959991" cy="1130.959961" r="19.980000" fill="red">
  <title>Beijing</title>
</circle><line x1="197.959991" y1="199.959991" x2="375.959991" y2="1130.959961" stroke="red" stroke-width="6.660000" />
<circle cx="105.959999" cy="1781.959961" r="19.980000" fill="red">
  <title>Cairo</title>
</circle><line x1="375.959991" y1="1130.959961" x2="105.959999" y2="1781.959961" stroke="red" stroke-width="6.660000" />
<circle cx="1426.959961" cy="1367.959961" r="19.980000" fill="red">
  <title>Mumbai</title>
</circle><line x1="105.959999" y1="1781.959961" x2="1426.959961" y2="1367.959961" stroke="red" stroke-width="6.660000" />
<circle cx="1649.959961" cy="1554.959961" r="19.980000" fill="red">
  <title>Dhaka</title>
</circle><line x1="1426.959961" y1="1367.959961" x2="1649.959961" y2="1554.959961" stroke="red" stroke-width="6.660000" />
</svg>
