<?xml version="1.0" encoding="UTF-8" standalone="no"?>
<svg width="500" height="500" viewBox="0 0 2074.000000 2074.000000" xmlns="http://www.w3.org/2000/svg">
<rect x="19.000000" y="19.000000" width="2036.000000" height="2036.000000" fill="black" />
<circle cx="1524.959961" cy="736.960022" r="19.980000" fill="red">
  <title>Tokyo</title>
</circle><line x1="1184.959961" y1="310.959991" x2="1524.959961" y2="736.960022" stroke="red" stroke-width="6.660000" />
<circle cx="934.960022" cy="1980.959961" r="19.980000" fill="red">
  <title>Mexico City</title>
</circle><line x1="1524.959961" y1="736.960022" x2="934.960022" y2="1980.959961" stroke="red" stroke-width="6.660000" />
<circle cx="569.960022" cy="1983.959961" r="19.980000" fill="red">
  <title>São Paulo</title>
</circle><line x1="934.960022" y1="1980.959961" x2="569.960022" y2="1983.959961" stroke="red" stroke-width="6.660000" />
<circle cx="430.959991" cy="1344.959961" r="19.980000" fill="red">
  <title>Delhi</title>
</circle><line x1="569.960022" y1="1983.959961" x2="430.959991" y2="1344.959961" stroke="red" stroke-width="6.660000" />
<circle cx="184.959991" cy="966.960022" r="19.980000" fill="red">
  <title>Shanghai</title>
</circle><line x1="430.959991" y1="1344.959961" x2="184.959991" y2="966.960022" stroke="red" stroke-width="6.660000" />
<circle cx="831.960022" cy="750.960022" r="19.980000" fill="red">
  <title>Cairo</title>
</circle><line x1="184.959991" y1="966.960022" x2="831.960022" y2="750.960022" stroke="red" stroke-width="6.660000" />
<circle cx="698.960022" cy="307.959991" r="19.980000" fill="red">
  <title>Beijing</title>
</circle><line x1="831.960022" y1="750.960022" x2="698.960022" y2="307.959991" stroke="red" stroke-width="6.660000" />
<circle cx="1184.959961" cy="310.959991" r="19.980000" fill="red">
  <title>Mumbai</title>
</circle><line x1="698.960022" y1="307.959991" x2="1184.959961" y2="310.959991" stroke="red" stroke-width="6.660000" />
</svg>
