<?xml version="1.0" encoding="UTF-8" standalone="no"?>
<svg width="500" height="500" viewBox="0 0 2074.000000 2074.000000" xmlns="http://www.w3.org/2000/svg">
<rect x="19.000000" y="19.000000" width="2036.000000" height="2036.000000" fill="black" />
<circle cx="150.959991" cy="802.960022" r="19.980000" fill="red">
  <title>Tokyo</title>
</circle><line x1="366.959991" y1="1581.959961" x2="150.959991" y2="802.960022" stroke="red" stroke-width="6.660000" />
<circle cx="683.960022" cy="849.960022" r="19.980000" fill="red">
  <title>Osaka</title>
</circle><line x1="150.959991" y1="802.960022" x2="683.960022" y2="849.960022" stroke="red" stroke-width="6.660000" />
<circle cx="812.960022" cy="492.959991" r="19.980000" fill="red">
  <title>Istanbul</title>
</circle><line x1="683.960022" y1="849.960022" x2="812.960022" y2="492.959991" stroke="red" stroke-width="6.660000" />
<circle cx="848.960022" cy="198.959991" r="19.980000" fill="red">
  <title>Karachi</title>
</circle><line x1="812.960022" y1="492.959991" x2="848.960022" y2="198.959991" stroke="red" stroke-width="6.660000" />
<circle cx="971.960022" cy="222.959991" r="19.980000" fill="red">
  <title>Buenos Aires</title>
</circle><line x1="848.960022" y1="198.959991" x2="971.960022" y2="222.959991" stroke="red" stroke-width="6.660000" />
<circle cx="1361.959961" cy="292.959991" r="19.980000" fill="red">
  <title>Rio de Janeiro</title>
</circle><line x1="971.960022" y1="222.959991" x2="1361.959961" y2="292.959991" stroke="red" stroke-width="6.660000" />
<circle cx="1564.959961" cy="58.959999" r="19.980000" fill="red">
  <title>Mexico City</title>
</circle><line x1="1361.959961" y1="292.959991" x2="1564.959961" y2="58.959999" stroke="red" stroke-width="6.660000" />
<circle cx="1799.959961" cy="923.960022" r="19.980000" fill="red">
  <title>Kolkata</title>
</circle><line x1="1564.959961" y1="58.959999" x2="1799.959961" y2="923.960022" stroke="red" stroke-width="6.660000" />
<circle cx="1644.959961" cy="1369.959961" r="19.980000" fill="red">
  <title>Mumbai</title>
</circle><line x1="1799.959961" y1="923.960022" x2="1644.959961" y2="1369.959961" stroke="red" stroke-width="6.660000" />
<circle cx="1967.959961" cy="1696.959961" r="19.980000" fill="red">
  <title>Dhaka</title>
</circle><line x1="1644.959961" y1="1369.959961" x2="1967.959961" y2="1696.959961" stroke="red" stroke-width="6.660000" />
<circle cx="1999.959961" cy="1758.959961" r="19.980000" fill="red">
  <title>Shanghai</title>
</circle><line x1="1967.959961" y1="1696.959961" x2="1999.959961" y2="1758.959961" stroke="red" stroke-width="6.660000" />
<circle cx="1879.959961" cy="1953.959961" r="19.980000" fill="red">
  <title>Delhi</title>
</circle><line x1="1999.959961" y1="1758.959961" x2="1879.959961" y2="1953.959961" stroke="red" stroke-width="6.660000" />
<circle cx="1785.959961" cy="1996.959961" r="19.980000" fill="red">
  <title>Chongqing</title>
</circle><line x1="1879.959961" y1="1953.959961" x2="1785.959961" y2="1996.959961" stroke="red" stroke-width="6.660000" />
<circle cx="1490.959961" cy="1428.959961" r="19.980000" fill="red">
  <title>São Paulo</title>
</circle><line x1="1785.959961" y1="1996.959961" x2="1490.959961" y2="1428.959961" stroke="red" stroke-width="6.660000" />
<circle cx="1255.959961" cy="1641.959961" r="19.980000" fill="red">
  <title>Manila</title>
</circle><line x1="1490.959961" y1="1428.959961" x2="1255.959961" y2="1641.959961" stroke="red" stroke-width="6.660000" />
<circle cx="839.960022" cy="1217.959961" r="19.980000" fill="red">
  <title>Lagos</title>
</circle><line x1="1255.959961" y1="1641.959961" x2="839.960022" y2="1217.959961" stroke="red" stroke-width="6.660000" />
<circle cx="504.959991" cy="1675.959961" r="19.980000" fill="red">
  <title>Beijing</title>
</circle><line x1="839.960022" y1="1217.959961" x2="504.959991" y2="1675.959961" stroke="red" stroke-width="6.660000" />
<circle cx="280.959991" cy="1756.959961" r="19.980000" fill="red">
  <title>New York</title>
</circle><line x1="504.959991" y1="1675.959961" x2="280.959991" y2="1756.959961" stroke="red" stroke-width="6.660000" />
<circle cx="366.959991" cy="1581.959961" r="19.980000" fill="red">
  <title>Cairo</title>
</circle><line x1="280.959991" y1="1756.959961" x2="366.959991" y2="1581.959961" stroke="red" stroke-width="6.660000" />
</svg>
