<?xml version="1.0" encoding="UTF-8" standalone="no"?>
<svg width="500" height="500" viewBox="0 0 2074.000000 2074.000000" xmlns="http://www.w3.org/2000/svg">
<rect x="19.000000" y="19.000000" width="2036.000000" height="2036.000000" fill="black" />
<circle cx="1209.959961" cy="717.960022" r="19.980000" fill="red">
  <title>Tokyo</title>
</circle><line x1="1549.959961" y1="607.960022" x2="1209.959961" y2="717.960022" stroke="red" stroke-width="6.660000" />
<circle cx="1011.960022" cy="915.960022" r="19.980000" fill="red">
  <title>Chongqing</title>
</circle><line x1="1209.959961" y1="717.960022" x2="1011.960022" y2="915.960022" stroke="red" stroke-width="6.660000" />
<circle cx="896.960022" cy="1077.959961" r="19.980000" fill="red">
  <title>Mumbai</title>
</circle><line x1="1011.960022" y1="915.960022" x2="896.960022" y2="1077.959961" stroke="red" stroke-width="6.660000" />
<circle cx="1088.959961" cy="1206.959961" r="19.980000" fill="red">
  <title>Osaka</title>
</circle><line x1="896.960022" y1="1077.959961" x2="1088.959961" y2="1206.959961" stroke="red" stroke-width="6.660000" />
<circle cx="1518.959961" cy="1414.959961" r="19.980000" fill="red">
  <title>Cairo</title>
</circle><line x1="1088.959961" y1="1206.959961" x2="1518.959961" y2="1414.959961" stroke="red" stroke-width="6.660000" />
<circle cx="1962.959961" cy="1641.959961" r="19.980000" fill="red">
  <title>Delhi</title>
</circle><line x1="1518.959961" y1="1414.959961" x2="1962.959961" y2="1641.959961" stroke="red" stroke-width="6.660000" />
<circle cx="1496.959961" cy="1541.959961" r="19.980000" fill="red">
  <title>Rio de Janeiro</title>
</circle><line x1="1962.959961" y1="1641.959961" x2="1496.959961" y2="1541.959961" stroke="red" stroke-width="6.660000" />
<circle cx="823.960022" cy="1582.959961" r="19.980000" fill="red">
  <title>Kolkata</title>
</circle><line x1="1496.959961" y1="1541.959961" x2="823.960022" y2="1582.959961" stroke="red" stroke-width="6.660000" />
<circle cx="583.960022" cy="1684.959961" r="19.980000" fill="red">
  <title>Mexico City</title>
</circle><line x1="823.960022" y1="1582.959961" x2="583.960022" y2="1684.959961" stroke="red" stroke-width="6.660000" />
<circle cx="395.959991" cy="1853.959961" r="19.980000" fill="red">
  <title>São Paulo</title>
</circle><line x1="583.960022" y1="1684.959961" x2="395.959991" y2="1853.959961" stroke="red" stroke-width="6.660000" />
<circle cx="120.959999" cy="1951.959961" r="19.980000" fill="red">
  <title>Karachi</title>
</circle><line x1="395.959991" y1="1853.959961" x2="120.959999" y2="1951.959961" stroke="red" stroke-width="6.660000" />
<circle cx="263.959991" cy="1921.959961" r="19.980000" fill="red">
  <title>Dhaka</title>
</circle><line x1="120.959999" y1="1951.959961" x2="263.959991" y2="1921.959961" stroke="red" stroke-width="6.660000" />
<circle cx="411.959991" cy="1454.959961" r="19.980000" fill="red">
  <title>Istanbul</title>
</circle><line x1="263.959991" y1="1921.959961" x2="411.959991" y2="1454.959961" stroke="red" stroke-width="6.660000" />
<circle cx="190.959991" cy="763.960022" r="19.980000" fill="red">
  <title>Beijing</title>
</circle><line x1="411.959991" y1="1454.959961" x2="190.959991" y2="763.960022" stroke="red" stroke-width="6.660000" />
<circle cx="133.959991" cy="748.960022" r="19.980000" fill="red">
  <title>Manila</title>
</circle><line x1="190.959991" y1="763.960022" x2="133.959991" y2="748.960022" stroke="red" stroke-width="6.660000" />
<circle cx="537.960022" cy="42.959999" r="19.980000" fill="red">
  <title>Tianjin</title>
</circle><line x1="133.959991" y1="748.960022" x2="537.960022" y2="42.959999" stroke="red" stroke-width="6.660000" />
<circle cx="626.960022" cy="787.960022" r="19.980000" fill="red">
  <title>Shanghai</title>
</circle><line x1="537.960022" y1="42.959999" x2="626.960022" y2="787.960022" stroke="red" stroke-width="6.660000" />
<circle cx="752.960022" cy="726.960022" r="19.980000" fill="red">
  <title>New York</title>
</circle><line x1="626.960022" y1="787.960022" x2="752.960022" y2="726.960022" stroke="red" stroke-width="6.660000" />
<circle cx="1185.959961" cy="721.960022" r="19.980000" fill="red">
  <title>Lagos</title>
</circle><line x1="752.960022" y1="726.960022" x2="1185.959961" y2="721.960022" stroke="red" stroke-width="6.660000" />
<circle cx="1549.959961" cy="607.960022" r="19.980000" fill="red">
  <title>Buenos Aires</title>
</circle><line x1="1185.959961" y1="721.960022" x2="1549.959961" y2="607.960022" stroke="red" stroke-width="6.660000" />
</svg>
