<?xml version="1.0" encoding="UTF-8" standalone="no"?>
<svg width="500" height="500" viewBox="0 0 2074.000000 2074.000000" xmlns="http://www.w3.org/2000/svg">
<rect x="19.000000" y="19.000000" width="2036.000000" height="2036.000000" fill="black" />
<circle cx="1630.959961" cy="252.959991" r="19.980000" fill="red">
  <title>Tokyo</title>
</circle><line x1="1816.959961" y1="1812.959961" x2="1630.959961" y2="252.959991" stroke="red" stroke-width="6.660000" />
<circle cx="563.960022" cy="1023.960022" r="19.980000" fill="red">
  <title>Shanghai</title>
</circle><line x1="1630.959961" y1="252.959991" x2="563.960022" y2="1023.960022" stroke="red" stroke-width="6.660000" />
<circle cx="217.959991" cy="1631.959961" r="19.980000" fill="red">
  <title>São Paulo</title>
</circle><line x1="563.960022" y1="1023.960022" x2="217.959991" y2="1631.959961" stroke="red" stroke-width="6.660000" />
<circle cx="1307.959961" cy="2028.959961" r="19.980000" fill="red">
  <title>Delhi</title>
</circle><line x1="217.959991" y1="1631.959961" x2="1307.959961" y2="2028.959961" stroke="red" stroke-width="6.660000" />
<circle cx="1816.959961" cy="1812.959961" r="19.980000" fill="red">
  <title>Mexico City</title>
</circle><line x1="1307.959961" y1="2028.959961" x2="1816.959961" y2="1812.959961" stroke="red" stroke-width="6.660000" />
</svg>
