<?xml version="1.0" encoding="UTF-8" standalone="no"?>
<svg width="500" height="500" viewBox="0 0 2074.000000 2074.000000" xmlns="http://www.w3.org/2000/svg">
<rect x="19.000000" y="19.000000" width="2036.000000" height="2036.000000" fill="black" />
<circle cx="1945.959961" cy="494.959991" r="19.980000" fill="red">
  <title>Tokyo</title>
</circle><line x1="1911.959961" y1="721.960022" x2="1945.959961" y2="494.959991" stroke="red" stroke-width="6.660000" />
<circle cx="2022.959961" cy="236.959991" r="19.980000" fill="red">
  <title>Cairo</title>
</circle><line x1="1945.959961" y1="494.959991" x2="2022.959961" y2="236.959991" stroke="red" stroke-width="6.660000" />
<circle cx="790.960022" cy="386.959991" r="19.980000" fill="red">
  <title>Shanghai</title>
</circle><line x1="2022.959961" y1="236.959991" x2="790.960022" y2="386.959991" stroke="red" stroke-width="6.660000" />
<circle cx="551.960022" cy="454.959991" r="19.980000" fill="red">
  <title>Dhaka</title>
</circle><line x1="790.960022" y1="386.959991" x2="551.960022" y2="454.959991" stroke="red" stroke-width="6.660000" />
<circle cx="366.959991" cy="410.959991" r="19.980000" fill="red">
  <title>Buenos Aires</title>
</circle><line x1="551.960022" y1="454.959991" x2="366.959991" y2="410.959991" stroke="red" stroke-width="6.660000" />
<circle cx="553.960022" cy="1033.959961" r="19.980000" fill="red">
  <title>Beijing</title>
</circle><line x1="366.959991" y1="410.959991" x2="553.960022" y2="1033.959961" stroke="red" stroke-width="6.660000" />
<circle cx="302.959991" cy="1300.959961" r="19.980000" fill="red">
  <title>Osaka</title>
</circle><line x1="553.960022" y1="1033.959961" x2="302.959991" y2="1300.959961" stroke="red" stroke-width="6.660000" />
<circle cx="192.959991" cy="1941.959961" r="19.980000" fill="red">
  <title>Delhi</title>
</circle><line x1="302.959991" y1="1300.959961" x2="192.959991" y2="1941.959961" stroke="red" stroke-width="6.660000" />
<circle cx="643.960022" cy="1478.959961" r="19.980000" fill="red">
  <title>Mexico City</title>
</circle><line x1="192.959991" y1="1941.959961" x2="643.960022" y2="1478.959961" stroke="red" stroke-width="6.660000" />
<circle cx="891.960022" cy="1722.959961" r="19.980000" fill="red">
  <title>Chongqing</title>
</circle><line x1="643.960022" y1="1478.959961" x2="891.960022" y2="1722.959961" stroke="red" stroke-width="6.660000" />
<circle cx="1022.960022" cy="1283.959961" r="19.980000" fill="red">
  <title>New York</title>
</circle><line x1="891.960022" y1="1722.959961" x2="1022.960022" y2="1283.959961" stroke="red" stroke-width="6.660000" />
<circle cx="955.960022" cy="1159.959961" r="19.980000" fill="red">
  <title>São Paulo</title>
</circle><line x1="1022.960022" y1="1283.959961" x2="955.960022" y2="1159.959961" stroke="red" stroke-width="6.660000" />
<circle cx="1076.959961" cy="1256.959961" r="19.980000" fill="red">
  <title>Mumbai</title>
</circle><line x1="955.960022" y1="1159.959961" x2="1076.959961" y2="1256.959961" stroke="red" stroke-width="6.660000" />
<circle cx="1803.959961" cy="857.960022" r="19.980000" fill="red">
  <title>Istanbul</title>
</circle><line x1="1076.959961" y1="1256.959961" x2="1803.959961" y2="857.960022" stroke="red" stroke-width="6.660000" />
<circle cx="1911.959961" cy="721.960022" r="19.980000" fill="red">
  <title>Karachi</title>
</circle><line x1="1803.959961" y1="857.960022" x2="1911.959961" y2="721.960022" stroke="red" stroke-width="6.660000" />
</svg>
