<?xml version="1.0" encoding="UTF-8" standalone="no"?>
<svg width="500" height="500" viewBox="0 0 2074.000000 2074.000000" xmlns="http://www.w3.org/2000/svg">
<rect x="19.000000" y="19.000000" width="2036.000000" height="2036.000000" fill="black" />
<circle cx="850.960022" cy="1334.959961" r="19.980000" fill="red">
  <title>Tokyo</title>
</circle><line x1="1892.959961" y1="978.960022" x2="850.960022" y2="1334.959961" stroke="red" stroke-width="6.660000" />
<circle cx="58.959999" cy="290.959991" r="19.980000" fill="red">
  <title>Delhi</title>
</circle><line x1="850.960022" y1="1334.959961" x2="58.959999" y2="290.959991" stroke="red" stroke-width="6.660000" />
<circle cx="91.959999" cy="1181.959961" r="19.980000" fill="red">
  <title>São Paulo</title>
</circle><line x1="58.959999" y1="290.959991" x2="91.959999" y2="1181.959961" stroke="red" stroke-width="6.660000" />
<circle cx="467.959991" cy="1715.959961" r="19.980000" fill="red">
  <title>Mexico City</title>
</circle><line x1="91.959999" y1="1181.959961" x2="467.959991" y2="1715.959961" stroke="red" stroke-width="6.660000" />
<circle cx="576.960022" cy="1876.959961" r="19.980000" fill="red">
  <title>Cairo</title>
</circle><line x1="467.959991" y1="1715.959961" x2="576.960022" y2="1876.959961" stroke="red" stroke-width="6.660000" />
<circle cx="1589.959961" cy="1715.959961" r="19.980000" fill="red">
  <title>Mumbai</title>
</circle><line x1="576.960022" y1="1876.959961" x2="1589.959961" y2="1715.959961" stroke="red" stroke-width="6.660000" />
<circle cx="1892.959961" cy="978.960022" r="19.980000" fill="red">
  <title>Shanghai</title>
</circle><line x1="1589.959961" y1="1715.959961" x2="1892.959961" y2="978.960022" stroke="red" stroke-width="6.660000" />
</svg>
