<?xml version="1.0" encoding="UTF-8" standalone="no"?>
<svg width="500" height="500" viewBox="0 0 2074.000000 2074.000000" xmlns="http://www.w3.org/2000/svg">
<rect x="19.000000" y="19.000000" width="2036.000000" height="2036.000000" fill="black" />
<circle cx="942.960022" cy="1143.959961" r="19.980000" fill="red">
  <title>Tokyo</title>
</circle><line x1="1019.960022" y1="1469.959961" x2="942.960022" y2="1143.959961" stroke="red" stroke-width="6.660000" />
<circle cx="819.960022" cy="872.960022" r="19.980000" fill="red">
  <title>Shanghai</title>
</circle><line x1="942.960022" y1="1143.959961" x2="819.960022" y2="872.960022" stroke="red" stroke-width="6.660000" />
<circle cx="807.960022" cy="725.960022" r="19.980000" fill="red">
  <title>Mexico City</title>
</circle><line x1="819.960022" y1="872.960022" x2="807.960022" y2="725.960022" stroke="red" stroke-width="6.660000" />
<circle cx="764.960022" cy="229.959991" r="19.980000" fill="red">
  <title>Beijing</title>
</circle><line x1="807.960022" y1="725.960022" x2="764.960022" y2="229.959991" stroke="red" stroke-width="6.660000" />
<circle cx="1852.959961" cy="616.960022" r="19.980000" fill="red">
  <title>São Paulo</title>
</circle><line x1="764.960022" y1="229.959991" x2="1852.959961" y2="616.960022" stroke="red" stroke-width="6.660000" />
<circle cx="1400.959961" cy="1047.959961" r="19.980000" fill="red">
  <title>Istanbul</title>
</circle><line x1="1852.959961" y1="616.960022" x2="1400.959961" y2="1047.959961" stroke="red" stroke-width="6.660000" />
<circle cx="1355.959961" cy="1389.959961" r="19.980000" fill="red">
  <title>Cairo</title>
</circle><line x1="1400.959961" y1="1047.959961" x2="1355.959961" y2="1389.959961" stroke="red" stroke-width="6.660000" />
<circle cx="1553.959961" cy="1565.959961" r="19.980000" fill="red">
  <title>Karachi</title>
</circle><line x1="1355.959961" y1="1389.959961" x2="1553.959961" y2="1565.959961" stroke="red" stroke-width="6.660000" />
<circle cx="1612.959961" cy="1937.959961" r="19.980000" fill="red">
  <title>Dhaka</title>
</circle><line x1="1553.959961" y1="1565.959961" x2="1612.959961" y2="1937.959961" stroke="red" stroke-width="6.660000" />
<circle cx="932.960022" cy="1917.959961" r="19.980000" fill="red">
  <title>New York</title>
</circle><line x1="1612.959961" y1="1937.959961" x2="932.960022" y2="1917.959961" stroke="red" stroke-width="6.660000" />
<circle cx="743.960022" cy="1958.959961" r="19.980000" fill="red">
  <title>Mumbai</title>
</circle><line x1="932.960022" y1="1917.959961" x2="743.960022" y2="1958.959961" stroke="red" stroke-width="6.660000" />
<circle cx="249.959991" cy="1884.959961" r="19.980000" fill="red">
  <title>Osaka</title>
</circle><line x1="743.960022" y1="1958.959961" x2="249.959991" y2="1884.959961" stroke="red" stroke-width="6.660000" />
<circle cx="101.959999" cy="1681.959961" r="19.980000" fill="red">
  <title>Chongqing</title>
</circle><line x1="249.959991" y1="1884.959961" x2="101.959999" y2="1681.959961" stroke="red" stroke-width="6.660000" />
<circle cx="383.959991" cy="1341.959961" r="19.980000" fill="red">
  <title>Delhi</title>
</circle><line x1="101.959999" y1="1681.959961" x2="383.959991" y2="1341.959961" stroke="red" stroke-width="6.660000" />
<circle cx="1019.960022" cy="1469.959961" r="19.980000" fill="red">
  <title>Buenos Aires</title>
</circle><line x1="383.959991" y1="1341.959961" x2="1019.960022" y2="1469.959961" stroke="red" stroke-width="6.660000" />
</svg>
