<?xml version="1.0" encoding="UTF-8" standalone="no"?>
<svg width="500" height="500" viewBox="0 0 2074.000000 2074.000000" xmlns="http://www.w3.org/2000/svg">
<rect x="19.000000" y="19.000000" width="2036.000000" height="2036.000000" fill="black" />
<circle cx="2034.959961" cy="1771.959961" r="19.980000" fill="red">
  <title>Tokyo</title>
</circle><line x1="1824.959961" y1="470.959991" x2="2034.959961" y2="1771.959961" stroke="red" stroke-width="6.660000" />
<circle cx="1310.959961" cy="1864.959961" r="19.980000" fill="red">
  <title>Beijing</title>
</circle><line x1="2034.959961" y1="1771.959961" x2="1310.959961" y2="1864.959961" stroke="red" stroke-width="6.660000" />
<circle cx="1100.959961" cy="1757.959961" r="19.980000" fill="red">
  <title>Cairo</title>
</circle><line x1="1310.959961" y1="1864.959961" x2="1100.959961" y2="1757.959961" stroke="red" stroke-width="6.660000" />
<circle cx="800.960022" cy="1500.959961" r="19.980000" fill="red">
  <title>Mexico City</title>
</circle><line x1="1100.959961" y1="1757.959961" x2="800.960022" y2="1500.959961" stroke="red" stroke-width="6.660000" />
<circle cx="438.959991" cy="1336.959961" r="19.980000" fill="red">
  <title>Shanghai</title>
</circle><line x1="800.960022" y1="1500.959961" x2="438.959991" y2="1336.959961" stroke="red" stroke-width="6.660000" />
<circle cx="596.960022" cy="573.960022" r="19.980000" fill="red">
  <title>São Paulo</title>
</circle><line x1="438.959991" y1="1336.959961" x2="596.960022" y2="573.960022" stroke="red" stroke-width="6.660000" />
<circle cx="165.959991" cy="162.959991" r="19.980000" fill="red">
  <title>Dhaka</title>
</circle><line x1="596.960022" y1="573.960022" x2="165.959991" y2="162.959991" stroke="red" stroke-width="6.660000" />
<circle cx="974.960022" cy="674.960022" r="19.980000" fill="red">
  <title>Delhi</title>
</circle><line x1="165.959991" y1="162.959991" x2="974.960022" y2="674.960022" stroke="red" stroke-width="6.660000" />
<circle cx="1824.959961" cy="470.959991" r="19.980000" fill="red">
  <title>Mumbai</title>
</circle><line x1="974.960022" y1="674.960022" x2="1824.959961" y2="470.959991" stroke="red" stroke-width="6.660000" />
</svg>
