<?xml version="1.0" encoding="UTF-8" standalone="no"?>
<svg width="500" height="500" viewBox="0 0 2074.000000 2074.000000" xmlns="http://www.w3.org/2000/svg">
<rect x="19.000000" y="19.000000" width="2036.000000" height="2036.000000" fill="black" />
<circle cx="889.960022" cy="295.959991" r="19.980000" fill="red">
  <title>Tokyo</title>
</circle><line x1="166.959991" y1="878.960022" x2="889.960022" y2="295.959991" stroke="red" stroke-width="6.660000" />
<circle cx="1304.959961" cy="120.959999" r="19.980000" fill="red">
  <title>Shanghai</title>
</circle><line x1="889.960022" y1="295.959991" x2="1304.959961" y2="120.959999" stroke="red" stroke-width="6.660000" />
<circle cx="1532.959961" cy="1276.959961" r="19.980000" fill="red">
  <title>São Paulo</title>
</circle><line x1="1304.959961" y1="120.959999" x2="1532.959961" y2="1276.959961" stroke="red" stroke-width="6.660000" />
<circle cx="1820.959961" cy="1716.959961" r="19.980000" fill="red">
  <title>Mumbai</title>
</circle><line x1="1532.959961" y1="1276.959961" x2="1820.959961" y2="1716.959961" stroke="red" stroke-width="6.660000" />
<circle cx="271.959991" cy="1494.959961" r="19.980000" fill="red">
  <title>Cairo</title>
</circle><line x1="1820.959961" y1="1716.959961" x2="271.959991" y2="1494.959961" stroke="red" stroke-width="6.660000" />
<circle cx="342.959991" cy="1309.959961" r="19.980000" fill="red">
  <title>Mexico City</title>
</circle><line x1="271.959991" y1="1494.959961" x2="342.959991" y2="1309.959961" stroke="red" stroke-width="6.660000" />
<circle cx="166.959991" cy="878.960022" r="19.980000" fill="red">
  <title>Delhi</title>
</circle><line x1="342.959991" y1="1309.959961" x2="166.959991" y2="878.960022" stroke="red" stroke-width="6.660000" />
</svg>
