<?xml version="1.0" encoding="UTF-8" standalone="no"?>
<svg width="500" height="500" viewBox="0 0 2074.000000 2074.000000" xmlns="http://www.w3.org/2000/svg">
<rect x="19.000000" y="19.000000" width="2036.000000" height="2036.000000" fill="black" />
<circle cx="1118.959961" cy="277.959991" r="19.980000" fill="red">
  <title>Tokyo</title>
</circle><line x1="363.959991" y1="92.959999" x2="1118.959961" y2="277.959991" stroke="red" stroke-width="6.660000" />
<circle cx="1182.959961" cy="281.959991" r="19.980000" fill="red">
  <title>New York</title>
</circle><line x1="1118.959961" y1="277.959991" x2="1182.959961" y2="281.959991" stroke="red" stroke-width="6.660000" />
<circle cx="1552.959961" cy="72.959999" r="19.980000" fill="red">
  <title>Dhaka</title>
</circle><line x1="1182.959961" y1="281.959991" x2="1552.959961" y2="72.959999" stroke="red" stroke-width="6.660000" />
<circle cx="1917.959961" cy="399.959991" r="19.980000" fill="red">
  <title>Kolkata</title>
</circle><line x1="1552.959961" y1="72.959999" x2="1917.959961" y2="399.959991" stroke="red" stroke-width="6.660000" />
<circle cx="1941.959961" cy="637.960022" r="19.980000" fill="red">
  <title>Osaka</title>
</circle><line x1="1917.959961" y1="399.959991" x2="1941.959961" y2="637.960022" stroke="red" stroke-width="6.660000" />
<circle cx="1609.959961" cy="684.960022" r="19.980000" fill="red">
  <title>Delhi</title>
</circle><line x1="1941.959961" y1="637.960022" x2="1609.959961" y2="684.960022" stroke="red" stroke-width="6.660000" />
<circle cx="1233.959961" cy="1035.959961" r="19.980000" fill="red">
  <title>Mumbai</title>
</circle><line x1="1609.959961" y1="684.960022" x2="1233.959961" y2="1035.959961" stroke="red" stroke-width="6.660000" />
<circle cx="1318.959961" cy="1062.959961" r="19.980000" fill="red">
  <title>Istanbul</title>
</circle><line x1="1233.959961" y1="1035.959961" x2="1318.959961" y2="1062.959961" stroke="red" stroke-width="6.660000" />
<circle cx="1635.959961" cy="1129.959961" r="19.980000" fill="red">
  <title>Cairo</title>
</circle><line x1="1318.959961" y1="1062.959961" x2="1635.959961" y2="1129.959961" stroke="red" stroke-width="6.660000" />
<circle cx="1701.959961" cy="1759.959961" r="19.980000" fill="red">
  <title>Beijing</title>
</circle><line x1="1635.959961" y1="1129.959961" x2="1701.959961" y2="1759.959961" stroke="red" stroke-width="6.660000" />
<circle cx="1138.959961" cy="1996.959961" r="19.980000" fill="red">
  <title>Shanghai</title>
</circle><line x1="1701.959961" y1="1759.959961" x2="1138.959961" y2="1996.959961" stroke="red" stroke-width="6.660000" />
<circle cx="791.960022" cy="1999.959961" r="19.980000" fill="red">
  <title>Buenos Aires</title>
</circle><line x1="1138.959961" y1="1996.959961" x2="791.960022" y2="1999.959961" stroke="red" stroke-width="6.660000" />
<circle cx="186.959991" cy="1434.959961" r="19.980000" fill="red">
  <title>Mexico City</title>
</circle><line x1="791.960022" y1="1999.959961" x2="186.959991" y2="1434.959961" stroke="red" stroke-width="6.660000" />
<circle cx="783.960022" cy="1260.959961" r="19.980000" fill="red">
  <title>Karachi</title>
</circle><line x1="186.959991" y1="1434.959961" x2="783.960022" y2="1260.959961" stroke="red" stroke-width="6.660000" />
<circle cx="659.960022" cy="413.959991" r="19.980000" fill="red">
  <title>Chongqing</title>
</circle><line x1="783.960022" y1="1260.959961" x2="659.960022" y2="413.959991" stroke="red" stroke-width="6.660000" />
<circle cx="363.959991" cy="92.959999" r="19.980000" fill="red">
  <title>São Paulo</title>
</circle><line x1="659.960022" y1="413.959991" x2="363.959991" y2="92.959999" stroke="red" stroke-width="6.660000" />
</svg>
