<?xml version="1.0" encoding="UTF-8" standalone="no"?>
<svg width="500" height="500" viewBox="0 0 2074.000000 2074.000000" xmlns="http://www.w3.org/2000/svg">
<rect x="19.000000" y="19.000000" width="2036.000000" height="2036.000000" fill="black" />
<circle cx="652.960022" cy="768.960022" r="19.980000" fill="red">
  <title>Tokyo</title>
</circle><line x1="1681.959961" y1="1729.959961" x2="652.960022" y2="768.960022" stroke="red" stroke-width="6.660000" />
<circle cx="1502.959961" cy="1795.959961" r="19.980000" fill="red">
  <title>Delhi</title>
</circle><line x1="652.960022" y1="768.960022" x2="1502.959961" y2="1795.959961" stroke="red" stroke-width="6.660000" />
<circle cx="1965.959961" cy="2027.959961" r="19.980000" fill="red">
  <title>São Paulo</title>
</circle><line x1="1502.959961" y1="1795.959961" x2="1965.959961" y2="2027.959961" stroke="red" stroke-width="6.660000" />
<circle cx="1681.959961" cy="1729.959961" r="19.980000" fill="red">
  <title>Shanghai</title>
</circle><line x1="1965.959961" y1="2027.959961" x2="1681.959961" y2="1729.959961" stroke="red" stroke-width="6.660000" />
</svg>
