<?xml version="1.0" encoding="UTF-8" standalone="no"?>
<svg width="500" height="500" viewBox="0 0 2074.000000 2074.000000" xmlns="http://www.w3.org/2000/svg">
<rect x="19.000000" y="19.000000" width="2036.000000" height="2036.000000" fill="black" />
<circle cx="175.959991" cy="1901.959961" r="19.980000" fill="red">
  <title>Tokyo</title>
</circle><line x1="659.960022" y1="1784.959961" x2="175.959991" y2="1901.959961" stroke="red" stroke-width="6.660000" />
<circle cx="98.959999" cy="1659.959961" r="19.980000" fill="red">
  <title>New York</title>
</circle><line x1="175.959991" y1="1901.959961" x2="98.959999" y2="1659.959961" stroke="red" stroke-width="6.660000" />
<circle cx="72.959999" cy="1174.959961" r="19.980000" fill="red">
  <title>Mexico City</title>
</circle><line x1="98.959999" y1="1659.959961" x2="72.959999" y2="1174.959961" stroke="red" stroke-width="6.660000" />
<circle cx="459.959991" cy="1493.959961" r="19.980000" fill="red">
  <title>Dhaka</title>
</circle><line x1="72.959999" y1="1174.959961" x2="459.959991" y2="1493.959961" stroke="red" stroke-width="6.660000" />
<circle cx="1096.959961" cy="710.960022" r="19.980000" fill="red">
  <title>Beijing</title>
</circle><line x1="459.959991" y1="1493.959961" x2="1096.959961" y2="710.960022" stroke="red" stroke-width="6.660000" />
<circle cx="1109.959961" cy="462.959991" r="19.980000" fill="red">
  <title>Delhi</title>
</circle><line x1="1096.959961" y1="710.960022" x2="1109.959961" y2="462.959991" stroke="red" stroke-width="6.660000" />
<circle cx="971.960022" cy="295.959991" r="19.980000" fill="red">
  <title>São Paulo</title>
</circle><line x1="1109.959961" y1="462.959991" x2="971.960022" y2="295.959991" stroke="red" stroke-width="6.660000" />
<circle cx="764.960022" cy="178.959991" r="19.980000" fill="red">
  <title>Cairo</title>
</circle><line x1="971.960022" y1="295.959991" x2="764.960022" y2="178.959991" stroke="red" stroke-width="6.660000" />
<circle cx="993.960022" cy="199.959991" r="19.980000" fill="red">
  <title>Shanghai</title>
</circle><line x1="764.960022" y1="178.959991" x2="993.960022" y2="199.959991" stroke="red" stroke-width="6.660000" />
<circle cx="1439.959961" cy="303.959991" r="19.980000" fill="red">
  <title>Mumbai</title>
</circle><line x1="993.960022" y1="199.959991" x2="1439.959961" y2="303.959991" stroke="red" stroke-width="6.660000" />
<circle cx="1683.959961" cy="251.959991" r="19.980000" fill="red">
  <title>Osaka</title>
</circle><line x1="1439.959961" y1="303.959991" x2="1683.959961" y2="251.959991" stroke="red" stroke-width="6.660000" />
<circle cx="1769.959961" cy="369.959991" r="19.980000" fill="red">
  <title>Chongqing</title>
</circle><line x1="1683.959961" y1="251.959991" x2="1769.959961" y2="369.959991" stroke="red" stroke-width="6.660000" />
<circle cx="1967.959961" cy="796.960022" r="19.980000" fill="red">
  <title>Kolkata</title>
</circle><line x1="1769.959961" y1="369.959991" x2="1967.959961" y2="796.960022" stroke="red" stroke-width="6.660000" />
<circle cx="1648.959961" cy="1039.959961" r="19.980000" fill="red">
  <title>Manila</title>
</circle><line x1="1967.959961" y1="796.960022" x2="1648.959961" y2="1039.959961" stroke="red" stroke-width="6.660000" />
<circle cx="1433.959961" cy="1441.959961" r="19.980000" fill="red">
  <title>Karachi</title>
</circle><line x1="1648.959961" y1="1039.959961" x2="1433.959961" y2="1441.959961" stroke="red" stroke-width="6.660000" />
<circle cx="1027.959961" cy="1653.959961" r="19.980000" fill="red">
  <title>Buenos Aires</title>
</circle><line x1="1433.959961" y1="1441.959961" x2="1027.959961" y2="1653.959961" stroke="red" stroke-width="6.660000" />
<circle cx="659.960022" cy="1784.959961" r="19.980000" fill="red">
  <title>Istanbul</title>
</circle><line x1="1027.959961" y1="1653.959961" x2="659.960022" y2="1784.959961" stroke="red" stroke-width="6.660000" />
</svg>
