<?xml version="1.0" encoding="UTF-8" standalone="no"?>
<svg width="500" height="500" viewBox="0 0 2074.000000 2074.000000" xmlns="http://www.w3.org/2000/svg">
<rect x="19.000000" y="19.000000" width="2036.000000" height="2036.000000" fill="black" />
<circle cx="1751.959961" cy="100.959999" r="19.980000" fill="red">
  <title>Tokyo</title>
</circle><line x1="1981.959961" y1="191.959991" x2="1751.959961" y2="100.959999" stroke="red" stroke-width="6.660000" />
<circle cx="1561.959961" cy="97.959999" r="19.980000" fill="red">
  <title>São Paulo</title>
</circle><line x1="1751.959961" y1="100.959999" x2="1561.959961" y2="97.959999" stroke="red" stroke-width="6.660000" />
<circle cx="1027.959961" cy="107.959999" r="19.980000" fill="red">
  <title>Mumbai</title>
</circle><line x1="1561.959961" y1="97.959999" x2="1027.959961" y2="107.959999" stroke="red" stroke-width="6.660000" />
<circle cx="906.960022" cy="183.959991" r="19.980000" fill="red">
  <title>Buenos Aires</title>
</circle><line x1="1027.959961" y1="107.959999" x2="906.960022" y2="183.959991" stroke="red" stroke-width="6.660000" />
<circle cx="1288.959961" cy="330.959991" r="19.980000" fill="red">
  <title>Shanghai</title>
</circle><line x1="906.960022" y1="183.959991" x2="1288.959961" y2="330.959991" stroke="red" stroke-width="6.660000" />
<circle cx="1306.959961" cy="650.960022" r="19.980000" fill="red">
  <title>Istanbul</title>
</circle><line x1="1288.959961" y1="330.959991" x2="1306.959961" y2="650.960022" stroke="red" stroke-width="6.660000" />
<circle cx="994.960022" cy="996.960022" r="19.980000" fill="red">
  <title>Delhi</title>
</circle><line x1="1306.959961" y1="650.960022" x2="994.960022" y2="996.960022" stroke="red" stroke-width="6.660000" />
<circle cx="909.960022" cy="1019.960022" r="19.980000" fill="red">
  <title>Kolkata</title>
</circle><line x1="994.960022" y1="996.960022" x2="909.960022" y2="1019.960022" stroke="red" stroke-width="6.660000" />
<circle cx="267.959991" cy="1109.959961" r="19.980000" fill="red">
  <title>Chongqing</title>
</circle><line x1="909.960022" y1="1019.960022" x2="267.959991" y2="1109.959961" stroke="red" stroke-width="6.660000" />
<circle cx="158.959991" cy="1501.959961" r="19.980000" fill="red">
  <title>Rio de Janeiro</title>
</circle><line x1="267.959991" y1="1109.959961" x2="158.959991" y2="1501.959961" stroke="red" stroke-width="6.660000" />
<circle cx="695.960022" cy="1629.959961" r="19.980000" fill="red">
  <title>New York</title>
</circle><line x1="158.959991" y1="1501.959961" x2="695.960022" y2="1629.959961" stroke="red" stroke-width="6.660000" />
<circle cx="711.960022" cy="1865.959961" r="19.980000" fill="red">
  <title>Manila</title>
</circle><line x1="695.960022" y1="1629.959961" x2="711.960022" y2="1865.959961" stroke="red" stroke-width="6.660000" />
<circle cx="1146.959961" cy="1532.959961" r="19.980000" fill="red">
  <title>Mexico City</title>
</circle><line x1="711.960022" y1="1865.959961" x2="1146.959961" y2="1532.959961" stroke="red" stroke-width="6.660000" />
<circle cx="1219.959961" cy="1397.959961" r="19.980000" fill="red">
  <title>Dhaka</title>
</circle><line x1="1146.959961" y1="1532.959961" x2="1219.959961" y2="1397.959961" stroke="red" stroke-width="6.660000" />
<circle cx="1343.959961" cy="1321.959961" r="19.980000" fill="red">
  <title>Cairo</title>
</circle><line x1="1219.959961" y1="1397.959961" x2="1343.959961" y2="1321.959961" stroke="red" stroke-width="6.660000" />
<circle cx="1913.959961" cy="1937.959961" r="19.980000" fill="red">
  <title>Beijing</title>
</circle><line x1="1343.959961" y1="1321.959961" x2="1913.959961" y2="1937.959961" stroke="red" stroke-width="6.660000" />
<circle cx="1977.959961" cy="1961.959961" r="19.980000" fill="red">
  <title>Lagos</title>
</circle><line x1="1913.959961" y1="1937.959961" x2="1977.959961" y2="1961.959961" stroke="red" stroke-width="6.660000" />
<circle cx="1728.959961" cy="991.960022" r="19.980000" fill="red">
  <title>Osaka</title>
</circle><line x1="1977.959961" y1="1961.959961" x2="1728.959961" y2="991.960022" stroke="red" stroke-width="6.660000" />
<circle cx="1981.959961" cy="191.959991" r="19.980000" fill="red">
  <title>Karachi</title>
</circle><line x1="1728.959961" y1="991.960022" x2="1981.959961" y2="191.959991" stroke="red" stroke-width="6.660000" />
</svg>
