<?xml version="1.0" encoding="UTF-8" standalone="no"?>
<svg width="500" height="500" viewBox="0 0 2074.000000 2074.000000" xmlns="http://www.w3.org/2000/svg">
<rect x="19.000000" y="19.000000" width="2036.000000" height="2036.000000" fill="black" />
<circle cx="1197.959961" cy="1336.959961" r="19.980000" fill="red">
  <title>Tokyo</title>
</circle><line x1="1687.959961" y1="1032.959961" x2="1197.959961" y2="1336.959961" stroke="red" stroke-width="6.660000" />
<circle cx="1405.959961" cy="1637.959961" r="19.980000" fill="red">
  <title>São Paulo</title>
</circle><line x1="1197.959961" y1="1336.959961" x2="1405.959961" y2="1637.959961" stroke="red" stroke-width="6.660000" />
<circle cx="1732.959961" cy="1732.959961" r="19.980000" fill="red">
  <title>Shanghai</title>
</circle><line x1="1405.959961" y1="1637.959961" x2="1732.959961" y2="1732.959961" stroke="red" stroke-width="6.660000" />
<circle cx="1448.959961" cy="1914.959961" r="19.980000" fill="red">
  <title>Osaka</title>
</circle><line x1="1732.959961" y1="1732.959961" x2="1448.959961" y2="1914.959961" stroke="red" stroke-width="6.660000" />
<circle cx="1006.960022" cy="1853.959961" r="19.980000" fill="red">
  <title>Istanbul</title>
</circle><line x1="1448.959961" y1="1914.959961" x2="1006.960022" y2="1853.959961" stroke="red" stroke-width="6.660000" />
<circle cx="750.960022" cy="1790.959961" r="19.980000" fill="red">
  <title>Dhaka</title>
</circle><line x1="1006.960022" y1="1853.959961" x2="750.960022" y2="1790.959961" stroke="red" stroke-width="6.660000" />
<circle cx="744.960022" cy="1847.959961" r="19.980000" fill="red">
  <title>Mexico City</title>
</circle><line x1="750.960022" y1="1790.959961" x2="744.960022" y2="1847.959961" stroke="red" stroke-width="6.660000" />
<circle cx="410.959991" cy="1675.959961" r="19.980000" fill="red">
  <title>Rio de Janeiro</title>
</circle><line x1="744.960022" y1="1847.959961" x2="410.959991" y2="1675.959961" stroke="red" stroke-width="6.660000" />
<circle cx="384.959991" cy="1501.959961" r="19.980000" fill="red">
  <title>New York</title>
</circle><line x1="410.959991" y1="1675.959961" x2="384.959991" y2="1501.959961" stroke="red" stroke-width="6.660000" />
<circle cx="484.959991" cy="1014.960022" r="19.980000" fill="red">
  <title>Buenos Aires</title>
</circle><line x1="384.959991" y1="1501.959961" x2="484.959991" y2="1014.960022" stroke="red" stroke-width="6.660000" />
<circle cx="308.959991" cy="845.960022" r="19.980000" fill="red">
  <title>Lagos</title>
</circle><line x1="484.959991" y1="1014.960022" x2="308.959991" y2="845.960022" stroke="red" stroke-width="6.660000" />
<circle cx="283.959991" cy="808.960022" r="19.980000" fill="red">
  <title>Chongqing</title>
</circle><line x1="308.959991" y1="845.960022" x2="283.959991" y2="808.960022" stroke="red" stroke-width="6.660000" />
<circle cx="153.959991" cy="181.959991" r="19.980000" fill="red">
  <title>Delhi</title>
</circle><line x1="283.959991" y1="808.960022" x2="153.959991" y2="181.959991" stroke="red" stroke-width="6.660000" />
<circle cx="387.959991" cy="162.959991" r="19.980000" fill="red">
  <title>Mumbai</title>
</circle><line x1="153.959991" y1="181.959991" x2="387.959991" y2="162.959991" stroke="red" stroke-width="6.660000" />
<circle cx="601.960022" cy="166.959991" r="19.980000" fill="red">
  <title>Kolkata</title>
</circle><line x1="387.959991" y1="162.959991" x2="601.960022" y2="166.959991" stroke="red" stroke-width="6.660000" />
<circle cx="728.960022" cy="534.960022" r="19.980000" fill="red">
  <title>Beijing</title>
</circle><line x1="601.960022" y1="166.959991" x2="728.960022" y2="534.960022" stroke="red" stroke-width="6.660000" />
<circle cx="1151.959961" cy="716.960022" r="19.980000" fill="red">
  <title>Manila</title>
</circle><line x1="728.960022" y1="534.960022" x2="1151.959961" y2="716.960022" stroke="red" stroke-width="6.660000" />
<circle cx="1422.959961" cy="770.960022" r="19.980000" fill="red">
  <title>Cairo</title>
</circle><line x1="1151.959961" y1="716.960022" x2="1422.959961" y2="770.960022" stroke="red" stroke-width="6.660000" />
<circle cx="1687.959961" cy="1032.959961" r="19.980000" fill="red">
  <title>Karachi</title>
</circle><line x1="1422.959961" y1="770.960022" x2="1687.959961" y2="1032.959961" stroke="red" stroke-width="6.660000" />
</svg>
