<?xml version="1.0" encoding="UTF-8" standalone="no"?>
<svg width="500" height="500" viewBox="0 0 2074.000000 2074.000000" xmlns="http://www.w3.org/2000/svg">
<rect x="19.000000" y="19.000000" width="2036.000000" height="2036.000000" fill="black" />
<circle cx="550.960022" cy="1002.960022" r="19.980000" fill="red">
  <title>Tokyo</title>
</circle><line x1="987.960022" y1="744.960022" x2="550.960022" y2="1002.960022" stroke="red" stroke-width="6.660000" />
<circle cx="431.959991" cy="1266.959961" r="19.980000" fill="red">
  <title>Shanghai</title>
</circle><line x1="550.960022" y1="1002.960022" x2="431.959991" y2="1266.959961" stroke="red" stroke-width="6.660000" />
<circle cx="149.959991" cy="903.960022" r="19.980000" fill="red">
  <title>São Paulo</title>
</circle><line x1="431.959991" y1="1266.959961" x2="149.959991" y2="903.960022" stroke="red" stroke-width="6.660000" />
<circle cx="241.959991" cy="756.960022" r="19.980000" fill="red">
  <title>Mumbai</title>
</circle><line x1="149.959991" y1="903.960022" x2="241.959991" y2="756.960022" stroke="red" stroke-width="6.660000" />
<circle cx="838.960022" cy="54.959999" r="19.980000" fill="red">
  <title>Cairo</title>
</circle><line x1="241.959991" y1="756.960022" x2="838.960022" y2="54.959999" stroke="red" stroke-width="6.660000" />
<circle cx="1706.959961" cy="711.960022" r="19.980000" fill="red">
  <title>Delhi</title>
</circle><line x1="838.960022" y1="54.959999" x2="1706.959961" y2="711.960022" stroke="red" stroke-width="6.660000" />
<circle cx="1726.959961" cy="1081.959961" r="19.980000" fill="red">
  <title>Mexico City</title>
</circle><line x1="1706.959961" y1="711.960022" x2="1726.959961" y2="1081.959961" stroke="red" stroke-width="6.660000" />
<circle cx="987.960022" cy="744.960022" r="19.980000" fill="red">
  <title>Beijing</title>
</circle><line x1="1726.959961" y1="1081.959961" x2="987.960022" y2="744.960022" stroke="red" stroke-width="6.660000" />
</svg>
