<?xml version="1.0" encoding="UTF-8" standalone="no"?>
<svg width="500" height="500" viewBox="0 0 2074.000000 2074.000000" xmlns="http://www.w3.org/2000/svg">
<rect x="19.000000" y="19.000000" width="2036.000000" height="2036.000000" fill="black" />
<circle cx="286.959991" cy="1730.959961" r="19.980000" fill="red">
  <title>Tokyo</title>
</circle><line x1="540.960022" y1="1384.959961" x2="286.959991" y2="1730.959961" stroke="red" stroke-width="6.660000" />
<circle cx="761.960022" cy="1556.959961" r="19.980000" fill="red">
  <title>Shanghai</title>
</circle><line x1="286.959991" y1="1730.959961" x2="761.960022" y2="1556.959961" stroke="red" stroke-width="6.660000" />
<circle cx="1405.959961" cy="1564.959961" r="19.980000" fill="red">
  <title>Mexico City</title>
</circle><line x1="761.960022" y1="1556.959961" x2="1405.959961" y2="1564.959961" stroke="red" stroke-width="6.660000" />
<circle cx="1624.959961" cy="1568.959961" r="19.980000" fill="red">
  <title>Delhi</title>
</circle><line x1="1405.959961" y1="1564.959961" x2="1624.959961" y2="1568.959961" stroke="red" stroke-width="6.660000" />
<circle cx="1607.959961" cy="1059.959961" r="19.980000" fill="red">
  <title>Beijing</title>
</circle><line x1="1624.959961" y1="1568.959961" x2="1607.959961" y2="1059.959961" stroke="red" stroke-width="6.660000" />
<circle cx="1399.959961" cy="838.960022" r="19.980000" fill="red">
  <title>Dhaka</title>
</circle><line x1="1607.959961" y1="1059.959961" x2="1399.959961" y2="838.960022" stroke="red" stroke-width="6.660000" />
<circle cx="257.959991" cy="210.959991" r="19.980000" fill="red">
  <title>São Paulo</title>
</circle><line x1="1399.959961" y1="838.960022" x2="257.959991" y2="210.959991" stroke="red" stroke-width="6.660000" />
<circle cx="199.959991" cy="567.960022" r="19.980000" fill="red">
  <title>Mumbai</title>
</circle><line x1="257.959991" y1="210.959991" x2="199.959991" y2="567.960022" stroke="red" stroke-width="6.660000" />
<circle cx="540.960022" cy="1384.959961" r="19.980000" fill="red">
  <title>Cairo</title>
</circle><line x1="199.959991" y1="567.960022" x2="540.960022" y2="1384.959961" stroke="red" stroke-width="6.660000" />
</svg>
