<?xml version="1.0" encoding="UTF-8" standalone="no"?>
<svg width="500" height="500" viewBox="0 0 2074.000000 2074.000000" xmlns="http://www.w3.org/2000/svg">
<rect x="19.000000" y="19.000000" width="2036.000000" height="2036.000000" fill="black" />
<circle cx="554.960022" cy="66.959999" r="19.980000" fill="red">
  <title>Tokyo</title>
</circle><line x1="326.959991" y1="279.959991" x2="554.960022" y2="66.959999" stroke="red" stroke-width="6.660000" />
<circle cx="620.960022" cy="293.959991" r="19.980000" fill="red">
  <title>Mexico City</title>
</circle><line x1="554.960022" y1="66.959999" x2="620.960022" y2="293.959991" stroke="red" stroke-width="6.660000" />
<circle cx="1232.959961" cy="120.959999" r="19.980000" fill="red">
  <title>São Paulo</title>
</circle><line x1="620.960022" y1="293.959991" x2="1232.959961" y2="120.959999" stroke="red" stroke-width="6.660000" />
<circle cx="1274.959961" cy="69.959999" r="19.980000" fill="red">
  <title>Osaka</title>
</circle><line x1="1232.959961" y1="120.959999" x2="1274.959961" y2="69.959999" stroke="red" stroke-width="6.660000" />
<circle cx="1678.959961" cy="800.960022" r="19.980000" fill="red">
  <title>Chongqing</title>
</circle><line x1="1274.959961" y1="69.959999" x2="1678.959961" y2="800.960022" stroke="red" stroke-width="6.660000" />
<circle cx="1470.959961" cy="1230.959961" r="19.980000" fill="red">
  <title>Cairo</title>
</circle><line x1="1678.959961" y1="800.960022" x2="1470.959961" y2="1230.959961" stroke="red" stroke-width="6.660000" />
<circle cx="1991.959961" cy="1175.959961" r="19.980000" fill="red">
  <title>Mumbai</title>
</circle><line x1="1470.959961" y1="1230.959961" x2="1991.959961" y2="1175.959961" stroke="red" stroke-width="6.660000" />
<circle cx="1994.959961" cy="1205.959961" r="19.980000" fill="red">
  <title>Istanbul</title>
</circle><line x1="1991.959961" y1="1175.959961" x2="1994.959961" y2="1205.959961" stroke="red" stroke-width="6.660000" />
<circle cx="1969.959961" cy="1364.959961" r="19.980000" fill="red">
  <title>Beijing</title>
</circle><line x1="1994.959961" y1="1205.959961" x2="1969.959961" y2="1364.959961" stroke="red" stroke-width="6.660000" />
<circle cx="1545.959961" cy="1989.959961" r="19.980000" fill="red">
  <title>Delhi</title>
</circle><line x1="1969.959961" y1="1364.959961" x2="1545.959961" y2="1989.959961" stroke="red" stroke-width="6.660000" />
<circle cx="1383.959961" cy="1767.959961" r="19.980000" fill="red">
  <title>Buenos Aires</title>
</circle><line x1="1545.959961" y1="1989.959961" x2="1383.959961" y2="1767.959961" stroke="red" stroke-width="6.660000" />
<circle cx="632.960022" cy="1649.959961" r="19.980000" fill="red">
  <title>New York</title>
</circle><line x1="1383.959961" y1="1767.959961" x2="632.960022" y2="1649.959961" stroke="red" stroke-width="6.660000" />
<circle cx="94.959999" cy="1046.959961" r="19.980000" fill="red">
  <title>Karachi</title>
</circle><line x1="632.960022" y1="1649.959961" x2="94.959999" y2="1046.959961" stroke="red" stroke-width="6.660000" />
<circle cx="41.959999" cy="504.959991" r="19.980000" fill="red">
  <title>Shanghai</title>
</circle><line x1="94.959999" y1="1046.959961" x2="41.959999" y2="504.959991" stroke="red" stroke-width="6.660000" />
<circle cx="245.959991" cy="510.959991" r="19.980000" fill="red">
  <title>Kolkata</title>
</circle><line x1="41.959999" y1="504.959991" x2="245.959991" y2="510.959991" stroke="red" stroke-width="6.660000" />
<circle cx="326.959991" cy="279.959991" r="19.980000" fill="red">
  <title>Dhaka</title>
</circle><line x1="245.959991" y1="510.959991" x2="326.959991" y2="279.959991" stroke="red" stroke-width="6.660000" />
</svg>
