<?xml version="1.0" encoding="UTF-8" standalone="no"?>
<svg width="500" height="500" viewBox="0 0 2074.000000 2074.000000" xmlns="http://www.w3.org/2000/svg">
<rect x="19.000000" y="19.000000" width="2036.000000" height="2036.000000" fill="black" />
<circle cx="1617.959961" cy="358.959991" r="19.980000" fill="red">
  <title>Tokyo</title>
</circle><line x1="1994.959961" y1="603.960022" x2="1617.959961" y2="358.959991" stroke="red" stroke-width="6.660000" />
<circle cx="1537.959961" cy="261.959991" r="19.980000" fill="red">
  <title>Mexico City</title>
</circle><line x1="1617.959961" y1="358.959991" x2="1537.959961" y2="261.959991" stroke="red" stroke-width="6.660000" />
<circle cx="824.960022" cy="379.959991" r="19.980000" fill="red">
  <title>Mumbai</title>
</circle><line x1="1537.959961" y1="261.959991" x2="824.960022" y2="379.959991" stroke="red" stroke-width="6.660000" />
<circle cx="142.959991" cy="1335.959961" r="19.980000" fill="red">
  <title>Cairo</title>
</circle><line x1="824.960022" y1="379.959991" x2="142.959991" y2="1335.959961" stroke="red" stroke-width="6.660000" />
<circle cx="254.959991" cy="1446.959961" r="19.980000" fill="red">
  <title>São Paulo</title>
</circle><line x1="142.959991" y1="1335.959961" x2="254.959991" y2="1446.959961" stroke="red" stroke-width="6.660000" />
<circle cx="1843.959961" cy="1413.959961" r="19.980000" fill="red">
  <title>Delhi</title>
</circle><line x1="254.959991" y1="1446.959961" x2="1843.959961" y2="1413.959961" stroke="red" stroke-width="6.660000" />
<circle cx="1672.959961" cy="829.960022" r="19.980000" fill="red">
  <title>Shanghai</title>
</circle><line x1="1843.959961" y1="1413.959961" x2="1672.959961" y2="829.960022" stroke="red" stroke-width="6.660000" />
<circle cx="1994.959961" cy="603.960022" r="19.980000" fill="red">
  <title>Beijing</title>
</circle><line x1="1672.959961" y1="829.960022" x2="1994.959961" y2="603.960022" stroke="red" stroke-width="6.660000" />
</svg>
