<?xml version="1.0" encoding="UTF-8" standalone="no"?>
<svg width="500" height="500" viewBox="0 0 2074.000000 2074.000000" xmlns="http://www.w3.org/2000/svg">
<rect x="19.000000" y="19.000000" width="2036.000000" height="2036.000000" fill="black" />
<circle cx="864.960022" cy="281.959991" r="19.980000" fill="red">
  <title>Tokyo</title>
</circle><line x1="187.959991" y1="640.960022" x2="864.960022" y2="281.959991" stroke="red" stroke-width="6.660000" />
<circle cx="1511.959961" cy="871.960022" r="19.980000" fill="red">
  <title>Mexico City</title>
</circle><line x1="864.960022" y1="281.959991" x2="1511.959961" y2="871.960022" stroke="red" stroke-width="6.660000" />
<circle cx="1963.959961" cy="1204.959961" r="19.980000" fill="red">
  <title>São Paulo</title>
</circle><line x1="1511.959961" y1="871.960022" x2="1963.959961" y2="1204.959961" stroke="red" stroke-width="6.660000" />
<circle cx="1693.959961" cy="1011.960022" r="19.980000" fill="red">
  <title>Cairo</title>
</circle><line x1="1963.959961" y1="1204.959961" x2="1693.959961" y2="1011.960022" stroke="red" stroke-width="6.660000" />
<circle cx="893.960022" cy="831.960022" r="19.980000" fill="red">
  <title>Shanghai</title>
</circle><line x1="1693.959961" y1="1011.960022" x2="893.960022" y2="831.960022" stroke="red" stroke-width="6.660000" />
<circle cx="449.959991" cy="1340.959961" r="19.980000" fill="red">
  <title>Delhi</title>
</circle><line x1="893.960022" y1="831.960022" x2="449.959991" y2="1340.959961" stroke="red" stroke-width="6.660000" />
<circle cx="187.959991" cy="640.960022" r="19.980000" fill="red">
  <title>Mumbai</title>
</circle><line x1="449.959991" y1="1340.959961" x2="187.959991" y2="640.960022" stroke="red" stroke-width="6.660000" />
</svg>
