<?xml version="1.0" encoding="UTF-8" standalone="no"?>
<svg width="500" height="500" viewBox="0 0 2074.000000 2074.000000" xmlns="http://www.w3.org/2000/svg">
<rect x="19.000000" y="19.000000" width="2036.000000" height="2036.000000" fill="black" />
<circle cx="1468.959961" cy="2024.959961" r="19.980000" fill="red">
  <title>Tokyo</title>
</circle><line x1="846.960022" y1="1779.959961" x2="1468.959961" y2="2024.959961" stroke="red" stroke-width="6.660000" />
<circle cx="1735.959961" cy="1204.959961" r="19.980000" fill="red">
  <title>Beijing</title>
</circle><line x1="1468.959961" y1="2024.959961" x2="1735.959961" y2="1204.959961" stroke="red" stroke-width="6.660000" />
<circle cx="1602.959961" cy="1073.959961" r="19.980000" fill="red">
  <title>Delhi</title>
</circle><line x1="1735.959961" y1="1204.959961" x2="1602.959961" y2="1073.959961" stroke="red" stroke-width="6.660000" />
<circle cx="1335.959961" cy="752.960022" r="19.980000" fill="red">
  <title>Cairo</title>
</circle><line x1="1602.959961" y1="1073.959961" x2="1335.959961" y2="752.960022" stroke="red" stroke-width="6.660000" />
<circle cx="725.960022" cy="325.959991" r="19.980000" fill="red">
  <title>Shanghai</title>
</circle><line x1="1335.959961" y1="752.960022" x2="725.960022" y2="325.959991" stroke="red" stroke-width="6.660000" />
<circle cx="442.959991" cy="305.959991" r="19.980000" fill="red">
  <title>Mexico City</title>
</circle><line x1="725.960022" y1="325.959991" x2="442.959991" y2="305.959991" stroke="red" stroke-width="6.660000" />
<circle cx="505.959991" cy="412.959991" r="19.980000" fill="red">
  <title>Osaka</title>
</circle><line x1="442.959991" y1="305.959991" x2="505.959991" y2="412.959991" stroke="red" stroke-width="6.660000" />
<circle cx="532.960022" cy="787.960022" r="19.980000" fill="red">
  <title>Mumbai</title>
</circle><line x1="505.959991" y1="412.959991" x2="532.960022" y2="787.960022" stroke="red" stroke-width="6.660000" />
<circle cx="526.960022" cy="1373.959961" r="19.980000" fill="red">
  <title>São Paulo</title>
</circle><line x1="532.960022" y1="787.960022" x2="526.960022" y2="1373.959961" stroke="red" stroke-width="6.660000" />
<circle cx="846.960022" cy="1779.959961" r="19.980000" fill="red">
  <title>Dhaka</title>
</circle><line x1="526.960022" y1="1373.959961" x2="846.960022" y2="1779.959961" stroke="red" stroke-width="6.660000" />
</svg>
