<?xml version="1.0" encoding="UTF-8" standalone="no"?>
<svg width="500" height="500" viewBox="0 0 2074.000000 2074.000000" xmlns="http://www.w3.org/2000/svg">
<rect x="19.000000" y="19.000000" width="2036.000000" height="2036.000000" fill="black" />
<circle cx="1810.959961" cy="160.959991" r="19.980000" fill="red">
  <title>Tokyo</title>
</circle><line x1="2031.959961" y1="411.959991" x2="1810.959961" y2="160.959991" stroke="red" stroke-width="6.660000" />
<circle cx="644.960022" cy="537.960022" r="19.980000" fill="red">
  <title>São Paulo</title>
</circle><line x1="1810.959961" y1="160.959991" x2="644.960022" y2="537.960022" stroke="red" stroke-width="6.660000" />
<circle cx="178.959991" cy="891.960022" r="19.980000" fill="red">
  <title>Dhaka</title>
</circle><line x1="644.960022" y1="537.960022" x2="178.959991" y2="891.960022" stroke="red" stroke-width="6.660000" />
<circle cx="496.959991" cy="1806.959961" r="19.980000" fill="red">
  <title>Cairo</title>
</circle><line x1="178.959991" y1="891.960022" x2="496.959991" y2="1806.959961" stroke="red" stroke-width="6.660000" />
<circle cx="1084.959961" cy="1177.959961" r="19.980000" fill="red">
  <title>Mumbai</title>
</circle><line x1="496.959991" y1="1806.959961" x2="1084.959961" y2="1177.959961" stroke="red" stroke-width="6.660000" />
<circle cx="1781.959961" cy="1652.959961" r="19.980000" fill="red">
  <title>Mexico City</title>
</circle><line x1="1084.959961" y1="1177.959961" x2="1781.959961" y2="1652.959961" stroke="red" stroke-width="6.660000" />
<circle cx="1795.959961" cy="1192.959961" r="19.980000" fill="red">
  <title>Shanghai</title>
</circle><line x1="1781.959961" y1="1652.959961" x2="1795.959961" y2="1192.959961" stroke="red" stroke-width="6.660000" />
<circle cx="1698.959961" cy="1043.959961" r="19.980000" fill="red">
  <title>Delhi</title>
</circle><line x1="1795.959961" y1="1192.959961" x2="1698.959961" y2="1043.959961" stroke="red" stroke-width="6.660000" />
<circle cx="1831.959961" cy="579.960022" r="19.980000" fill="red">
  <title>Beijing</title>
</circle><line x1="1698.959961" y1="1043.959961" x2="1831.959961" y2="579.960022" stroke="red" stroke-width="6.660000" />
<circle cx="2031.959961" cy="411.959991" r="19.980000" fill="red">
  <title>Osaka</title>
</circle><line x1="1831.959961" y1="579.960022" x2="2031.959961" y2="411.959991" stroke="red" stroke-width="6.660000" />
</svg>
