<?xml version="1.0" encoding="UTF-8" standalone="no"?>
<svg width="500" height="500" viewBox="0 0 2074.000000 2074.000000" xmlns="http://www.w3.org/2000/svg">
<rect x="19.000000" y="19.000000" width="2036.000000" height="2036.000000" fill="black" />
<circle cx="73.959999" cy="1370.959961" r="19.980000" fill="red">
  <title>Tokyo</title>
</circle><line x1="489.959991" y1="1201.959961" x2="73.959999" y2="1370.959961" stroke="red" stroke-width="6.660000" />
<circle cx="206.959991" cy="2021.959961" r="19.980000" fill="red">
  <title>Cairo</title>
</circle><line x1="73.959999" y1="1370.959961" x2="206.959991" y2="2021.959961" stroke="red" stroke-width="6.660000" />
<circle cx="687.960022" cy="1810.959961" r="19.980000" fill="red">
  <title>Mumbai</title>
</circle><line x1="206.959991" y1="2021.959961" x2="687.960022" y2="1810.959961" stroke="red" stroke-width="6.660000" />
<circle cx="981.960022" cy="1982.959961" r="19.980000" fill="red">
  <title>Buenos Aires</title>
</circle><line x1="687.960022" y1="1810.959961" x2="981.960022" y2="1982.959961" stroke="red" stroke-width="6.660000" />
<circle cx="1064.959961" cy="1847.959961" r="19.980000" fill="red">
  <title>Delhi</title>
</circle><line x1="981.960022" y1="1982.959961" x2="1064.959961" y2="1847.959961" stroke="red" stroke-width="6.660000" />
<circle cx="1289.959961" cy="1910.959961" r="19.980000" fill="red">
  <title>Shanghai</title>
</circle><line x1="1064.959961" y1="1847.959961" x2="1289.959961" y2="1910.959961" stroke="red" stroke-width="6.660000" />
<circle cx="1456.959961" cy="1455.959961" r="19.980000" fill="red">
  <title>Beijing</title>
</circle><line x1="1289.959961" y1="1910.959961" x2="1456.959961" y2="1455.959961" stroke="red" stroke-width="6.660000" />
<circle cx="1471.959961" cy="872.960022" r="19.980000" fill="red">
  <title>Dhaka</title>
</circle><line x1="1456.959961" y1="1455.959961" x2="1471.959961" y2="872.960022" stroke="red" stroke-width="6.660000" />
<circle cx="1780.959961" cy="883.960022" r="19.980000" fill="red">
  <title>Osaka</title>
</circle><line x1="1471.959961" y1="872.960022" x2="1780.959961" y2="883.960022" stroke="red" stroke-width="6.660000" />
<circle cx="1716.959961" cy="108.959999" r="19.980000" fill="red">
  <title>Mexico City</title>
</circle><line x1="1780.959961" y1="883.960022" x2="1716.959961" y2="108.959999" stroke="red" stroke-width="6.660000" />
<circle cx="1070.959961" cy="544.960022" r="19.980000" fill="red">
  <title>Istanbul</title>
</circle><line x1="1716.959961" y1="108.959999" x2="1070.959961" y2="544.960022" stroke="red" stroke-width="6.660000" />
<circle cx="728.960022" cy="1162.959961" r="19.980000" fill="red">
  <title>New York</title>
</circle><line x1="1070.959961" y1="544.960022" x2="728.960022" y2="1162.959961" stroke="red" stroke-width="6.660000" />
<circle cx="731.960022" cy="1287.959961" r="19.980000" fill="red">
  <title>Karachi</title>
</circle><line x1="728.960022" y1="1162.959961" x2="731.960022" y2="1287.959961" stroke="red" stroke-width="6.660000" />
<circle cx="634.960022" cy="1540.959961" r="19.980000" fill="red">
  <title>São Paulo</title>
</circle><line x1="731.960022" y1="1287.959961" x2="634.960022" y2="1540.959961" stroke="red" stroke-width="6.660000" />
<circle cx="489.959991" cy="1201.959961" r="19.980000" fill="red">
  <title>Chongqing</title>
</circle><line x1="634.960022" y1="1540.959961" x2="489.959991" y2="1201.959961" stroke="red" stroke-width="6.660000" />
</svg>
