<?xml version="1.0" encoding="UTF-8" standalone="no"?>
<svg width="500" height="500" viewBox="0 0 2074.000000 2074.000000" xmlns="http://www.w3.org/2000/svg">
<rect x="19.000000" y="19.000000" width="2036.000000" height="2036.000000" fill="black" />
<circle cx="611.960022" cy="593.960022" r="19.980000" fill="red">
  <title>Tokyo</title>
</circle><line x1="1956.959961" y1="545.960022" x2="611.960022" y2="593.960022" stroke="red" stroke-width="6.660000" />
<circle cx="395.959991" cy="857.960022" r="19.980000" fill="red">
  <title>Delhi</title>
</circle><line x1="611.960022" y1="593.960022" x2="395.959991" y2="857.960022" stroke="red" stroke-width="6.660000" />
<circle cx="363.959991" cy="1813.959961" r="19.980000" fill="red">
  <title>Cairo</title>
</circle><line x1="395.959991" y1="857.960022" x2="363.959991" y2="1813.959961" stroke="red" stroke-width="6.660000" />
<circle cx="1331.959961" cy="1647.959961" r="19.980000" fill="red">
  <title>Shanghai</title>
</circle><line x1="363.959991" y1="1813.959961" x2="1331.959961" y2="1647.959961" stroke="red" stroke-width="6.660000" />
<circle cx="1540.959961" cy="1783.959961" r="19.980000" fill="red">
  <title>Mexico City</title>
</circle><line x1="1331.959961" y1="1647.959961" x2="1540.959961" y2="1783.959961" stroke="red" stroke-width="6.660000" />
<circle cx="1956.959961" cy="545.960022" r="19.980000" fill="red">
  <title>São Paulo</title>
</circle><line x1="1540.959961" y1="1783.959961" x2="1956.959961" y2="545.960022" stroke="red" stroke-width="6.660000" />
</svg>
