<?xml version="1.0" encoding="UTF-8" standalone="no"?>
<svg width="500" height="500" viewBox="0 0 2074.000000 2074.000000" xmlns="http://www.w3.org/2000/svg">
<rect x="19.000000" y="19.000000" width="2036.000000" height="2036.000000" fill="black" />
<circle cx="347.959991" cy="156.959991" r="19.980000" fill="red">
  <title>Tokyo</title>
</circle><line x1="405.959991" y1="1385.959961" x2="347.959991" y2="156.959991" stroke="red" stroke-width="6.660000" />
<circle cx="1442.959961" cy="1259.959961" r="19.980000" fill="red">
  <title>Shanghai</title>
</circle><line x1="347.959991" y1="156.959991" x2="1442.959961" y2="1259.959961" stroke="red" stroke-width="6.660000" />
<circle cx="1932.959961" cy="1845.959961" r="19.980000" fill="red">
  <title>Delhi</title>
</circle><line x1="1442.959961" y1="1259.959961" x2="1932.959961" y2="1845.959961" stroke="red" stroke-width="6.660000" />
<circle cx="1628.959961" cy="1727.959961" r="19.980000" fill="red">
  <title>São Paulo</title>
</circle><line x1="1932.959961" y1="1845.959961" x2="1628.959961" y2="1727.959961" stroke="red" stroke-width="6.660000" />
<circle cx="405.959991" cy="1385.959961" r="19.980000" fill="red">
  <title>Mexico City</title>
</circle><line x1="1628.959961" y1="1727.959961" x2="405.959991" y2="1385.959961" stroke="red" stroke-width="6.660000" />
</svg>
