<?xml version="1.0" encoding="UTF-8" standalone="no"?>
<svg width="500" height="500" viewBox="0 0 2074.000000 2074.000000" xmlns="http://www.w3.org/2000/svg">
<rect x="19.000000" y="19.000000" width="2036.000000" height="2036.000000" fill="black" />
<circle cx="1226.959961" cy="319.959991" r="19.980000" fill="red">
  <title>Tokyo</title>
</circle><line x1="1573.959961" y1="355.959991" x2="1226.959961" y2="319.959991" stroke="red" stroke-width="6.660000" />
<circle cx="965.960022" cy="52.959999" r="19.980000" fill="red">
  <title>Kolkata</title>
</circle><line x1="1226.959961" y1="319.959991" x2="965.960022" y2="52.959999" stroke="red" stroke-width="6.660000" />
<circle cx="71.959999" cy="310.959991" r="19.980000" fill="red">
  <title>Karachi</title>
</circle><line x1="965.960022" y1="52.959999" x2="71.959999" y2="310.959991" stroke="red" stroke-width="6.660000" />
<circle cx="78.959999" cy="535.960022" r="19.980000" fill="red">
  <title>Rio de Janeiro</title>
</circle><line x1="71.959999" y1="310.959991" x2="78.959999" y2="535.960022" stroke="red" stroke-width="6.660000" />
<circle cx="209.959991" cy="901.960022" r="19.980000" fill="red">
  <title>New York</title>
</circle><line x1="78.959999" y1="535.960022" x2="209.959991" y2="901.960022" stroke="red" stroke-width="6.660000" />
<circle cx="315.959991" cy="1096.959961" r="19.980000" fill="red">
  <title>Mexico City</title>
</circle><line x1="209.959991" y1="901.960022" x2="315.959991" y2="1096.959961" stroke="red" stroke-width="6.660000" />
<circle cx="59.959999" cy="1780.959961" r="19.980000" fill="red">
  <title>Delhi</title>
</circle><line x1="315.959991" y1="1096.959961" x2="59.959999" y2="1780.959961" stroke="red" stroke-width="6.660000" />
<circle cx="246.959991" cy="1243.959961" r="19.980000" fill="red">
  <title>Buenos Aires</title>
</circle><line x1="59.959999" y1="1780.959961" x2="246.959991" y2="1243.959961" stroke="red" stroke-width="6.660000" />
<circle cx="424.959991" cy="1059.959961" r="19.980000" fill="red">
  <title>Beijing</title>
</circle><line x1="246.959991" y1="1243.959961" x2="424.959991" y2="1059.959961" stroke="red" stroke-width="6.660000" />
<circle cx="779.960022" cy="745.960022" r="19.980000" fill="red">
  <title>São Paulo</title>
</circle><line x1="424.959991" y1="1059.959961" x2="779.960022" y2="745.960022" stroke="red" stroke-width="6.660000" />
<circle cx="827.960022" cy="1039.959961" r="19.980000" fill="red">
  <title>Chongqing</title>
</circle><line x1="779.960022" y1="745.960022" x2="827.960022" y2="1039.959961" stroke="red" stroke-width="6.660000" />
<circle cx="1131.959961" cy="1131.959961" r="19.980000" fill="red">
  <title>Shanghai</title>
</circle><line x1="827.960022" y1="1039.959961" x2="1131.959961" y2="1131.959961" stroke="red" stroke-width="6.660000" />
<circle cx="868.960022" cy="1388.959961" r="19.980000" fill="red">
  <title>Dhaka</title>
</circle><line x1="1131.959961" y1="1131.959961" x2="868.960022" y2="1388.959961" stroke="red" stroke-width="6.660000" />
<circle cx="863.960022" cy="1493.959961" r="19.980000" fill="red">
  <title>Istanbul</title>
</circle><line x1="868.960022" y1="1388.959961" x2="863.960022" y2="1493.959961" stroke="red" stroke-width="6.660000" />
<circle cx="1446.959961" cy="1733.959961" r="19.980000" fill="red">
  <title>Cairo</title>
</circle><line x1="863.960022" y1="1493.959961" x2="1446.959961" y2="1733.959961" stroke="red" stroke-width="6.660000" />
<circle cx="1287.959961" cy="1223.959961" r="19.980000" fill="red">
  <title>Mumbai</title>
</circle><line x1="1446.959961" y1="1733.959961" x2="1287.959961" y2="1223.959961" stroke="red" stroke-width="6.660000" />
<circle cx="1578.959961" cy="1116.959961" r="19.980000" fill="red">
  <title>Osaka</title>
</circle><line x1="1287.959961" y1="1223.959961" x2="1578.959961" y2="1116.959961" stroke="red" stroke-width="6.660000" />
<circle cx="1773.959961" cy="985.960022" r="19.980000" fill="red">
  <title>Manila</title>
</circle><line x1="1578.959961" y1="1116.959961" x2="1773.959961" y2="985.960022" stroke="red" stroke-width="6.660000" />
<circle cx="1794.959961" cy="867.960022" r="19.980000" fill="red">
  <title>Lagos</title>
</circle><line x1="1773.959961" y1="985.960022" x2="1794.959961" y2="867.960022" stroke="red" stroke-width="6.660000" />
<circle cx="1573.959961" cy="355.959991" r="19.980000" fill="red">
  <title>Tianjin</title>
</circle><line x1="1794.959961" y1="867.960022" x2="1573.959961" y2="355.959991" stroke="red" stroke-width="6.660000" />
</svg>
