<?xml version="1.0" encoding="UTF-8" standalone="no"?>
<svg width="500" height="500" viewBox="0 0 2074.000000 2074.000000" xmlns="http://www.w3.org/2000/svg">
<rect x="19.000000" y="19.000000" width="2036.000000" height="2036.000000" fill="black" />
<circle cx="1839.959961" cy="80.959999" r="19.980000" fill="red">
  <title>Tokyo</title>
</circle><line x1="2030.959961" y1="1091.959961" x2="1839.959961" y2="80.959999" stroke="red" stroke-width="6.660000" />
<circle cx="1742.959961" cy="259.959991" r="19.980000" fill="red">
  <title>Dhaka</title>
</circle><line x1="1839.959961" y1="80.959999" x2="1742.959961" y2="259.959991" stroke="red" stroke-width="6.660000" />
<circle cx="1445.959961" cy="890.960022" r="19.980000" fill="red">
  <title>Osaka</title>
</circle><line x1="1742.959961" y1="259.959991" x2="1445.959961" y2="890.960022" stroke="red" stroke-width="6.660000" />
<circle cx="1527.959961" cy="1236.959961" r="19.980000" fill="red">
  <title>Kolkata</title>
</circle><line x1="1445.959961" y1="890.960022" x2="1527.959961" y2="1236.959961" stroke="red" stroke-width="6.660000" />
<circle cx="1094.959961" cy="1400.959961" r="19.980000" fill="red">
  <title>New York</title>
</circle><line x1="1527.959961" y1="1236.959961" x2="1094.959961" y2="1400.959961" stroke="red" stroke-width="6.660000" />
<circle cx="952.960022" cy="1244.959961" r="19.980000" fill="red">
  <title>Rio de Janeiro</title>
</circle><line x1="1094.959961" y1="1400.959961" x2="952.960022" y2="1244.959961" stroke="red" stroke-width="6.660000" />
<circle cx="856.960022" cy="1352.959961" r="19.980000" fill="red">
  <title>Karachi</title>
</circle><line x1="952.960022" y1="1244.959961" x2="856.960022" y2="1352.959961" stroke="red" stroke-width="6.660000" />
<circle cx="524.960022" cy="1154.959961" r="19.980000" fill="red">
  <title>Mumbai</title>
</circle><line x1="856.960022" y1="1352.959961" x2="524.960022" y2="1154.959961" stroke="red" stroke-width="6.660000" />
<circle cx="151.959991" cy="378.959991" r="19.980000" fill="red">
  <title>Beijing</title>
</circle><line x1="524.960022" y1="1154.959961" x2="151.959991" y2="378.959991" stroke="red" stroke-width="6.660000" />
<circle cx="68.959999" cy="1335.959961" r="19.980000" fill="red">
  <title>Mexico City</title>
</circle><line x1="151.959991" y1="378.959991" x2="68.959999" y2="1335.959961" stroke="red" stroke-width="6.660000" />
<circle cx="78.959999" cy="1470.959961" r="19.980000" fill="red">
  <title>Shanghai</title>
</circle><line x1="68.959999" y1="1335.959961" x2="78.959999" y2="1470.959961" stroke="red" stroke-width="6.660000" />
<circle cx="289.959991" cy="1716.959961" r="19.980000" fill="red">
  <title>Lagos</title>
</circle><line x1="78.959999" y1="1470.959961" x2="289.959991" y2="1716.959961" stroke="red" stroke-width="6.660000" />
<circle cx="559.960022" cy="1656.959961" r="19.980000" fill="red">
  <title>Chongqing</title>
</circle><line x1="289.959991" y1="1716.959961" x2="559.960022" y2="1656.959961" stroke="red" stroke-width="6.660000" />
<circle cx="993.960022" cy="1670.959961" r="19.980000" fill="red">
  <title>São Paulo</title>
</circle><line x1="559.960022" y1="1656.959961" x2="993.960022" y2="1670.959961" stroke="red" stroke-width="6.660000" />
<circle cx="1127.959961" cy="1894.959961" r="19.980000" fill="red">
  <title>Buenos Aires</title>
</circle><line x1="993.960022" y1="1670.959961" x2="1127.959961" y2="1894.959961" stroke="red" stroke-width="6.660000" />
<circle cx="1528.959961" cy="1793.959961" r="19.980000" fill="red">
  <title>Cairo</title>
</circle><line x1="1127.959961" y1="1894.959961" x2="1528.959961" y2="1793.959961" stroke="red" stroke-width="6.660000" />
<circle cx="1434.959961" cy="1635.959961" r="19.980000" fill="red">
  <title>Istanbul</title>
</circle><line x1="1528.959961" y1="1793.959961" x2="1434.959961" y2="1635.959961" stroke="red" stroke-width="6.660000" />
<circle cx="1676.959961" cy="1519.959961" r="19.980000" fill="red">
  <title>Manila</title>
</circle><line x1="1434.959961" y1="1635.959961" x2="1676.959961" y2="1519.959961" stroke="red" stroke-width="6.660000" />
<circle cx="2030.959961" cy="1091.959961" r="19.980000" fill="red">
  <title>Delhi</title>
</circle><line x1="1676.959961" y1="1519.959961" x2="2030.959961" y2="1091.959961" stroke="red" stroke-width="6.660000" />
</svg>
