<?xml version="1.0" encoding="UTF-8" standalone="no"?>
<svg width="500" height="500" viewBox="0 0 2074.000000 2074.000000" xmlns="http://www.w3.org/2000/svg">
<rect x="19.000000" y="19.000000" width="2036.000000" height="2036.000000" fill="black" />
<circle cx="196.959991" cy="634.960022" r="19.980000" fill="red">
  <title>Tokyo</title>
</circle><line x1="605.960022" y1="1159.959961" x2="196.959991" y2="634.960022" stroke="red" stroke-width="6.660000" />
<circle cx="276.959991" cy="1539.959961" r="19.980000" fill="red">
  <title>Buenos Aires</title>
</circle><line x1="196.959991" y1="634.960022" x2="276.959991" y2="1539.959961" stroke="red" stroke-width="6.660000" />
<circle cx="479.959991" cy="1539.959961" r="19.980000" fill="red">
  <title>Manila</title>
</circle><line x1="276.959991" y1="1539.959961" x2="479.959991" y2="1539.959961" stroke="red" stroke-width="6.660000" />
<circle cx="413.959991" cy="1770.959961" r="19.980000" fill="red">
  <title>Mexico City</title>
</circle><line x1="479.959991" y1="1539.959961" x2="413.959991" y2="1770.959961" stroke="red" stroke-width="6.660000" />
<circle cx="868.960022" cy="1914.959961" r="19.980000" fill="red">
  <title>Lagos</title>
</circle><line x1="413.959991" y1="1770.959961" x2="868.960022" y2="1914.959961" stroke="red" stroke-width="6.660000" />
<circle cx="1001.960022" cy="1883.959961" r="19.980000" fill="red">
  <title>Istanbul</title>
</circle><line x1="868.960022" y1="1914.959961" x2="1001.960022" y2="1883.959961" stroke="red" stroke-width="6.660000" />
<circle cx="972.960022" cy="1747.959961" r="19.980000" fill="red">
  <title>Delhi</title>
</circle><line x1="1001.960022" y1="1883.959961" x2="972.960022" y2="1747.959961" stroke="red" stroke-width="6.660000" />
<circle cx="911.960022" cy="1659.959961" r="19.980000" fill="red">
  <title>New York</title>
</circle><line x1="972.960022" y1="1747.959961" x2="911.960022" y2="1659.959961" stroke="red" stroke-width="6.660000" />
<circle cx="1342.959961" cy="1616.959961" r="19.980000" fill="red">
  <title>Beijing</title>
</circle><line x1="911.960022" y1="1659.959961" x2="1342.959961" y2="1616.959961" stroke="red" stroke-width="6.660000" />
<circle cx="1626.959961" cy="1345.959961" r="19.980000" fill="red">
  <title>Mumbai</title>
</circle><line x1="1342.959961" y1="1616.959961" x2="1626.959961" y2="1345.959961" stroke="red" stroke-width="6.660000" />
<circle cx="1729.959961" cy="1510.959961" r="19.980000" fill="red">
  <title>Cairo</title>
</circle><line x1="1626.959961" y1="1345.959961" x2="1729.959961" y2="1510.959961" stroke="red" stroke-width="6.660000" />
<circle cx="1797.959961" cy="1393.959961" r="19.980000" fill="red">
  <title>Dhaka</title>
</circle><line x1="1729.959961" y1="1510.959961" x2="1797.959961" y2="1393.959961" stroke="red" stroke-width="6.660000" />
<circle cx="1831.959961" cy="1195.959961" r="19.980000" fill="red">
  <title>Osaka</title>
</circle><line x1="1797.959961" y1="1393.959961" x2="1831.959961" y2="1195.959961" stroke="red" stroke-width="6.660000" />
<circle cx="1593.959961" cy="653.960022" r="19.980000" fill="red">
  <title>Karachi</title>
</circle><line x1="1831.959961" y1="1195.959961" x2="1593.959961" y2="653.960022" stroke="red" stroke-width="6.660000" />
<circle cx="1955.959961" cy="359.959991" r="19.980000" fill="red">
  <title>Rio de Janeiro</title>
</circle><line x1="1593.959961" y1="653.960022" x2="1955.959961" y2="359.959991" stroke="red" stroke-width="6.660000" />
<circle cx="1529.959961" cy="234.959991" r="19.980000" fill="red">
  <title>São Paulo</title>
</circle><line x1="1955.959961" y1="359.959991" x2="1529.959961" y2="234.959991" stroke="red" stroke-width="6.660000" />
<circle cx="1473.959961" cy="454.959991" r="19.980000" fill="red">
  <title>Shanghai</title>
</circle><line x1="1529.959961" y1="234.959991" x2="1473.959961" y2="454.959991" stroke="red" stroke-width="6.660000" />
<circle cx="1350.959961" cy="820.960022" r="19.980000" fill="red">
  <title>Chongqing</title>
</circle><line x1="1473.959961" y1="454.959991" x2="1350.959961" y2="820.960022" stroke="red" stroke-width="6.660000" />
<circle cx="605.960022" cy="1159.959961" r="19.980000" fill="red">
  <title>Kolkata</title>
</circle><line x1="1350.959961" y1="820.960022" x2="605.960022" y2="1159.959961" stroke="red" stroke-width="6.660000" />
</svg>
