<?xml version="1.0" encoding="UTF-8" standalone="no"?>
<svg width="500" height="500" viewBox="0 0 2074.000000 2074.000000" xmlns="http://www.w3.org/2000/svg">
<rect x="19.000000" y="19.000000" width="2036.000000" height="2036.000000" fill="black" />
<circle cx="178.959991" cy="371.959991" r="19.980000" fill="red">
  <title>Tokyo</title>
</circle><line x1="1655.959961" y1="1249.959961" x2="178.959991" y2="371.959991" stroke="red" stroke-width="6.660000" />
<circle cx="457.959991" cy="581.960022" r="19.980000" fill="red">
  <title>Delhi</title>
</circle><line x1="178.959991" y1="371.959991" x2="457.959991" y2="581.960022" stroke="red" stroke-width="6.660000" />
<circle cx="1655.959961" cy="1249.959961" r="19.980000" fill="red">
  <title>Shanghai</title>
</circle><line x1="457.959991" y1="581.960022" x2="1655.959961" y2="1249.959961" stroke="red" stroke-width="6.660000" />
</svg>
