<?xml version="1.0" encoding="UTF-8" standalone="no"?>
<svg width="500" height="500" viewBox="0 0 2074.000000 2074.000000" xmlns="http://www.w3.org/2000/svg">
<rect x="19.000000" y="19.000000" width="2036.000000" height="2036.000000" fill="black" />
<circle cx="726.960022" cy="39.959999" r="19.980000" fill="red">
  <title>Tokyo</title>
</circle><line x1="172.959991" y1="85.959999" x2="726.960022" y2="39.959999" stroke="red" stroke-width="6.660000" />
<circle cx="454.959991" cy="182.959991" r="19.980000" fill="red">
  <title>Shanghai</title>
</circle><line x1="726.960022" y1="39.959999" x2="454.959991" y2="182.959991" stroke="red" stroke-width="6.660000" />
<circle cx="513.960022" cy="965.960022" r="19.980000" fill="red">
  <title>Delhi</title>
</circle><line x1="454.959991" y1="182.959991" x2="513.960022" y2="965.960022" stroke="red" stroke-width="6.660000" />
<circle cx="496.959991" cy="991.960022" r="19.980000" fill="red">
  <title>Dhaka</title>
</circle><line x1="513.960022" y1="965.960022" x2="496.959991" y2="991.960022" stroke="red" stroke-width="6.660000" />
<circle cx="461.959991" cy="1097.959961" r="19.980000" fill="red">
  <title>Mumbai</title>
</circle><line x1="496.959991" y1="991.960022" x2="461.959991" y2="1097.959961" stroke="red" stroke-width="6.660000" />
<circle cx="1330.959961" cy="1584.959961" r="19.980000" fill="red">
  <title>Beijing</title>
</circle><line x1="461.959991" y1="1097.959961" x2="1330.959961" y2="1584.959961" stroke="red" stroke-width="6.660000" />
<circle cx="694.960022" cy="1756.959961" r="19.980000" fill="red">
  <title>São Paulo</title>
</circle><line x1="1330.959961" y1="1584.959961" x2="694.960022" y2="1756.959961" stroke="red" stroke-width="6.660000" />
<circle cx="138.959991" cy="1720.959961" r="19.980000" fill="red">
  <title>Mexico City</title>
</circle><line x1="694.960022" y1="1756.959961" x2="138.959991" y2="1720.959961" stroke="red" stroke-width="6.660000" />
<circle cx="136.959991" cy="916.960022" r="19.980000" fill="red">
  <title>Osaka</title>
</circle><line x1="138.959991" y1="1720.959961" x2="136.959991" y2="916.960022" stroke="red" stroke-width="6.660000" />
<circle cx="172.959991" cy="85.959999" r="19.980000" fill="red">
  <title>Cairo</title>
</circle><line x1="136.959991" y1="916.960022" x2="172.959991" y2="85.959999" stroke="red" stroke-width="6.660000" />
</svg>
