<?xml version="1.0" encoding="UTF-8" standalone="no"?>
<svg width="500" height="500" viewBox="0 0 2074.000000 2074.000000" xmlns="http://www.w3.org/2000/svg">
<rect x="19.000000" y="19.000000" width="2036.000000" height="2036.000000" fill="black" />
<circle cx="1342.959961" cy="1834.959961" r="19.980000" fill="red">
  <title>Tokyo</title>
</circle><line x1="1942.959961" y1="848.960022" x2="1342.959961" y2="1834.959961" stroke="red" stroke-width="6.660000" />
<circle cx="408.959991" cy="1855.959961" r="19.980000" fill="red">
  <title>Shanghai</title>
</circle><line x1="1342.959961" y1="1834.959961" x2="408.959991" y2="1855.959961" stroke="red" stroke-width="6.660000" />
<circle cx="222.959991" cy="748.960022" r="19.980000" fill="red">
  <title>Cairo</title>
</circle><line x1="408.959991" y1="1855.959961" x2="222.959991" y2="748.960022" stroke="red" stroke-width="6.660000" />
<circle cx="322.959991" cy="55.959999" r="19.980000" fill="red">
  <title>Mumbai</title>
</circle><line x1="222.959991" y1="748.960022" x2="322.959991" y2="55.959999" stroke="red" stroke-width="6.660000" />
<circle cx="462.959991" cy="214.959991" r="19.980000" fill="red">
  <title>Delhi</title>
</circle><line x1="322.959991" y1="55.959999" x2="462.959991" y2="214.959991" stroke="red" stroke-width="6.660000" />
<circle cx="931.960022" cy="655.960022" r="19.980000" fill="red">
  <title>São Paulo</title>
</circle><line x1="462.959991" y1="214.959991" x2="931.960022" y2="655.960022" stroke="red" stroke-width="6.660000" />
<circle cx="1024.959961" cy="752.960022" r="19.980000" fill="red">
  <title>Dhaka</title>
</circle><line x1="931.960022" y1="655.960022" x2="1024.959961" y2="752.960022" stroke="red" stroke-width="6.660000" />
<circle cx="1935.959961" cy="786.960022" r="19.980000" fill="red">
  <title>Mexico City</title>
</circle><line x1="1024.959961" y1="752.960022" x2="1935.959961" y2="786.960022" stroke="red" stroke-width="6.660000" />
<circle cx="1942.959961" cy="848.960022" r="19.980000" fill="red">
  <title>Beijing</title>
</circle><line x1="1935.959961" y1="786.960022" x2="1942.959961" y2="848.960022" stroke="red" stroke-width="6.660000" />
</svg>
