<?xml version="1.0" encoding="UTF-8" standalone="no"?>
<svg width="500" height="500" viewBox="0 0 2074.000000 2074.000000" xmlns="http://www.w3.org/2000/svg">
<rect x="19.000000" y="19.000000" width="2036.000000" height="2036.000000" fill="black" />
<circle cx="1495.959961" cy="925.960022" r="19.980000" fill="red">
  <title>Tokyo</title>
</circle><line x1="1765.959961" y1="1134.959961" x2="1495.959961" y2="925.960022" stroke="red" stroke-width="6.660000" />
<circle cx="1250.959961" cy="563.960022" r="19.980000" fill="red">
  <title>Cairo</title>
</circle><line x1="1495.959961" y1="925.960022" x2="1250.959961" y2="563.960022" stroke="red" stroke-width="6.660000" />
<circle cx="1415.959961" cy="417.959991" r="19.980000" fill="red">
  <title>New York</title>
</circle><line x1="1250.959961" y1="563.960022" x2="1415.959961" y2="417.959991" stroke="red" stroke-width="6.660000" />
<circle cx="1495.959961" cy="268.959991" r="19.980000" fill="red">
  <title>Osaka</title>
</circle><line x1="1415.959961" y1="417.959991" x2="1495.959961" y2="268.959991" stroke="red" stroke-width="6.660000" />
<circle cx="868.960022" cy="39.959999" r="19.980000" fill="red">
  <title>São Paulo</title>
</circle><line x1="1495.959961" y1="268.959991" x2="868.960022" y2="39.959999" stroke="red" stroke-width="6.660000" />
<circle cx="158.959991" cy="47.959999" r="19.980000" fill="red">
  <title>Beijing</title>
</circle><line x1="868.960022" y1="39.959999" x2="158.959991" y2="47.959999" stroke="red" stroke-width="6.660000" />
<circle cx="146.959991" cy="199.959991" r="19.980000" fill="red">
  <title>Dhaka</title>
</circle><line x1="158.959991" y1="47.959999" x2="146.959991" y2="199.959991" stroke="red" stroke-width="6.660000" />
<circle cx="458.959991" cy="272.959991" r="19.980000" fill="red">
  <title>Chongqing</title>
</circle><line x1="146.959991" y1="199.959991" x2="458.959991" y2="272.959991" stroke="red" stroke-width="6.660000" />
<circle cx="719.960022" cy="630.960022" r="19.980000" fill="red">
  <title>Mexico City</title>
</circle><line x1="458.959991" y1="272.959991" x2="719.960022" y2="630.960022" stroke="red" stroke-width="6.660000" />
<circle cx="821.960022" cy="1030.959961" r="19.980000" fill="red">
  <title>Shanghai</title>
</circle><line x1="719.960022" y1="630.960022" x2="821.960022" y2="1030.959961" stroke="red" stroke-width="6.660000" />
<circle cx="328.959991" cy="1990.959961" r="19.980000" fill="red">
  <title>Delhi</title>
</circle><line x1="821.960022" y1="1030.959961" x2="328.959991" y2="1990.959961" stroke="red" stroke-width="6.660000" />
<circle cx="846.960022" cy="1199.959961" r="19.980000" fill="red">
  <title>Buenos Aires</title>
</circle><line x1="328.959991" y1="1990.959961" x2="846.960022" y2="1199.959961" stroke="red" stroke-width="6.660000" />
<circle cx="1606.959961" cy="1232.959961" r="19.980000" fill="red">
  <title>Mumbai</title>
</circle><line x1="846.960022" y1="1199.959961" x2="1606.959961" y2="1232.959961" stroke="red" stroke-width="6.660000" />
<circle cx="1765.959961" cy="1134.959961" r="19.980000" fill="red">
  <title>Karachi</title>
</circle><line x1="1606.959961" y1="1232.959961" x2="1765.959961" y2="1134.959961" stroke="red" stroke-width="6.660000" />
</svg>
