<?xml version="1.0" encoding="UTF-8" standalone="no"?>
<svg width="500" height="500" viewBox="0 0 2074.000000 2074.000000" xmlns="http://www.w3.org/2000/svg">
<rect x="19.000000" y="19.000000" width="2036.000000" height="2036.000000" fill="black" />
<circle cx="170.959991" cy="1364.959961" r="19.980000" fill="red">
  <title>Tokyo</title>
</circle><line x1="1196.959961" y1="415.959991" x2="170.959991" y2="1364.959961" stroke="red" stroke-width="6.660000" />
<circle cx="1084.959961" cy="1891.959961" r="19.980000" fill="red">
  <title>Delhi</title>
</circle><line x1="170.959991" y1="1364.959961" x2="1084.959961" y2="1891.959961" stroke="red" stroke-width="6.660000" />
<circle cx="1741.959961" cy="1936.959961" r="19.980000" fill="red">
  <title>Mexico City</title>
</circle><line x1="1084.959961" y1="1891.959961" x2="1741.959961" y2="1936.959961" stroke="red" stroke-width="6.660000" />
<circle cx="1605.959961" cy="511.959991" r="19.980000" fill="red">
  <title>São Paulo</title>
</circle><line x1="1741.959961" y1="1936.959961" x2="1605.959961" y2="511.959991" stroke="red" stroke-width="6.660000" />
<circle cx="1196.959961" cy="415.959991" r="19.980000" fill="red">
  <title>Shanghai</title>
</circle><line x1="1605.959961" y1="511.959991" x2="1196.959961" y2="415.959991" stroke="red" stroke-width="6.660000" />
</svg>
