<?xml version="1.0" encoding="UTF-8" standalone="no"?>
<svg width="500" height="500" viewBox="0 0 2074.000000 2074.000000" xmlns="http://www.w3.org/2000/svg">
<rect x="19.000000" y="19.000000" width="2036.000000" height="2036.000000" fill="black" />
<circle cx="1219.959961" cy="1557.959961" r="19.980000" fill="red">
  <title>Tokyo</title>
</circle><line x1="1008.960022" y1="1880.959961" x2="1219.959961" y2="1557.959961" stroke="red" stroke-width="6.660000" />
<circle cx="1143.959961" cy="1209.959961" r="19.980000" fill="red">
  <title>Beijing</title>
</circle><line x1="1219.959961" y1="1557.959961" x2="1143.959961" y2="1209.959961" stroke="red" stroke-width="6.660000" />
<circle cx="1676.959961" cy="1400.959961" r="19.980000" fill="red">
  <title>New York</title>
</circle><line x1="1143.959961" y1="1209.959961" x2="1676.959961" y2="1400.959961" stroke="red" stroke-width="6.660000" />
<circle cx="1625.959961" cy="462.959991" r="19.980000" fill="red">
  <title>Mumbai</title>
</circle><line x1="1676.959961" y1="1400.959961" x2="1625.959961" y2="462.959991" stroke="red" stroke-width="6.660000" />
<circle cx="1772.959961" cy="316.959991" r="19.980000" fill="red">
  <title>Mexico City</title>
</circle><line x1="1625.959961" y1="462.959991" x2="1772.959961" y2="316.959991" stroke="red" stroke-width="6.660000" />
<circle cx="1950.959961" cy="119.959999" r="19.980000" fill="red">
  <title>Cairo</title>
</circle><line x1="1772.959961" y1="316.959991" x2="1950.959961" y2="119.959999" stroke="red" stroke-width="6.660000" />
<circle cx="1421.959961" cy="80.959999" r="19.980000" fill="red">
  <title>Delhi</title>
</circle><line x1="1950.959961" y1="119.959999" x2="1421.959961" y2="80.959999" stroke="red" stroke-width="6.660000" />
<circle cx="1348.959961" cy="317.959991" r="19.980000" fill="red">
  <title>Buenos Aires</title>
</circle><line x1="1421.959961" y1="80.959999" x2="1348.959961" y2="317.959991" stroke="red" stroke-width="6.660000" />
<circle cx="1233.959961" cy="241.959991" r="19.980000" fill="red">
  <title>Dhaka</title>
</circle><line x1="1348.959961" y1="317.959991" x2="1233.959961" y2="241.959991" stroke="red" stroke-width="6.660000" />
<circle cx="771.960022" cy="324.959991" r="19.980000" fill="red">
  <title>São Paulo</title>
</circle><line x1="1233.959961" y1="241.959991" x2="771.960022" y2="324.959991" stroke="red" stroke-width="6.660000" />
<circle cx="236.959991" cy="819.960022" r="19.980000" fill="red">
  <title>Shanghai</title>
</circle><line x1="771.960022" y1="324.959991" x2="236.959991" y2="819.960022" stroke="red" stroke-width="6.660000" />
<circle cx="59.959999" cy="1695.959961" r="19.980000" fill="red">
  <title>Osaka</title>
</circle><line x1="236.959991" y1="819.960022" x2="59.959999" y2="1695.959961" stroke="red" stroke-width="6.660000" />
<circle cx="1008.960022" cy="1880.959961" r="19.980000" fill="red">
  <title>Karachi</title>
</circle><line x1="59.959999" y1="1695.959961" x2="1008.960022" y2="1880.959961" stroke="red" stroke-width="6.660000" />
</svg>
