<?xml version="1.0" encoding="UTF-8" standalone="no"?>
<svg width="500" height="500" viewBox="0 0 2074.000000 2074.000000" xmlns="http://www.w3.org/2000/svg">
<rect x="19.000000" y="19.000000" width="2036.000000" height="2036.000000" fill="black" />
<circle cx="516.960022" cy="2016.959961" r="19.980000" fill="red">
  <title>Tokyo</title>
</circle><line x1="1416.959961" y1="1846.959961" x2="516.960022" y2="2016.959961" stroke="red" stroke-width="6.660000" />
<circle cx="405.959991" cy="1576.959961" r="19.980000" fill="red">
  <title>Mumbai</title>
</circle><line x1="516.960022" y1="2016.959961" x2="405.959991" y2="1576.959961" stroke="red" stroke-width="6.660000" />
<circle cx="185.959991" cy="1438.959961" r="19.980000" fill="red">
  <title>Istanbul</title>
</circle><line x1="405.959991" y1="1576.959961" x2="185.959991" y2="1438.959961" stroke="red" stroke-width="6.660000" />
<circle cx="113.959999" cy="966.960022" r="19.980000" fill="red">
  <title>Cairo</title>
</circle><line x1="185.959991" y1="1438.959961" x2="113.959999" y2="966.960022" stroke="red" stroke-width="6.660000" />
<circle cx="86.959999" cy="909.960022" r="19.980000" fill="red">
  <title>São Paulo</title>
</circle><line x1="113.959999" y1="966.960022" x2="86.959999" y2="909.960022" stroke="red" stroke-width="6.660000" />
<circle cx="458.959991" cy="568.960022" r="19.980000" fill="red">
  <title>Delhi</title>
</circle><line x1="86.959999" y1="909.960022" x2="458.959991" y2="568.960022" stroke="red" stroke-width="6.660000" />
<circle cx="1046.959961" cy="508.959991" r="19.980000" fill="red">
  <title>Beijing</title>
</circle><line x1="458.959991" y1="568.960022" x2="1046.959961" y2="508.959991" stroke="red" stroke-width="6.660000" />
<circle cx="1530.959961" cy="506.959991" r="19.980000" fill="red">
  <title>Shanghai</title>
</circle><line x1="1046.959961" y1="508.959991" x2="1530.959961" y2="506.959991" stroke="red" stroke-width="6.660000" />
<circle cx="1427.959961" cy="662.960022" r="19.980000" fill="red">
  <title>Kolkata</title>
</circle><line x1="1530.959961" y1="506.959991" x2="1427.959961" y2="662.960022" stroke="red" stroke-width="6.660000" />
<circle cx="999.960022" cy="953.960022" r="19.980000" fill="red">
  <title>Buenos Aires</title>
</circle><line x1="1427.959961" y1="662.960022" x2="999.960022" y2="953.960022" stroke="red" stroke-width="6.660000" />
<circle cx="663.960022" cy="1225.959961" r="19.980000" fill="red">
  <title>Mexico City</title>
</circle><line x1="999.960022" y1="953.960022" x2="663.960022" y2="1225.959961" stroke="red" stroke-width="6.660000" />
<circle cx="755.960022" cy="1463.959961" r="19.980000" fill="red">
  <title>New York</title>
</circle><line x1="663.960022" y1="1225.959961" x2="755.960022" y2="1463.959961" stroke="red" stroke-width="6.660000" />
<circle cx="981.960022" cy="1188.959961" r="19.980000" fill="red">
  <title>Karachi</title>
</circle><line x1="755.960022" y1="1463.959961" x2="981.960022" y2="1188.959961" stroke="red" stroke-width="6.660000" />
<circle cx="1344.959961" cy="1263.959961" r="19.980000" fill="red">
  <title>Osaka</title>
</circle><line x1="981.960022" y1="1188.959961" x2="1344.959961" y2="1263.959961" stroke="red" stroke-width="6.660000" />
<circle cx="1493.959961" cy="1715.959961" r="19.980000" fill="red">
  <title>Dhaka</title>
</circle><line x1="1344.959961" y1="1263.959961" x2="1493.959961" y2="1715.959961" stroke="red" stroke-width="6.660000" />
<circle cx="1812.959961" cy="1770.959961" r="19.980000" fill="red">
  <title>Chongqing</title>
</circle><line x1="1493.959961" y1="1715.959961" x2="1812.959961" y2="1770.959961" stroke="red" stroke-width="6.660000" />
<circle cx="1416.959961" cy="1846.959961" r="19.980000" fill="red">
  <title>Manila</title>
</circle><line x1="1812.959961" y1="1770.959961" x2="1416.959961" y2="1846.959961" stroke="red" stroke-width="6.660000" />
</svg>
