<?xml version="1.0" encoding="UTF-8" standalone="no"?>
<svg width="500" height="500" viewBox="0 0 2074.000000 2074.000000" xmlns="http://www.w3.org/2000/svg">
<rect x="19.000000" y="19.000000" width="2036.000000" height="2036.000000" fill="black" />
<circle cx="304.959991" cy="907.960022" r="19.980000" fill="red">
  <title>Tokyo</title>
</circle><line x1="66.959999" y1="844.960022" x2="304.959991" y2="907.960022" stroke="red" stroke-width="6.660000" />
<circle cx="805.960022" cy="775.960022" r="19.980000" fill="red">
  <title>Osaka</title>
</circle><line x1="304.959991" y1="907.960022" x2="805.960022" y2="775.960022" stroke="red" stroke-width="6.660000" />
<circle cx="1056.959961" cy="58.959999" r="19.980000" fill="red">
  <title>São Paulo</title>
</circle><line x1="805.960022" y1="775.960022" x2="1056.959961" y2="58.959999" stroke="red" stroke-width="6.660000" />
<circle cx="1468.959961" cy="194.959991" r="19.980000" fill="red">
  <title>Delhi</title>
</circle><line x1="1056.959961" y1="58.959999" x2="1468.959961" y2="194.959991" stroke="red" stroke-width="6.660000" />
<circle cx="1891.959961" cy="220.959991" r="19.980000" fill="red">
  <title>Beijing</title>
</circle><line x1="1468.959961" y1="194.959991" x2="1891.959961" y2="220.959991" stroke="red" stroke-width="6.660000" />
<circle cx="1878.959961" cy="1392.959961" r="19.980000" fill="red">
  <title>Dhaka</title>
</circle><line x1="1891.959961" y1="220.959991" x2="1878.959961" y2="1392.959961" stroke="red" stroke-width="6.660000" />
<circle cx="1763.959961" cy="2023.959961" r="19.980000" fill="red">
  <title>Mexico City</title>
</circle><line x1="1878.959961" y1="1392.959961" x2="1763.959961" y2="2023.959961" stroke="red" stroke-width="6.660000" />
<circle cx="1467.959961" cy="1327.959961" r="19.980000" fill="red">
  <title>Cairo</title>
</circle><line x1="1763.959961" y1="2023.959961" x2="1467.959961" y2="1327.959961" stroke="red" stroke-width="6.660000" />
<circle cx="1249.959961" cy="691.960022" r="19.980000" fill="red">
  <title>Shanghai</title>
</circle><line x1="1467.959961" y1="1327.959961" x2="1249.959961" y2="691.960022" stroke="red" stroke-width="6.660000" />
<circle cx="737.960022" cy="901.960022" r="19.980000" fill="red">
  <title>Mumbai</title>
</circle><line x1="1249.959961" y1="691.960022" x2="737.960022" y2="901.960022" stroke="red" stroke-width="6.660000" />
<circle cx="66.959999" cy="844.960022" r="19.980000" fill="red">
  <title>New York</title>
</circle><line x1="737.960022" y1="901.960022" x2="66.959999" y2="844.960022" stroke="red" stroke-width="6.660000" />
</svg>
