<?xml version="1.0" encoding="UTF-8" standalone="no"?>
<svg width="500" height="500" viewBox="0 0 2074.000000 2074.000000" xmlns="http://www.w3.org/2000/svg">
<rect x="19.000000" y="19.000000" width="2036.000000" height="2036.000000" fill="black" />
<circle cx="1145.959961" cy="298.959991" r="19.980000" fill="red">
  <title>Tokyo</title>
</circle><line x1="1129.959961" y1="58.959999" x2="1145.959961" y2="298.959991" stroke="red" stroke-width="6.660000" />
<circle cx="1307.959961" cy="210.959991" r="19.980000" fill="red">
  <title>Delhi</title>
</circle><line x1="1145.959961" y1="298.959991" x2="1307.959961" y2="210.959991" stroke="red" stroke-width="6.660000" />
<circle cx="1449.959961" cy="448.959991" r="19.980000" fill="red">
  <title>Buenos Aires</title>
</circle><line x1="1307.959961" y1="210.959991" x2="1449.959961" y2="448.959991" stroke="red" stroke-width="6.660000" />
<circle cx="1562.959961" cy="462.959991" r="19.980000" fill="red">
  <title>Rio de Janeiro</title>
</circle><line x1="1449.959961" y1="448.959991" x2="1562.959961" y2="462.959991" stroke="red" stroke-width="6.660000" />
<circle cx="1505.959961" cy="590.960022" r="19.980000" fill="red">
  <title>Dhaka</title>
</circle><line x1="1562.959961" y1="462.959991" x2="1505.959961" y2="590.960022" stroke="red" stroke-width="6.660000" />
<circle cx="1034.959961" cy="710.960022" r="19.980000" fill="red">
  <title>Chongqing</title>
</circle><line x1="1505.959961" y1="590.960022" x2="1034.959961" y2="710.960022" stroke="red" stroke-width="6.660000" />
<circle cx="1032.959961" cy="985.960022" r="19.980000" fill="red">
  <title>Mumbai</title>
</circle><line x1="1034.959961" y1="710.960022" x2="1032.959961" y2="985.960022" stroke="red" stroke-width="6.660000" />
<circle cx="1678.959961" cy="1988.959961" r="19.980000" fill="red">
  <title>Beijing</title>
</circle><line x1="1032.959961" y1="985.960022" x2="1678.959961" y2="1988.959961" stroke="red" stroke-width="6.660000" />
<circle cx="1353.959961" cy="2006.959961" r="19.980000" fill="red">
  <title>Tianjin</title>
</circle><line x1="1678.959961" y1="1988.959961" x2="1353.959961" y2="2006.959961" stroke="red" stroke-width="6.660000" />
<circle cx="754.960022" cy="1723.959961" r="19.980000" fill="red">
  <title>Osaka</title>
</circle><line x1="1353.959961" y1="2006.959961" x2="754.960022" y2="1723.959961" stroke="red" stroke-width="6.660000" />
<circle cx="516.960022" cy="2026.959961" r="19.980000" fill="red">
  <title>Cairo</title>
</circle><line x1="754.960022" y1="1723.959961" x2="516.960022" y2="2026.959961" stroke="red" stroke-width="6.660000" />
<circle cx="318.959991" cy="1948.959961" r="19.980000" fill="red">
  <title>Manila</title>
</circle><line x1="516.960022" y1="2026.959961" x2="318.959991" y2="1948.959961" stroke="red" stroke-width="6.660000" />
<circle cx="227.959991" cy="1652.959961" r="19.980000" fill="red">
  <title>Shanghai</title>
</circle><line x1="318.959991" y1="1948.959961" x2="227.959991" y2="1652.959961" stroke="red" stroke-width="6.660000" />
<circle cx="482.959991" cy="1234.959961" r="19.980000" fill="red">
  <title>Mexico City</title>
</circle><line x1="227.959991" y1="1652.959961" x2="482.959991" y2="1234.959961" stroke="red" stroke-width="6.660000" />
<circle cx="92.959999" cy="886.960022" r="19.980000" fill="red">
  <title>São Paulo</title>
</circle><line x1="482.959991" y1="1234.959961" x2="92.959999" y2="886.960022" stroke="red" stroke-width="6.660000" />
<circle cx="409.959991" cy="506.959991" r="19.980000" fill="red">
  <title>Lagos</title>
</circle><line x1="92.959999" y1="886.960022" x2="409.959991" y2="506.959991" stroke="red" stroke-width="6.660000" />
<circle cx="435.959991" cy="346.959991" r="19.980000" fill="red">
  <title>Karachi</title>
</circle><line x1="409.959991" y1="506.959991" x2="435.959991" y2="346.959991" stroke="red" stroke-width="6.660000" />
<circle cx="397.959991" cy="300.959991" r="19.980000" fill="red">
  <title>New York</title>
</circle><line x1="435.959991" y1="346.959991" x2="397.959991" y2="300.959991" stroke="red" stroke-width="6.660000" />
<circle cx="679.960022" cy="237.959991" r="19.980000" fill="red">
  <title>Kolkata</title>
</circle><line x1="397.959991" y1="300.959991" x2="679.960022" y2="237.959991" stroke="red" stroke-width="6.660000" />
<circle cx="1129.959961" cy="58.959999" r="19.980000" fill="red">
  <title>Istanbul</title>
</circle><line x1="679.960022" y1="237.959991" x2="1129.959961" y2="58.959999" stroke="red" stroke-width="6.660000" />
</svg>
