<?xml version="1.0" encoding="UTF-8" standalone="no"?>
<svg width="500" height="500" viewBox="0 0 2074.000000 2074.000000" xmlns="http://www.w3.org/2000/svg">
<rect x="19.000000" y="19.000000" width="2036.000000" height="2036.000000" fill="black" />
<circle cx="709.960022" cy="1996.959961" r="19.980000" fill="red">
  <title>Tokyo</title>
</circle><line x1="209.959991" y1="1499.959961" x2="709.960022" y2="1996.959961" stroke="red" stroke-width="6.660000" />
<circle cx="921.960022" cy="1554.959961" r="19.980000" fill="red">
  <title>Karachi</title>
</circle><line x1="709.960022" y1="1996.959961" x2="921.960022" y2="1554.959961" stroke="red" stroke-width="6.660000" />
<circle cx="1375.959961" cy="1552.959961" r="19.980000" fill="red">
  <title>Shanghai</title>
</circle><line x1="921.960022" y1="1554.959961" x2="1375.959961" y2="1552.959961" stroke="red" stroke-width="6.660000" />
<circle cx="1327.959961" cy="1163.959961" r="19.980000" fill="red">
  <title>Buenos Aires</title>
</circle><line x1="1375.959961" y1="1552.959961" x2="1327.959961" y2="1163.959961" stroke="red" stroke-width="6.660000" />
<circle cx="1574.959961" cy="893.960022" r="19.980000" fill="red">
  <title>New York</title>
</circle><line x1="1327.959961" y1="1163.959961" x2="1574.959961" y2="893.960022" stroke="red" stroke-width="6.660000" />
<circle cx="1740.959961" cy="120.959999" r="19.980000" fill="red">
  <title>São Paulo</title>
</circle><line x1="1574.959961" y1="893.960022" x2="1740.959961" y2="120.959999" stroke="red" stroke-width="6.660000" />
<circle cx="1503.959961" cy="393.959991" r="19.980000" fill="red">
  <title>Dhaka</title>
</circle><line x1="1740.959961" y1="120.959999" x2="1503.959961" y2="393.959991" stroke="red" stroke-width="6.660000" />
<circle cx="386.959991" cy="636.960022" r="19.980000" fill="red">
  <title>Osaka</title>
</circle><line x1="1503.959961" y1="393.959991" x2="386.959991" y2="636.960022" stroke="red" stroke-width="6.660000" />
<circle cx="157.959991" cy="586.960022" r="19.980000" fill="red">
  <title>Mumbai</title>
</circle><line x1="386.959991" y1="636.960022" x2="157.959991" y2="586.960022" stroke="red" stroke-width="6.660000" />
<circle cx="294.959991" cy="619.960022" r="19.980000" fill="red">
  <title>Beijing</title>
</circle><line x1="157.959991" y1="586.960022" x2="294.959991" y2="619.960022" stroke="red" stroke-width="6.660000" />
<circle cx="543.960022" cy="1319.959961" r="19.980000" fill="red">
  <title>Mexico City</title>
</circle><line x1="294.959991" y1="619.960022" x2="543.960022" y2="1319.959961" stroke="red" stroke-width="6.660000" />
<circle cx="487.959991" cy="1422.959961" r="19.980000" fill="red">
  <title>Cairo</title>
</circle><line x1="543.960022" y1="1319.959961" x2="487.959991" y2="1422.959961" stroke="red" stroke-width="6.660000" />
<circle cx="209.959991" cy="1499.959961" r="19.980000" fill="red">
  <title>Delhi</title>
</circle><line x1="487.959991" y1="1422.959961" x2="209.959991" y2="1499.959961" stroke="red" stroke-width="6.660000" />
</svg>
