<?xml version="1.0" encoding="UTF-8" standalone="no"?>
<svg width="500" height="500" viewBox="0 0 2074.000000 2074.000000" xmlns="http://www.w3.org/2000/svg">
<rect x="19.000000" y="19.000000" width="2036.000000" height="2036.000000" fill="black" />
<circle cx="1599.959961" cy="1088.959961" r="19.980000" fill="red">
  <title>Tokyo</title>
</circle><line x1="1973.959961" y1="880.960022" x2="1599.959961" y2="1088.959961" stroke="red" stroke-width="6.660000" />
<circle cx="1839.959961" cy="1401.959961" r="19.980000" fill="red">
  <title>Osaka</title>
</circle><line x1="1599.959961" y1="1088.959961" x2="1839.959961" y2="1401.959961" stroke="red" stroke-width="6.660000" />
<circle cx="1699.959961" cy="1520.959961" r="19.980000" fill="red">
  <title>Mumbai</title>
</circle><line x1="1839.959961" y1="1401.959961" x2="1699.959961" y2="1520.959961" stroke="red" stroke-width="6.660000" />
<circle cx="1176.959961" cy="1415.959961" r="19.980000" fill="red">
  <title>Beijing</title>
</circle><line x1="1699.959961" y1="1520.959961" x2="1176.959961" y2="1415.959961" stroke="red" stroke-width="6.660000" />
<circle cx="1006.960022" cy="1999.959961" r="19.980000" fill="red">
  <title>Mexico City</title>
</circle><line x1="1176.959961" y1="1415.959961" x2="1006.960022" y2="1999.959961" stroke="red" stroke-width="6.660000" />
<circle cx="770.960022" cy="1373.959961" r="19.980000" fill="red">
  <title>Karachi</title>
</circle><line x1="1006.960022" y1="1999.959961" x2="770.960022" y2="1373.959961" stroke="red" stroke-width="6.660000" />
<circle cx="1009.960022" cy="1120.959961" r="19.980000" fill="red">
  <title>Delhi</title>
</circle><line x1="770.960022" y1="1373.959961" x2="1009.960022" y2="1120.959961" stroke="red" stroke-width="6.660000" />
<circle cx="695.960022" cy="590.960022" r="19.980000" fill="red">
  <title>Buenos Aires</title>
</circle><line x1="1009.960022" y1="1120.959961" x2="695.960022" y2="590.960022" stroke="red" stroke-width="6.660000" />
<circle cx="189.959991" cy="348.959991" r="19.980000" fill="red">
  <title>São Paulo</title>
</circle><line x1="695.960022" y1="590.960022" x2="189.959991" y2="348.959991" stroke="red" stroke-width="6.660000" />
<circle cx="245.959991" cy="43.959999" r="19.980000" fill="red">
  <title>Shanghai</title>
</circle><line x1="189.959991" y1="348.959991" x2="245.959991" y2="43.959999" stroke="red" stroke-width="6.660000" />
<circle cx="447.959991" cy="188.959991" r="19.980000" fill="red">
  <title>Dhaka</title>
</circle><line x1="245.959991" y1="43.959999" x2="447.959991" y2="188.959991" stroke="red" stroke-width="6.660000" />
<circle cx="948.960022" cy="581.960022" r="19.980000" fill="red">
  <title>New York</title>
</circle><line x1="447.959991" y1="188.959991" x2="948.960022" y2="581.960022" stroke="red" stroke-width="6.660000" />
<circle cx="1509.959961" cy="667.960022" r="19.980000" fill="red">
  <title>Istanbul</title>
</circle><line x1="948.960022" y1="581.960022" x2="1509.959961" y2="667.960022" stroke="red" stroke-width="6.660000" />
<circle cx="1648.959961" cy="897.960022" r="19.980000" fill="red">
  <title>Cairo</title>
</circle><line x1="1509.959961" y1="667.960022" x2="1648.959961" y2="897.960022" stroke="red" stroke-width="6.660000" />
<circle cx="1973.959961" cy="880.960022" r="19.980000" fill="red">
  <title>Chongqing</title>
</circle><line x1="1648.959961" y1="897.960022" x2="1973.959961" y2="880.960022" stroke="red" stroke-width="6.660000" />
</svg>
