<?xml version="1.0" encoding="UTF-8" standalone="no"?>
<svg width="500" height="500" viewBox="0 0 2074.000000 2074.000000" xmlns="http://www.w3.org/2000/svg">
<rect x="19.000000" y="19.000000" width="2036.000000" height="2036.000000" fill="black" />
<circle cx="631.960022" cy="1122.959961" r="19.980000" fill="red">
  <title>Tokyo</title>
</circle><line x1="644.960022" y1="1578.959961" x2="631.960022" y2="1122.959961" stroke="red" stroke-width="6.660000" />
<circle cx="519.960022" cy="366.959991" r="19.980000" fill="red">
  <title>Shanghai</title>
</circle><line x1="631.960022" y1="1122.959961" x2="519.960022" y2="366.959991" stroke="red" stroke-width="6.660000" />
<circle cx="1374.959961" cy="241.959991" r="19.980000" fill="red">
  <title>Delhi</title>
</circle><line x1="519.960022" y1="366.959991" x2="1374.959961" y2="241.959991" stroke="red" stroke-width="6.660000" />
<circle cx="1904.959961" cy="542.960022" r="19.980000" fill="red">
  <title>Mexico City</title>
</circle><line x1="1374.959961" y1="241.959991" x2="1904.959961" y2="542.960022" stroke="red" stroke-width="6.660000" />
<circle cx="644.960022" cy="1578.959961" r="19.980000" fill="red">
  <title>São Paulo</title>
</circle><line x1="1904.959961" y1="542.960022" x2="644.960022" y2="1578.959961" stroke="red" stroke-width="6.660000" />
</svg>
