<?xml version="1.0" encoding="UTF-8" standalone="no"?>
<svg width="500" height="500" viewBox="0 0 2074.000000 2074.000000" xmlns="http://www.w3.org/2000/svg">
<rect x="19.000000" y="19.000000" width="2036.000000" height="2036.000000" fill="black" />
<circle cx="672.960022" cy="1884.959961" r="19.980000" fill="red">
  <title>Tokyo</title>
</circle><line x1="1397.959961" y1="1903.959961" x2="672.960022" y2="1884.959961" stroke="red" stroke-width="6.660000" />
<circle cx="1029.959961" cy="398.959991" r="19.980000" fill="red">
  <title>São Paulo</title>
</circle><line x1="672.960022" y1="1884.959961" x2="1029.959961" y2="398.959991" stroke="red" stroke-width="6.660000" />
<circle cx="1719.959961" cy="558.960022" r="19.980000" fill="red">
  <title>Shanghai</title>
</circle><line x1="1029.959961" y1="398.959991" x2="1719.959961" y2="558.960022" stroke="red" stroke-width="6.660000" />
<circle cx="1995.959961" cy="1239.959961" r="19.980000" fill="red">
  <title>Delhi</title>
</circle><line x1="1719.959961" y1="558.960022" x2="1995.959961" y2="1239.959961" stroke="red" stroke-width="6.660000" />
<circle cx="1397.959961" cy="1903.959961" r="19.980000" fill="red">
  <title>Mexico City</title>
</circle><line x1="1995.959961" y1="1239.959961" x2="1397.959961" y2="1903.959961" stroke="red" stroke-width="6.660000" />
</svg>
