<?xml version="1.0" encoding="UTF-8" standalone="no"?>
<svg width="500" height="500" viewBox="0 0 2074.000000 2074.000000" xmlns="http://www.w3.org/2000/svg">
<rect x="19.000000" y="19.000000" width="2036.000000" height="2036.000000" fill="black" />
<circle cx="408.959991" cy="360.959991" r="19.980000" fill="red">
  <title>Tokyo</title>
</circle><line x1="1207.959961" y1="140.959991" x2="408.959991" y2="360.959991" stroke="red" stroke-width="6.660000" />
<circle cx="461.959991" cy="803.960022" r="19.980000" fill="red">
  <title>Shanghai</title>
</circle><line x1="408.959991" y1="360.959991" x2="461.959991" y2="803.960022" stroke="red" stroke-width="6.660000" />
<circle cx="1172.959961" cy="1009.960022" r="19.980000" fill="red">
  <title>Delhi</title>
</circle><line x1="461.959991" y1="803.960022" x2="1172.959961" y2="1009.960022" stroke="red" stroke-width="6.660000" />
<circle cx="1567.959961" cy="1989.959961" r="19.980000" fill="red">
  <title>Cairo</title>
</circle><line x1="1172.959961" y1="1009.960022" x2="1567.959961" y2="1989.959961" stroke="red" stroke-width="6.660000" />
<circle cx="1627.959961" cy="874.960022" r="19.980000" fill="red">
  <title>Mumbai</title>
</circle><line x1="1567.959961" y1="1989.959961" x2="1627.959961" y2="874.960022" stroke="red" stroke-width="6.660000" />
<circle cx="1845.959961" cy="233.959991" r="19.980000" fill="red">
  <title>Mexico City</title>
</circle><line x1="1627.959961" y1="874.960022" x2="1845.959961" y2="233.959991" stroke="red" stroke-width="6.660000" />
<circle cx="1430.959961" cy="256.959991" r="19.980000" fill="red">
  <title>Beijing</title>
</circle><line x1="1845.959961" y1="233.959991" x2="1430.959961" y2="256.959991" stroke="red" stroke-width="6.660000" />
<circle cx="1207.959961" cy="140.959991" r="19.980000" fill="red">
  <title>São Paulo</title>
</circle><line x1="1430.959961" y1="256.959991" x2="1207.959961" y2="140.959991" stroke="red" stroke-width="6.660000" />
</svg>
