<?xml version="1.0" encoding="UTF-8" standalone="no"?>
<svg width="500" height="500" viewBox="0 0 2074.000000 2074.000000" xmlns="http://www.w3.org/2000/svg">
<rect x="19.000000" y="19.000000" width="2036.000000" height="2036.000000" fill="black" />
<circle cx="1367.959961" cy="1361.959961" r="19.980000" fill="red">
  <title>Tokyo</title>
</circle><line x1="1720.959961" y1="1420.959961" x2="1367.959961" y2="1361.959961" stroke="red" stroke-width="6.660000" />
<circle cx="1191.959961" cy="1360.959961" r="19.980000" fill="red">
  <title>Kolkata</title>
</circle><line x1="1367.959961" y1="1361.959961" x2="1191.959961" y2="1360.959961" stroke="red" stroke-width="6.660000" />
<circle cx="1057.959961" cy="1337.959961" r="19.980000" fill="red">
  <title>Chongqing</title>
</circle><line x1="1191.959961" y1="1360.959961" x2="1057.959961" y2="1337.959961" stroke="red" stroke-width="6.660000" />
<circle cx="1194.959961" cy="1011.960022" r="19.980000" fill="red">
  <title>Delhi</title>
</circle><line x1="1057.959961" y1="1337.959961" x2="1194.959961" y2="1011.960022" stroke="red" stroke-width="6.660000" />
<circle cx="1580.959961" cy="546.960022" r="19.980000" fill="red">
  <title>Beijing</title>
</circle><line x1="1194.959961" y1="1011.960022" x2="1580.959961" y2="546.960022" stroke="red" stroke-width="6.660000" />
<circle cx="1953.959961" cy="55.959999" r="19.980000" fill="red">
  <title>Cairo</title>
</circle><line x1="1580.959961" y1="546.960022" x2="1953.959961" y2="55.959999" stroke="red" stroke-width="6.660000" />
<circle cx="954.960022" cy="348.959991" r="19.980000" fill="red">
  <title>Manila</title>
</circle><line x1="1953.959961" y1="55.959999" x2="954.960022" y2="348.959991" stroke="red" stroke-width="6.660000" />
<circle cx="928.960022" cy="294.959991" r="19.980000" fill="red">
  <title>Mexico City</title>
</circle><line x1="954.960022" y1="348.959991" x2="928.960022" y2="294.959991" stroke="red" stroke-width="6.660000" />
<circle cx="239.959991" cy="93.959999" r="19.980000" fill="red">
  <title>Shanghai</title>
</circle><line x1="928.960022" y1="294.959991" x2="239.959991" y2="93.959999" stroke="red" stroke-width="6.660000" />
<circle cx="538.960022" cy="944.960022" r="19.980000" fill="red">
  <title>Buenos Aires</title>
</circle><line x1="239.959991" y1="93.959999" x2="538.960022" y2="944.960022" stroke="red" stroke-width="6.660000" />
<circle cx="333.959991" cy="1155.959961" r="19.980000" fill="red">
  <title>Lagos</title>
</circle><line x1="538.960022" y1="944.960022" x2="333.959991" y2="1155.959961" stroke="red" stroke-width="6.660000" />
<circle cx="389.959991" cy="1614.959961" r="19.980000" fill="red">
  <title>Mumbai</title>
</circle><line x1="333.959991" y1="1155.959961" x2="389.959991" y2="1614.959961" stroke="red" stroke-width="6.660000" />
<circle cx="403.959991" cy="2015.959961" r="19.980000" fill="red">
  <title>Rio de Janeiro</title>
</circle><line x1="389.959991" y1="1614.959961" x2="403.959991" y2="2015.959961" stroke="red" stroke-width="6.660000" />
<circle cx="1391.959961" cy="1825.959961" r="19.980000" fill="red">
  <title>Dhaka</title>
</circle><line x1="403.959991" y1="2015.959961" x2="1391.959961" y2="1825.959961" stroke="red" stroke-width="6.660000" />
<circle cx="1444.959961" cy="1717.959961" r="19.980000" fill="red">
  <title>New York</title>
</circle><line x1="1391.959961" y1="1825.959961" x2="1444.959961" y2="1717.959961" stroke="red" stroke-width="6.660000" />
<circle cx="1523.959961" cy="1605.959961" r="19.980000" fill="red">
  <title>Osaka</title>
</circle><line x1="1444.959961" y1="1717.959961" x2="1523.959961" y2="1605.959961" stroke="red" stroke-width="6.660000" />
<circle cx="2031.959961" cy="1631.959961" r="19.980000" fill="red">
  <title>Istanbul</title>
</circle><line x1="1523.959961" y1="1605.959961" x2="2031.959961" y2="1631.959961" stroke="red" stroke-width="6.660000" />
<circle cx="1867.959961" cy="1342.959961" r="19.980000" fill="red">
  <title>Karachi</title>
</circle><line x1="2031.959961" y1="1631.959961" x2="1867.959961" y2="1342.959961" stroke="red" stroke-width="6.660000" />
<circle cx="1720.959961" cy="1420.959961" r="19.980000" fill="red">
  <title>São Paulo</title>
</circle><line x1="1867.959961" y1="1342.959961" x2="1720.959961" y2="1420.959961" stroke="red" stroke-width="6.660000" />
</svg>
