<?xml version="1.0" encoding="UTF-8" standalone="no"?>
<svg width="500" height="500" viewBox="0 0 2074.000000 2074.000000" xmlns="http://www.w3.org/2000/svg">
<rect x="19.000000" y="19.000000" width="2036.000000" height="2036.000000" fill="black" />
<circle cx="1435.959961" cy="1068.959961" r="19.980000" fill="red">
  <title>Tokyo</title>
</circle><line x1="1691.959961" y1="1062.959961" x2="1435.959961" y2="1068.959961" stroke="red" stroke-width="6.660000" />
<circle cx="407.959991" cy="526.960022" r="19.980000" fill="red">
  <title>São Paulo</title>
</circle><line x1="1435.959961" y1="1068.959961" x2="407.959991" y2="526.960022" stroke="red" stroke-width="6.660000" />
<circle cx="65.959999" cy="1728.959961" r="19.980000" fill="red">
  <title>Shanghai</title>
</circle><line x1="407.959991" y1="526.960022" x2="65.959999" y2="1728.959961" stroke="red" stroke-width="6.660000" />
<circle cx="994.960022" cy="2013.959961" r="19.980000" fill="red">
  <title>Delhi</title>
</circle><line x1="65.959999" y1="1728.959961" x2="994.960022" y2="2013.959961" stroke="red" stroke-width="6.660000" />
<circle cx="1284.959961" cy="1157.959961" r="19.980000" fill="red">
  <title>Cairo</title>
</circle><line x1="994.960022" y1="2013.959961" x2="1284.959961" y2="1157.959961" stroke="red" stroke-width="6.660000" />
<circle cx="1773.959961" cy="1216.959961" r="19.980000" fill="red">
  <title>Mexico City</title>
</circle><line x1="1284.959961" y1="1157.959961" x2="1773.959961" y2="1216.959961" stroke="red" stroke-width="6.660000" />
<circle cx="1691.959961" cy="1062.959961" r="19.980000" fill="red">
  <title>Mumbai</title>
</circle><line x1="1773.959961" y1="1216.959961" x2="1691.959961" y2="1062.959961" stroke="red" stroke-width="6.660000" />
</svg>
