<?xml version="1.0" encoding="UTF-8" standalone="no"?>
<svg width="500" height="500" viewBox="0 0 2074.000000 2074.000000" xmlns="http://www.w3.org/2000/svg">
<rect x="19.000000" y="19.000000" width="2036.000000" height="2036.000000" fill="black" />
<circle cx="611.960022" cy="1101.959961" r="19.980000" fill="red">
  <title>Tokyo</title>
</circle><line x1="667.960022" y1="854.960022" x2="611.960022" y2="1101.959961" stroke="red" stroke-width="6.660000" />
<circle cx="1074.959961" cy="1988.959961" r="19.980000" fill="red">
  <title>São Paulo</title>
</circle><line x1="611.960022" y1="1101.959961" x2="1074.959961" y2="1988.959961" stroke="red" stroke-width="6.660000" />
<circle cx="1631.959961" cy="1674.959961" r="19.980000" fill="red">
  <title>Delhi</title>
</circle><line x1="1074.959961" y1="1988.959961" x2="1631.959961" y2="1674.959961" stroke="red" stroke-width="6.660000" />
<circle cx="1938.959961" cy="1758.959961" r="19.980000" fill="red">
  <title>Dhaka</title>
</circle><line x1="1631.959961" y1="1674.959961" x2="1938.959961" y2="1758.959961" stroke="red" stroke-width="6.660000" />
<circle cx="1387.959961" cy="1443.959961" r="19.980000" fill="red">
  <title>New York</title>
</circle><line x1="1938.959961" y1="1758.959961" x2="1387.959961" y2="1443.959961" stroke="red" stroke-width="6.660000" />
<circle cx="988.960022" cy="717.960022" r="19.980000" fill="red">
  <title>Cairo</title>
</circle><line x1="1387.959961" y1="1443.959961" x2="988.960022" y2="717.960022" stroke="red" stroke-width="6.660000" />
<circle cx="1904.959961" cy="144.959991" r="19.980000" fill="red">
  <title>Beijing</title>
</circle><line x1="988.960022" y1="717.960022" x2="1904.959961" y2="144.959991" stroke="red" stroke-width="6.660000" />
<circle cx="957.960022" cy="135.959991" r="19.980000" fill="red">
  <title>Osaka</title>
</circle><line x1="1904.959961" y1="144.959991" x2="957.960022" y2="135.959991" stroke="red" stroke-width="6.660000" />
<circle cx="844.960022" cy="128.959991" r="19.980000" fill="red">
  <title>Mexico City</title>
</circle><line x1="957.960022" y1="135.959991" x2="844.960022" y2="128.959991" stroke="red" stroke-width="6.660000" />
<circle cx="591.960022" cy="77.959999" r="19.980000" fill="red">
  <title>Buenos Aires</title>
</circle><line x1="844.960022" y1="128.959991" x2="591.960022" y2="77.959999" stroke="red" stroke-width="6.660000" />
<circle cx="457.959991" cy="642.960022" r="19.980000" fill="red">
  <title>Mumbai</title>
</circle><line x1="591.960022" y1="77.959999" x2="457.959991" y2="642.960022" stroke="red" stroke-width="6.660000" />
<circle cx="590.960022" cy="807.960022" r="19.980000" fill="red">
  <title>Shanghai</title>
</circle><line x1="457.959991" y1="642.960022" x2="590.960022" y2="807.960022" stroke="red" stroke-width="6.660000" />
<circle cx="667.960022" cy="854.960022" r="19.980000" fill="red">
  <title>Karachi</title>
</circle><line x1="590.960022" y1="807.960022" x2="667.960022" y2="854.960022" stroke="red" stroke-width="6.660000" />
</svg>
