<?xml version="1.0" encoding="UTF-8" standalone="no"?>
<svg width="500" height="500" viewBox="0 0 2074.000000 2074.000000" xmlns="http://www.w3.org/2000/svg">
<rect x="19.000000" y="19.000000" width="2036.000000" height="2036.000000" fill="black" />
<circle cx="965.960022" cy="674.960022" r="19.980000" fill="red">
  <title>Tokyo</title>
</circle><line x1="879.960022" y1="806.960022" x2="965.960022" y2="674.960022" stroke="red" stroke-width="6.660000" />
<circle cx="971.960022" cy="410.959991" r="19.980000" fill="red">
  <title>Chongqing</title>
</circle><line x1="965.960022" y1="674.960022" x2="971.960022" y2="410.959991" stroke="red" stroke-width="6.660000" />
<circle cx="677.960022" cy="234.959991" r="19.980000" fill="red">
  <title>New York</title>
</circle><line x1="971.960022" y1="410.959991" x2="677.960022" y2="234.959991" stroke="red" stroke-width="6.660000" />
<circle cx="264.959991" cy="492.959991" r="19.980000" fill="red">
  <title>Dhaka</title>
</circle><line x1="677.960022" y1="234.959991" x2="264.959991" y2="492.959991" stroke="red" stroke-width="6.660000" />
<circle cx="239.959991" cy="937.960022" r="19.980000" fill="red">
  <title>Kolkata</title>
</circle><line x1="264.959991" y1="492.959991" x2="239.959991" y2="937.960022" stroke="red" stroke-width="6.660000" />
<circle cx="606.960022" cy="2021.959961" r="19.980000" fill="red">
  <title>Delhi</title>
</circle><line x1="239.959991" y1="937.960022" x2="606.960022" y2="2021.959961" stroke="red" stroke-width="6.660000" />
<circle cx="920.960022" cy="1900.959961" r="19.980000" fill="red">
  <title>Lagos</title>
</circle><line x1="606.960022" y1="2021.959961" x2="920.960022" y2="1900.959961" stroke="red" stroke-width="6.660000" />
<circle cx="1516.959961" cy="1999.959961" r="19.980000" fill="red">
  <title>São Paulo</title>
</circle><line x1="920.960022" y1="1900.959961" x2="1516.959961" y2="1999.959961" stroke="red" stroke-width="6.660000" />
<circle cx="2001.959961" cy="1427.959961" r="19.980000" fill="red">
  <title>Mumbai</title>
</circle><line x1="1516.959961" y1="1999.959961" x2="2001.959961" y2="1427.959961" stroke="red" stroke-width="6.660000" />
<circle cx="1957.959961" cy="1176.959961" r="19.980000" fill="red">
  <title>Osaka</title>
</circle><line x1="2001.959961" y1="1427.959961" x2="1957.959961" y2="1176.959961" stroke="red" stroke-width="6.660000" />
<circle cx="1646.959961" cy="1047.959961" r="19.980000" fill="red">
  <title>Beijing</title>
</circle><line x1="1957.959961" y1="1176.959961" x2="1646.959961" y2="1047.959961" stroke="red" stroke-width="6.660000" />
<circle cx="1593.959961" cy="598.960022" r="19.980000" fill="red">
  <title>Karachi</title>
</circle><line x1="1646.959961" y1="1047.959961" x2="1593.959961" y2="598.960022" stroke="red" stroke-width="6.660000" />
<circle cx="1617.959961" cy="469.959991" r="19.980000" fill="red">
  <title>Buenos Aires</title>
</circle><line x1="1593.959961" y1="598.960022" x2="1617.959961" y2="469.959991" stroke="red" stroke-width="6.660000" />
<circle cx="2009.959961" cy="244.959991" r="19.980000" fill="red">
  <title>Istanbul</title>
</circle><line x1="1617.959961" y1="469.959991" x2="2009.959961" y2="244.959991" stroke="red" stroke-width="6.660000" />
<circle cx="1630.959961" cy="399.959991" r="19.980000" fill="red">
  <title>Rio de Janeiro</title>
</circle><line x1="2009.959961" y1="244.959991" x2="1630.959961" y2="399.959991" stroke="red" stroke-width="6.660000" />
<circle cx="1231.959961" cy="668.960022" r="19.980000" fill="red">
  <title>Cairo</title>
</circle><line x1="1630.959961" y1="399.959991" x2="1231.959961" y2="668.960022" stroke="red" stroke-width="6.660000" />
<circle cx="1245.959961" cy="960.960022" r="19.980000" fill="red">
  <title>Mexico City</title>
</circle><line x1="1231.959961" y1="668.960022" x2="1245.959961" y2="960.960022" stroke="red" stroke-width="6.660000" />
<circle cx="1059.959961" cy="862.960022" r="19.980000" fill="red">
  <title>Shanghai</title>
</circle><line x1="1245.959961" y1="960.960022" x2="1059.959961" y2="862.960022" stroke="red" stroke-width="6.660000" />
<circle cx="879.960022" cy="806.960022" r="19.980000" fill="red">
  <title>Manila</title>
</circle><line x1="1059.959961" y1="862.960022" x2="879.960022" y2="806.960022" stroke="red" stroke-width="6.660000" />
</svg>
