<?xml version="1.0" encoding="UTF-8" standalone="no"?>
<svg width="500" height="500" viewBox="0 0 2074.000000 2074.000000" xmlns="http://www.w3.org/2000/svg">
<rect x="19.000000" y="19.000000" width="2036.000000" height="2036.000000" fill="black" />
<circle cx="933.960022" cy="1083.959961" r="19.980000" fill="red">
  <title>Tokyo</title>
</circle><line x1="1177.959961" y1="680.960022" x2="933.960022" y2="1083.959961" stroke="red" stroke-width="6.660000" />
<circle cx="867.960022" cy="1095.959961" r="19.980000" fill="red">
  <title>Mexico City</title>
</circle><line x1="933.960022" y1="1083.959961" x2="867.960022" y2="1095.959961" stroke="red" stroke-width="6.660000" />
<circle cx="470.959991" cy="988.960022" r="19.980000" fill="red">
  <title>Shanghai</title>
</circle><line x1="867.960022" y1="1095.959961" x2="470.959991" y2="988.960022" stroke="red" stroke-width="6.660000" />
<circle cx="153.959991" cy="393.959991" r="19.980000" fill="red">
  <title>Kolkata</title>
</circle><line x1="470.959991" y1="988.960022" x2="153.959991" y2="393.959991" stroke="red" stroke-width="6.660000" />
<circle cx="257.959991" cy="1044.959961" r="19.980000" fill="red">
  <title>Buenos Aires</title>
</circle><line x1="153.959991" y1="393.959991" x2="257.959991" y2="1044.959961" stroke="red" stroke-width="6.660000" />
<circle cx="227.959991" cy="1345.959961" r="19.980000" fill="red">
  <title>São Paulo</title>
</circle><line x1="257.959991" y1="1044.959961" x2="227.959991" y2="1345.959961" stroke="red" stroke-width="6.660000" />
<circle cx="129.959991" cy="1775.959961" r="19.980000" fill="red">
  <title>Dhaka</title>
</circle><line x1="227.959991" y1="1345.959961" x2="129.959991" y2="1775.959961" stroke="red" stroke-width="6.660000" />
<circle cx="601.960022" cy="2035.959961" r="19.980000" fill="red">
  <title>Delhi</title>
</circle><line x1="129.959991" y1="1775.959961" x2="601.960022" y2="2035.959961" stroke="red" stroke-width="6.660000" />
<circle cx="826.960022" cy="1489.959961" r="19.980000" fill="red">
  <title>Karachi</title>
</circle><line x1="601.960022" y1="2035.959961" x2="826.960022" y2="1489.959961" stroke="red" stroke-width="6.660000" />
<circle cx="1090.959961" cy="1268.959961" r="19.980000" fill="red">
  <title>Cairo</title>
</circle><line x1="826.960022" y1="1489.959961" x2="1090.959961" y2="1268.959961" stroke="red" stroke-width="6.660000" />
<circle cx="1620.959961" cy="1904.959961" r="19.980000" fill="red">
  <title>Mumbai</title>
</circle><line x1="1090.959961" y1="1268.959961" x2="1620.959961" y2="1904.959961" stroke="red" stroke-width="6.660000" />
<circle cx="1650.959961" cy="1378.959961" r="19.980000" fill="red">
  <title>Beijing</title>
</circle><line x1="1620.959961" y1="1904.959961" x2="1650.959961" y2="1378.959961" stroke="red" stroke-width="6.660000" />
<circle cx="1663.959961" cy="1115.959961" r="19.980000" fill="red">
  <title>New York</title>
</circle><line x1="1650.959961" y1="1378.959961" x2="1663.959961" y2="1115.959961" stroke="red" stroke-width="6.660000" />
<circle cx="1497.959961" cy="375.959991" r="19.980000" fill="red">
  <title>Istanbul</title>
</circle><line x1="1663.959961" y1="1115.959961" x2="1497.959961" y2="375.959991" stroke="red" stroke-width="6.660000" />
<circle cx="1402.959961" cy="258.959991" r="19.980000" fill="red">
  <title>Osaka</title>
</circle><line x1="1497.959961" y1="375.959991" x2="1402.959961" y2="258.959991" stroke="red" stroke-width="6.660000" />
<circle cx="1177.959961" cy="680.960022" r="19.980000" fill="red">
  <title>Chongqing</title>
</circle><line x1="1402.959961" y1="258.959991" x2="1177.959961" y2="680.960022" stroke="red" stroke-width="6.660000" />
</svg>
