<?xml version="1.0" encoding="UTF-8" standalone="no"?>
<svg width="500" height="500" viewBox="0 0 2074.000000 2074.000000" xmlns="http://www.w3.org/2000/svg">
<rect x="19.000000" y="19.000000" width="2036.000000" height="2036.000000" fill="black" />
<circle cx="1981.959961" cy="970.960022" r="19.980000" fill="red">
  <title>Tokyo</title>
</circle><line x1="1455.959961" y1="1339.959961" x2="1981.959961" y2="970.960022" stroke="red" stroke-width="6.660000" />
<circle cx="2030.959961" cy="464.959991" r="19.980000" fill="red">
  <title>Shanghai</title>
</circle><line x1="1981.959961" y1="970.960022" x2="2030.959961" y2="464.959991" stroke="red" stroke-width="6.660000" />
<circle cx="1941.959961" cy="936.960022" r="19.980000" fill="red">
  <title>São Paulo</title>
</circle><line x1="2030.959961" y1="464.959991" x2="1941.959961" y2="936.960022" stroke="red" stroke-width="6.660000" />
<circle cx="1078.959961" cy="1414.959961" r="19.980000" fill="red">
  <title>Delhi</title>
</circle><line x1="1941.959961" y1="936.960022" x2="1078.959961" y2="1414.959961" stroke="red" stroke-width="6.660000" />
<circle cx="324.959991" cy="674.960022" r="19.980000" fill="red">
  <title>Beijing</title>
</circle><line x1="1078.959961" y1="1414.959961" x2="324.959991" y2="674.960022" stroke="red" stroke-width="6.660000" />
<circle cx="104.959999" cy="65.959999" r="19.980000" fill="red">
  <title>Cairo</title>
</circle><line x1="324.959991" y1="674.960022" x2="104.959999" y2="65.959999" stroke="red" stroke-width="6.660000" />
<circle cx="497.959991" cy="743.960022" r="19.980000" fill="red">
  <title>Mexico City</title>
</circle><line x1="104.959999" y1="65.959999" x2="497.959991" y2="743.960022" stroke="red" stroke-width="6.660000" />
<circle cx="1455.959961" cy="1339.959961" r="19.980000" fill="red">
  <title>Mumbai</title>
</circle><line x1="497.959991" y1="743.960022" x2="1455.959961" y2="1339.959961" stroke="red" stroke-width="6.660000" />
</svg>
