<?xml version="1.0" encoding="UTF-8" standalone="no"?>
<svg width="500" height="500" viewBox="0 0 2074.000000 2074.000000" xmlns="http://www.w3.org/2000/svg">
<rect x="19.000000" y="19.000000" width="2036.000000" height="2036.000000" fill="black" />
<circle cx="1712.959961" cy="467.959991" r="19.980000" fill="red">
  <title>Tokyo</title>
</circle><line x1="1564.959961" y1="404.959991" x2="1712.959961" y2="467.959991" stroke="red" stroke-width="6.660000" />
<circle cx="1888.959961" cy="859.960022" r="19.980000" fill="red">
  <title>Chongqing</title>
</circle><line x1="1712.959961" y1="467.959991" x2="1888.959961" y2="859.960022" stroke="red" stroke-width="6.660000" />
<circle cx="1935.959961" cy="1214.959961" r="19.980000" fill="red">
  <title>Mumbai</title>
</circle><line x1="1888.959961" y1="859.960022" x2="1935.959961" y2="1214.959961" stroke="red" stroke-width="6.660000" />
<circle cx="1864.959961" cy="1441.959961" r="19.980000" fill="red">
  <title>Dhaka</title>
</circle><line x1="1935.959961" y1="1214.959961" x2="1864.959961" y2="1441.959961" stroke="red" stroke-width="6.660000" />
<circle cx="2001.959961" cy="1558.959961" r="19.980000" fill="red">
  <title>Beijing</title>
</circle><line x1="1864.959961" y1="1441.959961" x2="2001.959961" y2="1558.959961" stroke="red" stroke-width="6.660000" />
<circle cx="1809.959961" cy="2016.959961" r="19.980000" fill="red">
  <title>Cairo</title>
</circle><line x1="2001.959961" y1="1558.959961" x2="1809.959961" y2="2016.959961" stroke="red" stroke-width="6.660000" />
<circle cx="1694.959961" cy="1929.959961" r="19.980000" fill="red">
  <title>Osaka</title>
</circle><line x1="1809.959961" y1="2016.959961" x2="1694.959961" y2="1929.959961" stroke="red" stroke-width="6.660000" />
<circle cx="1362.959961" cy="1414.959961" r="19.980000" fill="red">
  <title>Lagos</title>
</circle><line x1="1694.959961" y1="1929.959961" x2="1362.959961" y2="1414.959961" stroke="red" stroke-width="6.660000" />
<circle cx="952.960022" cy="1234.959961" r="19.980000" fill="red">
  <title>Mexico City</title>
</circle><line x1="1362.959961" y1="1414.959961" x2="952.960022" y2="1234.959961" stroke="red" stroke-width="6.660000" />
<circle cx="625.960022" cy="1199.959961" r="19.980000" fill="red">
  <title>New York</title>
</circle><line x1="952.960022" y1="1234.959961" x2="625.960022" y2="1199.959961" stroke="red" stroke-width="6.660000" />
<circle cx="529.960022" cy="1238.959961" r="19.980000" fill="red">
  <title>Kolkata</title>
</circle><line x1="625.960022" y1="1199.959961" x2="529.960022" y2="1238.959961" stroke="red" stroke-width="6.660000" />
<circle cx="620.960022" cy="906.960022" r="19.980000" fill="red">
  <title>Shanghai</title>
</circle><line x1="529.960022" y1="1238.959961" x2="620.960022" y2="906.960022" stroke="red" stroke-width="6.660000" />
<circle cx="110.959999" cy="955.960022" r="19.980000" fill="red">
  <title>São Paulo</title>
</circle><line x1="620.960022" y1="906.960022" x2="110.959999" y2="955.960022" stroke="red" stroke-width="6.660000" />
<circle cx="201.959991" cy="162.959991" r="19.980000" fill="red">
  <title>Delhi</title>
</circle><line x1="110.959999" y1="955.960022" x2="201.959991" y2="162.959991" stroke="red" stroke-width="6.660000" />
<circle cx="777.960022" cy="524.960022" r="19.980000" fill="red">
  <title>Karachi</title>
</circle><line x1="201.959991" y1="162.959991" x2="777.960022" y2="524.960022" stroke="red" stroke-width="6.660000" />
<circle cx="833.960022" cy="692.960022" r="19.980000" fill="red">
  <title>Manila</title>
</circle><line x1="777.960022" y1="524.960022" x2="833.960022" y2="692.960022" stroke="red" stroke-width="6.660000" />
<circle cx="1022.960022" cy="872.960022" r="19.980000" fill="red">
  <title>Buenos Aires</title>
</circle><line x1="833.960022" y1="692.960022" x2="1022.960022" y2="872.960022" stroke="red" stroke-width="6.660000" />
<circle cx="1564.959961" cy="404.959991" r="19.980000" fill="red">
  <title>Istanbul</title>
</circle><line x1="1022.960022" y1="872.960022" x2="1564.959961" y2="404.959991" stroke="red" stroke-width="6.660000" />
</svg>
