<?xml version="1.0" encoding="UTF-8" standalone="no"?>
<svg width="500" height="500" viewBox="0 0 2074.000000 2074.000000" xmlns="http://www.w3.org/2000/svg">
<rect x="19.000000" y="19.000000" width="2036.000000" height="2036.000000" fill="black" />
<circle cx="958.960022" cy="1531.959961" r="19.980000" fill="red">
  <title>Tokyo</title>
</circle><line x1="104.959999" y1="1686.959961" x2="958.960022" y2="1531.959961" stroke="red" stroke-width="6.660000" />
<circle cx="1210.959961" cy="1383.959961" r="19.980000" fill="red">
  <title>Karachi</title>
</circle><line x1="958.960022" y1="1531.959961" x2="1210.959961" y2="1383.959961" stroke="red" stroke-width="6.660000" />
<circle cx="1660.959961" cy="1825.959961" r="19.980000" fill="red">
  <title>Shanghai</title>
</circle><line x1="1210.959961" y1="1383.959961" x2="1660.959961" y2="1825.959961" stroke="red" stroke-width="6.660000" />
<circle cx="1569.959961" cy="1206.959961" r="19.980000" fill="red">
  <title>Cairo</title>
</circle><line x1="1660.959961" y1="1825.959961" x2="1569.959961" y2="1206.959961" stroke="red" stroke-width="6.660000" />
<circle cx="1987.959961" cy="1211.959961" r="19.980000" fill="red">
  <title>Delhi</title>
</circle><line x1="1569.959961" y1="1206.959961" x2="1987.959961" y2="1211.959961" stroke="red" stroke-width="6.660000" />
<circle cx="1834.959961" cy="1139.959961" r="19.980000" fill="red">
  <title>Beijing</title>
</circle><line x1="1987.959961" y1="1211.959961" x2="1834.959961" y2="1139.959961" stroke="red" stroke-width="6.660000" />
<circle cx="1685.959961" cy="458.959991" r="19.980000" fill="red">
  <title>Kolkata</title>
</circle><line x1="1834.959961" y1="1139.959961" x2="1685.959961" y2="458.959991" stroke="red" stroke-width="6.660000" />
<circle cx="1538.959961" cy="128.959991" r="19.980000" fill="red">
  <title>Istanbul</title>
</circle><line x1="1685.959961" y1="458.959991" x2="1538.959961" y2="128.959991" stroke="red" stroke-width="6.660000" />
<circle cx="948.960022" cy="640.960022" r="19.980000" fill="red">
  <title>Dhaka</title>
</circle><line x1="1538.959961" y1="128.959991" x2="948.960022" y2="640.960022" stroke="red" stroke-width="6.660000" />
<circle cx="915.960022" cy="810.960022" r="19.980000" fill="red">
  <title>Mumbai</title>
</circle><line x1="948.960022" y1="640.960022" x2="915.960022" y2="810.960022" stroke="red" stroke-width="6.660000" />
<circle cx="593.960022" cy="461.959991" r="19.980000" fill="red">
  <title>São Paulo</title>
</circle><line x1="915.960022" y1="810.960022" x2="593.960022" y2="461.959991" stroke="red" stroke-width="6.660000" />
<circle cx="454.959991" cy="159.959991" r="19.980000" fill="red">
  <title>Chongqing</title>
</circle><line x1="593.960022" y1="461.959991" x2="454.959991" y2="159.959991" stroke="red" stroke-width="6.660000" />
<circle cx="210.959991" cy="267.959991" r="19.980000" fill="red">
  <title>New York</title>
</circle><line x1="454.959991" y1="159.959991" x2="210.959991" y2="267.959991" stroke="red" stroke-width="6.660000" />
<circle cx="482.959991" cy="658.960022" r="19.980000" fill="red">
  <title>Osaka</title>
</circle><line x1="210.959991" y1="267.959991" x2="482.959991" y2="658.960022" stroke="red" stroke-width="6.660000" />
<circle cx="92.959999" cy="885.960022" r="19.980000" fill="red">
  <title>Mexico City</title>
</circle><line x1="482.959991" y1="658.960022" x2="92.959999" y2="885.960022" stroke="red" stroke-width="6.660000" />
<circle cx="104.959999" cy="1686.959961" r="19.980000" fill="red">
  <title>Buenos Aires</title>
</circle><line x1="92.959999" y1="885.960022" x2="104.959999" y2="1686.959961" stroke="red" stroke-width="6.660000" />
</svg>
