<?xml version="1.0" encoding="UTF-8" standalone="no"?>
<svg width="500" height="500" viewBox="0 0 2074.000000 2074.000000" xmlns="http://www.w3.org/2000/svg">
<rect x="19.000000" y="19.000000" width="2036.000000" height="2036.000000" fill="black" />
<circle cx="53.959999" cy="1935.959961" r="19.980000" fill="red">
  <title>Tokyo</title>
</circle><line x1="522.960022" y1="1437.959961" x2="53.959999" y2="1935.959961" stroke="red" stroke-width="6.660000" />
<circle cx="730.960022" cy="1591.959961" r="19.980000" fill="red">
  <title>Shanghai</title>
</circle><line x1="53.959999" y1="1935.959961" x2="730.960022" y2="1591.959961" stroke="red" stroke-width="6.660000" />
<circle cx="1980.959961" cy="221.959991" r="19.980000" fill="red">
  <title>Delhi</title>
</circle><line x1="730.960022" y1="1591.959961" x2="1980.959961" y2="221.959991" stroke="red" stroke-width="6.660000" />
<circle cx="683.960022" cy="454.959991" r="19.980000" fill="red">
  <title>Mexico City</title>
</circle><line x1="1980.959961" y1="221.959991" x2="683.960022" y2="454.959991" stroke="red" stroke-width="6.660000" />
<circle cx="522.960022" cy="1437.959961" r="19.980000" fill="red">
  <title>São Paulo</title>
</circle><line x1="683.960022" y1="454.959991" x2="522.960022" y2="1437.959961" stroke="red" stroke-width="6.660000" />
</svg>
