<?xml version="1.0" encoding="UTF-8" standalone="no"?>
<svg width="500" height="500" viewBox="0 0 2074.000000 2074.000000" xmlns="http://www.w3.org/2000/svg">
<rect x="19.000000" y="19.000000" width="2036.000000" height="2036.000000" fill="black" />
<circle cx="2025.959961" cy="1189.959961" r="19.980000" fill="red">
  <title>Tokyo</title>
</circle><line x1="1784.959961" y1="967.960022" x2="2025.959961" y2="1189.959961" stroke="red" stroke-width="6.660000" />
<circle cx="1673.959961" cy="418.959991" r="19.980000" fill="red">
  <title>Delhi</title>
</circle><line x1="2025.959961" y1="1189.959961" x2="1673.959961" y2="418.959991" stroke="red" stroke-width="6.660000" />
<circle cx="405.959991" cy="171.959991" r="19.980000" fill="red">
  <title>Shanghai</title>
</circle><line x1="1673.959961" y1="418.959991" x2="405.959991" y2="171.959991" stroke="red" stroke-width="6.660000" />
<circle cx="688.960022" cy="614.960022" r="19.980000" fill="red">
  <title>Mexico City</title>
</circle><line x1="405.959991" y1="171.959991" x2="688.960022" y2="614.960022" stroke="red" stroke-width="6.660000" />
<circle cx="1784.959961" cy="967.960022" r="19.980000" fill="red">
  <title>São Paulo</title>
</circle><line x1="688.960022" y1="614.960022" x2="1784.959961" y2="967.960022" stroke="red" stroke-width="6.660000" />
</svg>
