<?xml version="1.0" encoding="UTF-8" standalone="no"?>
<svg width="500" height="500" viewBox="0 0 2074.000000 2074.000000" xmlns="http://www.w3.org/2000/svg">
<rect x="19.000000" y="19.000000" width="2036.000000" height="2036.000000" fill="black" />
<circle cx="1083.959961" cy="1594.959961" r="19.980000" fill="red">
  <title>Tokyo</title>
</circle><line x1="868.960022" y1="1914.959961" x2="1083.959961" y2="1594.959961" stroke="red" stroke-width="6.660000" />
<circle cx="1687.959961" cy="1577.959961" r="19.980000" fill="red">
  <title>São Paulo</title>
</circle><line x1="1083.959961" y1="1594.959961" x2="1687.959961" y2="1577.959961" stroke="red" stroke-width="6.660000" />
<circle cx="1938.959961" cy="1981.959961" r="19.980000" fill="red">
  <title>Mumbai</title>
</circle><line x1="1687.959961" y1="1577.959961" x2="1938.959961" y2="1981.959961" stroke="red" stroke-width="6.660000" />
<circle cx="1998.959961" cy="1796.959961" r="19.980000" fill="red">
  <title>Karachi</title>
</circle><line x1="1938.959961" y1="1981.959961" x2="1998.959961" y2="1796.959961" stroke="red" stroke-width="6.660000" />
<circle cx="1854.959961" cy="1578.959961" r="19.980000" fill="red">
  <title>Osaka</title>
</circle><line x1="1998.959961" y1="1796.959961" x2="1854.959961" y2="1578.959961" stroke="red" stroke-width="6.660000" />
<circle cx="1434.959961" cy="1063.959961" r="19.980000" fill="red">
  <title>Mexico City</title>
</circle><line x1="1854.959961" y1="1578.959961" x2="1434.959961" y2="1063.959961" stroke="red" stroke-width="6.660000" />
<circle cx="1706.959961" cy="58.959999" r="19.980000" fill="red">
  <title>Beijing</title>
</circle><line x1="1434.959961" y1="1063.959961" x2="1706.959961" y2="58.959999" stroke="red" stroke-width="6.660000" />
<circle cx="491.959991" cy="588.960022" r="19.980000" fill="red">
  <title>New York</title>
</circle><line x1="1706.959961" y1="58.959999" x2="491.959991" y2="588.960022" stroke="red" stroke-width="6.660000" />
<circle cx="303.959991" cy="245.959991" r="19.980000" fill="red">
  <title>Chongqing</title>
</circle><line x1="491.959991" y1="588.960022" x2="303.959991" y2="245.959991" stroke="red" stroke-width="6.660000" />
<circle cx="40.959999" cy="804.960022" r="19.980000" fill="red">
  <title>Cairo</title>
</circle><line x1="303.959991" y1="245.959991" x2="40.959999" y2="804.960022" stroke="red" stroke-width="6.660000" />
<circle cx="309.959991" cy="790.960022" r="19.980000" fill="red">
  <title>Buenos Aires</title>
</circle><line x1="40.959999" y1="804.960022" x2="309.959991" y2="790.960022" stroke="red" stroke-width="6.660000" />
<circle cx="946.960022" cy="1050.959961" r="19.980000" fill="red">
  <title>Shanghai</title>
</circle><line x1="309.959991" y1="790.960022" x2="946.960022" y2="1050.959961" stroke="red" stroke-width="6.660000" />
<circle cx="863.960022" cy="1776.959961" r="19.980000" fill="red">
  <title>Delhi</title>
</circle><line x1="946.960022" y1="1050.959961" x2="863.960022" y2="1776.959961" stroke="red" stroke-width="6.660000" />
<circle cx="868.960022" cy="1914.959961" r="19.980000" fill="red">
  <title>Dhaka</title>
</circle><line x1="863.960022" y1="1776.959961" x2="868.960022" y2="1914.959961" stroke="red" stroke-width="6.660000" />
</svg>
