<?xml version="1.0" encoding="UTF-8" standalone="no"?>
<svg width="500" height="500" viewBox="0 0 2074.000000 2074.000000" xmlns="http://www.w3.org/2000/svg">
<rect x="19.000000" y="19.000000" width="2036.000000" height="2036.000000" fill="black" />
<circle cx="1164.959961" cy="414.959991" r="19.980000" fill="red">
  <title>Tokyo</title>
</circle><line x1="425.959991" y1="77.959999" x2="1164.959961" y2="414.959991" stroke="red" stroke-width="6.660000" />
<circle cx="945.960022" cy="902.960022" r="19.980000" fill="red">
  <title>São Paulo</title>
</circle><line x1="1164.959961" y1="414.959991" x2="945.960022" y2="902.960022" stroke="red" stroke-width="6.660000" />
<circle cx="1335.959961" cy="1488.959961" r="19.980000" fill="red">
  <title>Mexico City</title>
</circle><line x1="945.960022" y1="902.960022" x2="1335.959961" y2="1488.959961" stroke="red" stroke-width="6.660000" />
<circle cx="1399.959961" cy="1812.959961" r="19.980000" fill="red">
  <title>Dhaka</title>
</circle><line x1="1335.959961" y1="1488.959961" x2="1399.959961" y2="1812.959961" stroke="red" stroke-width="6.660000" />
<circle cx="997.960022" cy="1952.959961" r="19.980000" fill="red">
  <title>Beijing</title>
</circle><line x1="1399.959961" y1="1812.959961" x2="997.960022" y2="1952.959961" stroke="red" stroke-width="6.660000" />
<circle cx="1013.960022" cy="1189.959961" r="19.980000" fill="red">
  <title>Cairo</title>
</circle><line x1="997.960022" y1="1952.959961" x2="1013.960022" y2="1189.959961" stroke="red" stroke-width="6.660000" />
<circle cx="407.959991" cy="787.960022" r="19.980000" fill="red">
  <title>Delhi</title>
</circle><line x1="1013.960022" y1="1189.959961" x2="407.959991" y2="787.960022" stroke="red" stroke-width="6.660000" />
<circle cx="75.959999" cy="386.959991" r="19.980000" fill="red">
  <title>Shanghai</title>
</circle><line x1="407.959991" y1="787.960022" x2="75.959999" y2="386.959991" stroke="red" stroke-width="6.660000" />
<circle cx="425.959991" cy="77.959999" r="19.980000" fill="red">
  <title>Mumbai</title>
</circle><line x1="75.959999" y1="386.959991" x2="425.959991" y2="77.959999" stroke="red" stroke-width="6.660000" />
</svg>
