<?xml version="1.0" encoding="UTF-8" standalone="no"?>
<svg width="500" height="500" viewBox="0 0 2074.000000 2074.000000" xmlns="http://www.w3.org/2000/svg">
<rect x="19.000000" y="19.000000" width="2036.000000" height="2036.000000" fill="black" />
<circle cx="702.960022" cy="1868.959961" r="19.980000" fill="red">
  <title>Tokyo</title>
</circle><line x1="815.960022" y1="1996.959961" x2="702.960022" y2="1868.959961" stroke="red" stroke-width="6.660000" />
<circle cx="520.960022" cy="1771.959961" r="19.980000" fill="red">
  <title>Chongqing</title>
</circle><line x1="702.960022" y1="1868.959961" x2="520.960022" y2="1771.959961" stroke="red" stroke-width="6.660000" />
<circle cx="490.959991" cy="1674.959961" r="19.980000" fill="red">
  <title>Mumbai</title>
</circle><line x1="520.960022" y1="1771.959961" x2="490.959991" y2="1674.959961" stroke="red" stroke-width="6.660000" />
<circle cx="625.960022" cy="1040.959961" r="19.980000" fill="red">
  <title>Lagos</title>
</circle><line x1="490.959991" y1="1674.959961" x2="625.960022" y2="1040.959961" stroke="red" stroke-width="6.660000" />
<circle cx="403.959991" cy="820.960022" r="19.980000" fill="red">
  <title>Karachi</title>
</circle><line x1="625.960022" y1="1040.959961" x2="403.959991" y2="820.960022" stroke="red" stroke-width="6.660000" />
<circle cx="610.960022" cy="655.960022" r="19.980000" fill="red">
  <title>Osaka</title>
</circle><line x1="403.959991" y1="820.960022" x2="610.960022" y2="655.960022" stroke="red" stroke-width="6.660000" />
<circle cx="155.959991" cy="378.959991" r="19.980000" fill="red">
  <title>São Paulo</title>
</circle><line x1="610.960022" y1="655.960022" x2="155.959991" y2="378.959991" stroke="red" stroke-width="6.660000" />
<circle cx="779.960022" cy="182.959991" r="19.980000" fill="red">
  <title>New York</title>
</circle><line x1="155.959991" y1="378.959991" x2="779.960022" y2="182.959991" stroke="red" stroke-width="6.660000" />
<circle cx="1535.959961" cy="585.960022" r="19.980000" fill="red">
  <title>Cairo</title>
</circle><line x1="779.960022" y1="182.959991" x2="1535.959961" y2="585.960022" stroke="red" stroke-width="6.660000" />
<circle cx="1659.959961" cy="618.960022" r="19.980000" fill="red">
  <title>Dhaka</title>
</circle><line x1="1535.959961" y1="585.960022" x2="1659.959961" y2="618.960022" stroke="red" stroke-width="6.660000" />
<circle cx="1838.959961" cy="1184.959961" r="19.980000" fill="red">
  <title>Delhi</title>
</circle><line x1="1659.959961" y1="618.960022" x2="1838.959961" y2="1184.959961" stroke="red" stroke-width="6.660000" />
<circle cx="1827.959961" cy="1347.959961" r="19.980000" fill="red">
  <title>Manila</title>
</circle><line x1="1838.959961" y1="1184.959961" x2="1827.959961" y2="1347.959961" stroke="red" stroke-width="6.660000" />
<circle cx="1546.959961" cy="1479.959961" r="19.980000" fill="red">
  <title>Kolkata</title>
</circle><line x1="1827.959961" y1="1347.959961" x2="1546.959961" y2="1479.959961" stroke="red" stroke-width="6.660000" />
<circle cx="1954.959961" cy="1795.959961" r="19.980000" fill="red">
  <title>Buenos Aires</title>
</circle><line x1="1546.959961" y1="1479.959961" x2="1954.959961" y2="1795.959961" stroke="red" stroke-width="6.660000" />
<circle cx="1838.959961" cy="1979.959961" r="19.980000" fill="red">
  <title>Beijing</title>
</circle><line x1="1954.959961" y1="1795.959961" x2="1838.959961" y2="1979.959961" stroke="red" stroke-width="6.660000" />
<circle cx="1743.959961" cy="1922.959961" r="19.980000" fill="red">
  <title>Mexico City</title>
</circle><line x1="1838.959961" y1="1979.959961" x2="1743.959961" y2="1922.959961" stroke="red" stroke-width="6.660000" />
<circle cx="1251.959961" cy="1800.959961" r="19.980000" fill="red">
  <title>Shanghai</title>
</circle><line x1="1743.959961" y1="1922.959961" x2="1251.959961" y2="1800.959961" stroke="red" stroke-width="6.660000" />
<circle cx="815.960022" cy="1996.959961" r="19.980000" fill="red">
  <title>Istanbul</title>
</circle><line x1="1251.959961" y1="1800.959961" x2="815.960022" y2="1996.959961" stroke="red" stroke-width="6.660000" />
</svg>
