<?xml version="1.0" encoding="UTF-8" standalone="no"?>
<svg width="500" height="500" viewBox="0 0 2074.000000 2074.000000" xmlns="http://www.w3.org/2000/svg">
<rect x="19.000000" y="19.000000" width="2036.000000" height="2036.000000" fill="black" />
<circle cx="2015.959961" cy="935.960022" r="19.980000" fill="red">
  <title>Tokyo</title>
</circle><line x1="2006.959961" y1="721.960022" x2="2015.959961" y2="935.960022" stroke="red" stroke-width="6.660000" />
<circle cx="1669.959961" cy="1258.959961" r="19.980000" fill="red">
  <title>São Paulo</title>
</circle><line x1="2015.959961" y1="935.960022" x2="1669.959961" y2="1258.959961" stroke="red" stroke-width="6.660000" />
<circle cx="1775.959961" cy="2029.959961" r="19.980000" fill="red">
  <title>Osaka</title>
</circle><line x1="1669.959961" y1="1258.959961" x2="1775.959961" y2="2029.959961" stroke="red" stroke-width="6.660000" />
<circle cx="1447.959961" cy="1832.959961" r="19.980000" fill="red">
  <title>New York</title>
</circle><line x1="1775.959961" y1="2029.959961" x2="1447.959961" y2="1832.959961" stroke="red" stroke-width="6.660000" />
<circle cx="1304.959961" cy="1716.959961" r="19.980000" fill="red">
  <title>Beijing</title>
</circle><line x1="1447.959961" y1="1832.959961" x2="1304.959961" y2="1716.959961" stroke="red" stroke-width="6.660000" />
<circle cx="835.960022" cy="1536.959961" r="19.980000" fill="red">
  <title>Chongqing</title>
</circle><line x1="1304.959961" y1="1716.959961" x2="835.960022" y2="1536.959961" stroke="red" stroke-width="6.660000" />
<circle cx="783.960022" cy="1142.959961" r="19.980000" fill="red">
  <title>Buenos Aires</title>
</circle><line x1="835.960022" y1="1536.959961" x2="783.960022" y2="1142.959961" stroke="red" stroke-width="6.660000" />
<circle cx="712.960022" cy="1047.959961" r="19.980000" fill="red">
  <title>Karachi</title>
</circle><line x1="783.960022" y1="1142.959961" x2="712.960022" y2="1047.959961" stroke="red" stroke-width="6.660000" />
<circle cx="888.960022" cy="453.959991" r="19.980000" fill="red">
  <title>Shanghai</title>
</circle><line x1="712.960022" y1="1047.959961" x2="888.960022" y2="453.959991" stroke="red" stroke-width="6.660000" />
<circle cx="1046.959961" cy="457.959991" r="19.980000" fill="red">
  <title>Mumbai</title>
</circle><line x1="888.960022" y1="453.959991" x2="1046.959961" y2="457.959991" stroke="red" stroke-width="6.660000" />
<circle cx="1509.959961" cy="140.959991" r="19.980000" fill="red">
  <title>Mexico City</title>
</circle><line x1="1046.959961" y1="457.959991" x2="1509.959961" y2="140.959991" stroke="red" stroke-width="6.660000" />
<circle cx="1243.959961" cy="635.960022" r="19.980000" fill="red">
  <title>Istanbul</title>
</circle><line x1="1509.959961" y1="140.959991" x2="1243.959961" y2="635.960022" stroke="red" stroke-width="6.660000" />
<circle cx="1282.959961" cy="902.960022" r="19.980000" fill="red">
  <title>Cairo</title>
</circle><line x1="1243.959961" y1="635.960022" x2="1282.959961" y2="902.960022" stroke="red" stroke-width="6.660000" />
<circle cx="1688.959961" cy="753.960022" r="19.980000" fill="red">
  <title>Delhi</title>
</circle><line x1="1282.959961" y1="902.960022" x2="1688.959961" y2="753.960022" stroke="red" stroke-width="6.660000" />
<circle cx="2006.959961" cy="721.960022" r="19.980000" fill="red">
  <title>Dhaka</title>
</circle><line x1="1688.959961" y1="753.960022" x2="2006.959961" y2="721.960022" stroke="red" stroke-width="6.660000" />
</svg>
