<?xml version="1.0" encoding="UTF-8" standalone="no"?>
<svg width="500" height="500" viewBox="0 0 2074.000000 2074.000000" xmlns="http://www.w3.org/2000/svg">
<rect x="19.000000" y="19.000000" width="2036.000000" height="2036.000000" fill="black" />
<circle cx="1951.959961" cy="1021.960022" r="19.980000" fill="red">
  <title>Tokyo</title>
</circle><line x1="2001.959961" y1="1686.959961" x2="1951.959961" y2="1021.960022" stroke="red" stroke-width="6.660000" />
<circle cx="1658.959961" cy="1413.959961" r="19.980000" fill="red">
  <title>Delhi</title>
</circle><line x1="1951.959961" y1="1021.960022" x2="1658.959961" y2="1413.959961" stroke="red" stroke-width="6.660000" />
<circle cx="823.960022" cy="971.960022" r="19.980000" fill="red">
  <title>Istanbul</title>
</circle><line x1="1658.959961" y1="1413.959961" x2="823.960022" y2="971.960022" stroke="red" stroke-width="6.660000" />
<circle cx="872.960022" cy="869.960022" r="19.980000" fill="red">
  <title>Osaka</title>
</circle><line x1="823.960022" y1="971.960022" x2="872.960022" y2="869.960022" stroke="red" stroke-width="6.660000" />
<circle cx="968.960022" cy="792.960022" r="19.980000" fill="red">
  <title>Chongqing</title>
</circle><line x1="872.960022" y1="869.960022" x2="968.960022" y2="792.960022" stroke="red" stroke-width="6.660000" />
<circle cx="1235.959961" cy="468.959991" r="19.980000" fill="red">
  <title>Shanghai</title>
</circle><line x1="968.960022" y1="792.960022" x2="1235.959961" y2="468.959991" stroke="red" stroke-width="6.660000" />
<circle cx="943.960022" cy="90.959999" r="19.980000" fill="red">
  <title>New York</title>
</circle><line x1="1235.959961" y1="468.959991" x2="943.960022" y2="90.959999" stroke="red" stroke-width="6.660000" />
<circle cx="352.959991" cy="128.959991" r="19.980000" fill="red">
  <title>Dhaka</title>
</circle><line x1="943.960022" y1="90.959999" x2="352.959991" y2="128.959991" stroke="red" stroke-width="6.660000" />
<circle cx="409.959991" cy="737.960022" r="19.980000" fill="red">
  <title>Kolkata</title>
</circle><line x1="352.959991" y1="128.959991" x2="409.959991" y2="737.960022" stroke="red" stroke-width="6.660000" />
<circle cx="310.959991" cy="873.960022" r="19.980000" fill="red">
  <title>Mexico City</title>
</circle><line x1="409.959991" y1="737.960022" x2="310.959991" y2="873.960022" stroke="red" stroke-width="6.660000" />
<circle cx="300.959991" cy="1286.959961" r="19.980000" fill="red">
  <title>Cairo</title>
</circle><line x1="310.959991" y1="873.960022" x2="300.959991" y2="1286.959961" stroke="red" stroke-width="6.660000" />
<circle cx="309.959991" cy="1522.959961" r="19.980000" fill="red">
  <title>Buenos Aires</title>
</circle><line x1="300.959991" y1="1286.959961" x2="309.959991" y2="1522.959961" stroke="red" stroke-width="6.660000" />
<circle cx="245.959991" cy="1992.959961" r="19.980000" fill="red">
  <title>Beijing</title>
</circle><line x1="309.959991" y1="1522.959961" x2="245.959991" y2="1992.959961" stroke="red" stroke-width="6.660000" />
<circle cx="1389.959961" cy="1884.959961" r="19.980000" fill="red">
  <title>São Paulo</title>
</circle><line x1="245.959991" y1="1992.959961" x2="1389.959961" y2="1884.959961" stroke="red" stroke-width="6.660000" />
<circle cx="1953.959961" cy="2028.959961" r="19.980000" fill="red">
  <title>Manila</title>
</circle><line x1="1389.959961" y1="1884.959961" x2="1953.959961" y2="2028.959961" stroke="red" stroke-width="6.660000" />
<circle cx="1924.959961" cy="1913.959961" r="19.980000" fill="red">
  <title>Mumbai</title>
</circle><line x1="1953.959961" y1="2028.959961" x2="1924.959961" y2="1913.959961" stroke="red" stroke-width="6.660000" />
<circle cx="2001.959961" cy="1686.959961" r="19.980000" fill="red">
  <title>Karachi</title>
</circle><line x1="1924.959961" y1="1913.959961" x2="2001.959961" y2="1686.959961" stroke="red" stroke-width="6.660000" />
</svg>
