<?xml version="1.0" encoding="UTF-8" standalone="no"?>
<svg width="500" height="500" viewBox="0 0 2074.000000 2074.000000" xmlns="http://www.w3.org/2000/svg">
<rect x="19.000000" y="19.000000" width="2036.000000" height="2036.000000" fill="black" />
<circle cx="1419.959961" cy="1073.959961" r="19.980000" fill="red">
  <title>Tokyo</title>
</circle><line x1="1129.959961" y1="1065.959961" x2="1419.959961" y2="1073.959961" stroke="red" stroke-width="6.660000" />
<circle cx="1609.959961" cy="748.960022" r="19.980000" fill="red">
  <title>Delhi</title>
</circle><line x1="1419.959961" y1="1073.959961" x2="1609.959961" y2="748.960022" stroke="red" stroke-width="6.660000" />
<circle cx="1327.959961" cy="500.959991" r="19.980000" fill="red">
  <title>Beijing</title>
</circle><line x1="1609.959961" y1="748.960022" x2="1327.959961" y2="500.959991" stroke="red" stroke-width="6.660000" />
<circle cx="1214.959961" cy="352.959991" r="19.980000" fill="red">
  <title>Mexico City</title>
</circle><line x1="1327.959961" y1="500.959991" x2="1214.959961" y2="352.959991" stroke="red" stroke-width="6.660000" />
<circle cx="350.959991" cy="105.959999" r="19.980000" fill="red">
  <title>Osaka</title>
</circle><line x1="1214.959961" y1="352.959991" x2="350.959991" y2="105.959999" stroke="red" stroke-width="6.660000" />
<circle cx="339.959991" cy="371.959991" r="19.980000" fill="red">
  <title>Dhaka</title>
</circle><line x1="350.959991" y1="105.959999" x2="339.959991" y2="371.959991" stroke="red" stroke-width="6.660000" />
<circle cx="314.959991" cy="1061.959961" r="19.980000" fill="red">
  <title>São Paulo</title>
</circle><line x1="339.959991" y1="371.959991" x2="314.959991" y2="1061.959961" stroke="red" stroke-width="6.660000" />
<circle cx="1002.960022" cy="1160.959961" r="19.980000" fill="red">
  <title>Shanghai</title>
</circle><line x1="314.959991" y1="1061.959961" x2="1002.960022" y2="1160.959961" stroke="red" stroke-width="6.660000" />
<circle cx="955.960022" cy="1603.959961" r="19.980000" fill="red">
  <title>Cairo</title>
</circle><line x1="1002.960022" y1="1160.959961" x2="955.960022" y2="1603.959961" stroke="red" stroke-width="6.660000" />
<circle cx="1129.959961" cy="1065.959961" r="19.980000" fill="red">
  <title>Mumbai</title>
</circle><line x1="955.960022" y1="1603.959961" x2="1129.959961" y2="1065.959961" stroke="red" stroke-width="6.660000" />
</svg>
