<?xml version="1.0" encoding="UTF-8" standalone="no"?>
<svg width="500" height="500" viewBox="0 0 2074.000000 2074.000000" xmlns="http://www.w3.org/2000/svg">
<rect x="19.000000" y="19.000000" width="2036.000000" height="2036.000000" fill="black" />
<circle cx="1245.959961" cy="449.959991" r="19.980000" fill="red">
  <title>Tokyo</title>
</circle><line x1="712.960022" y1="688.960022" x2="1245.959961" y2="449.959991" stroke="red" stroke-width="6.660000" />
<circle cx="1697.959961" cy="452.959991" r="19.980000" fill="red">
  <title>Cairo</title>
</circle><line x1="1245.959961" y1="449.959991" x2="1697.959961" y2="452.959991" stroke="red" stroke-width="6.660000" />
<circle cx="1481.959961" cy="652.960022" r="19.980000" fill="red">
  <title>Istanbul</title>
</circle><line x1="1697.959961" y1="452.959991" x2="1481.959961" y2="652.960022" stroke="red" stroke-width="6.660000" />
<circle cx="1375.959961" cy="665.960022" r="19.980000" fill="red">
  <title>Shanghai</title>
</circle><line x1="1481.959961" y1="652.960022" x2="1375.959961" y2="665.960022" stroke="red" stroke-width="6.660000" />
<circle cx="1393.959961" cy="838.960022" r="19.980000" fill="red">
  <title>New York</title>
</circle><line x1="1375.959961" y1="665.960022" x2="1393.959961" y2="838.960022" stroke="red" stroke-width="6.660000" />
<circle cx="1525.959961" cy="986.960022" r="19.980000" fill="red">
  <title>Chongqing</title>
</circle><line x1="1393.959961" y1="838.960022" x2="1525.959961" y2="986.960022" stroke="red" stroke-width="6.660000" />
<circle cx="1472.959961" cy="1212.959961" r="19.980000" fill="red">
  <title>Dhaka</title>
</circle><line x1="1525.959961" y1="986.960022" x2="1472.959961" y2="1212.959961" stroke="red" stroke-width="6.660000" />
<circle cx="1558.959961" cy="1523.959961" r="19.980000" fill="red">
  <title>Buenos Aires</title>
</circle><line x1="1472.959961" y1="1212.959961" x2="1558.959961" y2="1523.959961" stroke="red" stroke-width="6.660000" />
<circle cx="1365.959961" cy="1413.959961" r="19.980000" fill="red">
  <title>São Paulo</title>
</circle><line x1="1558.959961" y1="1523.959961" x2="1365.959961" y2="1413.959961" stroke="red" stroke-width="6.660000" />
<circle cx="1149.959961" cy="1478.959961" r="19.980000" fill="red">
  <title>Mumbai</title>
</circle><line x1="1365.959961" y1="1413.959961" x2="1149.959961" y2="1478.959961" stroke="red" stroke-width="6.660000" />
<circle cx="1159.959961" cy="1822.959961" r="19.980000" fill="red">
  <title>Beijing</title>
</circle><line x1="1149.959961" y1="1478.959961" x2="1159.959961" y2="1822.959961" stroke="red" stroke-width="6.660000" />
<circle cx="1180.959961" cy="1887.959961" r="19.980000" fill="red">
  <title>Karachi</title>
</circle><line x1="1159.959961" y1="1822.959961" x2="1180.959961" y2="1887.959961" stroke="red" stroke-width="6.660000" />
<circle cx="802.960022" cy="1605.959961" r="19.980000" fill="red">
  <title>Osaka</title>
</circle><line x1="1180.959961" y1="1887.959961" x2="802.960022" y2="1605.959961" stroke="red" stroke-width="6.660000" />
<circle cx="667.960022" cy="1601.959961" r="19.980000" fill="red">
  <title>Delhi</title>
</circle><line x1="802.960022" y1="1605.959961" x2="667.960022" y2="1601.959961" stroke="red" stroke-width="6.660000" />
<circle cx="1063.959961" cy="1340.959961" r="19.980000" fill="red">
  <title>Manila</title>
</circle><line x1="667.960022" y1="1601.959961" x2="1063.959961" y2="1340.959961" stroke="red" stroke-width="6.660000" />
<circle cx="844.960022" cy="937.960022" r="19.980000" fill="red">
  <title>Mexico City</title>
</circle><line x1="1063.959961" y1="1340.959961" x2="844.960022" y2="937.960022" stroke="red" stroke-width="6.660000" />
<circle cx="251.959991" cy="400.959991" r="19.980000" fill="red">
  <title>Lagos</title>
</circle><line x1="844.960022" y1="937.960022" x2="251.959991" y2="400.959991" stroke="red" stroke-width="6.660000" />
<circle cx="712.960022" cy="688.960022" r="19.980000" fill="red">
  <title>Kolkata</title>
</circle><line x1="251.959991" y1="400.959991" x2="712.960022" y2="688.960022" stroke="red" stroke-width="6.660000" />
</svg>
