<?xml version="1.0" encoding="UTF-8" standalone="no"?>
<svg width="500" height="500" viewBox="0 0 2074.000000 2074.000000" xmlns="http://www.w3.org/2000/svg">
<rect x="19.000000" y="19.000000" width="2036.000000" height="2036.000000" fill="black" />
<circle cx="467.959991" cy="249.959991" r="19.980000" fill="red">
  <title>Tokyo</title>
</circle><line x1="295.959991" y1="65.959999" x2="467.959991" y2="249.959991" stroke="red" stroke-width="6.660000" />
<circle cx="1237.959961" cy="600.960022" r="19.980000" fill="red">
  <title>Shanghai</title>
</circle><line x1="467.959991" y1="249.959991" x2="1237.959961" y2="600.960022" stroke="red" stroke-width="6.660000" />
<circle cx="379.959991" cy="999.960022" r="19.980000" fill="red">
  <title>Delhi</title>
</circle><line x1="1237.959961" y1="600.960022" x2="379.959991" y2="999.960022" stroke="red" stroke-width="6.660000" />
<circle cx="295.959991" cy="65.959999" r="19.980000" fill="red">
  <title>São Paulo</title>
</circle><line x1="379.959991" y1="999.960022" x2="295.959991" y2="65.959999" stroke="red" stroke-width="6.660000" />
</svg>
