<?xml version="1.0" encoding="UTF-8" standalone="no"?>
<svg width="500" height="500" viewBox="0 0 2074.000000 2074.000000" xmlns="http://www.w3.org/2000/svg">
<rect x="19.000000" y="19.000000" width="2036.000000" height="2036.000000" fill="black" />
<circle cx="893.960022" cy="302.959991" r="19.980000" fill="red">
  <title>Tokyo</title>
</circle><line x1="1195.959961" y1="853.960022" x2="893.960022" y2="302.959991" stroke="red" stroke-width="6.660000" />
<circle cx="229.959991" cy="497.959991" r="19.980000" fill="red">
  <title>São Paulo</title>
</circle><line x1="893.960022" y1="302.959991" x2="229.959991" y2="497.959991" stroke="red" stroke-width="6.660000" />
<circle cx="172.959991" cy="549.960022" r="19.980000" fill="red">
  <title>Mumbai</title>
</circle><line x1="229.959991" y1="497.959991" x2="172.959991" y2="549.960022" stroke="red" stroke-width="6.660000" />
<circle cx="598.960022" cy="1254.959961" r="19.980000" fill="red">
  <title>Cairo</title>
</circle><line x1="172.959991" y1="549.960022" x2="598.960022" y2="1254.959961" stroke="red" stroke-width="6.660000" />
<circle cx="455.959991" cy="1416.959961" r="19.980000" fill="red">
  <title>Dhaka</title>
</circle><line x1="598.960022" y1="1254.959961" x2="455.959991" y2="1416.959961" stroke="red" stroke-width="6.660000" />
<circle cx="1326.959961" cy="1646.959961" r="19.980000" fill="red">
  <title>Shanghai</title>
</circle><line x1="455.959991" y1="1416.959961" x2="1326.959961" y2="1646.959961" stroke="red" stroke-width="6.660000" />
<circle cx="1757.959961" cy="1874.959961" r="19.980000" fill="red">
  <title>Osaka</title>
</circle><line x1="1326.959961" y1="1646.959961" x2="1757.959961" y2="1874.959961" stroke="red" stroke-width="6.660000" />
<circle cx="1841.959961" cy="1834.959961" r="19.980000" fill="red">
  <title>Mexico City</title>
</circle><line x1="1757.959961" y1="1874.959961" x2="1841.959961" y2="1834.959961" stroke="red" stroke-width="6.660000" />
<circle cx="1481.959961" cy="1289.959961" r="19.980000" fill="red">
  <title>Delhi</title>
</circle><line x1="1841.959961" y1="1834.959961" x2="1481.959961" y2="1289.959961" stroke="red" stroke-width="6.660000" />
<circle cx="1195.959961" cy="853.960022" r="19.980000" fill="red">
  <title>Beijing</title>
</circle><line x1="1481.959961" y1="1289.959961" x2="1195.959961" y2="853.960022" stroke="red" stroke-width="6.660000" />
</svg>
