<?xml version="1.0" encoding="UTF-8" standalone="no"?>
<svg width="500" height="500" viewBox="0 0 2074.000000 2074.000000" xmlns="http://www.w3.org/2000/svg">
<rect x="19.000000" y="19.000000" width="2036.000000" height="2036.000000" fill="black" />
<circle cx="1227.959961" cy="1025.959961" r="19.980000" fill="red">
  <title>Tokyo</title>
</circle><line x1="1498.959961" y1="503.959991" x2="1227.959961" y2="1025.959961" stroke="red" stroke-width="6.660000" />
<circle cx="1100.959961" cy="889.960022" r="19.980000" fill="red">
  <title>Karachi</title>
</circle><line x1="1227.959961" y1="1025.959961" x2="1100.959961" y2="889.960022" stroke="red" stroke-width="6.660000" />
<circle cx="1071.959961" cy="867.960022" r="19.980000" fill="red">
  <title>Buenos Aires</title>
</circle><line x1="1100.959961" y1="889.960022" x2="1071.959961" y2="867.960022" stroke="red" stroke-width="6.660000" />
<circle cx="968.960022" cy="518.960022" r="19.980000" fill="red">
  <title>Cairo</title>
</circle><line x1="1071.959961" y1="867.960022" x2="968.960022" y2="518.960022" stroke="red" stroke-width="6.660000" />
<circle cx="672.960022" cy="285.959991" r="19.980000" fill="red">
  <title>Shanghai</title>
</circle><line x1="968.960022" y1="518.960022" x2="672.960022" y2="285.959991" stroke="red" stroke-width="6.660000" />
<circle cx="164.959991" cy="881.960022" r="19.980000" fill="red">
  <title>Istanbul</title>
</circle><line x1="672.960022" y1="285.959991" x2="164.959991" y2="881.960022" stroke="red" stroke-width="6.660000" />
<circle cx="426.959991" cy="1377.959961" r="19.980000" fill="red">
  <title>New York</title>
</circle><line x1="164.959991" y1="881.960022" x2="426.959991" y2="1377.959961" stroke="red" stroke-width="6.660000" />
<circle cx="79.959999" cy="1711.959961" r="19.980000" fill="red">
  <title>São Paulo</title>
</circle><line x1="426.959991" y1="1377.959961" x2="79.959999" y2="1711.959961" stroke="red" stroke-width="6.660000" />
<circle cx="602.960022" cy="1353.959961" r="19.980000" fill="red">
  <title>Kolkata</title>
</circle><line x1="79.959999" y1="1711.959961" x2="602.960022" y2="1353.959961" stroke="red" stroke-width="6.660000" />
<circle cx="623.960022" cy="1539.959961" r="19.980000" fill="red">
  <title>Rio de Janeiro</title>
</circle><line x1="602.960022" y1="1353.959961" x2="623.960022" y2="1539.959961" stroke="red" stroke-width="6.660000" />
<circle cx="694.960022" cy="1804.959961" r="19.980000" fill="red">
  <title>Mumbai</title>
</circle><line x1="623.960022" y1="1539.959961" x2="694.960022" y2="1804.959961" stroke="red" stroke-width="6.660000" />
<circle cx="800.960022" cy="1760.959961" r="19.980000" fill="red">
  <title>Mexico City</title>
</circle><line x1="694.960022" y1="1804.959961" x2="800.960022" y2="1760.959961" stroke="red" stroke-width="6.660000" />
<circle cx="1258.959961" cy="2034.959961" r="19.980000" fill="red">
  <title>Beijing</title>
</circle><line x1="800.960022" y1="1760.959961" x2="1258.959961" y2="2034.959961" stroke="red" stroke-width="6.660000" />
<circle cx="1742.959961" cy="1227.959961" r="19.980000" fill="red">
  <title>Osaka</title>
</circle><line x1="1258.959961" y1="2034.959961" x2="1742.959961" y2="1227.959961" stroke="red" stroke-width="6.660000" />
<circle cx="1818.959961" cy="1220.959961" r="19.980000" fill="red">
  <title>Dhaka</title>
</circle><line x1="1742.959961" y1="1227.959961" x2="1818.959961" y2="1220.959961" stroke="red" stroke-width="6.660000" />
<circle cx="1849.959961" cy="728.960022" r="19.980000" fill="red">
  <title>Chongqing</title>
</circle><line x1="1818.959961" y1="1220.959961" x2="1849.959961" y2="728.960022" stroke="red" stroke-width="6.660000" />
<circle cx="1868.959961" cy="376.959991" r="19.980000" fill="red">
  <title>Manila</title>
</circle><line x1="1849.959961" y1="728.960022" x2="1868.959961" y2="376.959991" stroke="red" stroke-width="6.660000" />
<circle cx="1812.959961" cy="184.959991" r="19.980000" fill="red">
  <title>Delhi</title>
</circle><line x1="1868.959961" y1="376.959991" x2="1812.959961" y2="184.959991" stroke="red" stroke-width="6.660000" />
<circle cx="1498.959961" cy="503.959991" r="19.980000" fill="red">
  <title>Lagos</title>
</circle><line x1="1812.959961" y1="184.959991" x2="1498.959961" y2="503.959991" stroke="red" stroke-width="6.660000" />
</svg>
