<?xml version="1.0" encoding="UTF-8" standalone="no"?>
<svg width="500" height="500" viewBox="0 0 2074.000000 2074.000000" xmlns="http://www.w3.org/2000/svg">
<rect x="19.000000" y="19.000000" width="2036.000000" height="2036.000000" fill="black" />
<circle cx="2010.959961" cy="51.959999" r="19.980000" fill="red">
  <title>Tokyo</title>
</circle><line x1="1603.959961" y1="336.959991" x2="2010.959961" y2="51.959999" stroke="red" stroke-width="6.660000" />
<circle cx="1917.959961" cy="298.959991" r="19.980000" fill="red">
  <title>Shanghai</title>
</circle><line x1="2010.959961" y1="51.959999" x2="1917.959961" y2="298.959991" stroke="red" stroke-width="6.660000" />
<circle cx="1962.959961" cy="1340.959961" r="19.980000" fill="red">
  <title>Delhi</title>
</circle><line x1="1917.959961" y1="298.959991" x2="1962.959961" y2="1340.959961" stroke="red" stroke-width="6.660000" />
<circle cx="1991.959961" cy="1924.959961" r="19.980000" fill="red">
  <title>Beijing</title>
</circle><line x1="1962.959961" y1="1340.959961" x2="1991.959961" y2="1924.959961" stroke="red" stroke-width="6.660000" />
<circle cx="1420.959961" cy="1961.959961" r="19.980000" fill="red">
  <title>New York</title>
</circle><line x1="1991.959961" y1="1924.959961" x2="1420.959961" y2="1961.959961" stroke="red" stroke-width="6.660000" />
<circle cx="1510.959961" cy="1382.959961" r="19.980000" fill="red">
  <title>Dhaka</title>
</circle><line x1="1420.959961" y1="1961.959961" x2="1510.959961" y2="1382.959961" stroke="red" stroke-width="6.660000" />
<circle cx="776.960022" cy="1602.959961" r="19.980000" fill="red">
  <title>Cairo</title>
</circle><line x1="1510.959961" y1="1382.959961" x2="776.960022" y2="1602.959961" stroke="red" stroke-width="6.660000" />
<circle cx="864.960022" cy="1147.959961" r="19.980000" fill="red">
  <title>Buenos Aires</title>
</circle><line x1="776.960022" y1="1602.959961" x2="864.960022" y2="1147.959961" stroke="red" stroke-width="6.660000" />
<circle cx="182.959991" cy="885.960022" r="19.980000" fill="red">
  <title>Karachi</title>
</circle><line x1="864.960022" y1="1147.959961" x2="182.959991" y2="885.960022" stroke="red" stroke-width="6.660000" />
<circle cx="89.959999" cy="720.960022" r="19.980000" fill="red">
  <title>Osaka</title>
</circle><line x1="182.959991" y1="885.960022" x2="89.959999" y2="720.960022" stroke="red" stroke-width="6.660000" />
<circle cx="660.960022" cy="834.960022" r="19.980000" fill="red">
  <title>Mexico City</title>
</circle><line x1="89.959999" y1="720.960022" x2="660.960022" y2="834.960022" stroke="red" stroke-width="6.660000" />
<circle cx="965.960022" cy="512.960022" r="19.980000" fill="red">
  <title>Mumbai</title>
</circle><line x1="660.960022" y1="834.960022" x2="965.960022" y2="512.960022" stroke="red" stroke-width="6.660000" />
<circle cx="980.960022" cy="199.959991" r="19.980000" fill="red">
  <title>São Paulo</title>
</circle><line x1="965.960022" y1="512.960022" x2="980.960022" y2="199.959991" stroke="red" stroke-width="6.660000" />
<circle cx="1603.959961" cy="336.959991" r="19.980000" fill="red">
  <title>Chongqing</title>
</circle><line x1="980.960022" y1="199.959991" x2="1603.959961" y2="336.959991" stroke="red" stroke-width="6.660000" />
</svg>
