<?xml version="1.0" encoding="UTF-8" standalone="no"?>
<svg width="500" height="500" viewBox="0 0 2074.000000 2074.000000" xmlns="http://www.w3.org/2000/svg">
<rect x="19.000000" y="19.000000" width="2036.000000" height="2036.000000" fill="black" />
<circle cx="1927.959961" cy="833.960022" r="19.980000" fill="red">
  <title>Tokyo</title>
</circle><line x1="1477.959961" y1="1231.959961" x2="1927.959961" y2="833.960022" stroke="red" stroke-width="6.660000" />
<circle cx="1534.959961" cy="84.959999" r="19.980000" fill="red">
  <title>Karachi</title>
</circle><line x1="1927.959961" y1="833.960022" x2="1534.959961" y2="84.959999" stroke="red" stroke-width="6.660000" />
<circle cx="458.959991" cy="47.959999" r="19.980000" fill="red">
  <title>Dhaka</title>
</circle><line x1="1534.959961" y1="84.959999" x2="458.959991" y2="47.959999" stroke="red" stroke-width="6.660000" />
<circle cx="501.959991" cy="140.959991" r="19.980000" fill="red">
  <title>São Paulo</title>
</circle><line x1="458.959991" y1="47.959999" x2="501.959991" y2="140.959991" stroke="red" stroke-width="6.660000" />
<circle cx="643.960022" cy="564.960022" r="19.980000" fill="red">
  <title>Mumbai</title>
</circle><line x1="501.959991" y1="140.959991" x2="643.960022" y2="564.960022" stroke="red" stroke-width="6.660000" />
<circle cx="668.960022" cy="573.960022" r="19.980000" fill="red">
  <title>Mexico City</title>
</circle><line x1="643.960022" y1="564.960022" x2="668.960022" y2="573.960022" stroke="red" stroke-width="6.660000" />
<circle cx="302.959991" cy="947.960022" r="19.980000" fill="red">
  <title>Buenos Aires</title>
</circle><line x1="668.960022" y1="573.960022" x2="302.959991" y2="947.960022" stroke="red" stroke-width="6.660000" />
<circle cx="269.959991" cy="1640.959961" r="19.980000" fill="red">
  <title>Shanghai</title>
</circle><line x1="302.959991" y1="947.960022" x2="269.959991" y2="1640.959961" stroke="red" stroke-width="6.660000" />
<circle cx="521.960022" cy="1166.959961" r="19.980000" fill="red">
  <title>Beijing</title>
</circle><line x1="269.959991" y1="1640.959961" x2="521.960022" y2="1166.959961" stroke="red" stroke-width="6.660000" />
<circle cx="744.960022" cy="1177.959961" r="19.980000" fill="red">
  <title>Cairo</title>
</circle><line x1="521.960022" y1="1166.959961" x2="744.960022" y2="1177.959961" stroke="red" stroke-width="6.660000" />
<circle cx="1035.959961" cy="846.960022" r="19.980000" fill="red">
  <title>Delhi</title>
</circle><line x1="744.960022" y1="1177.959961" x2="1035.959961" y2="846.960022" stroke="red" stroke-width="6.660000" />
<circle cx="1021.960022" cy="1054.959961" r="19.980000" fill="red">
  <title>Osaka</title>
</circle><line x1="1035.959961" y1="846.960022" x2="1021.960022" y2="1054.959961" stroke="red" stroke-width="6.660000" />
<circle cx="1389.959961" cy="1875.959961" r="19.980000" fill="red">
  <title>New York</title>
</circle><line x1="1021.960022" y1="1054.959961" x2="1389.959961" y2="1875.959961" stroke="red" stroke-width="6.660000" />
<circle cx="1477.959961" cy="1231.959961" r="19.980000" fill="red">
  <title>Chongqing</title>
</circle><line x1="1389.959961" y1="1875.959961" x2="1477.959961" y2="1231.959961" stroke="red" stroke-width="6.660000" />
</svg>
