<?xml version="1.0" encoding="UTF-8" standalone="no"?>
<svg width="500" height="500" viewBox="0 0 2074.000000 2074.000000" xmlns="http://www.w3.org/2000/svg">
<rect x="19.000000" y="19.000000" width="2036.000000" height="2036.000000" fill="black" />
<circle cx="1634.959961" cy="1740.959961" r="19.980000" fill="red">
  <title>Tokyo</title>
</circle><line x1="1967.959961" y1="1260.959961" x2="1634.959961" y2="1740.959961" stroke="red" stroke-width="6.660000" />
<circle cx="1120.959961" cy="1462.959961" r="19.980000" fill="red">
  <title>Delhi</title>
</circle><line x1="1634.959961" y1="1740.959961" x2="1120.959961" y2="1462.959961" stroke="red" stroke-width="6.660000" />
<circle cx="761.960022" cy="1366.959961" r="19.980000" fill="red">
  <title>Osaka</title>
</circle><line x1="1120.959961" y1="1462.959961" x2="761.960022" y2="1366.959961" stroke="red" stroke-width="6.660000" />
<circle cx="508.959991" cy="1470.959961" r="19.980000" fill="red">
  <title>Dhaka</title>
</circle><line x1="761.960022" y1="1366.959961" x2="508.959991" y2="1470.959961" stroke="red" stroke-width="6.660000" />
<circle cx="562.960022" cy="1141.959961" r="19.980000" fill="red">
  <title>Beijing</title>
</circle><line x1="508.959991" y1="1470.959961" x2="562.960022" y2="1141.959961" stroke="red" stroke-width="6.660000" />
<circle cx="298.959991" cy="455.959991" r="19.980000" fill="red">
  <title>Mumbai</title>
</circle><line x1="562.960022" y1="1141.959961" x2="298.959991" y2="455.959991" stroke="red" stroke-width="6.660000" />
<circle cx="900.960022" cy="1193.959961" r="19.980000" fill="red">
  <title>Cairo</title>
</circle><line x1="298.959991" y1="455.959991" x2="900.960022" y2="1193.959961" stroke="red" stroke-width="6.660000" />
<circle cx="1074.959961" cy="1193.959961" r="19.980000" fill="red">
  <title>São Paulo</title>
</circle><line x1="900.960022" y1="1193.959961" x2="1074.959961" y2="1193.959961" stroke="red" stroke-width="6.660000" />
<circle cx="1745.959961" cy="1470.959961" r="19.980000" fill="red">
  <title>Shanghai</title>
</circle><line x1="1074.959961" y1="1193.959961" x2="1745.959961" y2="1470.959961" stroke="red" stroke-width="6.660000" />
<circle cx="1967.959961" cy="1260.959961" r="19.980000" fill="red">
  <title>Mexico City</title>
</circle><line x1="1745.959961" y1="1470.959961" x2="1967.959961" y2="1260.959961" stroke="red" stroke-width="6.660000" />
</svg>
