<?xml version="1.0" encoding="UTF-8" standalone="no"?>
<svg width="500" height="500" viewBox="0 0 2074.000000 2074.000000" xmlns="http://www.w3.org/2000/svg">
<rect x="19.000000" y="19.000000" width="2036.000000" height="2036.000000" fill="black" />
<circle cx="1586.959961" cy="1426.959961" r="19.980000" fill="red">
  <title>Tokyo</title>
</circle><line x1="830.960022" y1="165.959991" x2="1586.959961" y2="1426.959961" stroke="red" stroke-width="6.660000" />
<circle cx="1024.959961" cy="1568.959961" r="19.980000" fill="red">
  <title>Cairo</title>
</circle><line x1="1586.959961" y1="1426.959961" x2="1024.959961" y2="1568.959961" stroke="red" stroke-width="6.660000" />
<circle cx="307.959991" cy="1508.959961" r="19.980000" fill="red">
  <title>São Paulo</title>
</circle><line x1="1024.959961" y1="1568.959961" x2="307.959991" y2="1508.959961" stroke="red" stroke-width="6.660000" />
<circle cx="543.960022" cy="833.960022" r="19.980000" fill="red">
  <title>Shanghai</title>
</circle><line x1="307.959991" y1="1508.959961" x2="543.960022" y2="833.960022" stroke="red" stroke-width="6.660000" />
<circle cx="495.959991" cy="549.960022" r="19.980000" fill="red">
  <title>Mumbai</title>
</circle><line x1="543.960022" y1="833.960022" x2="495.959991" y2="549.960022" stroke="red" stroke-width="6.660000" />
<circle cx="407.959991" cy="473.959991" r="19.980000" fill="red">
  <title>Beijing</title>
</circle><line x1="495.959991" y1="549.960022" x2="407.959991" y2="473.959991" stroke="red" stroke-width="6.660000" />
<circle cx="779.960022" cy="157.959991" r="19.980000" fill="red">
  <title>Mexico City</title>
</circle><line x1="407.959991" y1="473.959991" x2="779.960022" y2="157.959991" stroke="red" stroke-width="6.660000" />
<circle cx="830.960022" cy="165.959991" r="19.980000" fill="red">
  <title>Delhi</title>
</circle><line x1="779.960022" y1="157.959991" x2="830.960022" y2="165.959991" stroke="red" stroke-width="6.660000" />
</svg>
