<?xml version="1.0" encoding="UTF-8" standalone="no"?>
<svg width="500" height="500" viewBox="0 0 2074.000000 2074.000000" xmlns="http://www.w3.org/2000/svg">
<rect x="19.000000" y="19.000000" width="2036.000000" height="2036.000000" fill="black" />
<circle cx="1052.959961" cy="1337.959961" r="19.980000" fill="red">
  <title>Tokyo</title>
</circle><line x1="1567.959961" y1="1140.959961" x2="1052.959961" y2="1337.959961" stroke="red" stroke-width="6.660000" />
<circle cx="977.960022" cy="1471.959961" r="19.980000" fill="red">
  <title>Delhi</title>
</circle><line x1="1052.959961" y1="1337.959961" x2="977.960022" y2="1471.959961" stroke="red" stroke-width="6.660000" />
<circle cx="1174.959961" cy="1934.959961" r="19.980000" fill="red">
  <title>Mexico City</title>
</circle><line x1="977.960022" y1="1471.959961" x2="1174.959961" y2="1934.959961" stroke="red" stroke-width="6.660000" />
<circle cx="812.960022" cy="1579.959961" r="19.980000" fill="red">
  <title>Beijing</title>
</circle><line x1="1174.959961" y1="1934.959961" x2="812.960022" y2="1579.959961" stroke="red" stroke-width="6.660000" />
<circle cx="337.959991" cy="2015.959961" r="19.980000" fill="red">
  <title>New York</title>
</circle><line x1="812.960022" y1="1579.959961" x2="337.959991" y2="2015.959961" stroke="red" stroke-width="6.660000" />
<circle cx="664.960022" cy="1651.959961" r="19.980000" fill="red">
  <title>Osaka</title>
</circle><line x1="337.959991" y1="2015.959961" x2="664.960022" y2="1651.959961" stroke="red" stroke-width="6.660000" />
<circle cx="776.960022" cy="1330.959961" r="19.980000" fill="red">
  <title>Mumbai</title>
</circle><line x1="664.960022" y1="1651.959961" x2="776.960022" y2="1330.959961" stroke="red" stroke-width="6.660000" />
<circle cx="528.960022" cy="1363.959961" r="19.980000" fill="red">
  <title>Buenos Aires</title>
</circle><line x1="776.960022" y1="1330.959961" x2="528.960022" y2="1363.959961" stroke="red" stroke-width="6.660000" />
<circle cx="223.959991" cy="742.960022" r="19.980000" fill="red">
  <title>Dhaka</title>
</circle><line x1="528.960022" y1="1363.959961" x2="223.959991" y2="742.960022" stroke="red" stroke-width="6.660000" />
<circle cx="1043.959961" cy="767.960022" r="19.980000" fill="red">
  <title>Istanbul</title>
</circle><line x1="223.959991" y1="742.960022" x2="1043.959961" y2="767.960022" stroke="red" stroke-width="6.660000" />
<circle cx="1254.959961" cy="109.959999" r="19.980000" fill="red">
  <title>Shanghai</title>
</circle><line x1="1043.959961" y1="767.960022" x2="1254.959961" y2="109.959999" stroke="red" stroke-width="6.660000" />
<circle cx="1998.959961" cy="57.959999" r="19.980000" fill="red">
  <title>Kolkata</title>
</circle><line x1="1254.959961" y1="109.959999" x2="1998.959961" y2="57.959999" stroke="red" stroke-width="6.660000" />
<circle cx="1835.959961" cy="547.960022" r="19.980000" fill="red">
  <title>Chongqing</title>
</circle><line x1="1998.959961" y1="57.959999" x2="1835.959961" y2="547.960022" stroke="red" stroke-width="6.660000" />
<circle cx="1757.959961" cy="1109.959961" r="19.980000" fill="red">
  <title>Cairo</title>
</circle><line x1="1835.959961" y1="547.960022" x2="1757.959961" y2="1109.959961" stroke="red" stroke-width="6.660000" />
<circle cx="1814.959961" cy="1239.959961" r="19.980000" fill="red">
  <title>São Paulo</title>
</circle><line x1="1757.959961" y1="1109.959961" x2="1814.959961" y2="1239.959961" stroke="red" stroke-width="6.660000" />
<circle cx="1567.959961" cy="1140.959961" r="19.980000" fill="red">
  <title>Karachi</title>
</circle><line x1="1814.959961" y1="1239.959961" x2="1567.959961" y2="1140.959961" stroke="red" stroke-width="6.660000" />
</svg>
