<?xml version="1.0" encoding="UTF-8" standalone="no"?>
<svg width="500" height="500" viewBox="0 0 2074.000000 2074.000000" xmlns="http://www.w3.org/2000/svg">
<rect x="19.000000" y="19.000000" width="2036.000000" height="2036.000000" fill="black" />
<circle cx="1988.959961" cy="1687.959961" r="19.980000" fill="red">
  <title>Tokyo</title>
</circle><line x1="1898.959961" y1="770.960022" x2="1988.959961" y2="1687.959961" stroke="red" stroke-width="6.660000" />
<circle cx="1604.959961" cy="1713.959961" r="19.980000" fill="red">
  <title>Shanghai</title>
</circle><line x1="1988.959961" y1="1687.959961" x2="1604.959961" y2="1713.959961" stroke="red" stroke-width="6.660000" />
<circle cx="861.960022" cy="1640.959961" r="19.980000" fill="red">
  <title>Delhi</title>
</circle><line x1="1604.959961" y1="1713.959961" x2="861.960022" y2="1640.959961" stroke="red" stroke-width="6.660000" />
<circle cx="810.960022" cy="478.959991" r="19.980000" fill="red">
  <title>Mexico City</title>
</circle><line x1="861.960022" y1="1640.959961" x2="810.960022" y2="478.959991" stroke="red" stroke-width="6.660000" />
<circle cx="1898.959961" cy="770.960022" r="19.980000" fill="red">
  <title>São Paulo</title>
</circle><line x1="810.960022" y1="478.959991" x2="1898.959961" y2="770.960022" stroke="red" stroke-width="6.660000" />
</svg>
