<?xml version="1.0" encoding="UTF-8" standalone="no"?>
<svg width="500" height="500" viewBox="0 0 2074.000000 2074.000000" xmlns="http://www.w3.org/2000/svg">
<rect x="19.000000" y="19.000000" width="2036.000000" height="2036.000000" fill="black" />
<circle cx="698.960022" cy="184.959991" r="19.980000" fill="red">
  <title>Tokyo</title>
</circle><line x1="1336.959961" y1="974.960022" x2="698.960022" y2="184.959991" stroke="red" stroke-width="6.660000" />
<circle cx="844.960022" cy="308.959991" r="19.980000" fill="red">
  <title>Mexico City</title>
</circle><line x1="698.960022" y1="184.959991" x2="844.960022" y2="308.959991" stroke="red" stroke-width="6.660000" />
<circle cx="1637.959961" cy="1035.959961" r="19.980000" fill="red">
  <title>Cairo</title>
</circle><line x1="844.960022" y1="308.959991" x2="1637.959961" y2="1035.959961" stroke="red" stroke-width="6.660000" />
<circle cx="1542.959961" cy="1217.959961" r="19.980000" fill="red">
  <title>Delhi</title>
</circle><line x1="1637.959961" y1="1035.959961" x2="1542.959961" y2="1217.959961" stroke="red" stroke-width="6.660000" />
<circle cx="1362.959961" cy="2019.959961" r="19.980000" fill="red">
  <title>Shanghai</title>
</circle><line x1="1542.959961" y1="1217.959961" x2="1362.959961" y2="2019.959961" stroke="red" stroke-width="6.660000" />
<circle cx="876.960022" cy="1873.959961" r="19.980000" fill="red">
  <title>São Paulo</title>
</circle><line x1="1362.959961" y1="2019.959961" x2="876.960022" y2="1873.959961" stroke="red" stroke-width="6.660000" />
<circle cx="1336.959961" cy="974.960022" r="19.980000" fill="red">
  <title>Mumbai</title>
</circle><line x1="876.960022" y1="1873.959961" x2="1336.959961" y2="974.960022" stroke="red" stroke-width="6.660000" />
</svg>
