<?xml version="1.0" encoding="UTF-8" standalone="no"?>
<svg width="500" height="500" viewBox="0 0 2074.000000 2074.000000" xmlns="http://www.w3.org/2000/svg">
<rect x="19.000000" y="19.000000" width="2036.000000" height="2036.000000" fill="black" />
<circle cx="756.960022" cy="481.959991" r="19.980000" fill="red">
  <title>Tokyo</title>
</circle><line x1="854.960022" y1="748.960022" x2="756.960022" y2="481.959991" stroke="red" stroke-width="6.660000" />
<circle cx="281.959991" cy="475.959991" r="19.980000" fill="red">
  <title>Delhi</title>
</circle><line x1="756.960022" y1="481.959991" x2="281.959991" y2="475.959991" stroke="red" stroke-width="6.660000" />
<circle cx="101.959999" cy="534.960022" r="19.980000" fill="red">
  <title>São Paulo</title>
</circle><line x1="281.959991" y1="475.959991" x2="101.959999" y2="534.960022" stroke="red" stroke-width="6.660000" />
<circle cx="321.959991" cy="1197.959961" r="19.980000" fill="red">
  <title>Mexico City</title>
</circle><line x1="101.959999" y1="534.960022" x2="321.959991" y2="1197.959961" stroke="red" stroke-width="6.660000" />
<circle cx="1758.959961" cy="1875.959961" r="19.980000" fill="red">
  <title>Shanghai</title>
</circle><line x1="321.959991" y1="1197.959961" x2="1758.959961" y2="1875.959961" stroke="red" stroke-width="6.660000" />
<circle cx="1338.959961" cy="498.959991" r="19.980000" fill="red">
  <title>Mumbai</title>
</circle><line x1="1758.959961" y1="1875.959961" x2="1338.959961" y2="498.959991" stroke="red" stroke-width="6.660000" />
<circle cx="854.960022" cy="748.960022" r="19.980000" fill="red">
  <title>Cairo</title>
</circle><line x1="1338.959961" y1="498.959991" x2="854.960022" y2="748.960022" stroke="red" stroke-width="6.660000" />
</svg>
