<?xml version="1.0" encoding="UTF-8" standalone="no"?>
<svg width="500" height="500" viewBox="0 0 2074.000000 2074.000000" xmlns="http://www.w3.org/2000/svg">
<rect x="19.000000" y="19.000000" width="2036.000000" height="2036.000000" fill="black" />
<circle cx="1539.959961" cy="1070.959961" r="19.980000" fill="red">
  <title>Tokyo</title>
</circle><line x1="1880.959961" y1="364.959991" x2="1539.959961" y2="1070.959961" stroke="red" stroke-width="6.660000" />
<circle cx="1475.959961" cy="1201.959961" r="19.980000" fill="red">
  <title>Mumbai</title>
</circle><line x1="1539.959961" y1="1070.959961" x2="1475.959961" y2="1201.959961" stroke="red" stroke-width="6.660000" />
<circle cx="1772.959961" cy="1326.959961" r="19.980000" fill="red">
  <title>Shanghai</title>
</circle><line x1="1475.959961" y1="1201.959961" x2="1772.959961" y2="1326.959961" stroke="red" stroke-width="6.660000" />
<circle cx="1430.959961" cy="1633.959961" r="19.980000" fill="red">
  <title>Delhi</title>
</circle><line x1="1772.959961" y1="1326.959961" x2="1430.959961" y2="1633.959961" stroke="red" stroke-width="6.660000" />
<circle cx="665.960022" cy="1488.959961" r="19.980000" fill="red">
  <title>Dhaka</title>
</circle><line x1="1430.959961" y1="1633.959961" x2="665.960022" y2="1488.959961" stroke="red" stroke-width="6.660000" />
<circle cx="669.960022" cy="1315.959961" r="19.980000" fill="red">
  <title>Mexico City</title>
</circle><line x1="665.960022" y1="1488.959961" x2="669.960022" y2="1315.959961" stroke="red" stroke-width="6.660000" />
<circle cx="428.959991" cy="1277.959961" r="19.980000" fill="red">
  <title>Buenos Aires</title>
</circle><line x1="669.960022" y1="1315.959961" x2="428.959991" y2="1277.959961" stroke="red" stroke-width="6.660000" />
<circle cx="121.959999" cy="1219.959961" r="19.980000" fill="red">
  <title>São Paulo</title>
</circle><line x1="428.959991" y1="1277.959961" x2="121.959999" y2="1219.959961" stroke="red" stroke-width="6.660000" />
<circle cx="581.960022" cy="427.959991" r="19.980000" fill="red">
  <title>Cairo</title>
</circle><line x1="121.959999" y1="1219.959961" x2="581.960022" y2="427.959991" stroke="red" stroke-width="6.660000" />
<circle cx="962.960022" cy="103.959999" r="19.980000" fill="red">
  <title>New York</title>
</circle><line x1="581.960022" y1="427.959991" x2="962.960022" y2="103.959999" stroke="red" stroke-width="6.660000" />
<circle cx="1463.959961" cy="184.959991" r="19.980000" fill="red">
  <title>Beijing</title>
</circle><line x1="962.960022" y1="103.959999" x2="1463.959961" y2="184.959991" stroke="red" stroke-width="6.660000" />
<circle cx="1523.959961" cy="208.959991" r="19.980000" fill="red">
  <title>Osaka</title>
</circle><line x1="1463.959961" y1="184.959991" x2="1523.959961" y2="208.959991" stroke="red" stroke-width="6.660000" />
<circle cx="1880.959961" cy="364.959991" r="19.980000" fill="red">
  <title>Karachi</title>
</circle><line x1="1523.959961" y1="208.959991" x2="1880.959961" y2="364.959991" stroke="red" stroke-width="6.660000" />
</svg>
