<?xml version="1.0" encoding="UTF-8" standalone="no"?>
<svg width="500" height="500" viewBox="0 0 2074.000000 2074.000000" xmlns="http://www.w3.org/2000/svg">
<rect x="19.000000" y="19.000000" width="2036.000000" height="2036.000000" fill="black" />
<circle cx="610.960022" cy="1270.959961" r="19.980000" fill="red">
  <title>Tokyo</title>
</circle><line x1="256.959991" y1="827.960022" x2="610.960022" y2="1270.959961" stroke="red" stroke-width="6.660000" />
<circle cx="538.960022" cy="1443.959961" r="19.980000" fill="red">
  <title>Osaka</title>
</circle><line x1="610.960022" y1="1270.959961" x2="538.960022" y2="1443.959961" stroke="red" stroke-width="6.660000" />
<circle cx="179.959991" cy="1943.959961" r="19.980000" fill="red">
  <title>Karachi</title>
</circle><line x1="538.960022" y1="1443.959961" x2="179.959991" y2="1943.959961" stroke="red" stroke-width="6.660000" />
<circle cx="643.960022" cy="1792.959961" r="19.980000" fill="red">
  <title>Delhi</title>
</circle><line x1="179.959991" y1="1943.959961" x2="643.960022" y2="1792.959961" stroke="red" stroke-width="6.660000" />
<circle cx="937.960022" cy="1574.959961" r="19.980000" fill="red">
  <title>São Paulo</title>
</circle><line x1="643.960022" y1="1792.959961" x2="937.960022" y2="1574.959961" stroke="red" stroke-width="6.660000" />
<circle cx="1627.959961" cy="1969.959961" r="19.980000" fill="red">
  <title>Shanghai</title>
</circle><line x1="937.960022" y1="1574.959961" x2="1627.959961" y2="1969.959961" stroke="red" stroke-width="6.660000" />
<circle cx="1631.959961" cy="1823.959961" r="19.980000" fill="red">
  <title>Dhaka</title>
</circle><line x1="1627.959961" y1="1969.959961" x2="1631.959961" y2="1823.959961" stroke="red" stroke-width="6.660000" />
<circle cx="1480.959961" cy="1494.959961" r="19.980000" fill="red">
  <title>Mumbai</title>
</circle><line x1="1631.959961" y1="1823.959961" x2="1480.959961" y2="1494.959961" stroke="red" stroke-width="6.660000" />
<circle cx="1925.959961" cy="1009.960022" r="19.980000" fill="red">
  <title>Cairo</title>
</circle><line x1="1480.959961" y1="1494.959961" x2="1925.959961" y2="1009.960022" stroke="red" stroke-width="6.660000" />
<circle cx="1517.959961" cy="103.959999" r="19.980000" fill="red">
  <title>Mexico City</title>
</circle><line x1="1925.959961" y1="1009.960022" x2="1517.959961" y2="103.959999" stroke="red" stroke-width="6.660000" />
<circle cx="937.960022" cy="56.959999" r="19.980000" fill="red">
  <title>Chongqing</title>
</circle><line x1="1517.959961" y1="103.959999" x2="937.960022" y2="56.959999" stroke="red" stroke-width="6.660000" />
<circle cx="883.960022" cy="133.959991" r="19.980000" fill="red">
  <title>Beijing</title>
</circle><line x1="937.960022" y1="56.959999" x2="883.960022" y2="133.959991" stroke="red" stroke-width="6.660000" />
<circle cx="818.960022" cy="615.960022" r="19.980000" fill="red">
  <title>New York</title>
</circle><line x1="883.960022" y1="133.959991" x2="818.960022" y2="615.960022" stroke="red" stroke-width="6.660000" />
<circle cx="256.959991" cy="827.960022" r="19.980000" fill="red">
  <title>Buenos Aires</title>
</circle><line x1="818.960022" y1="615.960022" x2="256.959991" y2="827.960022" stroke="red" stroke-width="6.660000" />
</svg>
