<?xml version="1.0" encoding="UTF-8" standalone="no"?>
<svg width="500" height="500" viewBox="0 0 2074.000000 2074.000000" xmlns="http://www.w3.org/2000/svg">
<rect x="19.000000" y="19.000000" width="2036.000000" height="2036.000000" fill="black" />
<circle cx="1711.959961" cy="1042.959961" r="19.980000" fill="red">
  <title>Tokyo</title>
</circle><line x1="1786.959961" y1="1033.959961" x2="1711.959961" y2="1042.959961" stroke="red" stroke-width="6.660000" />
<circle cx="1990.959961" cy="1288.959961" r="19.980000" fill="red">
  <title>Osaka</title>
</circle><line x1="1711.959961" y1="1042.959961" x2="1990.959961" y2="1288.959961" stroke="red" stroke-width="6.660000" />
<circle cx="2036.959961" cy="1554.959961" r="19.980000" fill="red">
  <title>Manila</title>
</circle><line x1="1990.959961" y1="1288.959961" x2="2036.959961" y2="1554.959961" stroke="red" stroke-width="6.660000" />
<circle cx="1452.959961" cy="1267.959961" r="19.980000" fill="red">
  <title>Karachi</title>
</circle><line x1="2036.959961" y1="1554.959961" x2="1452.959961" y2="1267.959961" stroke="red" stroke-width="6.660000" />
<circle cx="1106.959961" cy="1191.959961" r="19.980000" fill="red">
  <title>Cairo</title>
</circle><line x1="1452.959961" y1="1267.959961" x2="1106.959961" y2="1191.959961" stroke="red" stroke-width="6.660000" />
<circle cx="1146.959961" cy="1268.959961" r="19.980000" fill="red">
  <title>Shanghai</title>
</circle><line x1="1106.959961" y1="1191.959961" x2="1146.959961" y2="1268.959961" stroke="red" stroke-width="6.660000" />
<circle cx="1158.959961" cy="1809.959961" r="19.980000" fill="red">
  <title>Beijing</title>
</circle><line x1="1146.959961" y1="1268.959961" x2="1158.959961" y2="1809.959961" stroke="red" stroke-width="6.660000" />
<circle cx="893.960022" cy="1533.959961" r="19.980000" fill="red">
  <title>Dhaka</title>
</circle><line x1="1158.959961" y1="1809.959961" x2="893.960022" y2="1533.959961" stroke="red" stroke-width="6.660000" />
<circle cx="468.959991" cy="1459.959961" r="19.980000" fill="red">
  <title>Kolkata</title>
</circle><line x1="893.960022" y1="1533.959961" x2="468.959991" y2="1459.959961" stroke="red" stroke-width="6.660000" />
<circle cx="336.959991" cy="1154.959961" r="19.980000" fill="red">
  <title>New York</title>
</circle><line x1="468.959991" y1="1459.959961" x2="336.959991" y2="1154.959961" stroke="red" stroke-width="6.660000" />
<circle cx="407.959991" cy="1145.959961" r="19.980000" fill="red">
  <title>Lagos</title>
</circle><line x1="336.959991" y1="1154.959961" x2="407.959991" y2="1145.959961" stroke="red" stroke-width="6.660000" />
<circle cx="438.959991" cy="500.959991" r="19.980000" fill="red">
  <title>Mumbai</title>
</circle><line x1="407.959991" y1="1145.959961" x2="438.959991" y2="500.959991" stroke="red" stroke-width="6.660000" />
<circle cx="1125.959961" cy="985.960022" r="19.980000" fill="red">
  <title>Delhi</title>
</circle><line x1="438.959991" y1="500.959991" x2="1125.959961" y2="985.960022" stroke="red" stroke-width="6.660000" />
<circle cx="1393.959961" cy="921.960022" r="19.980000" fill="red">
  <title>Buenos Aires</title>
</circle><line x1="1125.959961" y1="985.960022" x2="1393.959961" y2="921.960022" stroke="red" stroke-width="6.660000" />
<circle cx="1533.959961" cy="592.960022" r="19.980000" fill="red">
  <title>Mexico City</title>
</circle><line x1="1393.959961" y1="921.960022" x2="1533.959961" y2="592.960022" stroke="red" stroke-width="6.660000" />
<circle cx="1589.959961" cy="425.959991" r="19.980000" fill="red">
  <title>São Paulo</title>
</circle><line x1="1533.959961" y1="592.960022" x2="1589.959961" y2="425.959991" stroke="red" stroke-width="6.660000" />
<circle cx="2026.959961" cy="734.960022" r="19.980000" fill="red">
  <title>Chongqing</title>
</circle><line x1="1589.959961" y1="425.959991" x2="2026.959961" y2="734.960022" stroke="red" stroke-width="6.660000" />
<circle cx="1786.959961" cy="1033.959961" r="19.980000" fill="red">
  <title>Istanbul</title>
</circle><line x1="2026.959961" y1="734.960022" x2="1786.959961" y2="1033.959961" stroke="red" stroke-width="6.660000" />
</svg>
