<?xml version="1.0" encoding="UTF-8" standalone="no"?>
<svg width="500" height="500" viewBox="0 0 2074.000000 2074.000000" xmlns="http://www.w3.org/2000/svg">
<rect x="19.000000" y="19.000000" width="2036.000000" height="2036.000000" fill="black" />
<circle cx="1790.959961" cy="1762.959961" r="19.980000" fill="red">
  <title>Tokyo</title>
</circle><line x1="601.960022" y1="1770.959961" x2="1790.959961" y2="1762.959961" stroke="red" stroke-width="6.660000" />
<circle cx="1926.959961" cy="437.959991" r="19.980000" fill="red">
  <title>Delhi</title>
</circle><line x1="1790.959961" y1="1762.959961" x2="1926.959961" y2="437.959991" stroke="red" stroke-width="6.660000" />
<circle cx="1041.959961" cy="1617.959961" r="19.980000" fill="red">
  <title>Shanghai</title>
</circle><line x1="1926.959961" y1="437.959991" x2="1041.959961" y2="1617.959961" stroke="red" stroke-width="6.660000" />
<circle cx="182.959991" cy="1508.959961" r="19.980000" fill="red">
  <title>São Paulo</title>
</circle><line x1="1041.959961" y1="1617.959961" x2="182.959991" y2="1508.959961" stroke="red" stroke-width="6.660000" />
<circle cx="601.960022" cy="1770.959961" r="19.980000" fill="red">
  <title>Mexico City</title>
</circle><line x1="182.959991" y1="1508.959961" x2="601.960022" y2="1770.959961" stroke="red" stroke-width="6.660000" />
</svg>
