<?xml version="1.0" encoding="UTF-8" standalone="no"?>
<svg width="500" height="500" viewBox="0 0 2074.000000 2074.000000" xmlns="http://www.w3.org/2000/svg">
<rect x="19.000000" y="19.000000" width="2036.000000" height="2036.000000" fill="black" />
<circle cx="1585.959961" cy="1104.959961" r="19.980000" fill="red">
  <title>Tokyo</title>
</circle><line x1="1999.959961" y1="1169.959961" x2="1585.959961" y2="1104.959961" stroke="red" stroke-width="6.660000" />
<circle cx="1482.959961" cy="1518.959961" r="19.980000" fill="red">
  <title>Mexico City</title>
</circle><line x1="1585.959961" y1="1104.959961" x2="1482.959961" y2="1518.959961" stroke="red" stroke-width="6.660000" />
<circle cx="1574.959961" cy="1508.959961" r="19.980000" fill="red">
  <title>Delhi</title>
</circle><line x1="1482.959961" y1="1518.959961" x2="1574.959961" y2="1508.959961" stroke="red" stroke-width="6.660000" />
<circle cx="1696.959961" cy="1966.959961" r="19.980000" fill="red">
  <title>Dhaka</title>
</circle><line x1="1574.959961" y1="1508.959961" x2="1696.959961" y2="1966.959961" stroke="red" stroke-width="6.660000" />
<circle cx="1689.959961" cy="2015.959961" r="19.980000" fill="red">
  <title>Cairo</title>
</circle><line x1="1696.959961" y1="1966.959961" x2="1689.959961" y2="2015.959961" stroke="red" stroke-width="6.660000" />
<circle cx="1190.959961" cy="1988.959961" r="19.980000" fill="red">
  <title>Osaka</title>
</circle><line x1="1689.959961" y1="2015.959961" x2="1190.959961" y2="1988.959961" stroke="red" stroke-width="6.660000" />
<circle cx="1194.959961" cy="1716.959961" r="19.980000" fill="red">
  <title>Buenos Aires</title>
</circle><line x1="1190.959961" y1="1988.959961" x2="1194.959961" y2="1716.959961" stroke="red" stroke-width="6.660000" />
<circle cx="682.960022" cy="1219.959961" r="19.980000" fill="red">
  <title>Beijing</title>
</circle><line x1="1194.959961" y1="1716.959961" x2="682.960022" y2="1219.959961" stroke="red" stroke-width="6.660000" />
<circle cx="376.959991" cy="767.960022" r="19.980000" fill="red">
  <title>São Paulo</title>
</circle><line x1="682.960022" y1="1219.959961" x2="376.959991" y2="767.960022" stroke="red" stroke-width="6.660000" />
<circle cx="46.959999" cy="206.959991" r="19.980000" fill="red">
  <title>Shanghai</title>
</circle><line x1="376.959991" y1="767.960022" x2="46.959999" y2="206.959991" stroke="red" stroke-width="6.660000" />
<circle cx="299.959991" cy="374.959991" r="19.980000" fill="red">
  <title>New York</title>
</circle><line x1="46.959999" y1="206.959991" x2="299.959991" y2="374.959991" stroke="red" stroke-width="6.660000" />
<circle cx="1317.959961" cy="39.959999" r="19.980000" fill="red">
  <title>Karachi</title>
</circle><line x1="299.959991" y1="374.959991" x2="1317.959961" y2="39.959999" stroke="red" stroke-width="6.660000" />
<circle cx="1879.959961" cy="879.960022" r="19.980000" fill="red">
  <title>Chongqing</title>
</circle><line x1="1317.959961" y1="39.959999" x2="1879.959961" y2="879.960022" stroke="red" stroke-width="6.660000" />
<circle cx="1999.959961" cy="1169.959961" r="19.980000" fill="red">
  <title>Mumbai</title>
</circle><line x1="1879.959961" y1="879.960022" x2="1999.959961" y2="1169.959961" stroke="red" stroke-width="6.660000" />
</svg>
