<?xml version="1.0" encoding="UTF-8" standalone="no"?>
<svg width="500" height="500" viewBox="0 0 2074.000000 2074.000000" xmlns="http://www.w3.org/2000/svg">
<rect x="19.000000" y="19.000000" width="2036.000000" height="2036.000000" fill="black" />
<circle cx="301.959991" cy="1136.959961" r="19.980000" fill="red">
  <title>Tokyo</title>
</circle><line x1="564.960022" y1="896.960022" x2="301.959991" y2="1136.959961" stroke="red" stroke-width="6.660000" />
<circle cx="243.959991" cy="1715.959961" r="19.980000" fill="red">
  <title>Buenos Aires</title>
</circle><line x1="301.959991" y1="1136.959961" x2="243.959991" y2="1715.959961" stroke="red" stroke-width="6.660000" />
<circle cx="58.959999" cy="1858.959961" r="19.980000" fill="red">
  <title>Mexico City</title>
</circle><line x1="243.959991" y1="1715.959961" x2="58.959999" y2="1858.959961" stroke="red" stroke-width="6.660000" />
<circle cx="478.959991" cy="1884.959961" r="19.980000" fill="red">
  <title>São Paulo</title>
</circle><line x1="58.959999" y1="1858.959961" x2="478.959991" y2="1884.959961" stroke="red" stroke-width="6.660000" />
<circle cx="1494.959961" cy="1858.959961" r="19.980000" fill="red">
  <title>Mumbai</title>
</circle><line x1="478.959991" y1="1884.959961" x2="1494.959961" y2="1858.959961" stroke="red" stroke-width="6.660000" />
<circle cx="1600.959961" cy="1780.959961" r="19.980000" fill="red">
  <title>Beijing</title>
</circle><line x1="1494.959961" y1="1858.959961" x2="1600.959961" y2="1780.959961" stroke="red" stroke-width="6.660000" />
<circle cx="1913.959961" cy="1466.959961" r="19.980000" fill="red">
  <title>Istanbul</title>
</circle><line x1="1600.959961" y1="1780.959961" x2="1913.959961" y2="1466.959961" stroke="red" stroke-width="6.660000" />
<circle cx="2006.959961" cy="1232.959961" r="19.980000" fill="red">
  <title>Dhaka</title>
</circle><line x1="1913.959961" y1="1466.959961" x2="2006.959961" y2="1232.959961" stroke="red" stroke-width="6.660000" />
<circle cx="1722.959961" cy="1041.959961" r="19.980000" fill="red">
  <title>New York</title>
</circle><line x1="2006.959961" y1="1232.959961" x2="1722.959961" y2="1041.959961" stroke="red" stroke-width="6.660000" />
<circle cx="1703.959961" cy="859.960022" r="19.980000" fill="red">
  <title>Karachi</title>
</circle><line x1="1722.959961" y1="1041.959961" x2="1703.959961" y2="859.960022" stroke="red" stroke-width="6.660000" />
<circle cx="2009.959961" cy="814.960022" r="19.980000" fill="red">
  <title>Cairo</title>
</circle><line x1="1703.959961" y1="859.960022" x2="2009.959961" y2="814.960022" stroke="red" stroke-width="6.660000" />
<circle cx="1842.959961" cy="688.960022" r="19.980000" fill="red">
  <title>Chongqing</title>
</circle><line x1="2009.959961" y1="814.960022" x2="1842.959961" y2="688.960022" stroke="red" stroke-width="6.660000" />
<circle cx="1753.959961" cy="492.959991" r="19.980000" fill="red">
  <title>Shanghai</title>
</circle><line x1="1842.959961" y1="688.960022" x2="1753.959961" y2="492.959991" stroke="red" stroke-width="6.660000" />
<circle cx="1097.959961" cy="135.959991" r="19.980000" fill="red">
  <title>Osaka</title>
</circle><line x1="1753.959961" y1="492.959991" x2="1097.959961" y2="135.959991" stroke="red" stroke-width="6.660000" />
<circle cx="877.960022" cy="280.959991" r="19.980000" fill="red">
  <title>Lagos</title>
</circle><line x1="1097.959961" y1="135.959991" x2="877.960022" y2="280.959991" stroke="red" stroke-width="6.660000" />
<circle cx="388.959991" cy="177.959991" r="19.980000" fill="red">
  <title>Kolkata</title>
</circle><line x1="877.960022" y1="280.959991" x2="388.959991" y2="177.959991" stroke="red" stroke-width="6.660000" />
<circle cx="546.960022" cy="738.960022" r="19.980000" fill="red">
  <title>Delhi</title>
</circle><line x1="388.959991" y1="177.959991" x2="546.960022" y2="738.960022" stroke="red" stroke-width="6.660000" />
<circle cx="564.960022" cy="896.960022" r="19.980000" fill="red">
  <title>Manila</title>
</circle><line x1="546.960022" y1="738.960022" x2="564.960022" y2="896.960022" stroke="red" stroke-width="6.660000" />
</svg>
