<?xml version="1.0" encoding="UTF-8" standalone="no"?>
<svg width="500" height="500" viewBox="0 0 2074.000000 2074.000000" xmlns="http://www.w3.org/2000/svg">
<rect x="19.000000" y="19.000000" width="2036.000000" height="2036.000000" fill="black" />
<circle cx="1561.959961" cy="1659.959961" r="19.980000" fill="red">
  <title>Tokyo</title>
</circle><line x1="1874.959961" y1="1606.959961" x2="1561.959961" y2="1659.959961" stroke="red" stroke-width="6.660000" />
<circle cx="1112.959961" cy="1522.959961" r="19.980000" fill="red">
  <title>Mumbai</title>
</circle><line x1="1561.959961" y1="1659.959961" x2="1112.959961" y2="1522.959961" stroke="red" stroke-width="6.660000" />
<circle cx="1091.959961" cy="1201.959961" r="19.980000" fill="red">
  <title>Delhi</title>
</circle><line x1="1112.959961" y1="1522.959961" x2="1091.959961" y2="1201.959961" stroke="red" stroke-width="6.660000" />
<circle cx="1330.959961" cy="500.959991" r="19.980000" fill="red">
  <title>Osaka</title>
</circle><line x1="1091.959961" y1="1201.959961" x2="1330.959961" y2="500.959991" stroke="red" stroke-width="6.660000" />
<circle cx="1421.959961" cy="79.959999" r="19.980000" fill="red">
  <title>São Paulo</title>
</circle><line x1="1330.959961" y1="500.959991" x2="1421.959961" y2="79.959999" stroke="red" stroke-width="6.660000" />
<circle cx="523.960022" cy="172.959991" r="19.980000" fill="red">
  <title>Dhaka</title>
</circle><line x1="1421.959961" y1="79.959999" x2="523.960022" y2="172.959991" stroke="red" stroke-width="6.660000" />
<circle cx="450.959991" cy="539.960022" r="19.980000" fill="red">
  <title>Karachi</title>
</circle><line x1="523.960022" y1="172.959991" x2="450.959991" y2="539.960022" stroke="red" stroke-width="6.660000" />
<circle cx="378.959991" cy="539.960022" r="19.980000" fill="red">
  <title>New York</title>
</circle><line x1="450.959991" y1="539.960022" x2="378.959991" y2="539.960022" stroke="red" stroke-width="6.660000" />
<circle cx="480.959991" cy="1556.959961" r="19.980000" fill="red">
  <title>Mexico City</title>
</circle><line x1="378.959991" y1="539.960022" x2="480.959991" y2="1556.959961" stroke="red" stroke-width="6.660000" />
<circle cx="979.960022" cy="1729.959961" r="19.980000" fill="red">
  <title>Shanghai</title>
</circle><line x1="480.959991" y1="1556.959961" x2="979.960022" y2="1729.959961" stroke="red" stroke-width="6.660000" />
<circle cx="1205.959961" cy="1782.959961" r="19.980000" fill="red">
  <title>Cairo</title>
</circle><line x1="979.960022" y1="1729.959961" x2="1205.959961" y2="1782.959961" stroke="red" stroke-width="6.660000" />
<circle cx="1874.959961" cy="1606.959961" r="19.980000" fill="red">
  <title>Beijing</title>
</circle><line x1="1205.959961" y1="1782.959961" x2="1874.959961" y2="1606.959961" stroke="red" stroke-width="6.660000" />
</svg>
