<?xml version="1.0" encoding="UTF-8" standalone="no"?>
<svg width="500" height="500" viewBox="0 0 2074.000000 2074.000000" xmlns="http://www.w3.org/2000/svg">
<rect x="19.000000" y="19.000000" width="2036.000000" height="2036.000000" fill="black" />
<circle cx="1216.959961" cy="913.960022" r="19.980000" fill="red">
  <title>Tokyo</title>
</circle><line x1="398.959991" y1="1962.959961" x2="1216.959961" y2="913.960022" stroke="red" stroke-width="6.660000" />
<circle cx="1798.959961" cy="1168.959961" r="19.980000" fill="red">
  <title>Shanghai</title>
</circle><line x1="1216.959961" y1="913.960022" x2="1798.959961" y2="1168.959961" stroke="red" stroke-width="6.660000" />
<circle cx="1361.959961" cy="710.960022" r="19.980000" fill="red">
  <title>Mexico City</title>
</circle><line x1="1798.959961" y1="1168.959961" x2="1361.959961" y2="710.960022" stroke="red" stroke-width="6.660000" />
<circle cx="1187.959961" cy="933.960022" r="19.980000" fill="red">
  <title>Delhi</title>
</circle><line x1="1361.959961" y1="710.960022" x2="1187.959961" y2="933.960022" stroke="red" stroke-width="6.660000" />
<circle cx="398.959991" cy="1962.959961" r="19.980000" fill="red">
  <title>São Paulo</title>
</circle><line x1="1187.959961" y1="933.960022" x2="398.959991" y2="1962.959961" stroke="red" stroke-width="6.660000" />
</svg>
