<?xml version="1.0" encoding="UTF-8" standalone="no"?>
<svg width="500" height="500" viewBox="0 0 2074.000000 2074.000000" xmlns="http://www.w3.org/2000/svg">
<rect x="19.000000" y="19.000000" width="2036.000000" height="2036.000000" fill="black" />
<circle cx="1370.959961" cy="892.960022" r="19.980000" fill="red">
  <title>Tokyo</title>
</circle><line x1="2007.959961" y1="991.960022" x2="1370.959961" y2="892.960022" stroke="red" stroke-width="6.660000" />
<circle cx="1152.959961" cy="1108.959961" r="19.980000" fill="red">
  <title>Mumbai</title>
</circle><line x1="1370.959961" y1="892.960022" x2="1152.959961" y2="1108.959961" stroke="red" stroke-width="6.660000" />
<circle cx="593.960022" cy="1752.959961" r="19.980000" fill="red">
  <title>São Paulo</title>
</circle><line x1="1152.959961" y1="1108.959961" x2="593.960022" y2="1752.959961" stroke="red" stroke-width="6.660000" />
<circle cx="48.959999" cy="1961.959961" r="19.980000" fill="red">
  <title>Shanghai</title>
</circle><line x1="593.960022" y1="1752.959961" x2="48.959999" y2="1961.959961" stroke="red" stroke-width="6.660000" />
<circle cx="453.959991" cy="411.959991" r="19.980000" fill="red">
  <title>Cairo</title>
</circle><line x1="48.959999" y1="1961.959961" x2="453.959991" y2="411.959991" stroke="red" stroke-width="6.660000" />
<circle cx="987.960022" cy="159.959991" r="19.980000" fill="red">
  <title>Mexico City</title>
</circle><line x1="453.959991" y1="411.959991" x2="987.960022" y2="159.959991" stroke="red" stroke-width="6.660000" />
<circle cx="1787.959961" cy="533.960022" r="19.980000" fill="red">
  <title>Beijing</title>
</circle><line x1="987.960022" y1="159.959991" x2="1787.959961" y2="533.960022" stroke="red" stroke-width="6.660000" />
<circle cx="2007.959961" cy="991.960022" r="19.980000" fill="red">
  <title>Delhi</title>
</circle><line x1="1787.959961" y1="533.960022" x2="2007.959961" y2="991.960022" stroke="red" stroke-width="6.660000" />
</svg>
