<?xml version="1.0" encoding="UTF-8" standalone="no"?>
<svg width="500" height="500" viewBox="0 0 2074.000000 2074.000000" xmlns="http://www.w3.org/2000/svg">
<rect x="19.000000" y="19.000000" width="2036.000000" height="2036.000000" fill="black" />
<circle cx="1761.959961" cy="1627.959961" r="19.980000" fill="red">
  <title>Tokyo</title>
</circle><line x1="1432.959961" y1="1174.959961" x2="1761.959961" y2="1627.959961" stroke="red" stroke-width="6.660000" />
<circle cx="1603.959961" cy="1959.959961" r="19.980000" fill="red">
  <title>Dhaka</title>
</circle><line x1="1761.959961" y1="1627.959961" x2="1603.959961" y2="1959.959961" stroke="red" stroke-width="6.660000" />
<circle cx="1568.959961" cy="1944.959961" r="19.980000" fill="red">
  <title>Kolkata</title>
</circle><line x1="1603.959961" y1="1959.959961" x2="1568.959961" y2="1944.959961" stroke="red" stroke-width="6.660000" />
<circle cx="1249.959961" cy="1922.959961" r="19.980000" fill="red">
  <title>Chongqing</title>
</circle><line x1="1568.959961" y1="1944.959961" x2="1249.959961" y2="1922.959961" stroke="red" stroke-width="6.660000" />
<circle cx="1144.959961" cy="1854.959961" r="19.980000" fill="red">
  <title>Cairo</title>
</circle><line x1="1249.959961" y1="1922.959961" x2="1144.959961" y2="1854.959961" stroke="red" stroke-width="6.660000" />
<circle cx="856.960022" cy="1987.959961" r="19.980000" fill="red">
  <title>Shanghai</title>
</circle><line x1="1144.959961" y1="1854.959961" x2="856.960022" y2="1987.959961" stroke="red" stroke-width="6.660000" />
<circle cx="171.959991" cy="1824.959961" r="19.980000" fill="red">
  <title>New York</title>
</circle><line x1="856.960022" y1="1987.959961" x2="171.959991" y2="1824.959961" stroke="red" stroke-width="6.660000" />
<circle cx="73.959999" cy="1465.959961" r="19.980000" fill="red">
  <title>Karachi</title>
</circle><line x1="171.959991" y1="1824.959961" x2="73.959999" y2="1465.959961" stroke="red" stroke-width="6.660000" />
<circle cx="158.959991" cy="1131.959961" r="19.980000" fill="red">
  <title>Manila</title>
</circle><line x1="73.959999" y1="1465.959961" x2="158.959991" y2="1131.959961" stroke="red" stroke-width="6.660000" />
<circle cx="199.959991" cy="526.960022" r="19.980000" fill="red">
  <title>São Paulo</title>
</circle><line x1="158.959991" y1="1131.959961" x2="199.959991" y2="526.960022" stroke="red" stroke-width="6.660000" />
<circle cx="222.959991" cy="569.960022" r="19.980000" fill="red">
  <title>Istanbul</title>
</circle><line x1="199.959991" y1="526.960022" x2="222.959991" y2="569.960022" stroke="red" stroke-width="6.660000" />
<circle cx="1242.959961" cy="968.960022" r="19.980000" fill="red">
  <title>Mexico City</title>
</circle><line x1="222.959991" y1="569.960022" x2="1242.959961" y2="968.960022" stroke="red" stroke-width="6.660000" />
<circle cx="1469.959961" cy="912.960022" r="19.980000" fill="red">
  <title>Mumbai</title>
</circle><line x1="1242.959961" y1="968.960022" x2="1469.959961" y2="912.960022" stroke="red" stroke-width="6.660000" />
<circle cx="1712.959961" cy="126.959999" r="19.980000" fill="red">
  <title>Buenos Aires</title>
</circle><line x1="1469.959961" y1="912.960022" x2="1712.959961" y2="126.959999" stroke="red" stroke-width="6.660000" />
<circle cx="1636.959961" cy="565.960022" r="19.980000" fill="red">
  <title>Beijing</title>
</circle><line x1="1712.959961" y1="126.959999" x2="1636.959961" y2="565.960022" stroke="red" stroke-width="6.660000" />
<circle cx="1600.959961" cy="951.960022" r="19.980000" fill="red">
  <title>Delhi</title>
</circle><line x1="1636.959961" y1="565.960022" x2="1600.959961" y2="951.960022" stroke="red" stroke-width="6.660000" />
<circle cx="1432.959961" cy="1174.959961" r="19.980000" fill="red">
  <title>Osaka</title>
</circle><line x1="1600.959961" y1="951.960022" x2="1432.959961" y2="1174.959961" stroke="red" stroke-width="6.660000" />
</svg>
