<?xml version="1.0" encoding="UTF-8" standalone="no"?>
<svg width="500" height="500" viewBox="0 0 2074.000000 2074.000000" xmlns="http://www.w3.org/2000/svg">
<rect x="19.000000" y="19.000000" width="2036.000000" height="2036.000000" fill="black" />
<circle cx="666.960022" cy="606.960022" r="19.980000" fill="red">
  <title>Tokyo</title>
</circle><line x1="764.960022" y1="45.959999" x2="666.960022" y2="606.960022" stroke="red" stroke-width="6.660000" />
<circle cx="1001.960022" cy="1124.959961" r="19.980000" fill="red">
  <title>Mexico City</title>
</circle><line x1="666.960022" y1="606.960022" x2="1001.960022" y2="1124.959961" stroke="red" stroke-width="6.660000" />
<circle cx="1188.959961" cy="700.960022" r="19.980000" fill="red">
  <title>Buenos Aires</title>
</circle><line x1="1001.960022" y1="1124.959961" x2="1188.959961" y2="700.960022" stroke="red" stroke-width="6.660000" />
<circle cx="1640.959961" cy="534.960022" r="19.980000" fill="red">
  <title>Dhaka</title>
</circle><line x1="1188.959961" y1="700.960022" x2="1640.959961" y2="534.960022" stroke="red" stroke-width="6.660000" />
<circle cx="1673.959961" cy="445.959991" r="19.980000" fill="red">
  <title>Osaka</title>
</circle><line x1="1640.959961" y1="534.960022" x2="1673.959961" y2="445.959991" stroke="red" stroke-width="6.660000" />
<circle cx="1859.959961" cy="893.960022" r="19.980000" fill="red">
  <title>São Paulo</title>
</circle><line x1="1673.959961" y1="445.959991" x2="1859.959961" y2="893.960022" stroke="red" stroke-width="6.660000" />
<circle cx="1817.959961" cy="1943.959961" r="19.980000" fill="red">
  <title>Cairo</title>
</circle><line x1="1859.959961" y1="893.960022" x2="1817.959961" y2="1943.959961" stroke="red" stroke-width="6.660000" />
<circle cx="1087.959961" cy="1638.959961" r="19.980000" fill="red">
  <title>Kolkata</title>
</circle><line x1="1817.959961" y1="1943.959961" x2="1087.959961" y2="1638.959961" stroke="red" stroke-width="6.660000" />
<circle cx="1010.960022" cy="1747.959961" r="19.980000" fill="red">
  <title>Istanbul</title>
</circle><line x1="1087.959961" y1="1638.959961" x2="1010.960022" y2="1747.959961" stroke="red" stroke-width="6.660000" />
<circle cx="701.960022" cy="1591.959961" r="19.980000" fill="red">
  <title>Chongqing</title>
</circle><line x1="1010.960022" y1="1747.959961" x2="701.960022" y2="1591.959961" stroke="red" stroke-width="6.660000" />
<circle cx="561.960022" cy="1543.959961" r="19.980000" fill="red">
  <title>Beijing</title>
</circle><line x1="701.960022" y1="1591.959961" x2="561.960022" y2="1543.959961" stroke="red" stroke-width="6.660000" />
<circle cx="139.959991" cy="1220.959961" r="19.980000" fill="red">
  <title>Shanghai</title>
</circle><line x1="561.960022" y1="1543.959961" x2="139.959991" y2="1220.959961" stroke="red" stroke-width="6.660000" />
<circle cx="494.959991" cy="761.960022" r="19.980000" fill="red">
  <title>Delhi</title>
</circle><line x1="139.959991" y1="1220.959961" x2="494.959991" y2="761.960022" stroke="red" stroke-width="6.660000" />
<circle cx="155.959991" cy="542.960022" r="19.980000" fill="red">
  <title>Mumbai</title>
</circle><line x1="494.959991" y1="761.960022" x2="155.959991" y2="542.960022" stroke="red" stroke-width="6.660000" />
<circle cx="464.959991" cy="171.959991" r="19.980000" fill="red">
  <title>New York</title>
</circle><line x1="155.959991" y1="542.960022" x2="464.959991" y2="171.959991" stroke="red" stroke-width="6.660000" />
<circle cx="764.960022" cy="45.959999" r="19.980000" fill="red">
  <title>Karachi</title>
</circle><line x1="464.959991" y1="171.959991" x2="764.960022" y2="45.959999" stroke="red" stroke-width="6.660000" />
</svg>
