<?xml version="1.0" encoding="UTF-8" standalone="no"?>
<svg width="500" height="500" viewBox="0 0 2074.000000 2074.000000" xmlns="http://www.w3.org/2000/svg">
<rect x="19.000000" y="19.000000" width="2036.000000" height="2036.000000" fill="black" />
<circle cx="1399.959961" cy="648.960022" r="19.980000" fill="red">
  <title>Tokyo</title>
</circle><line x1="570.960022" y1="478.959991" x2="1399.959961" y2="648.960022" stroke="red" stroke-width="6.660000" />
<circle cx="1460.959961" cy="1039.959961" r="19.980000" fill="red">
  <title>Shanghai</title>
</circle><line x1="1399.959961" y1="648.960022" x2="1460.959961" y2="1039.959961" stroke="red" stroke-width="6.660000" />
<circle cx="1202.959961" cy="1392.959961" r="19.980000" fill="red">
  <title>São Paulo</title>
</circle><line x1="1460.959961" y1="1039.959961" x2="1202.959961" y2="1392.959961" stroke="red" stroke-width="6.660000" />
<circle cx="1065.959961" cy="1559.959961" r="19.980000" fill="red">
  <title>Delhi</title>
</circle><line x1="1202.959961" y1="1392.959961" x2="1065.959961" y2="1559.959961" stroke="red" stroke-width="6.660000" />
<circle cx="570.960022" cy="478.959991" r="19.980000" fill="red">
  <title>Mexico City</title>
</circle><line x1="1065.959961" y1="1559.959961" x2="570.960022" y2="478.959991" stroke="red" stroke-width="6.660000" />
</svg>
