<?xml version="1.0" encoding="UTF-8" standalone="no"?>
<svg width="500" height="500" viewBox="0 0 2074.000000 2074.000000" xmlns="http://www.w3.org/2000/svg">
<rect x="19.000000" y="19.000000" width="2036.000000" height="2036.000000" fill="black" />
<circle cx="55.959999" cy="1401.959961" r="19.980000" fill="red">
  <title>Tokyo</title>
</circle><line x1="115.959999" y1="1450.959961" x2="55.959999" y2="1401.959961" stroke="red" stroke-width="6.660000" />
<circle cx="364.959991" cy="1196.959961" r="19.980000" fill="red">
  <title>Mexico City</title>
</circle><line x1="55.959999" y1="1401.959961" x2="364.959991" y2="1196.959961" stroke="red" stroke-width="6.660000" />
<circle cx="633.960022" cy="1097.959961" r="19.980000" fill="red">
  <title>São Paulo</title>
</circle><line x1="364.959991" y1="1196.959961" x2="633.960022" y2="1097.959961" stroke="red" stroke-width="6.660000" />
<circle cx="488.959991" cy="308.959991" r="19.980000" fill="red">
  <title>Shanghai</title>
</circle><line x1="633.960022" y1="1097.959961" x2="488.959991" y2="308.959991" stroke="red" stroke-width="6.660000" />
<circle cx="1429.959961" cy="754.960022" r="19.980000" fill="red">
  <title>Cairo</title>
</circle><line x1="488.959991" y1="308.959991" x2="1429.959961" y2="754.960022" stroke="red" stroke-width="6.660000" />
<circle cx="1886.959961" cy="1067.959961" r="19.980000" fill="red">
  <title>Dhaka</title>
</circle><line x1="1429.959961" y1="754.960022" x2="1886.959961" y2="1067.959961" stroke="red" stroke-width="6.660000" />
<circle cx="1749.959961" cy="1241.959961" r="19.980000" fill="red">
  <title>Delhi</title>
</circle><line x1="1886.959961" y1="1067.959961" x2="1749.959961" y2="1241.959961" stroke="red" stroke-width="6.660000" />
<circle cx="1406.959961" cy="887.960022" r="19.980000" fill="red">
  <title>Mumbai</title>
</circle><line x1="1749.959961" y1="1241.959961" x2="1406.959961" y2="887.960022" stroke="red" stroke-width="6.660000" />
<circle cx="841.960022" cy="1294.959961" r="19.980000" fill="red">
  <title>Osaka</title>
</circle><line x1="1406.959961" y1="887.960022" x2="841.960022" y2="1294.959961" stroke="red" stroke-width="6.660000" />
<circle cx="468.959991" cy="1431.959961" r="19.980000" fill="red">
  <title>Beijing</title>
</circle><line x1="841.960022" y1="1294.959961" x2="468.959991" y2="1431.959961" stroke="red" stroke-width="6.660000" />
<circle cx="115.959999" cy="1450.959961" r="19.980000" fill="red">
  <title>New York</title>
</circle><line x1="468.959991" y1="1431.959961" x2="115.959999" y2="1450.959961" stroke="red" stroke-width="6.660000" />
</svg>
