<?xml version="1.0" encoding="UTF-8" standalone="no"?>
<svg width="500" height="500" viewBox="0 0 2074.000000 2074.000000" xmlns="http://www.w3.org/2000/svg">
<rect x="19.000000" y="19.000000" width="2036.000000" height="2036.000000" fill="black" />
<circle cx="616.960022" cy="378.959991" r="19.980000" fill="red">
  <title>Tokyo</title>
</circle><line x1="75.959999" y1="640.960022" x2="616.960022" y2="378.959991" stroke="red" stroke-width="6.660000" />
<circle cx="1563.959961" cy="595.960022" r="19.980000" fill="red">
  <title>Shanghai</title>
</circle><line x1="616.960022" y1="378.959991" x2="1563.959961" y2="595.960022" stroke="red" stroke-width="6.660000" />
<circle cx="1621.959961" cy="1949.959961" r="19.980000" fill="red">
  <title>São Paulo</title>
</circle><line x1="1563.959961" y1="595.960022" x2="1621.959961" y2="1949.959961" stroke="red" stroke-width="6.660000" />
<circle cx="506.959991" cy="1914.959961" r="19.980000" fill="red">
  <title>Mexico City</title>
</circle><line x1="1621.959961" y1="1949.959961" x2="506.959991" y2="1914.959961" stroke="red" stroke-width="6.660000" />
<circle cx="389.959991" cy="1831.959961" r="19.980000" fill="red">
  <title>Delhi</title>
</circle><line x1="506.959991" y1="1914.959961" x2="389.959991" y2="1831.959961" stroke="red" stroke-width="6.660000" />
<circle cx="214.959991" cy="1812.959961" r="19.980000" fill="red">
  <title>Dhaka</title>
</circle><line x1="389.959991" y1="1831.959961" x2="214.959991" y2="1812.959961" stroke="red" stroke-width="6.660000" />
<circle cx="239.959991" cy="1447.959961" r="19.980000" fill="red">
  <title>Mumbai</title>
</circle><line x1="214.959991" y1="1812.959961" x2="239.959991" y2="1447.959961" stroke="red" stroke-width="6.660000" />
<circle cx="604.960022" cy="1195.959961" r="19.980000" fill="red">
  <title>Cairo</title>
</circle><line x1="239.959991" y1="1447.959961" x2="604.960022" y2="1195.959961" stroke="red" stroke-width="6.660000" />
<circle cx="75.959999" cy="640.960022" r="19.980000" fill="red">
  <title>Beijing</title>
</circle><line x1="604.960022" y1="1195.959961" x2="75.959999" y2="640.960022" stroke="red" stroke-width="6.660000" />
</svg>
