<?xml version="1.0" encoding="UTF-8" standalone="no"?>
<svg width="500" height="500" viewBox="0 0 2074.000000 2074.000000" xmlns="http://www.w3.org/2000/svg">
<rect x="19.000000" y="19.000000" width="2036.000000" height="2036.000000" fill="black" />
<circle cx="441.959991" cy="1480.959961" r="19.980000" fill="red">
  <title>Tokyo</title>
</circle><line x1="268.959991" y1="1964.959961" x2="441.959991" y2="1480.959961" stroke="red" stroke-width="6.660000" />
<circle cx="710.960022" cy="1633.959961" r="19.980000" fill="red">
  <title>Osaka</title>
</circle><line x1="441.959991" y1="1480.959961" x2="710.960022" y2="1633.959961" stroke="red" stroke-width="6.660000" />
<circle cx="1351.959961" cy="1597.959961" r="19.980000" fill="red">
  <title>Delhi</title>
</circle><line x1="710.960022" y1="1633.959961" x2="1351.959961" y2="1597.959961" stroke="red" stroke-width="6.660000" />
<circle cx="1966.959961" cy="1704.959961" r="19.980000" fill="red">
  <title>Mexico City</title>
</circle><line x1="1351.959961" y1="1597.959961" x2="1966.959961" y2="1704.959961" stroke="red" stroke-width="6.660000" />
<circle cx="1934.959961" cy="898.960022" r="19.980000" fill="red">
  <title>Karachi</title>
</circle><line x1="1966.959961" y1="1704.959961" x2="1934.959961" y2="898.960022" stroke="red" stroke-width="6.660000" />
<circle cx="1588.959961" cy="738.960022" r="19.980000" fill="red">
  <title>Buenos Aires</title>
</circle><line x1="1934.959961" y1="898.960022" x2="1588.959961" y2="738.960022" stroke="red" stroke-width="6.660000" />
<circle cx="1800.959961" cy="132.959991" r="19.980000" fill="red">
  <title>Beijing</title>
</circle><line x1="1588.959961" y1="738.960022" x2="1800.959961" y2="132.959991" stroke="red" stroke-width="6.660000" />
<circle cx="656.960022" cy="443.959991" r="19.980000" fill="red">
  <title>Mumbai</title>
</circle><line x1="1800.959961" y1="132.959991" x2="656.960022" y2="443.959991" stroke="red" stroke-width="6.660000" />
<circle cx="124.959999" cy="575.960022" r="19.980000" fill="red">
  <title>Cairo</title>
</circle><line x1="656.960022" y1="443.959991" x2="124.959999" y2="575.960022" stroke="red" stroke-width="6.660000" />
<circle cx="376.959991" cy="817.960022" r="19.980000" fill="red">
  <title>Chongqing</title>
</circle><line x1="124.959999" y1="575.960022" x2="376.959991" y2="817.960022" stroke="red" stroke-width="6.660000" />
<circle cx="336.959991" cy="833.960022" r="19.980000" fill="red">
  <title>São Paulo</title>
</circle><line x1="376.959991" y1="817.960022" x2="336.959991" y2="833.960022" stroke="red" stroke-width="6.660000" />
<circle cx="295.959991" cy="1204.959961" r="19.980000" fill="red">
  <title>Shanghai</title>
</circle><line x1="336.959991" y1="833.960022" x2="295.959991" y2="1204.959961" stroke="red" stroke-width="6.660000" />
<circle cx="85.959999" cy="1254.959961" r="19.980000" fill="red">
  <title>Dhaka</title>
</circle><line x1="295.959991" y1="1204.959961" x2="85.959999" y2="1254.959961" stroke="red" stroke-width="6.660000" />
<circle cx="69.959999" cy="1815.959961" r="19.980000" fill="red">
  <title>Istanbul</title>
</circle><line x1="85.959999" y1="1254.959961" x2="69.959999" y2="1815.959961" stroke="red" stroke-width="6.660000" />
<circle cx="268.959991" cy="1964.959961" r="19.980000" fill="red">
  <title>New York</title>
</circle><line x1="69.959999" y1="1815.959961" x2="268.959991" y2="1964.959961" stroke="red" stroke-width="6.660000" />
</svg>
