<?xml version="1.0" encoding="UTF-8" standalone="no"?>
<svg width="500" height="500" viewBox="0 0 2074.000000 2074.000000" xmlns="http://www.w3.org/2000/svg">
<rect x="19.000000" y="19.000000" width="2036.000000" height="2036.000000" fill="black" />
<circle cx="1959.959961" cy="477.959991" r="19.980000" fill="red">
  <title>Tokyo</title>
</circle><line x1="474.959991" y1="622.960022" x2="1959.959961" y2="477.959991" stroke="red" stroke-width="6.660000" />
<circle cx="1553.959961" cy="1530.959961" r="19.980000" fill="red">
  <title>Delhi</title>
</circle><line x1="1959.959961" y1="477.959991" x2="1553.959961" y2="1530.959961" stroke="red" stroke-width="6.660000" />
<circle cx="1887.959961" cy="1822.959961" r="19.980000" fill="red">
  <title>Cairo</title>
</circle><line x1="1553.959961" y1="1530.959961" x2="1887.959961" y2="1822.959961" stroke="red" stroke-width="6.660000" />
<circle cx="1530.959961" cy="1841.959961" r="19.980000" fill="red">
  <title>São Paulo</title>
</circle><line x1="1887.959961" y1="1822.959961" x2="1530.959961" y2="1841.959961" stroke="red" stroke-width="6.660000" />
<circle cx="159.959991" cy="1982.959961" r="19.980000" fill="red">
  <title>Shanghai</title>
</circle><line x1="1530.959961" y1="1841.959961" x2="159.959991" y2="1982.959961" stroke="red" stroke-width="6.660000" />
<circle cx="643.960022" cy="1373.959961" r="19.980000" fill="red">
  <title>Mumbai</title>
</circle><line x1="159.959991" y1="1982.959961" x2="643.960022" y2="1373.959961" stroke="red" stroke-width="6.660000" />
<circle cx="670.960022" cy="1080.959961" r="19.980000" fill="red">
  <title>Beijing</title>
</circle><line x1="643.960022" y1="1373.959961" x2="670.960022" y2="1080.959961" stroke="red" stroke-width="6.660000" />
<circle cx="474.959991" cy="622.960022" r="19.980000" fill="red">
  <title>Mexico City</title>
</circle><line x1="670.960022" y1="1080.959961" x2="474.959991" y2="622.960022" stroke="red" stroke-width="6.660000" />
</svg>
