<?xml version="1.0" encoding="UTF-8" standalone="no"?>
<svg width="500" height="500" viewBox="0 0 2074.000000 2074.000000" xmlns="http://www.w3.org/2000/svg">
<rect x="19.000000" y="19.000000" width="2036.000000" height="2036.000000" fill="black" />
<circle cx="210.959991" cy="1169.959961" r="19.980000" fill="red">
  <title>Tokyo</title>
</circle><line x1="776.960022" y1="1083.959961" x2="210.959991" y2="1169.959961" stroke="red" stroke-width="6.660000" />
<circle cx="355.959991" cy="1385.959961" r="19.980000" fill="red">
  <title>Mumbai</title>
</circle><line x1="210.959991" y1="1169.959961" x2="355.959991" y2="1385.959961" stroke="red" stroke-width="6.660000" />
<circle cx="711.960022" cy="1745.959961" r="19.980000" fill="red">
  <title>Istanbul</title>
</circle><line x1="355.959991" y1="1385.959961" x2="711.960022" y2="1745.959961" stroke="red" stroke-width="6.660000" />
<circle cx="704.960022" cy="1868.959961" r="19.980000" fill="red">
  <title>Dhaka</title>
</circle><line x1="711.960022" y1="1745.959961" x2="704.960022" y2="1868.959961" stroke="red" stroke-width="6.660000" />
<circle cx="877.960022" cy="1932.959961" r="19.980000" fill="red">
  <title>Manila</title>
</circle><line x1="704.960022" y1="1868.959961" x2="877.960022" y2="1932.959961" stroke="red" stroke-width="6.660000" />
<circle cx="1265.959961" cy="1368.959961" r="19.980000" fill="red">
  <title>Shanghai</title>
</circle><line x1="877.960022" y1="1932.959961" x2="1265.959961" y2="1368.959961" stroke="red" stroke-width="6.660000" />
<circle cx="1626.959961" cy="1081.959961" r="19.980000" fill="red">
  <title>Cairo</title>
</circle><line x1="1265.959961" y1="1368.959961" x2="1626.959961" y2="1081.959961" stroke="red" stroke-width="6.660000" />
<circle cx="1834.959961" cy="1286.959961" r="19.980000" fill="red">
  <title>Beijing</title>
</circle><line x1="1626.959961" y1="1081.959961" x2="1834.959961" y2="1286.959961" stroke="red" stroke-width="6.660000" />
<circle cx="1980.959961" cy="1606.959961" r="19.980000" fill="red">
  <title>New York</title>
</circle><line x1="1834.959961" y1="1286.959961" x2="1980.959961" y2="1606.959961" stroke="red" stroke-width="6.660000" />
<circle cx="2005.959961" cy="1283.959961" r="19.980000" fill="red">
  <title>Delhi</title>
</circle><line x1="1980.959961" y1="1606.959961" x2="2005.959961" y2="1283.959961" stroke="red" stroke-width="6.660000" />
<circle cx="1965.959961" cy="883.960022" r="19.980000" fill="red">
  <title>Kolkata</title>
</circle><line x1="2005.959961" y1="1283.959961" x2="1965.959961" y2="883.960022" stroke="red" stroke-width="6.660000" />
<circle cx="1948.959961" cy="753.960022" r="19.980000" fill="red">
  <title>Mexico City</title>
</circle><line x1="1965.959961" y1="883.960022" x2="1948.959961" y2="753.960022" stroke="red" stroke-width="6.660000" />
<circle cx="1203.959961" cy="334.959991" r="19.980000" fill="red">
  <title>Chongqing</title>
</circle><line x1="1948.959961" y1="753.960022" x2="1203.959961" y2="334.959991" stroke="red" stroke-width="6.660000" />
<circle cx="922.960022" cy="261.959991" r="19.980000" fill="red">
  <title>Karachi</title>
</circle><line x1="1203.959961" y1="334.959991" x2="922.960022" y2="261.959991" stroke="red" stroke-width="6.660000" />
<circle cx="777.960022" cy="284.959991" r="19.980000" fill="red">
  <title>São Paulo</title>
</circle><line x1="922.960022" y1="261.959991" x2="777.960022" y2="284.959991" stroke="red" stroke-width="6.660000" />
<circle cx="785.960022" cy="738.960022" r="19.980000" fill="red">
  <title>Buenos Aires</title>
</circle><line x1="777.960022" y1="284.959991" x2="785.960022" y2="738.960022" stroke="red" stroke-width="6.660000" />
<circle cx="776.960022" cy="1083.959961" r="19.980000" fill="red">
  <title>Osaka</title>
</circle><line x1="785.960022" y1="738.960022" x2="776.960022" y2="1083.959961" stroke="red" stroke-width="6.660000" />
</svg>
