<?xml version="1.0" encoding="UTF-8" standalone="no"?>
<svg width="500" height="500" viewBox="0 0 2074.000000 2074.000000" xmlns="http://www.w3.org/2000/svg">
<rect x="19.000000" y="19.000000" width="2036.000000" height="2036.000000" fill="black" />
<circle cx="456.959991" cy="1605.959961" r="19.980000" fill="red">
  <title>Tokyo</title>
</circle><line x1="1017.960022" y1="556.960022" x2="456.959991" y2="1605.959961" stroke="red" stroke-width="6.660000" />
<circle cx="399.959991" cy="645.960022" r="19.980000" fill="red">
  <title>Shanghai</title>
</circle><line x1="456.959991" y1="1605.959961" x2="399.959991" y2="645.960022" stroke="red" stroke-width="6.660000" />
<circle cx="1859.959961" cy="261.959991" r="19.980000" fill="red">
  <title>Delhi</title>
</circle><line x1="399.959991" y1="645.960022" x2="1859.959961" y2="261.959991" stroke="red" stroke-width="6.660000" />
<circle cx="1017.960022" cy="556.960022" r="19.980000" fill="red">
  <title>São Paulo</title>
</circle><line x1="1859.959961" y1="261.959991" x2="1017.960022" y2="556.960022" stroke="red" stroke-width="6.660000" />
</svg>
