<?xml version="1.0" encoding="UTF-8" standalone="no"?>
<svg width="500" height="500" viewBox="0 0 2074.000000 2074.000000" xmlns="http://www.w3.org/2000/svg">
<rect x="19.000000" y="19.000000" width="2036.000000" height="2036.000000" fill="black" />
<circle cx="1997.959961" cy="1322.959961" r="19.980000" fill="red">
  <title>Tokyo</title>
</circle><line x1="1129.959961" y1="150.959991" x2="1997.959961" y2="1322.959961" stroke="red" stroke-width="6.660000" />
<circle cx="1847.959961" cy="1795.959961" r="19.980000" fill="red">
  <title>Shanghai</title>
</circle><line x1="1997.959961" y1="1322.959961" x2="1847.959961" y2="1795.959961" stroke="red" stroke-width="6.660000" />
<circle cx="518.960022" cy="1516.959961" r="19.980000" fill="red">
  <title>Mexico City</title>
</circle><line x1="1847.959961" y1="1795.959961" x2="518.960022" y2="1516.959961" stroke="red" stroke-width="6.660000" />
<circle cx="125.959999" cy="1249.959961" r="19.980000" fill="red">
  <title>São Paulo</title>
</circle><line x1="518.960022" y1="1516.959961" x2="125.959999" y2="1249.959961" stroke="red" stroke-width="6.660000" />
<circle cx="262.959991" cy="1054.959961" r="19.980000" fill="red">
  <title>Cairo</title>
</circle><line x1="125.959999" y1="1249.959961" x2="262.959991" y2="1054.959961" stroke="red" stroke-width="6.660000" />
<circle cx="491.959991" cy="745.960022" r="19.980000" fill="red">
  <title>Delhi</title>
</circle><line x1="262.959991" y1="1054.959961" x2="491.959991" y2="745.960022" stroke="red" stroke-width="6.660000" />
<circle cx="1129.959961" cy="150.959991" r="19.980000" fill="red">
  <title>Mumbai</title>
</circle><line x1="491.959991" y1="745.960022" x2="1129.959961" y2="150.959991" stroke="red" stroke-width="6.660000" />
</svg>
