<?xml version="1.0" encoding="UTF-8" standalone="no"?>
<svg width="500" height="500" viewBox="0 0 2074.000000 2074.000000" xmlns="http://www.w3.org/2000/svg">
<rect x="19.000000" y="19.000000" width="2036.000000" height="2036.000000" fill="black" />
<circle cx="1035.959961" cy="1023.960022" r="19.980000" fill="red">
  <title>Tokyo</title>
</circle><line x1="1028.959961" y1="1538.959961" x2="1035.959961" y2="1023.960022" stroke="red" stroke-width="6.660000" />
<circle cx="1330.959961" cy="1372.959961" r="19.980000" fill="red">
  <title>São Paulo</title>
</circle><line x1="1035.959961" y1="1023.960022" x2="1330.959961" y2="1372.959961" stroke="red" stroke-width="6.660000" />
<circle cx="1685.959961" cy="1038.959961" r="19.980000" fill="red">
  <title>Dhaka</title>
</circle><line x1="1330.959961" y1="1372.959961" x2="1685.959961" y2="1038.959961" stroke="red" stroke-width="6.660000" />
<circle cx="1983.959961" cy="1159.959961" r="19.980000" fill="red">
  <title>Chongqing</title>
</circle><line x1="1685.959961" y1="1038.959961" x2="1983.959961" y2="1159.959961" stroke="red" stroke-width="6.660000" />
<circle cx="1679.959961" cy="838.960022" r="19.980000" fill="red">
  <title>Mumbai</title>
</circle><line x1="1983.959961" y1="1159.959961" x2="1679.959961" y2="838.960022" stroke="red" stroke-width="6.660000" />
<circle cx="1624.959961" cy="851.960022" r="19.980000" fill="red">
  <title>Karachi</title>
</circle><line x1="1679.959961" y1="838.960022" x2="1624.959961" y2="851.960022" stroke="red" stroke-width="6.660000" />
<circle cx="1536.959961" cy="678.960022" r="19.980000" fill="red">
  <title>Mexico City</title>
</circle><line x1="1624.959961" y1="851.960022" x2="1536.959961" y2="678.960022" stroke="red" stroke-width="6.660000" />
<circle cx="1472.959961" cy="210.959991" r="19.980000" fill="red">
  <title>Beijing</title>
</circle><line x1="1536.959961" y1="678.960022" x2="1472.959961" y2="210.959991" stroke="red" stroke-width="6.660000" />
<circle cx="815.960022" cy="511.959991" r="19.980000" fill="red">
  <title>Cairo</title>
</circle><line x1="1472.959961" y1="210.959991" x2="815.960022" y2="511.959991" stroke="red" stroke-width="6.660000" />
<circle cx="396.959991" cy="252.959991" r="19.980000" fill="red">
  <title>Istanbul</title>
</circle><line x1="815.960022" y1="511.959991" x2="396.959991" y2="252.959991" stroke="red" stroke-width="6.660000" />
<circle cx="213.959991" cy="451.959991" r="19.980000" fill="red">
  <title>Delhi</title>
</circle><line x1="396.959991" y1="252.959991" x2="213.959991" y2="451.959991" stroke="red" stroke-width="6.660000" />
<circle cx="120.959999" cy="1265.959961" r="19.980000" fill="red">
  <title>Buenos Aires</title>
</circle><line x1="213.959991" y1="451.959991" x2="120.959999" y2="1265.959961" stroke="red" stroke-width="6.660000" />
<circle cx="304.959991" cy="1573.959961" r="19.980000" fill="red">
  <title>New York</title>
</circle><line x1="120.959999" y1="1265.959961" x2="304.959991" y2="1573.959961" stroke="red" stroke-width="6.660000" />
<circle cx="327.959991" cy="1909.959961" r="19.980000" fill="red">
  <title>Shanghai</title>
</circle><line x1="304.959991" y1="1573.959961" x2="327.959991" y2="1909.959961" stroke="red" stroke-width="6.660000" />
<circle cx="1028.959961" cy="1538.959961" r="19.980000" fill="red">
  <title>Osaka</title>
</circle><line x1="327.959991" y1="1909.959961" x2="1028.959961" y2="1538.959961" stroke="red" stroke-width="6.660000" />
</svg>
