<?xml version="1.0" encoding="UTF-8" standalone="no"?>
<svg width="500" height="500" viewBox="0 0 2074.000000 2074.000000" xmlns="http://www.w3.org/2000/svg">
<rect x="19.000000" y="19.000000" width="2036.000000" height="2036.000000" fill="black" />
<circle cx="299.959991" cy="1703.959961" r="19.980000" fill="red">
  <title>Tokyo</title>
</circle><line x1="203.959991" y1="1544.959961" x2="299.959991" y2="1703.959961" stroke="red" stroke-width="6.660000" />
<circle cx="1072.959961" cy="1271.959961" r="19.980000" fill="red">
  <title>Shanghai</title>
</circle><line x1="299.959991" y1="1703.959961" x2="1072.959961" y2="1271.959961" stroke="red" stroke-width="6.660000" />
<circle cx="1776.959961" cy="255.959991" r="19.980000" fill="red">
  <title>Delhi</title>
</circle><line x1="1072.959961" y1="1271.959961" x2="1776.959961" y2="255.959991" stroke="red" stroke-width="6.660000" />
<circle cx="572.960022" cy="1402.959961" r="19.980000" fill="red">
  <title>São Paulo</title>
</circle><line x1="1776.959961" y1="255.959991" x2="572.960022" y2="1402.959961" stroke="red" stroke-width="6.660000" />
<circle cx="203.959991" cy="1544.959961" r="19.980000" fill="red">
  <title>Mexico City</title>
</circle><line x1="572.960022" y1="1402.959961" x2="203.959991" y2="1544.959961" stroke="red" stroke-width="6.660000" />
</svg>
