<?xml version="1.0" encoding="UTF-8" standalone="no"?>
<svg width="500" height="500" viewBox="0 0 2074.000000 2074.000000" xmlns="http://www.w3.org/2000/svg">
<rect x="19.000000" y="19.000000" width="2036.000000" height="2036.000000" fill="black" />
<circle cx="1376.959961" cy="1385.959961" r="19.980000" fill="red">
  <title>Tokyo</title>
</circle><line x1="1487.959961" y1="945.960022" x2="1376.959961" y2="1385.959961" stroke="red" stroke-width="6.660000" />
<circle cx="307.959991" cy="1487.959961" r="19.980000" fill="red">
  <title>Delhi</title>
</circle><line x1="1376.959961" y1="1385.959961" x2="307.959991" y2="1487.959961" stroke="red" stroke-width="6.660000" />
<circle cx="149.959991" cy="1684.959961" r="19.980000" fill="red">
  <title>Mumbai</title>
</circle><line x1="307.959991" y1="1487.959961" x2="149.959991" y2="1684.959961" stroke="red" stroke-width="6.660000" />
<circle cx="204.959991" cy="1392.959961" r="19.980000" fill="red">
  <title>São Paulo</title>
</circle><line x1="149.959991" y1="1684.959961" x2="204.959991" y2="1392.959961" stroke="red" stroke-width="6.660000" />
<circle cx="885.960022" cy="502.959991" r="19.980000" fill="red">
  <title>Beijing</title>
</circle><line x1="204.959991" y1="1392.959961" x2="885.960022" y2="502.959991" stroke="red" stroke-width="6.660000" />
<circle cx="1374.959961" cy="143.959991" r="19.980000" fill="red">
  <title>Mexico City</title>
</circle><line x1="885.960022" y1="502.959991" x2="1374.959961" y2="143.959991" stroke="red" stroke-width="6.660000" />
<circle cx="1637.959961" cy="150.959991" r="19.980000" fill="red">
  <title>Shanghai</title>
</circle><line x1="1374.959961" y1="143.959991" x2="1637.959961" y2="150.959991" stroke="red" stroke-width="6.660000" />
<circle cx="2019.959961" cy="282.959991" r="19.980000" fill="red">
  <title>Dhaka</title>
</circle><line x1="1637.959961" y1="150.959991" x2="2019.959961" y2="282.959991" stroke="red" stroke-width="6.660000" />
<circle cx="1487.959961" cy="945.960022" r="19.980000" fill="red">
  <title>Cairo</title>
</circle><line x1="2019.959961" y1="282.959991" x2="1487.959961" y2="945.960022" stroke="red" stroke-width="6.660000" />
</svg>
