<?xml version="1.0" encoding="UTF-8" standalone="no"?>
<svg width="500" height="500" viewBox="0 0 2074.000000 2074.000000" xmlns="http://www.w3.org/2000/svg">
<rect x="19.000000" y="19.000000" width="2036.000000" height="2036.000000" fill="black" />
<circle cx="331.959991" cy="640.960022" r="19.980000" fill="red">
  <title>Tokyo</title>
</circle><line x1="586.960022" y1="133.959991" x2="331.959991" y2="640.960022" stroke="red" stroke-width="6.660000" />
<circle cx="189.959991" cy="774.960022" r="19.980000" fill="red">
  <title>Osaka</title>
</circle><line x1="331.959991" y1="640.960022" x2="189.959991" y2="774.960022" stroke="red" stroke-width="6.660000" />
<circle cx="188.959991" cy="786.960022" r="19.980000" fill="red">
  <title>Karachi</title>
</circle><line x1="189.959991" y1="774.960022" x2="188.959991" y2="786.960022" stroke="red" stroke-width="6.660000" />
<circle cx="681.960022" cy="877.960022" r="19.980000" fill="red">
  <title>Beijing</title>
</circle><line x1="188.959991" y1="786.960022" x2="681.960022" y2="877.960022" stroke="red" stroke-width="6.660000" />
<circle cx="833.960022" cy="1242.959961" r="19.980000" fill="red">
  <title>Delhi</title>
</circle><line x1="681.960022" y1="877.960022" x2="833.960022" y2="1242.959961" stroke="red" stroke-width="6.660000" />
<circle cx="1125.959961" cy="1189.959961" r="19.980000" fill="red">
  <title>Chongqing</title>
</circle><line x1="833.960022" y1="1242.959961" x2="1125.959961" y2="1189.959961" stroke="red" stroke-width="6.660000" />
<circle cx="1297.959961" cy="1577.959961" r="19.980000" fill="red">
  <title>Shanghai</title>
</circle><line x1="1125.959961" y1="1189.959961" x2="1297.959961" y2="1577.959961" stroke="red" stroke-width="6.660000" />
<circle cx="993.960022" cy="1993.959961" r="19.980000" fill="red">
  <title>Istanbul</title>
</circle><line x1="1297.959961" y1="1577.959961" x2="993.960022" y2="1993.959961" stroke="red" stroke-width="6.660000" />
<circle cx="1368.959961" cy="1916.959961" r="19.980000" fill="red">
  <title>Cairo</title>
</circle><line x1="993.960022" y1="1993.959961" x2="1368.959961" y2="1916.959961" stroke="red" stroke-width="6.660000" />
<circle cx="1575.959961" cy="1692.959961" r="19.980000" fill="red">
  <title>Mumbai</title>
</circle><line x1="1368.959961" y1="1916.959961" x2="1575.959961" y2="1692.959961" stroke="red" stroke-width="6.660000" />
<circle cx="1882.959961" cy="1478.959961" r="19.980000" fill="red">
  <title>New York</title>
</circle><line x1="1575.959961" y1="1692.959961" x2="1882.959961" y2="1478.959961" stroke="red" stroke-width="6.660000" />
<circle cx="1621.959961" cy="719.960022" r="19.980000" fill="red">
  <title>Dhaka</title>
</circle><line x1="1882.959961" y1="1478.959961" x2="1621.959961" y2="719.960022" stroke="red" stroke-width="6.660000" />
<circle cx="1660.959961" cy="252.959991" r="19.980000" fill="red">
  <title>São Paulo</title>
</circle><line x1="1621.959961" y1="719.960022" x2="1660.959961" y2="252.959991" stroke="red" stroke-width="6.660000" />
<circle cx="1398.959961" cy="143.959991" r="19.980000" fill="red">
  <title>Mexico City</title>
</circle><line x1="1660.959961" y1="252.959991" x2="1398.959961" y2="143.959991" stroke="red" stroke-width="6.660000" />
<circle cx="586.960022" cy="133.959991" r="19.980000" fill="red">
  <title>Buenos Aires</title>
</circle><line x1="1398.959961" y1="143.959991" x2="586.960022" y2="133.959991" stroke="red" stroke-width="6.660000" />
</svg>
