<?xml version="1.0" encoding="UTF-8" standalone="no"?>
<svg width="500" height="500" viewBox="0 0 2074.000000 2074.000000" xmlns="http://www.w3.org/2000/svg">
<rect x="19.000000" y="19.000000" width="2036.000000" height="2036.000000" fill="black" />
<circle cx="987.960022" cy="1533.959961" r="19.980000" fill="red">
  <title>Tokyo</title>
</circle><line x1="1685.959961" y1="900.960022" x2="987.960022" y2="1533.959961" stroke="red" stroke-width="6.660000" />
<circle cx="492.959991" cy="1765.959961" r="19.980000" fill="red">
  <title>Delhi</title>
</circle><line x1="987.960022" y1="1533.959961" x2="492.959991" y2="1765.959961" stroke="red" stroke-width="6.660000" />
<circle cx="229.959991" cy="1378.959961" r="19.980000" fill="red">
  <title>Cairo</title>
</circle><line x1="492.959991" y1="1765.959961" x2="229.959991" y2="1378.959961" stroke="red" stroke-width="6.660000" />
<circle cx="782.960022" cy="336.959991" r="19.980000" fill="red">
  <title>Mexico City</title>
</circle><line x1="229.959991" y1="1378.959961" x2="782.960022" y2="336.959991" stroke="red" stroke-width="6.660000" />
<circle cx="1332.959961" cy="711.960022" r="19.980000" fill="red">
  <title>São Paulo</title>
</circle><line x1="782.960022" y1="336.959991" x2="1332.959961" y2="711.960022" stroke="red" stroke-width="6.660000" />
<circle cx="1685.959961" cy="900.960022" r="19.980000" fill="red">
  <title>Shanghai</title>
</circle><line x1="1332.959961" y1="711.960022" x2="1685.959961" y2="900.960022" stroke="red" stroke-width="6.660000" />
</svg>
