<?xml version="1.0" encoding="UTF-8" standalone="no"?>
<svg width="500" height="500" viewBox="0 0 2074.000000 2074.000000" xmlns="http://www.w3.org/2000/svg">
<rect x="19.000000" y="19.000000" width="2036.000000" height="2036.000000" fill="black" />
<circle cx="1989.959961" cy="929.960022" r="19.980000" fill="red">
  <title>Tokyo</title>
</circle><line x1="1688.959961" y1="888.960022" x2="1989.959961" y2="929.960022" stroke="red" stroke-width="6.660000" />
<circle cx="1861.959961" cy="453.959991" r="19.980000" fill="red">
  <title>Dhaka</title>
</circle><line x1="1989.959961" y1="929.960022" x2="1861.959961" y2="453.959991" stroke="red" stroke-width="6.660000" />
<circle cx="1782.959961" cy="141.959991" r="19.980000" fill="red">
  <title>Shanghai</title>
</circle><line x1="1861.959961" y1="453.959991" x2="1782.959961" y2="141.959991" stroke="red" stroke-width="6.660000" />
<circle cx="1345.959961" cy="250.959991" r="19.980000" fill="red">
  <title>Mumbai</title>
</circle><line x1="1782.959961" y1="141.959991" x2="1345.959961" y2="250.959991" stroke="red" stroke-width="6.660000" />
<circle cx="766.960022" cy="784.960022" r="19.980000" fill="red">
  <title>Manila</title>
</circle><line x1="1345.959961" y1="250.959991" x2="766.960022" y2="784.960022" stroke="red" stroke-width="6.660000" />
<circle cx="521.960022" cy="602.960022" r="19.980000" fill="red">
  <title>Kolkata</title>
</circle><line x1="766.960022" y1="784.960022" x2="521.960022" y2="602.960022" stroke="red" stroke-width="6.660000" />
<circle cx="301.959991" cy="428.959991" r="19.980000" fill="red">
  <title>Delhi</title>
</circle><line x1="521.960022" y1="602.960022" x2="301.959991" y2="428.959991" stroke="red" stroke-width="6.660000" />
<circle cx="61.959999" cy="240.959991" r="19.980000" fill="red">
  <title>Cairo</title>
</circle><line x1="301.959991" y1="428.959991" x2="61.959999" y2="240.959991" stroke="red" stroke-width="6.660000" />
<circle cx="180.959991" cy="604.960022" r="19.980000" fill="red">
  <title>Mexico City</title>
</circle><line x1="61.959999" y1="240.959991" x2="180.959991" y2="604.960022" stroke="red" stroke-width="6.660000" />
<circle cx="154.959991" cy="870.960022" r="19.980000" fill="red">
  <title>Chongqing</title>
</circle><line x1="180.959991" y1="604.960022" x2="154.959991" y2="870.960022" stroke="red" stroke-width="6.660000" />
<circle cx="385.959991" cy="1817.959961" r="19.980000" fill="red">
  <title>São Paulo</title>
</circle><line x1="154.959991" y1="870.960022" x2="385.959991" y2="1817.959961" stroke="red" stroke-width="6.660000" />
<circle cx="451.959991" cy="1865.959961" r="19.980000" fill="red">
  <title>Beijing</title>
</circle><line x1="385.959991" y1="1817.959961" x2="451.959991" y2="1865.959961" stroke="red" stroke-width="6.660000" />
<circle cx="779.960022" cy="2033.959961" r="19.980000" fill="red">
  <title>Osaka</title>
</circle><line x1="451.959991" y1="1865.959961" x2="779.960022" y2="2033.959961" stroke="red" stroke-width="6.660000" />
<circle cx="791.960022" cy="2004.959961" r="19.980000" fill="red">
  <title>Buenos Aires</title>
</circle><line x1="779.960022" y1="2033.959961" x2="791.960022" y2="2004.959961" stroke="red" stroke-width="6.660000" />
<circle cx="650.960022" cy="1874.959961" r="19.980000" fill="red">
  <title>Istanbul</title>
</circle><line x1="791.960022" y1="2004.959961" x2="650.960022" y2="1874.959961" stroke="red" stroke-width="6.660000" />
<circle cx="1040.959961" cy="926.960022" r="19.980000" fill="red">
  <title>Karachi</title>
</circle><line x1="650.960022" y1="1874.959961" x2="1040.959961" y2="926.960022" stroke="red" stroke-width="6.660000" />
<circle cx="1688.959961" cy="888.960022" r="19.980000" fill="red">
  <title>New York</title>
</circle><line x1="1040.959961" y1="926.960022" x2="1688.959961" y2="888.960022" stroke="red" stroke-width="6.660000" />
</svg>
