<?xml version="1.0" encoding="UTF-8" standalone="no"?>
<svg width="500" height="500" viewBox="0 0 2074.000000 2074.000000" xmlns="http://www.w3.org/2000/svg">
<rect x="19.000000" y="19.000000" width="2036.000000" height="2036.000000" fill="black" />
<circle cx="1357.959961" cy="1948.959961" r="19.980000" fill="red">
  <title>Tokyo</title>
</circle><line x1="1173.959961" y1="913.960022" x2="1357.959961" y2="1948.959961" stroke="red" stroke-width="6.660000" />
<circle cx="568.960022" cy="1914.959961" r="19.980000" fill="red">
  <title>Shanghai</title>
</circle><line x1="1357.959961" y1="1948.959961" x2="568.960022" y2="1914.959961" stroke="red" stroke-width="6.660000" />
<circle cx="932.960022" cy="1383.959961" r="19.980000" fill="red">
  <title>Cairo</title>
</circle><line x1="568.960022" y1="1914.959961" x2="932.960022" y2="1383.959961" stroke="red" stroke-width="6.660000" />
<circle cx="942.960022" cy="591.960022" r="19.980000" fill="red">
  <title>Mexico City</title>
</circle><line x1="932.960022" y1="1383.959961" x2="942.960022" y2="591.960022" stroke="red" stroke-width="6.660000" />
<circle cx="261.959991" cy="253.959991" r="19.980000" fill="red">
  <title>Delhi</title>
</circle><line x1="942.960022" y1="591.960022" x2="261.959991" y2="253.959991" stroke="red" stroke-width="6.660000" />
<circle cx="1026.959961" cy="428.959991" r="19.980000" fill="red">
  <title>São Paulo</title>
</circle><line x1="261.959991" y1="253.959991" x2="1026.959961" y2="428.959991" stroke="red" stroke-width="6.660000" />
<circle cx="1173.959961" cy="913.960022" r="19.980000" fill="red">
  <title>Mumbai</title>
</circle><line x1="1026.959961" y1="428.959991" x2="1173.959961" y2="913.960022" stroke="red" stroke-width="6.660000" />
</svg>
