<?xml version="1.0" encoding="UTF-8" standalone="no"?>
<svg width="500" height="500" viewBox="0 0 2074.000000 2074.000000" xmlns="http://www.w3.org/2000/svg">
<rect x="19.000000" y="19.000000" width="2036.000000" height="2036.000000" fill="black" />
<circle cx="1119.959961" cy="457.959991" r="19.980000" fill="red">
  <title>Tokyo</title>
</circle><line x1="1172.959961" y1="772.960022" x2="1119.959961" y2="457.959991" stroke="red" stroke-width="6.660000" />
<circle cx="1026.959961" cy="765.960022" r="19.980000" fill="red">
  <title>Mexico City</title>
</circle><line x1="1119.959961" y1="457.959991" x2="1026.959961" y2="765.960022" stroke="red" stroke-width="6.660000" />
<circle cx="76.959999" cy="1096.959961" r="19.980000" fill="red">
  <title>Mumbai</title>
</circle><line x1="1026.959961" y1="765.960022" x2="76.959999" y2="1096.959961" stroke="red" stroke-width="6.660000" />
<circle cx="491.959991" cy="1651.959961" r="19.980000" fill="red">
  <title>São Paulo</title>
</circle><line x1="76.959999" y1="1096.959961" x2="491.959991" y2="1651.959961" stroke="red" stroke-width="6.660000" />
<circle cx="752.960022" cy="1588.959961" r="19.980000" fill="red">
  <title>Shanghai</title>
</circle><line x1="491.959991" y1="1651.959961" x2="752.960022" y2="1588.959961" stroke="red" stroke-width="6.660000" />
<circle cx="1303.959961" cy="1034.959961" r="19.980000" fill="red">
  <title>Delhi</title>
</circle><line x1="752.960022" y1="1588.959961" x2="1303.959961" y2="1034.959961" stroke="red" stroke-width="6.660000" />
<circle cx="1172.959961" cy="772.960022" r="19.980000" fill="red">
  <title>Cairo</title>
</circle><line x1="1303.959961" y1="1034.959961" x2="1172.959961" y2="772.960022" stroke="red" stroke-width="6.660000" />
</svg>
