<?xml version="1.0" encoding="UTF-8" standalone="no"?>
<svg width="500" height="500" viewBox="0 0 2074.000000 2074.000000" xmlns="http://www.w3.org/2000/svg">
<rect x="19.000000" y="19.000000" width="2036.000000" height="2036.000000" fill="black" />
<circle cx="771.960022" cy="1907.959961" r="19.980000" fill="red">
  <title>Tokyo</title>
</circle><line x1="325.959991" y1="1952.959961" x2="771.960022" y2="1907.959961" stroke="red" stroke-width="6.660000" />
<circle cx="1826.959961" cy="2011.959961" r="19.980000" fill="red">
  <title>Mexico City</title>
</circle><line x1="771.960022" y1="1907.959961" x2="1826.959961" y2="2011.959961" stroke="red" stroke-width="6.660000" />
<circle cx="1923.959961" cy="1477.959961" r="19.980000" fill="red">
  <title>Shanghai</title>
</circle><line x1="1826.959961" y1="2011.959961" x2="1923.959961" y2="1477.959961" stroke="red" stroke-width="6.660000" />
<circle cx="1949.959961" cy="1004.960022" r="19.980000" fill="red">
  <title>Karachi</title>
</circle><line x1="1923.959961" y1="1477.959961" x2="1949.959961" y2="1004.960022" stroke="red" stroke-width="6.660000" />
<circle cx="1687.959961" cy="1137.959961" r="19.980000" fill="red">
  <title>Cairo</title>
</circle><line x1="1949.959961" y1="1004.960022" x2="1687.959961" y2="1137.959961" stroke="red" stroke-width="6.660000" />
<circle cx="1275.959961" cy="932.960022" r="19.980000" fill="red">
  <title>Buenos Aires</title>
</circle><line x1="1687.959961" y1="1137.959961" x2="1275.959961" y2="932.960022" stroke="red" stroke-width="6.660000" />
<circle cx="1852.959961" cy="738.960022" r="19.980000" fill="red">
  <title>Kolkata</title>
</circle><line x1="1275.959961" y1="932.960022" x2="1852.959961" y2="738.960022" stroke="red" stroke-width="6.660000" />
<circle cx="1873.959961" cy="552.960022" r="19.980000" fill="red">
  <title>São Paulo</title>
</circle><line x1="1852.959961" y1="738.960022" x2="1873.959961" y2="552.960022" stroke="red" stroke-width="6.660000" />
<circle cx="2005.959961" cy="456.959991" r="19.980000" fill="red">
  <title>Istanbul</title>
</circle><line x1="1873.959961" y1="552.960022" x2="2005.959961" y2="456.959991" stroke="red" stroke-width="6.660000" />
<circle cx="1990.959961" cy="63.959999" r="19.980000" fill="red">
  <title>Beijing</title>
</circle><line x1="2005.959961" y1="456.959991" x2="1990.959961" y2="63.959999" stroke="red" stroke-width="6.660000" />
<circle cx="1453.959961" cy="182.959991" r="19.980000" fill="red">
  <title>Dhaka</title>
</circle><line x1="1990.959961" y1="63.959999" x2="1453.959961" y2="182.959991" stroke="red" stroke-width="6.660000" />
<circle cx="953.960022" cy="289.959991" r="19.980000" fill="red">
  <title>Chongqing</title>
</circle><line x1="1453.959961" y1="182.959991" x2="953.960022" y2="289.959991" stroke="red" stroke-width="6.660000" />
<circle cx="139.959991" cy="454.959991" r="19.980000" fill="red">
  <title>Delhi</title>
</circle><line x1="953.960022" y1="289.959991" x2="139.959991" y2="454.959991" stroke="red" stroke-width="6.660000" />
<circle cx="690.960022" cy="914.960022" r="19.980000" fill="red">
  <title>New York</title>
</circle><line x1="139.959991" y1="454.959991" x2="690.960022" y2="914.960022" stroke="red" stroke-width="6.660000" />
<circle cx="200.959991" cy="1748.959961" r="19.980000" fill="red">
  <title>Osaka</title>
</circle><line x1="690.960022" y1="914.960022" x2="200.959991" y2="1748.959961" stroke="red" stroke-width="6.660000" />
<circle cx="75.959999" cy="1838.959961" r="19.980000" fill="red">
  <title>Mumbai</title>
</circle><line x1="200.959991" y1="1748.959961" x2="75.959999" y2="1838.959961" stroke="red" stroke-width="6.660000" />
<circle cx="325.959991" cy="1952.959961" r="19.980000" fill="red">
  <title>Manila</title>
</circle><line x1="75.959999" y1="1838.959961" x2="325.959991" y2="1952.959961" stroke="red" stroke-width="6.660000" />
</svg>
