<?xml version="1.0" encoding="UTF-8" standalone="no"?>
<svg width="500" height="500" viewBox="0 0 2074.000000 2074.000000" xmlns="http://www.w3.org/2000/svg">
<rect x="19.000000" y="19.000000" width="2036.000000" height="2036.000000" fill="black" />
<circle cx="1096.959961" cy="1565.959961" r="19.980000" fill="red">
  <title>Tokyo</title>
</circle><line x1="449.959991" y1="1328.959961" x2="1096.959961" y2="1565.959961" stroke="red" stroke-width="6.660000" />
<circle cx="1299.959961" cy="1681.959961" r="19.980000" fill="red">
  <title>São Paulo</title>
</circle><line x1="1096.959961" y1="1565.959961" x2="1299.959961" y2="1681.959961" stroke="red" stroke-width="6.660000" />
<circle cx="1465.959961" cy="708.960022" r="19.980000" fill="red">
  <title>Shanghai</title>
</circle><line x1="1299.959961" y1="1681.959961" x2="1465.959961" y2="708.960022" stroke="red" stroke-width="6.660000" />
<circle cx="260.959991" cy="127.959999" r="19.980000" fill="red">
  <title>Delhi</title>
</circle><line x1="1465.959961" y1="708.960022" x2="260.959991" y2="127.959999" stroke="red" stroke-width="6.660000" />
<circle cx="449.959991" cy="1328.959961" r="19.980000" fill="red">
  <title>Mexico City</title>
</circle><line x1="260.959991" y1="127.959999" x2="449.959991" y2="1328.959961" stroke="red" stroke-width="6.660000" />
</svg>
