<?xml version="1.0" encoding="UTF-8" standalone="no"?>
<svg width="500" height="500" viewBox="0 0 2074.000000 2074.000000" xmlns="http://www.w3.org/2000/svg">
<rect x="19.000000" y="19.000000" width="2036.000000" height="2036.000000" fill="black" />
<circle cx="1650.959961" cy="890.960022" r="19.980000" fill="red">
  <title>Tokyo</title>
</circle><line x1="1905.959961" y1="725.960022" x2="1650.959961" y2="890.960022" stroke="red" stroke-width="6.660000" />
<circle cx="1482.959961" cy="1336.959961" r="19.980000" fill="red">
  <title>Cairo</title>
</circle><line x1="1650.959961" y1="890.960022" x2="1482.959961" y2="1336.959961" stroke="red" stroke-width="6.660000" />
<circle cx="688.960022" cy="1672.959961" r="19.980000" fill="red">
  <title>São Paulo</title>
</circle><line x1="1482.959961" y1="1336.959961" x2="688.960022" y2="1672.959961" stroke="red" stroke-width="6.660000" />
<circle cx="320.959991" cy="1497.959961" r="19.980000" fill="red">
  <title>Karachi</title>
</circle><line x1="688.960022" y1="1672.959961" x2="320.959991" y2="1497.959961" stroke="red" stroke-width="6.660000" />
<circle cx="1177.959961" cy="1417.959961" r="19.980000" fill="red">
  <title>Mexico City</title>
</circle><line x1="320.959991" y1="1497.959961" x2="1177.959961" y2="1417.959961" stroke="red" stroke-width="6.660000" />
<circle cx="1478.959961" cy="527.960022" r="19.980000" fill="red">
  <title>Shanghai</title>
</circle><line x1="1177.959961" y1="1417.959961" x2="1478.959961" y2="527.960022" stroke="red" stroke-width="6.660000" />
<circle cx="1705.959961" cy="261.959991" r="19.980000" fill="red">
  <title>Delhi</title>
</circle><line x1="1478.959961" y1="527.960022" x2="1705.959961" y2="261.959991" stroke="red" stroke-width="6.660000" />
<circle cx="1956.959961" cy="537.960022" r="19.980000" fill="red">
  <title>Osaka</title>
</circle><line x1="1705.959961" y1="261.959991" x2="1956.959961" y2="537.960022" stroke="red" stroke-width="6.660000" />
<circle cx="2017.959961" cy="673.960022" r="19.980000" fill="red">
  <title>Dhaka</title>
</circle><line x1="1956.959961" y1="537.960022" x2="2017.959961" y2="673.960022" stroke="red" stroke-width="6.660000" />
<circle cx="2028.959961" cy="746.960022" r="19.980000" fill="red">
  <title>New York</title>
</circle><line x1="2017.959961" y1="673.960022" x2="2028.959961" y2="746.960022" stroke="red" stroke-width="6.660000" />
<circle cx="2028.959961" cy="830.960022" r="19.980000" fill="red">
  <title>Beijing</title>
</circle><line x1="2028.959961" y1="746.960022" x2="2028.959961" y2="830.960022" stroke="red" stroke-width="6.660000" />
<circle cx="1905.959961" cy="725.960022" r="19.980000" fill="red">
  <title>Mumbai</title>
</circle><line x1="2028.959961" y1="830.960022" x2="1905.959961" y2="725.960022" stroke="red" stroke-width="6.660000" />
</svg>
