<?xml version="1.0" encoding="UTF-8" standalone="no"?>
<svg width="500" height="500" viewBox="0 0 2074.000000 2074.000000" xmlns="http://www.w3.org/2000/svg">
<rect x="19.000000" y="19.000000" width="2036.000000" height="2036.000000" fill="black" />
<circle cx="1106.959961" cy="1968.959961" r="19.980000" fill="red">
  <title>Tokyo</title>
</circle><line x1="456.959991" y1="1956.959961" x2="1106.959961" y2="1968.959961" stroke="red" stroke-width="6.660000" />
<circle cx="1405.959961" cy="1659.959961" r="19.980000" fill="red">
  <title>Mexico City</title>
</circle><line x1="1106.959961" y1="1968.959961" x2="1405.959961" y2="1659.959961" stroke="red" stroke-width="6.660000" />
<circle cx="1533.959961" cy="1342.959961" r="19.980000" fill="red">
  <title>Dhaka</title>
</circle><line x1="1405.959961" y1="1659.959961" x2="1533.959961" y2="1342.959961" stroke="red" stroke-width="6.660000" />
<circle cx="1823.959961" cy="646.960022" r="19.980000" fill="red">
  <title>São Paulo</title>
</circle><line x1="1533.959961" y1="1342.959961" x2="1823.959961" y2="646.960022" stroke="red" stroke-width="6.660000" />
<circle cx="2022.959961" cy="414.959991" r="19.980000" fill="red">
  <title>Delhi</title>
</circle><line x1="1823.959961" y1="646.960022" x2="2022.959961" y2="414.959991" stroke="red" stroke-width="6.660000" />
<circle cx="1399.959961" cy="530.960022" r="19.980000" fill="red">
  <title>Buenos Aires</title>
</circle><line x1="2022.959961" y1="414.959991" x2="1399.959961" y2="530.960022" stroke="red" stroke-width="6.660000" />
<circle cx="1148.959961" cy="419.959991" r="19.980000" fill="red">
  <title>Beijing</title>
</circle><line x1="1399.959961" y1="530.960022" x2="1148.959961" y2="419.959991" stroke="red" stroke-width="6.660000" />
<circle cx="870.960022" cy="116.959999" r="19.980000" fill="red">
  <title>Karachi</title>
</circle><line x1="1148.959961" y1="419.959991" x2="870.960022" y2="116.959999" stroke="red" stroke-width="6.660000" />
<circle cx="536.960022" cy="206.959991" r="19.980000" fill="red">
  <title>Istanbul</title>
</circle><line x1="870.960022" y1="116.959999" x2="536.960022" y2="206.959991" stroke="red" stroke-width="6.660000" />
<circle cx="137.959991" cy="270.959991" r="19.980000" fill="red">
  <title>Manila</title>
</circle><line x1="536.960022" y1="206.959991" x2="137.959991" y2="270.959991" stroke="red" stroke-width="6.660000" />
<circle cx="429.959991" cy="726.960022" r="19.980000" fill="red">
  <title>Chongqing</title>
</circle><line x1="137.959991" y1="270.959991" x2="429.959991" y2="726.960022" stroke="red" stroke-width="6.660000" />
<circle cx="676.960022" cy="693.960022" r="19.980000" fill="red">
  <title>Mumbai</title>
</circle><line x1="429.959991" y1="726.960022" x2="676.960022" y2="693.960022" stroke="red" stroke-width="6.660000" />
<circle cx="1047.959961" cy="636.960022" r="19.980000" fill="red">
  <title>New York</title>
</circle><line x1="676.960022" y1="693.960022" x2="1047.959961" y2="636.960022" stroke="red" stroke-width="6.660000" />
<circle cx="1158.959961" cy="1197.959961" r="19.980000" fill="red">
  <title>Shanghai</title>
</circle><line x1="1047.959961" y1="636.960022" x2="1158.959961" y2="1197.959961" stroke="red" stroke-width="6.660000" />
<circle cx="770.960022" cy="1549.959961" r="19.980000" fill="red">
  <title>Cairo</title>
</circle><line x1="1158.959961" y1="1197.959961" x2="770.960022" y2="1549.959961" stroke="red" stroke-width="6.660000" />
<circle cx="286.959991" cy="1603.959961" r="19.980000" fill="red">
  <title>Kolkata</title>
</circle><line x1="770.960022" y1="1549.959961" x2="286.959991" y2="1603.959961" stroke="red" stroke-width="6.660000" />
<circle cx="456.959991" cy="1956.959961" r="19.980000" fill="red">
  <title>Osaka</title>
</circle><line x1="286.959991" y1="1603.959961" x2="456.959991" y2="1956.959961" stroke="red" stroke-width="6.660000" />
</svg>
