<?xml version="1.0" encoding="UTF-8" standalone="no"?>
<svg width="500" height="500" viewBox="0 0 2074.000000 2074.000000" xmlns="http://www.w3.org/2000/svg">
<rect x="19.000000" y="19.000000" width="2036.000000" height="2036.000000" fill="black" />
<circle cx="1830.959961" cy="1495.959961" r="19.980000" fill="red">
  <title>Tokyo</title>
</circle><line x1="1333.959961" y1="1369.959961" x2="1830.959961" y2="1495.959961" stroke="red" stroke-width="6.660000" />
<circle cx="1605.959961" cy="786.960022" r="19.980000" fill="red">
  <title>Mexico City</title>
</circle><line x1="1830.959961" y1="1495.959961" x2="1605.959961" y2="786.960022" stroke="red" stroke-width="6.660000" />
<circle cx="1547.959961" cy="279.959991" r="19.980000" fill="red">
  <title>New York</title>
</circle><line x1="1605.959961" y1="786.960022" x2="1547.959961" y2="279.959991" stroke="red" stroke-width="6.660000" />
<circle cx="1579.959961" cy="440.959991" r="19.980000" fill="red">
  <title>São Paulo</title>
</circle><line x1="1547.959961" y1="279.959991" x2="1579.959961" y2="440.959991" stroke="red" stroke-width="6.660000" />
<circle cx="1520.959961" cy="849.960022" r="19.980000" fill="red">
  <title>Mumbai</title>
</circle><line x1="1579.959961" y1="440.959991" x2="1520.959961" y2="849.960022" stroke="red" stroke-width="6.660000" />
<circle cx="1243.959961" cy="1117.959961" r="19.980000" fill="red">
  <title>Buenos Aires</title>
</circle><line x1="1520.959961" y1="849.960022" x2="1243.959961" y2="1117.959961" stroke="red" stroke-width="6.660000" />
<circle cx="776.960022" cy="820.960022" r="19.980000" fill="red">
  <title>Lagos</title>
</circle><line x1="1243.959961" y1="1117.959961" x2="776.960022" y2="820.960022" stroke="red" stroke-width="6.660000" />
<circle cx="721.960022" cy="773.960022" r="19.980000" fill="red">
  <title>Chongqing</title>
</circle><line x1="776.960022" y1="820.960022" x2="721.960022" y2="773.960022" stroke="red" stroke-width="6.660000" />
<circle cx="673.960022" cy="766.960022" r="19.980000" fill="red">
  <title>Istanbul</title>
</circle><line x1="721.960022" y1="773.960022" x2="673.960022" y2="766.960022" stroke="red" stroke-width="6.660000" />
<circle cx="570.960022" cy="465.959991" r="19.980000" fill="red">
  <title>Kolkata</title>
</circle><line x1="673.960022" y1="766.960022" x2="570.960022" y2="465.959991" stroke="red" stroke-width="6.660000" />
<circle cx="212.959991" cy="318.959991" r="19.980000" fill="red">
  <title>Rio de Janeiro</title>
</circle><line x1="570.960022" y1="465.959991" x2="212.959991" y2="318.959991" stroke="red" stroke-width="6.660000" />
<circle cx="158.959991" cy="350.959991" r="19.980000" fill="red">
  <title>Delhi</title>
</circle><line x1="212.959991" y1="318.959991" x2="158.959991" y2="350.959991" stroke="red" stroke-width="6.660000" />
<circle cx="94.959999" cy="593.960022" r="19.980000" fill="red">
  <title>Karachi</title>
</circle><line x1="158.959991" y1="350.959991" x2="94.959999" y2="593.960022" stroke="red" stroke-width="6.660000" />
<circle cx="223.959991" cy="690.960022" r="19.980000" fill="red">
  <title>Manila</title>
</circle><line x1="94.959999" y1="593.960022" x2="223.959991" y2="690.960022" stroke="red" stroke-width="6.660000" />
<circle cx="327.959991" cy="785.960022" r="19.980000" fill="red">
  <title>Dhaka</title>
</circle><line x1="223.959991" y1="690.960022" x2="327.959991" y2="785.960022" stroke="red" stroke-width="6.660000" />
<circle cx="82.959999" cy="1062.959961" r="19.980000" fill="red">
  <title>Cairo</title>
</circle><line x1="327.959991" y1="785.960022" x2="82.959999" y2="1062.959961" stroke="red" stroke-width="6.660000" />
<circle cx="635.960022" cy="1560.959961" r="19.980000" fill="red">
  <title>Shanghai</title>
</circle><line x1="82.959999" y1="1062.959961" x2="635.960022" y2="1560.959961" stroke="red" stroke-width="6.660000" />
<circle cx="1192.959961" cy="1982.959961" r="19.980000" fill="red">
  <title>Beijing</title>
</circle><line x1="635.960022" y1="1560.959961" x2="1192.959961" y2="1982.959961" stroke="red" stroke-width="6.660000" />
<circle cx="1333.959961" cy="1369.959961" r="19.980000" fill="red">
  <title>Osaka</title>
</circle><line x1="1192.959961" y1="1982.959961" x2="1333.959961" y2="1369.959961" stroke="red" stroke-width="6.660000" />
</svg>
