<?xml version="1.0" encoding="UTF-8" standalone="no"?>
<svg width="500" height="500" viewBox="0 0 2074.000000 2074.000000" xmlns="http://www.w3.org/2000/svg">
<rect x="19.000000" y="19.000000" width="2036.000000" height="2036.000000" fill="black" />
<circle cx="1509.959961" cy="1462.959961" r="19.980000" fill="red">
  <title>Tokyo</title>
</circle><line x1="1557.959961" y1="1711.959961" x2="1509.959961" y2="1462.959961" stroke="red" stroke-width="6.660000" />
<circle cx="433.959991" cy="1063.959961" r="19.980000" fill="red">
  <title>Delhi</title>
</circle><line x1="1509.959961" y1="1462.959961" x2="433.959991" y2="1063.959961" stroke="red" stroke-width="6.660000" />
<circle cx="257.959991" cy="571.960022" r="19.980000" fill="red">
  <title>Beijing</title>
</circle><line x1="433.959991" y1="1063.959961" x2="257.959991" y2="571.960022" stroke="red" stroke-width="6.660000" />
<circle cx="1347.959961" cy="87.959999" r="19.980000" fill="red">
  <title>Mumbai</title>
</circle><line x1="257.959991" y1="571.960022" x2="1347.959961" y2="87.959999" stroke="red" stroke-width="6.660000" />
<circle cx="1959.959961" cy="409.959991" r="19.980000" fill="red">
  <title>Mexico City</title>
</circle><line x1="1347.959961" y1="87.959999" x2="1959.959961" y2="409.959991" stroke="red" stroke-width="6.660000" />
<circle cx="1840.959961" cy="814.960022" r="19.980000" fill="red">
  <title>Cairo</title>
</circle><line x1="1959.959961" y1="409.959991" x2="1840.959961" y2="814.960022" stroke="red" stroke-width="6.660000" />
<circle cx="1671.959961" cy="1587.959961" r="19.980000" fill="red">
  <title>Shanghai</title>
</circle><line x1="1840.959961" y1="814.960022" x2="1671.959961" y2="1587.959961" stroke="red" stroke-width="6.660000" />
<circle cx="1557.959961" cy="1711.959961" r="19.980000" fill="red">
  <title>São Paulo</title>
</circle><line x1="1671.959961" y1="1587.959961" x2="1557.959961" y2="1711.959961" stroke="red" stroke-width="6.660000" />
</svg>
