<?xml version="1.0" encoding="UTF-8" standalone="no"?>
<svg width="500" height="500" viewBox="0 0 2074.000000 2074.000000" xmlns="http://www.w3.org/2000/svg">
<rect x="19.000000" y="19.000000" width="2036.000000" height="2036.000000" fill="black" />
<circle cx="453.959991" cy="1755.959961" r="19.980000" fill="red">
  <title>Tokyo</title>
</circle><line x1="255.959991" y1="1118.959961" x2="453.959991" y2="1755.959961" stroke="red" stroke-width="6.660000" />
<circle cx="402.959991" cy="1785.959961" r="19.980000" fill="red">
  <title>New York</title>
</circle><line x1="453.959991" y1="1755.959961" x2="402.959991" y2="1785.959961" stroke="red" stroke-width="6.660000" />
<circle cx="643.960022" cy="1798.959961" r="19.980000" fill="red">
  <title>Buenos Aires</title>
</circle><line x1="402.959991" y1="1785.959961" x2="643.960022" y2="1798.959961" stroke="red" stroke-width="6.660000" />
<circle cx="1111.959961" cy="2036.959961" r="19.980000" fill="red">
  <title>Chongqing</title>
</circle><line x1="643.960022" y1="1798.959961" x2="1111.959961" y2="2036.959961" stroke="red" stroke-width="6.660000" />
<circle cx="1863.959961" cy="1833.959961" r="19.980000" fill="red">
  <title>Tianjin</title>
</circle><line x1="1111.959961" y1="2036.959961" x2="1863.959961" y2="1833.959961" stroke="red" stroke-width="6.660000" />
<circle cx="1915.959961" cy="1512.959961" r="19.980000" fill="red">
  <title>Mumbai</title>
</circle><line x1="1863.959961" y1="1833.959961" x2="1915.959961" y2="1512.959961" stroke="red" stroke-width="6.660000" />
<circle cx="1722.959961" cy="1298.959961" r="19.980000" fill="red">
  <title>Rio de Janeiro</title>
</circle><line x1="1915.959961" y1="1512.959961" x2="1722.959961" y2="1298.959961" stroke="red" stroke-width="6.660000" />
<circle cx="1934.959961" cy="1238.959961" r="19.980000" fill="red">
  <title>Osaka</title>
</circle><line x1="1722.959961" y1="1298.959961" x2="1934.959961" y2="1238.959961" stroke="red" stroke-width="6.660000" />
<circle cx="1977.959961" cy="1213.959961" r="19.980000" fill="red">
  <title>Kolkata</title>
</circle><line x1="1934.959961" y1="1238.959961" x2="1977.959961" y2="1213.959961" stroke="red" stroke-width="6.660000" />
<circle cx="1955.959961" cy="1107.959961" r="19.980000" fill="red">
  <title>Karachi</title>
</circle><line x1="1977.959961" y1="1213.959961" x2="1955.959961" y2="1107.959961" stroke="red" stroke-width="6.660000" />
<circle cx="1872.959961" cy="1000.960022" r="19.980000" fill="red">
  <title>Manila</title>
</circle><line x1="1955.959961" y1="1107.959961" x2="1872.959961" y2="1000.960022" stroke="red" stroke-width="6.660000" />
<circle cx="1284.959961" cy="761.960022" r="19.980000" fill="red">
  <title>Shanghai</title>
</circle><line x1="1872.959961" y1="1000.960022" x2="1284.959961" y2="761.960022" stroke="red" stroke-width="6.660000" />
<circle cx="1060.959961" cy="1079.959961" r="19.980000" fill="red">
  <title>Delhi</title>
</circle><line x1="1284.959961" y1="761.960022" x2="1060.959961" y2="1079.959961" stroke="red" stroke-width="6.660000" />
<circle cx="1081.959961" cy="783.960022" r="19.980000" fill="red">
  <title>São Paulo</title>
</circle><line x1="1060.959961" y1="1079.959961" x2="1081.959961" y2="783.960022" stroke="red" stroke-width="6.660000" />
<circle cx="1015.960022" cy="613.960022" r="19.980000" fill="red">
  <title>Beijing</title>
</circle><line x1="1081.959961" y1="783.960022" x2="1015.960022" y2="613.960022" stroke="red" stroke-width="6.660000" />
<circle cx="1354.959961" cy="386.959991" r="19.980000" fill="red">
  <title>Dhaka</title>
</circle><line x1="1015.960022" y1="613.960022" x2="1354.959961" y2="386.959991" stroke="red" stroke-width="6.660000" />
<circle cx="799.960022" cy="155.959991" r="19.980000" fill="red">
  <title>Istanbul</title>
</circle><line x1="1354.959961" y1="386.959991" x2="799.960022" y2="155.959991" stroke="red" stroke-width="6.660000" />
<circle cx="150.959991" cy="214.959991" r="19.980000" fill="red">
  <title>Mexico City</title>
</circle><line x1="799.960022" y1="155.959991" x2="150.959991" y2="214.959991" stroke="red" stroke-width="6.660000" />
<circle cx="336.959991" cy="1029.959961" r="19.980000" fill="red">
  <title>Cairo</title>
</circle><line x1="150.959991" y1="214.959991" x2="336.959991" y2="1029.959961" stroke="red" stroke-width="6.660000" />
<circle cx="255.959991" cy="1118.959961" r="19.980000" fill="red">
  <title>Lagos</title>
</circle><line x1="336.959991" y1="1029.959961" x2="255.959991" y2="1118.959961" stroke="red" stroke-width="6.660000" />
</svg>
