<?xml version="1.0" encoding="UTF-8" standalone="no"?>
<svg width="500" height="500" viewBox="0 0 2074.000000 2074.000000" xmlns="http://www.w3.org/2000/svg">
<rect x="19.000000" y="19.000000" width="2036.000000" height="2036.000000" fill="black" />
<circle cx="82.959999" cy="957.960022" r="19.980000" fill="red">
  <title>Tokyo</title>
</circle><line x1="1661.959961" y1="424.959991" x2="82.959999" y2="957.960022" stroke="red" stroke-width="6.660000" />
<circle cx="1781.959961" cy="360.959991" r="19.980000" fill="red">
  <title>Delhi</title>
</circle><line x1="82.959999" y1="957.960022" x2="1781.959961" y2="360.959991" stroke="red" stroke-width="6.660000" />
<circle cx="1661.959961" cy="424.959991" r="19.980000" fill="red">
  <title>Shanghai</title>
</circle><line x1="1781.959961" y1="360.959991" x2="1661.959961" y2="424.959991" stroke="red" stroke-width="6.660000" />
</svg>
