<?xml version="1.0" encoding="UTF-8" standalone="no"?>
<svg width="500" height="500" viewBox="0 0 2074.000000 2074.000000" xmlns="http://www.w3.org/2000/svg">
<rect x="19.000000" y="19.000000" width="2036.000000" height="2036.000000" fill="black" />
<circle cx="1229.959961" cy="277.959991" r="19.980000" fill="red">
  <title>Tokyo</title>
</circle><line x1="1077.959961" y1="235.959991" x2="1229.959961" y2="277.959991" stroke="red" stroke-width="6.660000" />
<circle cx="1333.959961" cy="1009.960022" r="19.980000" fill="red">
  <title>Osaka</title>
</circle><line x1="1229.959961" y1="277.959991" x2="1333.959961" y2="1009.960022" stroke="red" stroke-width="6.660000" />
<circle cx="1442.959961" cy="1173.959961" r="19.980000" fill="red">
  <title>Buenos Aires</title>
</circle><line x1="1333.959961" y1="1009.960022" x2="1442.959961" y2="1173.959961" stroke="red" stroke-width="6.660000" />
<circle cx="1941.959961" cy="1112.959961" r="19.980000" fill="red">
  <title>Beijing</title>
</circle><line x1="1442.959961" y1="1173.959961" x2="1941.959961" y2="1112.959961" stroke="red" stroke-width="6.660000" />
<circle cx="1828.959961" cy="1293.959961" r="19.980000" fill="red">
  <title>Dhaka</title>
</circle><line x1="1941.959961" y1="1112.959961" x2="1828.959961" y2="1293.959961" stroke="red" stroke-width="6.660000" />
<circle cx="1802.959961" cy="1539.959961" r="19.980000" fill="red">
  <title>Chongqing</title>
</circle><line x1="1828.959961" y1="1293.959961" x2="1802.959961" y2="1539.959961" stroke="red" stroke-width="6.660000" />
<circle cx="1611.959961" cy="1895.959961" r="19.980000" fill="red">
  <title>São Paulo</title>
</circle><line x1="1802.959961" y1="1539.959961" x2="1611.959961" y2="1895.959961" stroke="red" stroke-width="6.660000" />
<circle cx="1415.959961" cy="1897.959961" r="19.980000" fill="red">
  <title>Delhi</title>
</circle><line x1="1611.959961" y1="1895.959961" x2="1415.959961" y2="1897.959961" stroke="red" stroke-width="6.660000" />
<circle cx="1241.959961" cy="1844.959961" r="19.980000" fill="red">
  <title>Mumbai</title>
</circle><line x1="1415.959961" y1="1897.959961" x2="1241.959961" y2="1844.959961" stroke="red" stroke-width="6.660000" />
<circle cx="1043.959961" cy="1847.959961" r="19.980000" fill="red">
  <title>Istanbul</title>
</circle><line x1="1241.959961" y1="1844.959961" x2="1043.959961" y2="1847.959961" stroke="red" stroke-width="6.660000" />
<circle cx="618.960022" cy="1924.959961" r="19.980000" fill="red">
  <title>Karachi</title>
</circle><line x1="1043.959961" y1="1847.959961" x2="618.960022" y2="1924.959961" stroke="red" stroke-width="6.660000" />
<circle cx="87.959999" cy="1593.959961" r="19.980000" fill="red">
  <title>Shanghai</title>
</circle><line x1="618.960022" y1="1924.959961" x2="87.959999" y2="1593.959961" stroke="red" stroke-width="6.660000" />
<circle cx="431.959991" cy="1554.959961" r="19.980000" fill="red">
  <title>Cairo</title>
</circle><line x1="87.959999" y1="1593.959961" x2="431.959991" y2="1554.959961" stroke="red" stroke-width="6.660000" />
<circle cx="1050.959961" cy="1204.959961" r="19.980000" fill="red">
  <title>Mexico City</title>
</circle><line x1="431.959991" y1="1554.959961" x2="1050.959961" y2="1204.959961" stroke="red" stroke-width="6.660000" />
<circle cx="975.960022" cy="1016.960022" r="19.980000" fill="red">
  <title>New York</title>
</circle><line x1="1050.959961" y1="1204.959961" x2="975.960022" y2="1016.960022" stroke="red" stroke-width="6.660000" />
<circle cx="1077.959961" cy="235.959991" r="19.980000" fill="red">
  <title>Kolkata</title>
</circle><line x1="975.960022" y1="1016.960022" x2="1077.959961" y2="235.959991" stroke="red" stroke-width="6.660000" />
</svg>
