<?xml version="1.0" encoding="UTF-8" standalone="no"?>
<svg width="500" height="500" viewBox="0 0 2074.000000 2074.000000" xmlns="http://www.w3.org/2000/svg">
<rect x="19.000000" y="19.000000" width="2036.000000" height="2036.000000" fill="black" />
<circle cx="1839.959961" cy="1658.959961" r="19.980000" fill="red">
  <title>Tokyo</title>
</circle><line x1="967.960022" y1="130.959991" x2="1839.959961" y2="1658.959961" stroke="red" stroke-width="6.660000" />
<circle cx="1533.959961" cy="1916.959961" r="19.980000" fill="red">
  <title>Delhi</title>
</circle><line x1="1839.959961" y1="1658.959961" x2="1533.959961" y2="1916.959961" stroke="red" stroke-width="6.660000" />
<circle cx="764.960022" cy="925.960022" r="19.980000" fill="red">
  <title>Shanghai</title>
</circle><line x1="1533.959961" y1="1916.959961" x2="764.960022" y2="925.960022" stroke="red" stroke-width="6.660000" />
<circle cx="967.960022" cy="130.959991" r="19.980000" fill="red">
  <title>São Paulo</title>
</circle><line x1="764.960022" y1="925.960022" x2="967.960022" y2="130.959991" stroke="red" stroke-width="6.660000" />
</svg>
