<?xml version="1.0" encoding="UTF-8" standalone="no"?>
<svg width="500" height="500" viewBox="0 0 2074.000000 2074.000000" xmlns="http://www.w3.org/2000/svg">
<rect x="19.000000" y="19.000000" width="2036.000000" height="2036.000000" fill="black" />
<circle cx="563.960022" cy="923.960022" r="19.980000" fill="red">
  <title>Tokyo</title>
</circle><line x1="775.960022" y1="697.960022" x2="563.960022" y2="923.960022" stroke="red" stroke-width="6.660000" />
<circle cx="343.959991" cy="1971.959961" r="19.980000" fill="red">
  <title>Mumbai</title>
</circle><line x1="563.960022" y1="923.960022" x2="343.959991" y2="1971.959961" stroke="red" stroke-width="6.660000" />
<circle cx="571.960022" cy="1876.959961" r="19.980000" fill="red">
  <title>Mexico City</title>
</circle><line x1="343.959991" y1="1971.959961" x2="571.960022" y2="1876.959961" stroke="red" stroke-width="6.660000" />
<circle cx="1139.959961" cy="1561.959961" r="19.980000" fill="red">
  <title>Shanghai</title>
</circle><line x1="571.960022" y1="1876.959961" x2="1139.959961" y2="1561.959961" stroke="red" stroke-width="6.660000" />
<circle cx="1375.959961" cy="1570.959961" r="19.980000" fill="red">
  <title>São Paulo</title>
</circle><line x1="1139.959961" y1="1561.959961" x2="1375.959961" y2="1570.959961" stroke="red" stroke-width="6.660000" />
<circle cx="1356.959961" cy="1520.959961" r="19.980000" fill="red">
  <title>Cairo</title>
</circle><line x1="1375.959961" y1="1570.959961" x2="1356.959961" y2="1520.959961" stroke="red" stroke-width="6.660000" />
<circle cx="1690.959961" cy="1075.959961" r="19.980000" fill="red">
  <title>Beijing</title>
</circle><line x1="1356.959961" y1="1520.959961" x2="1690.959961" y2="1075.959961" stroke="red" stroke-width="6.660000" />
<circle cx="1251.959961" cy="934.960022" r="19.980000" fill="red">
  <title>Dhaka</title>
</circle><line x1="1690.959961" y1="1075.959961" x2="1251.959961" y2="934.960022" stroke="red" stroke-width="6.660000" />
<circle cx="1356.959961" cy="144.959991" r="19.980000" fill="red">
  <title>Delhi</title>
</circle><line x1="1251.959961" y1="934.960022" x2="1356.959961" y2="144.959991" stroke="red" stroke-width="6.660000" />
<circle cx="775.960022" cy="697.960022" r="19.980000" fill="red">
  <title>Osaka</title>
</circle><line x1="1356.959961" y1="144.959991" x2="775.960022" y2="697.960022" stroke="red" stroke-width="6.660000" />
</svg>
