<?xml version="1.0" encoding="UTF-8" standalone="no"?>
<svg width="500" height="500" viewBox="0 0 2074.000000 2074.000000" xmlns="http://www.w3.org/2000/svg">
<rect x="19.000000" y="19.000000" width="2036.000000" height="2036.000000" fill="black" />
<circle cx="1448.959961" cy="1434.959961" r="19.980000" fill="red">
  <title>Tokyo</title>
</circle><line x1="1632.959961" y1="1906.959961" x2="1448.959961" y2="1434.959961" stroke="red" stroke-width="6.660000" />
<circle cx="1117.959961" cy="640.960022" r="19.980000" fill="red">
  <title>Delhi</title>
</circle><line x1="1448.959961" y1="1434.959961" x2="1117.959961" y2="640.960022" stroke="red" stroke-width="6.660000" />
<circle cx="774.960022" cy="901.960022" r="19.980000" fill="red">
  <title>Shanghai</title>
</circle><line x1="1117.959961" y1="640.960022" x2="774.960022" y2="901.960022" stroke="red" stroke-width="6.660000" />
<circle cx="1268.959961" cy="1216.959961" r="19.980000" fill="red">
  <title>São Paulo</title>
</circle><line x1="774.960022" y1="901.960022" x2="1268.959961" y2="1216.959961" stroke="red" stroke-width="6.660000" />
<circle cx="1632.959961" cy="1906.959961" r="19.980000" fill="red">
  <title>Mexico City</title>
</circle><line x1="1268.959961" y1="1216.959961" x2="1632.959961" y2="1906.959961" stroke="red" stroke-width="6.660000" />
</svg>
