<?xml version="1.0" encoding="UTF-8" standalone="no"?>
<svg width="500" height="500" viewBox="0 0 2074.000000 2074.000000" xmlns="http://www.w3.org/2000/svg">
<rect x="19.000000" y="19.000000" width="2036.000000" height="2036.000000" fill="black" />
<circle cx="1431.959961" cy="685.960022" r="19.980000" fill="red">
  <title>Tokyo</title>
</circle><line x1="1508.959961" y1="167.959991" x2="1431.959961" y2="685.960022" stroke="red" stroke-width="6.660000" />
<circle cx="1512.959961" cy="1137.959961" r="19.980000" fill="red">
  <title>Beijing</title>
</circle><line x1="1431.959961" y1="685.960022" x2="1512.959961" y2="1137.959961" stroke="red" stroke-width="6.660000" />
<circle cx="1379.959961" cy="1941.959961" r="19.980000" fill="red">
  <title>São Paulo</title>
</circle><line x1="1512.959961" y1="1137.959961" x2="1379.959961" y2="1941.959961" stroke="red" stroke-width="6.660000" />
<circle cx="1096.959961" cy="1739.959961" r="19.980000" fill="red">
  <title>Cairo</title>
</circle><line x1="1379.959961" y1="1941.959961" x2="1096.959961" y2="1739.959961" stroke="red" stroke-width="6.660000" />
<circle cx="529.960022" cy="1668.959961" r="19.980000" fill="red">
  <title>Chongqing</title>
</circle><line x1="1096.959961" y1="1739.959961" x2="529.960022" y2="1668.959961" stroke="red" stroke-width="6.660000" />
<circle cx="57.959999" cy="2001.959961" r="19.980000" fill="red">
  <title>Shanghai</title>
</circle><line x1="529.960022" y1="1668.959961" x2="57.959999" y2="2001.959961" stroke="red" stroke-width="6.660000" />
<circle cx="370.959991" cy="1492.959961" r="19.980000" fill="red">
  <title>Dhaka</title>
</circle><line x1="57.959999" y1="2001.959961" x2="370.959991" y2="1492.959961" stroke="red" stroke-width="6.660000" />
<circle cx="319.959991" cy="1417.959961" r="19.980000" fill="red">
  <title>New York</title>
</circle><line x1="370.959991" y1="1492.959961" x2="319.959991" y2="1417.959961" stroke="red" stroke-width="6.660000" />
<circle cx="81.959999" cy="982.960022" r="19.980000" fill="red">
  <title>Mexico City</title>
</circle><line x1="319.959991" y1="1417.959961" x2="81.959999" y2="982.960022" stroke="red" stroke-width="6.660000" />
<circle cx="61.959999" cy="493.959991" r="19.980000" fill="red">
  <title>Karachi</title>
</circle><line x1="81.959999" y1="982.960022" x2="61.959999" y2="493.959991" stroke="red" stroke-width="6.660000" />
<circle cx="439.959991" cy="797.960022" r="19.980000" fill="red">
  <title>Buenos Aires</title>
</circle><line x1="61.959999" y1="493.959991" x2="439.959991" y2="797.960022" stroke="red" stroke-width="6.660000" />
<circle cx="1047.959961" cy="1093.959961" r="19.980000" fill="red">
  <title>Delhi</title>
</circle><line x1="439.959991" y1="797.960022" x2="1047.959961" y2="1093.959961" stroke="red" stroke-width="6.660000" />
<circle cx="1032.959961" cy="888.960022" r="19.980000" fill="red">
  <title>Istanbul</title>
</circle><line x1="1047.959961" y1="1093.959961" x2="1032.959961" y2="888.960022" stroke="red" stroke-width="6.660000" />
<circle cx="1163.959961" cy="687.960022" r="19.980000" fill="red">
  <title>Mumbai</title>
</circle><line x1="1032.959961" y1="888.960022" x2="1163.959961" y2="687.960022" stroke="red" stroke-width="6.660000" />
<circle cx="1508.959961" cy="167.959991" r="19.980000" fill="red">
  <title>Osaka</title>
</circle><line x1="1163.959961" y1="687.960022" x2="1508.959961" y2="167.959991" stroke="red" stroke-width="6.660000" />
</svg>
