<?xml version="1.0" encoding="UTF-8" standalone="no"?>
<svg width="500" height="500" viewBox="0 0 2074.000000 2074.000000" xmlns="http://www.w3.org/2000/svg">
<rect x="19.000000" y="19.000000" width="2036.000000" height="2036.000000" fill="black" />
<circle cx="1520.959961" cy="1408.959961" r="19.980000" fill="red">
  <title>Tokyo</title>
</circle><line x1="1383.959961" y1="1995.959961" x2="1520.959961" y2="1408.959961" stroke="red" stroke-width="6.660000" />
<circle cx="1478.959961" cy="1216.959961" r="19.980000" fill="red">
  <title>Shanghai</title>
</circle><line x1="1520.959961" y1="1408.959961" x2="1478.959961" y2="1216.959961" stroke="red" stroke-width="6.660000" />
<circle cx="1396.959961" cy="1102.959961" r="19.980000" fill="red">
  <title>New York</title>
</circle><line x1="1478.959961" y1="1216.959961" x2="1396.959961" y2="1102.959961" stroke="red" stroke-width="6.660000" />
<circle cx="1755.959961" cy="980.960022" r="19.980000" fill="red">
  <title>Delhi</title>
</circle><line x1="1396.959961" y1="1102.959961" x2="1755.959961" y2="980.960022" stroke="red" stroke-width="6.660000" />
<circle cx="1402.959961" cy="647.960022" r="19.980000" fill="red">
  <title>Chongqing</title>
</circle><line x1="1755.959961" y1="980.960022" x2="1402.959961" y2="647.960022" stroke="red" stroke-width="6.660000" />
<circle cx="1340.959961" cy="52.959999" r="19.980000" fill="red">
  <title>Istanbul</title>
</circle><line x1="1402.959961" y1="647.960022" x2="1340.959961" y2="52.959999" stroke="red" stroke-width="6.660000" />
<circle cx="639.960022" cy="338.959991" r="19.980000" fill="red">
  <title>Cairo</title>
</circle><line x1="1340.959961" y1="52.959999" x2="639.960022" y2="338.959991" stroke="red" stroke-width="6.660000" />
<circle cx="148.959991" cy="822.960022" r="19.980000" fill="red">
  <title>Kolkata</title>
</circle><line x1="639.960022" y1="338.959991" x2="148.959991" y2="822.960022" stroke="red" stroke-width="6.660000" />
<circle cx="534.960022" cy="1216.959961" r="19.980000" fill="red">
  <title>Dhaka</title>
</circle><line x1="148.959991" y1="822.960022" x2="534.960022" y2="1216.959961" stroke="red" stroke-width="6.660000" />
<circle cx="549.960022" cy="1295.959961" r="19.980000" fill="red">
  <title>São Paulo</title>
</circle><line x1="534.960022" y1="1216.959961" x2="549.960022" y2="1295.959961" stroke="red" stroke-width="6.660000" />
<circle cx="238.959991" cy="1803.959961" r="19.980000" fill="red">
  <title>Mumbai</title>
</circle><line x1="549.960022" y1="1295.959961" x2="238.959991" y2="1803.959961" stroke="red" stroke-width="6.660000" />
<circle cx="578.960022" cy="1379.959961" r="19.980000" fill="red">
  <title>Beijing</title>
</circle><line x1="238.959991" y1="1803.959961" x2="578.960022" y2="1379.959961" stroke="red" stroke-width="6.660000" />
<circle cx="723.960022" cy="1375.959961" r="19.980000" fill="red">
  <title>Mexico City</title>
</circle><line x1="578.960022" y1="1379.959961" x2="723.960022" y2="1375.959961" stroke="red" stroke-width="6.660000" />
<circle cx="872.960022" cy="1566.959961" r="19.980000" fill="red">
  <title>Buenos Aires</title>
</circle><line x1="723.960022" y1="1375.959961" x2="872.960022" y2="1566.959961" stroke="red" stroke-width="6.660000" />
<circle cx="1191.959961" cy="1362.959961" r="19.980000" fill="red">
  <title>Karachi</title>
</circle><line x1="872.960022" y1="1566.959961" x2="1191.959961" y2="1362.959961" stroke="red" stroke-width="6.660000" />
<circle cx="1383.959961" cy="1995.959961" r="19.980000" fill="red">
  <title>Osaka</title>
</circle><line x1="1191.959961" y1="1362.959961" x2="1383.959961" y2="1995.959961" stroke="red" stroke-width="6.660000" />
</svg>
