<?xml version="1.0" encoding="UTF-8" standalone="no"?>
<svg width="500" height="500" viewBox="0 0 2074.000000 2074.000000" xmlns="http://www.w3.org/2000/svg">
<rect x="19.000000" y="19.000000" width="2036.000000" height="2036.000000" fill="black" />
<circle cx="1813.959961" cy="1725.959961" r="19.980000" fill="red">
  <title>Tokyo</title>
</circle><line x1="1298.959961" y1="1986.959961" x2="1813.959961" y2="1725.959961" stroke="red" stroke-width="6.660000" />
<circle cx="1544.959961" cy="1087.959961" r="19.980000" fill="red">
  <title>Beijing</title>
</circle><line x1="1813.959961" y1="1725.959961" x2="1544.959961" y2="1087.959961" stroke="red" stroke-width="6.660000" />
<circle cx="2029.959961" cy="378.959991" r="19.980000" fill="red">
  <title>Delhi</title>
</circle><line x1="1544.959961" y1="1087.959961" x2="2029.959961" y2="378.959991" stroke="red" stroke-width="6.660000" />
<circle cx="1966.959961" cy="347.959991" r="19.980000" fill="red">
  <title>Mexico City</title>
</circle><line x1="2029.959961" y1="378.959991" x2="1966.959961" y2="347.959991" stroke="red" stroke-width="6.660000" />
<circle cx="625.960022" cy="234.959991" r="19.980000" fill="red">
  <title>Osaka</title>
</circle><line x1="1966.959961" y1="347.959991" x2="625.960022" y2="234.959991" stroke="red" stroke-width="6.660000" />
<circle cx="161.959991" cy="508.959991" r="19.980000" fill="red">
  <title>Cairo</title>
</circle><line x1="625.960022" y1="234.959991" x2="161.959991" y2="508.959991" stroke="red" stroke-width="6.660000" />
<circle cx="77.959999" cy="482.959991" r="19.980000" fill="red">
  <title>Dhaka</title>
</circle><line x1="161.959991" y1="508.959991" x2="77.959999" y2="482.959991" stroke="red" stroke-width="6.660000" />
<circle cx="271.959991" cy="980.960022" r="19.980000" fill="red">
  <title>Mumbai</title>
</circle><line x1="77.959999" y1="482.959991" x2="271.959991" y2="980.960022" stroke="red" stroke-width="6.660000" />
<circle cx="214.959991" cy="1430.959961" r="19.980000" fill="red">
  <title>New York</title>
</circle><line x1="271.959991" y1="980.960022" x2="214.959991" y2="1430.959961" stroke="red" stroke-width="6.660000" />
<circle cx="145.959991" cy="1830.959961" r="19.980000" fill="red">
  <title>São Paulo</title>
</circle><line x1="214.959991" y1="1430.959961" x2="145.959991" y2="1830.959961" stroke="red" stroke-width="6.660000" />
<circle cx="753.960022" cy="1293.959961" r="19.980000" fill="red">
  <title>Shanghai</title>
</circle><line x1="145.959991" y1="1830.959961" x2="753.960022" y2="1293.959961" stroke="red" stroke-width="6.660000" />
<circle cx="1298.959961" cy="1986.959961" r="19.980000" fill="red">
  <title>Karachi</title>
</circle><line x1="753.960022" y1="1293.959961" x2="1298.959961" y2="1986.959961" stroke="red" stroke-width="6.660000" />
</svg>
