<?xml version="1.0" encoding="UTF-8" standalone="no"?>
<svg width="500" height="500" viewBox="0 0 2074.000000 2074.000000" xmlns="http://www.w3.org/2000/svg">
<rect x="19.000000" y="19.000000" width="2036.000000" height="2036.000000" fill="black" />
<circle cx="1956.959961" cy="214.959991" r="19.980000" fill="red">
  <title>Tokyo</title>
</circle><line x1="1944.959961" y1="221.959991" x2="1956.959961" y2="214.959991" stroke="red" stroke-width="6.660000" />
<circle cx="1411.959961" cy="40.959999" r="19.980000" fill="red">
  <title>Karachi</title>
</circle><line x1="1956.959961" y1="214.959991" x2="1411.959961" y2="40.959999" stroke="red" stroke-width="6.660000" />
<circle cx="1297.959961" cy="232.959991" r="19.980000" fill="red">
  <title>Beijing</title>
</circle><line x1="1411.959961" y1="40.959999" x2="1297.959961" y2="232.959991" stroke="red" stroke-width="6.660000" />
<circle cx="244.959991" cy="245.959991" r="19.980000" fill="red">
  <title>Cairo</title>
</circle><line x1="1297.959961" y1="232.959991" x2="244.959991" y2="245.959991" stroke="red" stroke-width="6.660000" />
<circle cx="205.959991" cy="225.959991" r="19.980000" fill="red">
  <title>Mexico City</title>
</circle><line x1="244.959991" y1="245.959991" x2="205.959991" y2="225.959991" stroke="red" stroke-width="6.660000" />
<circle cx="957.960022" cy="815.960022" r="19.980000" fill="red">
  <title>Osaka</title>
</circle><line x1="205.959991" y1="225.959991" x2="957.960022" y2="815.960022" stroke="red" stroke-width="6.660000" />
<circle cx="978.960022" cy="931.960022" r="19.980000" fill="red">
  <title>New York</title>
</circle><line x1="957.960022" y1="815.960022" x2="978.960022" y2="931.960022" stroke="red" stroke-width="6.660000" />
<circle cx="794.960022" cy="1305.959961" r="19.980000" fill="red">
  <title>São Paulo</title>
</circle><line x1="978.960022" y1="931.960022" x2="794.960022" y2="1305.959961" stroke="red" stroke-width="6.660000" />
<circle cx="822.960022" cy="1535.959961" r="19.980000" fill="red">
  <title>Buenos Aires</title>
</circle><line x1="794.960022" y1="1305.959961" x2="822.960022" y2="1535.959961" stroke="red" stroke-width="6.660000" />
<circle cx="118.959999" cy="1686.959961" r="19.980000" fill="red">
  <title>Dhaka</title>
</circle><line x1="822.960022" y1="1535.959961" x2="118.959999" y2="1686.959961" stroke="red" stroke-width="6.660000" />
<circle cx="493.959991" cy="2035.959961" r="19.980000" fill="red">
  <title>Shanghai</title>
</circle><line x1="118.959999" y1="1686.959961" x2="493.959991" y2="2035.959961" stroke="red" stroke-width="6.660000" />
<circle cx="1316.959961" cy="1832.959961" r="19.980000" fill="red">
  <title>Mumbai</title>
</circle><line x1="493.959991" y1="2035.959961" x2="1316.959961" y2="1832.959961" stroke="red" stroke-width="6.660000" />
<circle cx="1479.959961" cy="892.960022" r="19.980000" fill="red">
  <title>Delhi</title>
</circle><line x1="1316.959961" y1="1832.959961" x2="1479.959961" y2="892.960022" stroke="red" stroke-width="6.660000" />
<circle cx="1944.959961" cy="221.959991" r="19.980000" fill="red">
  <title>Chongqing</title>
</circle><line x1="1479.959961" y1="892.960022" x2="1944.959961" y2="221.959991" stroke="red" stroke-width="6.660000" />
</svg>
