<?xml version="1.0" encoding="UTF-8" standalone="no"?>
<svg width="500" height="500" viewBox="0 0 2074.000000 2074.000000" xmlns="http://www.w3.org/2000/svg">
<rect x="19.000000" y="19.000000" width="2036.000000" height="2036.000000" fill="black" />
<circle cx="1598.959961" cy="1136.959961" r="19.980000" fill="red">
  <title>Tokyo</title>
</circle><line x1="2031.959961" y1="787.960022" x2="1598.959961" y2="1136.959961" stroke="red" stroke-width="6.660000" />
<circle cx="981.960022" cy="1062.959961" r="19.980000" fill="red">
  <title>Delhi</title>
</circle><line x1="1598.959961" y1="1136.959961" x2="981.960022" y2="1062.959961" stroke="red" stroke-width="6.660000" />
<circle cx="741.960022" cy="1559.959961" r="19.980000" fill="red">
  <title>Dhaka</title>
</circle><line x1="981.960022" y1="1062.959961" x2="741.960022" y2="1559.959961" stroke="red" stroke-width="6.660000" />
<circle cx="762.960022" cy="1605.959961" r="19.980000" fill="red">
  <title>Mexico City</title>
</circle><line x1="741.960022" y1="1559.959961" x2="762.960022" y2="1605.959961" stroke="red" stroke-width="6.660000" />
<circle cx="327.959991" cy="1966.959961" r="19.980000" fill="red">
  <title>Beijing</title>
</circle><line x1="762.960022" y1="1605.959961" x2="327.959991" y2="1966.959961" stroke="red" stroke-width="6.660000" />
<circle cx="117.959999" cy="1762.959961" r="19.980000" fill="red">
  <title>Shanghai</title>
</circle><line x1="327.959991" y1="1966.959961" x2="117.959999" y2="1762.959961" stroke="red" stroke-width="6.660000" />
<circle cx="313.959991" cy="1602.959961" r="19.980000" fill="red">
  <title>Osaka</title>
</circle><line x1="117.959999" y1="1762.959961" x2="313.959991" y2="1602.959961" stroke="red" stroke-width="6.660000" />
<circle cx="145.959991" cy="1066.959961" r="19.980000" fill="red">
  <title>São Paulo</title>
</circle><line x1="313.959991" y1="1602.959961" x2="145.959991" y2="1066.959961" stroke="red" stroke-width="6.660000" />
<circle cx="949.960022" cy="304.959991" r="19.980000" fill="red">
  <title>Mumbai</title>
</circle><line x1="145.959991" y1="1066.959961" x2="949.960022" y2="304.959991" stroke="red" stroke-width="6.660000" />
<circle cx="2031.959961" cy="787.960022" r="19.980000" fill="red">
  <title>Cairo</title>
</circle><line x1="949.960022" y1="304.959991" x2="2031.959961" y2="787.960022" stroke="red" stroke-width="6.660000" />
</svg>
