<?xml version="1.0" encoding="UTF-8" standalone="no"?>
<svg width="500" height="500" viewBox="0 0 2074.000000 2074.000000" xmlns="http://www.w3.org/2000/svg">
<rect x="19.000000" y="19.000000" width="2036.000000" height="2036.000000" fill="black" />
<circle cx="735.960022" cy="1825.959961" r="19.980000" fill="red">
  <title>Tokyo</title>
</circle><line x1="887.960022" y1="1591.959961" x2="735.960022" y2="1825.959961" stroke="red" stroke-width="6.660000" />
<circle cx="158.959991" cy="1426.959961" r="19.980000" fill="red">
  <title>São Paulo</title>
</circle><line x1="735.960022" y1="1825.959961" x2="158.959991" y2="1426.959961" stroke="red" stroke-width="6.660000" />
<circle cx="602.960022" cy="933.960022" r="19.980000" fill="red">
  <title>Mumbai</title>
</circle><line x1="158.959991" y1="1426.959961" x2="602.960022" y2="933.960022" stroke="red" stroke-width="6.660000" />
<circle cx="334.959991" cy="129.959991" r="19.980000" fill="red">
  <title>Chongqing</title>
</circle><line x1="602.960022" y1="933.960022" x2="334.959991" y2="129.959991" stroke="red" stroke-width="6.660000" />
<circle cx="1048.959961" cy="510.959991" r="19.980000" fill="red">
  <title>Shanghai</title>
</circle><line x1="334.959991" y1="129.959991" x2="1048.959961" y2="510.959991" stroke="red" stroke-width="6.660000" />
<circle cx="1134.959961" cy="174.959991" r="19.980000" fill="red">
  <title>New York</title>
</circle><line x1="1048.959961" y1="510.959991" x2="1134.959961" y2="174.959991" stroke="red" stroke-width="6.660000" />
<circle cx="1884.959961" cy="317.959991" r="19.980000" fill="red">
  <title>Osaka</title>
</circle><line x1="1134.959961" y1="174.959991" x2="1884.959961" y2="317.959991" stroke="red" stroke-width="6.660000" />
<circle cx="1784.959961" cy="394.959991" r="19.980000" fill="red">
  <title>Beijing</title>
</circle><line x1="1884.959961" y1="317.959991" x2="1784.959961" y2="394.959991" stroke="red" stroke-width="6.660000" />
<circle cx="1446.959961" cy="1409.959961" r="19.980000" fill="red">
  <title>Delhi</title>
</circle><line x1="1784.959961" y1="394.959991" x2="1446.959961" y2="1409.959961" stroke="red" stroke-width="6.660000" />
<circle cx="1727.959961" cy="1664.959961" r="19.980000" fill="red">
  <title>Buenos Aires</title>
</circle><line x1="1446.959961" y1="1409.959961" x2="1727.959961" y2="1664.959961" stroke="red" stroke-width="6.660000" />
<circle cx="1457.959961" cy="1903.959961" r="19.980000" fill="red">
  <title>Cairo</title>
</circle><line x1="1727.959961" y1="1664.959961" x2="1457.959961" y2="1903.959961" stroke="red" stroke-width="6.660000" />
<circle cx="1456.959961" cy="1449.959961" r="19.980000" fill="red">
  <title>Dhaka</title>
</circle><line x1="1457.959961" y1="1903.959961" x2="1456.959961" y2="1449.959961" stroke="red" stroke-width="6.660000" />
<circle cx="1198.959961" cy="1369.959961" r="19.980000" fill="red">
  <title>Karachi</title>
</circle><line x1="1456.959961" y1="1449.959961" x2="1198.959961" y2="1369.959961" stroke="red" stroke-width="6.660000" />
<circle cx="815.960022" cy="1477.959961" r="19.980000" fill="red">
  <title>Istanbul</title>
</circle><line x1="1198.959961" y1="1369.959961" x2="815.960022" y2="1477.959961" stroke="red" stroke-width="6.660000" />
<circle cx="887.960022" cy="1591.959961" r="19.980000" fill="red">
  <title>Mexico City</title>
</circle><line x1="815.960022" y1="1477.959961" x2="887.960022" y2="1591.959961" stroke="red" stroke-width="6.660000" />
</svg>
