<?xml version="1.0" encoding="UTF-8" standalone="no"?>
<svg width="500" height="500" viewBox="0 0 2074.000000 2074.000000" xmlns="http://www.w3.org/2000/svg">
<rect x="19.000000" y="19.000000" width="2036.000000" height="2036.000000" fill="black" />
<circle cx="1792.959961" cy="1598.959961" r="19.980000" fill="red">
  <title>Tokyo</title>
</circle><line x1="2024.959961" y1="1346.959961" x2="1792.959961" y2="1598.959961" stroke="red" stroke-width="6.660000" />
<circle cx="1547.959961" cy="1787.959961" r="19.980000" fill="red">
  <title>Mumbai</title>
</circle><line x1="1792.959961" y1="1598.959961" x2="1547.959961" y2="1787.959961" stroke="red" stroke-width="6.660000" />
<circle cx="1434.959961" cy="1522.959961" r="19.980000" fill="red">
  <title>Dhaka</title>
</circle><line x1="1547.959961" y1="1787.959961" x2="1434.959961" y2="1522.959961" stroke="red" stroke-width="6.660000" />
<circle cx="675.960022" cy="1417.959961" r="19.980000" fill="red">
  <title>Delhi</title>
</circle><line x1="1434.959961" y1="1522.959961" x2="675.960022" y2="1417.959961" stroke="red" stroke-width="6.660000" />
<circle cx="440.959991" cy="1327.959961" r="19.980000" fill="red">
  <title>Cairo</title>
</circle><line x1="675.960022" y1="1417.959961" x2="440.959991" y2="1327.959961" stroke="red" stroke-width="6.660000" />
<circle cx="325.959991" cy="936.960022" r="19.980000" fill="red">
  <title>Beijing</title>
</circle><line x1="440.959991" y1="1327.959961" x2="325.959991" y2="936.960022" stroke="red" stroke-width="6.660000" />
<circle cx="436.959991" cy="776.960022" r="19.980000" fill="red">
  <title>São Paulo</title>
</circle><line x1="325.959991" y1="936.960022" x2="436.959991" y2="776.960022" stroke="red" stroke-width="6.660000" />
<circle cx="1049.959961" cy="854.960022" r="19.980000" fill="red">
  <title>New York</title>
</circle><line x1="436.959991" y1="776.960022" x2="1049.959961" y2="854.960022" stroke="red" stroke-width="6.660000" />
<circle cx="1033.959961" cy="164.959991" r="19.980000" fill="red">
  <title>Osaka</title>
</circle><line x1="1049.959961" y1="854.960022" x2="1033.959961" y2="164.959991" stroke="red" stroke-width="6.660000" />
<circle cx="1413.959961" cy="406.959991" r="19.980000" fill="red">
  <title>Shanghai</title>
</circle><line x1="1033.959961" y1="164.959991" x2="1413.959961" y2="406.959991" stroke="red" stroke-width="6.660000" />
<circle cx="1493.959961" cy="786.960022" r="19.980000" fill="red">
  <title>Mexico City</title>
</circle><line x1="1413.959961" y1="406.959991" x2="1493.959961" y2="786.960022" stroke="red" stroke-width="6.660000" />
<circle cx="2024.959961" cy="1346.959961" r="19.980000" fill="red">
  <title>Karachi</title>
</circle><line x1="1493.959961" y1="786.960022" x2="2024.959961" y2="1346.959961" stroke="red" stroke-width="6.660000" />
</svg>
