<?xml version="1.0" encoding="UTF-8" standalone="no"?>
<svg width="500" height="500" viewBox="0 0 2074.000000 2074.000000" xmlns="http://www.w3.org/2000/svg">
<rect x="19.000000" y="19.000000" width="2036.000000" height="2036.000000" fill="black" />
<circle cx="414.959991" cy="363.959991" r="19.980000" fill="red">
  <title>Tokyo</title>
</circle><line x1="704.960022" y1="672.960022" x2="414.959991" y2="363.959991" stroke="red" stroke-width="6.660000" />
<circle cx="508.959991" cy="256.959991" r="19.980000" fill="red">
  <title>Delhi</title>
</circle><line x1="414.959991" y1="363.959991" x2="508.959991" y2="256.959991" stroke="red" stroke-width="6.660000" />
<circle cx="906.960022" cy="45.959999" r="19.980000" fill="red">
  <title>São Paulo</title>
</circle><line x1="508.959991" y1="256.959991" x2="906.960022" y2="45.959999" stroke="red" stroke-width="6.660000" />
<circle cx="1806.959961" cy="701.960022" r="19.980000" fill="red">
  <title>Beijing</title>
</circle><line x1="906.960022" y1="45.959999" x2="1806.959961" y2="701.960022" stroke="red" stroke-width="6.660000" />
<circle cx="1196.959961" cy="981.960022" r="19.980000" fill="red">
  <title>Shanghai</title>
</circle><line x1="1806.959961" y1="701.960022" x2="1196.959961" y2="981.960022" stroke="red" stroke-width="6.660000" />
<circle cx="1156.959961" cy="1036.959961" r="19.980000" fill="red">
  <title>Mexico City</title>
</circle><line x1="1196.959961" y1="981.960022" x2="1156.959961" y2="1036.959961" stroke="red" stroke-width="6.660000" />
<circle cx="1700.959961" cy="1842.959961" r="19.980000" fill="red">
  <title>New York</title>
</circle><line x1="1156.959961" y1="1036.959961" x2="1700.959961" y2="1842.959961" stroke="red" stroke-width="6.660000" />
<circle cx="969.960022" cy="2024.959961" r="19.980000" fill="red">
  <title>Mumbai</title>
</circle><line x1="1700.959961" y1="1842.959961" x2="969.960022" y2="2024.959961" stroke="red" stroke-width="6.660000" />
<circle cx="518.960022" cy="1887.959961" r="19.980000" fill="red">
  <title>Osaka</title>
</circle><line x1="969.960022" y1="2024.959961" x2="518.960022" y2="1887.959961" stroke="red" stroke-width="6.660000" />
<circle cx="820.960022" cy="981.960022" r="19.980000" fill="red">
  <title>Cairo</title>
</circle><line x1="518.960022" y1="1887.959961" x2="820.960022" y2="981.960022" stroke="red" stroke-width="6.660000" />
<circle cx="704.960022" cy="672.960022" r="19.980000" fill="red">
  <title>Dhaka</title>
</circle><line x1="820.960022" y1="981.960022" x2="704.960022" y2="672.960022" stroke="red" stroke-width="6.660000" />
</svg>
