<?xml version="1.0" encoding="UTF-8" standalone="no"?>
<svg width="500" height="500" viewBox="0 0 2074.000000 2074.000000" xmlns="http://www.w3.org/2000/svg">
<rect x="19.000000" y="19.000000" width="2036.000000" height="2036.000000" fill="black" />
<circle cx="272.959991" cy="419.959991" r="19.980000" fill="red">
  <title>Tokyo</title>
</circle><line x1="652.960022" y1="437.959991" x2="272.959991" y2="419.959991" stroke="red" stroke-width="6.660000" />
<circle cx="398.959991" cy="476.959991" r="19.980000" fill="red">
  <title>Dhaka</title>
</circle><line x1="272.959991" y1="419.959991" x2="398.959991" y2="476.959991" stroke="red" stroke-width="6.660000" />
<circle cx="663.960022" cy="840.960022" r="19.980000" fill="red">
  <title>Shanghai</title>
</circle><line x1="398.959991" y1="476.959991" x2="663.960022" y2="840.960022" stroke="red" stroke-width="6.660000" />
<circle cx="175.959991" cy="1188.959961" r="19.980000" fill="red">
  <title>Mexico City</title>
</circle><line x1="663.960022" y1="840.960022" x2="175.959991" y2="1188.959961" stroke="red" stroke-width="6.660000" />
<circle cx="363.959991" cy="1532.959961" r="19.980000" fill="red">
  <title>São Paulo</title>
</circle><line x1="175.959991" y1="1188.959961" x2="363.959991" y2="1532.959961" stroke="red" stroke-width="6.660000" />
<circle cx="437.959991" cy="1651.959961" r="19.980000" fill="red">
  <title>Rio de Janeiro</title>
</circle><line x1="363.959991" y1="1532.959961" x2="437.959991" y2="1651.959961" stroke="red" stroke-width="6.660000" />
<circle cx="1226.959961" cy="1868.959961" r="19.980000" fill="red">
  <title>Beijing</title>
</circle><line x1="437.959991" y1="1651.959961" x2="1226.959961" y2="1868.959961" stroke="red" stroke-width="6.660000" />
<circle cx="1619.959961" cy="1634.959961" r="19.980000" fill="red">
  <title>Manila</title>
</circle><line x1="1226.959961" y1="1868.959961" x2="1619.959961" y2="1634.959961" stroke="red" stroke-width="6.660000" />
<circle cx="1611.959961" cy="1586.959961" r="19.980000" fill="red">
  <title>Buenos Aires</title>
</circle><line x1="1619.959961" y1="1634.959961" x2="1611.959961" y2="1586.959961" stroke="red" stroke-width="6.660000" />
<circle cx="1743.959961" cy="1669.959961" r="19.980000" fill="red">
  <title>Mumbai</title>
</circle><line x1="1611.959961" y1="1586.959961" x2="1743.959961" y2="1669.959961" stroke="red" stroke-width="6.660000" />
<circle cx="1919.959961" cy="1559.959961" r="19.980000" fill="red">
  <title>Cairo</title>
</circle><line x1="1743.959961" y1="1669.959961" x2="1919.959961" y2="1559.959961" stroke="red" stroke-width="6.660000" />
<circle cx="1876.959961" cy="1239.959961" r="19.980000" fill="red">
  <title>Istanbul</title>
</circle><line x1="1919.959961" y1="1559.959961" x2="1876.959961" y2="1239.959961" stroke="red" stroke-width="6.660000" />
<circle cx="1663.959961" cy="1256.959961" r="19.980000" fill="red">
  <title>Delhi</title>
</circle><line x1="1876.959961" y1="1239.959961" x2="1663.959961" y2="1256.959961" stroke="red" stroke-width="6.660000" />
<circle cx="1071.959961" cy="1053.959961" r="19.980000" fill="red">
  <title>New York</title>
</circle><line x1="1663.959961" y1="1256.959961" x2="1071.959961" y2="1053.959961" stroke="red" stroke-width="6.660000" />
<circle cx="1481.959961" cy="433.959991" r="19.980000" fill="red">
  <title>Karachi</title>
</circle><line x1="1071.959961" y1="1053.959961" x2="1481.959961" y2="433.959991" stroke="red" stroke-width="6.660000" />
<circle cx="2008.959961" cy="110.959999" r="19.980000" fill="red">
  <title>Kolkata</title>
</circle><line x1="1481.959961" y1="433.959991" x2="2008.959961" y2="110.959999" stroke="red" stroke-width="6.660000" />
<circle cx="1327.959961" cy="245.959991" r="19.980000" fill="red">
  <title>Lagos</title>
</circle><line x1="2008.959961" y1="110.959999" x2="1327.959961" y2="245.959991" stroke="red" stroke-width="6.660000" />
<circle cx="834.960022" cy="133.959991" r="19.980000" fill="red">
  <title>Chongqing</title>
</circle><line x1="1327.959961" y1="245.959991" x2="834.960022" y2="133.959991" stroke="red" stroke-width="6.660000" />
<circle cx="652.960022" cy="437.959991" r="19.980000" fill="red">
  <title>Osaka</title>
</circle><line x1="834.960022" y1="133.959991" x2="652.960022" y2="437.959991" stroke="red" stroke-width="6.660000" />
</svg>
