<?xml version="1.0" encoding="UTF-8" standalone="no"?>
<svg width="500" height="500" viewBox="0 0 2074.000000 2074.000000" xmlns="http://www.w3.org/2000/svg">
<rect x="19.000000" y="19.000000" width="2036.000000" height="2036.000000" fill="black" />
<circle cx="1960.959961" cy="1551.959961" r="19.980000" fill="red">
  <title>Tokyo</title>
</circle><line x1="1895.959961" y1="1476.959961" x2="1960.959961" y2="1551.959961" stroke="red" stroke-width="6.660000" />
<circle cx="1327.959961" cy="1326.959961" r="19.980000" fill="red">
  <title>Cairo</title>
</circle><line x1="1960.959961" y1="1551.959961" x2="1327.959961" y2="1326.959961" stroke="red" stroke-width="6.660000" />
<circle cx="626.960022" cy="2007.959961" r="19.980000" fill="red">
  <title>Shanghai</title>
</circle><line x1="1327.959961" y1="1326.959961" x2="626.960022" y2="2007.959961" stroke="red" stroke-width="6.660000" />
<circle cx="343.959991" cy="1482.959961" r="19.980000" fill="red">
  <title>Mumbai</title>
</circle><line x1="626.960022" y1="2007.959961" x2="343.959991" y2="1482.959961" stroke="red" stroke-width="6.660000" />
<circle cx="517.960022" cy="1121.959961" r="19.980000" fill="red">
  <title>São Paulo</title>
</circle><line x1="343.959991" y1="1482.959961" x2="517.960022" y2="1121.959961" stroke="red" stroke-width="6.660000" />
<circle cx="643.960022" cy="831.960022" r="19.980000" fill="red">
  <title>Dhaka</title>
</circle><line x1="517.960022" y1="1121.959961" x2="643.960022" y2="831.960022" stroke="red" stroke-width="6.660000" />
<circle cx="644.960022" cy="655.960022" r="19.980000" fill="red">
  <title>Delhi</title>
</circle><line x1="643.960022" y1="831.960022" x2="644.960022" y2="655.960022" stroke="red" stroke-width="6.660000" />
<circle cx="1671.959961" cy="251.959991" r="19.980000" fill="red">
  <title>Mexico City</title>
</circle><line x1="644.960022" y1="655.960022" x2="1671.959961" y2="251.959991" stroke="red" stroke-width="6.660000" />
<circle cx="1895.959961" cy="1476.959961" r="19.980000" fill="red">
  <title>Beijing</title>
</circle><line x1="1671.959961" y1="251.959991" x2="1895.959961" y2="1476.959961" stroke="red" stroke-width="6.660000" />
</svg>
