<?xml version="1.0" encoding="UTF-8" standalone="no"?>
<svg width="500" height="500" viewBox="0 0 2074.000000 2074.000000" xmlns="http://www.w3.org/2000/svg">
<rect x="19.000000" y="19.000000" width="2036.000000" height="2036.000000" fill="black" />
<circle cx="1424.959961" cy="1127.959961" r="19.980000" fill="red">
  <title>Tokyo</title>
</circle><line x1="1853.959961" y1="474.959991" x2="1424.959961" y2="1127.959961" stroke="red" stroke-width="6.660000" />
<circle cx="1502.959961" cy="1170.959961" r="19.980000" fill="red">
  <title>Delhi</title>
</circle><line x1="1424.959961" y1="1127.959961" x2="1502.959961" y2="1170.959961" stroke="red" stroke-width="6.660000" />
<circle cx="1723.959961" cy="1506.959961" r="19.980000" fill="red">
  <title>Osaka</title>
</circle><line x1="1502.959961" y1="1170.959961" x2="1723.959961" y2="1506.959961" stroke="red" stroke-width="6.660000" />
<circle cx="1186.959961" cy="1356.959961" r="19.980000" fill="red">
  <title>Mexico City</title>
</circle><line x1="1723.959961" y1="1506.959961" x2="1186.959961" y2="1356.959961" stroke="red" stroke-width="6.660000" />
<circle cx="503.959991" cy="1739.959961" r="19.980000" fill="red">
  <title>São Paulo</title>
</circle><line x1="1186.959961" y1="1356.959961" x2="503.959991" y2="1739.959961" stroke="red" stroke-width="6.660000" />
<circle cx="109.959999" cy="1046.959961" r="19.980000" fill="red">
  <title>Chongqing</title>
</circle><line x1="503.959991" y1="1739.959961" x2="109.959999" y2="1046.959961" stroke="red" stroke-width="6.660000" />
<circle cx="416.959991" cy="540.960022" r="19.980000" fill="red">
  <title>Karachi</title>
</circle><line x1="109.959999" y1="1046.959961" x2="416.959991" y2="540.960022" stroke="red" stroke-width="6.660000" />
<circle cx="100.959999" cy="213.959991" r="19.980000" fill="red">
  <title>Dhaka</title>
</circle><line x1="416.959991" y1="540.960022" x2="100.959999" y2="213.959991" stroke="red" stroke-width="6.660000" />
<circle cx="709.960022" cy="110.959999" r="19.980000" fill="red">
  <title>Shanghai</title>
</circle><line x1="100.959999" y1="213.959991" x2="709.960022" y2="110.959999" stroke="red" stroke-width="6.660000" />
<circle cx="1040.959961" cy="253.959991" r="19.980000" fill="red">
  <title>Mumbai</title>
</circle><line x1="709.960022" y1="110.959999" x2="1040.959961" y2="253.959991" stroke="red" stroke-width="6.660000" />
<circle cx="1603.959961" cy="398.959991" r="19.980000" fill="red">
  <title>New York</title>
</circle><line x1="1040.959961" y1="253.959991" x2="1603.959961" y2="398.959991" stroke="red" stroke-width="6.660000" />
<circle cx="1628.959961" cy="351.959991" r="19.980000" fill="red">
  <title>Beijing</title>
</circle><line x1="1603.959961" y1="398.959991" x2="1628.959961" y2="351.959991" stroke="red" stroke-width="6.660000" />
<circle cx="1754.959961" cy="48.959999" r="19.980000" fill="red">
  <title>Cairo</title>
</circle><line x1="1628.959961" y1="351.959991" x2="1754.959961" y2="48.959999" stroke="red" stroke-width="6.660000" />
<circle cx="1853.959961" cy="474.959991" r="19.980000" fill="red">
  <title>Buenos Aires</title>
</circle><line x1="1754.959961" y1="48.959999" x2="1853.959961" y2="474.959991" stroke="red" stroke-width="6.660000" />
</svg>
