<?xml version="1.0" encoding="UTF-8" standalone="no"?>
<svg width="500" height="500" viewBox="0 0 2074.000000 2074.000000" xmlns="http://www.w3.org/2000/svg">
<rect x="19.000000" y="19.000000" width="2036.000000" height="2036.000000" fill="black" />
<circle cx="939.960022" cy="110.959999" r="19.980000" fill="red">
  <title>Tokyo</title>
</circle><line x1="1919.959961" y1="877.960022" x2="939.960022" y2="110.959999" stroke="red" stroke-width="6.660000" />
<circle cx="101.959999" cy="458.959991" r="19.980000" fill="red">
  <title>Delhi</title>
</circle><line x1="939.960022" y1="110.959999" x2="101.959999" y2="458.959991" stroke="red" stroke-width="6.660000" />
<circle cx="801.960022" cy="1722.959961" r="19.980000" fill="red">
  <title>São Paulo</title>
</circle><line x1="101.959999" y1="458.959991" x2="801.960022" y2="1722.959961" stroke="red" stroke-width="6.660000" />
<circle cx="1000.960022" cy="1200.959961" r="19.980000" fill="red">
  <title>Mexico City</title>
</circle><line x1="801.960022" y1="1722.959961" x2="1000.960022" y2="1200.959961" stroke="red" stroke-width="6.660000" />
<circle cx="1919.959961" cy="877.960022" r="19.980000" fill="red">
  <title>Shanghai</title>
</circle><line x1="1000.960022" y1="1200.959961" x2="1919.959961" y2="877.960022" stroke="red" stroke-width="6.660000" />
</svg>
