<?xml version="1.0" encoding="UTF-8" standalone="no"?>
<svg width="500" height="500" viewBox="0 0 2074.000000 2074.000000" xmlns="http://www.w3.org/2000/svg">
<rect x="19.000000" y="19.000000" width="2036.000000" height="2036.000000" fill="black" />
<circle cx="206.959991" cy="1603.959961" r="19.980000" fill="red">
  <title>Tokyo</title>
</circle><line x1="754.960022" y1="1462.959961" x2="206.959991" y2="1603.959961" stroke="red" stroke-width="6.660000" />
<circle cx="165.959991" cy="1277.959961" r="19.980000" fill="red">
  <title>Mumbai</title>
</circle><line x1="206.959991" y1="1603.959961" x2="165.959991" y2="1277.959961" stroke="red" stroke-width="6.660000" />
<circle cx="629.960022" cy="1112.959961" r="19.980000" fill="red">
  <title>Buenos Aires</title>
</circle><line x1="165.959991" y1="1277.959961" x2="629.960022" y2="1112.959961" stroke="red" stroke-width="6.660000" />
<circle cx="336.959991" cy="590.960022" r="19.980000" fill="red">
  <title>Shanghai</title>
</circle><line x1="629.960022" y1="1112.959961" x2="336.959991" y2="590.960022" stroke="red" stroke-width="6.660000" />
<circle cx="466.959991" cy="135.959991" r="19.980000" fill="red">
  <title>New York</title>
</circle><line x1="336.959991" y1="590.960022" x2="466.959991" y2="135.959991" stroke="red" stroke-width="6.660000" />
<circle cx="980.960022" cy="567.960022" r="19.980000" fill="red">
  <title>Osaka</title>
</circle><line x1="466.959991" y1="135.959991" x2="980.960022" y2="567.960022" stroke="red" stroke-width="6.660000" />
<circle cx="1085.959961" cy="271.959991" r="19.980000" fill="red">
  <title>Dhaka</title>
</circle><line x1="980.960022" y1="567.960022" x2="1085.959961" y2="271.959991" stroke="red" stroke-width="6.660000" />
<circle cx="1774.959961" cy="569.960022" r="19.980000" fill="red">
  <title>Chongqing</title>
</circle><line x1="1085.959961" y1="271.959991" x2="1774.959961" y2="569.960022" stroke="red" stroke-width="6.660000" />
<circle cx="1969.959961" cy="720.960022" r="19.980000" fill="red">
  <title>Cairo</title>
</circle><line x1="1774.959961" y1="569.960022" x2="1969.959961" y2="720.960022" stroke="red" stroke-width="6.660000" />
<circle cx="1554.959961" cy="645.960022" r="19.980000" fill="red">
  <title>Delhi</title>
</circle><line x1="1969.959961" y1="720.960022" x2="1554.959961" y2="645.960022" stroke="red" stroke-width="6.660000" />
<circle cx="1148.959961" cy="1001.960022" r="19.980000" fill="red">
  <title>Mexico City</title>
</circle><line x1="1554.959961" y1="645.960022" x2="1148.959961" y2="1001.960022" stroke="red" stroke-width="6.660000" />
<circle cx="1004.960022" cy="1448.959961" r="19.980000" fill="red">
  <title>Beijing</title>
</circle><line x1="1148.959961" y1="1001.960022" x2="1004.960022" y2="1448.959961" stroke="red" stroke-width="6.660000" />
<circle cx="897.960022" cy="1470.959961" r="19.980000" fill="red">
  <title>Karachi</title>
</circle><line x1="1004.960022" y1="1448.959961" x2="897.960022" y2="1470.959961" stroke="red" stroke-width="6.660000" />
<circle cx="754.960022" cy="1462.959961" r="19.980000" fill="red">
  <title>São Paulo</title>
</circle><line x1="897.960022" y1="1470.959961" x2="754.960022" y2="1462.959961" stroke="red" stroke-width="6.660000" />
</svg>
