<?xml version="1.0" encoding="UTF-8" standalone="no"?>
<svg width="500" height="500" viewBox="0 0 2074.000000 2074.000000" xmlns="http://www.w3.org/2000/svg">
<rect x="19.000000" y="19.000000" width="2036.000000" height="2036.000000" fill="black" />
<circle cx="1551.959961" cy="1888.959961" r="19.980000" fill="red">
  <title>Tokyo</title>
</circle><line x1="909.960022" y1="1112.959961" x2="1551.959961" y2="1888.959961" stroke="red" stroke-width="6.660000" />
<circle cx="915.960022" cy="1362.959961" r="19.980000" fill="red">
  <title>São Paulo</title>
</circle><line x1="1551.959961" y1="1888.959961" x2="915.960022" y2="1362.959961" stroke="red" stroke-width="6.660000" />
<circle cx="705.960022" cy="1149.959961" r="19.980000" fill="red">
  <title>Cairo</title>
</circle><line x1="915.960022" y1="1362.959961" x2="705.960022" y2="1149.959961" stroke="red" stroke-width="6.660000" />
<circle cx="606.960022" cy="76.959999" r="19.980000" fill="red">
  <title>Delhi</title>
</circle><line x1="705.960022" y1="1149.959961" x2="606.960022" y2="76.959999" stroke="red" stroke-width="6.660000" />
<circle cx="1559.959961" cy="342.959991" r="19.980000" fill="red">
  <title>Shanghai</title>
</circle><line x1="606.960022" y1="76.959999" x2="1559.959961" y2="342.959991" stroke="red" stroke-width="6.660000" />
<circle cx="909.960022" cy="1112.959961" r="19.980000" fill="red">
  <title>Mexico City</title>
</circle><line x1="1559.959961" y1="342.959991" x2="909.960022" y2="1112.959961" stroke="red" stroke-width="6.660000" />
</svg>
