<?xml version="1.0" encoding="UTF-8" standalone="no"?>
<svg width="500" height="500" viewBox="0 0 2074.000000 2074.000000" xmlns="http://www.w3.org/2000/svg">
<rect x="19.000000" y="19.000000" width="2036.000000" height="2036.000000" fill="black" />
<circle cx="1072.959961" cy="485.959991" r="19.980000" fill="red">
  <title>Tokyo</title>
</circle><line x1="573.960022" y1="80.959999" x2="1072.959961" y2="485.959991" stroke="red" stroke-width="6.660000" />
<circle cx="1860.959961" cy="96.959999" r="19.980000" fill="red">
  <title>Cairo</title>
</circle><line x1="1072.959961" y1="485.959991" x2="1860.959961" y2="96.959999" stroke="red" stroke-width="6.660000" />
<circle cx="1658.959961" cy="746.960022" r="19.980000" fill="red">
  <title>Mexico City</title>
</circle><line x1="1860.959961" y1="96.959999" x2="1658.959961" y2="746.960022" stroke="red" stroke-width="6.660000" />
<circle cx="1722.959961" cy="768.960022" r="19.980000" fill="red">
  <title>Shanghai</title>
</circle><line x1="1658.959961" y1="746.960022" x2="1722.959961" y2="768.960022" stroke="red" stroke-width="6.660000" />
<circle cx="1940.959961" cy="964.960022" r="19.980000" fill="red">
  <title>Beijing</title>
</circle><line x1="1722.959961" y1="768.960022" x2="1940.959961" y2="964.960022" stroke="red" stroke-width="6.660000" />
<circle cx="1759.959961" cy="1124.959961" r="19.980000" fill="red">
  <title>Mumbai</title>
</circle><line x1="1940.959961" y1="964.960022" x2="1759.959961" y2="1124.959961" stroke="red" stroke-width="6.660000" />
<circle cx="1622.959961" cy="1948.959961" r="19.980000" fill="red">
  <title>Osaka</title>
</circle><line x1="1759.959961" y1="1124.959961" x2="1622.959961" y2="1948.959961" stroke="red" stroke-width="6.660000" />
<circle cx="1220.959961" cy="1135.959961" r="19.980000" fill="red">
  <title>Karachi</title>
</circle><line x1="1622.959961" y1="1948.959961" x2="1220.959961" y2="1135.959961" stroke="red" stroke-width="6.660000" />
<circle cx="1214.959961" cy="894.960022" r="19.980000" fill="red">
  <title>São Paulo</title>
</circle><line x1="1220.959961" y1="1135.959961" x2="1214.959961" y2="894.960022" stroke="red" stroke-width="6.660000" />
<circle cx="869.960022" cy="861.960022" r="19.980000" fill="red">
  <title>Buenos Aires</title>
</circle><line x1="1214.959961" y1="894.960022" x2="869.960022" y2="861.960022" stroke="red" stroke-width="6.660000" />
<circle cx="219.959991" cy="1189.959961" r="19.980000" fill="red">
  <title>Delhi</title>
</circle><line x1="869.960022" y1="861.960022" x2="219.959991" y2="1189.959961" stroke="red" stroke-width="6.660000" />
<circle cx="96.959999" cy="659.960022" r="19.980000" fill="red">
  <title>New York</title>
</circle><line x1="219.959991" y1="1189.959961" x2="96.959999" y2="659.960022" stroke="red" stroke-width="6.660000" />
<circle cx="573.960022" cy="80.959999" r="19.980000" fill="red">
  <title>Dhaka</title>
</circle><line x1="96.959999" y1="659.960022" x2="573.960022" y2="80.959999" stroke="red" stroke-width="6.660000" />
</svg>
