<?xml version="1.0" encoding="UTF-8" standalone="no"?>
<svg width="500" height="500" viewBox="0 0 2074.000000 2074.000000" xmlns="http://www.w3.org/2000/svg">
<rect x="19.000000" y="19.000000" width="2036.000000" height="2036.000000" fill="black" />
<circle cx="1476.959961" cy="140.959991" r="19.980000" fill="red">
  <title>Tokyo</title>
</circle><line x1="1052.959961" y1="304.959991" x2="1476.959961" y2="140.959991" stroke="red" stroke-width="6.660000" />
<circle cx="1626.959961" cy="165.959991" r="19.980000" fill="red">
  <title>Shanghai</title>
</circle><line x1="1476.959961" y1="140.959991" x2="1626.959961" y2="165.959991" stroke="red" stroke-width="6.660000" />
<circle cx="1963.959961" cy="1008.960022" r="19.980000" fill="red">
  <title>Delhi</title>
</circle><line x1="1626.959961" y1="165.959991" x2="1963.959961" y2="1008.960022" stroke="red" stroke-width="6.660000" />
<circle cx="1682.959961" cy="1679.959961" r="19.980000" fill="red">
  <title>New York</title>
</circle><line x1="1963.959961" y1="1008.960022" x2="1682.959961" y2="1679.959961" stroke="red" stroke-width="6.660000" />
<circle cx="1044.959961" cy="2000.959961" r="19.980000" fill="red">
  <title>Mumbai</title>
</circle><line x1="1682.959961" y1="1679.959961" x2="1044.959961" y2="2000.959961" stroke="red" stroke-width="6.660000" />
<circle cx="663.960022" cy="1166.959961" r="19.980000" fill="red">
  <title>Cairo</title>
</circle><line x1="1044.959961" y1="2000.959961" x2="663.960022" y2="1166.959961" stroke="red" stroke-width="6.660000" />
<circle cx="291.959991" cy="1329.959961" r="19.980000" fill="red">
  <title>Dhaka</title>
</circle><line x1="663.960022" y1="1166.959961" x2="291.959991" y2="1329.959961" stroke="red" stroke-width="6.660000" />
<circle cx="587.960022" cy="1069.959961" r="19.980000" fill="red">
  <title>Mexico City</title>
</circle><line x1="291.959991" y1="1329.959961" x2="587.960022" y2="1069.959961" stroke="red" stroke-width="6.660000" />
<circle cx="726.960022" cy="880.960022" r="19.980000" fill="red">
  <title>São Paulo</title>
</circle><line x1="587.960022" y1="1069.959961" x2="726.960022" y2="880.960022" stroke="red" stroke-width="6.660000" />
<circle cx="1016.960022" cy="766.960022" r="19.980000" fill="red">
  <title>Beijing</title>
</circle><line x1="726.960022" y1="880.960022" x2="1016.960022" y2="766.960022" stroke="red" stroke-width="6.660000" />
<circle cx="1052.959961" cy="304.959991" r="19.980000" fill="red">
  <title>Osaka</title>
</circle><line x1="1016.960022" y1="766.960022" x2="1052.959961" y2="304.959991" stroke="red" stroke-width="6.660000" />
</svg>
